%!PS-Adobe-3.0 EPSF-3.0
%%Creator: MATLAB, The MathWorks, Inc. Version 8.1.0.604 (R2013a). Operating System: Microsoft Windows 7.
%%Title: .\AdhesionX_UC_Only_StressStain_Spherical.eps
%%CreationDate: 08/17/2013  13:10:17
%%DocumentNeededFonts: Helvetica-Bold
%%+ Helvetica
%%DocumentProcessColors: Cyan Magenta Yellow Black
%%LanguageLevel: 2
%%Pages: 1
%%BoundingBox:    63    93   577   572
%%EndComments

%%BeginProlog
% MathWorks dictionary
/MathWorks 160 dict begin
% definition operators
/bdef {bind def} bind def
/ldef {load def} bind def
/xdef {exch def} bdef
/xstore {exch store} bdef
% operator abbreviations
/c  /clip ldef
/cc /concat ldef
/cp /closepath ldef
/gr /grestore ldef
/gs /gsave ldef
/mt /moveto ldef
/np /newpath ldef
/cm /currentmatrix ldef
/sm /setmatrix ldef
/rm /rmoveto ldef
/rl /rlineto ldef
/s {show newpath} bdef
/sc {setcmykcolor} bdef
/sr /setrgbcolor ldef
/sg /setgray ldef
/w /setlinewidth ldef
/j /setlinejoin ldef
/cap /setlinecap ldef
/rc {rectclip} bdef
/rf {rectfill} bdef
% page state control
/pgsv () def
/bpage {/pgsv save def} bdef
/epage {pgsv restore} bdef
/bplot /gsave ldef
/eplot {stroke grestore} bdef
% orientation switch
/portraitMode 0 def /landscapeMode 1 def /rotateMode 2 def
% coordinate system mappings
/dpi2point 0 def
% font control
/FontSize 0 def
/FMS {/FontSize xstore findfont [FontSize 0 0 FontSize neg 0 0]
  makefont setfont} bdef
/ISOLatin1Encoding where {pop /WindowsLatin1Encoding 256 array bdef
ISOLatin1Encoding WindowsLatin1Encoding copy pop
/.notdef/.notdef/quotesinglbase/florin/quotedblbase/ellipsis/dagger
/daggerdbl/circumflex/perthousand/Scaron/guilsinglleft/OE/.notdef/.notdef
/.notdef/.notdef/quoteleft/quoteright/quotedblleft/quotedblright/bullet
/endash/emdash/tilde/trademark/scaron/guilsinglright/oe/.notdef/.notdef
/Ydieresis WindowsLatin1Encoding 128 32 getinterval astore pop}
{/WindowsLatin1Encoding StandardEncoding bdef} ifelse
/reencode {exch dup where {pop load} {pop StandardEncoding} ifelse
  exch dup 3 1 roll findfont dup length dict begin
  { 1 index /FID ne {def}{pop pop} ifelse } forall
  /Encoding exch def currentdict end definefont pop} bdef
/isroman {findfont /CharStrings get /Agrave known} bdef
/FMSR {3 1 roll 1 index dup isroman {reencode} {pop pop} ifelse
  exch FMS} bdef
/csm {1 dpi2point div -1 dpi2point div scale neg translate
 dup landscapeMode eq {pop -90 rotate}
  {rotateMode eq {90 rotate} if} ifelse} bdef
% line types: solid, dotted, dashed, dotdash
/SO { [] 0 setdash } bdef
/DO { [.5 dpi2point mul 4 dpi2point mul] 0 setdash } bdef
/DA { [6 dpi2point mul] 0 setdash } bdef
/DD { [.5 dpi2point mul 4 dpi2point mul 6 dpi2point mul 4
  dpi2point mul] 0 setdash } bdef
% macros for lines and objects
/L {lineto stroke} bdef
/MP {3 1 roll moveto 1 sub {rlineto} repeat} bdef
/AP {{rlineto} repeat} bdef
/PDlw -1 def
/W {/PDlw currentlinewidth def setlinewidth} def
/PP {closepath eofill} bdef
/DP {closepath stroke} bdef
/MR {4 -2 roll moveto dup  0 exch rlineto exch 0 rlineto
  neg 0 exch rlineto closepath} bdef
/FR {MR stroke} bdef
/PR {MR fill} bdef
/L1i {{currentfile picstr readhexstring pop} image} bdef
/tMatrix matrix def
/MakeOval {newpath tMatrix currentmatrix pop translate scale
0 0 1 0 360 arc tMatrix setmatrix} bdef
/FO {MakeOval stroke} bdef
/PO {MakeOval fill} bdef
/PD {currentlinewidth 2 div 0 360 arc fill
   PDlw -1 eq not {PDlw w /PDlw -1 def} if} def
/FA {newpath tMatrix currentmatrix pop translate scale
  0 0 1 5 -2 roll arc tMatrix setmatrix stroke} bdef
/PA {newpath tMatrix currentmatrix pop	translate 0 0 moveto scale
  0 0 1 5 -2 roll arc closepath tMatrix setmatrix fill} bdef
/FAn {newpath tMatrix currentmatrix pop translate scale
  0 0 1 5 -2 roll arcn tMatrix setmatrix stroke} bdef
/PAn {newpath tMatrix currentmatrix pop translate 0 0 moveto scale
  0 0 1 5 -2 roll arcn closepath tMatrix setmatrix fill} bdef
/vradius 0 def /hradius 0 def /lry 0 def
/lrx 0 def /uly 0 def /ulx 0 def /rad 0 def
/MRR {/vradius xdef /hradius xdef /lry xdef /lrx xdef /uly xdef
  /ulx xdef newpath tMatrix currentmatrix pop ulx hradius add uly
  vradius add translate hradius vradius scale 0 0 1 180 270 arc 
  tMatrix setmatrix lrx hradius sub uly vradius add translate
  hradius vradius scale 0 0 1 270 360 arc tMatrix setmatrix
  lrx hradius sub lry vradius sub translate hradius vradius scale
  0 0 1 0 90 arc tMatrix setmatrix ulx hradius add lry vradius sub
  translate hradius vradius scale 0 0 1 90 180 arc tMatrix setmatrix
  closepath} bdef
/FRR {MRR stroke } bdef
/PRR {MRR fill } bdef
/MlrRR {/lry xdef /lrx xdef /uly xdef /ulx xdef /rad lry uly sub 2 div def
  newpath tMatrix currentmatrix pop ulx rad add uly rad add translate
  rad rad scale 0 0 1 90 270 arc tMatrix setmatrix lrx rad sub lry rad
  sub translate rad rad scale 0 0 1 270 90 arc tMatrix setmatrix
  closepath} bdef
/FlrRR {MlrRR stroke } bdef
/PlrRR {MlrRR fill } bdef
/MtbRR {/lry xdef /lrx xdef /uly xdef /ulx xdef /rad lrx ulx sub 2 div def
  newpath tMatrix currentmatrix pop ulx rad add uly rad add translate
  rad rad scale 0 0 1 180 360 arc tMatrix setmatrix lrx rad sub lry rad
  sub translate rad rad scale 0 0 1 0 180 arc tMatrix setmatrix
  closepath} bdef
/FtbRR {MtbRR stroke } bdef
/PtbRR {MtbRR fill } bdef
/stri 6 array def /dtri 6 array def
/smat 6 array def /dmat 6 array def
/tmat1 6 array def /tmat2 6 array def /dif 3 array def
/asub {/ind2 exch def /ind1 exch def dup dup
  ind1 get exch ind2 get sub exch } bdef
/tri_to_matrix {
  2 0 asub 3 1 asub 4 0 asub 5 1 asub
  dup 0 get exch 1 get 7 -1 roll astore } bdef
/compute_transform {
  dmat dtri tri_to_matrix tmat1 invertmatrix 
  smat stri tri_to_matrix tmat2 concatmatrix } bdef
/ds {stri astore pop} bdef
/dt {dtri astore pop} bdef
/db {2 copy /cols xdef /rows xdef mul dup 3 mul string
  currentfile 
  3 index 0 eq {/ASCIIHexDecode filter}
  {/ASCII85Decode filter 3 index 2 eq {/RunLengthDecode filter} if }
  ifelse exch readstring pop
  dup 0 3 index getinterval /rbmap xdef
  dup 2 index dup getinterval /gbmap xdef
  1 index dup 2 mul exch getinterval /bbmap xdef pop pop}bdef
/it {gs np dtri aload pop moveto lineto lineto cp c
  cols rows 8 compute_transform 
  rbmap gbmap bbmap true 3 colorimage gr}bdef
/il {newpath moveto lineto stroke}bdef
currentdict end def
%%EndProlog

%%BeginSetup
MathWorks begin

0 cap

end
%%EndSetup

%%Page: 1 1
%%BeginPageSetup
%%PageBoundingBox:    63    93   577   572
MathWorks begin
bpage
%%EndPageSetup

%%BeginObject: obj1
bplot

/dpi2point 8.33333 def
portraitMode 0150 5158 csm

  379   390  4287  3990 rc
84 dict begin %Colortable dictionary
/c0 { 0.000000 0.000000 0.000000 sr} bdef
/c1 { 1.000000 1.000000 1.000000 sr} bdef
/c2 { 0.900000 0.000000 0.000000 sr} bdef
/c3 { 0.000000 0.820000 0.000000 sr} bdef
/c4 { 0.000000 0.000000 0.800000 sr} bdef
/c5 { 0.910000 0.820000 0.320000 sr} bdef
/c6 { 1.000000 0.260000 0.820000 sr} bdef
/c7 { 0.000000 0.820000 0.820000 sr} bdef
c0
1 j
1 sg
   0    0 5001 5001 rf
12.5 w
0 3500 3750 0 0 -3500 750 4000 4 MP
PP
-3750 0 0 3500 3750 0 0 -3500 750 4000 5 MP stroke
gs 750 500 3751 3501 rc
16.6667 w
0 sg
4 1 4 1 4 1 5 0 4 0 5 -1 4 0 4 -1 
5 0 4 3 5 2 4 2 4 -2 5 -2 4 2 5 4 
4 1 4 -1 5 -6 4 -6 4 8 5 1 4 1 5 1 
4 1 4 1 5 1 4 1 5 1 4 1 4 0 5 0 
4 1 5 1 4 1 4 1 5 1 4 -1 5 0 4 0 
4 0 5 1 4 0 5 -1 4 -1 4 -1 5 1 4 1 
5 1 4 1 4 1 5 1 4 1 4 1 5 0 4 -1 
5 0 4 -1 4 -1 5 0 4 0 5 0 4 0 4 -1 
5 -1 4 -2 5 0 4 1 4 0 5 0 4 0 5 -2 
4 1 4 3 5 2 4 0 5 -3 4 -11 4 -5 5 6 
4 10 5 3 4 3 4 1 5 0 4 -3 4 -3 5 1 
4 2 5 1 4 -1 4 -4 5 -3 4 2 5 5 4 3 
4 -7 5 -13 4 -6 5 8 4 10 4 -3 5 -13 4 0 
5 11 4 7 4 1 5 -1 4 -1 5 0 4 1 4 -1 
5 -1 4 0 4 1 5 3 4 1 5 -1 4 -1 4 -1 
5 2 4 2 5 1 4 2 4 0 5 -1 4 -3 5 -1 
4 2 4 7 5 6 4 -3 5 -8 4 -8 4 0 5 6 
4 9 5 4 4 2 4 2 5 2 4 2 5 3 4 3 
4 2 5 3 4 1 4 2 5 1 4 2 5 2 4 2 
4 1 5 2 4 2 5 1 4 -2 4 -2 5 0 4 1 
5 1 4 2 4 3 5 5 4 2 5 2 4 1 4 2 
5 1 4 2 5 1 4 0 4 1 5 1 4 0 5 2 
4 2 4 2 5 1 4 1 4 0 5 1 4 1 5 1 
4 1 4 0 5 1 4 0 5 0 4 0 4 1 5 1 
4 1 5 -1 4 -1 4 -1 5 0 4 0 5 -1 4 0 
4 1 5 1 4 -2 5 -3 4 -1 4 3 5 1 4 -1 
5 2 4 4 4 4 5 2 4 3 4 2 5 2 4 2 
5 2 4 2 4 0 5 1 4 1 5 2 4 2 4 1 
5 0 4 -1 5 2 4 1 4 2 5 3 4 1 5 1 
4 -2 4 -2 5 0 4 4 5 1 4 1 4 4 5 1 
4 -5 5 -5 4 3 4 7 5 1 4 3 4 5 5 1 
4 2 5 1 4 0 4 0 5 1 4 3 5 0 4 -6 
4 -7 5 -1 4 7 5 8 4 3 4 1 5 1 4 1 
5 2 4 2 4 2 5 0 4 1 5 2 4 2 4 0 
5 -1 4 0 5 3 4 2 4 2 5 1 4 1 4 1 
5 3 4 2 5 2 4 0 4 1 5 2 4 1 5 0 
4 2 4 2 5 2 4 -1 5 -2 4 -2 4 1 5 3 
4 2 5 0 4 0 3188 1139 300 MP stroke
4 2 5 -1 4 1 5 1 4 1 4 1 5 -1 4 -1 
4 2 5 5 4 3 5 0 4 0 4 0 5 1 4 2 
5 2 4 3 4 1 5 -1 4 1 5 1 4 2 4 2 
5 0 4 -2 5 -1 4 0 4 2 5 2 4 2 5 0 
4 -1 4 -2 5 0 4 1 5 1 4 0 4 -2 5 -4 
4 -3 4 1 5 3 4 3 5 3 4 1 4 -1 5 -1 
4 2 5 5 4 4 4 -3 5 -8 4 3 5 0 4 -1 
4 -1 5 1 4 0 5 -1 4 0 4 0 5 0 4 1 
5 0 4 -1 4 -1 5 -1 4 0 5 0 4 1 4 1 
5 -1 4 -4 4 -2 5 0 4 2 5 4 4 -2 4 -4 
5 -3 4 0 5 0 4 2 4 4 5 2 4 -2 5 -6 
4 -5 4 1 5 5 4 5 5 2 4 0 4 0 5 0 
4 -2 5 0 4 3 4 5 5 3 4 1 5 0 4 -1 
4 0 5 7 4 4 4 4 5 1 4 1 5 2 4 3 
4 2 5 1 4 1 5 0 4 1 4 3 5 3 4 0 
5 2 4 2 4 1 5 1 4 1 5 0 4 2 4 3 
5 2 4 1 5 2 4 2 4 3 5 2 4 0 5 -2 
4 1 4 3 5 2 4 -2 4 -5 5 0 4 3 5 -1 
4 0 4 1 5 1 4 0 5 0 4 -3 4 -2 5 0 
4 -7 5 -5 4 4 4 6 5 3 4 2 5 1 4 1 
4 -2 5 -2 4 -1 5 1 4 3 4 -1 5 -1 4 -1 
5 1 4 0 4 1 5 0 4 2 4 3 5 1 4 1 
5 -1 4 -1 4 -1 5 1 4 3 5 2 4 0 4 -2 
5 -1 4 1 5 1 4 1 4 1 5 0 4 -1 5 0 
4 0 4 2 5 3 4 1 5 0 4 0 4 1 5 2 
4 2 4 3 5 2 4 2 5 0 4 2 4 3 5 0 
4 0 5 0 4 2 4 1 5 1 4 3 5 5 4 5 
4 -2 5 -7 4 0 5 -1 4 -2 4 2 5 3 4 2 
5 3 4 -1 4 4 5 2 4 4 5 5 4 -2 4 -5 
5 7 4 4 4 2 5 2 4 2 5 2 4 1 4 2 
5 2 4 1 5 2 4 1 4 2 5 2 4 1 5 2 
4 2 4 1 5 3 4 1 5 2 4 0 4 1 5 1 
4 1 5 1 4 0 4 1 5 1 4 0 5 2 4 2 
4 2 5 0 4 -2 4 0 5 1 4 2 5 -1 4 -3 
4 0 5 0 4 -8 5 -8 4 3 4 6 5 0 4 -20 
5 -25 4 13 4 15 5 2 4 0 5 -1 4 -1 4 -1 
5 1 4 -1 5 -3 4 -1 4 -2 5 -5 4 -4 5 1 
4 1 4 -1 5 -11 1874 988 300 MP stroke
4 -9 4 4 5 -1 4 -1 5 -1 4 -2 4 -1 5 -1 
4 -2 5 -1 4 -1 4 -1 5 -1 4 -2 5 -1 4 0 
4 0 5 -1 4 -1 5 -1 4 -3 4 -1 5 0 4 -1 
5 -1 4 0 4 -1 5 -2 4 -1 5 -1 4 -2 4 -3 
5 1 4 1 4 -4 5 -6 4 -1 5 1 4 0 4 -3 
5 -2 4 -2 5 -1 4 -2 4 0 5 0 4 -1 5 -2 
4 -1 4 0 5 -2 4 -2 5 0 4 -1 4 -2 5 -2 
4 -1 5 -2 4 -2 4 -5 5 -4 4 -3 5 0 4 -1 
4 -1 5 -2 4 -2 4 -3 5 -2 4 -3 5 -3 4 -2 
4 -2 5 -1 4 -1 5 -7 4 -7 4 -2 5 -3 4 -2 
5 -3 4 -5 4 -4 5 -3 4 -3 5 -5 4 -5 4 -5 
5 -4 4 -5 5 -5 4 -5 4 -8 5 -8 4 -6 4 -5 
5 -4 4 -7 5 -9 4 -8 4 -5 5 -8 4 -6 5 -5 
4 -10 4 -12 5 -6 4 -6 5 -8 4 -8 4 -9 5 -8 
4 -10 5 -11 4 -10 4 -10 5 -10 4 -11 5 -11 4 -11 
4 -11 5 -13 4 -13 5 -12 4 -13 4 -13 5 -12 4 -12 
4 -13 5 -13 4 -13 5 -15 4 -15 4 -15 5 -14 4 -14 
5 -14 4 -17 4 -18 5 -17 4 -16 5 -17 4 -17 4 -17 
5 -18 4 -19 5 -18 4 -20 4 -19 5 -20 4 -20 5 -20 
4 -20 4 -21 5 -21 4 -20 5 -22 4 -22 4 -22 5 -22 
4 -22 4 -23 5 -23 4 -23 5 -24 4 -24 4 -23 5 -24 
4 -24 5 -25 4 -24 4 -25 5 -25 4 -25 5 -26 4 -26 
4 -26 5 -26 4 -27 5 -27 4 -27 4 -27 5 -27 4 -27 
5 -28 4 -28 4 -27 5 -28 4 -28 5 -28 4 -29 4 -28 
5 -28 4 -28 4 -29 5 -28 4 -29 5 -28 4 -28 4 -28 
5 -28 4 -28 5 -28 4 -27 4 -27 5 -27 4 -26 5 -27 
4 -26 4 -26 5 -25 4 -23 5 -25 4 -24 4 -23 5 -23 
4 -22 5 -23 4 -22 4 -23 5 -21 4 -21 5 -20 4 -20 
4 -20 5 -19 4 -19 4 -17 5 -16 4 -15 5 -15 4 -14 
4 -13 5 -12 4 -12 5 -10 4 -10 4 -10 5 -9 4 -9 
5 -8 4 -7 4 -6 5 -6 4 -5 5 -6 4 -4 4 -4 
5 -4 4 -4 5 -3 4 -3 4 -3 5 -2 4 -3 4 -2 
750 3995 257 MP stroke
gr

16.6667 w
0 sg
0.1 sg
%%IncludeResource: font Helvetica-Bold
/Helvetica-Bold /WindowsLatin1Encoding 183.333 FMSR

2010 4322 mt 
(Vertical Strain) s
 572 3132 mt  -90 rotate
(Vertical Stress [kPa]) s
90 rotate
gs 750 500 3751 3501 rc
/c8 { 1.000000 0.000000 0.000000 sr} bdef
c8
3 7 5 0 4 -1 5 0 4 4 4 3 5 -3 4 -7 
5 -1 4 8 4 7 5 7 4 5 5 -4 4 -6 4 -3 
5 -2 4 1 5 4 4 6 4 -1 5 -9 4 -8 4 -1 
5 7 4 9 5 -2 4 -7 4 -15 5 -17 4 4 5 19 
4 11 4 -1 5 -9 4 -11 5 -3 4 7 4 9 5 -2 
4 -15 5 -26 4 -16 4 7 5 21 4 16 5 9 4 2 
4 -4 5 -6 4 -3 5 -3 4 0 4 9 5 6 4 4 
4 3 5 -3 4 -7 5 -6 4 0 4 1 5 0 4 8 
5 7 4 1 4 -6 5 -4 4 2 5 8 4 5 4 1 
5 -3 4 0 5 7 4 15 4 7 5 -2 4 -6 5 2 
4 -2 4 -3 5 3 4 1 5 -5 4 -6 4 7 5 15 
4 14 4 -3 5 -17 4 -15 5 -1 4 13 4 21 5 12 
4 -1 5 -6 4 -6 4 2 5 9 4 8 5 -4 4 -13 
4 -13 5 -5 4 9 5 17 4 -1 4 -23 5 -39 4 -29 
5 23 4 44 4 16 5 0 4 -6 5 -6 4 -2 4 3 
5 2 4 3 4 2 5 0 4 -4 5 -5 4 -3 4 7 
5 -7 4 -7 5 0 4 5 4 2 5 1 4 6 5 10 
4 5 4 2 5 2 4 6 5 5 4 -1 4 -14 5 -13 
4 2 5 9 4 1 4 -4 5 4 4 8 5 3 4 1 
4 -1 5 -9 4 -4 4 1 5 2 4 4 5 3 4 -2 
4 -7 5 -2 4 -1 5 0 4 2 4 3 5 3 4 4 
5 0 4 -1 4 -1 5 -1 4 -2 5 4 4 2 4 4 
5 3 4 1 5 -1 4 2 4 0 5 -1 4 -1 5 -1 
4 -3 4 8 5 10 4 6 4 -4 5 -8 4 -13 5 3 
4 13 4 8 5 2 4 -3 5 0 4 1 4 -5 5 -9 
4 -13 5 -18 4 -1 4 17 5 20 4 9 5 8 4 5 
4 2 5 -10 4 -13 5 3 4 7 4 3 5 1 4 4 
5 1 4 1 4 5 5 10 4 3 4 -3 5 -9 4 -3 
5 6 4 12 4 6 5 -18 4 -34 5 -22 4 11 4 29 
5 11 4 2 5 -6 4 -4 4 1 5 3 4 0 5 0 
4 -1 4 -3 5 2 4 7 5 4 4 0 4 2 5 -2 
4 -1 5 2 4 0 4 -2 5 2 4 -1 5 1 4 2 
4 -1 5 -13 4 -15 4 -1 5 2 4 6 5 8 4 6 
4 0 5 -7 4 -6 5 -1 4 3 4 6 5 1 4 -9 
5 -3 4 -4 4 5 5 7 4 10 5 4 4 -3 4 -12 
5 -12 4 6 5 13 4 9 4 6 5 2 4 2 5 2 
4 4 4 4 5 3 4 -3 4 -11 5 -6 4 -4 5 10 
4 20 4 13 5 7 3188 1554 300 MP stroke
4 3 5 -1 4 -5 4 0 5 8 4 1 5 -8 4 -11 
4 1 5 12 4 14 5 5 4 -4 4 -8 5 -7 4 4 
5 15 4 13 4 3 5 -8 4 -20 5 -13 4 16 4 31 
5 17 4 12 4 10 5 5 4 2 5 3 4 5 4 5 
5 1 4 1 5 -4 4 -5 4 2 5 3 4 -1 5 0 
4 1 4 3 5 0 4 0 5 0 4 -6 4 -7 5 -4 
4 2 5 -6 4 -7 4 -2 5 1 4 -3 5 3 4 20 
4 5 5 -12 4 -9 4 6 5 15 4 5 5 -7 4 -10 
4 -2 5 9 4 14 5 16 4 3 4 -2 5 -9 4 -11 
5 -3 4 12 4 15 5 1 4 -6 5 4 4 8 4 1 
5 -6 4 -8 5 3 4 18 4 18 5 5 4 -1 5 -8 
4 -12 4 2 5 16 4 11 4 16 5 7 4 4 5 1 
4 5 4 4 5 1 4 4 5 -6 4 -10 4 -9 5 -1 
4 -3 5 2 4 14 4 2 5 -7 4 5 5 -6 4 -3 
4 17 5 9 4 -6 5 -7 4 -7 4 -7 5 4 4 9 
5 6 4 -3 4 -13 5 -15 4 0 4 12 5 18 4 13 
5 4 4 -2 4 -1 5 4 4 4 5 5 4 0 4 -7 
5 -8 4 -2 5 10 4 3 4 -4 5 -5 4 5 5 9 
4 0 4 -2 5 1 4 -4 5 -2 4 5 4 5 5 1 
4 -1 5 3 4 1 4 0 5 -2 4 2 4 -3 5 -11 
4 -2 5 3 4 -3 4 3 5 4 4 -11 5 -22 4 -9 
4 6 5 29 4 26 5 13 4 -5 4 -12 5 -5 4 1 
5 6 4 6 4 -5 5 -9 4 -1 5 -2 4 16 4 15 
5 -4 4 -16 5 -21 4 -5 4 17 5 21 4 13 4 -7 
5 -3 4 5 5 1 4 -6 4 -1 5 5 4 9 5 -2 
4 -10 4 -4 5 14 4 8 5 0 4 -10 4 -10 5 -9 
4 -21 5 -8 4 16 4 16 5 10 4 8 5 0 4 -6 
4 -8 5 1 4 4 5 1 4 -3 4 -4 5 -3 4 -4 
4 -3 5 1 4 -2 5 -5 4 -7 4 -9 5 -13 4 -3 
5 13 4 8 4 -9 5 -14 4 -5 5 6 4 16 4 11 
5 6 4 2 5 -1 4 -9 4 -11 5 8 4 12 5 1 
4 1 4 0 5 -1 4 -1 5 -2 4 -1 4 2 5 3 
4 5 4 3 5 -5 4 -8 5 -1 4 6 4 10 5 6 
4 2 5 -6 4 -7 4 1 5 7 4 6 5 4 4 2 
4 2 5 -6 4 -6 5 9 4 8 4 3 5 -4 4 -10 
5 -6 4 3 4 0 5 -8 4 -6 5 7 4 10 4 -1 
5 -4 4 -1 4 3 5 5 4 0 5 -2 4 -4 4 -1 
5 5 4 3 5 4 1874 1275 300 MP stroke
4 -1 4 -5 5 -9 4 -2 5 5 4 2 4 -3 5 -7 
4 -6 5 10 4 11 4 -4 5 -3 4 3 5 2 4 6 
4 13 5 0 4 -3 5 -3 4 -6 4 5 5 6 4 -1 
4 4 5 7 4 8 5 5 4 -2 4 -4 5 1 4 8 
5 8 4 3 4 -11 5 -18 4 1 5 12 4 5 4 -2 
5 -11 4 -16 5 -8 4 8 4 12 5 3 4 -1 5 -1 
4 -3 4 7 5 -2 4 -7 5 -2 4 -1 4 -4 5 4 
4 2 4 -4 5 -2 4 -2 5 -2 4 -6 4 -7 5 -2 
4 -1 5 -1 4 1 4 -5 5 -5 4 0 5 -1 4 -9 
4 -12 5 -11 4 1 5 7 4 1 4 -5 5 -4 4 -16 
5 -17 4 2 4 2 5 -1 4 2 5 9 4 3 4 -1 
5 -6 4 -6 4 0 5 -2 4 -12 5 1 4 -1 4 -13 
5 -12 4 -12 5 -5 4 -1 4 -3 5 -9 4 -7 5 -9 
4 -9 4 -9 5 -9 4 0 5 6 4 -4 4 -10 5 -5 
4 -5 5 -7 4 -6 4 -11 5 -14 4 -9 5 -6 4 -5 
4 -7 5 -11 4 -11 4 -11 5 -8 4 -5 5 -6 4 -9 
4 -16 5 -19 4 -12 5 -9 4 -7 4 -10 5 -24 4 -25 
5 -12 4 5 4 -14 5 -24 4 -13 5 -14 4 -11 4 -12 
5 -17 4 -17 5 -15 4 -19 4 -18 5 -17 4 -19 5 -17 
4 -19 4 -22 5 -23 4 -18 4 -14 5 -23 4 -23 5 -19 
4 -21 4 -20 5 -16 4 -17 5 -20 4 -19 4 -23 5 -28 
4 -23 5 -20 4 -22 4 -23 5 -24 4 -26 5 -25 4 -22 
4 -23 5 -24 4 -26 5 -25 4 -25 4 -25 5 -25 4 -25 
5 -28 4 -26 4 -26 5 -26 4 -27 4 -26 5 -28 4 -28 
5 -27 4 -27 4 -28 5 -28 4 -29 5 -26 4 -28 4 -28 
5 -28 4 -28 5 -28 4 -27 4 -26 5 -26 4 -27 5 -27 
4 -26 4 -25 5 -25 4 -24 5 -24 4 -24 4 -24 5 -23 
4 -22 5 -22 4 -22 4 -23 5 -22 4 -21 4 -20 5 -20 
4 -20 5 -19 4 -19 4 -18 5 -17 4 -15 5 -15 4 -14 
4 -13 5 -13 4 -12 5 -11 4 -10 4 -10 5 -9 4 -9 
5 -8 4 -8 4 -6 5 -6 4 -6 5 -5 4 -5 4 -4 
5 -4 4 -3 5 -4 4 -3 4 -3 5 -2 4 -3 4 -2 
750 3994 257 MP stroke
/c9 { 0.000000 0.000000 1.000000 sr} bdef
c9
3 19 5 13 4 10 4 17 5 -18 4 -30 5 -14 4 6 
4 0 5 -8 4 1 5 0 4 -10 4 -11 5 -6 4 1 
5 5 4 15 4 1 5 -3 4 9 5 6 4 -15 4 -27 
5 -4 4 17 5 18 4 18 4 2 5 -12 4 -9 4 -4 
5 2 4 13 5 9 4 -11 4 -20 5 -10 4 33 5 29 
4 16 4 -4 5 -23 4 -23 5 -12 4 5 4 14 5 25 
4 6 5 -20 4 -15 4 7 5 6 4 -1 5 -23 4 -31 
4 -25 5 -2 4 18 5 40 4 21 4 3 5 11 4 9 
4 -1 5 4 4 -9 5 -24 4 -20 4 -9 5 -7 4 10 
5 30 4 34 4 8 5 0 4 2 5 -2 4 -13 4 -25 
5 -15 4 17 5 35 4 13 4 -6 5 12 4 -3 5 -22 
4 2 4 24 5 28 4 -2 5 -20 4 -10 4 -9 5 -22 
4 1 4 23 5 20 4 11 5 -6 4 -14 4 -13 5 -10 
4 8 5 15 4 12 4 3 5 -9 4 -29 5 -17 4 9 
4 6 5 -1 4 13 5 7 4 -28 4 -44 5 -33 4 13 
5 33 4 24 4 23 5 9 4 -2 5 -10 4 4 4 0 
5 1 4 8 4 -10 5 -16 4 -14 5 -13 4 -15 4 -7 
5 13 4 26 5 21 4 0 4 -6 5 0 4 9 5 8 
4 -4 4 -8 5 2 4 11 5 -2 4 0 4 5 5 -2 
4 2 5 10 4 7 4 7 5 -9 4 -11 5 -14 4 -3 
4 13 5 3 4 14 5 12 4 -5 4 -4 5 10 4 16 
4 -14 5 -27 4 -1 5 25 4 13 4 1 5 -15 4 -15 
5 -7 4 -6 4 -8 5 4 4 20 5 9 4 -10 4 -25 
5 -7 4 23 5 6 4 -5 4 -8 5 -17 4 -5 5 7 
4 1 4 -7 5 1 4 16 5 9 4 -1 4 11 5 15 
4 13 4 6 5 4 4 3 5 -3 4 -4 4 6 5 7 
4 9 5 16 4 -3 4 -22 5 -27 4 -11 5 13 4 17 
4 13 5 -8 4 5 5 26 4 15 4 -6 5 -9 4 -9 
5 -7 4 4 4 10 5 11 4 1 5 -18 4 -33 4 -13 
5 11 4 10 4 21 5 18 4 -2 5 -20 4 -26 4 -3 
5 -2 4 17 5 7 4 14 4 7 5 -8 4 -17 5 -12 
4 0 4 3 5 -1 4 -5 5 -2 4 4 4 13 5 11 
4 -5 5 -26 4 -29 4 -2 5 17 4 34 5 20 4 2 
4 3 5 -3 4 -2 5 3 4 5 4 8 5 2 4 0 
4 4 5 -7 4 -13 5 -2 4 14 4 10 5 -12 4 -5 
5 9 4 -1 4 0 5 5 4 9 5 -3 4 8 4 32 
5 19 4 -1 5 -5 4 -5 4 -11 5 -6 4 8 5 11 
4 2 4 -2 5 -21 3188 1495 300 MP stroke
4 -25 5 8 4 17 4 6 5 -2 4 -8 4 -2 5 0 
4 6 5 10 4 1 4 -24 5 -31 4 -13 5 10 4 7 
4 15 5 42 4 10 5 -2 4 3 4 -7 5 -7 4 -8 
5 3 4 -1 4 -14 5 -10 4 9 5 9 4 5 4 -7 
5 0 4 9 5 -14 4 -23 4 -9 5 22 4 23 4 11 
5 -9 4 -8 5 -1 4 13 4 19 5 10 4 11 5 -26 
4 -29 4 -2 5 17 4 22 5 13 4 14 4 6 5 17 
4 15 5 2 4 -10 4 -7 5 -11 4 4 5 22 4 17 
4 -12 5 -34 4 -5 5 12 4 17 4 1 5 5 4 8 
4 -16 5 3 4 7 5 -17 4 -19 4 11 5 29 4 0 
5 -10 4 4 4 17 5 15 4 0 5 3 4 10 4 9 
5 -6 4 -13 5 4 4 11 4 15 5 -1 4 -12 5 -5 
4 13 4 26 5 11 4 5 5 -8 4 -14 4 4 5 3 
4 0 5 -1 4 4 4 -6 5 -5 4 -6 4 -19 5 -26 
4 -16 5 26 4 35 4 8 5 -16 4 -12 5 11 4 14 
4 6 5 -1 4 -5 5 -3 4 -11 4 0 5 0 4 -8 
5 -9 4 14 4 12 5 -14 4 -3 5 38 4 25 4 10 
5 -12 4 -11 5 4 4 5 4 -4 5 -9 4 -11 4 -23 
5 -2 4 16 5 5 4 -8 4 3 5 15 4 28 5 14 
4 -13 4 -29 5 18 4 32 5 -8 4 -3 4 13 5 -12 
4 -9 5 12 4 11 4 3 5 -4 4 20 5 8 4 4 
4 2 5 12 4 2 5 -3 4 -19 4 -29 5 -22 4 3 
4 30 5 15 4 -3 5 -1 4 -1 4 -11 5 -14 4 -3 
5 4 4 -6 4 -26 5 -15 4 35 5 43 4 26 4 -3 
5 -5 4 9 5 -3 4 -27 4 -28 5 -18 4 -7 5 18 
4 30 4 18 5 -7 4 -21 5 -9 4 -10 4 -6 5 -2 
4 -2 5 -6 4 -2 4 -2 5 0 4 -4 4 1 5 6 
4 10 5 -2 4 7 4 26 5 16 4 0 5 -26 4 -31 
4 7 5 28 4 10 5 -11 4 20 4 19 5 -5 4 -21 
5 -17 4 3 4 13 5 17 4 -4 5 -15 4 -4 4 16 
5 12 4 21 5 4 4 -5 4 -14 5 -13 4 4 4 3 
5 -14 4 -4 5 30 4 30 4 29 5 21 4 -7 5 -18 
4 -5 4 3 5 -9 4 -4 5 0 4 7 4 5 5 -6 
4 6 5 -4 4 -14 4 -5 5 -13 4 -20 5 -4 4 -6 
4 -11 5 -1 4 -17 5 -17 4 -8 4 -10 5 3 4 13 
4 8 5 9 4 2 5 -3 4 -18 4 -16 5 6 4 18 
5 7 4 -3 4 0 5 17 4 24 5 14 4 1 4 3 
5 6 4 3 5 -8 1874 1184 300 MP stroke
4 -7 4 19 5 18 4 19 5 1 4 -2 4 7 5 -7 
4 -1 5 5 4 5 4 -7 5 -6 4 5 4 -9 5 -18 
4 3 5 12 4 4 4 13 5 -3 4 2 5 14 4 -5 
4 1 5 6 4 -2 5 -12 4 6 4 21 5 3 4 -7 
5 -15 4 -26 4 -18 5 1 4 -25 5 -27 4 -4 4 4 
5 4 4 -10 5 -12 4 -9 4 -9 5 -7 4 -6 5 16 
4 3 4 -6 5 -14 4 -17 4 -5 5 6 4 1 5 -11 
4 -1 4 5 5 -13 4 -11 5 11 4 0 4 -2 5 4 
4 8 5 12 4 -1 4 -23 5 -30 4 2 5 10 4 4 
4 -2 5 -3 4 1 5 -3 4 0 4 -4 5 -10 4 -11 
5 -8 4 21 4 12 5 -6 4 -3 4 5 5 2 4 10 
5 13 4 -15 4 -23 5 2 4 4 5 -6 4 -17 4 -13 
5 -22 4 5 5 18 4 -5 4 -12 5 0 4 -9 5 -13 
4 -9 4 -6 5 -4 4 -31 5 -22 4 10 4 -6 5 -5 
4 3 5 -6 4 -18 4 -7 5 -1 4 -10 4 -21 5 -23 
4 -20 5 4 4 5 4 -8 5 -13 4 -18 5 -11 4 -7 
4 -14 5 -11 4 -6 5 -6 4 -16 4 -23 5 -16 4 -11 
5 -17 4 -7 4 -7 5 -10 4 -22 5 -18 4 -7 4 -20 
5 -18 4 -9 5 -2 4 -14 4 -14 5 -19 4 -25 5 -16 
4 -27 4 -21 5 -12 4 -16 4 -22 5 -19 4 -19 5 -29 
4 -28 4 -17 5 -12 4 -21 5 -24 4 -21 4 -18 5 -25 
4 -26 5 -20 4 -31 4 -27 5 -28 4 -24 5 -16 4 -19 
4 -31 5 -16 4 -19 5 -27 4 -26 4 -27 5 -28 4 -25 
5 -24 4 -28 4 -26 5 -28 4 -24 4 -25 5 -26 4 -31 
5 -28 4 -28 4 -24 5 -26 4 -27 5 -27 4 -28 4 -27 
5 -28 4 -29 5 -27 4 -27 4 -25 5 -27 4 -27 5 -26 
4 -25 4 -24 5 -24 4 -24 5 -25 4 -24 4 -24 5 -24 
4 -22 5 -22 4 -22 4 -23 5 -22 4 -21 4 -21 5 -19 
4 -20 5 -19 4 -20 4 -18 5 -17 4 -16 5 -15 4 -14 
4 -14 5 -13 4 -12 5 -12 4 -10 4 -10 5 -10 4 -8 
5 -9 4 -7 4 -7 5 -6 4 -6 5 -5 4 -5 4 -4 
5 -4 4 -4 5 -3 4 -4 4 -2 5 -3 4 -3 4 -2 
750 3993 257 MP stroke
/c10 { 1.000000 0.000000 1.000000 sr} bdef
c10
1 5 5 -1 4 -18 5 -12 4 -1 4 -17 5 -13 4 -7 
4 -7 5 -28 4 -42 5 -58 4 -27 4 28 5 68 4 22 
5 14 4 34 4 77 5 49 4 16 5 26 4 17 4 -3 
5 -26 4 -10 5 -4 4 -5 4 -16 5 -24 4 -22 5 -31 
4 -6 4 17 5 55 4 52 5 17 4 -11 4 -18 5 -8 
4 1 5 -12 4 -25 4 -23 5 -4 4 1 5 1 4 4 
4 16 5 1 4 9 5 -3 4 3 4 0 5 0 4 -8 
5 -20 4 -35 4 -32 5 3 4 4 5 17 4 13 4 -2 
5 -16 4 -42 4 -10 5 -6 4 -6 5 0 4 13 4 8 
5 14 4 35 5 25 4 34 4 20 5 3 4 -12 5 -27 
4 -20 4 17 5 1 4 -20 5 -18 4 13 4 40 5 56 
4 20 5 15 4 36 4 24 5 0 4 -17 5 -5 4 -9 
4 -24 5 -42 4 -6 5 25 4 -4 4 8 5 17 4 44 
5 27 4 -2 4 -15 5 -15 4 -11 5 5 4 -1 4 -35 
5 -35 4 -11 5 36 4 13 4 22 5 -3 4 8 4 17 
5 6 4 -28 5 -29 4 -9 4 6 5 12 4 9 5 9 
4 -21 4 -8 5 16 4 22 5 -19 4 -48 4 -18 5 23 
4 17 5 -17 4 -33 4 -44 5 -26 4 -4 5 -39 4 -47 
4 -27 5 52 4 73 5 75 4 76 4 65 5 27 4 2 
5 -7 4 -8 4 -23 5 -36 4 1 5 -3 4 -14 4 -15 
5 0 4 22 5 3 4 19 4 21 5 13 4 5 5 -32 
4 -54 4 -36 5 -1 4 21 5 -1 4 18 4 14 5 -26 
4 4 4 9 5 15 4 -21 5 57 4 64 4 44 5 10 
4 -8 5 -19 4 -20 4 -18 5 -15 4 -16 5 -18 4 -9 
4 -16 5 -1 4 1 5 4 4 -12 4 -19 5 -10 4 10 
5 22 4 3 4 -40 5 -37 4 2 5 6 4 14 4 34 
5 85 4 53 5 -9 4 13 4 49 5 28 4 -1 5 0 
4 23 4 7 5 -9 4 -20 5 -34 4 -12 4 1 5 -8 
4 -4 5 -1 4 -6 4 -12 5 -25 4 -21 5 -3 4 -13 
4 -30 5 -33 4 -15 4 55 5 25 4 25 5 23 4 19 
4 14 5 37 4 53 5 17 4 2 4 12 5 15 4 -13 
5 8 4 25 4 -5 5 -26 4 4 5 -3 4 -36 4 -40 
5 3 4 30 5 19 4 35 4 33 5 20 4 -5 5 -32 
4 -9 4 -17 5 23 4 -1 5 -11 4 12 4 1 5 -36 
4 -25 5 26 4 5 4 -1 5 -2 4 8 5 9 4 5 
4 -20 5 -36 4 -28 5 -1 4 -16 4 4 5 40 4 32 
4 22 5 6 4 12 5 18 4 22 4 5 5 12 4 -2 
5 -8 4 -9 4 -15 3190 1141 300 MP stroke
5 -9 4 -23 5 -43 4 -38 4 20 5 27 4 -12 5 -36 
4 23 4 41 5 45 4 26 5 12 4 0 4 -11 5 -11 
4 -16 5 -23 4 -30 4 -24 5 4 4 19 5 21 4 18 
4 -17 5 -19 4 -13 5 -9 4 -27 4 -7 5 -23 4 25 
5 59 4 44 4 5 5 11 4 15 5 4 4 7 4 -13 
5 -10 4 4 5 -4 4 -34 4 -54 5 -35 4 -1 4 7 
5 -52 4 -92 5 -41 4 19 4 14 5 32 4 92 5 92 
4 65 4 42 5 38 4 19 5 -13 4 -43 4 -11 5 22 
4 4 5 18 4 25 4 9 5 33 4 9 5 -8 4 -30 
4 -23 5 -9 4 3 5 8 4 -2 4 -26 5 -27 4 5 
5 9 4 -21 4 -3 5 8 4 -5 5 -28 4 -31 4 -20 
5 36 4 56 5 51 4 60 4 39 5 -11 4 -17 5 -5 
4 2 4 -2 5 -8 4 -45 5 -40 4 -14 4 3 5 -21 
4 -37 4 4 5 20 4 -1 5 -42 4 19 4 77 5 95 
4 46 5 14 4 -1 4 2 5 15 4 6 5 -23 4 -8 
4 20 5 9 4 -3 5 -14 4 -28 4 -13 5 -18 4 -21 
5 -55 4 -50 4 -8 5 74 4 103 5 29 4 -3 4 19 
5 22 4 -22 5 -62 4 -31 4 14 5 24 4 -5 5 -34 
4 -15 4 22 5 7 4 -9 5 -9 4 -25 4 -22 5 -24 
4 -29 5 -47 4 -34 4 -14 5 -25 4 -17 5 8 4 39 
4 68 5 23 4 47 4 32 5 90 4 60 5 60 4 31 
4 19 5 -27 4 -15 5 5 4 -22 4 -23 5 -8 4 13 
5 -12 4 11 4 25 5 -21 4 8 5 -7 4 -30 4 -25 
5 10 4 1 5 -2 4 -13 4 10 5 54 4 24 5 -23 
4 -16 4 -3 5 -14 4 9 5 -5 4 -17 4 -35 5 -40 
4 -20 5 11 4 -17 4 -40 5 2 4 70 5 85 4 53 
4 26 5 27 4 12 5 4 4 8 4 -3 5 -7 4 -6 
4 -12 5 -39 4 -7 5 -14 4 -27 4 -9 5 -37 4 -10 
5 -8 4 -22 4 -33 5 -45 4 -39 5 -21 4 -3 4 17 
5 67 4 45 5 68 4 64 4 10 5 19 4 44 5 49 
4 -10 4 -15 5 -8 4 -9 5 -3 4 -33 4 -7 5 -7 
4 -20 5 -30 4 -28 4 -19 5 -4 4 -19 5 -6 4 -8 
4 2 5 37 4 36 5 33 4 37 4 60 5 3 4 -39 
5 -30 4 12 4 -5 5 -36 4 2 5 -22 4 -12 4 -11 
5 8 4 22 4 3 5 -27 4 -46 5 -11 4 -18 4 -22 
5 -21 4 14 5 -18 4 26 4 5 5 41 4 84 5 40 
4 19 4 13 5 -9 4 -20 5 -23 4 -14 4 -21 5 -17 
4 -15 5 35 4 9 1875 760 300 MP stroke
4 -3 5 0 4 -35 5 -18 4 -8 4 -32 5 -39 4 -44 
5 3 4 -2 4 26 5 16 4 -10 5 8 4 23 4 25 
5 20 4 -28 5 -23 4 9 4 63 5 45 4 31 5 16 
4 -10 4 -27 5 -27 4 -13 5 -10 4 -11 4 -5 5 -18 
4 -22 4 -10 5 10 4 18 5 1 4 26 4 16 5 5 
4 0 5 -7 4 -23 4 -11 5 2 4 2 5 -18 4 -15 
4 -14 5 -15 4 -29 5 -22 4 -24 4 -7 5 -9 4 -21 
5 -24 4 -6 4 55 5 50 4 -11 5 -36 4 5 4 32 
5 39 4 24 5 -2 4 -4 4 -35 5 -29 4 -26 5 -6 
4 4 4 -21 5 -15 4 -25 5 1 4 10 4 -24 5 -3 
4 -29 5 -21 4 -17 4 -17 5 -29 4 11 4 32 5 -6 
4 2 5 18 4 -11 4 -4 5 -11 4 -12 5 -1 4 -20 
4 -35 5 -8 4 6 5 -22 4 -47 4 -33 5 16 4 40 
5 18 4 -15 4 -32 5 -24 4 -5 5 -23 4 -21 4 -31 
5 -30 4 -1 5 13 4 -13 4 -8 5 -16 4 -17 5 -26 
4 -4 4 3 5 4 4 -29 5 -35 4 -17 4 -10 5 -13 
4 -16 5 -13 4 -14 4 -46 5 -18 4 -5 5 -9 4 -9 
4 -29 5 -28 4 3 5 -27 4 -33 4 -24 5 -14 4 -24 
4 -28 5 -24 4 -3 5 -6 4 -18 4 -39 5 -35 4 -19 
5 -15 4 -13 4 -21 5 -36 4 -20 5 -14 4 -22 4 -28 
5 -36 4 -22 5 -27 4 -23 4 -20 5 -24 4 -23 5 -16 
4 -24 4 -36 5 -28 4 -25 5 -22 4 -21 4 -24 5 -35 
4 -27 5 -31 4 -16 4 -20 5 -27 4 -30 5 -26 4 -18 
4 -24 5 -28 4 -22 5 -27 4 -30 4 -27 5 -22 4 -26 
5 -26 4 -28 4 -28 5 -28 4 -22 5 -23 4 -25 4 -24 
5 -24 4 -23 4 -24 5 -25 4 -25 5 -22 4 -22 4 -22 
5 -23 4 -22 5 -21 4 -20 4 -20 5 -20 4 -20 5 -18 
4 -19 4 -19 5 -20 4 -19 5 -17 4 -17 4 -17 5 -17 
4 -16 5 -16 4 -15 4 -14 5 -13 4 -13 5 -12 4 -12 
4 -11 5 -11 4 -11 5 -9 4 -9 4 -8 5 -9 4 -7 
5 -7 4 -7 4 -6 5 -6 4 -6 5 -5 4 -5 4 -4 
5 -4 4 -4 5 -4 4 -3 4 -3 5 -3 4 -2 4 -2 
750 3993 257 MP stroke
gr

c10
c8
%%IncludeResource: font Helvetica
/Helvetica /WindowsLatin1Encoding 116.667 FMSR

1218 3931 mt 
(All run from same base deck\(X=20\) - Densest Packing) s
0 sg
%%IncludeResource: font Helvetica
/Helvetica /WindowsLatin1Encoding 83.3333 FMSR

 732 4037 mt 
( ) s
4483  536 mt 
( ) s
8.33333 w
DO
SO
12.5 w
0.1 sg
 750  500 mt 4500  500 L
 750 4000 mt 4500 4000 L
4500 4000 mt 4500  500 L
 750 4000 mt  750  500 L
 750 4000 mt 4500 4000 L
 750 4000 mt  750  500 L
 750 4000 mt  750 3943 L
 750  500 mt  750  556 L
%%IncludeResource: font Helvetica
/Helvetica /WindowsLatin1Encoding 133.333 FMSR

 713 4148 mt 
(0) s
1218 4000 mt 1218 3943 L
1218  500 mt 1218  556 L
1052 4148 mt 
(0.005) s
1687 4000 mt 1687 3943 L
1687  500 mt 1687  556 L
1558 4148 mt 
(0.01) s
2156 4000 mt 2156 3943 L
2156  500 mt 2156  556 L
1990 4148 mt 
(0.015) s
2625 4000 mt 2625 3943 L
2625  500 mt 2625  556 L
2496 4148 mt 
(0.02) s
3093 4000 mt 3093 3943 L
3093  500 mt 3093  556 L
2927 4148 mt 
(0.025) s
3562 4000 mt 3562 3943 L
3562  500 mt 3562  556 L
3433 4148 mt 
(0.03) s
4031 4000 mt 4031 3943 L
4031  500 mt 4031  556 L
3865 4148 mt 
(0.035) s
4500 4000 mt 4500 3943 L
4500  500 mt 4500  556 L
4371 4148 mt 
(0.04) s
 750 4000 mt  806 4000 L
4500 4000 mt 4443 4000 L
 652 4049 mt 
(0) s
 750 3562 mt  806 3562 L
4500 3562 mt 4443 3562 L
 652 3611 mt 
(1) s
 750 3125 mt  806 3125 L
4500 3125 mt 4443 3125 L
 652 3174 mt 
(2) s
 750 2687 mt  806 2687 L
4500 2687 mt 4443 2687 L
 652 2736 mt 
(3) s
 750 2250 mt  806 2250 L
4500 2250 mt 4443 2250 L
 652 2299 mt 
(4) s
 750 1812 mt  806 1812 L
4500 1812 mt 4443 1812 L
 652 1861 mt 
(5) s
 750 1375 mt  806 1375 L
4500 1375 mt 4443 1375 L
 652 1424 mt 
(6) s
 750  937 mt  806  937 L
4500  937 mt 4443  937 L
 652  986 mt 
(7) s
 750  500 mt  806  500 L
4500  500 mt 4443  500 L
 652  549 mt 
(8) s
 750  500 mt 4500  500 L
 750 4000 mt 4500 4000 L
4500 4000 mt 4500  500 L
 750 4000 mt  750  500 L
0 sg
%%IncludeResource: font Helvetica-Bold
/Helvetica-Bold /WindowsLatin1Encoding 125 FMSR

3991 2484 mt 
(X = 1) s
gs 3666 2340 732 696 rc
16.6667 w
250 0 3715 2437 2 MP stroke
gr

16.6667 w
3991 2651 mt 
(X = 5) s
gs 3666 2340 732 696 rc
c8
250 0 3715 2604 2 MP stroke
gr

c8
0 sg
3991 2817 mt 
(X = 10) s
gs 3666 2340 732 696 rc
c9
250 0 3715 2770 2 MP stroke
gr

c9
0 sg
3991 2984 mt 
(X = 20) s
gs 3666 2340 732 696 rc
c10
250 0 3715 2937 2 MP stroke
12.5 w
gr

12.5 w
c10

end %%Color Dict

eplot
%%EndObject

epage
end

showpage

%%Trailer
%%EOF
