%!PS-Adobe-3.0 EPSF-3.0
%%Creator: MATLAB, The MathWorks, Inc. Version 8.1.0.604 (R2013a). Operating System: Microsoft Windows 7.
%%Title: .\AdhesionX_Confined_Contacts_Paired.eps
%%CreationDate: 08/17/2013  13:10:17
%%DocumentNeededFonts: Helvetica-Bold
%%+ Helvetica
%%DocumentProcessColors: Cyan Magenta Yellow Black
%%LanguageLevel: 2
%%Pages: 1
%%BoundingBox:    41    93   564   587
%%EndComments

%%BeginProlog
% MathWorks dictionary
/MathWorks 160 dict begin
% definition operators
/bdef {bind def} bind def
/ldef {load def} bind def
/xdef {exch def} bdef
/xstore {exch store} bdef
% operator abbreviations
/c  /clip ldef
/cc /concat ldef
/cp /closepath ldef
/gr /grestore ldef
/gs /gsave ldef
/mt /moveto ldef
/np /newpath ldef
/cm /currentmatrix ldef
/sm /setmatrix ldef
/rm /rmoveto ldef
/rl /rlineto ldef
/s {show newpath} bdef
/sc {setcmykcolor} bdef
/sr /setrgbcolor ldef
/sg /setgray ldef
/w /setlinewidth ldef
/j /setlinejoin ldef
/cap /setlinecap ldef
/rc {rectclip} bdef
/rf {rectfill} bdef
% page state control
/pgsv () def
/bpage {/pgsv save def} bdef
/epage {pgsv restore} bdef
/bplot /gsave ldef
/eplot {stroke grestore} bdef
% orientation switch
/portraitMode 0 def /landscapeMode 1 def /rotateMode 2 def
% coordinate system mappings
/dpi2point 0 def
% font control
/FontSize 0 def
/FMS {/FontSize xstore findfont [FontSize 0 0 FontSize neg 0 0]
  makefont setfont} bdef
/ISOLatin1Encoding where {pop /WindowsLatin1Encoding 256 array bdef
ISOLatin1Encoding WindowsLatin1Encoding copy pop
/.notdef/.notdef/quotesinglbase/florin/quotedblbase/ellipsis/dagger
/daggerdbl/circumflex/perthousand/Scaron/guilsinglleft/OE/.notdef/.notdef
/.notdef/.notdef/quoteleft/quoteright/quotedblleft/quotedblright/bullet
/endash/emdash/tilde/trademark/scaron/guilsinglright/oe/.notdef/.notdef
/Ydieresis WindowsLatin1Encoding 128 32 getinterval astore pop}
{/WindowsLatin1Encoding StandardEncoding bdef} ifelse
/reencode {exch dup where {pop load} {pop StandardEncoding} ifelse
  exch dup 3 1 roll findfont dup length dict begin
  { 1 index /FID ne {def}{pop pop} ifelse } forall
  /Encoding exch def currentdict end definefont pop} bdef
/isroman {findfont /CharStrings get /Agrave known} bdef
/FMSR {3 1 roll 1 index dup isroman {reencode} {pop pop} ifelse
  exch FMS} bdef
/csm {1 dpi2point div -1 dpi2point div scale neg translate
 dup landscapeMode eq {pop -90 rotate}
  {rotateMode eq {90 rotate} if} ifelse} bdef
% line types: solid, dotted, dashed, dotdash
/SO { [] 0 setdash } bdef
/DO { [.5 dpi2point mul 4 dpi2point mul] 0 setdash } bdef
/DA { [6 dpi2point mul] 0 setdash } bdef
/DD { [.5 dpi2point mul 4 dpi2point mul 6 dpi2point mul 4
  dpi2point mul] 0 setdash } bdef
% macros for lines and objects
/L {lineto stroke} bdef
/MP {3 1 roll moveto 1 sub {rlineto} repeat} bdef
/AP {{rlineto} repeat} bdef
/PDlw -1 def
/W {/PDlw currentlinewidth def setlinewidth} def
/PP {closepath eofill} bdef
/DP {closepath stroke} bdef
/MR {4 -2 roll moveto dup  0 exch rlineto exch 0 rlineto
  neg 0 exch rlineto closepath} bdef
/FR {MR stroke} bdef
/PR {MR fill} bdef
/L1i {{currentfile picstr readhexstring pop} image} bdef
/tMatrix matrix def
/MakeOval {newpath tMatrix currentmatrix pop translate scale
0 0 1 0 360 arc tMatrix setmatrix} bdef
/FO {MakeOval stroke} bdef
/PO {MakeOval fill} bdef
/PD {currentlinewidth 2 div 0 360 arc fill
   PDlw -1 eq not {PDlw w /PDlw -1 def} if} def
/FA {newpath tMatrix currentmatrix pop translate scale
  0 0 1 5 -2 roll arc tMatrix setmatrix stroke} bdef
/PA {newpath tMatrix currentmatrix pop	translate 0 0 moveto scale
  0 0 1 5 -2 roll arc closepath tMatrix setmatrix fill} bdef
/FAn {newpath tMatrix currentmatrix pop translate scale
  0 0 1 5 -2 roll arcn tMatrix setmatrix stroke} bdef
/PAn {newpath tMatrix currentmatrix pop translate 0 0 moveto scale
  0 0 1 5 -2 roll arcn closepath tMatrix setmatrix fill} bdef
/vradius 0 def /hradius 0 def /lry 0 def
/lrx 0 def /uly 0 def /ulx 0 def /rad 0 def
/MRR {/vradius xdef /hradius xdef /lry xdef /lrx xdef /uly xdef
  /ulx xdef newpath tMatrix currentmatrix pop ulx hradius add uly
  vradius add translate hradius vradius scale 0 0 1 180 270 arc 
  tMatrix setmatrix lrx hradius sub uly vradius add translate
  hradius vradius scale 0 0 1 270 360 arc tMatrix setmatrix
  lrx hradius sub lry vradius sub translate hradius vradius scale
  0 0 1 0 90 arc tMatrix setmatrix ulx hradius add lry vradius sub
  translate hradius vradius scale 0 0 1 90 180 arc tMatrix setmatrix
  closepath} bdef
/FRR {MRR stroke } bdef
/PRR {MRR fill } bdef
/MlrRR {/lry xdef /lrx xdef /uly xdef /ulx xdef /rad lry uly sub 2 div def
  newpath tMatrix currentmatrix pop ulx rad add uly rad add translate
  rad rad scale 0 0 1 90 270 arc tMatrix setmatrix lrx rad sub lry rad
  sub translate rad rad scale 0 0 1 270 90 arc tMatrix setmatrix
  closepath} bdef
/FlrRR {MlrRR stroke } bdef
/PlrRR {MlrRR fill } bdef
/MtbRR {/lry xdef /lrx xdef /uly xdef /ulx xdef /rad lrx ulx sub 2 div def
  newpath tMatrix currentmatrix pop ulx rad add uly rad add translate
  rad rad scale 0 0 1 180 360 arc tMatrix setmatrix lrx rad sub lry rad
  sub translate rad rad scale 0 0 1 0 180 arc tMatrix setmatrix
  closepath} bdef
/FtbRR {MtbRR stroke } bdef
/PtbRR {MtbRR fill } bdef
/stri 6 array def /dtri 6 array def
/smat 6 array def /dmat 6 array def
/tmat1 6 array def /tmat2 6 array def /dif 3 array def
/asub {/ind2 exch def /ind1 exch def dup dup
  ind1 get exch ind2 get sub exch } bdef
/tri_to_matrix {
  2 0 asub 3 1 asub 4 0 asub 5 1 asub
  dup 0 get exch 1 get 7 -1 roll astore } bdef
/compute_transform {
  dmat dtri tri_to_matrix tmat1 invertmatrix 
  smat stri tri_to_matrix tmat2 concatmatrix } bdef
/ds {stri astore pop} bdef
/dt {dtri astore pop} bdef
/db {2 copy /cols xdef /rows xdef mul dup 3 mul string
  currentfile 
  3 index 0 eq {/ASCIIHexDecode filter}
  {/ASCII85Decode filter 3 index 2 eq {/RunLengthDecode filter} if }
  ifelse exch readstring pop
  dup 0 3 index getinterval /rbmap xdef
  dup 2 index dup getinterval /gbmap xdef
  1 index dup 2 mul exch getinterval /bbmap xdef pop pop}bdef
/it {gs np dtri aload pop moveto lineto lineto cp c
  cols rows 8 compute_transform 
  rbmap gbmap bbmap true 3 colorimage gr}bdef
/il {newpath moveto lineto stroke}bdef
currentdict end def
%%EndProlog

%%BeginSetup
MathWorks begin

0 cap

end
%%EndSetup

%%Page: 1 1
%%BeginPageSetup
%%PageBoundingBox:    41    93   564   587
MathWorks begin
bpage
%%EndPageSetup

%%BeginObject: obj1
bplot

/dpi2point 8.33333 def
portraitMode 0150 5158 csm

  194   264  4362  4116 rc
84 dict begin %Colortable dictionary
/c0 { 0.000000 0.000000 0.000000 sr} bdef
/c1 { 1.000000 1.000000 1.000000 sr} bdef
/c2 { 0.900000 0.000000 0.000000 sr} bdef
/c3 { 0.000000 0.820000 0.000000 sr} bdef
/c4 { 0.000000 0.000000 0.800000 sr} bdef
/c5 { 0.910000 0.820000 0.320000 sr} bdef
/c6 { 1.000000 0.260000 0.820000 sr} bdef
/c7 { 0.000000 0.820000 0.820000 sr} bdef
c0
1 j
1 sg
   0    0 5001 5001 rf
12.5 w
0 3500 3750 0 0 -3500 750 4000 4 MP
PP
-3750 0 0 3500 3750 0 0 -3500 750 4000 5 MP stroke
gs 750 500 3751 3501 rc
16.6667 w
0 sg
-39 34 -39 50 -40 44 -39 54 -39 105 -40 2 40 -31 39 -63 
39 -53 40 -30 39 -57 39 -72 40 -70 39 -60 39 -50 40 -48 
39 -38 39 -30 40 -45 39 -51 39 -58 40 -24 39 -30 39 -47 
40 -109 39 -21 39 -72 40 -73 39 -46 39 -35 40 -40 39 -61 
39 -81 40 -54 39 -35 40 -9 39 -5 39 -35 40 -31 39 22 
39 -61 40 -37 39 -64 39 -62 40 -84 39 -63 39 -54 40 -79 
39 -36 39 -27 40 -54 39 -40 39 -47 40 -67 39 14 39 23 
40 17 39 6 39 15 40 -21 39 -33 39 -37 40 30 39 -14 
39 61 40 -10 39 -5 39 21 40 -25 39 39 39 24 40 2 
39 26 39 2 40 0 39 38 39 46 40 26 39 30 39 86 
40 73 39 25 39 36 40 -7 39 -7 39 16 40 4 39 7 
39 10 40 2 39 7 39 49 750 3030 93 MP stroke
gr

16.6667 w
0 sg
0.1 sg
%%IncludeResource: font Helvetica-Bold
/Helvetica-Bold /WindowsLatin1Encoding 183.333 FMSR

2010 4322 mt 
(Vertical Strain) s
 387 3127 mt  -90 rotate
(Number of Contacts) s
90 rotate
gs 750 500 3751 3501 rc
/c8 { 1.000000 0.000000 0.000000 sr} bdef
c8
-39 28 -40 75 -40 67 -39 105 -40 99 -40 72 -39 95 39 -18 
40 -49 40 -49 39 -35 40 -58 40 -61 39 -37 40 -22 40 -23 
39 -47 40 -27 40 -24 39 -58 40 -40 40 -21 39 -46 40 -31 
40 2 40 -67 39 -44 40 -43 40 -62 39 -56 40 -40 40 -61 
39 -60 40 -73 40 -18 39 -57 40 -53 40 -19 39 -46 40 -59 
40 -42 39 -61 40 -97 40 -77 40 -42 39 2 40 -65 40 -31 
39 -47 40 -100 40 -53 39 -49 40 34 40 -69 39 -28 40 -24 
40 -40 39 -32 40 -37 40 -85 39 -32 40 23 40 -30 39 -38 
40 -18 40 -30 40 7 39 -12 40 -51 40 20 39 0 40 22 
40 2 39 21 40 12 40 -3 39 16 40 5 40 19 39 19 
40 37 40 -5 39 0 40 7 40 2 39 3 750 3305 87 MP stroke
/c9 { 0.000000 0.000000 1.000000 sr} bdef
c9
-40 14 -39 66 -40 77 -40 61 -40 119 -39 84 -40 79 40 -45 
39 -60 40 -16 40 -66 40 -12 39 -56 40 -56 40 -11 39 -19 
40 -28 40 -39 40 -43 39 -41 40 -52 40 -54 39 -2 40 -82 
40 -32 40 -68 39 -40 40 -42 40 -48 39 -75 40 -61 40 -65 
40 -33 39 -75 40 -74 40 -75 39 -39 40 -70 40 -38 40 -40 
39 -88 40 -47 40 -67 39 -40 40 -72 40 -40 40 -56 39 5 
40 -40 40 -65 39 -57 40 -70 40 -63 40 -98 39 3 40 -68 
40 -26 39 -65 40 -5 40 -90 40 -40 39 -47 40 -30 40 5 
39 -24 40 -53 40 37 40 -31 39 22 40 -7 40 0 39 32 
40 -4 40 30 40 4 39 28 40 -32 40 23 39 -30 40 18 
40 15 40 7 39 11 40 -4 40 6 39 19 40 7 40 30 
39 47 750 3499 90 MP stroke
/c10 { 1.000000 0.000000 1.000000 sr} bdef
c10
-40 33 -40 53 -40 72 -40 105 -40 113 -40 83 40 -46 40 -31 
40 -65 40 -82 40 -41 40 -91 40 -68 40 -7 41 -44 40 -26 
40 -63 40 -38 40 -63 40 -42 40 -44 40 -54 40 -46 40 -52 
41 -77 40 -81 40 -77 40 -87 40 -49 40 -23 40 -100 40 -86 
40 -42 40 -94 40 -54 41 -67 40 -73 40 -41 40 -75 40 -82 
40 -46 40 -12 40 -96 40 -26 40 -63 41 -30 40 -110 40 -62 
40 -143 40 5 40 -30 40 -71 40 3 40 -56 40 -37 40 -8 
41 -14 40 35 40 -14 40 5 40 77 40 56 40 -5 40 8 
40 35 40 23 41 -24 40 29 40 56 40 37 40 46 40 1 
40 23 40 16 40 3 40 42 750 3496 77 MP stroke
gr

c10
0 sg
%%IncludeResource: font Helvetica
/Helvetica /WindowsLatin1Encoding 83.3333 FMSR

 732 4037 mt 
( ) s
4483  536 mt 
( ) s
8.33333 w
DO
SO
12.5 w
0.1 sg
 750  500 mt 4500  500 L
 750 4000 mt 4500 4000 L
4500 4000 mt 4500  500 L
 750 4000 mt  750  500 L
 750 4000 mt 4500 4000 L
 750 4000 mt  750  500 L
 750 4000 mt  750 3943 L
 750  500 mt  750  556 L
%%IncludeResource: font Helvetica
/Helvetica /WindowsLatin1Encoding 133.333 FMSR

 713 4148 mt 
(0) s
1250 4000 mt 1250 3943 L
1250  500 mt 1250  556 L
1121 4148 mt 
(0.01) s
1750 4000 mt 1750 3943 L
1750  500 mt 1750  556 L
1621 4148 mt 
(0.02) s
2250 4000 mt 2250 3943 L
2250  500 mt 2250  556 L
2121 4148 mt 
(0.03) s
2750 4000 mt 2750 3943 L
2750  500 mt 2750  556 L
2621 4148 mt 
(0.04) s
3250 4000 mt 3250 3943 L
3250  500 mt 3250  556 L
3121 4148 mt 
(0.05) s
3750 4000 mt 3750 3943 L
3750  500 mt 3750  556 L
3621 4148 mt 
(0.06) s
4250 4000 mt 4250 3943 L
4250  500 mt 4250  556 L
4121 4148 mt 
(0.07) s
 750 4000 mt  806 4000 L
4500 4000 mt 4443 4000 L
 652 4049 mt 
(1) s
 750 3650 mt  806 3650 L
4500 3650 mt 4443 3650 L
 467 3699 mt 
(1.02) s
 750 3300 mt  806 3300 L
4500 3300 mt 4443 3300 L
 467 3349 mt 
(1.04) s
 750 2950 mt  806 2950 L
4500 2950 mt 4443 2950 L
 467 2999 mt 
(1.06) s
 750 2600 mt  806 2600 L
4500 2600 mt 4443 2600 L
 467 2649 mt 
(1.08) s
 750 2250 mt  806 2250 L
4500 2250 mt 4443 2250 L
 541 2299 mt 
(1.1) s
 750 1900 mt  806 1900 L
4500 1900 mt 4443 1900 L
 467 1949 mt 
(1.12) s
 750 1550 mt  806 1550 L
4500 1550 mt 4443 1550 L
 467 1599 mt 
(1.14) s
 750 1200 mt  806 1200 L
4500 1200 mt 4443 1200 L
 467 1249 mt 
(1.16) s
 750  850 mt  806  850 L
4500  850 mt 4443  850 L
 467  899 mt 
(1.18) s
 750  500 mt  806  500 L
4500  500 mt 4443  500 L
 541  549 mt 
(1.2) s
 750  463 mt 
(x 10) s
%%IncludeResource: font Helvetica
/Helvetica /WindowsLatin1Encoding 88.8889 FMSR

1002  381 mt 
(4) s
 750  500 mt 4500  500 L
 750 4000 mt 4500 4000 L
4500 4000 mt 4500  500 L
 750 4000 mt  750  500 L
0 sg
%%IncludeResource: font Helvetica-Bold
/Helvetica-Bold /WindowsLatin1Encoding 125 FMSR

1178  734 mt 
(X = 1) s
gs 853 590 732 696 rc
16.6667 w
250 0 902 687 2 MP stroke
gr

16.6667 w
1178  901 mt 
(X = 5) s
gs 853 590 732 696 rc
c8
250 0 902 854 2 MP stroke
gr

c8
0 sg
1178 1067 mt 
(X = 10) s
gs 853 590 732 696 rc
c9
250 0 902 1020 2 MP stroke
gr

c9
0 sg
1178 1234 mt 
(X = 20) s
gs 853 590 732 696 rc
c10
250 0 902 1187 2 MP stroke
12.5 w
gr

12.5 w
c10

end %%Color Dict

eplot
%%EndObject

epage
end

showpage

%%Trailer
%%EOF
