%!PS-Adobe-3.0 EPSF-3.0
%%Creator: MATLAB, The MathWorks, Inc. Version 8.1.0.604 (R2013a). Operating System: Microsoft Windows 7.
%%Title: .\AdhesionX_ConfinedPorosity_Spherical.eps
%%CreationDate: 08/17/2013  13:10:16
%%DocumentNeededFonts: Helvetica-Bold
%%+ Helvetica
%%DocumentProcessColors: Cyan Magenta Yellow Black
%%LanguageLevel: 2
%%Pages: 1
%%BoundingBox:    32    88   564   572
%%EndComments

%%BeginProlog
% MathWorks dictionary
/MathWorks 160 dict begin
% definition operators
/bdef {bind def} bind def
/ldef {load def} bind def
/xdef {exch def} bdef
/xstore {exch store} bdef
% operator abbreviations
/c  /clip ldef
/cc /concat ldef
/cp /closepath ldef
/gr /grestore ldef
/gs /gsave ldef
/mt /moveto ldef
/np /newpath ldef
/cm /currentmatrix ldef
/sm /setmatrix ldef
/rm /rmoveto ldef
/rl /rlineto ldef
/s {show newpath} bdef
/sc {setcmykcolor} bdef
/sr /setrgbcolor ldef
/sg /setgray ldef
/w /setlinewidth ldef
/j /setlinejoin ldef
/cap /setlinecap ldef
/rc {rectclip} bdef
/rf {rectfill} bdef
% page state control
/pgsv () def
/bpage {/pgsv save def} bdef
/epage {pgsv restore} bdef
/bplot /gsave ldef
/eplot {stroke grestore} bdef
% orientation switch
/portraitMode 0 def /landscapeMode 1 def /rotateMode 2 def
% coordinate system mappings
/dpi2point 0 def
% font control
/FontSize 0 def
/FMS {/FontSize xstore findfont [FontSize 0 0 FontSize neg 0 0]
  makefont setfont} bdef
/ISOLatin1Encoding where {pop /WindowsLatin1Encoding 256 array bdef
ISOLatin1Encoding WindowsLatin1Encoding copy pop
/.notdef/.notdef/quotesinglbase/florin/quotedblbase/ellipsis/dagger
/daggerdbl/circumflex/perthousand/Scaron/guilsinglleft/OE/.notdef/.notdef
/.notdef/.notdef/quoteleft/quoteright/quotedblleft/quotedblright/bullet
/endash/emdash/tilde/trademark/scaron/guilsinglright/oe/.notdef/.notdef
/Ydieresis WindowsLatin1Encoding 128 32 getinterval astore pop}
{/WindowsLatin1Encoding StandardEncoding bdef} ifelse
/reencode {exch dup where {pop load} {pop StandardEncoding} ifelse
  exch dup 3 1 roll findfont dup length dict begin
  { 1 index /FID ne {def}{pop pop} ifelse } forall
  /Encoding exch def currentdict end definefont pop} bdef
/isroman {findfont /CharStrings get /Agrave known} bdef
/FMSR {3 1 roll 1 index dup isroman {reencode} {pop pop} ifelse
  exch FMS} bdef
/csm {1 dpi2point div -1 dpi2point div scale neg translate
 dup landscapeMode eq {pop -90 rotate}
  {rotateMode eq {90 rotate} if} ifelse} bdef
% line types: solid, dotted, dashed, dotdash
/SO { [] 0 setdash } bdef
/DO { [.5 dpi2point mul 4 dpi2point mul] 0 setdash } bdef
/DA { [6 dpi2point mul] 0 setdash } bdef
/DD { [.5 dpi2point mul 4 dpi2point mul 6 dpi2point mul 4
  dpi2point mul] 0 setdash } bdef
% macros for lines and objects
/L {lineto stroke} bdef
/MP {3 1 roll moveto 1 sub {rlineto} repeat} bdef
/AP {{rlineto} repeat} bdef
/PDlw -1 def
/W {/PDlw currentlinewidth def setlinewidth} def
/PP {closepath eofill} bdef
/DP {closepath stroke} bdef
/MR {4 -2 roll moveto dup  0 exch rlineto exch 0 rlineto
  neg 0 exch rlineto closepath} bdef
/FR {MR stroke} bdef
/PR {MR fill} bdef
/L1i {{currentfile picstr readhexstring pop} image} bdef
/tMatrix matrix def
/MakeOval {newpath tMatrix currentmatrix pop translate scale
0 0 1 0 360 arc tMatrix setmatrix} bdef
/FO {MakeOval stroke} bdef
/PO {MakeOval fill} bdef
/PD {currentlinewidth 2 div 0 360 arc fill
   PDlw -1 eq not {PDlw w /PDlw -1 def} if} def
/FA {newpath tMatrix currentmatrix pop translate scale
  0 0 1 5 -2 roll arc tMatrix setmatrix stroke} bdef
/PA {newpath tMatrix currentmatrix pop	translate 0 0 moveto scale
  0 0 1 5 -2 roll arc closepath tMatrix setmatrix fill} bdef
/FAn {newpath tMatrix currentmatrix pop translate scale
  0 0 1 5 -2 roll arcn tMatrix setmatrix stroke} bdef
/PAn {newpath tMatrix currentmatrix pop translate 0 0 moveto scale
  0 0 1 5 -2 roll arcn closepath tMatrix setmatrix fill} bdef
/vradius 0 def /hradius 0 def /lry 0 def
/lrx 0 def /uly 0 def /ulx 0 def /rad 0 def
/MRR {/vradius xdef /hradius xdef /lry xdef /lrx xdef /uly xdef
  /ulx xdef newpath tMatrix currentmatrix pop ulx hradius add uly
  vradius add translate hradius vradius scale 0 0 1 180 270 arc 
  tMatrix setmatrix lrx hradius sub uly vradius add translate
  hradius vradius scale 0 0 1 270 360 arc tMatrix setmatrix
  lrx hradius sub lry vradius sub translate hradius vradius scale
  0 0 1 0 90 arc tMatrix setmatrix ulx hradius add lry vradius sub
  translate hradius vradius scale 0 0 1 90 180 arc tMatrix setmatrix
  closepath} bdef
/FRR {MRR stroke } bdef
/PRR {MRR fill } bdef
/MlrRR {/lry xdef /lrx xdef /uly xdef /ulx xdef /rad lry uly sub 2 div def
  newpath tMatrix currentmatrix pop ulx rad add uly rad add translate
  rad rad scale 0 0 1 90 270 arc tMatrix setmatrix lrx rad sub lry rad
  sub translate rad rad scale 0 0 1 270 90 arc tMatrix setmatrix
  closepath} bdef
/FlrRR {MlrRR stroke } bdef
/PlrRR {MlrRR fill } bdef
/MtbRR {/lry xdef /lrx xdef /uly xdef /ulx xdef /rad lrx ulx sub 2 div def
  newpath tMatrix currentmatrix pop ulx rad add uly rad add translate
  rad rad scale 0 0 1 180 360 arc tMatrix setmatrix lrx rad sub lry rad
  sub translate rad rad scale 0 0 1 0 180 arc tMatrix setmatrix
  closepath} bdef
/FtbRR {MtbRR stroke } bdef
/PtbRR {MtbRR fill } bdef
/stri 6 array def /dtri 6 array def
/smat 6 array def /dmat 6 array def
/tmat1 6 array def /tmat2 6 array def /dif 3 array def
/asub {/ind2 exch def /ind1 exch def dup dup
  ind1 get exch ind2 get sub exch } bdef
/tri_to_matrix {
  2 0 asub 3 1 asub 4 0 asub 5 1 asub
  dup 0 get exch 1 get 7 -1 roll astore } bdef
/compute_transform {
  dmat dtri tri_to_matrix tmat1 invertmatrix 
  smat stri tri_to_matrix tmat2 concatmatrix } bdef
/ds {stri astore pop} bdef
/dt {dtri astore pop} bdef
/db {2 copy /cols xdef /rows xdef mul dup 3 mul string
  currentfile 
  3 index 0 eq {/ASCIIHexDecode filter}
  {/ASCII85Decode filter 3 index 2 eq {/RunLengthDecode filter} if }
  ifelse exch readstring pop
  dup 0 3 index getinterval /rbmap xdef
  dup 2 index dup getinterval /gbmap xdef
  1 index dup 2 mul exch getinterval /bbmap xdef pop pop}bdef
/it {gs np dtri aload pop moveto lineto lineto cp c
  cols rows 8 compute_transform 
  rbmap gbmap bbmap true 3 colorimage gr}bdef
/il {newpath moveto lineto stroke}bdef
currentdict end def
%%EndProlog

%%BeginSetup
MathWorks begin

0 cap

end
%%EndSetup

%%Page: 1 1
%%BeginPageSetup
%%PageBoundingBox:    32    88   564   572
MathWorks begin
bpage
%%EndPageSetup

%%BeginObject: obj1
bplot

/dpi2point 8.33333 def
portraitMode 0150 5158 csm

  120   389  4436  4030 rc
84 dict begin %Colortable dictionary
/c0 { 0.000000 0.000000 0.000000 sr} bdef
/c1 { 1.000000 1.000000 1.000000 sr} bdef
/c2 { 0.900000 0.000000 0.000000 sr} bdef
/c3 { 0.000000 0.820000 0.000000 sr} bdef
/c4 { 0.000000 0.000000 0.800000 sr} bdef
/c5 { 0.910000 0.820000 0.320000 sr} bdef
/c6 { 1.000000 0.260000 0.820000 sr} bdef
/c7 { 0.000000 0.820000 0.820000 sr} bdef
c0
1 j
1 sg
   0    0 5001 5001 rf
12.5 w
0 3500 3750 0 0 -3500 750 3999 4 MP
PP
-3750 0 0 3500 3750 0 0 -3500 750 3999 5 MP stroke
gs 750 499 3751 3501 rc
16.6667 w
0 sg
-768 -32 -415 -33 -337 -32 -187 -32 -122 -33 -76 33 -30 32 17 32 
18 33 18 32 19 32 17 32 22 32 20 32 19 32 21 32 
25 32 26 32 26 31 24 32 27 32 24 31 23 32 23 31 
27 32 26 31 27 31 26 32 30 31 32 31 26 31 31 31 
38 31 37 31 31 31 31 31 28 31 27 30 24 31 36 31 
43 30 46 31 49 30 53 31 51 30 54 30 55 31 51 30 
50 30 52 30 64 30 59 30 62 30 72 30 71 30 52 30 
53 30 72 30 68 29 83 30 73 30 79 29 71 30 63 29 
51 30 85 29 65 29 99 30 65 29 52 29 55 29 85 29 
16 29 32 29 33 29 -40 29 -17 29 -29 29 1 29 72 28 
169 29 237 29 288 24 750 887 84 MP stroke
gr

16.6667 w
0 sg
0.1 sg
%%IncludeResource: font Helvetica-Bold
/Helvetica-Bold /WindowsLatin1Encoding 183.333 FMSR

1903 4361 mt 
(Log Stress [kPa]) s
 313 2611 mt  -90 rotate
(Porosity) s
90 rotate
gs 750 499 3751 3501 rc
/c8 { 1.000000 0.000000 0.000000 sr} bdef
c8
-1203 -32 -439 -33 -339 -32 -247 -33 -145 -32 -101 -33 -48 33 -8 32 
21 33 20 32 21 33 19 32 19 32 18 33 20 32 20 32 
22 32 24 32 25 32 24 32 24 32 24 32 17 32 21 31 
19 32 21 32 20 31 27 32 28 31 31 32 31 31 30 31 
28 32 27 31 27 31 32 31 31 31 34 31 39 31 38 31 
39 31 44 31 49 30 46 31 42 31 45 30 50 31 45 30 
49 31 49 30 41 30 34 31 40 30 46 30 47 30 50 30 
55 30 50 30 42 30 44 30 42 30 63 30 55 30 62 29 
76 30 92 30 64 29 96 30 88 29 78 30 75 29 36 29 
47 30 57 29 81 29 90 29 109 29 105 29 152 29 119 29 
144 29 183 19 750 1065 83 MP stroke
/c9 { 0.000000 0.000000 1.000000 sr} bdef
c9
-893 -32 -402 -33 -317 -33 -231 -32 -138 -33 -96 -33 -46 33 -8 33 
18 32 21 33 19 33 19 32 20 33 21 32 20 33 22 32 
24 32 25 33 23 32 28 32 26 32 23 32 25 32 24 32 
17 32 22 32 27 32 23 31 25 32 27 32 25 31 25 32 
30 31 35 32 34 31 35 31 39 32 35 31 35 31 36 31 
35 31 35 31 38 31 37 31 37 31 45 31 41 30 42 31 
40 31 48 30 49 31 48 30 48 31 55 30 56 30 53 31 
59 30 65 30 59 30 71 30 67 30 58 30 65 30 79 30 
65 30 78 30 81 30 77 29 74 30 65 30 66 29 81 30 
120 29 125 30 135 29 141 29 193 30 68 29 -12 29 -36 29 
-44 29 -24 29 -77 29 -23 29 -13 29 50 29 78 29 147 29 
902 997 89 MP stroke
/c10 { 1.000000 0.000000 1.000000 sr} bdef
c10
-704 -33 -383 -33 -269 -32 -155 -33 -109 -33 -54 33 -10 33 20 32 
22 33 23 33 25 32 24 33 24 32 22 33 22 32 21 32 
24 33 24 32 29 32 30 32 28 32 29 32 28 32 26 32 
29 32 30 32 34 31 34 32 37 32 36 31 42 32 42 31 
42 32 37 31 36 31 31 32 35 31 37 31 42 31 39 31 
43 31 32 31 43 31 53 31 62 31 69 30 81 31 81 31 
90 30 89 31 89 30 89 31 102 30 94 30 113 31 122 30 
110 30 112 30 79 30 66 30 61 30 86 30 70 30 106 30 
65 30 126 30 137 29 -13 30 27 30 28 29 94 30 93 29 
111 13 750 1421 74 MP stroke
gr

c10
0 sg
%%IncludeResource: font Helvetica
/Helvetica /WindowsLatin1Encoding 83.3333 FMSR

 732 4036 mt 
( ) s
4483  535 mt 
( ) s
8.33333 w
DO
SO
12.5 w
0.1 sg
 750  499 mt 4500  499 L
 750 3999 mt 4500 3999 L
4500 3999 mt 4500  499 L
 750 3999 mt  750  499 L
 750 3999 mt 4500 3999 L
 750 3999 mt  750  499 L
 750 3999 mt  750 3971 L
 750  499 mt  750  528 L
 750 3999 mt  750 3943 L
 750  499 mt  750  556 L
%%IncludeResource: font Helvetica
/Helvetica /WindowsLatin1Encoding 133.333 FMSR

 626 4187 mt 
(10) s
%%IncludeResource: font Helvetica
/Helvetica /WindowsLatin1Encoding 88.8889 FMSR

 774 4105 mt 
(-1) s
1116 3999 mt 1116 3971 L
1116  499 mt 1116  528 L
1331 3999 mt 1331 3971 L
1331  499 mt 1331  528 L
1483 3999 mt 1483 3971 L
1483  499 mt 1483  528 L
1601 3999 mt 1601 3971 L
1601  499 mt 1601  528 L
1697 3999 mt 1697 3971 L
1697  499 mt 1697  528 L
1779 3999 mt 1779 3971 L
1779  499 mt 1779  528 L
1849 3999 mt 1849 3971 L
1849  499 mt 1849  528 L
1912 3999 mt 1912 3971 L
1912  499 mt 1912  528 L
1967 3999 mt 1967 3971 L
1967  499 mt 1967  528 L
1967 3999 mt 1967 3943 L
1967  499 mt 1967  556 L
%%IncludeResource: font Helvetica
/Helvetica /WindowsLatin1Encoding 133.333 FMSR

1869 4187 mt 
(10) s
%%IncludeResource: font Helvetica
/Helvetica /WindowsLatin1Encoding 88.8889 FMSR

2017 4105 mt 
(0) s
2334 3999 mt 2334 3971 L
2334  499 mt 2334  528 L
2548 3999 mt 2548 3971 L
2548  499 mt 2548  528 L
2701 3999 mt 2701 3971 L
2701  499 mt 2701  528 L
2819 3999 mt 2819 3971 L
2819  499 mt 2819  528 L
2915 3999 mt 2915 3971 L
2915  499 mt 2915  528 L
2997 3999 mt 2997 3971 L
2997  499 mt 2997  528 L
3067 3999 mt 3067 3971 L
3067  499 mt 3067  528 L
3129 3999 mt 3129 3971 L
3129  499 mt 3129  528 L
3185 3999 mt 3185 3971 L
3185  499 mt 3185  528 L
3185 3999 mt 3185 3943 L
3185  499 mt 3185  556 L
%%IncludeResource: font Helvetica
/Helvetica /WindowsLatin1Encoding 133.333 FMSR

3087 4187 mt 
(10) s
%%IncludeResource: font Helvetica
/Helvetica /WindowsLatin1Encoding 88.8889 FMSR

3235 4105 mt 
(1) s
3552 3999 mt 3552 3971 L
3552  499 mt 3552  528 L
3766 3999 mt 3766 3971 L
3766  499 mt 3766  528 L
3918 3999 mt 3918 3971 L
3918  499 mt 3918  528 L
4036 3999 mt 4036 3971 L
4036  499 mt 4036  528 L
4133 3999 mt 4133 3971 L
4133  499 mt 4133  528 L
4214 3999 mt 4214 3971 L
4214  499 mt 4214  528 L
4285 3999 mt 4285 3971 L
4285  499 mt 4285  528 L
4347 3999 mt 4347 3971 L
4347  499 mt 4347  528 L
4403 3999 mt 4403 3971 L
4403  499 mt 4403  528 L
4403 3999 mt 4403 3943 L
4403  499 mt 4403  556 L
%%IncludeResource: font Helvetica
/Helvetica /WindowsLatin1Encoding 133.333 FMSR

4305 4187 mt 
(10) s
%%IncludeResource: font Helvetica
/Helvetica /WindowsLatin1Encoding 88.8889 FMSR

4453 4105 mt 
(2) s
 750 3999 mt  806 3999 L
4500 3999 mt 4443 3999 L
%%IncludeResource: font Helvetica
/Helvetica /WindowsLatin1Encoding 133.333 FMSR

 467 4048 mt 
(0.44) s
 750 3649 mt  806 3649 L
4500 3649 mt 4443 3649 L
 393 3698 mt 
(0.445) s
 750 3299 mt  806 3299 L
4500 3299 mt 4443 3299 L
 467 3348 mt 
(0.45) s
 750 2949 mt  806 2949 L
4500 2949 mt 4443 2949 L
 393 2998 mt 
(0.455) s
 750 2599 mt  806 2599 L
4500 2599 mt 4443 2599 L
 467 2648 mt 
(0.46) s
 750 2250 mt  806 2250 L
4500 2250 mt 4443 2250 L
 393 2299 mt 
(0.465) s
 750 1900 mt  806 1900 L
4500 1900 mt 4443 1900 L
 467 1949 mt 
(0.47) s
 750 1549 mt  806 1549 L
4500 1549 mt 4443 1549 L
 393 1598 mt 
(0.475) s
 750 1199 mt  806 1199 L
4500 1199 mt 4443 1199 L
 467 1248 mt 
(0.48) s
 750  849 mt  806  849 L
4500  849 mt 4443  849 L
 393  898 mt 
(0.485) s
 750  499 mt  806  499 L
4500  499 mt 4443  499 L
 467  548 mt 
(0.49) s
 750  499 mt 4500  499 L
 750 3999 mt 4500 3999 L
4500 3999 mt 4500  499 L
 750 3999 mt  750  499 L
0 sg
%%IncludeResource: font Helvetica-Bold
/Helvetica-Bold /WindowsLatin1Encoding 125 FMSR

3053  734 mt 
(X = 1) s
gs 2728 590 732 696 rc
16.6667 w
250 0 2777 687 2 MP stroke
gr

16.6667 w
3053  901 mt 
(X = 5) s
gs 2728 590 732 696 rc
c8
250 0 2777 854 2 MP stroke
gr

c8
0 sg
3053 1067 mt 
(X = 10) s
gs 2728 590 732 696 rc
c9
250 0 2777 1020 2 MP stroke
gr

c9
0 sg
3053 1234 mt 
(X = 20) s
gs 2728 590 732 696 rc
c10
250 0 2777 1187 2 MP stroke
12.5 w
gr

12.5 w
c10

end %%Color Dict

eplot
%%EndObject

epage
end

showpage

%%Trailer
%%EOF
