%!PS-Adobe-3.0 EPSF-3.0
%%Creator: MATLAB, The MathWorks, Inc. Version 8.1.0.604 (R2013a). Operating System: Microsoft Windows 7.
%%Title: .\CoR_ConfinedPorosity_paired.eps
%%CreationDate: 08/17/2013  13:23:23
%%DocumentNeededFonts: Helvetica-Bold
%%+ Helvetica
%%DocumentProcessColors: Cyan Magenta Yellow Black
%%LanguageLevel: 2
%%Pages: 1
%%BoundingBox:    41    88   564   572
%%EndComments

%%BeginProlog
% MathWorks dictionary
/MathWorks 160 dict begin
% definition operators
/bdef {bind def} bind def
/ldef {load def} bind def
/xdef {exch def} bdef
/xstore {exch store} bdef
% operator abbreviations
/c  /clip ldef
/cc /concat ldef
/cp /closepath ldef
/gr /grestore ldef
/gs /gsave ldef
/mt /moveto ldef
/np /newpath ldef
/cm /currentmatrix ldef
/sm /setmatrix ldef
/rm /rmoveto ldef
/rl /rlineto ldef
/s {show newpath} bdef
/sc {setcmykcolor} bdef
/sr /setrgbcolor ldef
/sg /setgray ldef
/w /setlinewidth ldef
/j /setlinejoin ldef
/cap /setlinecap ldef
/rc {rectclip} bdef
/rf {rectfill} bdef
% page state control
/pgsv () def
/bpage {/pgsv save def} bdef
/epage {pgsv restore} bdef
/bplot /gsave ldef
/eplot {stroke grestore} bdef
% orientation switch
/portraitMode 0 def /landscapeMode 1 def /rotateMode 2 def
% coordinate system mappings
/dpi2point 0 def
% font control
/FontSize 0 def
/FMS {/FontSize xstore findfont [FontSize 0 0 FontSize neg 0 0]
  makefont setfont} bdef
/ISOLatin1Encoding where {pop /WindowsLatin1Encoding 256 array bdef
ISOLatin1Encoding WindowsLatin1Encoding copy pop
/.notdef/.notdef/quotesinglbase/florin/quotedblbase/ellipsis/dagger
/daggerdbl/circumflex/perthousand/Scaron/guilsinglleft/OE/.notdef/.notdef
/.notdef/.notdef/quoteleft/quoteright/quotedblleft/quotedblright/bullet
/endash/emdash/tilde/trademark/scaron/guilsinglright/oe/.notdef/.notdef
/Ydieresis WindowsLatin1Encoding 128 32 getinterval astore pop}
{/WindowsLatin1Encoding StandardEncoding bdef} ifelse
/reencode {exch dup where {pop load} {pop StandardEncoding} ifelse
  exch dup 3 1 roll findfont dup length dict begin
  { 1 index /FID ne {def}{pop pop} ifelse } forall
  /Encoding exch def currentdict end definefont pop} bdef
/isroman {findfont /CharStrings get /Agrave known} bdef
/FMSR {3 1 roll 1 index dup isroman {reencode} {pop pop} ifelse
  exch FMS} bdef
/csm {1 dpi2point div -1 dpi2point div scale neg translate
 dup landscapeMode eq {pop -90 rotate}
  {rotateMode eq {90 rotate} if} ifelse} bdef
% line types: solid, dotted, dashed, dotdash
/SO { [] 0 setdash } bdef
/DO { [.5 dpi2point mul 4 dpi2point mul] 0 setdash } bdef
/DA { [6 dpi2point mul] 0 setdash } bdef
/DD { [.5 dpi2point mul 4 dpi2point mul 6 dpi2point mul 4
  dpi2point mul] 0 setdash } bdef
% macros for lines and objects
/L {lineto stroke} bdef
/MP {3 1 roll moveto 1 sub {rlineto} repeat} bdef
/AP {{rlineto} repeat} bdef
/PDlw -1 def
/W {/PDlw currentlinewidth def setlinewidth} def
/PP {closepath eofill} bdef
/DP {closepath stroke} bdef
/MR {4 -2 roll moveto dup  0 exch rlineto exch 0 rlineto
  neg 0 exch rlineto closepath} bdef
/FR {MR stroke} bdef
/PR {MR fill} bdef
/L1i {{currentfile picstr readhexstring pop} image} bdef
/tMatrix matrix def
/MakeOval {newpath tMatrix currentmatrix pop translate scale
0 0 1 0 360 arc tMatrix setmatrix} bdef
/FO {MakeOval stroke} bdef
/PO {MakeOval fill} bdef
/PD {currentlinewidth 2 div 0 360 arc fill
   PDlw -1 eq not {PDlw w /PDlw -1 def} if} def
/FA {newpath tMatrix currentmatrix pop translate scale
  0 0 1 5 -2 roll arc tMatrix setmatrix stroke} bdef
/PA {newpath tMatrix currentmatrix pop	translate 0 0 moveto scale
  0 0 1 5 -2 roll arc closepath tMatrix setmatrix fill} bdef
/FAn {newpath tMatrix currentmatrix pop translate scale
  0 0 1 5 -2 roll arcn tMatrix setmatrix stroke} bdef
/PAn {newpath tMatrix currentmatrix pop translate 0 0 moveto scale
  0 0 1 5 -2 roll arcn closepath tMatrix setmatrix fill} bdef
/vradius 0 def /hradius 0 def /lry 0 def
/lrx 0 def /uly 0 def /ulx 0 def /rad 0 def
/MRR {/vradius xdef /hradius xdef /lry xdef /lrx xdef /uly xdef
  /ulx xdef newpath tMatrix currentmatrix pop ulx hradius add uly
  vradius add translate hradius vradius scale 0 0 1 180 270 arc 
  tMatrix setmatrix lrx hradius sub uly vradius add translate
  hradius vradius scale 0 0 1 270 360 arc tMatrix setmatrix
  lrx hradius sub lry vradius sub translate hradius vradius scale
  0 0 1 0 90 arc tMatrix setmatrix ulx hradius add lry vradius sub
  translate hradius vradius scale 0 0 1 90 180 arc tMatrix setmatrix
  closepath} bdef
/FRR {MRR stroke } bdef
/PRR {MRR fill } bdef
/MlrRR {/lry xdef /lrx xdef /uly xdef /ulx xdef /rad lry uly sub 2 div def
  newpath tMatrix currentmatrix pop ulx rad add uly rad add translate
  rad rad scale 0 0 1 90 270 arc tMatrix setmatrix lrx rad sub lry rad
  sub translate rad rad scale 0 0 1 270 90 arc tMatrix setmatrix
  closepath} bdef
/FlrRR {MlrRR stroke } bdef
/PlrRR {MlrRR fill } bdef
/MtbRR {/lry xdef /lrx xdef /uly xdef /ulx xdef /rad lrx ulx sub 2 div def
  newpath tMatrix currentmatrix pop ulx rad add uly rad add translate
  rad rad scale 0 0 1 180 360 arc tMatrix setmatrix lrx rad sub lry rad
  sub translate rad rad scale 0 0 1 0 180 arc tMatrix setmatrix
  closepath} bdef
/FtbRR {MtbRR stroke } bdef
/PtbRR {MtbRR fill } bdef
/stri 6 array def /dtri 6 array def
/smat 6 array def /dmat 6 array def
/tmat1 6 array def /tmat2 6 array def /dif 3 array def
/asub {/ind2 exch def /ind1 exch def dup dup
  ind1 get exch ind2 get sub exch } bdef
/tri_to_matrix {
  2 0 asub 3 1 asub 4 0 asub 5 1 asub
  dup 0 get exch 1 get 7 -1 roll astore } bdef
/compute_transform {
  dmat dtri tri_to_matrix tmat1 invertmatrix 
  smat stri tri_to_matrix tmat2 concatmatrix } bdef
/ds {stri astore pop} bdef
/dt {dtri astore pop} bdef
/db {2 copy /cols xdef /rows xdef mul dup 3 mul string
  currentfile 
  3 index 0 eq {/ASCIIHexDecode filter}
  {/ASCII85Decode filter 3 index 2 eq {/RunLengthDecode filter} if }
  ifelse exch readstring pop
  dup 0 3 index getinterval /rbmap xdef
  dup 2 index dup getinterval /gbmap xdef
  1 index dup 2 mul exch getinterval /bbmap xdef pop pop}bdef
/it {gs np dtri aload pop moveto lineto lineto cp c
  cols rows 8 compute_transform 
  rbmap gbmap bbmap true 3 colorimage gr}bdef
/il {newpath moveto lineto stroke}bdef
currentdict end def
%%EndProlog

%%BeginSetup
MathWorks begin

0 cap

end
%%EndSetup

%%Page: 1 1
%%BeginPageSetup
%%PageBoundingBox:    41    88   564   572
MathWorks begin
bpage
%%EndPageSetup

%%BeginObject: obj1
bplot

/dpi2point 8.33333 def
portraitMode 0150 5158 csm

  194   390  4362  4030 rc
84 dict begin %Colortable dictionary
/c0 { 0.000000 0.000000 0.000000 sr} bdef
/c1 { 1.000000 1.000000 1.000000 sr} bdef
/c2 { 0.900000 0.000000 0.000000 sr} bdef
/c3 { 0.000000 0.820000 0.000000 sr} bdef
/c4 { 0.000000 0.000000 0.800000 sr} bdef
/c5 { 0.910000 0.820000 0.320000 sr} bdef
/c6 { 1.000000 0.260000 0.820000 sr} bdef
/c7 { 0.000000 0.820000 0.820000 sr} bdef
c0
1 j
1 sg
   0    0 5001 5001 rf
12.5 w
0 3500 3750 0 0 -3500 750 4000 4 MP
PP
-3750 0 0 3500 3750 0 0 -3500 750 4000 5 MP stroke
gs 750 500 3751 3501 rc
16.6667 w
0 sg
-815 -11 -349 -10 -278 -10 -228 -10 -195 -11 -171 -10 -148 -10 -125 -11 
-115 -10 -110 -10 -97 -11 -86 -10 -89 -11 -85 -10 -69 -11 -75 -10 
-72 -11 -60 -10 -69 -11 -55 -10 -63 -11 -54 -10 -63 -11 -40 -11 
-38 -10 -17 10 -12 11 5 11 4 10 5 11 4 10 4 11 
3 10 5 11 5 10 5 11 4 10 5 11 5 10 5 11 
5 10 5 10 5 11 3 10 4 10 3 11 3 10 5 10 
4 10 5 11 5 10 5 10 5 10 5 10 5 10 5 10 
5 11 4 10 5 10 4 10 5 10 4 10 5 10 4 10 
5 9 4 10 5 10 5 10 5 10 5 10 5 10 5 9 
5 10 5 10 6 10 5 9 5 10 6 10 5 9 6 10 
6 10 6 9 5 10 5 10 5 9 5 10 7 9 7 10 
5 9 4 10 4 9 3 10 5 9 6 9 5 10 5 9 
5 10 4 9 4 9 5 10 5 9 5 9 7 9 7 10 
5 9 6 9 5 9 4 9 4 10 4 9 4 9 4 9 
6 9 5 9 5 9 5 9 4 9 4 9 4 9 5 9 
5 9 4 9 4 9 5 9 5 9 5 9 5 9 6 8 
6 9 5 9 7 9 6 9 5 8 5 9 4 9 4 9 
5 8 7 9 6 9 7 8 7 9 6 9 5 8 5 9 
4 9 7 8 7 9 7 8 7 9 7 8 6 9 6 8 
6 9 6 8 7 9 7 8 7 8 6 9 6 8 6 9 
6 8 7 8 7 9 9 8 9 8 7 9 6 8 6 8 
5 8 6 9 6 8 6 8 7 8 6 8 6 9 8 8 
8 8 8 8 7 8 8 8 6 8 6 8 4 8 4 8 
4 8 5 8 5 8 6 8 7 8 8 8 9 8 8 8 
7 8 7 8 5 8 6 8 4 8 5 8 4 7 5 8 
4 8 5 8 5 8 7 7 7 8 6 8 7 8 8 7 
8 8 8 8 10 7 9 8 9 8 8 7 6 8 6 8 
5 7 4 8 3 7 3 8 4 8 4 7 5 8 7 7 
7 8 6 7 7 8 7 7 5 8 7 7 8 8 8 7 
9 7 10 8 11 7 11 8 11 7 10 7 9 8 9 7 
7 7 6 8 5 7 6 7 6 7 6 8 5 7 5 7 
5 7 5 8 5 7 5 7 6 7 6 7 7 8 10 7 
12 7 11 7 13 7 13 7 11 7 10 7 10 7 11 8 
10 7 9 7 7 7 6 7 6 7 6 7 8 7 9 7 
10 7 8 6 7 7 6 7 7 7 7 7 7 7 9 7 
10 7 8 7 7 7 9 6 8 7 7 7 10 7 11 7 
9 6 11 7 11 7 11 7 11 6 11 7 9 7 9 7 
8 6 9 7 10 7 2696 1348 300 MP stroke
12 6 14 7 14 7 14 6 15 7 15 7 14 6 16 7 
20 6 17 7 16 7 14 6 11 7 10 6 10 7 9 6 
10 7 10 6 10 7 12 6 17 7 18 6 15 7 14 6 
19 7 20 6 25 6 31 7 39 6 31 7 30 6 24 6 
24 7 16 6 17 6 15 7 17 6 18 6 22 7 26 6 
30 6 35 7 40 6 49 6 50 6 49 7 51 6 44 6 
45 6 61 6 72 7 70 6 58 6 46 6 22 6 34 6 
32 7 44 6 45 6 42 6 33 6 37 6 41 6 53 6 
75 6 71 6 16 1 750 928 68 MP stroke
gr

16.6667 w
0 sg
0.1 sg
%%IncludeResource: font Helvetica-Bold
/Helvetica-Bold /WindowsLatin1Encoding 183.333 FMSR

1903 4362 mt 
(Log Stress [kPa]) s
 387 2612 mt  -90 rotate
(Porosity) s
90 rotate
gs 750 500 3751 3501 rc
/c8 { 1.000000 0.000000 0.000000 sr} bdef
c8
-751 -8 -373 -10 -294 -10 -234 -10 -195 -11 -174 -10 -159 -10 -139 -11 
-120 -10 -111 -10 -107 -11 -92 -10 -80 -11 -86 -10 -79 -11 -63 -10 
-73 -11 -68 -10 -55 -11 -67 -10 -54 -11 -61 -10 -53 -11 -60 -11 
-39 -10 -35 -11 -15 11 -12 10 4 11 4 11 5 10 4 11 
6 10 3 11 4 10 4 11 4 10 4 11 5 10 4 11 
4 10 4 11 4 10 5 10 5 11 5 10 4 10 5 11 
4 10 6 10 5 10 6 11 4 10 5 10 4 10 5 10 
5 10 5 10 5 11 5 10 4 10 5 10 5 10 6 10 
5 10 6 10 5 9 5 10 5 10 5 10 5 10 5 10 
6 10 5 9 5 10 5 10 4 10 5 9 5 10 5 10 
5 9 6 10 4 10 4 9 5 10 5 10 6 9 6 10 
5 9 4 10 4 9 2 10 3 9 5 10 5 9 6 9 
6 10 6 9 7 10 4 9 5 9 5 10 4 9 5 9 
6 9 6 10 6 9 5 9 5 9 4 9 6 10 5 9 
6 9 7 9 7 9 6 9 5 9 5 9 5 9 4 9 
6 9 7 9 7 9 6 9 6 9 6 9 4 9 4 9 
6 9 6 8 6 9 6 9 8 9 5 9 6 8 6 9 
6 9 5 9 7 8 7 9 6 9 6 8 5 9 7 9 
8 8 8 9 7 9 7 8 6 9 4 8 4 9 4 8 
3 9 3 8 4 9 6 8 9 9 9 8 9 8 7 9 
5 8 4 9 3 8 4 8 4 9 6 8 8 8 8 9 
8 8 9 8 7 8 5 9 5 8 4 8 5 8 5 8 
7 9 8 8 9 8 9 8 8 8 6 8 6 8 4 8 
6 8 5 8 5 8 6 8 8 8 9 8 10 8 12 8 
13 8 11 8 8 8 7 8 4 8 1 8 2 8 4 8 
3 7 4 8 5 8 4 8 5 8 8 7 9 8 9 8 
8 8 8 7 8 8 6 8 7 7 8 8 5 8 5 7 
3 8 3 8 4 7 6 8 7 7 10 8 13 8 12 7 
12 8 11 7 7 8 5 7 5 8 3 7 5 8 6 7 
6 8 8 7 9 7 8 8 8 7 8 8 7 7 6 7 
7 8 10 7 10 7 11 8 10 7 8 7 7 7 6 8 
7 7 7 7 9 7 9 8 10 7 9 7 8 7 8 7 
8 8 7 7 7 7 9 7 8 7 9 7 9 7 10 7 
9 7 9 8 9 7 9 7 10 7 11 7 13 7 14 7 
13 7 12 7 11 7 7 6 3 7 1 7 1 7 1 7 
4 7 6 7 5 7 5 7 8 7 9 6 9 7 9 7 
13 7 14 7 14 6 17 7 14 7 13 7 14 6 14 7 
12 7 16 7 15 6 2626 1362 300 MP stroke
12 7 9 7 12 6 15 7 16 7 16 6 14 7 11 7 
8 6 5 7 5 6 7 7 11 7 15 6 14 7 13 6 
12 7 12 6 15 7 15 6 21 7 26 6 29 7 28 6 
31 7 38 6 37 7 39 6 35 6 32 7 22 6 17 7 
16 6 23 6 31 7 41 6 55 6 70 7 70 6 73 6 
73 7 63 6 50 6 51 7 49 6 32 6 26 6 23 7 
20 6 9 6 25 6 10 6 10 7 41 6 66 6 96 6 
166 6 95 3 750 993 59 MP stroke
/c9 { 0.000000 0.000000 1.000000 sr} bdef
c9
-539 -7 -410 -10 -316 -10 -246 -11 -215 -10 -199 -10 -183 -10 -150 -11 
-123 -10 -117 -10 -114 -11 -92 -10 -81 -10 -92 -11 -85 -10 -64 -11 
-76 -10 -75 -11 -57 -10 -71 -11 -57 -10 -64 -11 -54 -10 -63 -11 
-39 -10 -37 -11 -16 11 -12 10 4 11 3 10 5 11 4 10 
5 11 5 10 5 11 5 10 5 11 5 10 6 11 6 10 
5 10 5 11 3 10 3 10 4 11 4 10 5 10 6 10 
7 11 4 10 4 10 5 10 4 10 3 10 5 10 4 11 
4 10 5 10 5 10 5 10 6 10 5 10 5 10 5 9 
5 10 4 10 6 10 5 10 5 10 5 10 5 9 4 10 
5 10 5 10 5 9 6 10 6 10 5 9 6 10 5 10 
5 9 5 10 5 10 6 9 6 10 5 9 6 10 6 9 
6 10 5 9 5 10 4 9 5 9 5 10 8 9 7 10 
7 9 6 9 5 10 4 9 5 9 6 9 4 10 6 9 
7 9 5 9 4 9 5 10 4 9 4 9 5 9 7 9 
9 9 8 9 6 9 5 9 4 9 2 9 5 9 6 9 
9 9 8 9 8 9 5 9 5 9 2 9 5 8 5 9 
6 9 8 9 9 9 10 8 8 9 4 9 4 9 3 8 
1 9 2 9 6 8 5 9 7 9 9 8 8 9 10 9 
9 8 7 9 4 8 5 9 4 8 4 9 6 8 7 9 
9 8 8 9 7 8 5 8 4 9 3 8 4 9 6 8 
8 8 6 9 5 8 5 8 5 9 4 8 7 8 7 8 
8 9 7 8 8 8 7 8 6 8 7 9 6 8 5 8 
7 8 8 8 8 8 9 8 9 8 8 8 7 8 5 8 
5 8 4 8 5 8 6 8 8 8 9 8 9 8 9 8 
9 8 8 8 6 8 6 8 4 8 5 7 6 8 7 8 
7 8 8 8 8 7 8 8 11 8 12 8 13 7 11 8 
9 8 5 7 2 8 1 8 1 7 3 8 6 8 8 7 
9 8 11 7 11 8 10 8 10 7 10 8 7 7 6 8 
8 7 7 8 8 7 8 8 8 7 7 8 5 7 5 7 
8 8 10 7 8 8 11 7 12 7 11 8 9 7 10 7 
10 8 8 7 7 7 5 7 6 8 6 7 10 7 13 7 
13 8 13 7 12 7 7 7 5 7 5 8 4 7 5 7 
6 7 9 7 9 7 10 7 11 7 13 7 14 8 12 7 
13 7 11 7 11 7 11 7 13 7 13 7 13 7 12 7 
12 6 13 7 12 7 12 7 9 7 8 7 7 7 7 7 
2 7 4 7 4 6 6 7 8 7 16 7 21 7 24 6 
27 7 21 7 18 7 18 6 14 7 13 7 18 7 16 6 
15 7 15 7 9 6 2440 1342 300 MP stroke
6 7 7 7 9 6 8 7 12 7 16 6 20 7 21 6 
26 7 30 7 32 6 28 7 22 6 22 7 21 6 25 7 
38 6 56 7 55 6 56 7 50 6 53 7 50 6 51 7 
57 6 72 6 58 7 51 6 66 7 73 6 78 6 109 7 
130 6 170 6 112 3 750 1118 36 MP stroke
gr

c9
0 sg
%%IncludeResource: font Helvetica
/Helvetica /WindowsLatin1Encoding 83.3333 FMSR

 732 4037 mt 
( ) s
4483  536 mt 
( ) s
8.33333 w
DO
SO
12.5 w
0.1 sg
 750  500 mt 4500  500 L
 750 4000 mt 4500 4000 L
4500 4000 mt 4500  500 L
 750 4000 mt  750  500 L
 750 4000 mt 4500 4000 L
 750 4000 mt  750  500 L
 750 4000 mt  750 3943 L
 750  500 mt  750  556 L
%%IncludeResource: font Helvetica
/Helvetica /WindowsLatin1Encoding 133.333 FMSR

 626 4188 mt 
(10) s
%%IncludeResource: font Helvetica
/Helvetica /WindowsLatin1Encoding 88.8889 FMSR

 774 4106 mt 
(-1) s
1967 4000 mt 1967 3943 L
1967  500 mt 1967  556 L
%%IncludeResource: font Helvetica
/Helvetica /WindowsLatin1Encoding 133.333 FMSR

1869 4188 mt 
(10) s
%%IncludeResource: font Helvetica
/Helvetica /WindowsLatin1Encoding 88.8889 FMSR

2017 4106 mt 
(0) s
3185 4000 mt 3185 3943 L
3185  500 mt 3185  556 L
%%IncludeResource: font Helvetica
/Helvetica /WindowsLatin1Encoding 133.333 FMSR

3087 4188 mt 
(10) s
%%IncludeResource: font Helvetica
/Helvetica /WindowsLatin1Encoding 88.8889 FMSR

3235 4106 mt 
(1) s
4403 4000 mt 4403 3943 L
4403  500 mt 4403  556 L
%%IncludeResource: font Helvetica
/Helvetica /WindowsLatin1Encoding 133.333 FMSR

4305 4188 mt 
(10) s
%%IncludeResource: font Helvetica
/Helvetica /WindowsLatin1Encoding 88.8889 FMSR

4453 4106 mt 
(2) s
 750 3999 mt  806 3999 L
4500 3999 mt 4443 3999 L
%%IncludeResource: font Helvetica
/Helvetica /WindowsLatin1Encoding 133.333 FMSR

 467 4048 mt 
(0.35) s
 750 3124 mt  806 3124 L
4500 3124 mt 4443 3124 L
 541 3173 mt 
(0.4) s
 750 2249 mt  806 2249 L
4500 2249 mt 4443 2249 L
 467 2298 mt 
(0.45) s
 750 1375 mt  806 1375 L
4500 1375 mt 4443 1375 L
 541 1424 mt 
(0.5) s
 750  500 mt  806  500 L
4500  500 mt 4443  500 L
 467  549 mt 
(0.55) s
 750  500 mt 4500  500 L
 750 4000 mt 4500 4000 L
4500 4000 mt 4500  500 L
 750 4000 mt  750  500 L
0 sg
%%IncludeResource: font Helvetica-Bold
/Helvetica-Bold /WindowsLatin1Encoding 125 FMSR

2482 2829 mt 
(CoR = 0.2) s
gs 2156 2685 939 531 rc
16.6667 w
250 0 2206 2783 2 MP stroke
gr

16.6667 w
2482 2997 mt 
(CoR = 0.5) s
gs 2156 2685 939 531 rc
c8
250 0 2206 2950 2 MP stroke
gr

c8
0 sg
2482 3164 mt 
(CoR = 0.8) s
gs 2156 2685 939 531 rc
c9
250 0 2206 3116 2 MP stroke
12.5 w
gr

12.5 w
c9

end %%Color Dict

eplot
%%EndObject

epage
end

showpage

%%Trailer
%%EOF
