%!PS-Adobe-3.0 EPSF-3.0
%%Creator: MATLAB, The MathWorks, Inc. Version 8.1.0.604 (R2013a). Operating System: Microsoft Windows 7.
%%Title: .\CoR_Confined_StressStain_paired.eps
%%CreationDate: 08/17/2013  13:23:22
%%DocumentNeededFonts: Helvetica-Bold
%%+ Helvetica
%%DocumentProcessColors: Cyan Magenta Yellow Black
%%LanguageLevel: 2
%%Pages: 1
%%BoundingBox:    45    93   564   572
%%EndComments

%%BeginProlog
% MathWorks dictionary
/MathWorks 160 dict begin
% definition operators
/bdef {bind def} bind def
/ldef {load def} bind def
/xdef {exch def} bdef
/xstore {exch store} bdef
% operator abbreviations
/c  /clip ldef
/cc /concat ldef
/cp /closepath ldef
/gr /grestore ldef
/gs /gsave ldef
/mt /moveto ldef
/np /newpath ldef
/cm /currentmatrix ldef
/sm /setmatrix ldef
/rm /rmoveto ldef
/rl /rlineto ldef
/s {show newpath} bdef
/sc {setcmykcolor} bdef
/sr /setrgbcolor ldef
/sg /setgray ldef
/w /setlinewidth ldef
/j /setlinejoin ldef
/cap /setlinecap ldef
/rc {rectclip} bdef
/rf {rectfill} bdef
% page state control
/pgsv () def
/bpage {/pgsv save def} bdef
/epage {pgsv restore} bdef
/bplot /gsave ldef
/eplot {stroke grestore} bdef
% orientation switch
/portraitMode 0 def /landscapeMode 1 def /rotateMode 2 def
% coordinate system mappings
/dpi2point 0 def
% font control
/FontSize 0 def
/FMS {/FontSize xstore findfont [FontSize 0 0 FontSize neg 0 0]
  makefont setfont} bdef
/ISOLatin1Encoding where {pop /WindowsLatin1Encoding 256 array bdef
ISOLatin1Encoding WindowsLatin1Encoding copy pop
/.notdef/.notdef/quotesinglbase/florin/quotedblbase/ellipsis/dagger
/daggerdbl/circumflex/perthousand/Scaron/guilsinglleft/OE/.notdef/.notdef
/.notdef/.notdef/quoteleft/quoteright/quotedblleft/quotedblright/bullet
/endash/emdash/tilde/trademark/scaron/guilsinglright/oe/.notdef/.notdef
/Ydieresis WindowsLatin1Encoding 128 32 getinterval astore pop}
{/WindowsLatin1Encoding StandardEncoding bdef} ifelse
/reencode {exch dup where {pop load} {pop StandardEncoding} ifelse
  exch dup 3 1 roll findfont dup length dict begin
  { 1 index /FID ne {def}{pop pop} ifelse } forall
  /Encoding exch def currentdict end definefont pop} bdef
/isroman {findfont /CharStrings get /Agrave known} bdef
/FMSR {3 1 roll 1 index dup isroman {reencode} {pop pop} ifelse
  exch FMS} bdef
/csm {1 dpi2point div -1 dpi2point div scale neg translate
 dup landscapeMode eq {pop -90 rotate}
  {rotateMode eq {90 rotate} if} ifelse} bdef
% line types: solid, dotted, dashed, dotdash
/SO { [] 0 setdash } bdef
/DO { [.5 dpi2point mul 4 dpi2point mul] 0 setdash } bdef
/DA { [6 dpi2point mul] 0 setdash } bdef
/DD { [.5 dpi2point mul 4 dpi2point mul 6 dpi2point mul 4
  dpi2point mul] 0 setdash } bdef
% macros for lines and objects
/L {lineto stroke} bdef
/MP {3 1 roll moveto 1 sub {rlineto} repeat} bdef
/AP {{rlineto} repeat} bdef
/PDlw -1 def
/W {/PDlw currentlinewidth def setlinewidth} def
/PP {closepath eofill} bdef
/DP {closepath stroke} bdef
/MR {4 -2 roll moveto dup  0 exch rlineto exch 0 rlineto
  neg 0 exch rlineto closepath} bdef
/FR {MR stroke} bdef
/PR {MR fill} bdef
/L1i {{currentfile picstr readhexstring pop} image} bdef
/tMatrix matrix def
/MakeOval {newpath tMatrix currentmatrix pop translate scale
0 0 1 0 360 arc tMatrix setmatrix} bdef
/FO {MakeOval stroke} bdef
/PO {MakeOval fill} bdef
/PD {currentlinewidth 2 div 0 360 arc fill
   PDlw -1 eq not {PDlw w /PDlw -1 def} if} def
/FA {newpath tMatrix currentmatrix pop translate scale
  0 0 1 5 -2 roll arc tMatrix setmatrix stroke} bdef
/PA {newpath tMatrix currentmatrix pop	translate 0 0 moveto scale
  0 0 1 5 -2 roll arc closepath tMatrix setmatrix fill} bdef
/FAn {newpath tMatrix currentmatrix pop translate scale
  0 0 1 5 -2 roll arcn tMatrix setmatrix stroke} bdef
/PAn {newpath tMatrix currentmatrix pop translate 0 0 moveto scale
  0 0 1 5 -2 roll arcn closepath tMatrix setmatrix fill} bdef
/vradius 0 def /hradius 0 def /lry 0 def
/lrx 0 def /uly 0 def /ulx 0 def /rad 0 def
/MRR {/vradius xdef /hradius xdef /lry xdef /lrx xdef /uly xdef
  /ulx xdef newpath tMatrix currentmatrix pop ulx hradius add uly
  vradius add translate hradius vradius scale 0 0 1 180 270 arc 
  tMatrix setmatrix lrx hradius sub uly vradius add translate
  hradius vradius scale 0 0 1 270 360 arc tMatrix setmatrix
  lrx hradius sub lry vradius sub translate hradius vradius scale
  0 0 1 0 90 arc tMatrix setmatrix ulx hradius add lry vradius sub
  translate hradius vradius scale 0 0 1 90 180 arc tMatrix setmatrix
  closepath} bdef
/FRR {MRR stroke } bdef
/PRR {MRR fill } bdef
/MlrRR {/lry xdef /lrx xdef /uly xdef /ulx xdef /rad lry uly sub 2 div def
  newpath tMatrix currentmatrix pop ulx rad add uly rad add translate
  rad rad scale 0 0 1 90 270 arc tMatrix setmatrix lrx rad sub lry rad
  sub translate rad rad scale 0 0 1 270 90 arc tMatrix setmatrix
  closepath} bdef
/FlrRR {MlrRR stroke } bdef
/PlrRR {MlrRR fill } bdef
/MtbRR {/lry xdef /lrx xdef /uly xdef /ulx xdef /rad lrx ulx sub 2 div def
  newpath tMatrix currentmatrix pop ulx rad add uly rad add translate
  rad rad scale 0 0 1 180 360 arc tMatrix setmatrix lrx rad sub lry rad
  sub translate rad rad scale 0 0 1 0 180 arc tMatrix setmatrix
  closepath} bdef
/FtbRR {MtbRR stroke } bdef
/PtbRR {MtbRR fill } bdef
/stri 6 array def /dtri 6 array def
/smat 6 array def /dmat 6 array def
/tmat1 6 array def /tmat2 6 array def /dif 3 array def
/asub {/ind2 exch def /ind1 exch def dup dup
  ind1 get exch ind2 get sub exch } bdef
/tri_to_matrix {
  2 0 asub 3 1 asub 4 0 asub 5 1 asub
  dup 0 get exch 1 get 7 -1 roll astore } bdef
/compute_transform {
  dmat dtri tri_to_matrix tmat1 invertmatrix 
  smat stri tri_to_matrix tmat2 concatmatrix } bdef
/ds {stri astore pop} bdef
/dt {dtri astore pop} bdef
/db {2 copy /cols xdef /rows xdef mul dup 3 mul string
  currentfile 
  3 index 0 eq {/ASCIIHexDecode filter}
  {/ASCII85Decode filter 3 index 2 eq {/RunLengthDecode filter} if }
  ifelse exch readstring pop
  dup 0 3 index getinterval /rbmap xdef
  dup 2 index dup getinterval /gbmap xdef
  1 index dup 2 mul exch getinterval /bbmap xdef pop pop}bdef
/it {gs np dtri aload pop moveto lineto lineto cp c
  cols rows 8 compute_transform 
  rbmap gbmap bbmap true 3 colorimage gr}bdef
/il {newpath moveto lineto stroke}bdef
currentdict end def
%%EndProlog

%%BeginSetup
MathWorks begin

0 cap

end
%%EndSetup

%%Page: 1 1
%%BeginPageSetup
%%PageBoundingBox:    45    93   564   572
MathWorks begin
bpage
%%EndPageSetup

%%BeginObject: obj1
bplot

/dpi2point 8.33333 def
portraitMode 0150 5158 csm

  231   390  4325  3990 rc
84 dict begin %Colortable dictionary
/c0 { 0.000000 0.000000 0.000000 sr} bdef
/c1 { 1.000000 1.000000 1.000000 sr} bdef
/c2 { 0.900000 0.000000 0.000000 sr} bdef
/c3 { 0.000000 0.820000 0.000000 sr} bdef
/c4 { 0.000000 0.000000 0.800000 sr} bdef
/c5 { 0.910000 0.820000 0.320000 sr} bdef
/c6 { 1.000000 0.260000 0.820000 sr} bdef
/c7 { 0.000000 0.820000 0.820000 sr} bdef
c0
1 j
1 sg
   0    0 5001 5001 rf
12.5 w
0 3500 3750 0 0 -3500 750 4000 4 MP
PP
-3750 0 0 3500 3750 0 0 -3500 750 4000 5 MP stroke
gs 750 500 3751 3501 rc
16.6667 w
0 sg
-9 2 -10 8 -10 16 -10 23 -10 31 -10 36 -9 43 -10 57 
-10 70 -10 69 -10 63 -9 88 -10 121 -10 101 -10 88 -10 171 
-10 153 -9 87 -10 252 -10 160 -10 123 -10 390 -10 -21 -9 502 
-10 117 -10 456 10 -28 10 -23 9 -30 10 -36 10 -29 10 -3 
10 -29 10 -28 9 -20 10 -22 10 -32 10 -30 10 -32 10 -13 
9 -21 10 -33 10 -36 10 -31 10 -15 9 -3 10 -17 10 -24 
10 -21 10 -16 10 -29 9 -32 10 -22 10 -18 10 -30 10 -11 
10 -22 9 -45 10 -10 10 -21 10 -11 10 -24 9 -26 10 -15 
10 -18 10 -21 10 -19 10 -21 9 -23 10 -26 10 -13 10 -18 
10 -20 10 -24 9 -21 10 -21 10 -19 10 -26 10 -24 9 -6 
10 -25 10 -25 10 -26 10 -23 10 -11 9 -12 10 -15 10 -27 
10 -32 10 -36 10 3 9 6 10 -18 10 -23 10 -20 10 -19 
10 -15 9 -10 10 -17 10 -15 10 -5 10 -16 9 -23 10 -21 
10 -18 10 -20 10 -14 10 -11 9 -14 10 -19 10 3 10 -10 
10 -16 10 -13 9 -24 10 -18 10 0 10 -11 10 -11 9 -14 
10 -12 10 -13 10 -9 10 -11 10 -10 9 -11 10 -14 10 -18 
10 -8 10 -10 10 -20 9 -14 10 -14 10 -15 10 -6 10 -10 
9 -8 10 -8 10 -13 10 -20 10 -16 10 -14 9 -13 10 -7 
10 -8 10 -10 10 -10 10 -12 9 -21 10 -18 10 -7 10 -11 
10 -6 10 -13 9 -14 10 -10 10 -14 10 -11 10 -14 9 -9 
10 -6 10 -9 10 -11 10 -12 10 -17 9 -14 10 -15 10 -7 
10 -6 10 -4 10 -8 9 -14 10 -13 10 -1 10 -9 10 -12 
9 -10 10 -8 10 -12 10 -11 10 -12 10 -7 9 -8 10 -1 
10 -5 10 -5 10 -7 10 -6 9 -6 10 -9 10 -8 10 -12 
10 -11 9 -6 10 -8 10 -5 10 -5 10 -6 10 -4 9 -6 
10 -2 10 -5 10 -5 10 -5 10 -6 9 -7 10 -8 10 -9 
10 -2 10 -7 9 -9 10 -11 10 -10 10 -4 10 -9 10 -5 
9 -3 10 -5 10 -3 10 -4 10 -2 10 0 9 -2 10 -7 
10 -7 10 -3 10 -8 10 -1 9 -6 10 -5 10 -6 10 -3 
10 -5 9 -7 10 -8 10 -9 10 -5 10 -7 10 -7 9 -7 
10 -5 10 -3 10 -3 10 -3 10 -5 9 -1 10 -5 10 -2 
10 -4 10 -3 9 -1 10 -2 10 -4 10 -2 10 -4 10 -5 
9 -1 10 -6 10 -11 10 -5 10 -3 10 -5 9 -7 10 -3 
10 -4 10 -4 10 -6 9 -4 10 -1 10 2 10 -3 10 -6 
10 -4 9 -4 10 -2 10 -1 10 -4 10 -2 10 -1 9 -3 
10 -3 10 -3 10 -5 10 -3 10 2 9 -4 10 -4 10 -2 
10 -3 10 -3 9 -3 10 -3 10 -3 10 -4 10 -3 10 -2 
9 -1 10 -3 10 -1 1565 3870 300 MP stroke
10 -4 10 -1 10 -4 9 -3 10 -4 10 -4 10 -1 10 -4 
9 -2 10 -3 10 -6 10 -4 10 0 10 -1 9 -2 10 -2 
10 -2 10 -1 10 -1 10 -2 9 -1 10 -3 10 -3 10 -3 
10 -2 9 0 10 -1 10 -5 10 -4 10 -4 10 -3 9 -4 
10 0 10 -3 10 -1 10 -2 10 0 9 -1 10 -2 10 -1 
10 -2 10 -2 10 -2 9 -2 10 -2 10 -3 10 -3 10 -1 
9 -1 10 -1 10 -2 10 -2 10 -3 10 -1 9 0 10 1 
10 -1 10 -1 10 -1 10 0 9 0 10 -1 10 0 10 -1 
10 0 9 0 10 -1 10 -1 10 -1 10 0 10 0 9 1 
10 1 10 -1 10 0 10 0 10 0 9 0 10 0 10 1 
10 0 10 -1 9 -1 750 3998 84 MP stroke
gr

16.6667 w
0 sg
0.1 sg
%%IncludeResource: font Helvetica-Bold
/Helvetica-Bold /WindowsLatin1Encoding 183.333 FMSR

2010 4322 mt 
(Vertical Strain) s
 424 3132 mt  -90 rotate
(Vertical Stress [kPa]) s
90 rotate
gs 750 500 3751 3501 rc
/c8 { 1.000000 0.000000 0.000000 sr} bdef
c8
-10 1 -10 5 -10 13 -10 23 -10 26 -10 32 -10 35 -10 46 
-10 64 -10 77 -10 74 -10 64 -10 96 -10 132 -10 94 -10 83 
-10 185 -10 140 -10 80 -10 272 -10 132 -10 126 -10 397 -10 -17 
-10 506 -10 95 -10 430 10 -37 10 -27 10 -25 10 5 10 -35 
10 -41 10 -32 10 -30 10 -10 10 3 10 -30 10 -45 10 -28 
10 -16 10 -12 10 -17 10 -27 10 -33 10 -33 10 -24 10 -10 
10 -19 10 -20 10 -42 10 -28 10 -29 10 -19 10 -17 10 -16 
10 -18 10 -36 10 -38 10 4 10 -27 10 -23 10 -26 10 -20 
10 -18 10 -27 10 -30 10 -24 10 -23 10 -15 10 -15 9 -28 
10 -12 10 -29 10 -29 10 -12 10 -16 10 -18 10 -14 10 -17 
10 -31 10 -26 10 -7 10 -17 10 -13 10 -16 10 -20 10 -26 
10 -15 10 -26 10 -12 10 -6 10 -10 10 -13 10 -5 10 -17 
10 -25 10 -37 10 1 10 -22 10 -22 10 -20 10 -4 10 -9 
10 -17 10 -24 10 -22 10 -8 10 -19 10 -13 10 -17 10 -3 
10 -16 10 -24 10 -14 10 -22 10 -20 10 -17 10 -7 10 -5 
10 -11 10 -20 10 -13 10 -23 10 -23 10 -10 10 -4 10 -14 
10 -11 9 -14 10 -9 10 -16 10 -16 10 -14 10 -14 10 -23 
10 4 10 -13 10 -16 10 -15 10 -15 10 -12 10 -10 10 -14 
10 -4 10 -14 10 -22 10 -29 10 0 10 -2 10 -14 10 -10 
10 -9 10 -2 10 2 10 -8 10 -11 10 -16 10 -21 10 -15 
10 -14 10 -7 10 -3 10 0 10 -7 10 -9 10 -8 10 -8 
10 -17 10 -18 10 -6 10 -13 10 -7 10 -8 10 -1 10 -7 
10 -8 10 -7 10 -11 10 -14 10 -14 10 -14 10 -3 10 -3 
10 -8 10 -7 10 -6 9 -6 10 -6 10 -5 10 -13 10 -14 
10 -14 10 -11 10 -17 10 -11 10 -5 10 2 10 -4 10 1 
10 -1 10 -8 10 -8 10 2 10 -4 10 -4 10 -7 10 -10 
10 -13 10 -10 10 0 10 -4 10 -9 10 -8 10 -7 10 -3 
10 -3 10 -3 10 -2 10 -3 10 -2 10 -5 10 -10 10 -10 
10 -10 10 -15 10 -1 10 -8 10 -2 10 0 10 -4 10 -3 
10 -3 10 -6 10 -4 10 -4 10 -7 10 -8 10 -3 10 -2 
10 -4 10 -4 10 -3 10 -8 10 -10 9 -5 10 -3 10 -3 
10 -1 10 -4 10 -6 10 -4 10 -2 10 -6 10 -5 10 -6 
10 -1 10 -2 10 -5 10 -4 10 -3 10 -3 10 -4 10 -2 
10 -6 10 -5 10 -3 10 -2 10 -1 10 -6 10 -5 10 -5 
10 -2 10 -6 10 -6 10 -3 10 -3 10 0 10 1 10 1 
10 -1 10 -1 10 -2 10 -3 10 -2 10 0 10 -1 10 -6 
10 -4 10 -1 10 -2 10 -5 10 -7 10 -4 10 -4 10 3 
10 -4 10 -7 10 -5 1378 3889 300 MP stroke
10 0 10 -1 10 -3 10 -3 9 -2 10 -3 10 -4 10 -3 
10 -3 10 0 10 1 10 -1 10 -2 10 -1 10 -3 10 -2 
10 -3 10 -2 10 0 10 -1 10 -3 10 -5 10 -2 10 -2 
10 -5 10 -3 10 -4 10 -2 10 -5 10 -3 10 -3 10 -1 
10 0 10 -1 10 -1 10 -2 10 -3 10 -3 10 -3 10 -4 
10 -3 10 -1 10 -2 10 -1 10 -1 10 -2 10 0 10 -1 
10 1 10 -1 10 0 10 -1 10 0 10 0 10 1 10 -1 
10 -3 10 -1 10 -1 10 -1 10 -1 10 1 9 -1 750 3999 64 MP stroke
/c9 { 0.000000 0.000000 1.000000 sr} bdef
c9
-10 1 -10 5 -10 6 -10 16 -11 24 -10 27 -10 30 -10 41 
-10 68 -10 85 -11 58 -10 45 -10 99 -10 145 -10 77 -10 70 
-10 194 -11 151 -10 60 -10 283 -10 158 -10 96 -10 433 -11 -27 
-10 509 -10 99 -10 446 10 -34 10 -22 10 -14 11 -20 10 -33 
10 -21 10 -33 10 -34 10 -24 11 -29 10 -21 10 -21 10 -39 
10 -38 10 -37 10 -31 11 7 10 -8 10 -27 10 -23 10 -31 
10 -24 11 -33 10 -43 10 -20 10 17 10 -32 10 -43 10 -4 
11 -18 10 -16 10 -21 10 -32 10 -19 10 -22 11 -35 10 -21 
10 -17 10 -14 10 -25 10 -17 10 -21 11 -34 10 -26 10 -1 
10 -19 10 -18 10 -27 11 -29 10 -4 10 -27 10 -26 10 -20 
10 -20 10 -11 11 -25 10 -17 10 -17 10 -25 10 -20 10 -20 
11 -16 10 -24 10 -26 10 -11 10 -1 10 -15 10 -22 11 -26 
10 -26 10 -28 10 -13 10 -14 10 -13 11 -16 10 -5 10 -27 
10 -20 10 6 10 -34 10 -24 11 -2 10 -6 10 -3 10 -22 
10 -17 10 -20 11 -32 10 -30 10 1 10 -6 10 1 10 -4 
10 -22 11 -27 10 -23 10 -33 10 8 10 -18 10 -1 11 -4 
10 -14 10 -19 10 -17 10 -18 10 -19 10 -25 11 -22 10 1 
10 19 10 -12 10 -15 10 -5 11 -10 10 -10 10 -14 10 -27 
10 -25 10 -7 10 -16 11 -8 10 -8 10 -1 10 -6 10 -10 
10 -16 11 -17 10 -15 10 -11 10 -13 10 -2 10 4 10 -7 
11 -12 10 -12 10 -19 10 -13 10 8 10 -4 11 -9 10 -12 
10 -15 10 -9 10 -8 10 -9 10 -13 11 -15 10 -3 10 -3 
10 -8 10 -11 10 -9 11 -11 10 -13 10 -7 10 -14 10 -8 
10 -5 10 -5 11 0 10 -7 10 -7 10 -12 10 -8 10 -9 
11 -12 10 -7 10 -10 10 -8 10 -3 10 -3 10 -4 11 -4 
10 -10 10 -9 10 -4 10 -4 10 -9 11 -11 10 -10 10 -12 
10 -12 10 -8 10 -4 10 1 11 2 10 2 10 -4 10 -4 
10 -8 10 -10 11 -6 10 -6 10 -11 10 -7 10 -4 10 -7 
10 -6 11 1 10 -5 10 -8 10 -6 10 -6 10 -1 10 -2 
11 -6 10 -2 10 -4 10 -9 10 -7 10 -3 11 -7 10 -8 
10 -3 10 -3 10 -5 10 -6 10 -2 11 0 10 -1 10 -5 
10 -7 10 -10 10 -5 11 -3 10 -3 10 -4 10 -1 10 1 
10 -2 10 -4 11 -4 10 -3 10 -3 10 -5 10 -3 10 -6 
11 -8 10 -3 10 0 10 -5 10 -3 10 -6 10 -4 11 -2 
10 -4 10 -4 10 -3 10 -3 10 -4 11 -3 10 -2 10 0 
10 -2 10 -1 10 -4 10 4 11 0 10 -4 10 -4 10 -5 
10 -6 10 -4 11 -6 10 -5 10 0 10 -2 10 -3 10 -3 
10 -3 11 -3 10 -1 1125 3920 300 MP stroke
10 -2 10 -2 10 0 10 0 11 -1 10 -3 10 -2 10 -2 
10 -3 10 -3 10 -3 11 -4 10 -4 10 -3 10 0 10 0 
10 -3 11 -3 10 -4 10 -5 10 -5 10 -1 10 -2 10 -1 
11 -4 10 -3 10 -1 10 -1 10 -2 10 -1 11 -2 10 -1 
10 -1 10 -2 10 -2 10 -1 10 -1 750 3998 38 MP stroke
gr

c9
0 sg
%%IncludeResource: font Helvetica
/Helvetica /WindowsLatin1Encoding 83.3333 FMSR

 732 4037 mt 
( ) s
4483  536 mt 
( ) s
8.33333 w
DO
SO
12.5 w
0.1 sg
 750  500 mt 4500  500 L
 750 4000 mt 4500 4000 L
4500 4000 mt 4500  500 L
 750 4000 mt  750  500 L
 750 4000 mt 4500 4000 L
 750 4000 mt  750  500 L
 750 4000 mt  750 3943 L
 750  500 mt  750  556 L
%%IncludeResource: font Helvetica
/Helvetica /WindowsLatin1Encoding 133.333 FMSR

 713 4148 mt 
(0) s
1431 4000 mt 1431 3943 L
1431  500 mt 1431  556 L
1302 4148 mt 
(0.05) s
2113 4000 mt 2113 3943 L
2113  500 mt 2113  556 L
2021 4148 mt 
(0.1) s
2795 4000 mt 2795 3943 L
2795  500 mt 2795  556 L
2666 4148 mt 
(0.15) s
3477 4000 mt 3477 3943 L
3477  500 mt 3477  556 L
3385 4148 mt 
(0.2) s
4159 4000 mt 4159 3943 L
4159  500 mt 4159  556 L
4030 4148 mt 
(0.25) s
 750 4000 mt  806 4000 L
4500 4000 mt 4443 4000 L
 652 4049 mt 
(0) s
 750 3681 mt  806 3681 L
4500 3681 mt 4443 3681 L
 578 3730 mt 
(10) s
 750 3363 mt  806 3363 L
4500 3363 mt 4443 3363 L
 578 3412 mt 
(20) s
 750 3045 mt  806 3045 L
4500 3045 mt 4443 3045 L
 578 3094 mt 
(30) s
 750 2727 mt  806 2727 L
4500 2727 mt 4443 2727 L
 578 2776 mt 
(40) s
 750 2409 mt  806 2409 L
4500 2409 mt 4443 2409 L
 578 2458 mt 
(50) s
 750 2090 mt  806 2090 L
4500 2090 mt 4443 2090 L
 578 2139 mt 
(60) s
 750 1772 mt  806 1772 L
4500 1772 mt 4443 1772 L
 578 1821 mt 
(70) s
 750 1454 mt  806 1454 L
4500 1454 mt 4443 1454 L
 578 1503 mt 
(80) s
 750 1136 mt  806 1136 L
4500 1136 mt 4443 1136 L
 578 1185 mt 
(90) s
 750  818 mt  806  818 L
4500  818 mt 4443  818 L
 504  867 mt 
(100) s
 750  500 mt  806  500 L
4500  500 mt 4443  500 L
 504  549 mt 
(110) s
 750  500 mt 4500  500 L
 750 4000 mt 4500 4000 L
4500 4000 mt 4500  500 L
 750 4000 mt  750  500 L
0 sg
%%IncludeResource: font Helvetica-Bold
/Helvetica-Bold /WindowsLatin1Encoding 125 FMSR

1232  729 mt 
(CoR = 0.2) s
gs 906 585 939 531 rc
16.6667 w
250 0 956 683 2 MP stroke
gr

16.6667 w
1232  897 mt 
(CoR = 0.5) s
gs 906 585 939 531 rc
c8
250 0 956 850 2 MP stroke
gr

c8
0 sg
1232 1064 mt 
(CoR = 0.8) s
gs 906 585 939 531 rc
c9
250 0 956 1016 2 MP stroke
12.5 w
gr

12.5 w
c9

end %%Color Dict

eplot
%%EndObject

epage
end

showpage

%%Trailer
%%EOF
