%!PS-Adobe-3.0 EPSF-3.0
%%Creator: MATLAB, The MathWorks, Inc. Version 8.1.0.604 (R2013a). Operating System: Microsoft Windows 7.
%%Title: .\CoR_ConfinedPorosity.eps
%%CreationDate: 08/17/2013  13:23:21
%%DocumentNeededFonts: Helvetica-Bold
%%+ Helvetica
%%DocumentProcessColors: Cyan Magenta Yellow Black
%%LanguageLevel: 2
%%Pages: 1
%%BoundingBox:    41    88   564   572
%%EndComments

%%BeginProlog
% MathWorks dictionary
/MathWorks 160 dict begin
% definition operators
/bdef {bind def} bind def
/ldef {load def} bind def
/xdef {exch def} bdef
/xstore {exch store} bdef
% operator abbreviations
/c  /clip ldef
/cc /concat ldef
/cp /closepath ldef
/gr /grestore ldef
/gs /gsave ldef
/mt /moveto ldef
/np /newpath ldef
/cm /currentmatrix ldef
/sm /setmatrix ldef
/rm /rmoveto ldef
/rl /rlineto ldef
/s {show newpath} bdef
/sc {setcmykcolor} bdef
/sr /setrgbcolor ldef
/sg /setgray ldef
/w /setlinewidth ldef
/j /setlinejoin ldef
/cap /setlinecap ldef
/rc {rectclip} bdef
/rf {rectfill} bdef
% page state control
/pgsv () def
/bpage {/pgsv save def} bdef
/epage {pgsv restore} bdef
/bplot /gsave ldef
/eplot {stroke grestore} bdef
% orientation switch
/portraitMode 0 def /landscapeMode 1 def /rotateMode 2 def
% coordinate system mappings
/dpi2point 0 def
% font control
/FontSize 0 def
/FMS {/FontSize xstore findfont [FontSize 0 0 FontSize neg 0 0]
  makefont setfont} bdef
/ISOLatin1Encoding where {pop /WindowsLatin1Encoding 256 array bdef
ISOLatin1Encoding WindowsLatin1Encoding copy pop
/.notdef/.notdef/quotesinglbase/florin/quotedblbase/ellipsis/dagger
/daggerdbl/circumflex/perthousand/Scaron/guilsinglleft/OE/.notdef/.notdef
/.notdef/.notdef/quoteleft/quoteright/quotedblleft/quotedblright/bullet
/endash/emdash/tilde/trademark/scaron/guilsinglright/oe/.notdef/.notdef
/Ydieresis WindowsLatin1Encoding 128 32 getinterval astore pop}
{/WindowsLatin1Encoding StandardEncoding bdef} ifelse
/reencode {exch dup where {pop load} {pop StandardEncoding} ifelse
  exch dup 3 1 roll findfont dup length dict begin
  { 1 index /FID ne {def}{pop pop} ifelse } forall
  /Encoding exch def currentdict end definefont pop} bdef
/isroman {findfont /CharStrings get /Agrave known} bdef
/FMSR {3 1 roll 1 index dup isroman {reencode} {pop pop} ifelse
  exch FMS} bdef
/csm {1 dpi2point div -1 dpi2point div scale neg translate
 dup landscapeMode eq {pop -90 rotate}
  {rotateMode eq {90 rotate} if} ifelse} bdef
% line types: solid, dotted, dashed, dotdash
/SO { [] 0 setdash } bdef
/DO { [.5 dpi2point mul 4 dpi2point mul] 0 setdash } bdef
/DA { [6 dpi2point mul] 0 setdash } bdef
/DD { [.5 dpi2point mul 4 dpi2point mul 6 dpi2point mul 4
  dpi2point mul] 0 setdash } bdef
% macros for lines and objects
/L {lineto stroke} bdef
/MP {3 1 roll moveto 1 sub {rlineto} repeat} bdef
/AP {{rlineto} repeat} bdef
/PDlw -1 def
/W {/PDlw currentlinewidth def setlinewidth} def
/PP {closepath eofill} bdef
/DP {closepath stroke} bdef
/MR {4 -2 roll moveto dup  0 exch rlineto exch 0 rlineto
  neg 0 exch rlineto closepath} bdef
/FR {MR stroke} bdef
/PR {MR fill} bdef
/L1i {{currentfile picstr readhexstring pop} image} bdef
/tMatrix matrix def
/MakeOval {newpath tMatrix currentmatrix pop translate scale
0 0 1 0 360 arc tMatrix setmatrix} bdef
/FO {MakeOval stroke} bdef
/PO {MakeOval fill} bdef
/PD {currentlinewidth 2 div 0 360 arc fill
   PDlw -1 eq not {PDlw w /PDlw -1 def} if} def
/FA {newpath tMatrix currentmatrix pop translate scale
  0 0 1 5 -2 roll arc tMatrix setmatrix stroke} bdef
/PA {newpath tMatrix currentmatrix pop	translate 0 0 moveto scale
  0 0 1 5 -2 roll arc closepath tMatrix setmatrix fill} bdef
/FAn {newpath tMatrix currentmatrix pop translate scale
  0 0 1 5 -2 roll arcn tMatrix setmatrix stroke} bdef
/PAn {newpath tMatrix currentmatrix pop translate 0 0 moveto scale
  0 0 1 5 -2 roll arcn closepath tMatrix setmatrix fill} bdef
/vradius 0 def /hradius 0 def /lry 0 def
/lrx 0 def /uly 0 def /ulx 0 def /rad 0 def
/MRR {/vradius xdef /hradius xdef /lry xdef /lrx xdef /uly xdef
  /ulx xdef newpath tMatrix currentmatrix pop ulx hradius add uly
  vradius add translate hradius vradius scale 0 0 1 180 270 arc 
  tMatrix setmatrix lrx hradius sub uly vradius add translate
  hradius vradius scale 0 0 1 270 360 arc tMatrix setmatrix
  lrx hradius sub lry vradius sub translate hradius vradius scale
  0 0 1 0 90 arc tMatrix setmatrix ulx hradius add lry vradius sub
  translate hradius vradius scale 0 0 1 90 180 arc tMatrix setmatrix
  closepath} bdef
/FRR {MRR stroke } bdef
/PRR {MRR fill } bdef
/MlrRR {/lry xdef /lrx xdef /uly xdef /ulx xdef /rad lry uly sub 2 div def
  newpath tMatrix currentmatrix pop ulx rad add uly rad add translate
  rad rad scale 0 0 1 90 270 arc tMatrix setmatrix lrx rad sub lry rad
  sub translate rad rad scale 0 0 1 270 90 arc tMatrix setmatrix
  closepath} bdef
/FlrRR {MlrRR stroke } bdef
/PlrRR {MlrRR fill } bdef
/MtbRR {/lry xdef /lrx xdef /uly xdef /ulx xdef /rad lrx ulx sub 2 div def
  newpath tMatrix currentmatrix pop ulx rad add uly rad add translate
  rad rad scale 0 0 1 180 360 arc tMatrix setmatrix lrx rad sub lry rad
  sub translate rad rad scale 0 0 1 0 180 arc tMatrix setmatrix
  closepath} bdef
/FtbRR {MtbRR stroke } bdef
/PtbRR {MtbRR fill } bdef
/stri 6 array def /dtri 6 array def
/smat 6 array def /dmat 6 array def
/tmat1 6 array def /tmat2 6 array def /dif 3 array def
/asub {/ind2 exch def /ind1 exch def dup dup
  ind1 get exch ind2 get sub exch } bdef
/tri_to_matrix {
  2 0 asub 3 1 asub 4 0 asub 5 1 asub
  dup 0 get exch 1 get 7 -1 roll astore } bdef
/compute_transform {
  dmat dtri tri_to_matrix tmat1 invertmatrix 
  smat stri tri_to_matrix tmat2 concatmatrix } bdef
/ds {stri astore pop} bdef
/dt {dtri astore pop} bdef
/db {2 copy /cols xdef /rows xdef mul dup 3 mul string
  currentfile 
  3 index 0 eq {/ASCIIHexDecode filter}
  {/ASCII85Decode filter 3 index 2 eq {/RunLengthDecode filter} if }
  ifelse exch readstring pop
  dup 0 3 index getinterval /rbmap xdef
  dup 2 index dup getinterval /gbmap xdef
  1 index dup 2 mul exch getinterval /bbmap xdef pop pop}bdef
/it {gs np dtri aload pop moveto lineto lineto cp c
  cols rows 8 compute_transform 
  rbmap gbmap bbmap true 3 colorimage gr}bdef
/il {newpath moveto lineto stroke}bdef
currentdict end def
%%EndProlog

%%BeginSetup
MathWorks begin

0 cap

end
%%EndSetup

%%Page: 1 1
%%BeginPageSetup
%%PageBoundingBox:    41    88   564   572
MathWorks begin
bpage
%%EndPageSetup

%%BeginObject: obj1
bplot

/dpi2point 8.33333 def
portraitMode 0150 5158 csm

  194   390  4362  4030 rc
84 dict begin %Colortable dictionary
/c0 { 0.000000 0.000000 0.000000 sr} bdef
/c1 { 1.000000 1.000000 1.000000 sr} bdef
/c2 { 0.900000 0.000000 0.000000 sr} bdef
/c3 { 0.000000 0.820000 0.000000 sr} bdef
/c4 { 0.000000 0.000000 0.800000 sr} bdef
/c5 { 0.910000 0.820000 0.320000 sr} bdef
/c6 { 1.000000 0.260000 0.820000 sr} bdef
/c7 { 0.000000 0.820000 0.820000 sr} bdef
c0
1 j
1 sg
   0    0 5001 5001 rf
12.5 w
0 3500 3750 0 0 -3500 750 4000 4 MP
PP
-3750 0 0 3500 3750 0 0 -3500 750 4000 5 MP stroke
gs 750 500 3751 3501 rc
16.6667 w
0 sg
-822 -9 -338 -10 -281 -9 -247 -9 -216 -9 -179 -9 -147 -10 -139 -9 
-130 -9 -105 -9 -99 -10 -106 -9 -84 -10 -81 -9 -86 -9 -66 -10 
-76 -9 -61 -10 -70 -9 -55 -10 -65 -9 -40 -10 -37 -9 -16 9 
-11 10 3 9 4 10 3 9 4 10 3 9 4 10 4 9 
4 9 4 10 4 9 4 10 4 9 4 9 4 9 5 10 
4 9 6 9 5 9 4 9 4 10 3 9 3 9 4 9 
4 9 4 9 5 9 4 9 4 9 4 9 5 9 4 9 
5 9 4 9 5 9 4 9 5 9 4 9 5 8 5 9 
5 9 4 9 5 9 4 8 4 9 4 9 5 9 6 8 
5 9 5 9 5 8 4 9 5 8 5 9 5 9 6 8 
5 9 4 8 3 9 4 8 4 9 5 8 5 8 5 9 
5 8 4 9 3 8 5 8 5 9 6 8 6 8 5 9 
6 8 4 8 5 8 5 9 5 8 5 8 5 8 6 8 
6 9 6 8 6 8 5 8 5 8 5 8 4 8 4 8 
5 8 5 8 6 8 6 8 5 8 5 8 4 8 4 8 
4 8 5 8 5 8 6 8 5 7 6 8 7 8 6 8 
6 8 5 7 6 8 5 8 5 8 5 7 5 8 6 8 
5 7 5 8 5 8 6 7 6 8 5 8 6 7 5 8 
6 7 6 8 6 8 7 7 8 8 7 7 7 8 5 7 
5 7 4 8 4 7 4 8 6 7 7 8 6 7 7 7 
7 8 7 7 6 7 6 8 6 7 5 7 5 7 6 8 
7 7 7 7 8 7 8 8 8 7 6 7 4 7 5 7 
4 7 5 8 7 7 8 7 10 7 8 7 6 7 7 7 
6 7 5 7 8 7 9 7 7 7 6 7 7 7 6 7 
6 7 6 7 7 7 6 7 7 7 8 7 7 7 8 6 
7 7 6 7 6 7 7 7 8 7 9 6 11 7 12 7 
13 7 12 6 10 7 6 7 6 7 5 6 5 7 5 7 
5 6 4 7 4 7 4 6 4 7 7 6 10 7 12 7 
14 6 13 7 11 6 9 7 8 6 6 7 5 6 4 7 
4 6 3 7 3 6 4 7 6 6 6 7 10 6 10 6 
12 7 13 6 12 7 11 6 13 6 12 7 10 6 10 6 
8 7 7 6 6 6 7 7 6 6 7 6 7 6 6 7 
6 6 8 6 8 6 10 6 14 7 12 6 12 6 9 6 
8 6 5 6 7 7 7 6 6 6 3 6 4 6 2 6 
2 6 7 6 8 6 9 6 11 6 11 6 11 6 10 6 
8 6 9 6 10 6 13 6 13 6 17 6 16 6 16 6 
15 6 16 6 16 6 15 6 14 5 11 6 9 6 8 6 
9 6 8 6 9 5 2610 1480 300 MP stroke
12 6 11 6 12 6 13 6 14 5 14 6 15 6 16 6 
15 5 16 6 13 6 11 6 14 5 12 6 17 6 21 5 
23 6 23 6 28 5 29 6 29 6 31 5 30 6 23 5 
18 6 16 6 10 5 14 6 22 5 20 6 23 5 39 6 
39 5 45 6 55 5 55 6 37 5 37 6 39 5 35 6 
39 5 59 6 72 5 65 6 58 5 53 5 43 6 17 5 
12 6 33 5 29 5 19 6 25 5 42 5 64 6 78 5 
72 5 82 6 52 3 750 1154 60 MP stroke
gr

16.6667 w
0 sg
0.1 sg
%%IncludeResource: font Helvetica-Bold
/Helvetica-Bold /WindowsLatin1Encoding 183.333 FMSR

1903 4362 mt 
(Log Stress [kPa]) s
 387 2612 mt  -90 rotate
(Porosity) s
90 rotate
gs 750 500 3751 3501 rc
/c8 { 1.000000 0.000000 0.000000 sr} bdef
c8
-824 -8 -349 -9 -290 -9 -267 -9 -235 -9 -189 -10 -149 -9 -143 -9 
-137 -9 -102 -9 -99 -10 -110 -9 -83 -9 -78 -9 -89 -10 -65 -9 
-77 -10 -61 -9 -71 -9 -54 -10 -69 -9 -39 -10 -39 -9 -17 9 
-13 10 4 9 4 10 4 9 5 9 4 10 4 9 4 10 
4 9 4 9 4 9 3 10 4 9 4 9 4 9 5 9 
4 10 4 9 5 9 4 9 5 9 4 9 4 9 5 9 
5 9 4 9 4 9 5 9 4 9 4 9 5 9 6 9 
4 9 5 9 4 8 4 9 5 9 5 9 5 9 5 8 
5 9 4 9 4 9 5 8 4 9 3 9 4 8 4 9 
4 8 4 9 6 9 5 8 4 9 5 8 4 9 4 8 
5 9 6 8 6 8 6 9 5 8 3 9 4 8 5 8 
5 9 6 8 7 8 5 9 5 8 4 8 4 8 5 9 
5 8 6 8 7 8 6 8 5 9 5 8 4 8 4 8 
5 8 5 8 6 8 5 8 5 8 4 8 5 8 6 8 
6 8 6 8 7 8 6 8 4 8 5 8 5 8 6 8 
6 7 7 8 7 8 5 8 5 8 5 7 6 8 7 8 
5 8 6 7 5 8 4 8 4 7 6 8 6 8 6 7 
5 8 4 8 5 7 5 8 4 7 4 8 7 8 8 7 
7 8 7 7 8 8 6 7 3 7 4 8 4 7 4 8 
4 7 6 8 6 7 7 7 6 8 7 7 7 7 6 8 
5 7 5 7 4 7 5 8 5 7 6 7 6 7 6 8 
6 7 6 7 6 7 6 7 7 7 7 8 8 7 7 7 
7 7 4 7 4 7 4 7 5 7 6 7 8 7 8 7 
9 7 6 7 6 7 6 7 4 7 4 7 6 7 6 7 
7 7 8 7 9 7 7 6 6 7 6 7 3 7 3 7 
4 7 5 6 6 7 10 7 9 7 9 6 7 7 5 7 
4 7 5 6 6 7 7 7 7 6 6 7 7 7 7 6 
7 7 10 6 10 7 10 7 9 6 9 7 8 6 7 7 
7 6 9 7 8 6 10 7 10 6 10 7 7 6 8 7 
6 6 5 7 8 6 9 6 11 7 14 6 14 7 9 6 
9 6 6 7 4 6 4 6 6 7 5 6 4 6 6 7 
7 6 7 6 9 6 8 7 10 6 11 6 12 6 12 6 
14 7 13 6 13 6 13 6 11 6 9 6 8 7 7 6 
5 6 5 6 4 6 5 6 5 6 6 6 8 6 11 6 
11 6 14 6 16 6 16 6 13 6 13 6 13 6 11 6 
12 6 14 6 16 6 17 6 17 6 17 6 17 6 14 6 
15 5 14 6 16 6 14 6 11 6 10 6 10 5 7 6 
11 6 13 6 14 6 2548 1456 300 MP stroke
18 5 23 6 26 6 28 6 36 5 37 6 41 6 33 6 
26 5 15 6 10 6 7 5 11 6 21 6 28 5 34 6 
38 6 45 5 57 6 69 5 73 6 78 6 88 5 91 6 
96 5 108 6 88 5 71 6 52 5 -1 6 -40 5 -42 6 
-38 5 -32 6 10 5 45 6 83 5 93 6 108 5 76 6 
60 5 74 5 54 3 750 1219 44 MP stroke
/c9 { 0.000000 0.000000 1.000000 sr} bdef
c9
-676 -7 -340 -10 -308 -9 -292 -9 -261 -9 -206 -9 -160 -10 -151 -9 
-144 -9 -111 -9 -98 -10 -117 -9 -91 -10 -80 -9 -95 -9 -70 -10 
-80 -9 -63 -10 -74 -9 -54 -10 -70 -9 -40 -10 -38 -9 -17 9 
-12 10 4 9 4 10 5 9 4 10 3 9 4 10 3 9 
3 9 4 10 4 9 4 10 4 9 4 9 5 9 4 10 
5 9 4 9 4 9 4 9 5 10 5 9 4 9 5 9 
4 9 3 9 4 9 5 9 4 9 5 9 4 9 4 9 
2 9 5 9 5 9 5 9 5 9 5 9 4 8 5 9 
4 9 6 9 5 9 5 8 5 9 5 9 5 9 4 8 
4 9 5 9 4 8 4 9 5 8 5 9 5 9 4 8 
5 9 5 8 4 9 5 8 6 9 4 8 5 8 4 9 
6 8 5 9 5 8 5 8 5 9 6 8 5 8 6 9 
5 8 5 8 5 8 5 9 4 8 5 8 4 8 4 8 
4 9 5 8 5 8 5 8 5 8 4 8 5 8 6 8 
5 8 5 8 5 8 4 8 5 8 4 8 6 8 6 8 
6 8 7 8 6 8 5 8 5 7 5 8 4 8 4 8 
6 8 4 7 5 8 5 8 4 8 3 7 5 8 6 8 
5 7 6 8 5 8 5 7 5 8 4 8 5 7 5 8 
8 7 6 8 6 8 5 7 4 8 2 7 5 8 6 7 
8 7 8 8 7 7 6 8 5 7 4 8 4 7 6 7 
7 8 8 7 8 7 8 8 6 7 6 7 8 7 6 8 
6 7 6 7 7 7 4 8 3 7 6 7 5 7 5 7 
7 7 8 8 7 7 8 7 7 7 5 7 5 7 4 7 
5 7 5 7 7 7 9 7 10 7 9 7 10 7 10 7 
8 7 6 7 6 7 4 7 6 7 5 7 5 7 4 6 
4 7 4 7 3 7 7 7 9 7 10 6 11 7 11 7 
10 7 10 6 8 7 6 7 6 7 7 6 6 7 8 7 
8 6 9 7 9 7 8 6 8 7 8 6 8 7 8 7 
8 6 10 7 10 6 9 7 7 6 9 7 11 6 10 7 
11 6 10 7 10 6 8 7 4 6 3 7 2 6 1 6 
1 7 5 6 8 7 10 6 11 6 12 7 14 6 13 6 
10 7 9 6 9 6 8 7 7 6 6 6 6 6 5 7 
4 6 4 6 6 6 10 6 14 7 16 6 16 6 20 6 
18 6 15 6 13 7 13 6 11 6 10 6 10 6 13 6 
15 6 14 6 14 6 12 6 13 6 12 6 14 6 17 6 
18 6 21 6 19 6 20 6 15 6 18 6 17 6 17 6 
17 6 18 6 18 6 17 6 19 5 16 6 18 6 21 6 
26 6 29 6 38 5 2364 1480 300 MP stroke
42 6 43 6 38 6 35 6 40 5 47 6 48 6 67 6 
91 5 103 6 108 6 99 6 55 5 7 6 -22 6 -36 5 
-6 6 9 6 21 5 30 6 47 6 37 5 61 6 63 5 
59 6 68 6 100 5 102 6 111 5 147 6 750 1309 31 MP stroke
gr

c9
0 sg
%%IncludeResource: font Helvetica
/Helvetica /WindowsLatin1Encoding 83.3333 FMSR

 732 4037 mt 
( ) s
4483  536 mt 
( ) s
8.33333 w
DO
SO
12.5 w
0.1 sg
 750  500 mt 4500  500 L
 750 4000 mt 4500 4000 L
4500 4000 mt 4500  500 L
 750 4000 mt  750  500 L
 750 4000 mt 4500 4000 L
 750 4000 mt  750  500 L
 750 4000 mt  750 3971 L
 750  500 mt  750  528 L
 750 4000 mt  750 3943 L
 750  500 mt  750  556 L
%%IncludeResource: font Helvetica
/Helvetica /WindowsLatin1Encoding 133.333 FMSR

 626 4188 mt 
(10) s
%%IncludeResource: font Helvetica
/Helvetica /WindowsLatin1Encoding 88.8889 FMSR

 774 4106 mt 
(-1) s
1116 4000 mt 1116 3971 L
1116  500 mt 1116  528 L
1331 4000 mt 1331 3971 L
1331  500 mt 1331  528 L
1483 4000 mt 1483 3971 L
1483  500 mt 1483  528 L
1601 4000 mt 1601 3971 L
1601  500 mt 1601  528 L
1697 4000 mt 1697 3971 L
1697  500 mt 1697  528 L
1779 4000 mt 1779 3971 L
1779  500 mt 1779  528 L
1849 4000 mt 1849 3971 L
1849  500 mt 1849  528 L
1912 4000 mt 1912 3971 L
1912  500 mt 1912  528 L
1967 4000 mt 1967 3971 L
1967  500 mt 1967  528 L
1967 4000 mt 1967 3943 L
1967  500 mt 1967  556 L
%%IncludeResource: font Helvetica
/Helvetica /WindowsLatin1Encoding 133.333 FMSR

1869 4188 mt 
(10) s
%%IncludeResource: font Helvetica
/Helvetica /WindowsLatin1Encoding 88.8889 FMSR

2017 4106 mt 
(0) s
2334 4000 mt 2334 3971 L
2334  500 mt 2334  528 L
2548 4000 mt 2548 3971 L
2548  500 mt 2548  528 L
2701 4000 mt 2701 3971 L
2701  500 mt 2701  528 L
2819 4000 mt 2819 3971 L
2819  500 mt 2819  528 L
2915 4000 mt 2915 3971 L
2915  500 mt 2915  528 L
2997 4000 mt 2997 3971 L
2997  500 mt 2997  528 L
3067 4000 mt 3067 3971 L
3067  500 mt 3067  528 L
3129 4000 mt 3129 3971 L
3129  500 mt 3129  528 L
3185 4000 mt 3185 3971 L
3185  500 mt 3185  528 L
3185 4000 mt 3185 3943 L
3185  500 mt 3185  556 L
%%IncludeResource: font Helvetica
/Helvetica /WindowsLatin1Encoding 133.333 FMSR

3087 4188 mt 
(10) s
%%IncludeResource: font Helvetica
/Helvetica /WindowsLatin1Encoding 88.8889 FMSR

3235 4106 mt 
(1) s
3552 4000 mt 3552 3971 L
3552  500 mt 3552  528 L
3766 4000 mt 3766 3971 L
3766  500 mt 3766  528 L
3918 4000 mt 3918 3971 L
3918  500 mt 3918  528 L
4036 4000 mt 4036 3971 L
4036  500 mt 4036  528 L
4133 4000 mt 4133 3971 L
4133  500 mt 4133  528 L
4214 4000 mt 4214 3971 L
4214  500 mt 4214  528 L
4285 4000 mt 4285 3971 L
4285  500 mt 4285  528 L
4347 4000 mt 4347 3971 L
4347  500 mt 4347  528 L
4403 4000 mt 4403 3971 L
4403  500 mt 4403  528 L
4403 4000 mt 4403 3943 L
4403  500 mt 4403  556 L
%%IncludeResource: font Helvetica
/Helvetica /WindowsLatin1Encoding 133.333 FMSR

4305 4188 mt 
(10) s
%%IncludeResource: font Helvetica
/Helvetica /WindowsLatin1Encoding 88.8889 FMSR

4453 4106 mt 
(2) s
 750 3999 mt  806 3999 L
4500 3999 mt 4443 3999 L
%%IncludeResource: font Helvetica
/Helvetica /WindowsLatin1Encoding 133.333 FMSR

 541 4048 mt 
(0.3) s
 750 3300 mt  806 3300 L
4500 3300 mt 4443 3300 L
 467 3349 mt 
(0.35) s
 750 2600 mt  806 2600 L
4500 2600 mt 4443 2600 L
 541 2649 mt 
(0.4) s
 750 1899 mt  806 1899 L
4500 1899 mt 4443 1899 L
 467 1948 mt 
(0.45) s
 750 1200 mt  806 1200 L
4500 1200 mt 4443 1200 L
 541 1249 mt 
(0.5) s
 750  500 mt  806  500 L
4500  500 mt 4443  500 L
 467  549 mt 
(0.55) s
 750  500 mt 4500  500 L
 750 4000 mt 4500 4000 L
4500 4000 mt 4500  500 L
 750 4000 mt  750  500 L
0 sg
%%IncludeResource: font Helvetica-Bold
/Helvetica-Bold /WindowsLatin1Encoding 125 FMSR

2482  729 mt 
(CoR = 0.2) s
gs 2156 585 939 531 rc
16.6667 w
250 0 2206 683 2 MP stroke
gr

16.6667 w
2482  897 mt 
(CoR = 0.5) s
gs 2156 585 939 531 rc
c8
250 0 2206 850 2 MP stroke
gr

c8
0 sg
2482 1064 mt 
(CoR = 0.8) s
gs 2156 585 939 531 rc
c9
250 0 2206 1016 2 MP stroke
12.5 w
gr

12.5 w
c9

end %%Color Dict

eplot
%%EndObject

epage
end

showpage

%%Trailer
%%EOF
