%!PS-Adobe-3.0 EPSF-3.0
%%Creator: MATLAB, The MathWorks, Inc. Version 8.1.0.604 (R2013a). Operating System: Microsoft Windows 7.
%%Title: .\CoR_ConfinedDensity.eps
%%CreationDate: 08/17/2013  13:23:22
%%DocumentNeededFonts: Helvetica-Bold
%%+ Helvetica
%%DocumentProcessColors: Cyan Magenta Yellow Black
%%LanguageLevel: 2
%%Pages: 1
%%BoundingBox:    30    88   564   572
%%EndComments

%%BeginProlog
% MathWorks dictionary
/MathWorks 160 dict begin
% definition operators
/bdef {bind def} bind def
/ldef {load def} bind def
/xdef {exch def} bdef
/xstore {exch store} bdef
% operator abbreviations
/c  /clip ldef
/cc /concat ldef
/cp /closepath ldef
/gr /grestore ldef
/gs /gsave ldef
/mt /moveto ldef
/np /newpath ldef
/cm /currentmatrix ldef
/sm /setmatrix ldef
/rm /rmoveto ldef
/rl /rlineto ldef
/s {show newpath} bdef
/sc {setcmykcolor} bdef
/sr /setrgbcolor ldef
/sg /setgray ldef
/w /setlinewidth ldef
/j /setlinejoin ldef
/cap /setlinecap ldef
/rc {rectclip} bdef
/rf {rectfill} bdef
% page state control
/pgsv () def
/bpage {/pgsv save def} bdef
/epage {pgsv restore} bdef
/bplot /gsave ldef
/eplot {stroke grestore} bdef
% orientation switch
/portraitMode 0 def /landscapeMode 1 def /rotateMode 2 def
% coordinate system mappings
/dpi2point 0 def
% font control
/FontSize 0 def
/FMS {/FontSize xstore findfont [FontSize 0 0 FontSize neg 0 0]
  makefont setfont} bdef
/ISOLatin1Encoding where {pop /WindowsLatin1Encoding 256 array bdef
ISOLatin1Encoding WindowsLatin1Encoding copy pop
/.notdef/.notdef/quotesinglbase/florin/quotedblbase/ellipsis/dagger
/daggerdbl/circumflex/perthousand/Scaron/guilsinglleft/OE/.notdef/.notdef
/.notdef/.notdef/quoteleft/quoteright/quotedblleft/quotedblright/bullet
/endash/emdash/tilde/trademark/scaron/guilsinglright/oe/.notdef/.notdef
/Ydieresis WindowsLatin1Encoding 128 32 getinterval astore pop}
{/WindowsLatin1Encoding StandardEncoding bdef} ifelse
/reencode {exch dup where {pop load} {pop StandardEncoding} ifelse
  exch dup 3 1 roll findfont dup length dict begin
  { 1 index /FID ne {def}{pop pop} ifelse } forall
  /Encoding exch def currentdict end definefont pop} bdef
/isroman {findfont /CharStrings get /Agrave known} bdef
/FMSR {3 1 roll 1 index dup isroman {reencode} {pop pop} ifelse
  exch FMS} bdef
/csm {1 dpi2point div -1 dpi2point div scale neg translate
 dup landscapeMode eq {pop -90 rotate}
  {rotateMode eq {90 rotate} if} ifelse} bdef
% line types: solid, dotted, dashed, dotdash
/SO { [] 0 setdash } bdef
/DO { [.5 dpi2point mul 4 dpi2point mul] 0 setdash } bdef
/DA { [6 dpi2point mul] 0 setdash } bdef
/DD { [.5 dpi2point mul 4 dpi2point mul 6 dpi2point mul 4
  dpi2point mul] 0 setdash } bdef
% macros for lines and objects
/L {lineto stroke} bdef
/MP {3 1 roll moveto 1 sub {rlineto} repeat} bdef
/AP {{rlineto} repeat} bdef
/PDlw -1 def
/W {/PDlw currentlinewidth def setlinewidth} def
/PP {closepath eofill} bdef
/DP {closepath stroke} bdef
/MR {4 -2 roll moveto dup  0 exch rlineto exch 0 rlineto
  neg 0 exch rlineto closepath} bdef
/FR {MR stroke} bdef
/PR {MR fill} bdef
/L1i {{currentfile picstr readhexstring pop} image} bdef
/tMatrix matrix def
/MakeOval {newpath tMatrix currentmatrix pop translate scale
0 0 1 0 360 arc tMatrix setmatrix} bdef
/FO {MakeOval stroke} bdef
/PO {MakeOval fill} bdef
/PD {currentlinewidth 2 div 0 360 arc fill
   PDlw -1 eq not {PDlw w /PDlw -1 def} if} def
/FA {newpath tMatrix currentmatrix pop translate scale
  0 0 1 5 -2 roll arc tMatrix setmatrix stroke} bdef
/PA {newpath tMatrix currentmatrix pop	translate 0 0 moveto scale
  0 0 1 5 -2 roll arc closepath tMatrix setmatrix fill} bdef
/FAn {newpath tMatrix currentmatrix pop translate scale
  0 0 1 5 -2 roll arcn tMatrix setmatrix stroke} bdef
/PAn {newpath tMatrix currentmatrix pop translate 0 0 moveto scale
  0 0 1 5 -2 roll arcn closepath tMatrix setmatrix fill} bdef
/vradius 0 def /hradius 0 def /lry 0 def
/lrx 0 def /uly 0 def /ulx 0 def /rad 0 def
/MRR {/vradius xdef /hradius xdef /lry xdef /lrx xdef /uly xdef
  /ulx xdef newpath tMatrix currentmatrix pop ulx hradius add uly
  vradius add translate hradius vradius scale 0 0 1 180 270 arc 
  tMatrix setmatrix lrx hradius sub uly vradius add translate
  hradius vradius scale 0 0 1 270 360 arc tMatrix setmatrix
  lrx hradius sub lry vradius sub translate hradius vradius scale
  0 0 1 0 90 arc tMatrix setmatrix ulx hradius add lry vradius sub
  translate hradius vradius scale 0 0 1 90 180 arc tMatrix setmatrix
  closepath} bdef
/FRR {MRR stroke } bdef
/PRR {MRR fill } bdef
/MlrRR {/lry xdef /lrx xdef /uly xdef /ulx xdef /rad lry uly sub 2 div def
  newpath tMatrix currentmatrix pop ulx rad add uly rad add translate
  rad rad scale 0 0 1 90 270 arc tMatrix setmatrix lrx rad sub lry rad
  sub translate rad rad scale 0 0 1 270 90 arc tMatrix setmatrix
  closepath} bdef
/FlrRR {MlrRR stroke } bdef
/PlrRR {MlrRR fill } bdef
/MtbRR {/lry xdef /lrx xdef /uly xdef /ulx xdef /rad lrx ulx sub 2 div def
  newpath tMatrix currentmatrix pop ulx rad add uly rad add translate
  rad rad scale 0 0 1 180 360 arc tMatrix setmatrix lrx rad sub lry rad
  sub translate rad rad scale 0 0 1 0 180 arc tMatrix setmatrix
  closepath} bdef
/FtbRR {MtbRR stroke } bdef
/PtbRR {MtbRR fill } bdef
/stri 6 array def /dtri 6 array def
/smat 6 array def /dmat 6 array def
/tmat1 6 array def /tmat2 6 array def /dif 3 array def
/asub {/ind2 exch def /ind1 exch def dup dup
  ind1 get exch ind2 get sub exch } bdef
/tri_to_matrix {
  2 0 asub 3 1 asub 4 0 asub 5 1 asub
  dup 0 get exch 1 get 7 -1 roll astore } bdef
/compute_transform {
  dmat dtri tri_to_matrix tmat1 invertmatrix 
  smat stri tri_to_matrix tmat2 concatmatrix } bdef
/ds {stri astore pop} bdef
/dt {dtri astore pop} bdef
/db {2 copy /cols xdef /rows xdef mul dup 3 mul string
  currentfile 
  3 index 0 eq {/ASCIIHexDecode filter}
  {/ASCII85Decode filter 3 index 2 eq {/RunLengthDecode filter} if }
  ifelse exch readstring pop
  dup 0 3 index getinterval /rbmap xdef
  dup 2 index dup getinterval /gbmap xdef
  1 index dup 2 mul exch getinterval /bbmap xdef pop pop}bdef
/it {gs np dtri aload pop moveto lineto lineto cp c
  cols rows 8 compute_transform 
  rbmap gbmap bbmap true 3 colorimage gr}bdef
/il {newpath moveto lineto stroke}bdef
currentdict end def
%%EndProlog

%%BeginSetup
MathWorks begin

0 cap

end
%%EndSetup

%%Page: 1 1
%%BeginPageSetup
%%PageBoundingBox:    30    88   564   572
MathWorks begin
bpage
%%EndPageSetup

%%BeginObject: obj1
bplot

/dpi2point 8.33333 def
portraitMode 0150 5158 csm

  106   390  4450  4030 rc
84 dict begin %Colortable dictionary
/c0 { 0.000000 0.000000 0.000000 sr} bdef
/c1 { 1.000000 1.000000 1.000000 sr} bdef
/c2 { 0.900000 0.000000 0.000000 sr} bdef
/c3 { 0.000000 0.820000 0.000000 sr} bdef
/c4 { 0.000000 0.000000 0.800000 sr} bdef
/c5 { 0.910000 0.820000 0.320000 sr} bdef
/c6 { 1.000000 0.260000 0.820000 sr} bdef
/c7 { 0.000000 0.820000 0.820000 sr} bdef
c0
1 j
1 sg
   0    0 5001 5001 rf
12.5 w
0 3500 3750 0 0 -3500 750 4000 4 MP
PP
-3750 0 0 3500 3750 0 0 -3500 750 4000 5 MP stroke
gs 750 500 3751 3501 rc
16.6667 w
0 sg
-822 11 -338 11 -281 12 -247 11 -216 11 -179 11 -147 11 -139 11 
-130 12 -105 11 -99 11 -106 11 -84 12 -81 11 -86 11 -66 12 
-76 11 -61 12 -70 11 -55 12 -65 11 -40 12 -37 11 -16 -11 
-11 -12 3 -11 4 -12 3 -11 4 -12 3 -11 4 -12 4 -11 
4 -11 4 -12 4 -11 4 -11 4 -11 4 -12 4 -11 5 -11 
4 -11 6 -11 5 -11 4 -12 4 -11 3 -11 3 -11 4 -11 
4 -11 4 -11 5 -11 4 -10 4 -11 4 -11 5 -11 4 -11 
5 -11 4 -11 5 -10 4 -11 5 -11 4 -10 5 -11 5 -11 
5 -10 4 -11 5 -11 4 -10 4 -11 4 -10 5 -11 6 -10 
5 -11 5 -10 5 -11 4 -10 5 -10 5 -11 5 -10 6 -11 
5 -10 4 -10 3 -10 4 -11 4 -10 5 -10 5 -10 5 -10 
5 -11 4 -10 3 -10 5 -10 5 -10 6 -10 6 -10 5 -10 
6 -10 4 -10 5 -10 5 -10 5 -10 5 -10 5 -10 6 -10 
6 -9 6 -10 6 -10 5 -10 5 -10 5 -9 4 -10 4 -10 
5 -10 5 -9 6 -10 6 -10 5 -9 5 -10 4 -9 4 -10 
4 -10 5 -9 5 -10 6 -9 5 -10 6 -9 7 -10 6 -9 
6 -9 5 -10 6 -9 5 -10 5 -9 5 -9 5 -9 6 -10 
5 -9 5 -9 5 -10 6 -9 6 -9 5 -9 6 -9 5 -10 
6 -9 6 -9 6 -9 7 -9 8 -9 7 -9 7 -9 5 -9 
5 -9 4 -9 4 -9 4 -9 6 -9 7 -9 6 -9 7 -9 
7 -9 7 -9 6 -8 6 -9 6 -9 5 -9 5 -9 6 -8 
7 -9 7 -9 8 -9 8 -8 8 -9 6 -9 4 -8 5 -9 
4 -9 5 -8 7 -9 8 -9 10 -8 8 -9 6 -8 7 -9 
6 -8 5 -9 8 -8 9 -9 7 -8 6 -9 7 -8 6 -8 
6 -9 6 -8 7 -9 6 -8 7 -8 8 -9 7 -8 8 -8 
7 -8 6 -9 6 -8 7 -8 8 -8 9 -9 11 -8 12 -8 
13 -8 12 -8 10 -8 6 -9 6 -8 5 -8 5 -8 5 -8 
5 -8 4 -8 4 -8 4 -8 4 -8 7 -8 10 -8 12 -8 
14 -8 13 -8 11 -8 9 -8 8 -8 6 -7 5 -8 4 -8 
4 -8 3 -8 3 -8 4 -7 6 -8 6 -8 10 -8 10 -7 
12 -8 13 -8 12 -8 11 -7 13 -8 12 -8 10 -7 10 -8 
8 -8 7 -7 6 -8 7 -7 6 -8 7 -8 7 -7 6 -8 
6 -7 8 -8 8 -7 10 -8 14 -7 12 -8 12 -7 9 -7 
8 -8 5 -7 7 -8 7 -7 6 -8 3 -7 4 -7 2 -8 
2 -7 7 -7 8 -8 9 -7 11 -7 11 -7 11 -8 10 -7 
8 -7 9 -7 10 -8 13 -7 13 -7 17 -7 16 -7 16 -7 
15 -8 16 -7 16 -7 15 -7 14 -7 11 -7 9 -7 8 -7 
9 -7 8 -7 9 -7 2610 3369 300 MP stroke
12 -7 11 -7 12 -7 13 -7 14 -7 14 -7 15 -7 16 -7 
15 -7 16 -7 13 -7 11 -7 14 -7 12 -7 17 -7 21 -6 
23 -7 23 -7 28 -7 29 -7 29 -7 31 -6 30 -7 23 -7 
18 -7 16 -6 10 -7 14 -7 22 -7 20 -6 23 -7 39 -7 
39 -6 45 -7 55 -7 55 -6 37 -7 37 -7 39 -6 35 -7 
39 -6 59 -7 72 -7 65 -6 58 -7 53 -6 43 -7 17 -6 
12 -7 33 -6 29 -7 19 -6 25 -7 42 -6 64 -7 78 -6 
72 -7 82 -6 52 -4 750 3763 60 MP stroke
gr

16.6667 w
0 sg
0.1 sg
%%IncludeResource: font Helvetica-Bold
/Helvetica-Bold /WindowsLatin1Encoding 183.333 FMSR

1903 4362 mt 
(Log Stress [kPa]) s
 350 3181 mt  -90 rotate
(Bulk Density [kgm) s
90 rotate
%%IncludeResource: font Helvetica-Bold
/Helvetica-Bold /WindowsLatin1Encoding 141.667 FMSR

 259 1582 mt  -90 rotate
(-) s
90 rotate
 259 1500 mt  -90 rotate
(3) s
90 rotate
%%IncludeResource: font Helvetica-Bold
/Helvetica-Bold /WindowsLatin1Encoding 183.333 FMSR

 350 1422 mt  -90 rotate
( ]) s
90 rotate
gs 750 500 3751 3501 rc
/c8 { 1.000000 0.000000 0.000000 sr} bdef
c8
-824 9 -349 11 -290 11 -267 11 -235 11 -189 11 -149 12 -143 11 
-137 11 -102 11 -99 11 -110 11 -83 12 -78 11 -89 11 -65 11 
-77 12 -61 11 -71 11 -54 12 -69 11 -39 12 -39 11 -17 -11 
-13 -12 4 -11 4 -12 4 -11 5 -11 4 -12 4 -11 4 -11 
4 -11 4 -12 4 -11 3 -11 4 -11 4 -11 4 -11 5 -12 
4 -11 4 -11 5 -11 4 -11 5 -11 4 -11 4 -11 5 -10 
5 -11 4 -11 4 -11 5 -11 4 -11 4 -11 5 -10 6 -11 
4 -11 5 -10 4 -11 4 -11 5 -10 5 -11 5 -11 5 -10 
5 -11 4 -10 4 -11 5 -10 4 -11 3 -10 4 -11 4 -10 
4 -10 4 -11 6 -10 5 -11 4 -10 5 -10 4 -10 4 -11 
5 -10 6 -10 6 -10 6 -10 5 -11 3 -10 4 -10 5 -10 
5 -10 6 -10 7 -10 5 -10 5 -10 4 -10 4 -10 5 -10 
5 -10 6 -10 7 -10 6 -10 5 -9 5 -10 4 -10 4 -10 
5 -10 5 -9 6 -10 5 -10 5 -10 4 -9 5 -10 6 -10 
6 -9 6 -10 7 -9 6 -10 4 -10 5 -9 5 -10 6 -9 
6 -10 7 -9 7 -10 5 -9 5 -9 5 -10 6 -9 7 -10 
5 -9 6 -9 5 -9 4 -10 4 -9 6 -9 6 -10 6 -9 
5 -9 4 -9 5 -9 5 -10 4 -9 4 -9 7 -9 8 -9 
7 -9 7 -9 8 -9 6 -9 3 -9 4 -9 4 -9 4 -9 
4 -9 6 -9 6 -9 7 -9 6 -9 7 -9 7 -8 6 -9 
5 -9 5 -9 4 -9 5 -8 5 -9 6 -9 6 -9 6 -8 
6 -9 6 -9 6 -8 6 -9 7 -9 7 -8 8 -9 7 -9 
7 -8 4 -9 4 -8 4 -9 5 -8 6 -9 8 -8 8 -9 
9 -8 6 -9 6 -8 6 -8 4 -9 4 -8 6 -9 6 -8 
7 -8 8 -9 9 -8 7 -8 6 -8 6 -9 3 -8 3 -8 
4 -8 5 -9 6 -8 10 -8 9 -8 9 -8 7 -8 5 -9 
4 -8 5 -8 6 -8 7 -8 7 -8 6 -8 7 -8 7 -8 
7 -8 10 -8 10 -8 10 -8 9 -8 9 -8 8 -8 7 -8 
7 -8 9 -7 8 -8 10 -8 10 -8 10 -8 7 -8 8 -7 
6 -8 5 -8 8 -8 9 -7 11 -8 14 -8 14 -8 9 -7 
9 -8 6 -8 4 -7 4 -8 6 -8 5 -7 4 -8 6 -7 
7 -8 7 -8 9 -7 8 -8 10 -7 11 -8 12 -7 12 -8 
14 -7 13 -8 13 -7 13 -7 11 -8 9 -7 8 -8 7 -7 
5 -8 5 -7 4 -7 5 -8 5 -7 6 -7 8 -8 11 -7 
11 -7 14 -7 16 -8 16 -7 13 -7 13 -7 13 -8 11 -7 
12 -7 14 -7 16 -7 17 -7 17 -8 17 -7 17 -7 14 -7 
15 -7 14 -7 16 -7 14 -7 11 -7 10 -7 10 -7 7 -7 
11 -7 13 -7 14 -7 2548 3397 300 MP stroke
18 -7 23 -7 26 -7 28 -7 36 -7 37 -7 41 -7 33 -7 
26 -7 15 -7 10 -7 7 -6 11 -7 21 -7 28 -7 34 -7 
38 -7 45 -6 57 -7 69 -7 73 -7 78 -6 88 -7 91 -7 
96 -7 108 -6 88 -7 71 -7 52 -6 -1 -7 -40 -7 -42 -6 
-38 -7 -32 -7 10 -6 45 -7 83 -6 93 -7 108 -7 76 -6 
60 -7 74 -6 54 -3 750 3684 44 MP stroke
/c9 { 0.000000 0.000000 1.000000 sr} bdef
c9
-676 9 -340 11 -308 12 -292 11 -261 11 -206 11 -160 11 -151 11 
-144 12 -111 11 -98 11 -117 11 -91 12 -80 11 -95 11 -70 12 
-80 11 -63 12 -74 11 -54 12 -70 11 -40 12 -38 11 -17 -11 
-12 -12 4 -11 4 -12 5 -11 4 -12 3 -11 4 -12 3 -11 
3 -11 4 -12 4 -11 4 -11 4 -11 4 -12 5 -11 4 -11 
5 -11 4 -11 4 -11 4 -12 5 -11 5 -11 4 -11 5 -11 
4 -11 3 -11 4 -11 5 -10 4 -11 5 -11 4 -11 4 -11 
2 -11 5 -11 5 -10 5 -11 5 -11 5 -10 4 -11 5 -11 
4 -10 6 -11 5 -11 5 -10 5 -11 5 -10 5 -11 4 -10 
4 -11 5 -10 4 -11 4 -10 5 -10 5 -11 5 -10 4 -11 
5 -10 5 -10 4 -10 5 -11 6 -10 4 -10 5 -10 4 -10 
6 -11 5 -10 5 -10 5 -10 5 -10 6 -10 5 -10 6 -10 
5 -10 5 -10 5 -10 5 -10 4 -10 5 -10 4 -10 4 -10 
4 -9 5 -10 5 -10 5 -10 5 -10 4 -9 5 -10 6 -10 
5 -10 5 -9 5 -10 4 -10 5 -9 4 -10 6 -9 6 -10 
6 -10 7 -9 6 -10 5 -9 5 -10 5 -9 4 -10 4 -9 
6 -9 4 -10 5 -9 5 -10 4 -9 3 -9 5 -9 6 -10 
5 -9 6 -9 5 -10 5 -9 5 -9 4 -9 5 -9 5 -10 
8 -9 6 -9 6 -9 5 -9 4 -9 2 -9 5 -9 6 -9 
8 -9 8 -9 7 -9 6 -9 5 -9 4 -9 4 -9 6 -9 
7 -9 8 -9 8 -8 8 -9 6 -9 6 -9 8 -9 6 -8 
6 -9 6 -9 7 -9 4 -8 3 -9 6 -9 5 -8 5 -9 
7 -9 8 -8 7 -9 8 -9 7 -8 5 -9 5 -8 4 -9 
5 -8 5 -9 7 -8 9 -9 10 -8 9 -9 10 -8 10 -8 
8 -9 6 -8 6 -9 4 -8 6 -8 5 -9 5 -8 4 -8 
4 -8 4 -9 3 -8 7 -8 9 -8 10 -9 11 -8 11 -8 
10 -8 10 -8 8 -8 6 -9 6 -8 7 -8 6 -8 8 -8 
8 -8 9 -8 9 -8 8 -8 8 -8 8 -8 8 -8 8 -8 
8 -8 10 -8 10 -8 9 -8 7 -8 9 -7 11 -8 10 -8 
11 -8 10 -8 10 -8 8 -7 4 -8 3 -8 2 -8 1 -7 
1 -8 5 -8 8 -8 10 -7 11 -8 12 -8 14 -7 13 -8 
10 -8 9 -7 9 -8 8 -7 7 -8 6 -8 6 -7 5 -8 
4 -7 4 -8 6 -7 10 -8 14 -7 16 -8 16 -7 20 -7 
18 -8 15 -7 13 -8 13 -7 11 -8 10 -7 10 -7 13 -8 
15 -7 14 -7 14 -8 12 -7 13 -7 12 -7 14 -8 17 -7 
18 -7 21 -7 19 -8 20 -7 15 -7 18 -7 17 -7 17 -7 
17 -8 18 -7 18 -7 17 -7 19 -7 16 -7 18 -7 21 -7 
26 -7 29 -7 38 -7 2364 3369 300 MP stroke
42 -7 43 -7 38 -7 35 -7 40 -7 47 -7 48 -7 67 -7 
91 -7 103 -7 108 -7 99 -7 55 -7 7 -7 -22 -7 -36 -6 
-6 -7 9 -7 21 -7 30 -7 47 -7 37 -6 61 -7 63 -7 
59 -7 68 -6 100 -7 102 -7 111 -7 147 -6 750 3575 31 MP stroke
gr

c9
0 sg
%%IncludeResource: font Helvetica
/Helvetica /WindowsLatin1Encoding 83.3333 FMSR

 732 4037 mt 
( ) s
4483  536 mt 
( ) s
8.33333 w
DO
SO
12.5 w
0.1 sg
 750  500 mt 4500  500 L
 750 4000 mt 4500 4000 L
4500 4000 mt 4500  500 L
 750 4000 mt  750  500 L
 750 4000 mt 4500 4000 L
 750 4000 mt  750  500 L
 750 4000 mt  750 3971 L
 750  500 mt  750  528 L
 750 4000 mt  750 3943 L
 750  500 mt  750  556 L
%%IncludeResource: font Helvetica
/Helvetica /WindowsLatin1Encoding 133.333 FMSR

 626 4188 mt 
(10) s
%%IncludeResource: font Helvetica
/Helvetica /WindowsLatin1Encoding 88.8889 FMSR

 774 4106 mt 
(-1) s
1116 4000 mt 1116 3971 L
1116  500 mt 1116  528 L
1331 4000 mt 1331 3971 L
1331  500 mt 1331  528 L
1483 4000 mt 1483 3971 L
1483  500 mt 1483  528 L
1601 4000 mt 1601 3971 L
1601  500 mt 1601  528 L
1697 4000 mt 1697 3971 L
1697  500 mt 1697  528 L
1779 4000 mt 1779 3971 L
1779  500 mt 1779  528 L
1849 4000 mt 1849 3971 L
1849  500 mt 1849  528 L
1912 4000 mt 1912 3971 L
1912  500 mt 1912  528 L
1967 4000 mt 1967 3971 L
1967  500 mt 1967  528 L
1967 4000 mt 1967 3943 L
1967  500 mt 1967  556 L
%%IncludeResource: font Helvetica
/Helvetica /WindowsLatin1Encoding 133.333 FMSR

1869 4188 mt 
(10) s
%%IncludeResource: font Helvetica
/Helvetica /WindowsLatin1Encoding 88.8889 FMSR

2017 4106 mt 
(0) s
2334 4000 mt 2334 3971 L
2334  500 mt 2334  528 L
2548 4000 mt 2548 3971 L
2548  500 mt 2548  528 L
2701 4000 mt 2701 3971 L
2701  500 mt 2701  528 L
2819 4000 mt 2819 3971 L
2819  500 mt 2819  528 L
2915 4000 mt 2915 3971 L
2915  500 mt 2915  528 L
2997 4000 mt 2997 3971 L
2997  500 mt 2997  528 L
3067 4000 mt 3067 3971 L
3067  500 mt 3067  528 L
3129 4000 mt 3129 3971 L
3129  500 mt 3129  528 L
3185 4000 mt 3185 3971 L
3185  500 mt 3185  528 L
3185 4000 mt 3185 3943 L
3185  500 mt 3185  556 L
%%IncludeResource: font Helvetica
/Helvetica /WindowsLatin1Encoding 133.333 FMSR

3087 4188 mt 
(10) s
%%IncludeResource: font Helvetica
/Helvetica /WindowsLatin1Encoding 88.8889 FMSR

3235 4106 mt 
(1) s
3552 4000 mt 3552 3971 L
3552  500 mt 3552  528 L
3766 4000 mt 3766 3971 L
3766  500 mt 3766  528 L
3918 4000 mt 3918 3971 L
3918  500 mt 3918  528 L
4036 4000 mt 4036 3971 L
4036  500 mt 4036  528 L
4133 4000 mt 4133 3971 L
4133  500 mt 4133  528 L
4214 4000 mt 4214 3971 L
4214  500 mt 4214  528 L
4285 4000 mt 4285 3971 L
4285  500 mt 4285  528 L
4347 4000 mt 4347 3971 L
4347  500 mt 4347  528 L
4403 4000 mt 4403 3971 L
4403  500 mt 4403  528 L
4403 4000 mt 4403 3943 L
4403  500 mt 4403  556 L
%%IncludeResource: font Helvetica
/Helvetica /WindowsLatin1Encoding 133.333 FMSR

4305 4188 mt 
(10) s
%%IncludeResource: font Helvetica
/Helvetica /WindowsLatin1Encoding 88.8889 FMSR

4453 4106 mt 
(2) s
 750 4000 mt  806 4000 L
4500 4000 mt 4443 4000 L
%%IncludeResource: font Helvetica
/Helvetica /WindowsLatin1Encoding 133.333 FMSR

 430 4049 mt 
(2100) s
 750 3611 mt  806 3611 L
4500 3611 mt 4443 3611 L
 430 3660 mt 
(2200) s
 750 3222 mt  806 3222 L
4500 3222 mt 4443 3222 L
 430 3271 mt 
(2300) s
 750 2833 mt  806 2833 L
4500 2833 mt 4443 2833 L
 430 2882 mt 
(2400) s
 750 2444 mt  806 2444 L
4500 2444 mt 4443 2444 L
 430 2493 mt 
(2500) s
 750 2055 mt  806 2055 L
4500 2055 mt 4443 2055 L
 430 2104 mt 
(2600) s
 750 1666 mt  806 1666 L
4500 1666 mt 4443 1666 L
 430 1715 mt 
(2700) s
 750 1277 mt  806 1277 L
4500 1277 mt 4443 1277 L
 430 1326 mt 
(2800) s
 750  888 mt  806  888 L
4500  888 mt 4443  888 L
 430  937 mt 
(2900) s
 750  500 mt  806  500 L
4500  500 mt 4443  500 L
 430  549 mt 
(3000) s
 750  500 mt 4500  500 L
 750 4000 mt 4500 4000 L
4500 4000 mt 4500  500 L
 750 4000 mt  750  500 L
0 sg
%%IncludeResource: font Helvetica-Bold
/Helvetica-Bold /WindowsLatin1Encoding 125 FMSR

3732 3529 mt 
(CoR = 0.2) s
gs 3406 3385 939 531 rc
16.6667 w
250 0 3456 3483 2 MP stroke
gr

16.6667 w
3732 3697 mt 
(CoR = 0.5) s
gs 3406 3385 939 531 rc
c8
250 0 3456 3650 2 MP stroke
gr

c8
0 sg
3732 3864 mt 
(CoR = 0.8) s
gs 3406 3385 939 531 rc
c9
250 0 3456 3816 2 MP stroke
12.5 w
gr

12.5 w
c9

end %%Color Dict

eplot
%%EndObject

epage
end

showpage

%%Trailer
%%EOF
