%!PS-Adobe-3.0 EPSF-3.0
%%Creator: MATLAB, The MathWorks, Inc. Version 7.12.0.635 (R2011a). Operating System: Linux 2.6.32-358.6.2.el6.x86_64 #1 SMP Thu May 16 11:21:38 CDT 2013 x86_64.
%%Title: ./EPT_Tests_Paired_StaticFriction_Stress_K0.eps
%%CreationDate: 08/16/2013  16:44:17
%%DocumentNeededFonts: Helvetica-Bold
%%+ Helvetica
%%DocumentProcessColors: Cyan Magenta Yellow Black
%%LanguageLevel: 2
%%Pages: 1
%%BoundingBox:    24    69   597   605
%%EndComments

%%BeginProlog
% MathWorks dictionary
/MathWorks 160 dict begin
% definition operators
/bdef {bind def} bind def
/ldef {load def} bind def
/xdef {exch def} bdef
/xstore {exch store} bdef
% operator abbreviations
/c  /clip ldef
/cc /concat ldef
/cp /closepath ldef
/gr /grestore ldef
/gs /gsave ldef
/mt /moveto ldef
/np /newpath ldef
/cm /currentmatrix ldef
/sm /setmatrix ldef
/rm /rmoveto ldef
/rl /rlineto ldef
/s {show newpath} bdef
/sc {setcmykcolor} bdef
/sr /setrgbcolor ldef
/sg /setgray ldef
/w /setlinewidth ldef
/j /setlinejoin ldef
/cap /setlinecap ldef
/rc {rectclip} bdef
/rf {rectfill} bdef
% page state control
/pgsv () def
/bpage {/pgsv save def} bdef
/epage {pgsv restore} bdef
/bplot /gsave ldef
/eplot {stroke grestore} bdef
% orientation switch
/portraitMode 0 def /landscapeMode 1 def /rotateMode 2 def
% coordinate system mappings
/dpi2point 0 def
% font control
/FontSize 0 def
/FMS {/FontSize xstore findfont [FontSize 0 0 FontSize neg 0 0]
  makefont setfont} bdef
/reencode {exch dup where {pop load} {pop StandardEncoding} ifelse
  exch dup 3 1 roll findfont dup length dict begin
  { 1 index /FID ne {def}{pop pop} ifelse } forall
  /Encoding exch def currentdict end definefont pop} bdef
/isroman {findfont /CharStrings get /Agrave known} bdef
/FMSR {3 1 roll 1 index dup isroman {reencode} {pop pop} ifelse
  exch FMS} bdef
/csm {1 dpi2point div -1 dpi2point div scale neg translate
 dup landscapeMode eq {pop -90 rotate}
  {rotateMode eq {90 rotate} if} ifelse} bdef
% line types: solid, dotted, dashed, dotdash
/SO { [] 0 setdash } bdef
/DO { [.5 dpi2point mul 4 dpi2point mul] 0 setdash } bdef
/DA { [6 dpi2point mul] 0 setdash } bdef
/DD { [.5 dpi2point mul 4 dpi2point mul 6 dpi2point mul 4
  dpi2point mul] 0 setdash } bdef
% macros for lines and objects
/L {lineto stroke} bdef
/MP {3 1 roll moveto 1 sub {rlineto} repeat} bdef
/AP {{rlineto} repeat} bdef
/PDlw -1 def
/W {/PDlw currentlinewidth def setlinewidth} def
/PP {closepath eofill} bdef
/DP {closepath stroke} bdef
/MR {4 -2 roll moveto dup  0 exch rlineto exch 0 rlineto
  neg 0 exch rlineto closepath} bdef
/FR {MR stroke} bdef
/PR {MR fill} bdef
/L1i {{currentfile picstr readhexstring pop} image} bdef
/tMatrix matrix def
/MakeOval {newpath tMatrix currentmatrix pop translate scale
0 0 1 0 360 arc tMatrix setmatrix} bdef
/FO {MakeOval stroke} bdef
/PO {MakeOval fill} bdef
/PD {currentlinewidth 2 div 0 360 arc fill
   PDlw -1 eq not {PDlw w /PDlw -1 def} if} def
/FA {newpath tMatrix currentmatrix pop translate scale
  0 0 1 5 -2 roll arc tMatrix setmatrix stroke} bdef
/PA {newpath tMatrix currentmatrix pop	translate 0 0 moveto scale
  0 0 1 5 -2 roll arc closepath tMatrix setmatrix fill} bdef
/FAn {newpath tMatrix currentmatrix pop translate scale
  0 0 1 5 -2 roll arcn tMatrix setmatrix stroke} bdef
/PAn {newpath tMatrix currentmatrix pop translate 0 0 moveto scale
  0 0 1 5 -2 roll arcn closepath tMatrix setmatrix fill} bdef
/vradius 0 def /hradius 0 def /lry 0 def
/lrx 0 def /uly 0 def /ulx 0 def /rad 0 def
/MRR {/vradius xdef /hradius xdef /lry xdef /lrx xdef /uly xdef
  /ulx xdef newpath tMatrix currentmatrix pop ulx hradius add uly
  vradius add translate hradius vradius scale 0 0 1 180 270 arc 
  tMatrix setmatrix lrx hradius sub uly vradius add translate
  hradius vradius scale 0 0 1 270 360 arc tMatrix setmatrix
  lrx hradius sub lry vradius sub translate hradius vradius scale
  0 0 1 0 90 arc tMatrix setmatrix ulx hradius add lry vradius sub
  translate hradius vradius scale 0 0 1 90 180 arc tMatrix setmatrix
  closepath} bdef
/FRR {MRR stroke } bdef
/PRR {MRR fill } bdef
/MlrRR {/lry xdef /lrx xdef /uly xdef /ulx xdef /rad lry uly sub 2 div def
  newpath tMatrix currentmatrix pop ulx rad add uly rad add translate
  rad rad scale 0 0 1 90 270 arc tMatrix setmatrix lrx rad sub lry rad
  sub translate rad rad scale 0 0 1 270 90 arc tMatrix setmatrix
  closepath} bdef
/FlrRR {MlrRR stroke } bdef
/PlrRR {MlrRR fill } bdef
/MtbRR {/lry xdef /lrx xdef /uly xdef /ulx xdef /rad lrx ulx sub 2 div def
  newpath tMatrix currentmatrix pop ulx rad add uly rad add translate
  rad rad scale 0 0 1 180 360 arc tMatrix setmatrix lrx rad sub lry rad
  sub translate rad rad scale 0 0 1 0 180 arc tMatrix setmatrix
  closepath} bdef
/FtbRR {MtbRR stroke } bdef
/PtbRR {MtbRR fill } bdef
/stri 6 array def /dtri 6 array def
/smat 6 array def /dmat 6 array def
/tmat1 6 array def /tmat2 6 array def /dif 3 array def
/asub {/ind2 exch def /ind1 exch def dup dup
  ind1 get exch ind2 get sub exch } bdef
/tri_to_matrix {
  2 0 asub 3 1 asub 4 0 asub 5 1 asub
  dup 0 get exch 1 get 7 -1 roll astore } bdef
/compute_transform {
  dmat dtri tri_to_matrix tmat1 invertmatrix 
  smat stri tri_to_matrix tmat2 concatmatrix } bdef
/ds {stri astore pop} bdef
/dt {dtri astore pop} bdef
/db {2 copy /cols xdef /rows xdef mul dup 3 mul string
  currentfile 
  3 index 0 eq {/ASCIIHexDecode filter}
  {/ASCII85Decode filter 3 index 2 eq {/RunLengthDecode filter} if }
  ifelse exch readstring pop
  dup 0 3 index getinterval /rbmap xdef
  dup 2 index dup getinterval /gbmap xdef
  1 index dup 2 mul exch getinterval /bbmap xdef pop pop}bdef
/it {gs np dtri aload pop moveto lineto lineto cp c
  cols rows 8 compute_transform 
  rbmap gbmap bbmap true 3 colorimage gr}bdef
/il {newpath moveto lineto stroke}bdef
currentdict end def
%%EndProlog

%%BeginSetup
MathWorks begin

0 cap

end
%%EndSetup

%%Page: 1 1
%%BeginPageSetup
%%PageBoundingBox:    24    69   597   605
MathWorks begin
bpage
%%EndPageSetup

%%BeginObject: obj1
bplot

/dpi2point 8.33333 def
portraitMode -0158 5475 csm

  366   430  4774  4469 rc
84 dict begin %Colortable dictionary
/c0 { 0.000000 0.000000 0.000000 sr} bdef
/c1 { 1.000000 1.000000 1.000000 sr} bdef
/c2 { 0.900000 0.000000 0.000000 sr} bdef
/c3 { 0.000000 0.820000 0.000000 sr} bdef
/c4 { 0.000000 0.000000 0.800000 sr} bdef
/c5 { 0.910000 0.820000 0.320000 sr} bdef
/c6 { 1.000000 0.260000 0.820000 sr} bdef
/c7 { 0.000000 0.820000 0.820000 sr} bdef
c0
1 j
1 sg
   0    0 5651 5651 rf
12.5 w
0 3956 4237 0 0 -3956 848 4520 4 MP
PP
-4237 0 0 3956 4237 0 0 -3956 848 4520 5 MP stroke
gs 848 565 4238 3956 rc
16.6667 w
gr

16.6667 w
0 sg
 819 2990 mt  877 3048 L
 877 2990 mt  819 3048 L
 819 3879 mt  877 3937 L
 877 3879 mt  819 3937 L
 819 4354 mt  877 4412 L
 877 4354 mt  819 4412 L
 819 3733 mt  877 3791 L
 877 3733 mt  819 3791 L
 819 3825 mt  877 3883 L
 877 3825 mt  819 3883 L
 819 4227 mt  877 4285 L
 877 4227 mt  819 4285 L
 819 2967 mt  877 3025 L
 877 2967 mt  819 3025 L
 819 2851 mt  877 2909 L
 877 2851 mt  819 2909 L
gs 848 565 4238 3956 rc
gr

 823 4367 mt  881 4425 L
 881 4367 mt  823 4425 L
 823 4065 mt  881 4123 L
 881 4065 mt  823 4123 L
 822 3840 mt  880 3898 L
 880 3840 mt  822 3898 L
 823 3700 mt  881 3758 L
 881 3700 mt  823 3758 L
 823 3635 mt  881 3693 L
 881 3635 mt  823 3693 L
 824 3630 mt  882 3688 L
 882 3630 mt  824 3688 L
 825 3596 mt  883 3654 L
 883 3596 mt  825 3654 L
 825 3417 mt  883 3475 L
 883 3417 mt  825 3475 L
 824 3364 mt  882 3422 L
 882 3364 mt  824 3422 L
 824 3434 mt  882 3492 L
 882 3434 mt  824 3492 L
 824 3325 mt  882 3383 L
 882 3325 mt  824 3383 L
 824 3550 mt  882 3608 L
 882 3550 mt  824 3608 L
 826 3675 mt  884 3733 L
 884 3675 mt  826 3733 L
 828 3596 mt  886 3654 L
 886 3596 mt  828 3654 L
 830 3692 mt  888 3750 L
 888 3692 mt  830 3750 L
 830 3646 mt  888 3704 L
 888 3646 mt  830 3704 L
 831 3699 mt  889 3757 L
 889 3699 mt  831 3757 L
 834 3744 mt  892 3802 L
 892 3744 mt  834 3802 L
 836 3603 mt  894 3661 L
 894 3603 mt  836 3661 L
 837 3575 mt  895 3633 L
 895 3575 mt  837 3633 L
 840 3679 mt  898 3737 L
 898 3679 mt  840 3737 L
 845 3684 mt  903 3742 L
 903 3684 mt  845 3742 L
 850 3621 mt  908 3679 L
 908 3621 mt  850 3679 L
 852 3486 mt  910 3544 L
 910 3486 mt  852 3544 L
 852 3477 mt  910 3535 L
 910 3477 mt  852 3535 L
 854 3496 mt  912 3554 L
 912 3496 mt  854 3554 L
 856 3456 mt  914 3514 L
 914 3456 mt  856 3514 L
 859 3405 mt  917 3463 L
 917 3405 mt  859 3463 L
 863 3471 mt  921 3529 L
 921 3471 mt  863 3529 L
 865 3389 mt  923 3447 L
 923 3389 mt  865 3447 L
 866 3381 mt  924 3439 L
 924 3381 mt  866 3439 L
 868 3374 mt  926 3432 L
 926 3374 mt  868 3432 L
 869 3360 mt  927 3418 L
 927 3360 mt  869 3418 L
 870 3298 mt  928 3356 L
 928 3298 mt  870 3356 L
 871 3269 mt  929 3327 L
 929 3269 mt  871 3327 L
 871 3250 mt  929 3308 L
 929 3250 mt  871 3308 L
 869 3160 mt  927 3218 L
 927 3160 mt  869 3218 L
 867 3149 mt  925 3207 L
 925 3149 mt  867 3207 L
 865 3096 mt  923 3154 L
 923 3096 mt  865 3154 L
 865 3107 mt  923 3165 L
 923 3107 mt  865 3165 L
 867 3097 mt  925 3155 L
 925 3097 mt  867 3155 L
 869 3135 mt  927 3193 L
 927 3135 mt  869 3193 L
 871 3100 mt  929 3158 L
 929 3100 mt  871 3158 L
 873 3124 mt  931 3182 L
 931 3124 mt  873 3182 L
 875 3085 mt  933 3143 L
 933 3085 mt  875 3143 L
 876 3042 mt  934 3100 L
 934 3042 mt  876 3100 L
 878 2992 mt  936 3050 L
 936 2992 mt  878 3050 L
 879 2970 mt  937 3028 L
 937 2970 mt  879 3028 L
 882 2988 mt  940 3046 L
 940 2988 mt  882 3046 L
 884 2980 mt  942 3038 L
 942 2980 mt  884 3038 L
 887 2956 mt  945 3014 L
 945 2956 mt  887 3014 L
 890 2967 mt  948 3025 L
 948 2967 mt  890 3025 L
 890 2935 mt  948 2993 L
 948 2935 mt  890 2993 L
 895 2956 mt  953 3014 L
 953 2956 mt  895 3014 L
 898 2924 mt  956 2982 L
 956 2924 mt  898 2982 L
 902 2925 mt  960 2983 L
 960 2925 mt  902 2983 L
 903 2884 mt  961 2942 L
 961 2884 mt  903 2942 L
 905 2850 mt  963 2908 L
 963 2850 mt  905 2908 L
 905 2782 mt  963 2840 L
 963 2782 mt  905 2840 L
 907 2779 mt  965 2837 L
 965 2779 mt  907 2837 L
 909 2764 mt  967 2822 L
 967 2764 mt  909 2822 L
 913 2789 mt  971 2847 L
 971 2789 mt  913 2847 L
 913 2771 mt  971 2829 L
 971 2771 mt  913 2829 L
 915 2769 mt  973 2827 L
 973 2769 mt  915 2827 L
 916 2734 mt  974 2792 L
 974 2734 mt  916 2792 L
 918 2716 mt  976 2774 L
 976 2716 mt  918 2774 L
 918 2693 mt  976 2751 L
 976 2693 mt  918 2751 L
 919 2663 mt  977 2721 L
 977 2663 mt  919 2721 L
 922 2642 mt  980 2700 L
 980 2642 mt  922 2700 L
 924 2664 mt  982 2722 L
 982 2664 mt  924 2722 L
 927 2658 mt  985 2716 L
 985 2658 mt  927 2716 L
 929 2620 mt  987 2678 L
 987 2620 mt  929 2678 L
 931 2610 mt  989 2668 L
 989 2610 mt  931 2668 L
 933 2601 mt  991 2659 L
 991 2601 mt  933 2659 L
 936 2583 mt  994 2641 L
 994 2583 mt  936 2641 L
 937 2556 mt  995 2614 L
 995 2556 mt  937 2614 L
 940 2556 mt  998 2614 L
 998 2556 mt  940 2614 L
 941 2523 mt  999 2581 L
 999 2523 mt  941 2581 L
 945 2527 mt 1003 2585 L
1003 2527 mt  945 2585 L
 949 2518 mt 1007 2576 L
1007 2518 mt  949 2576 L
 952 2517 mt 1010 2575 L
1010 2517 mt  952 2575 L
 954 2525 mt 1012 2583 L
1012 2525 mt  954 2583 L
 957 2514 mt 1015 2572 L
1015 2514 mt  957 2572 L
 958 2483 mt 1016 2541 L
1016 2483 mt  958 2541 L
 962 2470 mt 1020 2528 L
1020 2470 mt  962 2528 L
 964 2455 mt 1022 2513 L
1022 2455 mt  964 2513 L
 966 2428 mt 1024 2486 L
1024 2428 mt  966 2486 L
 969 2416 mt 1027 2474 L
1027 2416 mt  969 2474 L
 972 2409 mt 1030 2467 L
1030 2409 mt  972 2467 L
 974 2409 mt 1032 2467 L
1032 2409 mt  974 2467 L
 977 2402 mt 1035 2460 L
1035 2402 mt  977 2460 L
 980 2384 mt 1038 2442 L
1038 2384 mt  980 2442 L
 982 2394 mt 1040 2452 L
1040 2394 mt  982 2452 L
 983 2381 mt 1041 2439 L
1041 2381 mt  983 2439 L
 985 2354 mt 1043 2412 L
1043 2354 mt  985 2412 L
 986 2327 mt 1044 2385 L
1044 2327 mt  986 2385 L
 989 2302 mt 1047 2360 L
1047 2302 mt  989 2360 L
 991 2309 mt 1049 2367 L
1049 2309 mt  991 2367 L
 994 2302 mt 1052 2360 L
1052 2302 mt  994 2360 L
 997 2308 mt 1055 2366 L
1055 2308 mt  997 2366 L
1000 2283 mt 1058 2341 L
1058 2283 mt 1000 2341 L
1003 2271 mt 1061 2329 L
1061 2271 mt 1003 2329 L
1005 2262 mt 1063 2320 L
1063 2262 mt 1005 2320 L
1007 2258 mt 1065 2316 L
1065 2258 mt 1007 2316 L
1010 2239 mt 1068 2297 L
1068 2239 mt 1010 2297 L
1015 2256 mt 1073 2314 L
1073 2256 mt 1015 2314 L
1017 2247 mt 1075 2305 L
1075 2247 mt 1017 2305 L
1020 2249 mt 1078 2307 L
1078 2249 mt 1020 2307 L
1023 2260 mt 1081 2318 L
1081 2260 mt 1023 2318 L
1026 2244 mt 1084 2302 L
1084 2244 mt 1026 2302 L
1027 2219 mt 1085 2277 L
1085 2219 mt 1027 2277 L
1030 2221 mt 1088 2279 L
1088 2221 mt 1030 2279 L
1028 2191 mt 1086 2249 L
1086 2191 mt 1028 2249 L
1032 2193 mt 1090 2251 L
1090 2193 mt 1032 2251 L
1034 2202 mt 1092 2260 L
1092 2202 mt 1034 2260 L
1038 2219 mt 1096 2277 L
1096 2219 mt 1038 2277 L
1040 2212 mt 1098 2270 L
1098 2212 mt 1040 2270 L
1036 2160 mt 1094 2218 L
1094 2160 mt 1036 2218 L
1043 2171 mt 1101 2229 L
1101 2171 mt 1043 2229 L
1047 2157 mt 1105 2215 L
1105 2157 mt 1047 2215 L
1053 2169 mt 1111 2227 L
1111 2169 mt 1053 2227 L
1056 2159 mt 1114 2217 L
1114 2159 mt 1056 2217 L
1065 2151 mt 1123 2209 L
1123 2151 mt 1065 2209 L
1069 2142 mt 1127 2200 L
1127 2142 mt 1069 2200 L
1075 2136 mt 1133 2194 L
1133 2136 mt 1075 2194 L
1080 2138 mt 1138 2196 L
1138 2138 mt 1080 2196 L
1086 2139 mt 1144 2197 L
1144 2139 mt 1086 2197 L
1090 2135 mt 1148 2193 L
1148 2135 mt 1090 2193 L
1091 2108 mt 1149 2166 L
1149 2108 mt 1091 2166 L
1093 2106 mt 1151 2164 L
1151 2106 mt 1093 2164 L
1097 2114 mt 1155 2172 L
1155 2114 mt 1097 2172 L
1099 2117 mt 1157 2175 L
1157 2117 mt 1099 2175 L
1098 2098 mt 1156 2156 L
1156 2098 mt 1098 2156 L
1103 2113 mt 1161 2171 L
1161 2113 mt 1103 2171 L
1105 2129 mt 1163 2187 L
1163 2129 mt 1105 2187 L
1108 2135 mt 1166 2193 L
1166 2135 mt 1108 2193 L
1111 2124 mt 1169 2182 L
1169 2124 mt 1111 2182 L
1112 2106 mt 1170 2164 L
1170 2106 mt 1112 2164 L
1117 2094 mt 1175 2152 L
1175 2094 mt 1117 2152 L
1120 2095 mt 1178 2153 L
1178 2095 mt 1120 2153 L
1126 2109 mt 1184 2167 L
1184 2109 mt 1126 2167 L
1137 2109 mt 1195 2167 L
1195 2109 mt 1137 2167 L
1144 2109 mt 1202 2167 L
1202 2109 mt 1144 2167 L
1151 2098 mt 1209 2156 L
1209 2098 mt 1151 2156 L
1156 2081 mt 1214 2139 L
1214 2081 mt 1156 2139 L
1160 2079 mt 1218 2137 L
1218 2079 mt 1160 2137 L
1162 2053 mt 1220 2111 L
1220 2053 mt 1162 2111 L
1163 2053 mt 1221 2111 L
1221 2053 mt 1163 2111 L
1169 2044 mt 1227 2102 L
1227 2044 mt 1169 2102 L
1172 2066 mt 1230 2124 L
1230 2066 mt 1172 2124 L
1171 2031 mt 1229 2089 L
1229 2031 mt 1171 2089 L
1170 2003 mt 1228 2061 L
1228 2003 mt 1170 2061 L
1176 2013 mt 1234 2071 L
1234 2013 mt 1176 2071 L
1180 1992 mt 1238 2050 L
1238 1992 mt 1180 2050 L
1186 1995 mt 1244 2053 L
1244 1995 mt 1186 2053 L
1189 1988 mt 1247 2046 L
1247 1988 mt 1189 2046 L
1195 1992 mt 1253 2050 L
1253 1992 mt 1195 2050 L
1201 1991 mt 1259 2049 L
1259 1991 mt 1201 2049 L
1204 1965 mt 1262 2023 L
1262 1965 mt 1204 2023 L
1210 1964 mt 1268 2022 L
1268 1964 mt 1210 2022 L
1216 1961 mt 1274 2019 L
1274 1961 mt 1216 2019 L
1220 1963 mt 1278 2021 L
1278 1963 mt 1220 2021 L
1228 1971 mt 1286 2029 L
1286 1971 mt 1228 2029 L
1232 1979 mt 1290 2037 L
1290 1979 mt 1232 2037 L
1234 1955 mt 1292 2013 L
1292 1955 mt 1234 2013 L
1239 1968 mt 1297 2026 L
1297 1968 mt 1239 2026 L
1242 1955 mt 1300 2013 L
1300 1955 mt 1242 2013 L
1245 1947 mt 1303 2005 L
1303 1947 mt 1245 2005 L
1253 1961 mt 1311 2019 L
1311 1961 mt 1253 2019 L
1262 1976 mt 1320 2034 L
1320 1976 mt 1262 2034 L
1270 1989 mt 1328 2047 L
1328 1989 mt 1270 2047 L
1273 1992 mt 1331 2050 L
1331 1992 mt 1273 2050 L
1277 1991 mt 1335 2049 L
1335 1991 mt 1277 2049 L
1284 1979 mt 1342 2037 L
1342 1979 mt 1284 2037 L
1291 1991 mt 1349 2049 L
1349 1991 mt 1291 2049 L
1295 1990 mt 1353 2048 L
1353 1990 mt 1295 2048 L
1304 1985 mt 1362 2043 L
1362 1985 mt 1304 2043 L
1313 1982 mt 1371 2040 L
1371 1982 mt 1313 2040 L
1320 1988 mt 1378 2046 L
1378 1988 mt 1320 2046 L
1325 1982 mt 1383 2040 L
1383 1982 mt 1325 2040 L
1335 1978 mt 1393 2036 L
1393 1978 mt 1335 2036 L
1342 1980 mt 1400 2038 L
1400 1980 mt 1342 2038 L
1350 1985 mt 1408 2043 L
1408 1985 mt 1350 2043 L
1357 1983 mt 1415 2041 L
1415 1983 mt 1357 2041 L
1367 1989 mt 1425 2047 L
1425 1989 mt 1367 2047 L
1376 1991 mt 1434 2049 L
1434 1991 mt 1376 2049 L
1384 1990 mt 1442 2048 L
1442 1990 mt 1384 2048 L
1391 1981 mt 1449 2039 L
1449 1981 mt 1391 2039 L
1397 1978 mt 1455 2036 L
1455 1978 mt 1397 2036 L
1411 1994 mt 1469 2052 L
1469 1994 mt 1411 2052 L
1420 1990 mt 1478 2048 L
1478 1990 mt 1420 2048 L
1431 1986 mt 1489 2044 L
1489 1986 mt 1431 2044 L
1440 1989 mt 1498 2047 L
1498 1989 mt 1440 2047 L
1444 1984 mt 1502 2042 L
1502 1984 mt 1444 2042 L
1446 1976 mt 1504 2034 L
1504 1976 mt 1446 2034 L
1458 1990 mt 1516 2048 L
1516 1990 mt 1458 2048 L
1465 1976 mt 1523 2034 L
1523 1976 mt 1465 2034 L
1473 1982 mt 1531 2040 L
1531 1982 mt 1473 2040 L
1482 1985 mt 1540 2043 L
1540 1985 mt 1482 2043 L
1491 1976 mt 1549 2034 L
1549 1976 mt 1491 2034 L
1498 1965 mt 1556 2023 L
1556 1965 mt 1498 2023 L
1510 1977 mt 1568 2035 L
1568 1977 mt 1510 2035 L
1521 1975 mt 1579 2033 L
1579 1975 mt 1521 2033 L
1533 1971 mt 1591 2029 L
1591 1971 mt 1533 2029 L
1542 1966 mt 1600 2024 L
1600 1966 mt 1542 2024 L
1536 1948 mt 1594 2006 L
1594 1948 mt 1536 2006 L
1545 1953 mt 1603 2011 L
1603 1953 mt 1545 2011 L
1570 1967 mt 1628 2025 L
1628 1967 mt 1570 2025 L
1586 1963 mt 1644 2021 L
1644 1963 mt 1586 2021 L
1596 1950 mt 1654 2008 L
1654 1950 mt 1596 2008 L
1598 1934 mt 1656 1992 L
1656 1934 mt 1598 1992 L
1610 1949 mt 1668 2007 L
1668 1949 mt 1610 2007 L
1622 1953 mt 1680 2011 L
1680 1953 mt 1622 2011 L
1631 1947 mt 1689 2005 L
1689 1947 mt 1631 2005 L
1639 1947 mt 1697 2005 L
1697 1947 mt 1639 2005 L
1647 1943 mt 1705 2001 L
1705 1943 mt 1647 2001 L
1658 1947 mt 1716 2005 L
1716 1947 mt 1658 2005 L
1672 1948 mt 1730 2006 L
1730 1948 mt 1672 2006 L
1686 1944 mt 1744 2002 L
1744 1944 mt 1686 2002 L
1702 1948 mt 1760 2006 L
1760 1948 mt 1702 2006 L
1712 1946 mt 1770 2004 L
1770 1946 mt 1712 2004 L
1723 1944 mt 1781 2002 L
1781 1944 mt 1723 2002 L
1730 1932 mt 1788 1990 L
1788 1932 mt 1730 1990 L
1734 1916 mt 1792 1974 L
1792 1916 mt 1734 1974 L
1729 1914 mt 1787 1972 L
1787 1914 mt 1729 1972 L
1745 1908 mt 1803 1966 L
1803 1908 mt 1745 1966 L
1760 1896 mt 1818 1954 L
1818 1896 mt 1760 1954 L
1778 1905 mt 1836 1963 L
1836 1905 mt 1778 1963 L
1789 1905 mt 1847 1963 L
1847 1905 mt 1789 1963 L
1795 1890 mt 1853 1948 L
1853 1890 mt 1795 1948 L
1812 1908 mt 1870 1966 L
1870 1908 mt 1812 1966 L
1822 1899 mt 1880 1957 L
1880 1899 mt 1822 1957 L
1832 1896 mt 1890 1954 L
1890 1896 mt 1832 1954 L
1846 1894 mt 1904 1952 L
1904 1894 mt 1846 1952 L
1863 1902 mt 1921 1960 L
1921 1902 mt 1863 1960 L
1881 1909 mt 1939 1967 L
1939 1909 mt 1881 1967 L
1893 1903 mt 1951 1961 L
1951 1903 mt 1893 1961 L
1905 1896 mt 1963 1954 L
1963 1896 mt 1905 1954 L
1919 1895 mt 1977 1953 L
1977 1895 mt 1919 1953 L
1935 1897 mt 1993 1955 L
1993 1897 mt 1935 1955 L
1952 1901 mt 2010 1959 L
2010 1901 mt 1952 1959 L
1966 1897 mt 2024 1955 L
2024 1897 mt 1966 1955 L
1980 1897 mt 2038 1955 L
2038 1897 mt 1980 1955 L
1991 1896 mt 2049 1954 L
2049 1896 mt 1991 1954 L
2007 1896 mt 2065 1954 L
2065 1896 mt 2007 1954 L
2021 1899 mt 2079 1957 L
2079 1899 mt 2021 1957 L
2033 1895 mt 2091 1953 L
2091 1895 mt 2033 1953 L
2050 1891 mt 2108 1949 L
2108 1891 mt 2050 1949 L
2066 1894 mt 2124 1952 L
2124 1894 mt 2066 1952 L
2078 1892 mt 2136 1950 L
2136 1892 mt 2078 1950 L
2096 1894 mt 2154 1952 L
2154 1894 mt 2096 1952 L
2112 1895 mt 2170 1953 L
2170 1895 mt 2112 1953 L
2125 1895 mt 2183 1953 L
2183 1895 mt 2125 1953 L
2141 1887 mt 2199 1945 L
2199 1887 mt 2141 1945 L
2157 1884 mt 2215 1942 L
2215 1884 mt 2157 1942 L
2169 1882 mt 2227 1940 L
2227 1882 mt 2169 1940 L
2181 1881 mt 2239 1939 L
2239 1881 mt 2181 1939 L
2199 1885 mt 2257 1943 L
2257 1885 mt 2199 1943 L
2221 1883 mt 2279 1941 L
2279 1883 mt 2221 1941 L
2237 1879 mt 2295 1937 L
2295 1879 mt 2237 1937 L
2251 1881 mt 2309 1939 L
2309 1881 mt 2251 1939 L
2264 1878 mt 2322 1936 L
2322 1878 mt 2264 1936 L
2280 1883 mt 2338 1941 L
2338 1883 mt 2280 1941 L
2298 1886 mt 2356 1944 L
2356 1886 mt 2298 1944 L
2317 1886 mt 2375 1944 L
2375 1886 mt 2317 1944 L
2326 1879 mt 2384 1937 L
2384 1879 mt 2326 1937 L
2347 1881 mt 2405 1939 L
2405 1881 mt 2347 1939 L
2364 1890 mt 2422 1948 L
2422 1890 mt 2364 1948 L
2381 1886 mt 2439 1944 L
2439 1886 mt 2381 1944 L
2392 1877 mt 2450 1935 L
2450 1877 mt 2392 1935 L
2413 1884 mt 2471 1942 L
2471 1884 mt 2413 1942 L
2434 1882 mt 2492 1940 L
2492 1882 mt 2434 1940 L
2453 1885 mt 2511 1943 L
2511 1885 mt 2453 1943 L
2474 1889 mt 2532 1947 L
2532 1889 mt 2474 1947 L
2493 1892 mt 2551 1950 L
2551 1892 mt 2493 1950 L
2511 1890 mt 2569 1948 L
2569 1890 mt 2511 1948 L
2533 1892 mt 2591 1950 L
2591 1892 mt 2533 1950 L
2550 1891 mt 2608 1949 L
2608 1891 mt 2550 1949 L
2570 1893 mt 2628 1951 L
2628 1893 mt 2570 1951 L
2589 1896 mt 2647 1954 L
2647 1896 mt 2589 1954 L
2605 1898 mt 2663 1956 L
2663 1898 mt 2605 1956 L
2620 1900 mt 2678 1958 L
2678 1900 mt 2620 1958 L
2636 1902 mt 2694 1960 L
2694 1902 mt 2636 1960 L
2651 1897 mt 2709 1955 L
2709 1897 mt 2651 1955 L
2674 1898 mt 2732 1956 L
2732 1898 mt 2674 1956 L
2698 1894 mt 2756 1952 L
2756 1894 mt 2698 1952 L
2717 1891 mt 2775 1949 L
2775 1891 mt 2717 1949 L
2729 1887 mt 2787 1945 L
2787 1887 mt 2729 1945 L
2744 1883 mt 2802 1941 L
2802 1883 mt 2744 1941 L
2763 1882 mt 2821 1940 L
2821 1882 mt 2763 1940 L
2783 1879 mt 2841 1937 L
2841 1879 mt 2783 1937 L
2801 1876 mt 2859 1934 L
2859 1876 mt 2801 1934 L
2828 1878 mt 2886 1936 L
2886 1878 mt 2828 1936 L
2853 1874 mt 2911 1932 L
2911 1874 mt 2853 1932 L
2875 1867 mt 2933 1925 L
2933 1867 mt 2875 1925 L
2900 1867 mt 2958 1925 L
2958 1867 mt 2900 1925 L
2914 1865 mt 2972 1923 L
2972 1865 mt 2914 1923 L
2929 1863 mt 2987 1921 L
2987 1863 mt 2929 1921 L
2952 1863 mt 3010 1921 L
3010 1863 mt 2952 1921 L
2974 1858 mt 3032 1916 L
3032 1858 mt 2974 1916 L
2995 1850 mt 3053 1908 L
3053 1850 mt 2995 1908 L
3026 1853 mt 3084 1911 L
3084 1853 mt 3026 1911 L
3045 1851 mt 3103 1909 L
3103 1851 mt 3045 1909 L
3068 1845 mt 3126 1903 L
3126 1845 mt 3068 1903 L
3081 1845 mt 3139 1903 L
3139 1845 mt 3081 1903 L
3077 1839 mt 3135 1897 L
3135 1839 mt 3077 1897 L
3105 1837 mt 3163 1895 L
3163 1837 mt 3105 1895 L
3131 1839 mt 3189 1897 L
3189 1839 mt 3131 1897 L
3148 1838 mt 3206 1896 L
3206 1838 mt 3148 1896 L
3174 1838 mt 3232 1896 L
3232 1838 mt 3174 1896 L
3201 1834 mt 3259 1892 L
3259 1834 mt 3201 1892 L
3235 1835 mt 3293 1893 L
3293 1835 mt 3235 1893 L
3256 1827 mt 3314 1885 L
3314 1827 mt 3256 1885 L
3274 1822 mt 3332 1880 L
3332 1822 mt 3274 1880 L
3297 1821 mt 3355 1879 L
3355 1821 mt 3297 1879 L
3322 1823 mt 3380 1881 L
3380 1823 mt 3322 1881 L
3344 1824 mt 3402 1882 L
3402 1824 mt 3344 1882 L
3370 1822 mt 3428 1880 L
3428 1822 mt 3370 1880 L
3395 1826 mt 3453 1884 L
3453 1826 mt 3395 1884 L
3414 1826 mt 3472 1884 L
3472 1826 mt 3414 1884 L
3443 1821 mt 3501 1879 L
3501 1821 mt 3443 1879 L
3477 1824 mt 3535 1882 L
3535 1824 mt 3477 1882 L
3494 1819 mt 3552 1877 L
3552 1819 mt 3494 1877 L
3527 1820 mt 3585 1878 L
3585 1820 mt 3527 1878 L
3555 1818 mt 3613 1876 L
3613 1818 mt 3555 1876 L
3583 1826 mt 3641 1884 L
3641 1826 mt 3583 1884 L
3606 1823 mt 3664 1881 L
3664 1823 mt 3606 1881 L
3635 1823 mt 3693 1881 L
3693 1823 mt 3635 1881 L
3667 1824 mt 3725 1882 L
3725 1824 mt 3667 1882 L
3701 1821 mt 3759 1879 L
3759 1821 mt 3701 1879 L
3737 1815 mt 3795 1873 L
3795 1815 mt 3737 1873 L
3759 1821 mt 3817 1879 L
3817 1821 mt 3759 1879 L
3776 1819 mt 3834 1877 L
3834 1819 mt 3776 1877 L
3806 1822 mt 3864 1880 L
3864 1822 mt 3806 1880 L
3838 1827 mt 3896 1885 L
3896 1827 mt 3838 1885 L
3876 1827 mt 3934 1885 L
3934 1827 mt 3876 1885 L
3906 1826 mt 3964 1884 L
3964 1826 mt 3906 1884 L
3934 1828 mt 3992 1886 L
3992 1828 mt 3934 1886 L
3961 1828 mt 4019 1886 L
4019 1828 mt 3961 1886 L
3987 1828 mt 4045 1886 L
4045 1828 mt 3987 1886 L
4030 1835 mt 4088 1893 L
4088 1835 mt 4030 1893 L
4062 1833 mt 4120 1891 L
4120 1833 mt 4062 1891 L
4097 1837 mt 4155 1895 L
4155 1837 mt 4097 1895 L
4131 1840 mt 4189 1898 L
4189 1840 mt 4131 1898 L
4160 1843 mt 4218 1901 L
4218 1843 mt 4160 1901 L
4191 1838 mt 4249 1896 L
4249 1838 mt 4191 1896 L
4236 1846 mt 4294 1904 L
4294 1846 mt 4236 1904 L
4267 1846 mt 4325 1904 L
4325 1846 mt 4267 1904 L
4298 1840 mt 4356 1898 L
4356 1840 mt 4298 1898 L
4329 1845 mt 4387 1903 L
4387 1845 mt 4329 1903 L
4366 1848 mt 4424 1906 L
4424 1848 mt 4366 1906 L
4396 1844 mt 4454 1902 L
4454 1844 mt 4396 1902 L
4435 1845 mt 4493 1903 L
4493 1845 mt 4435 1903 L
4467 1849 mt 4525 1907 L
4525 1849 mt 4467 1907 L
4503 1846 mt 4561 1904 L
4561 1846 mt 4503 1904 L
4535 1849 mt 4593 1907 L
4593 1849 mt 4535 1907 L
4574 1852 mt 4632 1910 L
4632 1852 mt 4574 1910 L
4612 1848 mt 4670 1906 L
4670 1848 mt 4612 1906 L
4645 1854 mt 4703 1912 L
4703 1854 mt 4645 1912 L
4676 1854 mt 4734 1912 L
4734 1854 mt 4676 1912 L
4100 1534 mt 4158 1592 L
4158 1534 mt 4100 1592 L
3579 1295 mt 3637 1353 L
3637 1295 mt 3579 1353 L
3260 1035 mt 3318 1093 L
3318 1035 mt 3260 1093 L
2896  723 mt 2954  781 L
2954  723 mt 2896  781 L
gs 848 565 4238 3956 rc
gr

gs 848 565 4238 3956 rc
gr

0.1 sg
%%IncludeResource: font Helvetica-Bold
/Helvetica-Bold /ISOLatin1Encoding 183.333 FMSR

2331 4841 mt 
(Vertical Stress) s
 559 3516 mt  -90 rotate
(Lateral Pressure Ratio) s
90 rotate
gs 848 565 4238 3956 rc
gr

0 j
41 54 -41 54 -41 -54 41 -54 848 2483 5 MP
/c8 { 1.000000 0.000000 0.000000 sr} bdef
c8
DP
gs 848 565 4238 3956 rc
gr

41 54 -41 54 -41 -54 41 -54 848 3869 5 MP
DP
41 54 -41 54 -41 -54 41 -54 849 4300 5 MP
DP
41 54 -41 54 -41 -54 41 -54 850 4511 5 MP
DP
41 54 -41 54 -41 -54 41 -54 852 4241 5 MP
DP
41 54 -41 54 -41 -54 41 -54 854 4163 5 MP
DP
41 54 -41 54 -41 -54 41 -54 856 4214 5 MP
DP
41 54 -41 54 -41 -54 41 -54 857 4070 5 MP
DP
41 54 -41 54 -41 -54 41 -54 856 3861 5 MP
DP
41 54 -41 54 -41 -54 41 -54 857 3901 5 MP
DP
41 54 -41 54 -41 -54 41 -54 857 3941 5 MP
DP
41 54 -41 54 -41 -54 41 -54 857 3822 5 MP
DP
41 54 -41 54 -41 -54 41 -54 858 3781 5 MP
DP
41 54 -41 54 -41 -54 41 -54 859 3759 5 MP
DP
41 54 -41 54 -41 -54 41 -54 858 3684 5 MP
DP
41 54 -41 54 -41 -54 41 -54 859 3763 5 MP
DP
41 54 -41 54 -41 -54 41 -54 859 3748 5 MP
DP
41 54 -41 54 -41 -54 41 -54 861 3731 5 MP
DP
41 54 -41 54 -41 -54 41 -54 862 3846 5 MP
DP
41 54 -41 54 -41 -54 41 -54 864 3797 5 MP
DP
41 54 -41 54 -41 -54 41 -54 866 3773 5 MP
DP
41 54 -41 54 -41 -54 41 -54 867 3752 5 MP
DP
41 54 -41 54 -41 -54 41 -54 871 3868 5 MP
DP
41 54 -41 54 -41 -54 41 -54 876 3833 5 MP
DP
41 54 -41 54 -41 -54 41 -54 879 3742 5 MP
DP
41 54 -41 54 -41 -54 41 -54 883 3753 5 MP
DP
41 54 -41 54 -41 -54 41 -54 887 3771 5 MP
DP
41 54 -41 54 -41 -54 41 -54 889 3762 5 MP
DP
41 54 -41 54 -41 -54 41 -54 890 3724 5 MP
DP
41 54 -41 54 -41 -54 41 -54 891 3682 5 MP
DP
41 54 -41 54 -41 -54 41 -54 892 3622 5 MP
DP
41 54 -41 54 -41 -54 41 -54 893 3621 5 MP
DP
41 54 -41 54 -41 -54 41 -54 896 3626 5 MP
DP
41 54 -41 54 -41 -54 41 -54 900 3610 5 MP
DP
41 54 -41 54 -41 -54 41 -54 905 3632 5 MP
DP
41 54 -41 54 -41 -54 41 -54 909 3591 5 MP
DP
41 54 -41 54 -41 -54 41 -54 913 3600 5 MP
DP
41 54 -41 54 -41 -54 41 -54 917 3590 5 MP
DP
41 54 -41 54 -41 -54 41 -54 923 3589 5 MP
DP
41 54 -41 54 -41 -54 41 -54 926 3569 5 MP
DP
41 54 -41 54 -41 -54 41 -54 928 3517 5 MP
DP
41 54 -41 54 -41 -54 41 -54 934 3508 5 MP
DP
41 54 -41 54 -41 -54 41 -54 937 3487 5 MP
DP
41 54 -41 54 -41 -54 41 -54 939 3466 5 MP
DP
41 54 -41 54 -41 -54 41 -54 938 3406 5 MP
DP
41 54 -41 54 -41 -54 41 -54 940 3406 5 MP
DP
41 54 -41 54 -41 -54 41 -54 944 3413 5 MP
DP
41 54 -41 54 -41 -54 41 -54 947 3378 5 MP
DP
41 54 -41 54 -41 -54 41 -54 950 3332 5 MP
DP
41 54 -41 54 -41 -54 41 -54 952 3303 5 MP
DP
41 54 -41 54 -41 -54 41 -54 954 3307 5 MP
DP
41 54 -41 54 -41 -54 41 -54 956 3297 5 MP
DP
41 54 -41 54 -41 -54 41 -54 954 3207 5 MP
DP
41 54 -41 54 -41 -54 41 -54 955 3197 5 MP
DP
41 54 -41 54 -41 -54 41 -54 958 3212 5 MP
DP
41 54 -41 54 -41 -54 41 -54 962 3192 5 MP
DP
41 54 -41 54 -41 -54 41 -54 966 3208 5 MP
DP
41 54 -41 54 -41 -54 41 -54 970 3194 5 MP
DP
41 54 -41 54 -41 -54 41 -54 973 3172 5 MP
DP
41 54 -41 54 -41 -54 41 -54 976 3145 5 MP
DP
41 54 -41 54 -41 -54 41 -54 979 3143 5 MP
DP
41 54 -41 54 -41 -54 41 -54 981 3125 5 MP
DP
41 54 -41 54 -41 -54 41 -54 981 3115 5 MP
DP
41 54 -41 54 -41 -54 41 -54 987 3108 5 MP
DP
41 54 -41 54 -41 -54 41 -54 995 3106 5 MP
DP
41 54 -41 54 -41 -54 41 -54 1000 3089 5 MP
DP
41 54 -41 54 -41 -54 41 -54 997 3062 5 MP
DP
41 54 -41 54 -41 -54 41 -54 1001 3061 5 MP
DP
41 54 -41 54 -41 -54 41 -54 1007 3019 5 MP
DP
41 54 -41 54 -41 -54 41 -54 1014 3018 5 MP
DP
41 54 -41 54 -41 -54 41 -54 1021 3022 5 MP
DP
41 54 -41 54 -41 -54 41 -54 1022 2981 5 MP
DP
41 54 -41 54 -41 -54 41 -54 1024 2963 5 MP
DP
41 54 -41 54 -41 -54 41 -54 1029 2972 5 MP
DP
41 54 -41 54 -41 -54 41 -54 1036 2994 5 MP
DP
41 54 -41 54 -41 -54 41 -54 1037 2976 5 MP
DP
41 54 -41 54 -41 -54 41 -54 1037 2911 5 MP
DP
41 54 -41 54 -41 -54 41 -54 1040 2919 5 MP
DP
41 54 -41 54 -41 -54 41 -54 1043 2943 5 MP
DP
41 54 -41 54 -41 -54 41 -54 1045 2937 5 MP
DP
41 54 -41 54 -41 -54 41 -54 1047 2940 5 MP
DP
41 54 -41 54 -41 -54 41 -54 1048 2884 5 MP
DP
41 54 -41 54 -41 -54 41 -54 1047 2912 5 MP
DP
41 54 -41 54 -41 -54 41 -54 1046 2900 5 MP
DP
41 54 -41 54 -41 -54 41 -54 1046 2881 5 MP
DP
41 54 -41 54 -41 -54 41 -54 1049 2877 5 MP
DP
41 54 -41 54 -41 -54 41 -54 1053 2883 5 MP
DP
41 54 -41 54 -41 -54 41 -54 1060 2881 5 MP
DP
41 54 -41 54 -41 -54 41 -54 1067 2901 5 MP
DP
41 54 -41 54 -41 -54 41 -54 1070 2864 5 MP
DP
41 54 -41 54 -41 -54 41 -54 1076 2850 5 MP
DP
41 54 -41 54 -41 -54 41 -54 1082 2837 5 MP
DP
41 54 -41 54 -41 -54 41 -54 1089 2855 5 MP
DP
41 54 -41 54 -41 -54 41 -54 1091 2856 5 MP
DP
41 54 -41 54 -41 -54 41 -54 1093 2837 5 MP
DP
41 54 -41 54 -41 -54 41 -54 1096 2844 5 MP
DP
41 54 -41 54 -41 -54 41 -54 1103 2827 5 MP
DP
41 54 -41 54 -41 -54 41 -54 1109 2814 5 MP
DP
41 54 -41 54 -41 -54 41 -54 1112 2817 5 MP
DP
41 54 -41 54 -41 -54 41 -54 1117 2811 5 MP
DP
41 54 -41 54 -41 -54 41 -54 1121 2811 5 MP
DP
41 54 -41 54 -41 -54 41 -54 1125 2811 5 MP
DP
41 54 -41 54 -41 -54 41 -54 1129 2798 5 MP
DP
41 54 -41 54 -41 -54 41 -54 1135 2814 5 MP
DP
41 54 -41 54 -41 -54 41 -54 1137 2812 5 MP
DP
41 54 -41 54 -41 -54 41 -54 1138 2808 5 MP
DP
41 54 -41 54 -41 -54 41 -54 1146 2812 5 MP
DP
41 54 -41 54 -41 -54 41 -54 1152 2807 5 MP
DP
41 54 -41 54 -41 -54 41 -54 1159 2801 5 MP
DP
41 54 -41 54 -41 -54 41 -54 1162 2794 5 MP
DP
41 54 -41 54 -41 -54 41 -54 1167 2789 5 MP
DP
41 54 -41 54 -41 -54 41 -54 1173 2793 5 MP
DP
41 54 -41 54 -41 -54 41 -54 1179 2793 5 MP
DP
41 54 -41 54 -41 -54 41 -54 1180 2785 5 MP
DP
41 54 -41 54 -41 -54 41 -54 1184 2773 5 MP
DP
41 54 -41 54 -41 -54 41 -54 1187 2766 5 MP
DP
41 54 -41 54 -41 -54 41 -54 1193 2767 5 MP
DP
41 54 -41 54 -41 -54 41 -54 1205 2769 5 MP
DP
41 54 -41 54 -41 -54 41 -54 1214 2761 5 MP
DP
41 54 -41 54 -41 -54 41 -54 1218 2762 5 MP
DP
41 54 -41 54 -41 -54 41 -54 1223 2754 5 MP
DP
41 54 -41 54 -41 -54 41 -54 1227 2754 5 MP
DP
41 54 -41 54 -41 -54 41 -54 1230 2731 5 MP
DP
41 54 -41 54 -41 -54 41 -54 1234 2749 5 MP
DP
41 54 -41 54 -41 -54 41 -54 1244 2752 5 MP
DP
41 54 -41 54 -41 -54 41 -54 1252 2749 5 MP
DP
41 54 -41 54 -41 -54 41 -54 1257 2736 5 MP
DP
41 54 -41 54 -41 -54 41 -54 1261 2731 5 MP
DP
41 54 -41 54 -41 -54 41 -54 1268 2727 5 MP
DP
41 54 -41 54 -41 -54 41 -54 1273 2731 5 MP
DP
41 54 -41 54 -41 -54 41 -54 1276 2735 5 MP
DP
41 54 -41 54 -41 -54 41 -54 1281 2741 5 MP
DP
41 54 -41 54 -41 -54 41 -54 1281 2711 5 MP
DP
41 54 -41 54 -41 -54 41 -54 1284 2688 5 MP
DP
41 54 -41 54 -41 -54 41 -54 1294 2718 5 MP
DP
41 54 -41 54 -41 -54 41 -54 1295 2692 5 MP
DP
41 54 -41 54 -41 -54 41 -54 1312 2709 5 MP
DP
41 54 -41 54 -41 -54 41 -54 1325 2716 5 MP
DP
41 54 -41 54 -41 -54 41 -54 1336 2723 5 MP
DP
41 54 -41 54 -41 -54 41 -54 1349 2724 5 MP
DP
41 54 -41 54 -41 -54 41 -54 1354 2710 5 MP
DP
41 54 -41 54 -41 -54 41 -54 1357 2716 5 MP
DP
41 54 -41 54 -41 -54 41 -54 1361 2717 5 MP
DP
41 54 -41 54 -41 -54 41 -54 1363 2704 5 MP
DP
41 54 -41 54 -41 -54 41 -54 1366 2706 5 MP
DP
41 54 -41 54 -41 -54 41 -54 1370 2688 5 MP
DP
41 54 -41 54 -41 -54 41 -54 1374 2692 5 MP
DP
41 54 -41 54 -41 -54 41 -54 1382 2685 5 MP
DP
41 54 -41 54 -41 -54 41 -54 1392 2690 5 MP
DP
41 54 -41 54 -41 -54 41 -54 1402 2685 5 MP
DP
41 54 -41 54 -41 -54 41 -54 1407 2675 5 MP
DP
41 54 -41 54 -41 -54 41 -54 1407 2660 5 MP
DP
41 54 -41 54 -41 -54 41 -54 1420 2654 5 MP
DP
41 54 -41 54 -41 -54 41 -54 1435 2655 5 MP
DP
41 54 -41 54 -41 -54 41 -54 1447 2656 5 MP
DP
41 54 -41 54 -41 -54 41 -54 1455 2644 5 MP
DP
41 54 -41 54 -41 -54 41 -54 1461 2643 5 MP
DP
41 54 -41 54 -41 -54 41 -54 1465 2652 5 MP
DP
41 54 -41 54 -41 -54 41 -54 1463 2623 5 MP
DP
41 54 -41 54 -41 -54 41 -54 1472 2619 5 MP
DP
41 54 -41 54 -41 -54 41 -54 1482 2630 5 MP
DP
41 54 -41 54 -41 -54 41 -54 1484 2619 5 MP
DP
41 54 -41 54 -41 -54 41 -54 1482 2628 5 MP
DP
41 54 -41 54 -41 -54 41 -54 1487 2625 5 MP
DP
41 54 -41 54 -41 -54 41 -54 1485 2629 5 MP
DP
41 54 -41 54 -41 -54 41 -54 1491 2612 5 MP
DP
41 54 -41 54 -41 -54 41 -54 1504 2629 5 MP
DP
41 54 -41 54 -41 -54 41 -54 1525 2651 5 MP
DP
41 54 -41 54 -41 -54 41 -54 1538 2638 5 MP
DP
41 54 -41 54 -41 -54 41 -54 1555 2639 5 MP
DP
41 54 -41 54 -41 -54 41 -54 1572 2652 5 MP
DP
41 54 -41 54 -41 -54 41 -54 1587 2658 5 MP
DP
41 54 -41 54 -41 -54 41 -54 1594 2657 5 MP
DP
41 54 -41 54 -41 -54 41 -54 1600 2657 5 MP
DP
41 54 -41 54 -41 -54 41 -54 1608 2659 5 MP
DP
41 54 -41 54 -41 -54 41 -54 1615 2653 5 MP
DP
41 54 -41 54 -41 -54 41 -54 1623 2651 5 MP
DP
41 54 -41 54 -41 -54 41 -54 1633 2664 5 MP
DP
41 54 -41 54 -41 -54 41 -54 1637 2658 5 MP
DP
41 54 -41 54 -41 -54 41 -54 1641 2647 5 MP
DP
41 54 -41 54 -41 -54 41 -54 1657 2658 5 MP
DP
41 54 -41 54 -41 -54 41 -54 1674 2661 5 MP
DP
41 54 -41 54 -41 -54 41 -54 1690 2666 5 MP
DP
41 54 -41 54 -41 -54 41 -54 1705 2666 5 MP
DP
41 54 -41 54 -41 -54 41 -54 1713 2667 5 MP
DP
41 54 -41 54 -41 -54 41 -54 1722 2663 5 MP
DP
41 54 -41 54 -41 -54 41 -54 1731 2670 5 MP
DP
41 54 -41 54 -41 -54 41 -54 1732 2672 5 MP
DP
41 54 -41 54 -41 -54 41 -54 1742 2675 5 MP
DP
41 54 -41 54 -41 -54 41 -54 1750 2672 5 MP
DP
41 54 -41 54 -41 -54 41 -54 1765 2676 5 MP
DP
41 54 -41 54 -41 -54 41 -54 1773 2666 5 MP
DP
41 54 -41 54 -41 -54 41 -54 1795 2684 5 MP
DP
41 54 -41 54 -41 -54 41 -54 1815 2692 5 MP
DP
41 54 -41 54 -41 -54 41 -54 1824 2689 5 MP
DP
41 54 -41 54 -41 -54 41 -54 1834 2693 5 MP
DP
41 54 -41 54 -41 -54 41 -54 1845 2685 5 MP
DP
41 54 -41 54 -41 -54 41 -54 1853 2701 5 MP
DP
41 54 -41 54 -41 -54 41 -54 1854 2704 5 MP
DP
41 54 -41 54 -41 -54 41 -54 1857 2708 5 MP
DP
41 54 -41 54 -41 -54 41 -54 1866 2700 5 MP
DP
41 54 -41 54 -41 -54 41 -54 1883 2713 5 MP
DP
41 54 -41 54 -41 -54 41 -54 1901 2683 5 MP
DP
41 54 -41 54 -41 -54 41 -54 1926 2704 5 MP
DP
41 54 -41 54 -41 -54 41 -54 1945 2708 5 MP
DP
41 54 -41 54 -41 -54 41 -54 1959 2705 5 MP
DP
41 54 -41 54 -41 -54 41 -54 1968 2706 5 MP
DP
41 54 -41 54 -41 -54 41 -54 1966 2701 5 MP
DP
41 54 -41 54 -41 -54 41 -54 1968 2696 5 MP
DP
41 54 -41 54 -41 -54 41 -54 1979 2707 5 MP
DP
41 54 -41 54 -41 -54 41 -54 1991 2706 5 MP
DP
41 54 -41 54 -41 -54 41 -54 2008 2706 5 MP
DP
41 54 -41 54 -41 -54 41 -54 2010 2709 5 MP
DP
41 54 -41 54 -41 -54 41 -54 2011 2700 5 MP
DP
41 54 -41 54 -41 -54 41 -54 2045 2713 5 MP
DP
41 54 -41 54 -41 -54 41 -54 2072 2706 5 MP
DP
41 54 -41 54 -41 -54 41 -54 2089 2725 5 MP
DP
41 54 -41 54 -41 -54 41 -54 2093 2723 5 MP
DP
41 54 -41 54 -41 -54 41 -54 2110 2733 5 MP
DP
41 54 -41 54 -41 -54 41 -54 2123 2734 5 MP
DP
41 54 -41 54 -41 -54 41 -54 2137 2731 5 MP
DP
41 54 -41 54 -41 -54 41 -54 2155 2731 5 MP
DP
41 54 -41 54 -41 -54 41 -54 2173 2733 5 MP
DP
41 54 -41 54 -41 -54 41 -54 2192 2735 5 MP
DP
41 54 -41 54 -41 -54 41 -54 2208 2725 5 MP
DP
41 54 -41 54 -41 -54 41 -54 2204 2720 5 MP
DP
41 54 -41 54 -41 -54 41 -54 2231 2735 5 MP
DP
41 54 -41 54 -41 -54 41 -54 2247 2735 5 MP
DP
41 54 -41 54 -41 -54 41 -54 2265 2733 5 MP
DP
41 54 -41 54 -41 -54 41 -54 2284 2717 5 MP
DP
41 54 -41 54 -41 -54 41 -54 2303 2725 5 MP
DP
41 54 -41 54 -41 -54 41 -54 2315 2721 5 MP
DP
41 54 -41 54 -41 -54 41 -54 2331 2729 5 MP
DP
41 54 -41 54 -41 -54 41 -54 2344 2727 5 MP
DP
41 54 -41 54 -41 -54 41 -54 2361 2729 5 MP
DP
41 54 -41 54 -41 -54 41 -54 2366 2721 5 MP
DP
41 54 -41 54 -41 -54 41 -54 2378 2723 5 MP
DP
41 54 -41 54 -41 -54 41 -54 2406 2727 5 MP
DP
41 54 -41 54 -41 -54 41 -54 2434 2731 5 MP
DP
41 54 -41 54 -41 -54 41 -54 2449 2727 5 MP
DP
41 54 -41 54 -41 -54 41 -54 2473 2735 5 MP
DP
41 54 -41 54 -41 -54 41 -54 2486 2730 5 MP
DP
41 54 -41 54 -41 -54 41 -54 2493 2732 5 MP
DP
41 54 -41 54 -41 -54 41 -54 2502 2729 5 MP
DP
41 54 -41 54 -41 -54 41 -54 2521 2729 5 MP
DP
41 54 -41 54 -41 -54 41 -54 2545 2734 5 MP
DP
41 54 -41 54 -41 -54 41 -54 2572 2734 5 MP
DP
41 54 -41 54 -41 -54 41 -54 2589 2727 5 MP
DP
41 54 -41 54 -41 -54 41 -54 2618 2732 5 MP
DP
41 54 -41 54 -41 -54 41 -54 2637 2737 5 MP
DP
41 54 -41 54 -41 -54 41 -54 2641 2729 5 MP
DP
41 54 -41 54 -41 -54 41 -54 2661 2737 5 MP
DP
41 54 -41 54 -41 -54 41 -54 2677 2733 5 MP
DP
41 54 -41 54 -41 -54 41 -54 2700 2738 5 MP
DP
41 54 -41 54 -41 -54 41 -54 2710 2721 5 MP
DP
41 54 -41 54 -41 -54 41 -54 2736 2727 5 MP
DP
41 54 -41 54 -41 -54 41 -54 2765 2740 5 MP
DP
41 54 -41 54 -41 -54 41 -54 2786 2733 5 MP
DP
41 54 -41 54 -41 -54 41 -54 2796 2735 5 MP
DP
41 54 -41 54 -41 -54 41 -54 2801 2725 5 MP
DP
41 54 -41 54 -41 -54 41 -54 2825 2732 5 MP
DP
41 54 -41 54 -41 -54 41 -54 2852 2731 5 MP
DP
41 54 -41 54 -41 -54 41 -54 2878 2741 5 MP
DP
41 54 -41 54 -41 -54 41 -54 2877 2726 5 MP
DP
41 54 -41 54 -41 -54 41 -54 2921 2737 5 MP
DP
41 54 -41 54 -41 -54 41 -54 2952 2739 5 MP
DP
41 54 -41 54 -41 -54 41 -54 2973 2738 5 MP
DP
41 54 -41 54 -41 -54 41 -54 2979 2735 5 MP
DP
41 54 -41 54 -41 -54 41 -54 2995 2735 5 MP
DP
41 54 -41 54 -41 -54 41 -54 3007 2731 5 MP
DP
41 54 -41 54 -41 -54 41 -54 3013 2725 5 MP
DP
41 54 -41 54 -41 -54 41 -54 3027 2730 5 MP
DP
41 54 -41 54 -41 -54 41 -54 3059 2729 5 MP
DP
41 54 -41 54 -41 -54 41 -54 3077 2726 5 MP
DP
41 54 -41 54 -41 -54 41 -54 3109 2729 5 MP
DP
41 54 -41 54 -41 -54 41 -54 3133 2732 5 MP
DP
41 54 -41 54 -41 -54 41 -54 3152 2729 5 MP
DP
41 54 -41 54 -41 -54 41 -54 3168 2728 5 MP
DP
41 54 -41 54 -41 -54 41 -54 3189 2725 5 MP
DP
41 54 -41 54 -41 -54 41 -54 3197 2727 5 MP
DP
41 54 -41 54 -41 -54 41 -54 3228 2716 5 MP
DP
41 54 -41 54 -41 -54 41 -54 3266 2723 5 MP
DP
41 54 -41 54 -41 -54 41 -54 3286 2721 5 MP
DP
41 54 -41 54 -41 -54 41 -54 3303 2716 5 MP
DP
41 54 -41 54 -41 -54 41 -54 3325 2722 5 MP
DP
41 54 -41 54 -41 -54 41 -54 3344 2719 5 MP
DP
41 54 -41 54 -41 -54 41 -54 3358 2717 5 MP
DP
41 54 -41 54 -41 -54 41 -54 3393 2721 5 MP
DP
41 54 -41 54 -41 -54 41 -54 3429 2720 5 MP
DP
41 54 -41 54 -41 -54 41 -54 3443 2717 5 MP
DP
41 54 -41 54 -41 -54 41 -54 3477 2721 5 MP
DP
41 54 -41 54 -41 -54 41 -54 3495 2717 5 MP
DP
41 54 -41 54 -41 -54 41 -54 3512 2721 5 MP
DP
41 54 -41 54 -41 -54 41 -54 3540 2721 5 MP
DP
41 54 -41 54 -41 -54 41 -54 3569 2720 5 MP
DP
41 54 -41 54 -41 -54 41 -54 3606 2719 5 MP
DP
41 54 -41 54 -41 -54 41 -54 3638 2722 5 MP
DP
41 54 -41 54 -41 -54 41 -54 3659 2723 5 MP
DP
41 54 -41 54 -41 -54 41 -54 3684 2719 5 MP
DP
41 54 -41 54 -41 -54 41 -54 3716 2725 5 MP
DP
41 54 -41 54 -41 -54 41 -54 3742 2719 5 MP
DP
41 54 -41 54 -41 -54 41 -54 3775 2724 5 MP
DP
41 54 -41 54 -41 -54 41 -54 3771 2717 5 MP
DP
41 54 -41 54 -41 -54 41 -54 3817 2715 5 MP
DP
41 54 -41 54 -41 -54 41 -54 3861 2720 5 MP
DP
41 54 -41 54 -41 -54 41 -54 3881 2713 5 MP
DP
41 54 -41 54 -41 -54 41 -54 3901 2716 5 MP
DP
41 54 -41 54 -41 -54 41 -54 3922 2719 5 MP
DP
41 54 -41 54 -41 -54 41 -54 3944 2713 5 MP
DP
41 54 -41 54 -41 -54 41 -54 3980 2714 5 MP
DP
41 54 -41 54 -41 -54 41 -54 4014 2714 5 MP
DP
41 54 -41 54 -41 -54 41 -54 4063 2720 5 MP
DP
41 54 -41 54 -41 -54 41 -54 4088 2715 5 MP
DP
41 54 -41 54 -41 -54 41 -54 4111 2716 5 MP
DP
41 54 -41 54 -41 -54 41 -54 4123 2713 5 MP
DP
41 54 -41 54 -41 -54 41 -54 4152 2718 5 MP
DP
41 54 -41 54 -41 -54 41 -54 4192 2711 5 MP
DP
41 54 -41 54 -41 -54 41 -54 4232 2709 5 MP
DP
41 54 -41 54 -41 -54 41 -54 4264 2710 5 MP
DP
41 54 -41 54 -41 -54 41 -54 4284 2712 5 MP
DP
41 54 -41 54 -41 -54 41 -54 4299 2709 5 MP
DP
41 54 -41 54 -41 -54 41 -54 4318 2703 5 MP
DP
41 54 -41 54 -41 -54 41 -54 4352 2705 5 MP
DP
41 54 -41 54 -41 -54 41 -54 4406 2700 5 MP
DP
41 54 -41 54 -41 -54 41 -54 4443 2714 5 MP
DP
41 54 -41 54 -41 -54 41 -54 4439 2693 5 MP
DP
41 54 -41 54 -41 -54 41 -54 4450 2697 5 MP
DP
41 54 -41 54 -41 -54 41 -54 4487 2693 5 MP
DP
41 54 -41 54 -41 -54 41 -54 4525 2688 5 MP
DP
41 54 -41 54 -41 -54 41 -54 4575 2698 5 MP
DP
41 54 -41 54 -41 -54 41 -54 4617 2698 5 MP
DP
41 54 -41 54 -41 -54 41 -54 4611 2681 5 MP
DP
41 54 -41 54 -41 -54 41 -54 4642 2690 5 MP
DP
41 54 -41 54 -41 -54 41 -54 4673 2689 5 MP
DP
41 54 -41 54 -41 -54 41 -54 4718 2687 5 MP
DP
41 54 -41 54 -41 -54 41 -54 4200 2603 5 MP
DP
41 54 -41 54 -41 -54 41 -54 4085 2506 5 MP
DP
41 54 -41 54 -41 -54 41 -54 3475 2408 5 MP
DP
41 54 -41 54 -41 -54 41 -54 3496 2339 5 MP
DP
41 54 -41 54 -41 -54 41 -54 3017 2248 5 MP
DP
41 54 -41 54 -41 -54 41 -54 2865 2150 5 MP
DP
41 54 -41 54 -41 -54 41 -54 2706 2048 5 MP
DP
41 54 -41 54 -41 -54 41 -54 2378 1943 5 MP
DP
41 54 -41 54 -41 -54 41 -54 2282 1826 5 MP
DP
41 54 -41 54 -41 -54 41 -54 2113 1690 5 MP
DP
41 54 -41 54 -41 -54 41 -54 1890 1536 5 MP
DP
41 54 -41 54 -41 -54 41 -54 1790 1382 5 MP
DP
41 54 -41 54 -41 -54 41 -54 1677 1190 5 MP
DP
41 54 -41 54 -41 -54 41 -54 1518 940 5 MP
DP
41 54 -41 54 -41 -54 41 -54 1402 634 5 MP
DP
gs 848 565 4238 3956 rc
gr

gs 848 565 4238 3956 rc
gr

/c9 { 0.000000 0.000000 1.000000 sr} bdef
c9
  41   41  848 3934 FO
gs 848 565 4238 3956 rc
gr

  41   41  850 3733 FO
  41   41  851 3710 FO
  41   41  851 3600 FO
  41   41  852 3612 FO
  41   41  853 3573 FO
  41   41  853 3473 FO
  41   41  854 3565 FO
  41   41  855 3591 FO
  41   41  856 3339 FO
  41   41  857 3396 FO
  41   41  858 3434 FO
  41   41  859 3497 FO
  41   41  860 3472 FO
  41   41  861 3483 FO
  41   41  861 3403 FO
  41   41  861 3404 FO
  41   41  860 3409 FO
  41   41  860 3329 FO
  41   41  861 3344 FO
  41   41  865 3500 FO
  41   41  868 3487 FO
  41   41  871 3465 FO
  41   41  872 3482 FO
  41   41  875 3543 FO
  41   41  878 3490 FO
  41   41  882 3509 FO
  41   41  885 3527 FO
  41   41  885 3423 FO
  41   41  888 3425 FO
  41   41  889 3432 FO
  41   41  895 3436 FO
  41   41  899 3436 FO
  41   41  901 3367 FO
  41   41  903 3365 FO
  41   41  900 3362 FO
  41   41  900 3456 FO
  41   41  899 3311 FO
  41   41  899 3288 FO
  41   41  906 3318 FO
  41   41  913 3322 FO
  41   41  919 3310 FO
  41   41  925 3332 FO
  41   41  927 3301 FO
  41   41  928 3252 FO
  41   41  929 3305 FO
  41   41  934 3351 FO
  41   41  937 3315 FO
  41   41  940 3280 FO
  41   41  943 3295 FO
  41   41  950 3342 FO
  41   41  957 3379 FO
  41   41  960 3355 FO
  41   41  963 3312 FO
  41   41  966 3318 FO
  41   41  969 3322 FO
  41   41  971 3284 FO
  41   41  972 3256 FO
  41   41  975 3248 FO
  41   41  979 3239 FO
  41   41  981 3211 FO
  41   41  984 3207 FO
  41   41  986 3181 FO
  41   41  989 3168 FO
  41   41  990 3128 FO
  41   41  993 3158 FO
  41   41  997 3138 FO
  41   41 1002 3089 FO
  41   41 1007 3118 FO
  41   41 1013 3105 FO
  41   41 1019 3099 FO
  41   41 1024 3093 FO
  41   41 1027 3089 FO
  41   41 1029 3061 FO
  41   41 1034 3045 FO
  41   41 1034 3020 FO
  41   41 1034 2997 FO
  41   41 1038 2985 FO
  41   41 1045 2980 FO
  41   41 1052 2996 FO
  41   41 1061 2996 FO
  41   41 1065 2983 FO
  41   41 1069 2958 FO
  41   41 1071 2979 FO
  41   41 1071 2946 FO
  41   41 1073 2947 FO
  41   41 1078 2964 FO
  41   41 1082 2950 FO
  41   41 1087 2938 FO
  41   41 1092 2937 FO
  41   41 1098 2927 FO
  41   41 1105 2941 FO
  41   41 1111 2967 FO
  41   41 1113 2939 FO
  41   41 1117 2921 FO
  41   41 1128 2933 FO
  41   41 1141 2952 FO
  41   41 1150 2945 FO
  41   41 1153 2930 FO
  41   41 1158 2943 FO
  41   41 1164 2934 FO
  41   41 1172 2920 FO
  41   41 1174 2907 FO
  41   41 1169 2917 FO
  41   41 1160 2884 FO
  41   41 1164 2901 FO
  41   41 1171 2921 FO
  41   41 1175 2919 FO
  41   41 1182 2905 FO
  41   41 1195 2908 FO
  41   41 1210 2903 FO
  41   41 1224 2929 FO
  41   41 1229 2924 FO
  41   41 1237 2915 FO
  41   41 1246 2924 FO
  41   41 1254 2924 FO
  41   41 1262 2912 FO
  41   41 1267 2917 FO
  41   41 1266 2902 FO
  41   41 1268 2897 FO
  41   41 1268 2896 FO
  41   41 1275 2884 FO
  41   41 1285 2884 FO
  41   41 1297 2873 FO
  41   41 1312 2885 FO
  41   41 1320 2880 FO
  41   41 1326 2868 FO
  41   41 1335 2882 FO
  41   41 1345 2886 FO
  41   41 1353 2892 FO
  41   41 1357 2892 FO
  41   41 1345 2868 FO
  41   41 1348 2866 FO
  41   41 1361 2878 FO
  41   41 1371 2888 FO
  41   41 1370 2875 FO
  41   41 1373 2892 FO
  41   41 1377 2877 FO
  41   41 1382 2858 FO
  41   41 1395 2867 FO
  41   41 1406 2881 FO
  41   41 1415 2882 FO
  41   41 1420 2866 FO
  41   41 1431 2869 FO
  41   41 1442 2879 FO
  41   41 1452 2893 FO
  41   41 1462 2899 FO
  41   41 1470 2880 FO
  41   41 1472 2874 FO
  41   41 1482 2859 FO
  41   41 1497 2876 FO
  41   41 1506 2886 FO
  41   41 1515 2891 FO
  41   41 1510 2893 FO
  41   41 1521 2900 FO
  41   41 1537 2881 FO
  41   41 1553 2874 FO
  41   41 1571 2903 FO
  41   41 1577 2906 FO
  41   41 1584 2884 FO
  41   41 1588 2889 FO
  41   41 1599 2895 FO
  41   41 1605 2883 FO
  41   41 1606 2882 FO
  41   41 1614 2871 FO
  41   41 1622 2878 FO
  41   41 1633 2883 FO
  41   41 1652 2897 FO
  41   41 1666 2881 FO
  41   41 1676 2877 FO
  41   41 1698 2884 FO
  41   41 1703 2872 FO
  41   41 1711 2868 FO
  41   41 1725 2882 FO
  41   41 1729 2884 FO
  41   41 1727 2877 FO
  41   41 1734 2862 FO
  41   41 1750 2876 FO
  41   41 1768 2886 FO
  41   41 1789 2890 FO
  41   41 1810 2887 FO
  41   41 1828 2900 FO
  41   41 1829 2888 FO
  41   41 1851 2896 FO
  41   41 1864 2907 FO
  41   41 1868 2900 FO
  41   41 1878 2887 FO
  41   41 1898 2899 FO
  41   41 1902 2877 FO
  41   41 1928 2885 FO
  41   41 1946 2912 FO
  41   41 1943 2893 FO
  41   41 1955 2887 FO
  41   41 1965 2893 FO
  41   41 1977 2896 FO
  41   41 1979 2889 FO
  41   41 1992 2907 FO
  41   41 2018 2910 FO
  41   41 2048 2911 FO
  41   41 2078 2913 FO
  41   41 2102 2928 FO
  41   41 2116 2926 FO
  41   41 2123 2924 FO
  41   41 2133 2931 FO
  41   41 2145 2934 FO
  41   41 2156 2934 FO
  41   41 2174 2930 FO
  41   41 2196 2935 FO
  41   41 2223 2943 FO
  41   41 2239 2951 FO
  41   41 2267 2946 FO
  41   41 2290 2949 FO
  41   41 2303 2954 FO
  41   41 2298 2956 FO
  41   41 2290 2944 FO
  41   41 2313 2944 FO
  41   41 2349 2950 FO
  41   41 2389 2958 FO
  41   41 2396 2957 FO
  41   41 2398 2952 FO
  41   41 2421 2966 FO
  41   41 2422 2957 FO
  41   41 2464 2957 FO
  41   41 2485 2972 FO
  41   41 2497 2959 FO
  41   41 2518 2967 FO
  41   41 2531 2964 FO
  41   41 2548 2962 FO
  41   41 2574 2966 FO
  41   41 2596 2974 FO
  41   41 2617 2977 FO
  41   41 2585 2961 FO
  41   41 2623 2964 FO
  41   41 2674 2970 FO
  41   41 2705 2963 FO
  41   41 2707 2966 FO
  41   41 2719 2970 FO
  41   41 2729 2967 FO
  41   41 2755 2975 FO
  41   41 2778 2977 FO
  41   41 2809 2969 FO
  41   41 2846 2974 FO
  41   41 2860 2976 FO
  41   41 2870 2977 FO
  41   41 2878 2977 FO
  41   41 2901 2973 FO
  41   41 2927 2978 FO
  41   41 2964 2982 FO
  41   41 2990 2984 FO
  41   41 2993 2980 FO
  41   41 3009 2981 FO
  41   41 3044 2980 FO
  41   41 3069 2986 FO
  41   41 3092 2984 FO
  41   41 3112 2986 FO
  41   41 3134 2989 FO
  41   41 3158 2993 FO
  41   41 3184 2988 FO
  41   41 3189 2995 FO
  41   41 3133 2970 FO
  41   41 3194 2982 FO
  41   41 3256 2984 FO
  41   41 3302 2991 FO
  41   41 3309 2995 FO
  41   41 3310 2992 FO
  41   41 3337 2986 FO
  41   41 3375 2998 FO
  41   41 3394 2998 FO
  41   41 3405 2998 FO
  41   41 3441 2988 FO
  41   41 3488 3001 FO
  41   41 3492 2997 FO
  41   41 3488 2999 FO
  41   41 3548 2995 FO
  41   41 3575 2993 FO
  41   41 3593 3002 FO
  41   41 3611 2995 FO
  41   41 3642 3008 FO
  41   41 3681 2999 FO
  41   41 3717 3004 FO
  41   41 3745 3015 FO
  41   41 3766 3006 FO
  41   41 3796 3010 FO
  41   41 3830 3007 FO
  41   41 3863 3010 FO
  41   41 3886 3007 FO
  41   41 3915 3007 FO
  41   41 3930 3002 FO
  41   41 3951 3002 FO
  41   41 3960 2997 FO
  41   41 3986 3004 FO
  41   41 4028 3008 FO
  41   41 4079 3005 FO
  41   41 4121 3013 FO
  41   41 4116 3002 FO
  41   41 4147 3011 FO
  41   41 4173 3010 FO
  41   41 4202 3017 FO
  41   41 4245 3022 FO
  41   41 4291 3018 FO
  41   41 4315 3020 FO
  41   41 4344 3020 FO
  41   41 4376 3029 FO
  41   41 4401 3027 FO
  41   41 4456 3027 FO
  41   41 4501 3032 FO
  41   41 4523 3033 FO
  41   41 4535 3034 FO
  41   41 4549 3027 FO
  41   41 4595 3037 FO
  41   41 4620 3036 FO
  41   41 4621 3023 FO
  41   41 4605 3022 FO
  41   41 4708 3032 FO
  41   41 4252 3022 FO
  41   41 4200 2950 FO
  41   41 3593 2881 FO
  41   41 3590 2830 FO
  41   41 3266 2770 FO
  41   41 2961 2713 FO
  41   41 2940 2674 FO
  41   41 2662 2608 FO
  41   41 2459 2551 FO
  41   41 2400 2486 FO
  41   41 2198 2402 FO
  41   41 2017 2308 FO
  41   41 1943 2235 FO
  41   41 1832 2155 FO
  41   41 1675 2021 FO
  41   41 1571 1896 FO
  41   41 1506 1754 FO
  41   41 1424 1616 FO
  41   41 1323 1367 FO
  41   41 1246 1150 FO
  41   41 1194  864 FO
  41   41 1152  566 FO
gs 848 565 4238 3956 rc
gr

gs 848 565 4238 3956 rc
gr

0 sg
%%IncludeResource: font Helvetica
/Helvetica /ISOLatin1Encoding 83.3333 FMSR

 829 4558 mt 
( ) s
5067  602 mt 
( ) s
8.33333 w
DO
SO
12.5 w
0.1 sg
 848 4520 mt 5085 4520 L
 848  564 mt 5085  564 L
 848 4520 mt  848  564 L
5085 4520 mt 5085  564 L
 848 4520 mt 5085 4520 L
 848 4520 mt  848  564 L
 848 4520 mt  848 4456 L
 848  564 mt  848  628 L
%%IncludeResource: font Helvetica
/Helvetica /ISOLatin1Encoding 133.333 FMSR

 811 4667 mt 
(0) s
1615 4520 mt 1615 4456 L
1615  564 mt 1615  628 L
1541 4667 mt 
(20) s
2382 4520 mt 2382 4456 L
2382  564 mt 2382  628 L
2308 4667 mt 
(40) s
3149 4520 mt 3149 4456 L
3149  564 mt 3149  628 L
3075 4667 mt 
(60) s
3917 4520 mt 3917 4456 L
3917  564 mt 3917  628 L
3843 4667 mt 
(80) s
4684 4520 mt 4684 4456 L
4684  564 mt 4684  628 L
4573 4667 mt 
(100) s
 848 4520 mt  911 4520 L
5085 4520 mt 5021 4520 L
 639 4569 mt 
(0.1) s
 848 3860 mt  911 3860 L
5085 3860 mt 5021 3860 L
 639 3909 mt 
(0.2) s
 848 3201 mt  911 3201 L
5085 3201 mt 5021 3201 L
 639 3250 mt 
(0.3) s
 848 2542 mt  911 2542 L
5085 2542 mt 5021 2542 L
 639 2591 mt 
(0.4) s
 848 1883 mt  911 1883 L
5085 1883 mt 5021 1883 L
 639 1932 mt 
(0.5) s
 848 1224 mt  911 1224 L
5085 1224 mt 5021 1224 L
 639 1273 mt 
(0.6) s
 848  564 mt  911  564 L
5085  564 mt 5021  564 L
 639  613 mt 
(0.7) s
 848 4520 mt 5085 4520 L
 848  564 mt 5085  564 L
 848 4520 mt  848  564 L
5085 4520 mt 5085  564 L
0 sg
%%IncludeResource: font Symbol
/Symbol /ISOLatin1Encoding 125 FMSR

3625 3765 mt 
(m) s
%%IncludeResource: font Helvetica-Bold
/Helvetica-Bold /ISOLatin1Encoding 100 FMSR

3697 3827 mt 
(S) s
%%IncludeResource: font Helvetica-Bold
/Helvetica-Bold /ISOLatin1Encoding 125 FMSR

3763 3765 mt 
( = 0.2 - AR = 1.5) s
gs 3300 3634 1452 784 rc
16.6667 w
gs 3372 3672 205 205 rc
3445 3745 mt 3503 3803 L
3503 3745 mt 3445 3803 L
gr

gr

16.6667 w
%%IncludeResource: font Symbol
/Symbol /ISOLatin1Encoding 125 FMSR

3625 4017 mt 
(m) s
%%IncludeResource: font Helvetica-Bold
/Helvetica-Bold /ISOLatin1Encoding 100 FMSR

3697 4079 mt 
(S) s
%%IncludeResource: font Helvetica-Bold
/Helvetica-Bold /ISOLatin1Encoding 125 FMSR

3763 4017 mt 
( = 0.5 - AR = 1.5) s
gs 3300 3634 1452 784 rc
gs 3372 3923 205 205 rc
41 54 -41 54 -41 -54 41 -54 3474 4079 5 MP
c8
DP
gr

c8
gr

c8
0 sg
%%IncludeResource: font Symbol
/Symbol /ISOLatin1Encoding 125 FMSR

3625 4269 mt 
(m) s
%%IncludeResource: font Helvetica-Bold
/Helvetica-Bold /ISOLatin1Encoding 100 FMSR

3697 4331 mt 
(S) s
%%IncludeResource: font Helvetica-Bold
/Helvetica-Bold /ISOLatin1Encoding 125 FMSR

3763 4269 mt 
( = 0.8 - AR = 1.5) s
gs 3300 3634 1452 784 rc
gs 3372 4174 205 205 rc
c9
  41   41 3474 4276 FO
gr

c9
12.5 w
gr

12.5 w
c9

end %%Color Dict

eplot
%%EndObject

epage
end

showpage

%%Trailer
%%EOF
