%!PS-Adobe-3.0 EPSF-3.0
%%Creator: MATLAB, The MathWorks, Inc. Version 7.12.0.635 (R2011a). Operating System: Linux 2.6.32-358.6.2.el6.x86_64 #1 SMP Thu May 16 11:21:38 CDT 2013 x86_64.
%%Title: ./EPT_Tests_Paired_SE_Var_Stress_K0.eps
%%CreationDate: 08/16/2013  16:59:17
%%DocumentNeededFonts: Helvetica-Bold
%%+ Helvetica
%%DocumentProcessColors: Cyan Magenta Yellow Black
%%LanguageLevel: 2
%%Pages: 1
%%BoundingBox:    24    69   597   605
%%EndComments

%%BeginProlog
% MathWorks dictionary
/MathWorks 160 dict begin
% definition operators
/bdef {bind def} bind def
/ldef {load def} bind def
/xdef {exch def} bdef
/xstore {exch store} bdef
% operator abbreviations
/c  /clip ldef
/cc /concat ldef
/cp /closepath ldef
/gr /grestore ldef
/gs /gsave ldef
/mt /moveto ldef
/np /newpath ldef
/cm /currentmatrix ldef
/sm /setmatrix ldef
/rm /rmoveto ldef
/rl /rlineto ldef
/s {show newpath} bdef
/sc {setcmykcolor} bdef
/sr /setrgbcolor ldef
/sg /setgray ldef
/w /setlinewidth ldef
/j /setlinejoin ldef
/cap /setlinecap ldef
/rc {rectclip} bdef
/rf {rectfill} bdef
% page state control
/pgsv () def
/bpage {/pgsv save def} bdef
/epage {pgsv restore} bdef
/bplot /gsave ldef
/eplot {stroke grestore} bdef
% orientation switch
/portraitMode 0 def /landscapeMode 1 def /rotateMode 2 def
% coordinate system mappings
/dpi2point 0 def
% font control
/FontSize 0 def
/FMS {/FontSize xstore findfont [FontSize 0 0 FontSize neg 0 0]
  makefont setfont} bdef
/reencode {exch dup where {pop load} {pop StandardEncoding} ifelse
  exch dup 3 1 roll findfont dup length dict begin
  { 1 index /FID ne {def}{pop pop} ifelse } forall
  /Encoding exch def currentdict end definefont pop} bdef
/isroman {findfont /CharStrings get /Agrave known} bdef
/FMSR {3 1 roll 1 index dup isroman {reencode} {pop pop} ifelse
  exch FMS} bdef
/csm {1 dpi2point div -1 dpi2point div scale neg translate
 dup landscapeMode eq {pop -90 rotate}
  {rotateMode eq {90 rotate} if} ifelse} bdef
% line types: solid, dotted, dashed, dotdash
/SO { [] 0 setdash } bdef
/DO { [.5 dpi2point mul 4 dpi2point mul] 0 setdash } bdef
/DA { [6 dpi2point mul] 0 setdash } bdef
/DD { [.5 dpi2point mul 4 dpi2point mul 6 dpi2point mul 4
  dpi2point mul] 0 setdash } bdef
% macros for lines and objects
/L {lineto stroke} bdef
/MP {3 1 roll moveto 1 sub {rlineto} repeat} bdef
/AP {{rlineto} repeat} bdef
/PDlw -1 def
/W {/PDlw currentlinewidth def setlinewidth} def
/PP {closepath eofill} bdef
/DP {closepath stroke} bdef
/MR {4 -2 roll moveto dup  0 exch rlineto exch 0 rlineto
  neg 0 exch rlineto closepath} bdef
/FR {MR stroke} bdef
/PR {MR fill} bdef
/L1i {{currentfile picstr readhexstring pop} image} bdef
/tMatrix matrix def
/MakeOval {newpath tMatrix currentmatrix pop translate scale
0 0 1 0 360 arc tMatrix setmatrix} bdef
/FO {MakeOval stroke} bdef
/PO {MakeOval fill} bdef
/PD {currentlinewidth 2 div 0 360 arc fill
   PDlw -1 eq not {PDlw w /PDlw -1 def} if} def
/FA {newpath tMatrix currentmatrix pop translate scale
  0 0 1 5 -2 roll arc tMatrix setmatrix stroke} bdef
/PA {newpath tMatrix currentmatrix pop	translate 0 0 moveto scale
  0 0 1 5 -2 roll arc closepath tMatrix setmatrix fill} bdef
/FAn {newpath tMatrix currentmatrix pop translate scale
  0 0 1 5 -2 roll arcn tMatrix setmatrix stroke} bdef
/PAn {newpath tMatrix currentmatrix pop translate 0 0 moveto scale
  0 0 1 5 -2 roll arcn closepath tMatrix setmatrix fill} bdef
/vradius 0 def /hradius 0 def /lry 0 def
/lrx 0 def /uly 0 def /ulx 0 def /rad 0 def
/MRR {/vradius xdef /hradius xdef /lry xdef /lrx xdef /uly xdef
  /ulx xdef newpath tMatrix currentmatrix pop ulx hradius add uly
  vradius add translate hradius vradius scale 0 0 1 180 270 arc 
  tMatrix setmatrix lrx hradius sub uly vradius add translate
  hradius vradius scale 0 0 1 270 360 arc tMatrix setmatrix
  lrx hradius sub lry vradius sub translate hradius vradius scale
  0 0 1 0 90 arc tMatrix setmatrix ulx hradius add lry vradius sub
  translate hradius vradius scale 0 0 1 90 180 arc tMatrix setmatrix
  closepath} bdef
/FRR {MRR stroke } bdef
/PRR {MRR fill } bdef
/MlrRR {/lry xdef /lrx xdef /uly xdef /ulx xdef /rad lry uly sub 2 div def
  newpath tMatrix currentmatrix pop ulx rad add uly rad add translate
  rad rad scale 0 0 1 90 270 arc tMatrix setmatrix lrx rad sub lry rad
  sub translate rad rad scale 0 0 1 270 90 arc tMatrix setmatrix
  closepath} bdef
/FlrRR {MlrRR stroke } bdef
/PlrRR {MlrRR fill } bdef
/MtbRR {/lry xdef /lrx xdef /uly xdef /ulx xdef /rad lrx ulx sub 2 div def
  newpath tMatrix currentmatrix pop ulx rad add uly rad add translate
  rad rad scale 0 0 1 180 360 arc tMatrix setmatrix lrx rad sub lry rad
  sub translate rad rad scale 0 0 1 0 180 arc tMatrix setmatrix
  closepath} bdef
/FtbRR {MtbRR stroke } bdef
/PtbRR {MtbRR fill } bdef
/stri 6 array def /dtri 6 array def
/smat 6 array def /dmat 6 array def
/tmat1 6 array def /tmat2 6 array def /dif 3 array def
/asub {/ind2 exch def /ind1 exch def dup dup
  ind1 get exch ind2 get sub exch } bdef
/tri_to_matrix {
  2 0 asub 3 1 asub 4 0 asub 5 1 asub
  dup 0 get exch 1 get 7 -1 roll astore } bdef
/compute_transform {
  dmat dtri tri_to_matrix tmat1 invertmatrix 
  smat stri tri_to_matrix tmat2 concatmatrix } bdef
/ds {stri astore pop} bdef
/dt {dtri astore pop} bdef
/db {2 copy /cols xdef /rows xdef mul dup 3 mul string
  currentfile 
  3 index 0 eq {/ASCIIHexDecode filter}
  {/ASCII85Decode filter 3 index 2 eq {/RunLengthDecode filter} if }
  ifelse exch readstring pop
  dup 0 3 index getinterval /rbmap xdef
  dup 2 index dup getinterval /gbmap xdef
  1 index dup 2 mul exch getinterval /bbmap xdef pop pop}bdef
/it {gs np dtri aload pop moveto lineto lineto cp c
  cols rows 8 compute_transform 
  rbmap gbmap bbmap true 3 colorimage gr}bdef
/il {newpath moveto lineto stroke}bdef
currentdict end def
%%EndProlog

%%BeginSetup
MathWorks begin

0 cap

end
%%EndSetup

%%Page: 1 1
%%BeginPageSetup
%%PageBoundingBox:    24    69   597   605
MathWorks begin
bpage
%%EndPageSetup

%%BeginObject: obj1
bplot

/dpi2point 8.33333 def
portraitMode -0158 5475 csm

  366   430  4774  4469 rc
84 dict begin %Colortable dictionary
/c0 { 0.000000 0.000000 0.000000 sr} bdef
/c1 { 1.000000 1.000000 1.000000 sr} bdef
/c2 { 0.900000 0.000000 0.000000 sr} bdef
/c3 { 0.000000 0.820000 0.000000 sr} bdef
/c4 { 0.000000 0.000000 0.800000 sr} bdef
/c5 { 0.910000 0.820000 0.320000 sr} bdef
/c6 { 1.000000 0.260000 0.820000 sr} bdef
/c7 { 0.000000 0.820000 0.820000 sr} bdef
c0
1 j
1 sg
   0    0 5651 5651 rf
12.5 w
0 3956 4237 0 0 -3956 848 4520 4 MP
PP
-4237 0 0 3956 4237 0 0 -3956 848 4520 5 MP stroke
gs 848 565 4238 3956 rc
16.6667 w
gr

16.6667 w
0 sg
 819 3642 mt  877 3700 L
 877 3642 mt  819 3700 L
gs 848 565 4238 3956 rc
gr

gs 848 565 4238 3956 rc
gr

 821 4288 mt  879 4346 L
 879 4288 mt  821 4346 L
 822 4343 mt  880 4401 L
 880 4343 mt  822 4401 L
 822 4389 mt  880 4447 L
 880 4389 mt  822 4447 L
 823 4460 mt  881 4518 L
 881 4460 mt  823 4518 L
 823 4370 mt  881 4428 L
 881 4370 mt  823 4428 L
 823 4323 mt  881 4381 L
 881 4323 mt  823 4381 L
 823 4231 mt  881 4289 L
 881 4231 mt  823 4289 L
 823 4151 mt  881 4209 L
 881 4151 mt  823 4209 L
 823 4153 mt  881 4211 L
 881 4153 mt  823 4211 L
 824 4226 mt  882 4284 L
 882 4226 mt  824 4284 L
 825 4195 mt  883 4253 L
 883 4195 mt  825 4253 L
 825 4164 mt  883 4222 L
 883 4164 mt  825 4222 L
 827 4273 mt  885 4331 L
 885 4273 mt  827 4331 L
 827 4262 mt  885 4320 L
 885 4262 mt  827 4320 L
 827 4252 mt  885 4310 L
 885 4252 mt  827 4310 L
 827 4273 mt  885 4331 L
 885 4273 mt  827 4331 L
 827 4146 mt  885 4204 L
 885 4146 mt  827 4204 L
 827 4086 mt  885 4144 L
 885 4086 mt  827 4144 L
 827 4079 mt  885 4137 L
 885 4079 mt  827 4137 L
 829 4109 mt  887 4167 L
 887 4109 mt  829 4167 L
 830 4057 mt  888 4115 L
 888 4057 mt  830 4115 L
 831 4093 mt  889 4151 L
 889 4093 mt  831 4151 L
 833 4085 mt  891 4143 L
 891 4085 mt  833 4143 L
 833 4047 mt  891 4105 L
 891 4047 mt  833 4105 L
 835 4088 mt  893 4146 L
 893 4088 mt  835 4146 L
 836 4051 mt  894 4109 L
 894 4051 mt  836 4109 L
 836 4018 mt  894 4076 L
 894 4018 mt  836 4076 L
 836 4015 mt  894 4073 L
 894 4015 mt  836 4073 L
 836 4000 mt  894 4058 L
 894 4000 mt  836 4058 L
 836 3962 mt  894 4020 L
 894 3962 mt  836 4020 L
 837 3938 mt  895 3996 L
 895 3938 mt  837 3996 L
 838 3910 mt  896 3968 L
 896 3910 mt  838 3968 L
 838 3873 mt  896 3931 L
 896 3873 mt  838 3931 L
 838 3855 mt  896 3913 L
 896 3855 mt  838 3913 L
 839 3889 mt  897 3947 L
 897 3889 mt  839 3947 L
 840 3911 mt  898 3969 L
 898 3911 mt  840 3969 L
 840 3877 mt  898 3935 L
 898 3877 mt  840 3935 L
 841 3847 mt  899 3905 L
 899 3847 mt  841 3905 L
 843 3867 mt  901 3925 L
 901 3867 mt  843 3925 L
 843 3841 mt  901 3899 L
 901 3841 mt  843 3899 L
 846 3898 mt  904 3956 L
 904 3898 mt  846 3956 L
 848 3900 mt  906 3958 L
 906 3900 mt  848 3958 L
 849 3907 mt  907 3965 L
 907 3907 mt  849 3965 L
 850 3909 mt  908 3967 L
 908 3909 mt  850 3967 L
 850 3854 mt  908 3912 L
 908 3854 mt  850 3912 L
 851 3826 mt  909 3884 L
 909 3826 mt  851 3884 L
 852 3781 mt  910 3839 L
 910 3781 mt  852 3839 L
 853 3758 mt  911 3816 L
 911 3758 mt  853 3816 L
 854 3725 mt  912 3783 L
 912 3725 mt  854 3783 L
 855 3707 mt  913 3765 L
 913 3707 mt  855 3765 L
 855 3704 mt  913 3762 L
 913 3704 mt  855 3762 L
 856 3681 mt  914 3739 L
 914 3681 mt  856 3739 L
 858 3673 mt  916 3731 L
 916 3673 mt  858 3731 L
 860 3660 mt  918 3718 L
 918 3660 mt  860 3718 L
 862 3648 mt  920 3706 L
 920 3648 mt  862 3706 L
 862 3623 mt  920 3681 L
 920 3623 mt  862 3681 L
 863 3606 mt  921 3664 L
 921 3606 mt  863 3664 L
 865 3613 mt  923 3671 L
 923 3613 mt  865 3671 L
 866 3598 mt  924 3656 L
 924 3598 mt  866 3656 L
 867 3557 mt  925 3615 L
 925 3557 mt  867 3615 L
 868 3529 mt  926 3587 L
 926 3529 mt  868 3587 L
 869 3524 mt  927 3582 L
 927 3524 mt  869 3582 L
 871 3521 mt  929 3579 L
 929 3521 mt  871 3579 L
 871 3511 mt  929 3569 L
 929 3511 mt  871 3569 L
 873 3496 mt  931 3554 L
 931 3496 mt  873 3554 L
 875 3496 mt  933 3554 L
 933 3496 mt  875 3554 L
 875 3449 mt  933 3507 L
 933 3449 mt  875 3507 L
 877 3430 mt  935 3488 L
 935 3430 mt  877 3488 L
 880 3464 mt  938 3522 L
 938 3464 mt  880 3522 L
 883 3487 mt  941 3545 L
 941 3487 mt  883 3545 L
 886 3498 mt  944 3556 L
 944 3498 mt  886 3556 L
 887 3486 mt  945 3544 L
 945 3486 mt  887 3544 L
 889 3471 mt  947 3529 L
 947 3471 mt  889 3529 L
 890 3471 mt  948 3529 L
 948 3471 mt  890 3529 L
 891 3457 mt  949 3515 L
 949 3457 mt  891 3515 L
 893 3461 mt  951 3519 L
 951 3461 mt  893 3519 L
 894 3452 mt  952 3510 L
 952 3452 mt  894 3510 L
 896 3449 mt  954 3507 L
 954 3449 mt  896 3507 L
 898 3454 mt  956 3512 L
 956 3454 mt  898 3512 L
 901 3467 mt  959 3525 L
 959 3467 mt  901 3525 L
 903 3463 mt  961 3521 L
 961 3463 mt  903 3521 L
 905 3456 mt  963 3514 L
 963 3456 mt  905 3514 L
 908 3460 mt  966 3518 L
 966 3460 mt  908 3518 L
 910 3451 mt  968 3509 L
 968 3451 mt  910 3509 L
 912 3430 mt  970 3488 L
 970 3430 mt  912 3488 L
 914 3415 mt  972 3473 L
 972 3415 mt  914 3473 L
 917 3422 mt  975 3480 L
 975 3422 mt  917 3480 L
 920 3413 mt  978 3471 L
 978 3413 mt  920 3471 L
 922 3405 mt  980 3463 L
 980 3405 mt  922 3463 L
 925 3413 mt  983 3471 L
 983 3413 mt  925 3471 L
 929 3424 mt  987 3482 L
 987 3424 mt  929 3482 L
 932 3430 mt  990 3488 L
 990 3430 mt  932 3488 L
 934 3414 mt  992 3472 L
 992 3414 mt  934 3472 L
 936 3406 mt  994 3464 L
 994 3406 mt  936 3464 L
 938 3403 mt  996 3461 L
 996 3403 mt  938 3461 L
 941 3408 mt  999 3466 L
 999 3408 mt  941 3466 L
 944 3404 mt 1002 3462 L
1002 3404 mt  944 3462 L
 947 3412 mt 1005 3470 L
1005 3412 mt  947 3470 L
 949 3417 mt 1007 3475 L
1007 3417 mt  949 3475 L
 951 3413 mt 1009 3471 L
1009 3413 mt  951 3471 L
 954 3413 mt 1012 3471 L
1012 3413 mt  954 3471 L
 956 3408 mt 1014 3466 L
1014 3408 mt  956 3466 L
 958 3400 mt 1016 3458 L
1016 3400 mt  958 3458 L
 962 3399 mt 1020 3457 L
1020 3399 mt  962 3457 L
 964 3399 mt 1022 3457 L
1022 3399 mt  964 3457 L
 966 3385 mt 1024 3443 L
1024 3385 mt  966 3443 L
 970 3388 mt 1028 3446 L
1028 3388 mt  970 3446 L
 975 3396 mt 1033 3454 L
1033 3396 mt  975 3454 L
 978 3398 mt 1036 3456 L
1036 3398 mt  978 3456 L
 983 3398 mt 1041 3456 L
1041 3398 mt  983 3456 L
 986 3383 mt 1044 3441 L
1044 3383 mt  986 3441 L
 991 3392 mt 1049 3450 L
1049 3392 mt  991 3450 L
 994 3384 mt 1052 3442 L
1052 3384 mt  994 3442 L
1002 3394 mt 1060 3452 L
1060 3394 mt 1002 3452 L
1006 3394 mt 1064 3452 L
1064 3394 mt 1006 3452 L
1009 3381 mt 1067 3439 L
1067 3381 mt 1009 3439 L
1012 3375 mt 1070 3433 L
1070 3375 mt 1012 3433 L
1015 3361 mt 1073 3419 L
1073 3361 mt 1015 3419 L
1017 3353 mt 1075 3411 L
1075 3353 mt 1017 3411 L
1023 3365 mt 1081 3423 L
1081 3365 mt 1023 3423 L
1029 3366 mt 1087 3424 L
1087 3366 mt 1029 3424 L
1033 3360 mt 1091 3418 L
1091 3360 mt 1033 3418 L
1038 3358 mt 1096 3416 L
1096 3358 mt 1038 3416 L
1043 3355 mt 1101 3413 L
1101 3355 mt 1043 3413 L
1049 3363 mt 1107 3421 L
1107 3363 mt 1049 3421 L
1055 3364 mt 1113 3422 L
1113 3364 mt 1055 3422 L
1060 3362 mt 1118 3420 L
1118 3362 mt 1060 3420 L
1067 3369 mt 1125 3427 L
1125 3369 mt 1067 3427 L
1071 3358 mt 1129 3416 L
1129 3358 mt 1071 3416 L
1077 3355 mt 1135 3413 L
1135 3355 mt 1077 3413 L
1084 3357 mt 1142 3415 L
1142 3357 mt 1084 3415 L
1090 3348 mt 1148 3406 L
1148 3348 mt 1090 3406 L
1098 3353 mt 1156 3411 L
1156 3353 mt 1098 3411 L
1106 3356 mt 1164 3414 L
1164 3356 mt 1106 3414 L
1113 3353 mt 1171 3411 L
1171 3353 mt 1113 3411 L
1120 3355 mt 1178 3413 L
1178 3355 mt 1120 3413 L
1127 3351 mt 1185 3409 L
1185 3351 mt 1127 3409 L
1132 3354 mt 1190 3412 L
1190 3354 mt 1132 3412 L
1137 3347 mt 1195 3405 L
1195 3347 mt 1137 3405 L
1137 3327 mt 1195 3385 L
1195 3327 mt 1137 3385 L
1142 3321 mt 1200 3379 L
1200 3321 mt 1142 3379 L
1148 3320 mt 1206 3378 L
1206 3320 mt 1148 3378 L
1153 3321 mt 1211 3379 L
1211 3321 mt 1153 3379 L
1157 3317 mt 1215 3375 L
1215 3317 mt 1157 3375 L
1166 3318 mt 1224 3376 L
1224 3318 mt 1166 3376 L
1176 3323 mt 1234 3381 L
1234 3323 mt 1176 3381 L
1182 3322 mt 1240 3380 L
1240 3322 mt 1182 3380 L
1190 3324 mt 1248 3382 L
1248 3324 mt 1190 3382 L
1196 3324 mt 1254 3382 L
1254 3324 mt 1196 3382 L
1205 3318 mt 1263 3376 L
1263 3318 mt 1205 3376 L
1211 3315 mt 1269 3373 L
1269 3315 mt 1211 3373 L
1216 3308 mt 1274 3366 L
1274 3308 mt 1216 3366 L
1225 3310 mt 1283 3368 L
1283 3310 mt 1225 3368 L
1236 3315 mt 1294 3373 L
1294 3315 mt 1236 3373 L
1244 3318 mt 1302 3376 L
1302 3318 mt 1244 3376 L
1250 3316 mt 1308 3374 L
1308 3316 mt 1250 3374 L
1256 3310 mt 1314 3368 L
1314 3310 mt 1256 3368 L
1264 3308 mt 1322 3366 L
1322 3308 mt 1264 3366 L
1275 3302 mt 1333 3360 L
1333 3302 mt 1275 3360 L
1282 3294 mt 1340 3352 L
1340 3294 mt 1282 3352 L
1294 3295 mt 1352 3353 L
1352 3295 mt 1294 3353 L
1307 3295 mt 1365 3353 L
1365 3295 mt 1307 3353 L
1317 3294 mt 1375 3352 L
1375 3294 mt 1317 3352 L
1323 3289 mt 1381 3347 L
1381 3289 mt 1323 3347 L
1337 3290 mt 1395 3348 L
1395 3290 mt 1337 3348 L
1347 3288 mt 1405 3346 L
1405 3288 mt 1347 3346 L
1356 3279 mt 1414 3337 L
1414 3279 mt 1356 3337 L
1369 3284 mt 1427 3342 L
1427 3284 mt 1369 3342 L
1380 3283 mt 1438 3341 L
1438 3283 mt 1380 3341 L
1392 3284 mt 1450 3342 L
1450 3284 mt 1392 3342 L
1406 3285 mt 1464 3343 L
1464 3285 mt 1406 3343 L
1420 3287 mt 1478 3345 L
1478 3287 mt 1420 3345 L
1433 3283 mt 1491 3341 L
1491 3283 mt 1433 3341 L
1445 3286 mt 1503 3344 L
1503 3286 mt 1445 3344 L
1458 3286 mt 1516 3344 L
1516 3286 mt 1458 3344 L
1466 3282 mt 1524 3340 L
1524 3282 mt 1466 3340 L
1478 3276 mt 1536 3334 L
1536 3276 mt 1478 3334 L
1490 3270 mt 1548 3328 L
1548 3270 mt 1490 3328 L
1505 3271 mt 1563 3329 L
1563 3271 mt 1505 3329 L
1513 3262 mt 1571 3320 L
1571 3262 mt 1513 3320 L
1522 3253 mt 1580 3311 L
1580 3253 mt 1522 3311 L
1529 3250 mt 1587 3308 L
1587 3250 mt 1529 3308 L
1532 3235 mt 1590 3293 L
1590 3235 mt 1532 3293 L
1552 3237 mt 1610 3295 L
1610 3237 mt 1552 3295 L
1564 3230 mt 1622 3288 L
1622 3230 mt 1564 3288 L
1570 3220 mt 1628 3278 L
1628 3220 mt 1570 3278 L
1578 3214 mt 1636 3272 L
1636 3214 mt 1578 3272 L
1584 3204 mt 1642 3262 L
1642 3204 mt 1584 3262 L
1598 3207 mt 1656 3265 L
1656 3207 mt 1598 3265 L
1609 3207 mt 1667 3265 L
1667 3207 mt 1609 3265 L
1624 3212 mt 1682 3270 L
1682 3212 mt 1624 3270 L
1637 3210 mt 1695 3268 L
1695 3210 mt 1637 3268 L
1651 3210 mt 1709 3268 L
1709 3210 mt 1651 3268 L
1660 3208 mt 1718 3266 L
1718 3208 mt 1660 3266 L
1674 3208 mt 1732 3266 L
1732 3208 mt 1674 3266 L
1678 3203 mt 1736 3261 L
1736 3203 mt 1678 3261 L
1697 3211 mt 1755 3269 L
1755 3211 mt 1697 3269 L
1712 3208 mt 1770 3266 L
1770 3208 mt 1712 3266 L
1723 3207 mt 1781 3265 L
1781 3207 mt 1723 3265 L
1739 3212 mt 1797 3270 L
1797 3212 mt 1739 3270 L
1758 3216 mt 1816 3274 L
1816 3216 mt 1758 3274 L
1777 3214 mt 1835 3272 L
1835 3214 mt 1777 3272 L
1789 3212 mt 1847 3270 L
1847 3212 mt 1789 3270 L
1805 3211 mt 1863 3269 L
1863 3211 mt 1805 3269 L
1823 3211 mt 1881 3269 L
1881 3211 mt 1823 3269 L
1837 3209 mt 1895 3267 L
1895 3209 mt 1837 3267 L
1851 3206 mt 1909 3264 L
1909 3206 mt 1851 3264 L
1863 3208 mt 1921 3266 L
1921 3208 mt 1863 3266 L
1880 3198 mt 1938 3256 L
1938 3198 mt 1880 3256 L
1901 3201 mt 1959 3259 L
1959 3201 mt 1901 3259 L
1917 3200 mt 1975 3258 L
1975 3200 mt 1917 3258 L
1934 3199 mt 1992 3257 L
1992 3199 mt 1934 3257 L
1954 3199 mt 2012 3257 L
2012 3199 mt 1954 3257 L
1973 3200 mt 2031 3258 L
2031 3200 mt 1973 3258 L
1989 3199 mt 2047 3257 L
2047 3199 mt 1989 3257 L
2008 3199 mt 2066 3257 L
2066 3199 mt 2008 3257 L
2027 3198 mt 2085 3256 L
2085 3198 mt 2027 3256 L
2045 3198 mt 2103 3256 L
2103 3198 mt 2045 3256 L
2061 3197 mt 2119 3255 L
2119 3197 mt 2061 3255 L
2078 3196 mt 2136 3254 L
2136 3196 mt 2078 3254 L
2094 3194 mt 2152 3252 L
2152 3194 mt 2094 3252 L
2118 3191 mt 2176 3249 L
2176 3191 mt 2118 3249 L
2138 3192 mt 2196 3250 L
2196 3192 mt 2138 3250 L
2159 3196 mt 2217 3254 L
2217 3196 mt 2159 3254 L
2179 3197 mt 2237 3255 L
2237 3197 mt 2179 3255 L
2200 3201 mt 2258 3259 L
2258 3201 mt 2200 3259 L
2219 3200 mt 2277 3258 L
2277 3200 mt 2219 3258 L
2239 3200 mt 2297 3258 L
2297 3200 mt 2239 3258 L
2253 3200 mt 2311 3258 L
2311 3200 mt 2253 3258 L
2272 3196 mt 2330 3254 L
2330 3196 mt 2272 3254 L
2294 3194 mt 2352 3252 L
2352 3194 mt 2294 3252 L
2313 3192 mt 2371 3250 L
2371 3192 mt 2313 3250 L
2337 3190 mt 2395 3248 L
2395 3190 mt 2337 3248 L
2357 3188 mt 2415 3246 L
2415 3188 mt 2357 3246 L
2362 3182 mt 2420 3240 L
2420 3182 mt 2362 3240 L
2393 3183 mt 2451 3241 L
2451 3183 mt 2393 3241 L
2421 3189 mt 2479 3247 L
2479 3189 mt 2421 3247 L
2438 3186 mt 2496 3244 L
2496 3186 mt 2438 3244 L
2460 3186 mt 2518 3244 L
2518 3186 mt 2460 3244 L
2477 3178 mt 2535 3236 L
2535 3178 mt 2477 3236 L
2500 3181 mt 2558 3239 L
2558 3181 mt 2500 3239 L
2515 3178 mt 2573 3236 L
2573 3178 mt 2515 3236 L
2545 3178 mt 2603 3236 L
2603 3178 mt 2545 3236 L
2572 3175 mt 2630 3233 L
2630 3175 mt 2572 3233 L
2595 3175 mt 2653 3233 L
2653 3175 mt 2595 3233 L
2623 3175 mt 2681 3233 L
2681 3175 mt 2623 3233 L
2648 3179 mt 2706 3237 L
2706 3179 mt 2648 3237 L
2669 3181 mt 2727 3239 L
2727 3181 mt 2669 3239 L
2698 3182 mt 2756 3240 L
2756 3182 mt 2698 3240 L
2722 3179 mt 2780 3237 L
2780 3179 mt 2722 3237 L
2745 3166 mt 2803 3224 L
2803 3166 mt 2745 3224 L
2753 3163 mt 2811 3221 L
2811 3163 mt 2753 3221 L
2783 3171 mt 2841 3229 L
2841 3171 mt 2783 3229 L
2796 3168 mt 2854 3226 L
2854 3168 mt 2796 3226 L
2828 3171 mt 2886 3229 L
2886 3171 mt 2828 3229 L
2851 3169 mt 2909 3227 L
2909 3169 mt 2851 3227 L
2883 3171 mt 2941 3229 L
2941 3171 mt 2883 3229 L
2912 3172 mt 2970 3230 L
2970 3172 mt 2912 3230 L
2933 3171 mt 2991 3229 L
2991 3171 mt 2933 3229 L
2962 3171 mt 3020 3229 L
3020 3171 mt 2962 3229 L
2990 3171 mt 3048 3229 L
3048 3171 mt 2990 3229 L
3016 3170 mt 3074 3228 L
3074 3170 mt 3016 3228 L
3043 3167 mt 3101 3225 L
3101 3167 mt 3043 3225 L
3071 3168 mt 3129 3226 L
3129 3168 mt 3071 3226 L
3098 3166 mt 3156 3224 L
3156 3166 mt 3098 3224 L
3122 3166 mt 3180 3224 L
3180 3166 mt 3122 3224 L
3154 3167 mt 3212 3225 L
3212 3167 mt 3154 3225 L
3176 3163 mt 3234 3221 L
3234 3163 mt 3176 3221 L
3208 3165 mt 3266 3223 L
3266 3165 mt 3208 3223 L
3243 3167 mt 3301 3225 L
3301 3167 mt 3243 3225 L
3269 3169 mt 3327 3227 L
3327 3169 mt 3269 3227 L
3299 3168 mt 3357 3226 L
3357 3168 mt 3299 3226 L
3334 3170 mt 3392 3228 L
3392 3170 mt 3334 3228 L
3361 3169 mt 3419 3227 L
3419 3169 mt 3361 3227 L
3389 3170 mt 3447 3228 L
3447 3170 mt 3389 3228 L
3416 3171 mt 3474 3229 L
3474 3171 mt 3416 3229 L
3449 3173 mt 3507 3231 L
3507 3173 mt 3449 3231 L
3475 3171 mt 3533 3229 L
3533 3171 mt 3475 3229 L
3509 3172 mt 3567 3230 L
3567 3172 mt 3509 3230 L
3545 3170 mt 3603 3228 L
3603 3170 mt 3545 3228 L
3572 3173 mt 3630 3231 L
3630 3173 mt 3572 3231 L
3598 3169 mt 3656 3227 L
3656 3169 mt 3598 3227 L
3622 3167 mt 3680 3225 L
3680 3167 mt 3622 3225 L
3665 3169 mt 3723 3227 L
3723 3169 mt 3665 3227 L
3694 3168 mt 3752 3226 L
3752 3168 mt 3694 3226 L
3722 3166 mt 3780 3224 L
3780 3166 mt 3722 3224 L
3756 3164 mt 3814 3222 L
3814 3164 mt 3756 3222 L
3763 3155 mt 3821 3213 L
3821 3155 mt 3763 3213 L
3800 3158 mt 3858 3216 L
3858 3158 mt 3800 3216 L
3846 3157 mt 3904 3215 L
3904 3157 mt 3846 3215 L
3871 3154 mt 3929 3212 L
3929 3154 mt 3871 3212 L
3908 3154 mt 3966 3212 L
3966 3154 mt 3908 3212 L
3944 3155 mt 4002 3213 L
4002 3155 mt 3944 3213 L
3974 3151 mt 4032 3209 L
4032 3151 mt 3974 3209 L
4016 3153 mt 4074 3211 L
4074 3153 mt 4016 3211 L
4050 3153 mt 4108 3211 L
4108 3153 mt 4050 3211 L
4085 3154 mt 4143 3212 L
4143 3154 mt 4085 3212 L
4127 3157 mt 4185 3215 L
4185 3157 mt 4127 3215 L
4160 3157 mt 4218 3215 L
4218 3157 mt 4160 3215 L
4195 3155 mt 4253 3213 L
4253 3155 mt 4195 3213 L
4233 3156 mt 4291 3214 L
4291 3156 mt 4233 3214 L
4236 3148 mt 4294 3206 L
4294 3148 mt 4236 3206 L
4284 3149 mt 4342 3207 L
4342 3149 mt 4284 3207 L
4328 3149 mt 4386 3207 L
4386 3149 mt 4328 3207 L
4354 3146 mt 4412 3204 L
4412 3146 mt 4354 3204 L
4399 3147 mt 4457 3205 L
4457 3147 mt 4399 3205 L
4434 3144 mt 4492 3202 L
4492 3144 mt 4434 3202 L
4471 3143 mt 4529 3201 L
4529 3143 mt 4471 3201 L
4499 3141 mt 4557 3199 L
4557 3141 mt 4499 3199 L
4550 3145 mt 4608 3203 L
4608 3145 mt 4550 3203 L
4581 3144 mt 4639 3202 L
4639 3144 mt 4581 3202 L
4620 3142 mt 4678 3200 L
4678 3142 mt 4620 3200 L
4662 3143 mt 4720 3201 L
4720 3143 mt 4662 3201 L
3322 2591 mt 3380 2649 L
3380 2591 mt 3322 2649 L
2776 2294 mt 2834 2352 L
2834 2294 mt 2776 2352 L
2565 2168 mt 2623 2226 L
2623 2168 mt 2565 2226 L
2426 2088 mt 2484 2146 L
2484 2088 mt 2426 2146 L
2314 2028 mt 2372 2086 L
2372 2028 mt 2314 2086 L
2223 1983 mt 2281 2041 L
2281 1983 mt 2223 2041 L
2125 1932 mt 2183 1990 L
2183 1932 mt 2125 1990 L
2045 1880 mt 2103 1938 L
2103 1880 mt 2045 1938 L
1971 1841 mt 2029 1899 L
2029 1841 mt 1971 1899 L
1906 1788 mt 1964 1846 L
1964 1788 mt 1906 1846 L
1845 1751 mt 1903 1809 L
1903 1751 mt 1845 1809 L
1783 1702 mt 1841 1760 L
1841 1702 mt 1783 1760 L
1723 1651 mt 1781 1709 L
1781 1651 mt 1723 1709 L
1654 1582 mt 1712 1640 L
1712 1582 mt 1654 1640 L
1587 1505 mt 1645 1563 L
1645 1505 mt 1587 1563 L
1533 1447 mt 1591 1505 L
1591 1447 mt 1533 1505 L
1485 1393 mt 1543 1451 L
1543 1393 mt 1485 1451 L
1439 1336 mt 1497 1394 L
1497 1336 mt 1439 1394 L
1392 1263 mt 1450 1321 L
1450 1263 mt 1392 1321 L
1344 1194 mt 1402 1252 L
1402 1194 mt 1344 1252 L
1298 1108 mt 1356 1166 L
1356 1108 mt 1298 1166 L
1256 1031 mt 1314 1089 L
1314 1031 mt 1256 1089 L
1220  972 mt 1278 1030 L
1278  972 mt 1220 1030 L
1184  888 mt 1242  946 L
1242  888 mt 1184  946 L
1151  813 mt 1209  871 L
1209  813 mt 1151  871 L
1120  719 mt 1178  777 L
1178  719 mt 1120  777 L
1091  625 mt 1149  683 L
1149  625 mt 1091  683 L
gs 848 565 4238 3956 rc
gr

0.1 sg
%%IncludeResource: font Helvetica-Bold
/Helvetica-Bold /ISOLatin1Encoding 183.333 FMSR

2331 4841 mt 
(Vertical Stress) s
 559 3516 mt  -90 rotate
(Lateral Pressure Ratio) s
90 rotate
gs 848 565 4238 3956 rc
gr

gs 848 565 4238 3956 rc
gr

/c8 { 1.000000 0.000000 0.000000 sr} bdef
c8
 823 4384 mt  881 4442 L
 881 4384 mt  823 4442 L
 827 4224 mt  885 4282 L
 885 4224 mt  827 4282 L
 831 4147 mt  889 4205 L
 889 4147 mt  831 4205 L
 838 4190 mt  896 4248 L
 896 4190 mt  838 4248 L
 846 4212 mt  904 4270 L
 904 4212 mt  846 4270 L
 857 4160 mt  915 4218 L
 915 4160 mt  857 4218 L
 870 4111 mt  928 4169 L
 928 4111 mt  870 4169 L
 879 4001 mt  937 4059 L
 937 4001 mt  879 4059 L
 894 4004 mt  952 4062 L
 952 4004 mt  894 4062 L
 916 4059 mt  974 4117 L
 974 4059 mt  916 4117 L
 937 4015 mt  995 4073 L
 995 4015 mt  937 4073 L
 958 3940 mt 1016 3998 L
1016 3940 mt  958 3998 L
 979 3865 mt 1037 3923 L
1037 3865 mt  979 3923 L
 999 3814 mt 1057 3872 L
1057 3814 mt  999 3872 L
1021 3734 mt 1079 3792 L
1079 3734 mt 1021 3792 L
1039 3679 mt 1097 3737 L
1097 3679 mt 1039 3737 L
1058 3634 mt 1116 3692 L
1116 3634 mt 1058 3692 L
1082 3585 mt 1140 3643 L
1140 3585 mt 1082 3643 L
1100 3568 mt 1158 3626 L
1158 3568 mt 1100 3626 L
1126 3546 mt 1184 3604 L
1184 3546 mt 1126 3604 L
1153 3525 mt 1211 3583 L
1211 3525 mt 1153 3583 L
1182 3510 mt 1240 3568 L
1240 3510 mt 1182 3568 L
1214 3487 mt 1272 3545 L
1272 3487 mt 1214 3545 L
1236 3447 mt 1294 3505 L
1294 3447 mt 1236 3505 L
1277 3427 mt 1335 3485 L
1335 3427 mt 1277 3485 L
1315 3409 mt 1373 3467 L
1373 3409 mt 1315 3467 L
1360 3406 mt 1418 3464 L
1418 3406 mt 1360 3464 L
1406 3397 mt 1464 3455 L
1464 3397 mt 1406 3455 L
1452 3387 mt 1510 3445 L
1510 3387 mt 1452 3445 L
1495 3369 mt 1553 3427 L
1553 3369 mt 1495 3427 L
1529 3366 mt 1587 3424 L
1587 3366 mt 1529 3424 L
1583 3353 mt 1641 3411 L
1641 3353 mt 1583 3411 L
1635 3355 mt 1693 3413 L
1693 3355 mt 1635 3413 L
1687 3334 mt 1745 3392 L
1745 3334 mt 1687 3392 L
1747 3329 mt 1805 3387 L
1805 3329 mt 1747 3387 L
1805 3316 mt 1863 3374 L
1863 3316 mt 1805 3374 L
1865 3307 mt 1923 3365 L
1923 3307 mt 1865 3365 L
1940 3296 mt 1998 3354 L
1998 3296 mt 1940 3354 L
2016 3291 mt 2074 3349 L
2074 3291 mt 2016 3349 L
2078 3283 mt 2136 3341 L
2136 3283 mt 2078 3341 L
2167 3281 mt 2225 3339 L
2225 3281 mt 2167 3339 L
2239 3264 mt 2297 3322 L
2297 3264 mt 2239 3322 L
2275 3238 mt 2333 3296 L
2333 3238 mt 2275 3296 L
2381 3236 mt 2439 3294 L
2439 3236 mt 2381 3294 L
2470 3216 mt 2528 3274 L
2528 3216 mt 2470 3274 L
2580 3213 mt 2638 3271 L
2638 3213 mt 2580 3271 L
2667 3196 mt 2725 3254 L
2725 3196 mt 2667 3254 L
2782 3195 mt 2840 3253 L
2840 3195 mt 2782 3253 L
2880 3188 mt 2938 3246 L
2938 3188 mt 2880 3246 L
3009 3175 mt 3067 3233 L
3067 3175 mt 3009 3233 L
3144 3177 mt 3202 3235 L
3202 3177 mt 3144 3235 L
3271 3168 mt 3329 3226 L
3329 3168 mt 3271 3226 L
3411 3163 mt 3469 3221 L
3469 3163 mt 3411 3221 L
3555 3158 mt 3613 3216 L
3613 3158 mt 3555 3216 L
3700 3154 mt 3758 3212 L
3758 3154 mt 3700 3212 L
3840 3147 mt 3898 3205 L
3898 3147 mt 3840 3205 L
3991 3147 mt 4049 3205 L
4049 3147 mt 3991 3205 L
4104 3136 mt 4162 3194 L
4162 3136 mt 4104 3194 L
4285 3131 mt 4343 3189 L
4343 3131 mt 4285 3189 L
4318 3137 mt 4376 3195 L
4376 3137 mt 4318 3195 L
4343 3125 mt 4401 3183 L
4401 3125 mt 4343 3183 L
4380 3124 mt 4438 3182 L
4438 3124 mt 4380 3182 L
4420 3121 mt 4478 3179 L
4478 3121 mt 4420 3179 L
4449 3122 mt 4507 3180 L
4507 3122 mt 4449 3180 L
4490 3124 mt 4548 3182 L
4548 3124 mt 4490 3182 L
4513 3124 mt 4571 3182 L
4571 3124 mt 4513 3182 L
4554 3123 mt 4612 3181 L
4612 3123 mt 4554 3181 L
4584 3120 mt 4642 3178 L
4642 3120 mt 4584 3178 L
4621 3117 mt 4679 3175 L
4679 3117 mt 4621 3175 L
4656 3116 mt 4714 3174 L
4714 3116 mt 4656 3174 L
3312 2553 mt 3370 2611 L
3370 2553 mt 3312 2611 L
2796 2271 mt 2854 2329 L
2854 2271 mt 2796 2329 L
2607 2181 mt 2665 2239 L
2665 2181 mt 2607 2239 L
2488 2107 mt 2546 2165 L
2546 2107 mt 2488 2165 L
2385 2063 mt 2443 2121 L
2443 2063 mt 2385 2121 L
2295 2011 mt 2353 2069 L
2353 2011 mt 2295 2069 L
2206 1972 mt 2264 2030 L
2264 1972 mt 2206 2030 L
2127 1923 mt 2185 1981 L
2185 1923 mt 2127 1981 L
2051 1890 mt 2109 1948 L
2109 1890 mt 2051 1948 L
1984 1848 mt 2042 1906 L
2042 1848 mt 1984 1906 L
1928 1830 mt 1986 1888 L
1986 1830 mt 1928 1888 L
1869 1797 mt 1927 1855 L
1927 1797 mt 1869 1855 L
1805 1744 mt 1863 1802 L
1863 1744 mt 1805 1802 L
1747 1691 mt 1805 1749 L
1805 1691 mt 1747 1749 L
1691 1647 mt 1749 1705 L
1749 1647 mt 1691 1705 L
1634 1586 mt 1692 1644 L
1692 1586 mt 1634 1644 L
1580 1524 mt 1638 1582 L
1638 1524 mt 1580 1582 L
1523 1448 mt 1581 1506 L
1581 1448 mt 1523 1506 L
1477 1396 mt 1535 1454 L
1535 1396 mt 1477 1454 L
1433 1330 mt 1491 1388 L
1491 1330 mt 1433 1388 L
1391 1280 mt 1449 1338 L
1449 1280 mt 1391 1338 L
1348 1212 mt 1406 1270 L
1406 1212 mt 1348 1270 L
1302 1138 mt 1360 1196 L
1360 1138 mt 1302 1196 L
1268 1067 mt 1326 1125 L
1326 1067 mt 1268 1125 L
1236  990 mt 1294 1048 L
1294  990 mt 1236 1048 L
1203  918 mt 1261  976 L
1261  918 mt 1203  976 L
1166  829 mt 1224  887 L
1224  829 mt 1166  887 L
1137  751 mt 1195  809 L
1195  751 mt 1137  809 L
1113  688 mt 1171  746 L
1171  688 mt 1113  746 L
1091  621 mt 1149  679 L
1149  621 mt 1091  679 L
1070  555 mt 1128  613 L
1128  555 mt 1070  613 L
gs 848 565 4238 3956 rc
gr

gs 848 565 4238 3956 rc
gr

/c9 { 0.000000 0.000000 1.000000 sr} bdef
c9
 824 4453 mt  882 4511 L
 882 4453 mt  824 4511 L
 830 4403 mt  888 4461 L
 888 4403 mt  830 4461 L
 837 4336 mt  895 4394 L
 895 4336 mt  837 4394 L
 843 4242 mt  901 4300 L
 901 4242 mt  843 4300 L
 855 4304 mt  913 4362 L
 913 4304 mt  855 4362 L
 872 4271 mt  930 4329 L
 930 4271 mt  872 4329 L
 887 4222 mt  945 4280 L
 945 4222 mt  887 4280 L
 900 4137 mt  958 4195 L
 958 4137 mt  900 4195 L
 915 4078 mt  973 4136 L
 973 4078 mt  915 4136 L
 941 4107 mt  999 4165 L
 999 4107 mt  941 4165 L
 968 4094 mt 1026 4152 L
1026 4094 mt  968 4152 L
1001 4064 mt 1059 4122 L
1059 4064 mt 1001 4122 L
1036 4044 mt 1094 4102 L
1094 4044 mt 1036 4102 L
1067 3986 mt 1125 4044 L
1125 3986 mt 1067 4044 L
1100 3917 mt 1158 3975 L
1158 3917 mt 1100 3975 L
1132 3862 mt 1190 3920 L
1190 3862 mt 1132 3920 L
1164 3825 mt 1222 3883 L
1222 3825 mt 1164 3883 L
1194 3809 mt 1252 3867 L
1252 3809 mt 1194 3867 L
1224 3770 mt 1282 3828 L
1282 3770 mt 1224 3828 L
1250 3721 mt 1308 3779 L
1308 3721 mt 1250 3779 L
1296 3697 mt 1354 3755 L
1354 3697 mt 1296 3755 L
1331 3660 mt 1389 3718 L
1389 3660 mt 1331 3718 L
1367 3639 mt 1425 3697 L
1425 3639 mt 1367 3697 L
1404 3637 mt 1462 3695 L
1462 3637 mt 1404 3695 L
1452 3615 mt 1510 3673 L
1510 3615 mt 1452 3673 L
1501 3600 mt 1559 3658 L
1559 3600 mt 1501 3658 L
1544 3575 mt 1602 3633 L
1602 3575 mt 1544 3633 L
1600 3555 mt 1658 3613 L
1658 3555 mt 1600 3613 L
1656 3529 mt 1714 3587 L
1714 3529 mt 1656 3587 L
1705 3508 mt 1763 3566 L
1763 3508 mt 1705 3566 L
1753 3483 mt 1811 3541 L
1811 3483 mt 1753 3541 L
1807 3463 mt 1865 3521 L
1865 3463 mt 1807 3521 L
1882 3457 mt 1940 3515 L
1940 3457 mt 1882 3515 L
1929 3443 mt 1987 3501 L
1987 3443 mt 1929 3501 L
1998 3440 mt 2056 3498 L
2056 3440 mt 1998 3498 L
2080 3435 mt 2138 3493 L
2138 3435 mt 2080 3493 L
2141 3408 mt 2199 3466 L
2199 3408 mt 2141 3466 L
2222 3402 mt 2280 3460 L
2280 3402 mt 2222 3460 L
2292 3383 mt 2350 3441 L
2350 3383 mt 2292 3441 L
2365 3371 mt 2423 3429 L
2423 3371 mt 2365 3429 L
2446 3358 mt 2504 3416 L
2504 3358 mt 2446 3416 L
2521 3341 mt 2579 3399 L
2579 3341 mt 2521 3399 L
2592 3313 mt 2650 3371 L
2650 3313 mt 2592 3371 L
2716 3315 mt 2774 3373 L
2774 3315 mt 2716 3373 L
2803 3305 mt 2861 3363 L
2861 3305 mt 2803 3363 L
2907 3293 mt 2965 3351 L
2965 3293 mt 2907 3351 L
3003 3287 mt 3061 3345 L
3061 3287 mt 3003 3345 L
3107 3270 mt 3165 3328 L
3165 3270 mt 3107 3328 L
3220 3265 mt 3278 3323 L
3278 3265 mt 3220 3323 L
3328 3250 mt 3386 3308 L
3386 3250 mt 3328 3308 L
3440 3235 mt 3498 3293 L
3498 3235 mt 3440 3293 L
3528 3215 mt 3586 3273 L
3586 3215 mt 3528 3273 L
3673 3215 mt 3731 3273 L
3731 3215 mt 3673 3273 L
3804 3209 mt 3862 3267 L
3862 3209 mt 3804 3267 L
3915 3194 mt 3973 3252 L
3973 3194 mt 3915 3252 L
4063 3196 mt 4121 3254 L
4121 3196 mt 4063 3254 L
4200 3194 mt 4258 3252 L
4258 3194 mt 4200 3252 L
4373 3197 mt 4431 3255 L
4431 3197 mt 4373 3255 L
4534 3194 mt 4592 3252 L
4592 3194 mt 4534 3252 L
4567 3192 mt 4625 3250 L
4625 3192 mt 4567 3250 L
4600 3192 mt 4658 3250 L
4658 3192 mt 4600 3250 L
4637 3192 mt 4695 3250 L
4695 3192 mt 4637 3250 L
4670 3191 mt 4728 3249 L
4728 3191 mt 4670 3249 L
3362 2677 mt 3420 2735 L
3420 2677 mt 3362 2735 L
2837 2410 mt 2895 2468 L
2895 2410 mt 2837 2468 L
2637 2322 mt 2695 2380 L
2695 2322 mt 2637 2380 L
2500 2248 mt 2558 2306 L
2558 2248 mt 2500 2306 L
2393 2202 mt 2451 2260 L
2451 2202 mt 2393 2260 L
2321 2169 mt 2379 2227 L
2379 2169 mt 2321 2227 L
2246 2153 mt 2304 2211 L
2304 2153 mt 2246 2211 L
2181 2122 mt 2239 2180 L
2239 2122 mt 2181 2180 L
2115 2096 mt 2173 2154 L
2173 2096 mt 2115 2154 L
2052 2065 mt 2110 2123 L
2110 2065 mt 2052 2123 L
1991 2032 mt 2049 2090 L
2049 2032 mt 1991 2090 L
1928 1997 mt 1986 2055 L
1986 1997 mt 1928 2055 L
1875 1966 mt 1933 2024 L
1933 1966 mt 1875 2024 L
1829 1939 mt 1887 1997 L
1887 1939 mt 1829 1997 L
1780 1909 mt 1838 1967 L
1838 1909 mt 1780 1967 L
1737 1877 mt 1795 1935 L
1795 1877 mt 1737 1935 L
1686 1845 mt 1744 1903 L
1744 1845 mt 1686 1903 L
1638 1801 mt 1696 1859 L
1696 1801 mt 1638 1859 L
1593 1762 mt 1651 1820 L
1651 1762 mt 1593 1820 L
1541 1702 mt 1599 1760 L
1599 1702 mt 1541 1760 L
1500 1661 mt 1558 1719 L
1558 1661 mt 1500 1719 L
1460 1615 mt 1518 1673 L
1518 1615 mt 1460 1673 L
1420 1574 mt 1478 1632 L
1478 1574 mt 1420 1632 L
1387 1537 mt 1445 1595 L
1445 1537 mt 1387 1595 L
1358 1504 mt 1416 1562 L
1416 1504 mt 1358 1562 L
1332 1478 mt 1390 1536 L
1390 1478 mt 1332 1536 L
1306 1443 mt 1364 1501 L
1364 1443 mt 1306 1501 L
1279 1407 mt 1337 1465 L
1337 1407 mt 1279 1465 L
1254 1370 mt 1312 1428 L
1312 1370 mt 1254 1428 L
1229 1322 mt 1287 1380 L
1287 1322 mt 1229 1380 L
1199 1251 mt 1257 1309 L
1257 1251 mt 1199 1309 L
1172 1209 mt 1230 1267 L
1230 1209 mt 1172 1267 L
1147 1155 mt 1205 1213 L
1205 1155 mt 1147 1213 L
1126 1096 mt 1184 1154 L
1184 1096 mt 1126 1154 L
1108 1051 mt 1166 1109 L
1166 1051 mt 1108 1109 L
1092 1017 mt 1150 1075 L
1150 1017 mt 1092 1075 L
1074  958 mt 1132 1016 L
1132  958 mt 1074 1016 L
1056  902 mt 1114  960 L
1114  902 mt 1056  960 L
1037  824 mt 1095  882 L
1095  824 mt 1037  882 L
1022  792 mt 1080  850 L
1080  792 mt 1022  850 L
1009  730 mt 1067  788 L
1067  730 mt 1009  788 L
 996  688 mt 1054  746 L
1054  688 mt  996  746 L
 977  590 mt 1035  648 L
1035  590 mt  977  648 L
gs 848 565 4238 3956 rc
gr

0 sg
%%IncludeResource: font Helvetica
/Helvetica /ISOLatin1Encoding 83.3333 FMSR

 829 4558 mt 
( ) s
5067  602 mt 
( ) s
8.33333 w
DO
SO
12.5 w
0.1 sg
 848 4520 mt 5085 4520 L
 848  564 mt 5085  564 L
 848 4520 mt  848  564 L
5085 4520 mt 5085  564 L
 848 4520 mt 5085 4520 L
 848 4520 mt  848  564 L
 848 4520 mt  848 4456 L
 848  564 mt  848  628 L
%%IncludeResource: font Helvetica
/Helvetica /ISOLatin1Encoding 133.333 FMSR

 811 4667 mt 
(0) s
1611 4520 mt 1611 4456 L
1611  564 mt 1611  628 L
1537 4667 mt 
(20) s
2374 4520 mt 2374 4456 L
2374  564 mt 2374  628 L
2300 4667 mt 
(40) s
3137 4520 mt 3137 4456 L
3137  564 mt 3137  628 L
3063 4667 mt 
(60) s
3900 4520 mt 3900 4456 L
3900  564 mt 3900  628 L
3826 4667 mt 
(80) s
4663 4520 mt 4663 4456 L
4663  564 mt 4663  628 L
4552 4667 mt 
(100) s
 848 4520 mt  911 4520 L
5085 4520 mt 5021 4520 L
 639 4569 mt 
(0.1) s
 848 3860 mt  911 3860 L
5085 3860 mt 5021 3860 L
 639 3909 mt 
(0.2) s
 848 3201 mt  911 3201 L
5085 3201 mt 5021 3201 L
 639 3250 mt 
(0.3) s
 848 2542 mt  911 2542 L
5085 2542 mt 5021 2542 L
 639 2591 mt 
(0.4) s
 848 1883 mt  911 1883 L
5085 1883 mt 5021 1883 L
 639 1932 mt 
(0.5) s
 848 1224 mt  911 1224 L
5085 1224 mt 5021 1224 L
 639 1273 mt 
(0.6) s
 848  564 mt  911  564 L
5085  564 mt 5021  564 L
 639  613 mt 
(0.7) s
 848 4520 mt 5085 4520 L
 848  564 mt 5085  564 L
 848 4520 mt  848  564 L
5085 4520 mt 5085  564 L
0 sg
%%IncludeResource: font Helvetica-Bold
/Helvetica-Bold /ISOLatin1Encoding 125 FMSR

4144 1878 mt 
(SE = 5 J/m) s
%%IncludeResource: font Helvetica-Bold
/Helvetica-Bold /ISOLatin1Encoding 100 FMSR

4772 1816 mt 
(2) s
gs 3819 1689 1120 720 rc
16.6667 w
gs 3891 1716 205 205 rc
3964 1789 mt 4022 1847 L
4022 1789 mt 3964 1847 L
gr

gr

16.6667 w
%%IncludeResource: font Helvetica-Bold
/Helvetica-Bold /ISOLatin1Encoding 125 FMSR

4144 2108 mt 
(SE = 15 J/m) s
%%IncludeResource: font Helvetica-Bold
/Helvetica-Bold /ISOLatin1Encoding 100 FMSR

4842 2046 mt 
(2) s
gs 3819 1689 1120 720 rc
gs 3891 1946 205 205 rc
c8
3964 2019 mt 4022 2077 L
4022 2019 mt 3964 2077 L
gr

c8
gr

c8
0 sg
%%IncludeResource: font Helvetica-Bold
/Helvetica-Bold /ISOLatin1Encoding 125 FMSR

4144 2338 mt 
(SE = 25 J/m) s
%%IncludeResource: font Helvetica-Bold
/Helvetica-Bold /ISOLatin1Encoding 100 FMSR

4842 2276 mt 
(2) s
gs 3819 1689 1120 720 rc
gs 3891 2176 205 205 rc
c9
3964 2249 mt 4022 2307 L
4022 2249 mt 3964 2307 L
gr

c9
12.5 w
gr

12.5 w
c9

end %%Color Dict

eplot
%%EndObject

epage
end

showpage

%%Trailer
%%EOF
