%!PS-Adobe-3.0 EPSF-3.0
%%Creator: MATLAB, The MathWorks, Inc. Version 7.12.0.635 (R2011a). Operating System: Linux 2.6.32-358.6.2.el6.x86_64 #1 SMP Thu May 16 11:21:38 CDT 2013 x86_64.
%%Title: ./EPT_Tests_Paired_RollingFriction_Stress_K0.eps
%%CreationDate: 08/16/2013  15:54:35
%%DocumentNeededFonts: Helvetica-Bold
%%+ Helvetica
%%DocumentProcessColors: Cyan Magenta Yellow Black
%%LanguageLevel: 2
%%Pages: 1
%%BoundingBox:    16    69   597   605
%%EndComments

%%BeginProlog
% MathWorks dictionary
/MathWorks 160 dict begin
% definition operators
/bdef {bind def} bind def
/ldef {load def} bind def
/xdef {exch def} bdef
/xstore {exch store} bdef
% operator abbreviations
/c  /clip ldef
/cc /concat ldef
/cp /closepath ldef
/gr /grestore ldef
/gs /gsave ldef
/mt /moveto ldef
/np /newpath ldef
/cm /currentmatrix ldef
/sm /setmatrix ldef
/rm /rmoveto ldef
/rl /rlineto ldef
/s {show newpath} bdef
/sc {setcmykcolor} bdef
/sr /setrgbcolor ldef
/sg /setgray ldef
/w /setlinewidth ldef
/j /setlinejoin ldef
/cap /setlinecap ldef
/rc {rectclip} bdef
/rf {rectfill} bdef
% page state control
/pgsv () def
/bpage {/pgsv save def} bdef
/epage {pgsv restore} bdef
/bplot /gsave ldef
/eplot {stroke grestore} bdef
% orientation switch
/portraitMode 0 def /landscapeMode 1 def /rotateMode 2 def
% coordinate system mappings
/dpi2point 0 def
% font control
/FontSize 0 def
/FMS {/FontSize xstore findfont [FontSize 0 0 FontSize neg 0 0]
  makefont setfont} bdef
/reencode {exch dup where {pop load} {pop StandardEncoding} ifelse
  exch dup 3 1 roll findfont dup length dict begin
  { 1 index /FID ne {def}{pop pop} ifelse } forall
  /Encoding exch def currentdict end definefont pop} bdef
/isroman {findfont /CharStrings get /Agrave known} bdef
/FMSR {3 1 roll 1 index dup isroman {reencode} {pop pop} ifelse
  exch FMS} bdef
/csm {1 dpi2point div -1 dpi2point div scale neg translate
 dup landscapeMode eq {pop -90 rotate}
  {rotateMode eq {90 rotate} if} ifelse} bdef
% line types: solid, dotted, dashed, dotdash
/SO { [] 0 setdash } bdef
/DO { [.5 dpi2point mul 4 dpi2point mul] 0 setdash } bdef
/DA { [6 dpi2point mul] 0 setdash } bdef
/DD { [.5 dpi2point mul 4 dpi2point mul 6 dpi2point mul 4
  dpi2point mul] 0 setdash } bdef
% macros for lines and objects
/L {lineto stroke} bdef
/MP {3 1 roll moveto 1 sub {rlineto} repeat} bdef
/AP {{rlineto} repeat} bdef
/PDlw -1 def
/W {/PDlw currentlinewidth def setlinewidth} def
/PP {closepath eofill} bdef
/DP {closepath stroke} bdef
/MR {4 -2 roll moveto dup  0 exch rlineto exch 0 rlineto
  neg 0 exch rlineto closepath} bdef
/FR {MR stroke} bdef
/PR {MR fill} bdef
/L1i {{currentfile picstr readhexstring pop} image} bdef
/tMatrix matrix def
/MakeOval {newpath tMatrix currentmatrix pop translate scale
0 0 1 0 360 arc tMatrix setmatrix} bdef
/FO {MakeOval stroke} bdef
/PO {MakeOval fill} bdef
/PD {currentlinewidth 2 div 0 360 arc fill
   PDlw -1 eq not {PDlw w /PDlw -1 def} if} def
/FA {newpath tMatrix currentmatrix pop translate scale
  0 0 1 5 -2 roll arc tMatrix setmatrix stroke} bdef
/PA {newpath tMatrix currentmatrix pop	translate 0 0 moveto scale
  0 0 1 5 -2 roll arc closepath tMatrix setmatrix fill} bdef
/FAn {newpath tMatrix currentmatrix pop translate scale
  0 0 1 5 -2 roll arcn tMatrix setmatrix stroke} bdef
/PAn {newpath tMatrix currentmatrix pop translate 0 0 moveto scale
  0 0 1 5 -2 roll arcn closepath tMatrix setmatrix fill} bdef
/vradius 0 def /hradius 0 def /lry 0 def
/lrx 0 def /uly 0 def /ulx 0 def /rad 0 def
/MRR {/vradius xdef /hradius xdef /lry xdef /lrx xdef /uly xdef
  /ulx xdef newpath tMatrix currentmatrix pop ulx hradius add uly
  vradius add translate hradius vradius scale 0 0 1 180 270 arc 
  tMatrix setmatrix lrx hradius sub uly vradius add translate
  hradius vradius scale 0 0 1 270 360 arc tMatrix setmatrix
  lrx hradius sub lry vradius sub translate hradius vradius scale
  0 0 1 0 90 arc tMatrix setmatrix ulx hradius add lry vradius sub
  translate hradius vradius scale 0 0 1 90 180 arc tMatrix setmatrix
  closepath} bdef
/FRR {MRR stroke } bdef
/PRR {MRR fill } bdef
/MlrRR {/lry xdef /lrx xdef /uly xdef /ulx xdef /rad lry uly sub 2 div def
  newpath tMatrix currentmatrix pop ulx rad add uly rad add translate
  rad rad scale 0 0 1 90 270 arc tMatrix setmatrix lrx rad sub lry rad
  sub translate rad rad scale 0 0 1 270 90 arc tMatrix setmatrix
  closepath} bdef
/FlrRR {MlrRR stroke } bdef
/PlrRR {MlrRR fill } bdef
/MtbRR {/lry xdef /lrx xdef /uly xdef /ulx xdef /rad lrx ulx sub 2 div def
  newpath tMatrix currentmatrix pop ulx rad add uly rad add translate
  rad rad scale 0 0 1 180 360 arc tMatrix setmatrix lrx rad sub lry rad
  sub translate rad rad scale 0 0 1 0 180 arc tMatrix setmatrix
  closepath} bdef
/FtbRR {MtbRR stroke } bdef
/PtbRR {MtbRR fill } bdef
/stri 6 array def /dtri 6 array def
/smat 6 array def /dmat 6 array def
/tmat1 6 array def /tmat2 6 array def /dif 3 array def
/asub {/ind2 exch def /ind1 exch def dup dup
  ind1 get exch ind2 get sub exch } bdef
/tri_to_matrix {
  2 0 asub 3 1 asub 4 0 asub 5 1 asub
  dup 0 get exch 1 get 7 -1 roll astore } bdef
/compute_transform {
  dmat dtri tri_to_matrix tmat1 invertmatrix 
  smat stri tri_to_matrix tmat2 concatmatrix } bdef
/ds {stri astore pop} bdef
/dt {dtri astore pop} bdef
/db {2 copy /cols xdef /rows xdef mul dup 3 mul string
  currentfile 
  3 index 0 eq {/ASCIIHexDecode filter}
  {/ASCII85Decode filter 3 index 2 eq {/RunLengthDecode filter} if }
  ifelse exch readstring pop
  dup 0 3 index getinterval /rbmap xdef
  dup 2 index dup getinterval /gbmap xdef
  1 index dup 2 mul exch getinterval /bbmap xdef pop pop}bdef
/it {gs np dtri aload pop moveto lineto lineto cp c
  cols rows 8 compute_transform 
  rbmap gbmap bbmap true 3 colorimage gr}bdef
/il {newpath moveto lineto stroke}bdef
currentdict end def
%%EndProlog

%%BeginSetup
MathWorks begin

0 cap

end
%%EndSetup

%%Page: 1 1
%%BeginPageSetup
%%PageBoundingBox:    16    69   597   605
MathWorks begin
bpage
%%EndPageSetup

%%BeginObject: obj1
bplot

/dpi2point 8.33333 def
portraitMode -0158 5475 csm

  292   429  4848  4471 rc
84 dict begin %Colortable dictionary
/c0 { 0.000000 0.000000 0.000000 sr} bdef
/c1 { 1.000000 1.000000 1.000000 sr} bdef
/c2 { 0.900000 0.000000 0.000000 sr} bdef
/c3 { 0.000000 0.820000 0.000000 sr} bdef
/c4 { 0.000000 0.000000 0.800000 sr} bdef
/c5 { 0.910000 0.820000 0.320000 sr} bdef
/c6 { 1.000000 0.260000 0.820000 sr} bdef
/c7 { 0.000000 0.820000 0.820000 sr} bdef
c0
1 j
1 sg
   0    0 5651 5651 rf
12.5 w
0 3955 4237 0 0 -3955 848 4520 4 MP
PP
-4237 0 0 3955 4237 0 0 -3955 848 4520 5 MP stroke
gs 848 564 4238 3957 rc
16.6667 w
gr

16.6667 w
0 sg
 819 2925 mt  877 2983 L
 877 2925 mt  819 2983 L
 820 3053 mt  878 3111 L
 878 3053 mt  820 3111 L
 820 3041 mt  878 3099 L
 878 3041 mt  820 3099 L
 820 3023 mt  878 3081 L
 878 3023 mt  820 3081 L
 821 3025 mt  879 3083 L
 879 3025 mt  821 3083 L
 821 2995 mt  879 3053 L
 879 2995 mt  821 3053 L
 821 2956 mt  879 3014 L
 879 2956 mt  821 3014 L
 821 2960 mt  879 3018 L
 879 2960 mt  821 3018 L
 822 2992 mt  880 3050 L
 880 2992 mt  822 3050 L
 822 2950 mt  880 3008 L
 880 2950 mt  822 3008 L
 824 3160 mt  882 3218 L
 882 3160 mt  824 3218 L
 827 3355 mt  885 3413 L
 885 3355 mt  827 3413 L
 830 3476 mt  888 3534 L
 888 3476 mt  830 3534 L
 831 3378 mt  889 3436 L
 889 3378 mt  831 3436 L
 834 3422 mt  892 3480 L
 892 3422 mt  834 3480 L
 838 3457 mt  896 3515 L
 896 3457 mt  838 3515 L
 839 3363 mt  897 3421 L
 897 3363 mt  839 3421 L
 841 3390 mt  899 3448 L
 899 3390 mt  841 3448 L
 844 3471 mt  902 3529 L
 902 3471 mt  844 3529 L
 845 3459 mt  903 3517 L
 903 3459 mt  845 3517 L
 847 3295 mt  905 3353 L
 905 3295 mt  847 3353 L
 848 3162 mt  906 3220 L
 906 3162 mt  848 3220 L
 850 3120 mt  908 3178 L
 908 3120 mt  850 3178 L
 851 3050 mt  909 3108 L
 909 3050 mt  851 3108 L
 851 2967 mt  909 3025 L
 909 2967 mt  851 3025 L
 852 2962 mt  910 3020 L
 910 2962 mt  852 3020 L
 854 3010 mt  912 3068 L
 912 3010 mt  854 3068 L
 856 2999 mt  914 3057 L
 914 2999 mt  856 3057 L
 859 3052 mt  917 3110 L
 917 3052 mt  859 3110 L
 862 3032 mt  920 3090 L
 920 3032 mt  862 3090 L
 866 3027 mt  924 3085 L
 924 3027 mt  866 3085 L
 870 3017 mt  928 3075 L
 928 3017 mt  870 3075 L
 873 2999 mt  931 3057 L
 931 2999 mt  873 3057 L
 877 2954 mt  935 3012 L
 935 2954 mt  877 3012 L
 879 2899 mt  937 2957 L
 937 2899 mt  879 2957 L
 882 2876 mt  940 2934 L
 940 2876 mt  882 2934 L
 886 2875 mt  944 2933 L
 944 2875 mt  886 2933 L
 889 2885 mt  947 2943 L
 947 2885 mt  889 2943 L
 894 2902 mt  952 2960 L
 952 2902 mt  894 2960 L
 898 2933 mt  956 2991 L
 956 2933 mt  898 2991 L
 901 2894 mt  959 2952 L
 959 2894 mt  901 2952 L
 904 2830 mt  962 2888 L
 962 2830 mt  904 2888 L
 907 2808 mt  965 2866 L
 965 2808 mt  907 2866 L
 912 2816 mt  970 2874 L
 970 2816 mt  912 2874 L
 916 2772 mt  974 2830 L
 974 2772 mt  916 2830 L
 921 2794 mt  979 2852 L
 979 2794 mt  921 2852 L
 923 2731 mt  981 2789 L
 981 2731 mt  923 2789 L
 926 2728 mt  984 2786 L
 984 2728 mt  926 2786 L
 930 2752 mt  988 2810 L
 988 2752 mt  930 2810 L
 932 2747 mt  990 2805 L
 990 2747 mt  932 2805 L
 935 2711 mt  993 2769 L
 993 2711 mt  935 2769 L
 939 2686 mt  997 2744 L
 997 2686 mt  939 2744 L
 941 2642 mt  999 2700 L
 999 2642 mt  941 2700 L
 938 2588 mt  996 2646 L
 996 2588 mt  938 2646 L
 941 2576 mt  999 2634 L
 999 2576 mt  941 2634 L
 944 2538 mt 1002 2596 L
1002 2538 mt  944 2596 L
 948 2523 mt 1006 2581 L
1006 2523 mt  948 2581 L
 952 2563 mt 1010 2621 L
1010 2563 mt  952 2621 L
 956 2576 mt 1014 2634 L
1014 2576 mt  956 2634 L
 959 2569 mt 1017 2627 L
1017 2569 mt  959 2627 L
 960 2558 mt 1018 2616 L
1018 2558 mt  960 2616 L
 964 2538 mt 1022 2596 L
1022 2538 mt  964 2596 L
 965 2482 mt 1023 2540 L
1023 2482 mt  965 2540 L
 971 2479 mt 1029 2537 L
1029 2479 mt  971 2537 L
 981 2519 mt 1039 2577 L
1039 2519 mt  981 2577 L
 989 2528 mt 1047 2586 L
1047 2528 mt  989 2586 L
 996 2526 mt 1054 2584 L
1054 2526 mt  996 2584 L
1002 2465 mt 1060 2523 L
1060 2465 mt 1002 2523 L
1005 2449 mt 1063 2507 L
1063 2449 mt 1005 2507 L
1008 2435 mt 1066 2493 L
1066 2435 mt 1008 2493 L
1015 2399 mt 1073 2457 L
1073 2399 mt 1015 2457 L
1017 2375 mt 1075 2433 L
1075 2375 mt 1017 2433 L
1023 2393 mt 1081 2451 L
1081 2393 mt 1023 2451 L
1028 2420 mt 1086 2478 L
1086 2420 mt 1028 2478 L
1032 2417 mt 1090 2475 L
1090 2417 mt 1032 2475 L
1036 2382 mt 1094 2440 L
1094 2382 mt 1036 2440 L
1042 2373 mt 1100 2431 L
1100 2373 mt 1042 2431 L
1047 2369 mt 1105 2427 L
1105 2369 mt 1047 2427 L
1053 2383 mt 1111 2441 L
1111 2383 mt 1053 2441 L
1060 2380 mt 1118 2438 L
1118 2380 mt 1060 2438 L
1064 2349 mt 1122 2407 L
1122 2349 mt 1064 2407 L
1068 2323 mt 1126 2381 L
1126 2323 mt 1068 2381 L
1078 2323 mt 1136 2381 L
1136 2323 mt 1078 2381 L
1085 2319 mt 1143 2377 L
1143 2319 mt 1085 2377 L
1092 2337 mt 1150 2395 L
1150 2337 mt 1092 2395 L
1098 2358 mt 1156 2416 L
1156 2358 mt 1098 2416 L
1106 2356 mt 1164 2414 L
1164 2356 mt 1106 2414 L
1109 2340 mt 1167 2398 L
1167 2340 mt 1109 2398 L
1112 2335 mt 1170 2393 L
1170 2335 mt 1112 2393 L
1117 2342 mt 1175 2400 L
1175 2342 mt 1117 2400 L
1130 2378 mt 1188 2436 L
1188 2378 mt 1130 2436 L
1139 2352 mt 1197 2410 L
1197 2352 mt 1139 2410 L
1152 2357 mt 1210 2415 L
1210 2357 mt 1152 2415 L
1166 2348 mt 1224 2406 L
1224 2348 mt 1166 2406 L
1175 2327 mt 1233 2385 L
1233 2327 mt 1175 2385 L
1181 2319 mt 1239 2377 L
1239 2319 mt 1181 2377 L
1195 2333 mt 1253 2391 L
1253 2333 mt 1195 2391 L
1202 2325 mt 1260 2383 L
1260 2325 mt 1202 2383 L
1209 2334 mt 1267 2392 L
1267 2334 mt 1209 2392 L
1213 2331 mt 1271 2389 L
1271 2331 mt 1213 2389 L
1215 2318 mt 1273 2376 L
1273 2318 mt 1215 2376 L
1218 2319 mt 1276 2377 L
1276 2319 mt 1218 2377 L
1222 2320 mt 1280 2378 L
1280 2320 mt 1222 2378 L
1226 2318 mt 1284 2376 L
1284 2318 mt 1226 2376 L
1232 2340 mt 1290 2398 L
1290 2340 mt 1232 2398 L
1239 2316 mt 1297 2374 L
1297 2316 mt 1239 2374 L
1248 2303 mt 1306 2361 L
1306 2303 mt 1248 2361 L
1257 2318 mt 1315 2376 L
1315 2318 mt 1257 2376 L
1270 2323 mt 1328 2381 L
1328 2323 mt 1270 2381 L
1285 2324 mt 1343 2382 L
1343 2324 mt 1285 2382 L
1300 2325 mt 1358 2383 L
1358 2325 mt 1300 2383 L
1315 2326 mt 1373 2384 L
1373 2326 mt 1315 2384 L
1328 2325 mt 1386 2383 L
1386 2325 mt 1328 2383 L
1341 2339 mt 1399 2397 L
1399 2339 mt 1341 2397 L
1349 2340 mt 1407 2398 L
1407 2340 mt 1349 2398 L
1357 2336 mt 1415 2394 L
1415 2336 mt 1357 2394 L
1364 2327 mt 1422 2385 L
1422 2327 mt 1364 2385 L
1369 2320 mt 1427 2378 L
1427 2320 mt 1369 2378 L
1372 2320 mt 1430 2378 L
1430 2320 mt 1372 2378 L
1381 2323 mt 1439 2381 L
1439 2323 mt 1381 2381 L
1393 2327 mt 1451 2385 L
1451 2327 mt 1393 2385 L
1403 2326 mt 1461 2384 L
1461 2326 mt 1403 2384 L
1411 2318 mt 1469 2376 L
1469 2318 mt 1411 2376 L
1424 2313 mt 1482 2371 L
1482 2313 mt 1424 2371 L
1434 2309 mt 1492 2367 L
1492 2309 mt 1434 2367 L
1447 2307 mt 1505 2365 L
1505 2307 mt 1447 2365 L
1460 2316 mt 1518 2374 L
1518 2316 mt 1460 2374 L
1474 2321 mt 1532 2379 L
1532 2321 mt 1474 2379 L
1488 2313 mt 1546 2371 L
1546 2313 mt 1488 2371 L
1498 2307 mt 1556 2365 L
1556 2307 mt 1498 2365 L
1508 2306 mt 1566 2364 L
1566 2306 mt 1508 2364 L
1516 2300 mt 1574 2358 L
1574 2300 mt 1516 2358 L
1525 2292 mt 1583 2350 L
1583 2292 mt 1525 2350 L
1533 2292 mt 1591 2350 L
1591 2292 mt 1533 2350 L
1544 2293 mt 1602 2351 L
1602 2293 mt 1544 2351 L
1554 2288 mt 1612 2346 L
1612 2288 mt 1554 2346 L
1566 2289 mt 1624 2347 L
1624 2289 mt 1566 2347 L
1576 2290 mt 1634 2348 L
1634 2290 mt 1576 2348 L
1584 2276 mt 1642 2334 L
1642 2276 mt 1584 2334 L
1596 2272 mt 1654 2330 L
1654 2272 mt 1596 2330 L
1612 2274 mt 1670 2332 L
1670 2274 mt 1612 2332 L
1628 2276 mt 1686 2334 L
1686 2276 mt 1628 2334 L
1644 2273 mt 1702 2331 L
1702 2273 mt 1644 2331 L
1658 2279 mt 1716 2337 L
1716 2279 mt 1658 2337 L
1669 2281 mt 1727 2339 L
1727 2281 mt 1669 2339 L
1674 2269 mt 1732 2327 L
1732 2269 mt 1674 2327 L
1684 2261 mt 1742 2319 L
1742 2261 mt 1684 2319 L
1694 2255 mt 1752 2313 L
1752 2255 mt 1694 2313 L
1708 2259 mt 1766 2317 L
1766 2259 mt 1708 2317 L
1723 2271 mt 1781 2329 L
1781 2271 mt 1723 2329 L
1735 2267 mt 1793 2325 L
1793 2267 mt 1735 2325 L
1743 2255 mt 1801 2313 L
1801 2255 mt 1743 2313 L
1757 2254 mt 1815 2312 L
1815 2254 mt 1757 2312 L
1773 2259 mt 1831 2317 L
1831 2259 mt 1773 2317 L
1788 2260 mt 1846 2318 L
1846 2260 mt 1788 2318 L
1804 2252 mt 1862 2310 L
1862 2252 mt 1804 2310 L
1818 2249 mt 1876 2307 L
1876 2249 mt 1818 2307 L
1829 2243 mt 1887 2301 L
1887 2243 mt 1829 2301 L
1841 2244 mt 1899 2302 L
1899 2244 mt 1841 2302 L
1854 2247 mt 1912 2305 L
1912 2247 mt 1854 2305 L
1866 2243 mt 1924 2301 L
1924 2243 mt 1866 2301 L
1875 2235 mt 1933 2293 L
1933 2235 mt 1875 2293 L
1885 2229 mt 1943 2287 L
1943 2229 mt 1885 2287 L
1896 2229 mt 1954 2287 L
1954 2229 mt 1896 2287 L
1908 2227 mt 1966 2285 L
1966 2227 mt 1908 2285 L
1925 2227 mt 1983 2285 L
1983 2227 mt 1925 2285 L
1941 2228 mt 1999 2286 L
1999 2228 mt 1941 2286 L
1956 2219 mt 2014 2277 L
2014 2219 mt 1956 2277 L
1976 2212 mt 2034 2270 L
2034 2212 mt 1976 2270 L
1997 2214 mt 2055 2272 L
2055 2214 mt 1997 2272 L
2016 2218 mt 2074 2276 L
2074 2218 mt 2016 2276 L
2031 2217 mt 2089 2275 L
2089 2217 mt 2031 2275 L
2042 2215 mt 2100 2273 L
2100 2215 mt 2042 2273 L
2051 2212 mt 2109 2270 L
2109 2212 mt 2051 2270 L
2061 2209 mt 2119 2267 L
2119 2209 mt 2061 2267 L
2073 2203 mt 2131 2261 L
2131 2203 mt 2073 2261 L
2088 2203 mt 2146 2261 L
2146 2203 mt 2088 2261 L
2106 2205 mt 2164 2263 L
2164 2205 mt 2106 2263 L
2128 2202 mt 2186 2260 L
2186 2202 mt 2128 2260 L
2147 2195 mt 2205 2253 L
2205 2195 mt 2147 2253 L
2168 2197 mt 2226 2255 L
2226 2197 mt 2168 2255 L
2186 2193 mt 2244 2251 L
2244 2193 mt 2186 2251 L
2204 2193 mt 2262 2251 L
2262 2193 mt 2204 2251 L
2220 2191 mt 2278 2249 L
2278 2191 mt 2220 2249 L
2233 2191 mt 2291 2249 L
2291 2191 mt 2233 2249 L
2247 2188 mt 2305 2246 L
2305 2188 mt 2247 2246 L
2261 2187 mt 2319 2245 L
2319 2187 mt 2261 2245 L
2278 2188 mt 2336 2246 L
2336 2188 mt 2278 2246 L
2296 2188 mt 2354 2246 L
2354 2188 mt 2296 2246 L
2314 2185 mt 2372 2243 L
2372 2185 mt 2314 2243 L
2333 2184 mt 2391 2242 L
2391 2184 mt 2333 2242 L
2359 2188 mt 2417 2246 L
2417 2188 mt 2359 2246 L
2373 2186 mt 2431 2244 L
2431 2186 mt 2373 2244 L
2391 2186 mt 2449 2244 L
2449 2186 mt 2391 2244 L
2405 2188 mt 2463 2246 L
2463 2188 mt 2405 2246 L
2420 2188 mt 2478 2246 L
2478 2188 mt 2420 2246 L
2448 2191 mt 2506 2249 L
2506 2191 mt 2448 2249 L
2465 2184 mt 2523 2242 L
2523 2184 mt 2465 2242 L
2480 2175 mt 2538 2233 L
2538 2175 mt 2480 2233 L
2496 2170 mt 2554 2228 L
2554 2170 mt 2496 2228 L
2515 2174 mt 2573 2232 L
2573 2174 mt 2515 2232 L
2532 2174 mt 2590 2232 L
2590 2174 mt 2532 2232 L
2547 2174 mt 2605 2232 L
2605 2174 mt 2547 2232 L
2564 2174 mt 2622 2232 L
2622 2174 mt 2564 2232 L
2585 2172 mt 2643 2230 L
2643 2172 mt 2585 2230 L
2602 2167 mt 2660 2225 L
2660 2167 mt 2602 2225 L
2621 2163 mt 2679 2221 L
2679 2163 mt 2621 2221 L
2644 2158 mt 2702 2216 L
2702 2158 mt 2644 2216 L
2678 2169 mt 2736 2227 L
2736 2169 mt 2678 2227 L
2691 2164 mt 2749 2222 L
2749 2164 mt 2691 2222 L
2715 2169 mt 2773 2227 L
2773 2169 mt 2715 2227 L
2721 2160 mt 2779 2218 L
2779 2160 mt 2721 2218 L
2744 2160 mt 2802 2218 L
2802 2160 mt 2744 2218 L
2746 2144 mt 2804 2202 L
2804 2144 mt 2746 2202 L
2774 2150 mt 2832 2208 L
2832 2150 mt 2774 2208 L
2805 2154 mt 2863 2212 L
2863 2154 mt 2805 2212 L
2822 2142 mt 2880 2200 L
2880 2142 mt 2822 2200 L
2852 2141 mt 2910 2199 L
2910 2141 mt 2852 2199 L
2874 2142 mt 2932 2200 L
2932 2142 mt 2874 2200 L
2898 2142 mt 2956 2200 L
2956 2142 mt 2898 2200 L
2913 2134 mt 2971 2192 L
2971 2134 mt 2913 2192 L
2927 2129 mt 2985 2187 L
2985 2129 mt 2927 2187 L
2947 2127 mt 3005 2185 L
3005 2127 mt 2947 2185 L
2971 2128 mt 3029 2186 L
3029 2128 mt 2971 2186 L
2996 2129 mt 3054 2187 L
3054 2129 mt 2996 2187 L
3021 2124 mt 3079 2182 L
3079 2124 mt 3021 2182 L
3046 2120 mt 3104 2178 L
3104 2120 mt 3046 2178 L
3071 2120 mt 3129 2178 L
3129 2120 mt 3071 2178 L
3099 2123 mt 3157 2181 L
3157 2123 mt 3099 2181 L
3119 2119 mt 3177 2177 L
3177 2119 mt 3119 2177 L
3138 2114 mt 3196 2172 L
3196 2114 mt 3138 2172 L
3161 2113 mt 3219 2171 L
3219 2113 mt 3161 2171 L
3177 2111 mt 3235 2169 L
3235 2111 mt 3177 2169 L
3199 2105 mt 3257 2163 L
3257 2105 mt 3199 2163 L
3227 2104 mt 3285 2162 L
3285 2104 mt 3227 2162 L
3255 2100 mt 3313 2158 L
3313 2100 mt 3255 2158 L
3281 2102 mt 3339 2160 L
3339 2102 mt 3281 2160 L
3307 2100 mt 3365 2158 L
3365 2100 mt 3307 2158 L
3329 2094 mt 3387 2152 L
3387 2094 mt 3329 2152 L
3355 2092 mt 3413 2150 L
3413 2092 mt 3355 2150 L
3382 2090 mt 3440 2148 L
3440 2090 mt 3382 2148 L
3390 2077 mt 3448 2135 L
3448 2077 mt 3390 2135 L
3430 2085 mt 3488 2143 L
3488 2085 mt 3430 2143 L
3454 2082 mt 3512 2140 L
3512 2082 mt 3454 2140 L
3483 2083 mt 3541 2141 L
3541 2083 mt 3483 2141 L
3511 2078 mt 3569 2136 L
3569 2078 mt 3511 2136 L
3538 2076 mt 3596 2134 L
3596 2076 mt 3538 2134 L
3565 2073 mt 3623 2131 L
3623 2073 mt 3565 2131 L
3590 2070 mt 3648 2128 L
3648 2070 mt 3590 2128 L
3617 2067 mt 3675 2125 L
3675 2067 mt 3617 2125 L
3644 2063 mt 3702 2121 L
3702 2063 mt 3644 2121 L
3671 2062 mt 3729 2120 L
3729 2062 mt 3671 2120 L
3697 2060 mt 3755 2118 L
3755 2060 mt 3697 2118 L
3728 2060 mt 3786 2118 L
3786 2060 mt 3728 2118 L
3756 2057 mt 3814 2115 L
3814 2057 mt 3756 2115 L
3788 2054 mt 3846 2112 L
3846 2054 mt 3788 2112 L
3819 2050 mt 3877 2108 L
3877 2050 mt 3819 2108 L
3847 2049 mt 3905 2107 L
3905 2049 mt 3847 2107 L
3875 2047 mt 3933 2105 L
3933 2047 mt 3875 2105 L
3904 2048 mt 3962 2106 L
3962 2048 mt 3904 2106 L
3932 2044 mt 3990 2102 L
3990 2044 mt 3932 2102 L
3962 2036 mt 4020 2094 L
4020 2036 mt 3962 2094 L
3994 2033 mt 4052 2091 L
4052 2033 mt 3994 2091 L
4023 2039 mt 4081 2097 L
4081 2039 mt 4023 2097 L
4056 2035 mt 4114 2093 L
4114 2035 mt 4056 2093 L
4099 2039 mt 4157 2097 L
4157 2039 mt 4099 2097 L
4118 2028 mt 4176 2086 L
4176 2028 mt 4118 2086 L
4147 2030 mt 4205 2088 L
4205 2030 mt 4147 2088 L
4178 2024 mt 4236 2082 L
4236 2024 mt 4178 2082 L
4212 2023 mt 4270 2081 L
4270 2023 mt 4212 2081 L
4242 2021 mt 4300 2079 L
4300 2021 mt 4242 2079 L
4274 2018 mt 4332 2076 L
4332 2018 mt 4274 2076 L
4304 2015 mt 4362 2073 L
4362 2015 mt 4304 2073 L
4334 2012 mt 4392 2070 L
4392 2012 mt 4334 2070 L
4368 2010 mt 4426 2068 L
4426 2010 mt 4368 2068 L
4403 2008 mt 4461 2066 L
4461 2008 mt 4403 2066 L
4439 2005 mt 4497 2063 L
4497 2005 mt 4439 2063 L
4473 2002 mt 4531 2060 L
4531 2002 mt 4473 2060 L
4505 2001 mt 4563 2059 L
4563 2001 mt 4505 2059 L
4537 1999 mt 4595 2057 L
4595 1999 mt 4537 2057 L
4567 1995 mt 4625 2053 L
4625 1995 mt 4567 2053 L
4600 1992 mt 4658 2050 L
4658 1992 mt 4600 2050 L
4639 1991 mt 4697 2049 L
4697 1991 mt 4639 2049 L
4673 1986 mt 4731 2044 L
4731 1986 mt 4673 2044 L
4175 2088 mt 4233 2146 L
4233 2088 mt 4175 2146 L
4107 2117 mt 4165 2175 L
4165 2117 mt 4107 2175 L
3637 2132 mt 3695 2190 L
3695 2132 mt 3637 2190 L
3649 2170 mt 3707 2228 L
3707 2170 mt 3649 2228 L
3317 2198 mt 3375 2256 L
3375 2198 mt 3317 2256 L
3226 2230 mt 3284 2288 L
3284 2230 mt 3226 2288 L
3073 2259 mt 3131 2317 L
3131 2259 mt 3073 2317 L
2935 2290 mt 2993 2348 L
2993 2290 mt 2935 2348 L
2832 2325 mt 2890 2383 L
2890 2325 mt 2832 2383 L
2713 2354 mt 2771 2412 L
2771 2354 mt 2713 2412 L
2608 2385 mt 2666 2443 L
2666 2385 mt 2608 2443 L
2511 2410 mt 2569 2468 L
2569 2410 mt 2511 2468 L
2431 2444 mt 2489 2502 L
2489 2444 mt 2431 2502 L
2337 2463 mt 2395 2521 L
2395 2463 mt 2337 2521 L
2262 2489 mt 2320 2547 L
2320 2489 mt 2262 2547 L
2195 2505 mt 2253 2563 L
2253 2505 mt 2195 2563 L
2129 2514 mt 2187 2572 L
2187 2514 mt 2129 2572 L
2058 2533 mt 2116 2591 L
2116 2533 mt 2058 2591 L
1989 2551 mt 2047 2609 L
2047 2551 mt 1989 2609 L
1942 2576 mt 2000 2634 L
2000 2576 mt 1942 2634 L
1892 2578 mt 1950 2636 L
1950 2578 mt 1892 2636 L
1832 2588 mt 1890 2646 L
1890 2588 mt 1832 2646 L
1778 2604 mt 1836 2662 L
1836 2604 mt 1778 2662 L
1739 2622 mt 1797 2680 L
1797 2622 mt 1739 2680 L
1702 2617 mt 1760 2675 L
1760 2617 mt 1702 2675 L
1662 2634 mt 1720 2692 L
1720 2634 mt 1662 2692 L
1628 2639 mt 1686 2697 L
1686 2639 mt 1628 2697 L
1585 2644 mt 1643 2702 L
1643 2644 mt 1585 2702 L
1550 2649 mt 1608 2707 L
1608 2649 mt 1550 2707 L
1515 2624 mt 1573 2682 L
1573 2624 mt 1515 2682 L
1478 2630 mt 1536 2688 L
1536 2630 mt 1478 2688 L
1445 2633 mt 1503 2691 L
1503 2633 mt 1445 2691 L
1420 2654 mt 1478 2712 L
1478 2654 mt 1420 2712 L
1385 2659 mt 1443 2717 L
1443 2659 mt 1385 2717 L
1355 2639 mt 1413 2697 L
1413 2639 mt 1355 2697 L
1320 2636 mt 1378 2694 L
1378 2636 mt 1320 2694 L
1296 2632 mt 1354 2690 L
1354 2632 mt 1296 2690 L
1273 2599 mt 1331 2657 L
1331 2599 mt 1273 2657 L
1256 2607 mt 1314 2665 L
1314 2607 mt 1256 2665 L
1231 2577 mt 1289 2635 L
1289 2577 mt 1231 2635 L
1205 2577 mt 1263 2635 L
1263 2577 mt 1205 2635 L
1178 2579 mt 1236 2637 L
1236 2579 mt 1178 2637 L
1156 2612 mt 1214 2670 L
1214 2612 mt 1156 2670 L
1135 2591 mt 1193 2649 L
1193 2591 mt 1135 2649 L
1119 2587 mt 1177 2645 L
1177 2587 mt 1119 2645 L
1097 2590 mt 1155 2648 L
1155 2590 mt 1097 2648 L
1072 2594 mt 1130 2652 L
1130 2594 mt 1072 2652 L
1049 2597 mt 1107 2655 L
1107 2597 mt 1049 2655 L
1027 2548 mt 1085 2606 L
1085 2548 mt 1027 2606 L
1012 2513 mt 1070 2571 L
1070 2513 mt 1012 2571 L
1003 2556 mt 1061 2614 L
1061 2556 mt 1003 2614 L
 984 2472 mt 1042 2530 L
1042 2472 mt  984 2530 L
 968 2443 mt 1026 2501 L
1026 2443 mt  968 2501 L
 952 2359 mt 1010 2417 L
1010 2359 mt  952 2417 L
 938 2226 mt  996 2284 L
 996 2226 mt  938 2284 L
 930 2240 mt  988 2298 L
 988 2240 mt  930 2298 L
 920 2237 mt  978 2295 L
 978 2237 mt  920 2295 L
 906 2009 mt  964 2067 L
 964 2009 mt  906 2067 L
 894 1714 mt  952 1772 L
 952 1714 mt  894 1772 L
 883 1446 mt  941 1504 L
 941 1446 mt  883 1504 L
 877 1206 mt  935 1264 L
 935 1206 mt  877 1264 L
 866  765 mt  924  823 L
 924  765 mt  866  823 L
gs 848 564 4238 3957 rc
gr

gs 848 564 4238 3957 rc
gr

0.1 sg
%%IncludeResource: font Helvetica-Bold
/Helvetica-Bold /ISOLatin1Encoding 183.333 FMSR

2331 4842 mt 
(Vertical Stress) s
 485 3516 mt  -90 rotate
(Lateral Pressure Ratio) s
90 rotate
gs 848 564 4238 3957 rc
gr

gs 848 564 4238 3957 rc
gr

/c8 { 1.000000 0.000000 0.000000 sr} bdef
c8
 843 4014 mt  901 4072 L
 901 4014 mt  843 4072 L
 848 3951 mt  906 4009 L
 906 3951 mt  848 4009 L
 854 3810 mt  912 3868 L
 912 3810 mt  854 3868 L
 861 3585 mt  919 3643 L
 919 3585 mt  861 3643 L
 867 3423 mt  925 3481 L
 925 3423 mt  867 3481 L
 872 3250 mt  930 3308 L
 930 3250 mt  872 3308 L
 876 3121 mt  934 3179 L
 934 3121 mt  876 3179 L
 882 3101 mt  940 3159 L
 940 3101 mt  882 3159 L
 885 3060 mt  943 3118 L
 943 3060 mt  885 3118 L
 888 3046 mt  946 3104 L
 946 3046 mt  888 3104 L
 888 3009 mt  946 3067 L
 946 3009 mt  888 3067 L
 890 3009 mt  948 3067 L
 948 3009 mt  890 3067 L
 892 3054 mt  950 3112 L
 950 3054 mt  892 3112 L
 894 2964 mt  952 3022 L
 952 2964 mt  894 3022 L
 897 2929 mt  955 2987 L
 955 2929 mt  897 2987 L
 900 2890 mt  958 2948 L
 958 2890 mt  900 2948 L
 903 2819 mt  961 2877 L
 961 2819 mt  903 2877 L
 907 2809 mt  965 2867 L
 965 2809 mt  907 2867 L
 910 2792 mt  968 2850 L
 968 2792 mt  910 2850 L
 916 2781 mt  974 2839 L
 974 2781 mt  916 2839 L
 921 2768 mt  979 2826 L
 979 2768 mt  921 2826 L
 926 2767 mt  984 2825 L
 984 2767 mt  926 2825 L
 933 2799 mt  991 2857 L
 991 2799 mt  933 2857 L
 942 2836 mt 1000 2894 L
1000 2836 mt  942 2894 L
 951 2848 mt 1009 2906 L
1009 2848 mt  951 2906 L
 958 2830 mt 1016 2888 L
1016 2830 mt  958 2888 L
 964 2767 mt 1022 2825 L
1022 2767 mt  964 2825 L
 969 2723 mt 1027 2781 L
1027 2723 mt  969 2781 L
 975 2718 mt 1033 2776 L
1033 2718 mt  975 2776 L
 982 2722 mt 1040 2780 L
1040 2722 mt  982 2780 L
 986 2707 mt 1044 2765 L
1044 2707 mt  986 2765 L
 990 2702 mt 1048 2760 L
1048 2702 mt  990 2760 L
 997 2701 mt 1055 2759 L
1055 2701 mt  997 2759 L
1003 2703 mt 1061 2761 L
1061 2703 mt 1003 2761 L
1007 2687 mt 1065 2745 L
1065 2687 mt 1007 2745 L
1008 2677 mt 1066 2735 L
1066 2677 mt 1008 2735 L
1011 2664 mt 1069 2722 L
1069 2664 mt 1011 2722 L
1016 2651 mt 1074 2709 L
1074 2651 mt 1016 2709 L
1021 2657 mt 1079 2715 L
1079 2657 mt 1021 2715 L
1027 2636 mt 1085 2694 L
1085 2636 mt 1027 2694 L
1032 2612 mt 1090 2670 L
1090 2612 mt 1032 2670 L
1038 2601 mt 1096 2659 L
1096 2601 mt 1038 2659 L
1044 2598 mt 1102 2656 L
1102 2598 mt 1044 2656 L
1051 2630 mt 1109 2688 L
1109 2630 mt 1051 2688 L
1057 2638 mt 1115 2696 L
1115 2638 mt 1057 2696 L
1062 2623 mt 1120 2681 L
1120 2623 mt 1062 2681 L
1063 2593 mt 1121 2651 L
1121 2593 mt 1063 2651 L
1070 2593 mt 1128 2651 L
1128 2593 mt 1070 2651 L
1079 2591 mt 1137 2649 L
1137 2591 mt 1079 2649 L
1089 2585 mt 1147 2643 L
1147 2585 mt 1089 2643 L
1097 2577 mt 1155 2635 L
1155 2577 mt 1097 2635 L
1103 2568 mt 1161 2626 L
1161 2568 mt 1103 2626 L
1107 2544 mt 1165 2602 L
1165 2544 mt 1107 2602 L
1113 2553 mt 1171 2611 L
1171 2553 mt 1113 2611 L
1120 2583 mt 1178 2641 L
1178 2583 mt 1120 2641 L
1129 2563 mt 1187 2621 L
1187 2563 mt 1129 2621 L
1138 2565 mt 1196 2623 L
1196 2565 mt 1138 2623 L
1146 2567 mt 1204 2625 L
1204 2567 mt 1146 2625 L
1152 2540 mt 1210 2598 L
1210 2540 mt 1152 2598 L
1160 2549 mt 1218 2607 L
1218 2549 mt 1160 2607 L
1167 2538 mt 1225 2596 L
1225 2538 mt 1167 2596 L
1175 2537 mt 1233 2595 L
1233 2537 mt 1175 2595 L
1184 2537 mt 1242 2595 L
1242 2537 mt 1184 2595 L
1191 2528 mt 1249 2586 L
1249 2528 mt 1191 2586 L
1199 2540 mt 1257 2598 L
1257 2540 mt 1199 2598 L
1206 2531 mt 1264 2589 L
1264 2531 mt 1206 2589 L
1215 2529 mt 1273 2587 L
1273 2529 mt 1215 2587 L
1221 2519 mt 1279 2577 L
1279 2519 mt 1221 2577 L
1230 2514 mt 1288 2572 L
1288 2514 mt 1230 2572 L
1237 2503 mt 1295 2561 L
1295 2503 mt 1237 2561 L
1248 2504 mt 1306 2562 L
1306 2504 mt 1248 2562 L
1258 2511 mt 1316 2569 L
1316 2511 mt 1258 2569 L
1266 2503 mt 1324 2561 L
1324 2503 mt 1266 2561 L
1277 2515 mt 1335 2573 L
1335 2515 mt 1277 2573 L
1289 2519 mt 1347 2577 L
1347 2519 mt 1289 2577 L
1300 2518 mt 1358 2576 L
1358 2518 mt 1300 2576 L
1309 2513 mt 1367 2571 L
1367 2513 mt 1309 2571 L
1315 2500 mt 1373 2558 L
1373 2500 mt 1315 2558 L
1324 2498 mt 1382 2556 L
1382 2498 mt 1324 2556 L
1335 2497 mt 1393 2555 L
1393 2497 mt 1335 2555 L
1343 2497 mt 1401 2555 L
1401 2497 mt 1343 2555 L
1351 2491 mt 1409 2549 L
1409 2491 mt 1351 2549 L
1357 2491 mt 1415 2549 L
1415 2491 mt 1357 2549 L
1366 2492 mt 1424 2550 L
1424 2492 mt 1366 2550 L
1377 2488 mt 1435 2546 L
1435 2488 mt 1377 2546 L
1387 2481 mt 1445 2539 L
1445 2481 mt 1387 2539 L
1397 2480 mt 1455 2538 L
1455 2480 mt 1397 2538 L
1405 2478 mt 1463 2536 L
1463 2478 mt 1405 2536 L
1415 2476 mt 1473 2534 L
1473 2476 mt 1415 2534 L
1430 2471 mt 1488 2529 L
1488 2471 mt 1430 2529 L
1441 2466 mt 1499 2524 L
1499 2466 mt 1441 2524 L
1449 2458 mt 1507 2516 L
1507 2458 mt 1449 2516 L
1464 2450 mt 1522 2508 L
1522 2450 mt 1464 2508 L
1479 2461 mt 1537 2519 L
1537 2461 mt 1479 2519 L
1490 2466 mt 1548 2524 L
1548 2466 mt 1490 2524 L
1497 2464 mt 1555 2522 L
1555 2464 mt 1497 2522 L
1499 2440 mt 1557 2498 L
1557 2440 mt 1499 2498 L
1502 2423 mt 1560 2481 L
1560 2423 mt 1502 2481 L
1511 2420 mt 1569 2478 L
1569 2420 mt 1511 2478 L
1522 2425 mt 1580 2483 L
1580 2425 mt 1522 2483 L
1534 2431 mt 1592 2489 L
1592 2431 mt 1534 2489 L
1546 2429 mt 1604 2487 L
1604 2429 mt 1546 2487 L
1558 2420 mt 1616 2478 L
1616 2420 mt 1558 2478 L
1575 2418 mt 1633 2476 L
1633 2418 mt 1575 2476 L
1592 2413 mt 1650 2471 L
1650 2413 mt 1592 2471 L
1607 2411 mt 1665 2469 L
1665 2411 mt 1607 2469 L
1624 2407 mt 1682 2465 L
1682 2407 mt 1624 2465 L
1637 2404 mt 1695 2462 L
1695 2404 mt 1637 2462 L
1648 2398 mt 1706 2456 L
1706 2398 mt 1648 2456 L
1660 2399 mt 1718 2457 L
1718 2399 mt 1660 2457 L
1671 2397 mt 1729 2455 L
1729 2397 mt 1671 2455 L
1679 2393 mt 1737 2451 L
1737 2393 mt 1679 2451 L
1686 2384 mt 1744 2442 L
1744 2384 mt 1686 2442 L
1694 2380 mt 1752 2438 L
1752 2380 mt 1694 2438 L
1706 2380 mt 1764 2438 L
1764 2380 mt 1706 2438 L
1720 2384 mt 1778 2442 L
1778 2384 mt 1720 2442 L
1737 2385 mt 1795 2443 L
1795 2385 mt 1737 2443 L
1754 2381 mt 1812 2439 L
1812 2381 mt 1754 2439 L
1768 2371 mt 1826 2429 L
1826 2371 mt 1768 2429 L
1786 2369 mt 1844 2427 L
1844 2369 mt 1786 2427 L
1803 2372 mt 1861 2430 L
1861 2372 mt 1803 2430 L
1821 2371 mt 1879 2429 L
1879 2371 mt 1821 2429 L
1835 2372 mt 1893 2430 L
1893 2372 mt 1835 2430 L
1846 2374 mt 1904 2432 L
1904 2374 mt 1846 2432 L
1860 2370 mt 1918 2428 L
1918 2370 mt 1860 2428 L
1871 2363 mt 1929 2421 L
1929 2363 mt 1871 2421 L
1885 2363 mt 1943 2421 L
1943 2363 mt 1885 2421 L
1898 2367 mt 1956 2425 L
1956 2367 mt 1898 2425 L
1913 2368 mt 1971 2426 L
1971 2368 mt 1913 2426 L
1926 2364 mt 1984 2422 L
1984 2364 mt 1926 2422 L
1943 2360 mt 2001 2418 L
2001 2360 mt 1943 2418 L
1960 2365 mt 2018 2423 L
2018 2365 mt 1960 2423 L
1978 2362 mt 2036 2420 L
2036 2362 mt 1978 2420 L
1997 2363 mt 2055 2421 L
2055 2363 mt 1997 2421 L
2016 2362 mt 2074 2420 L
2074 2362 mt 2016 2420 L
2034 2359 mt 2092 2417 L
2092 2359 mt 2034 2417 L
2047 2359 mt 2105 2417 L
2105 2359 mt 2047 2417 L
2061 2361 mt 2119 2419 L
2119 2361 mt 2061 2419 L
2073 2357 mt 2131 2415 L
2131 2357 mt 2073 2415 L
2085 2349 mt 2143 2407 L
2143 2349 mt 2085 2407 L
2101 2352 mt 2159 2410 L
2159 2352 mt 2101 2410 L
2121 2353 mt 2179 2411 L
2179 2353 mt 2121 2411 L
2139 2353 mt 2197 2411 L
2197 2353 mt 2139 2411 L
2157 2351 mt 2215 2409 L
2215 2351 mt 2157 2409 L
2175 2350 mt 2233 2408 L
2233 2350 mt 2175 2408 L
2192 2348 mt 2250 2406 L
2250 2348 mt 2192 2406 L
2208 2343 mt 2266 2401 L
2266 2343 mt 2208 2401 L
2223 2352 mt 2281 2410 L
2281 2352 mt 2223 2410 L
2237 2353 mt 2295 2411 L
2295 2353 mt 2237 2411 L
2242 2343 mt 2300 2401 L
2300 2343 mt 2242 2401 L
2257 2338 mt 2315 2396 L
2315 2338 mt 2257 2396 L
2278 2338 mt 2336 2396 L
2336 2338 mt 2278 2396 L
2302 2337 mt 2360 2395 L
2360 2337 mt 2302 2395 L
2326 2338 mt 2384 2396 L
2384 2338 mt 2326 2396 L
2351 2337 mt 2409 2395 L
2409 2337 mt 2351 2395 L
2369 2331 mt 2427 2389 L
2427 2331 mt 2369 2389 L
2389 2328 mt 2447 2386 L
2447 2328 mt 2389 2386 L
2404 2326 mt 2462 2384 L
2462 2326 mt 2404 2384 L
2420 2323 mt 2478 2381 L
2478 2323 mt 2420 2381 L
2432 2321 mt 2490 2379 L
2490 2321 mt 2432 2379 L
2450 2316 mt 2508 2374 L
2508 2316 mt 2450 2374 L
2468 2314 mt 2526 2372 L
2526 2314 mt 2468 2372 L
2484 2312 mt 2542 2370 L
2542 2312 mt 2484 2370 L
2506 2307 mt 2564 2365 L
2564 2307 mt 2506 2365 L
2531 2306 mt 2589 2364 L
2589 2306 mt 2531 2364 L
2554 2304 mt 2612 2362 L
2612 2304 mt 2554 2362 L
2575 2299 mt 2633 2357 L
2633 2299 mt 2575 2357 L
2593 2295 mt 2651 2353 L
2651 2295 mt 2593 2353 L
2609 2292 mt 2667 2350 L
2667 2292 mt 2609 2350 L
2612 2282 mt 2670 2340 L
2670 2282 mt 2612 2340 L
2636 2290 mt 2694 2348 L
2694 2290 mt 2636 2348 L
2663 2290 mt 2721 2348 L
2721 2290 mt 2663 2348 L
2681 2287 mt 2739 2345 L
2739 2287 mt 2681 2345 L
2697 2279 mt 2755 2337 L
2755 2279 mt 2697 2337 L
2722 2277 mt 2780 2335 L
2780 2277 mt 2722 2335 L
2754 2287 mt 2812 2345 L
2812 2287 mt 2754 2345 L
2774 2277 mt 2832 2335 L
2832 2277 mt 2774 2335 L
2792 2272 mt 2850 2330 L
2850 2272 mt 2792 2330 L
2809 2259 mt 2867 2317 L
2867 2259 mt 2809 2317 L
2827 2256 mt 2885 2314 L
2885 2256 mt 2827 2314 L
2847 2257 mt 2905 2315 L
2905 2257 mt 2847 2315 L
2866 2258 mt 2924 2316 L
2924 2258 mt 2866 2316 L
2883 2255 mt 2941 2313 L
2941 2255 mt 2883 2313 L
2902 2252 mt 2960 2310 L
2960 2252 mt 2902 2310 L
2918 2248 mt 2976 2306 L
2976 2248 mt 2918 2306 L
2944 2240 mt 3002 2298 L
3002 2240 mt 2944 2298 L
2974 2238 mt 3032 2296 L
3032 2238 mt 2974 2296 L
3001 2238 mt 3059 2296 L
3059 2238 mt 3001 2296 L
3025 2228 mt 3083 2286 L
3083 2228 mt 3025 2286 L
3046 2223 mt 3104 2281 L
3104 2223 mt 3046 2281 L
3064 2220 mt 3122 2278 L
3122 2220 mt 3064 2278 L
3083 2218 mt 3141 2276 L
3141 2218 mt 3083 2276 L
3101 2210 mt 3159 2268 L
3159 2210 mt 3101 2268 L
3120 2206 mt 3178 2264 L
3178 2206 mt 3120 2264 L
3143 2203 mt 3201 2261 L
3201 2203 mt 3143 2261 L
3164 2199 mt 3222 2257 L
3222 2199 mt 3164 2257 L
3197 2196 mt 3255 2254 L
3255 2196 mt 3197 2254 L
3230 2190 mt 3288 2248 L
3288 2190 mt 3230 2248 L
3254 2186 mt 3312 2244 L
3312 2186 mt 3254 2244 L
3277 2181 mt 3335 2239 L
3335 2181 mt 3277 2239 L
3295 2179 mt 3353 2237 L
3353 2179 mt 3295 2237 L
3317 2179 mt 3375 2237 L
3375 2179 mt 3317 2237 L
3336 2174 mt 3394 2232 L
3394 2174 mt 3336 2232 L
3357 2168 mt 3415 2226 L
3415 2168 mt 3357 2226 L
3384 2166 mt 3442 2224 L
3442 2166 mt 3384 2224 L
3413 2164 mt 3471 2222 L
3471 2164 mt 3413 2222 L
3443 2160 mt 3501 2218 L
3501 2160 mt 3443 2218 L
3473 2157 mt 3531 2215 L
3531 2157 mt 3473 2215 L
3504 2154 mt 3562 2212 L
3562 2154 mt 3504 2212 L
3528 2152 mt 3586 2210 L
3586 2152 mt 3528 2210 L
3549 2146 mt 3607 2204 L
3607 2146 mt 3549 2204 L
3571 2137 mt 3629 2195 L
3629 2137 mt 3571 2195 L
3594 2139 mt 3652 2197 L
3652 2139 mt 3594 2197 L
3620 2134 mt 3678 2192 L
3678 2134 mt 3620 2192 L
3647 2134 mt 3705 2192 L
3705 2134 mt 3647 2192 L
3674 2128 mt 3732 2186 L
3732 2128 mt 3674 2186 L
3703 2128 mt 3761 2186 L
3761 2128 mt 3703 2186 L
3740 2128 mt 3798 2186 L
3798 2128 mt 3740 2186 L
3768 2121 mt 3826 2179 L
3826 2121 mt 3768 2179 L
3791 2116 mt 3849 2174 L
3849 2116 mt 3791 2174 L
3817 2114 mt 3875 2172 L
3875 2114 mt 3817 2172 L
3842 2111 mt 3900 2169 L
3900 2111 mt 3842 2169 L
3867 2108 mt 3925 2166 L
3925 2108 mt 3867 2166 L
3893 2102 mt 3951 2160 L
3951 2102 mt 3893 2160 L
3921 2098 mt 3979 2156 L
3979 2098 mt 3921 2156 L
3950 2094 mt 4008 2152 L
4008 2094 mt 3950 2152 L
3985 2092 mt 4043 2150 L
4043 2092 mt 3985 2150 L
4017 2089 mt 4075 2147 L
4075 2089 mt 4017 2147 L
4046 2083 mt 4104 2141 L
4104 2083 mt 4046 2141 L
4073 2076 mt 4131 2134 L
4131 2076 mt 4073 2134 L
4097 2074 mt 4155 2132 L
4155 2074 mt 4097 2132 L
4121 2070 mt 4179 2128 L
4179 2070 mt 4121 2128 L
4151 2064 mt 4209 2122 L
4209 2064 mt 4151 2122 L
4179 2064 mt 4237 2122 L
4237 2064 mt 4179 2122 L
4209 2058 mt 4267 2116 L
4267 2058 mt 4209 2116 L
4241 2055 mt 4299 2113 L
4299 2055 mt 4241 2113 L
4276 2052 mt 4334 2110 L
4334 2052 mt 4276 2110 L
4308 2044 mt 4366 2102 L
4366 2044 mt 4308 2102 L
4340 2042 mt 4398 2100 L
4398 2042 mt 4340 2100 L
4372 2042 mt 4430 2100 L
4430 2042 mt 4372 2100 L
4401 2032 mt 4459 2090 L
4459 2032 mt 4401 2090 L
4430 2027 mt 4488 2085 L
4488 2027 mt 4430 2085 L
4462 2029 mt 4520 2087 L
4520 2029 mt 4462 2087 L
4496 2026 mt 4554 2084 L
4554 2026 mt 4496 2084 L
4531 2021 mt 4589 2079 L
4589 2021 mt 4531 2079 L
4565 2013 mt 4623 2071 L
4623 2013 mt 4565 2071 L
4601 2012 mt 4659 2070 L
4659 2012 mt 4601 2070 L
4632 2011 mt 4690 2069 L
4690 2011 mt 4632 2069 L
4668 2006 mt 4726 2064 L
4726 2006 mt 4668 2064 L
4154 2093 mt 4212 2151 L
4212 2093 mt 4154 2151 L
4051 2118 mt 4109 2176 L
4109 2118 mt 4051 2176 L
3635 2137 mt 3693 2195 L
3693 2137 mt 3635 2195 L
3595 2176 mt 3653 2234 L
3653 2176 mt 3595 2234 L
3323 2228 mt 3381 2286 L
3381 2228 mt 3323 2286 L
3213 2270 mt 3271 2328 L
3271 2270 mt 3213 2328 L
3081 2311 mt 3139 2369 L
3139 2311 mt 3081 2369 L
2943 2358 mt 3001 2416 L
3001 2358 mt 2943 2416 L
2841 2384 mt 2899 2442 L
2899 2384 mt 2841 2442 L
2745 2422 mt 2803 2480 L
2803 2422 mt 2745 2480 L
2648 2442 mt 2706 2500 L
2706 2442 mt 2648 2500 L
2564 2468 mt 2622 2526 L
2622 2468 mt 2564 2526 L
2490 2501 mt 2548 2559 L
2548 2501 mt 2490 2559 L
2407 2528 mt 2465 2586 L
2465 2528 mt 2407 2586 L
2331 2550 mt 2389 2608 L
2389 2550 mt 2331 2608 L
2269 2570 mt 2327 2628 L
2327 2570 mt 2269 2628 L
2202 2593 mt 2260 2651 L
2260 2593 mt 2202 2651 L
2135 2623 mt 2193 2681 L
2193 2623 mt 2135 2681 L
2073 2637 mt 2131 2695 L
2131 2637 mt 2073 2695 L
2015 2660 mt 2073 2718 L
2073 2660 mt 2015 2718 L
1958 2682 mt 2016 2740 L
2016 2682 mt 1958 2740 L
1911 2704 mt 1969 2762 L
1969 2704 mt 1911 2762 L
1865 2713 mt 1923 2771 L
1923 2713 mt 1865 2771 L
1815 2735 mt 1873 2793 L
1873 2735 mt 1815 2793 L
1768 2733 mt 1826 2791 L
1826 2733 mt 1768 2791 L
1724 2727 mt 1782 2785 L
1782 2727 mt 1724 2785 L
1684 2745 mt 1742 2803 L
1742 2745 mt 1684 2803 L
1644 2759 mt 1702 2817 L
1702 2759 mt 1644 2817 L
1605 2764 mt 1663 2822 L
1663 2764 mt 1605 2822 L
1570 2780 mt 1628 2838 L
1628 2780 mt 1570 2838 L
1534 2802 mt 1592 2860 L
1592 2802 mt 1534 2860 L
1499 2808 mt 1557 2866 L
1557 2808 mt 1499 2866 L
1466 2811 mt 1524 2869 L
1524 2811 mt 1466 2869 L
1434 2810 mt 1492 2868 L
1492 2810 mt 1434 2868 L
1399 2820 mt 1457 2878 L
1457 2820 mt 1399 2878 L
1374 2840 mt 1432 2898 L
1432 2840 mt 1374 2898 L
1354 2864 mt 1412 2922 L
1412 2864 mt 1354 2922 L
1323 2868 mt 1381 2926 L
1381 2868 mt 1323 2926 L
1294 2879 mt 1352 2937 L
1352 2879 mt 1294 2937 L
1266 2884 mt 1324 2942 L
1324 2884 mt 1266 2942 L
1244 2885 mt 1302 2943 L
1302 2885 mt 1244 2943 L
1221 2913 mt 1279 2971 L
1279 2913 mt 1221 2971 L
1199 2928 mt 1257 2986 L
1257 2928 mt 1199 2986 L
1177 2930 mt 1235 2988 L
1235 2930 mt 1177 2988 L
1159 2947 mt 1217 3005 L
1217 2947 mt 1159 3005 L
1134 2951 mt 1192 3009 L
1192 2951 mt 1134 3009 L
1116 2985 mt 1174 3043 L
1174 2985 mt 1116 3043 L
1093 3022 mt 1151 3080 L
1151 3022 mt 1093 3080 L
1074 3013 mt 1132 3071 L
1132 3013 mt 1074 3071 L
1059 3012 mt 1117 3070 L
1117 3012 mt 1059 3070 L
1047 3090 mt 1105 3148 L
1105 3090 mt 1047 3148 L
1031 3125 mt 1089 3183 L
1089 3125 mt 1031 3183 L
1011 3093 mt 1069 3151 L
1069 3093 mt 1011 3151 L
 992 3095 mt 1050 3153 L
1050 3095 mt  992 3153 L
 980 3091 mt 1038 3149 L
1038 3091 mt  980 3149 L
 965 3055 mt 1023 3113 L
1023 3055 mt  965 3113 L
 949 2927 mt 1007 2985 L
1007 2927 mt  949 2985 L
 937 2884 mt  995 2942 L
 995 2884 mt  937 2942 L
 928 2859 mt  986 2917 L
 986 2859 mt  928 2917 L
 917 2804 mt  975 2862 L
 975 2804 mt  917 2862 L
 907 2594 mt  965 2652 L
 965 2594 mt  907 2652 L
 896 2482 mt  954 2540 L
 954 2482 mt  896 2540 L
 889 2317 mt  947 2375 L
 947 2317 mt  889 2375 L
 883 2034 mt  941 2092 L
 941 2034 mt  883 2092 L
 870 1526 mt  928 1584 L
 928 1526 mt  870 1584 L
 860 1132 mt  918 1190 L
 918 1132 mt  860 1190 L
gs 848 564 4238 3957 rc
gr

gs 848 564 4238 3957 rc
gr

/c9 { 0.000000 0.000000 1.000000 sr} bdef
c9
 819 3003 mt  877 3061 L
 877 3003 mt  819 3061 L
 821 3122 mt  879 3180 L
 879 3122 mt  821 3180 L
 821 3115 mt  879 3173 L
 879 3115 mt  821 3173 L
 822 3106 mt  880 3164 L
 880 3106 mt  822 3164 L
 823 3100 mt  881 3158 L
 881 3100 mt  823 3158 L
 823 3098 mt  881 3156 L
 881 3098 mt  823 3156 L
 824 3116 mt  882 3174 L
 882 3116 mt  824 3174 L
 824 3146 mt  882 3204 L
 882 3146 mt  824 3204 L
 828 3249 mt  886 3307 L
 886 3249 mt  828 3307 L
 828 3205 mt  886 3263 L
 886 3205 mt  828 3263 L
 829 3163 mt  887 3221 L
 887 3163 mt  829 3221 L
 830 3116 mt  888 3174 L
 888 3116 mt  830 3174 L
 831 3117 mt  889 3175 L
 889 3117 mt  831 3175 L
 832 3151 mt  890 3209 L
 890 3151 mt  832 3209 L
 833 3164 mt  891 3222 L
 891 3164 mt  833 3222 L
 834 3156 mt  892 3214 L
 892 3156 mt  834 3214 L
 834 3124 mt  892 3182 L
 892 3124 mt  834 3182 L
 836 3162 mt  894 3220 L
 894 3162 mt  836 3220 L
 837 3171 mt  895 3229 L
 895 3171 mt  837 3229 L
 840 3182 mt  898 3240 L
 898 3182 mt  840 3240 L
 843 3224 mt  901 3282 L
 901 3224 mt  843 3282 L
 847 3247 mt  905 3305 L
 905 3247 mt  847 3305 L
 853 3310 mt  911 3368 L
 911 3310 mt  853 3368 L
 860 3347 mt  918 3405 L
 918 3347 mt  860 3405 L
 867 3359 mt  925 3417 L
 925 3359 mt  867 3417 L
 873 3334 mt  931 3392 L
 931 3334 mt  873 3392 L
 880 3321 mt  938 3379 L
 938 3321 mt  880 3379 L
 885 3311 mt  943 3369 L
 943 3311 mt  885 3369 L
 887 3288 mt  945 3346 L
 945 3288 mt  887 3346 L
 890 3280 mt  948 3338 L
 948 3280 mt  890 3338 L
 891 3283 mt  949 3341 L
 949 3283 mt  891 3341 L
 893 3299 mt  951 3357 L
 951 3299 mt  893 3357 L
 895 3318 mt  953 3376 L
 953 3318 mt  895 3376 L
 899 3327 mt  957 3385 L
 957 3327 mt  899 3385 L
 902 3300 mt  960 3358 L
 960 3300 mt  902 3358 L
 906 3285 mt  964 3343 L
 964 3285 mt  906 3343 L
 908 3269 mt  966 3327 L
 966 3269 mt  908 3327 L
 911 3267 mt  969 3325 L
 969 3267 mt  911 3325 L
 915 3265 mt  973 3323 L
 973 3265 mt  915 3323 L
 918 3256 mt  976 3314 L
 976 3256 mt  918 3314 L
 920 3244 mt  978 3302 L
 978 3244 mt  920 3302 L
 923 3241 mt  981 3299 L
 981 3241 mt  923 3299 L
 927 3243 mt  985 3301 L
 985 3243 mt  927 3301 L
 930 3236 mt  988 3294 L
 988 3236 mt  930 3294 L
 935 3241 mt  993 3299 L
 993 3241 mt  935 3299 L
 943 3282 mt 1001 3340 L
1001 3282 mt  943 3340 L
 953 3304 mt 1011 3362 L
1011 3304 mt  953 3362 L
 960 3296 mt 1018 3354 L
1018 3296 mt  960 3354 L
 971 3288 mt 1029 3346 L
1029 3288 mt  971 3346 L
 980 3272 mt 1038 3330 L
1038 3272 mt  980 3330 L
 986 3252 mt 1044 3310 L
1044 3252 mt  986 3310 L
 994 3260 mt 1052 3318 L
1052 3260 mt  994 3318 L
 998 3269 mt 1056 3327 L
1056 3269 mt  998 3327 L
1003 3262 mt 1061 3320 L
1061 3262 mt 1003 3320 L
1010 3271 mt 1068 3329 L
1068 3271 mt 1010 3329 L
1016 3288 mt 1074 3346 L
1074 3288 mt 1016 3346 L
1020 3280 mt 1078 3338 L
1078 3280 mt 1020 3338 L
1023 3262 mt 1081 3320 L
1081 3262 mt 1023 3320 L
1025 3261 mt 1083 3319 L
1083 3261 mt 1025 3319 L
1026 3237 mt 1084 3295 L
1084 3237 mt 1026 3295 L
1026 3218 mt 1084 3276 L
1084 3218 mt 1026 3276 L
1027 3218 mt 1085 3276 L
1085 3218 mt 1027 3276 L
1030 3215 mt 1088 3273 L
1088 3215 mt 1030 3273 L
1034 3210 mt 1092 3268 L
1092 3210 mt 1034 3268 L
1039 3223 mt 1097 3281 L
1097 3223 mt 1039 3281 L
1045 3211 mt 1103 3269 L
1103 3211 mt 1045 3269 L
1052 3202 mt 1110 3260 L
1110 3202 mt 1052 3260 L
1060 3208 mt 1118 3266 L
1118 3208 mt 1060 3266 L
1068 3208 mt 1126 3266 L
1126 3208 mt 1068 3266 L
1077 3218 mt 1135 3276 L
1135 3218 mt 1077 3276 L
1084 3216 mt 1142 3274 L
1142 3216 mt 1084 3274 L
1093 3203 mt 1151 3261 L
1151 3203 mt 1093 3261 L
1102 3197 mt 1160 3255 L
1160 3197 mt 1102 3255 L
1113 3198 mt 1171 3256 L
1171 3198 mt 1113 3256 L
1123 3206 mt 1181 3264 L
1181 3206 mt 1123 3264 L
1132 3209 mt 1190 3267 L
1190 3209 mt 1132 3267 L
1138 3204 mt 1196 3262 L
1196 3204 mt 1138 3262 L
1143 3190 mt 1201 3248 L
1201 3190 mt 1143 3248 L
1148 3179 mt 1206 3237 L
1206 3179 mt 1148 3237 L
1153 3178 mt 1211 3236 L
1211 3178 mt 1153 3236 L
1159 3184 mt 1217 3242 L
1217 3184 mt 1159 3242 L
1164 3182 mt 1222 3240 L
1222 3182 mt 1164 3240 L
1169 3184 mt 1227 3242 L
1227 3184 mt 1169 3242 L
1175 3179 mt 1233 3237 L
1233 3179 mt 1175 3237 L
1182 3180 mt 1240 3238 L
1240 3180 mt 1182 3238 L
1188 3167 mt 1246 3225 L
1246 3167 mt 1188 3225 L
1194 3156 mt 1252 3214 L
1252 3156 mt 1194 3214 L
1203 3160 mt 1261 3218 L
1261 3160 mt 1203 3218 L
1216 3169 mt 1274 3227 L
1274 3169 mt 1216 3227 L
1228 3173 mt 1286 3231 L
1286 3173 mt 1228 3231 L
1241 3180 mt 1299 3238 L
1299 3180 mt 1241 3238 L
1250 3177 mt 1308 3235 L
1308 3177 mt 1250 3235 L
1259 3164 mt 1317 3222 L
1317 3164 mt 1259 3222 L
1268 3155 mt 1326 3213 L
1326 3155 mt 1268 3213 L
1274 3154 mt 1332 3212 L
1332 3154 mt 1274 3212 L
1281 3150 mt 1339 3208 L
1339 3150 mt 1281 3208 L
1289 3153 mt 1347 3211 L
1347 3153 mt 1289 3211 L
1296 3157 mt 1354 3215 L
1354 3157 mt 1296 3215 L
1303 3156 mt 1361 3214 L
1361 3156 mt 1303 3214 L
1308 3147 mt 1366 3205 L
1366 3147 mt 1308 3205 L
1315 3141 mt 1373 3199 L
1373 3141 mt 1315 3199 L
1321 3134 mt 1379 3192 L
1379 3134 mt 1321 3192 L
1332 3134 mt 1390 3192 L
1390 3134 mt 1332 3192 L
1343 3136 mt 1401 3194 L
1401 3136 mt 1343 3194 L
1353 3129 mt 1411 3187 L
1411 3129 mt 1353 3187 L
1364 3128 mt 1422 3186 L
1422 3128 mt 1364 3186 L
1377 3127 mt 1435 3185 L
1435 3127 mt 1377 3185 L
1389 3127 mt 1447 3185 L
1447 3127 mt 1389 3185 L
1400 3127 mt 1458 3185 L
1458 3127 mt 1400 3185 L
1409 3124 mt 1467 3182 L
1467 3124 mt 1409 3182 L
1418 3120 mt 1476 3178 L
1476 3120 mt 1418 3178 L
1427 3118 mt 1485 3176 L
1485 3118 mt 1427 3176 L
1436 3112 mt 1494 3170 L
1494 3112 mt 1436 3170 L
1443 3111 mt 1501 3169 L
1501 3111 mt 1443 3169 L
1451 3105 mt 1509 3163 L
1509 3105 mt 1451 3163 L
1458 3105 mt 1516 3163 L
1516 3105 mt 1458 3163 L
1467 3100 mt 1525 3158 L
1525 3100 mt 1467 3158 L
1477 3099 mt 1535 3157 L
1535 3099 mt 1477 3157 L
1489 3099 mt 1547 3157 L
1547 3099 mt 1489 3157 L
1500 3100 mt 1558 3158 L
1558 3100 mt 1500 3158 L
1513 3093 mt 1571 3151 L
1571 3093 mt 1513 3151 L
1526 3092 mt 1584 3150 L
1584 3092 mt 1526 3150 L
1539 3090 mt 1597 3148 L
1597 3090 mt 1539 3148 L
1552 3089 mt 1610 3147 L
1610 3089 mt 1552 3147 L
1564 3085 mt 1622 3143 L
1622 3085 mt 1564 3143 L
1575 3085 mt 1633 3143 L
1633 3085 mt 1575 3143 L
1584 3084 mt 1642 3142 L
1642 3084 mt 1584 3142 L
1591 3078 mt 1649 3136 L
1649 3078 mt 1591 3136 L
1600 3077 mt 1658 3135 L
1658 3077 mt 1600 3135 L
1609 3072 mt 1667 3130 L
1667 3072 mt 1609 3130 L
1619 3069 mt 1677 3127 L
1677 3069 mt 1619 3127 L
1629 3062 mt 1687 3120 L
1687 3062 mt 1629 3120 L
1641 3066 mt 1699 3124 L
1699 3066 mt 1641 3124 L
1653 3063 mt 1711 3121 L
1711 3063 mt 1653 3121 L
1666 3056 mt 1724 3114 L
1724 3056 mt 1666 3114 L
1676 3063 mt 1734 3121 L
1734 3063 mt 1676 3121 L
1685 3060 mt 1743 3118 L
1743 3060 mt 1685 3118 L
1693 3048 mt 1751 3106 L
1751 3048 mt 1693 3106 L
1699 3037 mt 1757 3095 L
1757 3037 mt 1699 3095 L
1707 3027 mt 1765 3085 L
1765 3027 mt 1707 3085 L
1722 3029 mt 1780 3087 L
1780 3029 mt 1722 3087 L
1742 3035 mt 1800 3093 L
1800 3035 mt 1742 3093 L
1759 3033 mt 1817 3091 L
1817 3033 mt 1759 3091 L
1777 3029 mt 1835 3087 L
1835 3029 mt 1777 3087 L
1791 3025 mt 1849 3083 L
1849 3025 mt 1791 3083 L
1804 3016 mt 1862 3074 L
1862 3016 mt 1804 3074 L
1819 3014 mt 1877 3072 L
1877 3014 mt 1819 3072 L
1831 3013 mt 1889 3071 L
1889 3013 mt 1831 3071 L
1839 3012 mt 1897 3070 L
1897 3012 mt 1839 3070 L
1847 3008 mt 1905 3066 L
1905 3008 mt 1847 3066 L
1855 3004 mt 1913 3062 L
1913 3004 mt 1855 3062 L
1864 2998 mt 1922 3056 L
1922 2998 mt 1864 3056 L
1879 2998 mt 1937 3056 L
1937 2998 mt 1879 3056 L
1897 2999 mt 1955 3057 L
1955 2999 mt 1897 3057 L
1915 2996 mt 1973 3054 L
1973 2996 mt 1915 3054 L
1932 2991 mt 1990 3049 L
1990 2991 mt 1932 3049 L
1948 2987 mt 2006 3045 L
2006 2987 mt 1948 3045 L
1965 2985 mt 2023 3043 L
2023 2985 mt 1965 3043 L
1980 2985 mt 2038 3043 L
2038 2985 mt 1980 3043 L
1992 2982 mt 2050 3040 L
2050 2982 mt 1992 3040 L
2001 2978 mt 2059 3036 L
2059 2978 mt 2001 3036 L
2012 2975 mt 2070 3033 L
2070 2975 mt 2012 3033 L
2023 2970 mt 2081 3028 L
2081 2970 mt 2023 3028 L
2036 2968 mt 2094 3026 L
2094 2968 mt 2036 3026 L
2052 2968 mt 2110 3026 L
2110 2968 mt 2052 3026 L
2070 2964 mt 2128 3022 L
2128 2964 mt 2070 3022 L
2088 2962 mt 2146 3020 L
2146 2962 mt 2088 3020 L
2107 2958 mt 2165 3016 L
2165 2958 mt 2107 3016 L
2125 2956 mt 2183 3014 L
2183 2956 mt 2125 3014 L
2141 2954 mt 2199 3012 L
2199 2954 mt 2141 3012 L
2154 2953 mt 2212 3011 L
2212 2953 mt 2154 3011 L
2168 2950 mt 2226 3008 L
2226 2950 mt 2168 3008 L
2179 2946 mt 2237 3004 L
2237 2946 mt 2179 3004 L
2190 2942 mt 2248 3000 L
2248 2942 mt 2190 3000 L
2204 2938 mt 2262 2996 L
2262 2938 mt 2204 2996 L
2218 2935 mt 2276 2993 L
2276 2935 mt 2218 2993 L
2231 2938 mt 2289 2996 L
2289 2938 mt 2231 2996 L
2255 2935 mt 2313 2993 L
2313 2935 mt 2255 2993 L
2273 2935 mt 2331 2993 L
2331 2935 mt 2273 2993 L
2290 2927 mt 2348 2985 L
2348 2927 mt 2290 2985 L
2309 2923 mt 2367 2981 L
2367 2923 mt 2309 2981 L
2328 2920 mt 2386 2978 L
2386 2920 mt 2328 2978 L
2340 2915 mt 2398 2973 L
2398 2915 mt 2340 2973 L
2354 2914 mt 2412 2972 L
2412 2914 mt 2354 2972 L
2369 2911 mt 2427 2969 L
2427 2911 mt 2369 2969 L
2382 2906 mt 2440 2964 L
2440 2906 mt 2382 2964 L
2395 2900 mt 2453 2958 L
2453 2900 mt 2395 2958 L
2413 2894 mt 2471 2952 L
2471 2894 mt 2413 2952 L
2433 2893 mt 2491 2951 L
2491 2893 mt 2433 2951 L
2454 2889 mt 2512 2947 L
2512 2889 mt 2454 2947 L
2475 2884 mt 2533 2942 L
2533 2884 mt 2475 2942 L
2490 2881 mt 2548 2939 L
2548 2881 mt 2490 2939 L
2508 2875 mt 2566 2933 L
2566 2875 mt 2508 2933 L
2527 2873 mt 2585 2931 L
2585 2873 mt 2527 2931 L
2541 2869 mt 2599 2927 L
2599 2869 mt 2541 2927 L
2555 2864 mt 2613 2922 L
2613 2864 mt 2555 2922 L
2569 2860 mt 2627 2918 L
2627 2860 mt 2569 2918 L
2587 2855 mt 2645 2913 L
2645 2855 mt 2587 2913 L
2604 2851 mt 2662 2909 L
2662 2851 mt 2604 2909 L
2624 2848 mt 2682 2906 L
2682 2848 mt 2624 2906 L
2645 2841 mt 2703 2899 L
2703 2841 mt 2645 2899 L
2663 2841 mt 2721 2899 L
2721 2841 mt 2663 2899 L
2682 2836 mt 2740 2894 L
2740 2836 mt 2682 2894 L
2701 2833 mt 2759 2891 L
2759 2833 mt 2701 2891 L
2718 2829 mt 2776 2887 L
2776 2829 mt 2718 2887 L
2733 2825 mt 2791 2883 L
2791 2825 mt 2733 2883 L
2747 2820 mt 2805 2878 L
2805 2820 mt 2747 2878 L
2759 2816 mt 2817 2874 L
2817 2816 mt 2759 2874 L
2782 2813 mt 2840 2871 L
2840 2813 mt 2782 2871 L
2805 2808 mt 2863 2866 L
2863 2808 mt 2805 2866 L
2826 2801 mt 2884 2859 L
2884 2801 mt 2826 2859 L
2847 2794 mt 2905 2852 L
2905 2794 mt 2847 2852 L
2865 2790 mt 2923 2848 L
2923 2790 mt 2865 2848 L
2887 2789 mt 2945 2847 L
2945 2789 mt 2887 2847 L
2904 2784 mt 2962 2842 L
2962 2784 mt 2904 2842 L
2918 2776 mt 2976 2834 L
2976 2776 mt 2918 2834 L
2935 2770 mt 2993 2828 L
2993 2770 mt 2935 2828 L
2955 2767 mt 3013 2825 L
3013 2767 mt 2955 2825 L
2975 2762 mt 3033 2820 L
3033 2762 mt 2975 2820 L
2998 2757 mt 3056 2815 L
3056 2757 mt 2998 2815 L
3022 2752 mt 3080 2810 L
3080 2752 mt 3022 2810 L
3044 2748 mt 3102 2806 L
3102 2748 mt 3044 2806 L
3064 2741 mt 3122 2799 L
3122 2741 mt 3064 2799 L
3082 2736 mt 3140 2794 L
3140 2736 mt 3082 2794 L
3102 2730 mt 3160 2788 L
3160 2730 mt 3102 2788 L
3121 2728 mt 3179 2786 L
3179 2728 mt 3121 2786 L
3140 2723 mt 3198 2781 L
3198 2723 mt 3140 2781 L
3160 2720 mt 3218 2778 L
3218 2720 mt 3160 2778 L
3181 2714 mt 3239 2772 L
3239 2714 mt 3181 2772 L
3202 2707 mt 3260 2765 L
3260 2707 mt 3202 2765 L
3223 2704 mt 3281 2762 L
3281 2704 mt 3223 2762 L
3250 2702 mt 3308 2760 L
3308 2702 mt 3250 2760 L
3274 2697 mt 3332 2755 L
3332 2697 mt 3274 2755 L
3294 2687 mt 3352 2745 L
3352 2687 mt 3294 2745 L
3314 2682 mt 3372 2740 L
3372 2682 mt 3314 2740 L
3335 2681 mt 3393 2739 L
3393 2681 mt 3335 2739 L
3353 2673 mt 3411 2731 L
3411 2673 mt 3353 2731 L
3376 2672 mt 3434 2730 L
3434 2672 mt 3376 2730 L
3398 2659 mt 3456 2717 L
3456 2659 mt 3398 2717 L
3424 2657 mt 3482 2715 L
3482 2657 mt 3424 2715 L
3449 2652 mt 3507 2710 L
3507 2652 mt 3449 2710 L
3473 2648 mt 3531 2706 L
3531 2648 mt 3473 2706 L
3493 2640 mt 3551 2698 L
3551 2640 mt 3493 2698 L
3516 2639 mt 3574 2697 L
3574 2639 mt 3516 2697 L
3539 2628 mt 3597 2686 L
3597 2628 mt 3539 2686 L
3561 2628 mt 3619 2686 L
3619 2628 mt 3561 2686 L
3586 2619 mt 3644 2677 L
3644 2619 mt 3586 2677 L
3613 2617 mt 3671 2675 L
3671 2617 mt 3613 2675 L
3638 2614 mt 3696 2672 L
3696 2614 mt 3638 2672 L
3661 2608 mt 3719 2666 L
3719 2608 mt 3661 2666 L
3680 2599 mt 3738 2657 L
3738 2599 mt 3680 2657 L
3705 2594 mt 3763 2652 L
3763 2594 mt 3705 2652 L
3733 2591 mt 3791 2649 L
3791 2591 mt 3733 2649 L
3760 2585 mt 3818 2643 L
3818 2585 mt 3760 2643 L
3785 2579 mt 3843 2637 L
3843 2579 mt 3785 2637 L
3813 2574 mt 3871 2632 L
3871 2574 mt 3813 2632 L
3838 2570 mt 3896 2628 L
3896 2570 mt 3838 2628 L
3862 2566 mt 3920 2624 L
3920 2566 mt 3862 2624 L
3888 2560 mt 3946 2618 L
3946 2560 mt 3888 2618 L
3914 2557 mt 3972 2615 L
3972 2557 mt 3914 2615 L
3942 2552 mt 4000 2610 L
4000 2552 mt 3942 2610 L
3970 2549 mt 4028 2607 L
4028 2549 mt 3970 2607 L
3996 2542 mt 4054 2600 L
4054 2542 mt 3996 2600 L
4024 2537 mt 4082 2595 L
4082 2537 mt 4024 2595 L
4049 2532 mt 4107 2590 L
4107 2532 mt 4049 2590 L
4079 2528 mt 4137 2586 L
4137 2528 mt 4079 2586 L
4104 2521 mt 4162 2579 L
4162 2521 mt 4104 2579 L
4133 2516 mt 4191 2574 L
4191 2516 mt 4133 2574 L
4161 2511 mt 4219 2569 L
4219 2511 mt 4161 2569 L
4190 2505 mt 4248 2563 L
4248 2505 mt 4190 2563 L
4218 2500 mt 4276 2558 L
4276 2500 mt 4218 2558 L
4246 2495 mt 4304 2553 L
4304 2495 mt 4246 2553 L
4275 2491 mt 4333 2549 L
4333 2491 mt 4275 2549 L
4303 2484 mt 4361 2542 L
4361 2484 mt 4303 2542 L
4333 2479 mt 4391 2537 L
4391 2479 mt 4333 2537 L
4361 2475 mt 4419 2533 L
4419 2475 mt 4361 2533 L
4391 2470 mt 4449 2528 L
4449 2470 mt 4391 2528 L
4419 2460 mt 4477 2518 L
4477 2460 mt 4419 2518 L
4451 2460 mt 4509 2518 L
4509 2460 mt 4451 2518 L
4480 2455 mt 4538 2513 L
4538 2455 mt 4480 2513 L
4512 2449 mt 4570 2507 L
4570 2449 mt 4512 2507 L
4543 2443 mt 4601 2501 L
4601 2443 mt 4543 2501 L
4574 2437 mt 4632 2495 L
4632 2437 mt 4574 2495 L
4604 2432 mt 4662 2490 L
4662 2432 mt 4604 2490 L
4635 2427 mt 4693 2485 L
4693 2427 mt 4635 2485 L
4665 2422 mt 4723 2480 L
4723 2422 mt 4665 2480 L
4119 2499 mt 4177 2557 L
4177 2499 mt 4119 2557 L
3844 2538 mt 3902 2596 L
3902 2538 mt 3844 2596 L
3531 2578 mt 3589 2636 L
3589 2578 mt 3531 2636 L
3346 2625 mt 3404 2683 L
3404 2625 mt 3346 2683 L
3038 2668 mt 3096 2726 L
3096 2668 mt 3038 2726 L
2972 2740 mt 3030 2798 L
3030 2740 mt 2972 2798 L
2733 2818 mt 2791 2876 L
2791 2818 mt 2733 2876 L
2654 2884 mt 2712 2942 L
2712 2884 mt 2654 2942 L
2522 2927 mt 2580 2985 L
2580 2927 mt 2522 2985 L
2402 2976 mt 2460 3034 L
2460 2976 mt 2402 3034 L
2324 3032 mt 2382 3090 L
2382 3032 mt 2324 3090 L
2240 3078 mt 2298 3136 L
2298 3078 mt 2240 3136 L
2150 3113 mt 2208 3171 L
2208 3113 mt 2150 3171 L
2086 3151 mt 2144 3209 L
2144 3151 mt 2086 3209 L
2028 3192 mt 2086 3250 L
2086 3192 mt 2028 3250 L
1967 3229 mt 2025 3287 L
2025 3229 mt 1967 3287 L
1913 3257 mt 1971 3315 L
1971 3257 mt 1913 3315 L
1863 3289 mt 1921 3347 L
1921 3289 mt 1863 3347 L
1815 3315 mt 1873 3373 L
1873 3315 mt 1815 3373 L
1772 3347 mt 1830 3405 L
1830 3347 mt 1772 3405 L
1726 3370 mt 1784 3428 L
1784 3370 mt 1726 3428 L
1688 3398 mt 1746 3456 L
1746 3398 mt 1688 3456 L
1649 3419 mt 1707 3477 L
1707 3419 mt 1649 3477 L
1611 3442 mt 1669 3500 L
1669 3442 mt 1611 3500 L
1577 3466 mt 1635 3524 L
1635 3466 mt 1577 3524 L
1541 3478 mt 1599 3536 L
1599 3478 mt 1541 3536 L
1510 3499 mt 1568 3557 L
1568 3499 mt 1510 3557 L
1479 3518 mt 1537 3576 L
1537 3518 mt 1479 3576 L
1448 3535 mt 1506 3593 L
1506 3535 mt 1448 3593 L
1420 3563 mt 1478 3621 L
1478 3563 mt 1420 3621 L
1393 3582 mt 1451 3640 L
1451 3582 mt 1393 3640 L
1365 3594 mt 1423 3652 L
1423 3594 mt 1365 3652 L
1344 3618 mt 1402 3676 L
1402 3618 mt 1344 3676 L
1320 3646 mt 1378 3704 L
1378 3646 mt 1320 3704 L
1298 3671 mt 1356 3729 L
1356 3671 mt 1298 3729 L
1277 3693 mt 1335 3751 L
1335 3693 mt 1277 3751 L
1256 3707 mt 1314 3765 L
1314 3707 mt 1256 3765 L
1234 3730 mt 1292 3788 L
1292 3730 mt 1234 3788 L
1212 3751 mt 1270 3809 L
1270 3751 mt 1212 3809 L
1196 3761 mt 1254 3819 L
1254 3761 mt 1196 3819 L
1179 3769 mt 1237 3827 L
1237 3769 mt 1179 3827 L
1158 3775 mt 1216 3833 L
1216 3775 mt 1158 3833 L
1143 3788 mt 1201 3846 L
1201 3788 mt 1143 3846 L
1128 3787 mt 1186 3845 L
1186 3787 mt 1128 3845 L
1110 3779 mt 1168 3837 L
1168 3779 mt 1110 3837 L
1097 3810 mt 1155 3868 L
1155 3810 mt 1097 3868 L
1082 3821 mt 1140 3879 L
1140 3821 mt 1082 3879 L
1068 3824 mt 1126 3882 L
1126 3824 mt 1068 3882 L
1053 3816 mt 1111 3874 L
1111 3816 mt 1053 3874 L
1036 3808 mt 1094 3866 L
1094 3808 mt 1036 3866 L
1025 3793 mt 1083 3851 L
1083 3793 mt 1025 3851 L
1014 3812 mt 1072 3870 L
1072 3812 mt 1014 3870 L
1001 3806 mt 1059 3864 L
1059 3806 mt 1001 3864 L
 989 3798 mt 1047 3856 L
1047 3798 mt  989 3856 L
 978 3810 mt 1036 3868 L
1036 3810 mt  978 3868 L
 968 3836 mt 1026 3894 L
1026 3836 mt  968 3894 L
 954 3825 mt 1012 3883 L
1012 3825 mt  954 3883 L
 947 3820 mt 1005 3878 L
1005 3820 mt  947 3878 L
 931 3825 mt  989 3883 L
 989 3825 mt  931 3883 L
 921 3836 mt  979 3894 L
 979 3836 mt  921 3894 L
 909 3803 mt  967 3861 L
 967 3803 mt  909 3861 L
 899 3759 mt  957 3817 L
 957 3759 mt  899 3817 L
 893 3751 mt  951 3809 L
 951 3751 mt  893 3809 L
 884 3705 mt  942 3763 L
 942 3705 mt  884 3763 L
 873 3621 mt  931 3679 L
 931 3621 mt  873 3679 L
 863 3462 mt  921 3520 L
 921 3462 mt  863 3520 L
 857 3361 mt  915 3419 L
 915 3361 mt  857 3419 L
 849 3186 mt  907 3244 L
 907 3186 mt  849 3244 L
 843 3040 mt  901 3098 L
 901 3040 mt  843 3098 L
 837 2872 mt  895 2930 L
 895 2872 mt  837 2930 L
 832 2700 mt  890 2758 L
 890 2700 mt  832 2758 L
 829 2443 mt  887 2501 L
 887 2443 mt  829 2501 L
 826 2142 mt  884 2200 L
 884 2142 mt  826 2200 L
 824 1758 mt  882 1816 L
 882 1758 mt  824 1816 L
 822 1254 mt  880 1312 L
 880 1254 mt  822 1312 L
 821  899 mt  879  957 L
 879  899 mt  821  957 L
 820  889 mt  878  947 L
 878  889 mt  820  947 L
 819 1044 mt  877 1102 L
 877 1044 mt  819 1102 L
 819 1336 mt  877 1394 L
 877 1336 mt  819 1394 L
 819 1666 mt  877 1724 L
 877 1666 mt  819 1724 L
gs 848 564 4238 3957 rc
gr

/c10 { 1.000000 0.000000 1.000000 sr} bdef
c10
 819 3622 mt  877 3680 L
 877 3622 mt  819 3680 L
 820 3671 mt  878 3729 L
 878 3671 mt  820 3729 L
 820 3697 mt  878 3755 L
 878 3697 mt  820 3755 L
 821 3730 mt  879 3788 L
 879 3730 mt  821 3788 L
 822 3737 mt  880 3795 L
 880 3737 mt  822 3795 L
 823 3726 mt  881 3784 L
 881 3726 mt  823 3784 L
 825 3770 mt  883 3828 L
 883 3770 mt  825 3828 L
 827 3769 mt  885 3827 L
 885 3769 mt  827 3827 L
 829 3810 mt  887 3868 L
 887 3810 mt  829 3868 L
 830 3824 mt  888 3882 L
 888 3824 mt  830 3882 L
 833 3844 mt  891 3902 L
 891 3844 mt  833 3902 L
 835 3839 mt  893 3897 L
 893 3839 mt  835 3897 L
 839 3868 mt  897 3926 L
 897 3868 mt  839 3926 L
 841 3846 mt  899 3904 L
 899 3846 mt  841 3904 L
 844 3833 mt  902 3891 L
 902 3833 mt  844 3891 L
 852 3901 mt  910 3959 L
 910 3901 mt  852 3959 L
 853 3860 mt  911 3918 L
 911 3860 mt  853 3918 L
 857 3860 mt  915 3918 L
 915 3860 mt  857 3918 L
 862 3868 mt  920 3926 L
 920 3868 mt  862 3926 L
 866 3872 mt  924 3930 L
 924 3872 mt  866 3930 L
 869 3875 mt  927 3933 L
 927 3875 mt  869 3933 L
 872 3874 mt  930 3932 L
 930 3874 mt  872 3932 L
 874 3875 mt  932 3933 L
 932 3875 mt  874 3933 L
 876 3881 mt  934 3939 L
 934 3881 mt  876 3939 L
 879 3904 mt  937 3962 L
 937 3904 mt  879 3962 L
 879 3909 mt  937 3967 L
 937 3909 mt  879 3967 L
 881 3911 mt  939 3969 L
 939 3911 mt  881 3969 L
 882 3896 mt  940 3954 L
 940 3896 mt  882 3954 L
 883 3877 mt  941 3935 L
 941 3877 mt  883 3935 L
 884 3869 mt  942 3927 L
 942 3869 mt  884 3927 L
 886 3871 mt  944 3929 L
 944 3871 mt  886 3929 L
 888 3869 mt  946 3927 L
 946 3869 mt  888 3927 L
 891 3862 mt  949 3920 L
 949 3862 mt  891 3920 L
 894 3856 mt  952 3914 L
 952 3856 mt  894 3914 L
 898 3859 mt  956 3917 L
 956 3859 mt  898 3917 L
 903 3875 mt  961 3933 L
 961 3875 mt  903 3933 L
 908 3901 mt  966 3959 L
 966 3901 mt  908 3959 L
 914 3909 mt  972 3967 L
 972 3909 mt  914 3967 L
 918 3902 mt  976 3960 L
 976 3902 mt  918 3960 L
 923 3897 mt  981 3955 L
 981 3897 mt  923 3955 L
 928 3904 mt  986 3962 L
 986 3904 mt  928 3962 L
 932 3896 mt  990 3954 L
 990 3896 mt  932 3954 L
 937 3887 mt  995 3945 L
 995 3887 mt  937 3945 L
 941 3886 mt  999 3944 L
 999 3886 mt  941 3944 L
 945 3887 mt 1003 3945 L
1003 3887 mt  945 3945 L
 952 3899 mt 1010 3957 L
1010 3899 mt  952 3957 L
 957 3913 mt 1015 3971 L
1015 3913 mt  957 3971 L
 961 3921 mt 1019 3979 L
1019 3921 mt  961 3979 L
 965 3919 mt 1023 3977 L
1023 3919 mt  965 3977 L
 968 3914 mt 1026 3972 L
1026 3914 mt  968 3972 L
 971 3905 mt 1029 3963 L
1029 3905 mt  971 3963 L
 972 3889 mt 1030 3947 L
1030 3889 mt  972 3947 L
 974 3883 mt 1032 3941 L
1032 3883 mt  974 3941 L
 976 3882 mt 1034 3940 L
1034 3882 mt  976 3940 L
 978 3871 mt 1036 3929 L
1036 3871 mt  978 3929 L
 979 3861 mt 1037 3919 L
1037 3861 mt  979 3919 L
 982 3864 mt 1040 3922 L
1040 3864 mt  982 3922 L
 986 3871 mt 1044 3929 L
1044 3871 mt  986 3929 L
 989 3875 mt 1047 3933 L
1047 3875 mt  989 3933 L
 994 3869 mt 1052 3927 L
1052 3869 mt  994 3927 L
 998 3868 mt 1056 3926 L
1056 3868 mt  998 3926 L
1003 3861 mt 1061 3919 L
1061 3861 mt 1003 3919 L
1008 3857 mt 1066 3915 L
1066 3857 mt 1008 3915 L
1014 3853 mt 1072 3911 L
1072 3853 mt 1014 3911 L
1020 3848 mt 1078 3906 L
1078 3848 mt 1020 3906 L
1025 3844 mt 1083 3902 L
1083 3844 mt 1025 3902 L
1032 3845 mt 1090 3903 L
1090 3845 mt 1032 3903 L
1039 3848 mt 1097 3906 L
1097 3848 mt 1039 3906 L
1046 3852 mt 1104 3910 L
1104 3852 mt 1046 3910 L
1051 3849 mt 1109 3907 L
1109 3849 mt 1051 3907 L
1055 3842 mt 1113 3900 L
1113 3842 mt 1055 3900 L
1058 3831 mt 1116 3889 L
1116 3831 mt 1058 3889 L
1061 3824 mt 1119 3882 L
1119 3824 mt 1061 3882 L
1064 3817 mt 1122 3875 L
1122 3817 mt 1064 3875 L
1067 3814 mt 1125 3872 L
1125 3814 mt 1067 3872 L
1069 3804 mt 1127 3862 L
1127 3804 mt 1069 3862 L
1073 3806 mt 1131 3864 L
1131 3806 mt 1073 3864 L
1077 3809 mt 1135 3867 L
1135 3809 mt 1077 3867 L
1080 3807 mt 1138 3865 L
1138 3807 mt 1080 3865 L
1085 3800 mt 1143 3858 L
1143 3800 mt 1085 3858 L
1088 3792 mt 1146 3850 L
1146 3792 mt 1088 3850 L
1093 3783 mt 1151 3841 L
1151 3783 mt 1093 3841 L
1100 3776 mt 1158 3834 L
1158 3776 mt 1100 3834 L
1107 3773 mt 1165 3831 L
1165 3773 mt 1107 3831 L
1115 3775 mt 1173 3833 L
1173 3775 mt 1115 3833 L
1122 3773 mt 1180 3831 L
1180 3773 mt 1122 3831 L
1129 3769 mt 1187 3827 L
1187 3769 mt 1129 3827 L
1135 3760 mt 1193 3818 L
1193 3760 mt 1135 3818 L
1141 3750 mt 1199 3808 L
1199 3750 mt 1141 3808 L
1146 3747 mt 1204 3805 L
1204 3747 mt 1146 3805 L
1151 3740 mt 1209 3798 L
1209 3740 mt 1151 3798 L
1155 3734 mt 1213 3792 L
1213 3734 mt 1155 3792 L
1159 3727 mt 1217 3785 L
1217 3727 mt 1159 3785 L
1162 3723 mt 1220 3781 L
1220 3723 mt 1162 3781 L
1167 3719 mt 1225 3777 L
1225 3719 mt 1167 3777 L
1171 3713 mt 1229 3771 L
1229 3713 mt 1171 3771 L
1175 3707 mt 1233 3765 L
1233 3707 mt 1175 3765 L
1179 3700 mt 1237 3758 L
1237 3700 mt 1179 3758 L
1184 3690 mt 1242 3748 L
1242 3690 mt 1184 3748 L
1189 3680 mt 1247 3738 L
1247 3680 mt 1189 3738 L
1196 3678 mt 1254 3736 L
1254 3678 mt 1196 3736 L
1204 3681 mt 1262 3739 L
1262 3681 mt 1204 3739 L
1211 3679 mt 1269 3737 L
1269 3679 mt 1211 3737 L
1219 3677 mt 1277 3735 L
1277 3677 mt 1219 3735 L
1225 3669 mt 1283 3727 L
1283 3669 mt 1225 3727 L
1230 3654 mt 1288 3712 L
1288 3654 mt 1230 3712 L
1234 3642 mt 1292 3700 L
1292 3642 mt 1234 3700 L
1238 3631 mt 1296 3689 L
1296 3631 mt 1238 3689 L
1244 3628 mt 1302 3686 L
1302 3628 mt 1244 3686 L
1249 3623 mt 1307 3681 L
1307 3623 mt 1249 3681 L
1256 3626 mt 1314 3684 L
1314 3626 mt 1256 3684 L
1262 3622 mt 1320 3680 L
1320 3622 mt 1262 3680 L
1267 3612 mt 1325 3670 L
1325 3612 mt 1267 3670 L
1271 3604 mt 1329 3662 L
1329 3604 mt 1271 3662 L
1274 3592 mt 1332 3650 L
1332 3592 mt 1274 3650 L
1281 3584 mt 1339 3642 L
1339 3584 mt 1281 3642 L
1288 3577 mt 1346 3635 L
1346 3577 mt 1288 3635 L
1295 3574 mt 1353 3632 L
1353 3574 mt 1295 3632 L
1302 3570 mt 1360 3628 L
1360 3570 mt 1302 3628 L
1309 3566 mt 1367 3624 L
1367 3566 mt 1309 3624 L
1315 3559 mt 1373 3617 L
1373 3559 mt 1315 3617 L
1323 3553 mt 1381 3611 L
1381 3553 mt 1323 3611 L
1328 3543 mt 1386 3601 L
1386 3543 mt 1328 3601 L
1334 3532 mt 1392 3590 L
1392 3532 mt 1334 3590 L
1340 3527 mt 1398 3585 L
1398 3527 mt 1340 3585 L
1347 3525 mt 1405 3583 L
1405 3525 mt 1347 3583 L
1353 3524 mt 1411 3582 L
1411 3524 mt 1353 3582 L
1357 3514 mt 1415 3572 L
1415 3514 mt 1357 3572 L
1363 3508 mt 1421 3566 L
1421 3508 mt 1363 3566 L
1369 3500 mt 1427 3558 L
1427 3500 mt 1369 3558 L
1375 3491 mt 1433 3549 L
1433 3491 mt 1375 3549 L
1381 3484 mt 1439 3542 L
1439 3484 mt 1381 3542 L
1391 3482 mt 1449 3540 L
1449 3482 mt 1391 3540 L
1401 3479 mt 1459 3537 L
1459 3479 mt 1401 3537 L
1410 3474 mt 1468 3532 L
1468 3474 mt 1410 3532 L
1417 3464 mt 1475 3522 L
1475 3464 mt 1417 3522 L
1425 3461 mt 1483 3519 L
1483 3461 mt 1425 3519 L
1433 3452 mt 1491 3510 L
1491 3452 mt 1433 3510 L
1440 3446 mt 1498 3504 L
1498 3446 mt 1440 3504 L
1446 3444 mt 1504 3502 L
1504 3444 mt 1446 3502 L
1452 3435 mt 1510 3493 L
1510 3435 mt 1452 3493 L
1458 3430 mt 1516 3488 L
1516 3430 mt 1458 3488 L
1464 3423 mt 1522 3481 L
1522 3423 mt 1464 3481 L
1472 3415 mt 1530 3473 L
1530 3415 mt 1472 3473 L
1480 3412 mt 1538 3470 L
1538 3412 mt 1480 3470 L
1487 3405 mt 1545 3463 L
1545 3405 mt 1487 3463 L
1495 3396 mt 1553 3454 L
1553 3396 mt 1495 3454 L
1505 3392 mt 1563 3450 L
1563 3392 mt 1505 3450 L
1515 3387 mt 1573 3445 L
1573 3387 mt 1515 3445 L
1523 3381 mt 1581 3439 L
1581 3381 mt 1523 3439 L
1532 3375 mt 1590 3433 L
1590 3375 mt 1532 3433 L
1541 3369 mt 1599 3427 L
1599 3369 mt 1541 3427 L
1549 3364 mt 1607 3422 L
1607 3364 mt 1549 3422 L
1557 3357 mt 1615 3415 L
1615 3357 mt 1557 3415 L
1564 3351 mt 1622 3409 L
1622 3351 mt 1564 3409 L
1572 3345 mt 1630 3403 L
1630 3345 mt 1572 3403 L
1579 3341 mt 1637 3399 L
1637 3341 mt 1579 3399 L
1587 3333 mt 1645 3391 L
1645 3333 mt 1587 3391 L
1595 3326 mt 1653 3384 L
1653 3326 mt 1595 3384 L
1603 3321 mt 1661 3379 L
1661 3321 mt 1603 3379 L
1613 3315 mt 1671 3373 L
1671 3315 mt 1613 3373 L
1624 3309 mt 1682 3367 L
1682 3309 mt 1624 3367 L
1634 3303 mt 1692 3361 L
1692 3303 mt 1634 3361 L
1644 3298 mt 1702 3356 L
1702 3298 mt 1644 3356 L
1655 3292 mt 1713 3350 L
1713 3292 mt 1655 3350 L
1664 3286 mt 1722 3344 L
1722 3286 mt 1664 3344 L
1673 3282 mt 1731 3340 L
1731 3282 mt 1673 3340 L
1682 3276 mt 1740 3334 L
1740 3276 mt 1682 3334 L
1690 3269 mt 1748 3327 L
1748 3269 mt 1690 3327 L
1698 3265 mt 1756 3323 L
1756 3265 mt 1698 3323 L
1707 3255 mt 1765 3313 L
1765 3255 mt 1707 3313 L
1716 3250 mt 1774 3308 L
1774 3250 mt 1716 3308 L
1725 3244 mt 1783 3302 L
1783 3244 mt 1725 3302 L
1735 3237 mt 1793 3295 L
1793 3237 mt 1735 3295 L
1745 3231 mt 1803 3289 L
1803 3231 mt 1745 3289 L
1756 3227 mt 1814 3285 L
1814 3227 mt 1756 3285 L
1768 3219 mt 1826 3277 L
1826 3219 mt 1768 3277 L
1779 3214 mt 1837 3272 L
1837 3214 mt 1779 3272 L
1789 3206 mt 1847 3264 L
1847 3206 mt 1789 3264 L
1799 3200 mt 1857 3258 L
1857 3200 mt 1799 3258 L
1807 3191 mt 1865 3249 L
1865 3191 mt 1807 3249 L
1816 3184 mt 1874 3242 L
1874 3184 mt 1816 3242 L
1826 3178 mt 1884 3236 L
1884 3178 mt 1826 3236 L
1836 3171 mt 1894 3229 L
1894 3171 mt 1836 3229 L
1845 3164 mt 1903 3222 L
1903 3164 mt 1845 3222 L
1856 3156 mt 1914 3214 L
1914 3156 mt 1856 3214 L
1867 3151 mt 1925 3209 L
1925 3151 mt 1867 3209 L
1877 3142 mt 1935 3200 L
1935 3142 mt 1877 3200 L
1888 3137 mt 1946 3195 L
1946 3137 mt 1888 3195 L
1899 3131 mt 1957 3189 L
1957 3131 mt 1899 3189 L
1910 3123 mt 1968 3181 L
1968 3123 mt 1910 3181 L
1920 3118 mt 1978 3176 L
1978 3118 mt 1920 3176 L
1931 3112 mt 1989 3170 L
1989 3112 mt 1931 3170 L
1942 3105 mt 2000 3163 L
2000 3105 mt 1942 3163 L
1952 3099 mt 2010 3157 L
2010 3099 mt 1952 3157 L
1962 3093 mt 2020 3151 L
2020 3093 mt 1962 3151 L
1972 3085 mt 2030 3143 L
2030 3085 mt 1972 3143 L
1985 3081 mt 2043 3139 L
2043 3081 mt 1985 3139 L
1998 3076 mt 2056 3134 L
2056 3076 mt 1998 3134 L
2009 3070 mt 2067 3128 L
2067 3070 mt 2009 3128 L
2021 3062 mt 2079 3120 L
2079 3062 mt 2021 3120 L
2033 3054 mt 2091 3112 L
2091 3054 mt 2033 3112 L
2044 3047 mt 2102 3105 L
2102 3047 mt 2044 3105 L
2056 3042 mt 2114 3100 L
2114 3042 mt 2056 3100 L
2067 3035 mt 2125 3093 L
2125 3035 mt 2067 3093 L
2078 3026 mt 2136 3084 L
2136 3026 mt 2078 3084 L
2090 3020 mt 2148 3078 L
2148 3020 mt 2090 3078 L
2101 3013 mt 2159 3071 L
2159 3013 mt 2101 3071 L
2113 3007 mt 2171 3065 L
2171 3007 mt 2113 3065 L
2125 2999 mt 2183 3057 L
2183 2999 mt 2125 3057 L
2137 2993 mt 2195 3051 L
2195 2993 mt 2137 3051 L
2150 2986 mt 2208 3044 L
2208 2986 mt 2150 3044 L
2163 2978 mt 2221 3036 L
2221 2978 mt 2163 3036 L
2175 2971 mt 2233 3029 L
2233 2971 mt 2175 3029 L
2186 2963 mt 2244 3021 L
2244 2963 mt 2186 3021 L
2198 2955 mt 2256 3013 L
2256 2955 mt 2198 3013 L
2211 2945 mt 2269 3003 L
2269 2945 mt 2211 3003 L
2223 2937 mt 2281 2995 L
2281 2937 mt 2223 2995 L
2236 2931 mt 2294 2989 L
2294 2931 mt 2236 2989 L
2247 2922 mt 2305 2980 L
2305 2922 mt 2247 2980 L
2260 2914 mt 2318 2972 L
2318 2914 mt 2260 2972 L
2274 2909 mt 2332 2967 L
2332 2909 mt 2274 2967 L
2287 2901 mt 2345 2959 L
2345 2901 mt 2287 2959 L
2299 2894 mt 2357 2952 L
2357 2894 mt 2299 2952 L
2313 2887 mt 2371 2945 L
2371 2887 mt 2313 2945 L
2327 2881 mt 2385 2939 L
2385 2881 mt 2327 2939 L
2340 2873 mt 2398 2931 L
2398 2873 mt 2340 2931 L
2353 2864 mt 2411 2922 L
2411 2864 mt 2353 2922 L
2367 2856 mt 2425 2914 L
2425 2856 mt 2367 2914 L
2382 2853 mt 2440 2911 L
2440 2853 mt 2382 2911 L
2395 2846 mt 2453 2904 L
2453 2846 mt 2395 2904 L
2407 2836 mt 2465 2894 L
2465 2836 mt 2407 2894 L
2420 2828 mt 2478 2886 L
2478 2828 mt 2420 2886 L
2435 2822 mt 2493 2880 L
2493 2822 mt 2435 2880 L
2450 2817 mt 2508 2875 L
2508 2817 mt 2450 2875 L
2465 2810 mt 2523 2868 L
2523 2810 mt 2465 2868 L
2480 2801 mt 2538 2859 L
2538 2801 mt 2480 2859 L
2494 2794 mt 2552 2852 L
2552 2794 mt 2494 2852 L
2510 2787 mt 2568 2845 L
2568 2787 mt 2510 2845 L
2524 2781 mt 2582 2839 L
2582 2781 mt 2524 2839 L
2537 2774 mt 2595 2832 L
2595 2774 mt 2537 2832 L
2552 2768 mt 2610 2826 L
2610 2768 mt 2552 2826 L
2565 2760 mt 2623 2818 L
2623 2760 mt 2565 2818 L
2581 2754 mt 2639 2812 L
2639 2754 mt 2581 2812 L
2598 2748 mt 2656 2806 L
2656 2748 mt 2598 2806 L
2614 2742 mt 2672 2800 L
2672 2742 mt 2614 2800 L
2629 2735 mt 2687 2793 L
2687 2735 mt 2629 2793 L
2645 2728 mt 2703 2786 L
2703 2728 mt 2645 2786 L
2661 2721 mt 2719 2779 L
2719 2721 mt 2661 2779 L
2676 2714 mt 2734 2772 L
2734 2714 mt 2676 2772 L
2692 2706 mt 2750 2764 L
2750 2706 mt 2692 2764 L
2707 2698 mt 2765 2756 L
2765 2698 mt 2707 2756 L
2724 2691 mt 2782 2749 L
2782 2691 mt 2724 2749 L
2739 2683 mt 2797 2741 L
2797 2683 mt 2739 2741 L
2756 2677 mt 2814 2735 L
2814 2677 mt 2756 2735 L
2773 2668 mt 2831 2726 L
2831 2668 mt 2773 2726 L
2790 2661 mt 2848 2719 L
2848 2661 mt 2790 2719 L
2806 2656 mt 2864 2714 L
2864 2656 mt 2806 2714 L
2825 2648 mt 2883 2706 L
2883 2648 mt 2825 2706 L
2843 2642 mt 2901 2700 L
2901 2642 mt 2843 2700 L
2859 2635 mt 2917 2693 L
2917 2635 mt 2859 2693 L
2876 2627 mt 2934 2685 L
2934 2627 mt 2876 2685 L
2893 2621 mt 2951 2679 L
2951 2621 mt 2893 2679 L
2910 2615 mt 2968 2673 L
2968 2615 mt 2910 2673 L
2927 2599 mt 2985 2657 L
2985 2599 mt 2927 2657 L
2945 2602 mt 3003 2660 L
3003 2602 mt 2945 2660 L
2965 2593 mt 3023 2651 L
3023 2593 mt 2965 2651 L
2984 2583 mt 3042 2641 L
3042 2583 mt 2984 2641 L
3002 2572 mt 3060 2630 L
3060 2572 mt 3002 2630 L
3022 2572 mt 3080 2630 L
3080 2572 mt 3022 2630 L
3039 2566 mt 3097 2624 L
3097 2566 mt 3039 2624 L
3056 2559 mt 3114 2617 L
3114 2559 mt 3056 2617 L
3075 2552 mt 3133 2610 L
3133 2552 mt 3075 2610 L
3090 2546 mt 3148 2604 L
3148 2546 mt 3090 2604 L
3114 2541 mt 3172 2599 L
3172 2541 mt 3114 2599 L
3134 2534 mt 3192 2592 L
3192 2534 mt 3134 2592 L
3154 2526 mt 3212 2584 L
3212 2526 mt 3154 2584 L
3175 2519 mt 3233 2577 L
3233 2519 mt 3175 2577 L
3196 2514 mt 3254 2572 L
3254 2514 mt 3196 2572 L
3215 2508 mt 3273 2566 L
3273 2508 mt 3215 2566 L
3233 2502 mt 3291 2560 L
3291 2502 mt 3233 2560 L
3252 2495 mt 3310 2553 L
3310 2495 mt 3252 2553 L
3273 2489 mt 3331 2547 L
3331 2489 mt 3273 2547 L
3294 2483 mt 3352 2541 L
3352 2483 mt 3294 2541 L
3315 2476 mt 3373 2534 L
3373 2476 mt 3315 2534 L
3336 2470 mt 3394 2528 L
3394 2470 mt 3336 2528 L
3357 2462 mt 3415 2520 L
3415 2462 mt 3357 2520 L
3379 2456 mt 3437 2514 L
3437 2456 mt 3379 2514 L
3399 2449 mt 3457 2507 L
3457 2449 mt 3399 2507 L
3420 2442 mt 3478 2500 L
3478 2442 mt 3420 2500 L
3440 2434 mt 3498 2492 L
3498 2434 mt 3440 2492 L
3462 2428 mt 3520 2486 L
3520 2428 mt 3462 2486 L
3484 2422 mt 3542 2480 L
3542 2422 mt 3484 2480 L
3507 2415 mt 3565 2473 L
3565 2415 mt 3507 2473 L
3530 2410 mt 3588 2468 L
3588 2410 mt 3530 2468 L
3552 2403 mt 3610 2461 L
3610 2403 mt 3552 2461 L
3573 2396 mt 3631 2454 L
3631 2396 mt 3573 2454 L
3595 2392 mt 3653 2450 L
3653 2392 mt 3595 2450 L
3616 2384 mt 3674 2442 L
3674 2384 mt 3616 2442 L
3638 2378 mt 3696 2436 L
3696 2378 mt 3638 2436 L
3661 2371 mt 3719 2429 L
3719 2371 mt 3661 2429 L
3684 2366 mt 3742 2424 L
3742 2366 mt 3684 2424 L
3709 2357 mt 3767 2415 L
3767 2357 mt 3709 2415 L
3731 2353 mt 3789 2411 L
3789 2353 mt 3731 2411 L
3753 2342 mt 3811 2400 L
3811 2342 mt 3753 2400 L
3777 2339 mt 3835 2397 L
3835 2339 mt 3777 2397 L
3801 2336 mt 3859 2394 L
3859 2336 mt 3801 2394 L
3825 2327 mt 3883 2385 L
3883 2327 mt 3825 2385 L
3850 2321 mt 3908 2379 L
3908 2321 mt 3850 2379 L
3876 2315 mt 3934 2373 L
3934 2315 mt 3876 2373 L
3902 2310 mt 3960 2368 L
3960 2310 mt 3902 2368 L
3926 2305 mt 3984 2363 L
3984 2305 mt 3926 2363 L
3950 2295 mt 4008 2353 L
4008 2295 mt 3950 2353 L
3975 2292 mt 4033 2350 L
4033 2292 mt 3975 2350 L
4000 2282 mt 4058 2340 L
4058 2282 mt 4000 2340 L
4026 2276 mt 4084 2334 L
4084 2276 mt 4026 2334 L
4052 2270 mt 4110 2328 L
4110 2270 mt 4052 2328 L
4078 2267 mt 4136 2325 L
4136 2267 mt 4078 2325 L
4103 2259 mt 4161 2317 L
4161 2259 mt 4103 2317 L
4129 2255 mt 4187 2313 L
4187 2255 mt 4129 2313 L
4156 2247 mt 4214 2305 L
4214 2247 mt 4156 2305 L
4183 2242 mt 4241 2300 L
4241 2242 mt 4183 2300 L
4211 2238 mt 4269 2296 L
4269 2238 mt 4211 2296 L
4239 2232 mt 4297 2290 L
4297 2232 mt 4239 2290 L
4249 2218 mt 4307 2276 L
4307 2218 mt 4249 2276 L
4293 2213 mt 4351 2271 L
4351 2213 mt 4293 2271 L
4321 2212 mt 4379 2270 L
4379 2212 mt 4321 2270 L
4347 2208 mt 4405 2266 L
4405 2208 mt 4347 2266 L
4375 2199 mt 4433 2257 L
4433 2199 mt 4375 2257 L
4403 2193 mt 4461 2251 L
4461 2193 mt 4403 2251 L
4433 2187 mt 4491 2245 L
4491 2187 mt 4433 2245 L
4463 2180 mt 4521 2238 L
4521 2180 mt 4463 2238 L
4491 2178 mt 4549 2236 L
4549 2178 mt 4491 2236 L
4520 2169 mt 4578 2227 L
4578 2169 mt 4520 2227 L
4549 2165 mt 4607 2223 L
4607 2165 mt 4549 2223 L
4579 2155 mt 4637 2213 L
4637 2155 mt 4579 2213 L
4610 2149 mt 4668 2207 L
4668 2149 mt 4610 2207 L
4641 2142 mt 4699 2200 L
4699 2142 mt 4641 2200 L
4670 2138 mt 4728 2196 L
4728 2138 mt 4670 2196 L
4109 2182 mt 4167 2240 L
4167 2182 mt 4109 2240 L
3867 2206 mt 3925 2264 L
3925 2206 mt 3867 2264 L
3524 2232 mt 3582 2290 L
3582 2232 mt 3524 2290 L
3372 2258 mt 3430 2316 L
3430 2258 mt 3372 2316 L
3022 2273 mt 3080 2331 L
3080 2273 mt 3022 2331 L
2975 2319 mt 3033 2377 L
3033 2319 mt 2975 2377 L
2692 2357 mt 2750 2415 L
2750 2357 mt 2692 2415 L
2629 2418 mt 2687 2476 L
2687 2418 mt 2629 2476 L
2485 2458 mt 2543 2516 L
2543 2458 mt 2485 2516 L
2346 2496 mt 2404 2554 L
2404 2496 mt 2346 2554 L
2276 2546 mt 2334 2604 L
2334 2546 mt 2276 2604 L
2172 2592 mt 2230 2650 L
2230 2592 mt 2172 2650 L
2078 2635 mt 2136 2693 L
2136 2635 mt 2078 2693 L
2016 2680 mt 2074 2738 L
2074 2680 mt 2016 2738 L
1943 2721 mt 2001 2779 L
2001 2721 mt 1943 2779 L
1874 2769 mt 1932 2827 L
1932 2769 mt 1874 2827 L
1821 2808 mt 1879 2866 L
1879 2808 mt 1821 2866 L
1769 2829 mt 1827 2887 L
1827 2829 mt 1769 2887 L
1715 2859 mt 1773 2917 L
1773 2859 mt 1715 2917 L
1667 2882 mt 1725 2940 L
1725 2882 mt 1667 2940 L
1626 2903 mt 1684 2961 L
1684 2903 mt 1626 2961 L
1584 2914 mt 1642 2972 L
1642 2914 mt 1584 2972 L
1544 2929 mt 1602 2987 L
1602 2929 mt 1544 2987 L
1507 2971 mt 1565 3029 L
1565 2971 mt 1507 3029 L
1471 3000 mt 1529 3058 L
1529 3000 mt 1471 3058 L
1440 3026 mt 1498 3084 L
1498 3026 mt 1440 3084 L
1407 3048 mt 1465 3106 L
1465 3048 mt 1407 3106 L
1375 3085 mt 1433 3143 L
1433 3085 mt 1375 3143 L
1348 3117 mt 1406 3175 L
1406 3117 mt 1348 3175 L
1322 3142 mt 1380 3200 L
1380 3142 mt 1322 3200 L
1297 3172 mt 1355 3230 L
1355 3172 mt 1297 3230 L
1270 3194 mt 1328 3252 L
1328 3194 mt 1270 3252 L
1247 3229 mt 1305 3287 L
1305 3229 mt 1247 3287 L
1224 3247 mt 1282 3305 L
1282 3247 mt 1224 3305 L
1204 3260 mt 1262 3318 L
1262 3260 mt 1204 3318 L
1181 3268 mt 1239 3326 L
1239 3268 mt 1181 3326 L
1162 3289 mt 1220 3347 L
1220 3289 mt 1162 3347 L
1140 3290 mt 1198 3348 L
1198 3290 mt 1140 3348 L
1122 3310 mt 1180 3368 L
1180 3310 mt 1122 3368 L
1104 3308 mt 1162 3366 L
1162 3308 mt 1104 3366 L
1087 3305 mt 1145 3363 L
1145 3305 mt 1087 3363 L
1072 3336 mt 1130 3394 L
1130 3336 mt 1072 3394 L
1057 3354 mt 1115 3412 L
1115 3354 mt 1057 3412 L
1043 3335 mt 1101 3393 L
1101 3335 mt 1043 3393 L
1028 3344 mt 1086 3402 L
1086 3344 mt 1028 3402 L
1012 3340 mt 1070 3398 L
1070 3340 mt 1012 3398 L
 998 3335 mt 1056 3393 L
1056 3335 mt  998 3393 L
 984 3291 mt 1042 3349 L
1042 3291 mt  984 3349 L
 972 3302 mt 1030 3360 L
1030 3302 mt  972 3360 L
 958 3293 mt 1016 3351 L
1016 3293 mt  958 3351 L
 946 3272 mt 1004 3330 L
1004 3272 mt  946 3330 L
 935 3242 mt  993 3300 L
 993 3242 mt  935 3300 L
 925 3210 mt  983 3268 L
 983 3210 mt  925 3268 L
 916 3186 mt  974 3244 L
 974 3186 mt  916 3244 L
 907 3155 mt  965 3213 L
 965 3155 mt  907 3213 L
 899 3136 mt  957 3194 L
 957 3136 mt  899 3194 L
 890 3082 mt  948 3140 L
 948 3082 mt  890 3140 L
 883 3035 mt  941 3093 L
 941 3035 mt  883 3093 L
 875 2962 mt  933 3020 L
 933 2962 mt  875 3020 L
 868 2874 mt  926 2932 L
 926 2874 mt  868 2932 L
 861 2800 mt  919 2858 L
 919 2800 mt  861 2858 L
 856 2724 mt  914 2782 L
 914 2724 mt  856 2782 L
 850 2561 mt  908 2619 L
 908 2561 mt  850 2619 L
 845 2428 mt  903 2486 L
 903 2428 mt  845 2486 L
 841 2249 mt  899 2307 L
 899 2249 mt  841 2307 L
 835 1984 mt  893 2042 L
 893 1984 mt  835 2042 L
 831 1647 mt  889 1705 L
 889 1647 mt  831 1705 L
 827 1215 mt  885 1273 L
 885 1215 mt  827 1273 L
 824  964 mt  882 1022 L
 882  964 mt  824 1022 L
gs 848 564 4238 3957 rc
gr

0 sg
%%IncludeResource: font Helvetica
/Helvetica /ISOLatin1Encoding 83.3333 FMSR

 829 4558 mt 
( ) s
5067  601 mt 
( ) s
8.33333 w
DO
SO
12.5 w
0.1 sg
 848 4520 mt 5085 4520 L
 848  565 mt 5085  565 L
 848 4520 mt  848  565 L
5085 4520 mt 5085  565 L
 848 4520 mt 5085 4520 L
 848 4520 mt  848  565 L
 848 4520 mt  848 4456 L
 848  565 mt  848  628 L
%%IncludeResource: font Helvetica
/Helvetica /ISOLatin1Encoding 133.333 FMSR

 811 4668 mt 
(0) s
1614 4520 mt 1614 4456 L
1614  565 mt 1614  628 L
1540 4668 mt 
(20) s
2381 4520 mt 2381 4456 L
2381  565 mt 2381  628 L
2307 4668 mt 
(40) s
3147 4520 mt 3147 4456 L
3147  565 mt 3147  628 L
3073 4668 mt 
(60) s
3914 4520 mt 3914 4456 L
3914  565 mt 3914  628 L
3840 4668 mt 
(80) s
4681 4520 mt 4681 4456 L
4681  565 mt 4681  628 L
4570 4668 mt 
(100) s
 848 4520 mt  911 4520 L
5085 4520 mt 5021 4520 L
 639 4569 mt 
(0.1) s
 848 4124 mt  911 4124 L
5085 4124 mt 5021 4124 L
 565 4173 mt 
(0.15) s
 848 3729 mt  911 3729 L
5085 3729 mt 5021 3729 L
 639 3778 mt 
(0.2) s
 848 3333 mt  911 3333 L
5085 3333 mt 5021 3333 L
 565 3382 mt 
(0.25) s
 848 2938 mt  911 2938 L
5085 2938 mt 5021 2938 L
 639 2987 mt 
(0.3) s
 848 2542 mt  911 2542 L
5085 2542 mt 5021 2542 L
 565 2591 mt 
(0.35) s
 848 2146 mt  911 2146 L
5085 2146 mt 5021 2146 L
 639 2195 mt 
(0.4) s
 848 1751 mt  911 1751 L
5085 1751 mt 5021 1751 L
 565 1800 mt 
(0.45) s
 848 1356 mt  911 1356 L
5085 1356 mt 5021 1356 L
 639 1405 mt 
(0.5) s
 848  960 mt  911  960 L
5085  960 mt 5021  960 L
 565 1009 mt 
(0.55) s
 848  565 mt  911  565 L
5085  565 mt 5021  565 L
 639  614 mt 
(0.6) s
 848 4520 mt 5085 4520 L
 848  565 mt 5085  565 L
 848 4520 mt  848  565 L
5085 4520 mt 5085  565 L
0 sg
%%IncludeResource: font Symbol
/Symbol /ISOLatin1Encoding 125 FMSR

2802  838 mt 
(m) s
%%IncludeResource: font Helvetica-Bold
/Helvetica-Bold /ISOLatin1Encoding 100 FMSR

2874  900 mt 
(R) s
%%IncludeResource: font Helvetica-Bold
/Helvetica-Bold /ISOLatin1Encoding 125 FMSR

2946  838 mt 
( = 0) s
gs 2477 707 979 1035 rc
16.6667 w
gs 2549 745 205 205 rc
2622  818 mt 2680  876 L
2680  818 mt 2622  876 L
gr

gr

16.6667 w
%%IncludeResource: font Symbol
/Symbol /ISOLatin1Encoding 125 FMSR

2802 1090 mt 
(m) s
%%IncludeResource: font Helvetica-Bold
/Helvetica-Bold /ISOLatin1Encoding 100 FMSR

2874 1152 mt 
(R) s
%%IncludeResource: font Helvetica-Bold
/Helvetica-Bold /ISOLatin1Encoding 125 FMSR

2946 1090 mt 
( = 0.025) s
gs 2477 707 979 1035 rc
gs 2549 996 205 205 rc
c8
2622 1069 mt 2680 1127 L
2680 1069 mt 2622 1127 L
gr

c8
gr

c8
0 sg
%%IncludeResource: font Symbol
/Symbol /ISOLatin1Encoding 125 FMSR

2802 1341 mt 
(m) s
%%IncludeResource: font Helvetica-Bold
/Helvetica-Bold /ISOLatin1Encoding 100 FMSR

2874 1403 mt 
(R) s
%%IncludeResource: font Helvetica-Bold
/Helvetica-Bold /ISOLatin1Encoding 125 FMSR

2946 1341 mt 
( = 0.1) s
gs 2477 707 979 1035 rc
gs 2549 1247 205 205 rc
c9
2622 1320 mt 2680 1378 L
2680 1320 mt 2622 1378 L
gr

c9
gr

c9
0 sg
%%IncludeResource: font Symbol
/Symbol /ISOLatin1Encoding 125 FMSR

2802 1593 mt 
(m) s
%%IncludeResource: font Helvetica-Bold
/Helvetica-Bold /ISOLatin1Encoding 100 FMSR

2874 1655 mt 
(R) s
%%IncludeResource: font Helvetica-Bold
/Helvetica-Bold /ISOLatin1Encoding 125 FMSR

2946 1593 mt 
( = 0.5) s
gs 2477 707 979 1035 rc
gs 2549 1498 205 205 rc
c10
2622 1571 mt 2680 1629 L
2680 1571 mt 2622 1629 L
gr

c10
12.5 w
gr

12.5 w
c10

end %%Color Dict

eplot
%%EndObject

epage
end

showpage

%%Trailer
%%EOF
