%!PS-Adobe-3.0 EPSF-3.0
%%Creator: MATLAB, The MathWorks, Inc. Version 7.12.0.635 (R2011a). Operating System: Linux 2.6.32-358.6.2.el6.x86_64 #1 SMP Thu May 16 11:21:38 CDT 2013 x86_64.
%%Title: ./EPT_Tests_Spherical_K1Var_Stress_K0.eps
%%CreationDate: 08/16/2013  15:39:07
%%DocumentNeededFonts: Helvetica-Bold
%%+ Helvetica
%%DocumentProcessColors: Cyan Magenta Yellow Black
%%LanguageLevel: 2
%%Pages: 1
%%BoundingBox:    24    69   597   605
%%EndComments

%%BeginProlog
% MathWorks dictionary
/MathWorks 160 dict begin
% definition operators
/bdef {bind def} bind def
/ldef {load def} bind def
/xdef {exch def} bdef
/xstore {exch store} bdef
% operator abbreviations
/c  /clip ldef
/cc /concat ldef
/cp /closepath ldef
/gr /grestore ldef
/gs /gsave ldef
/mt /moveto ldef
/np /newpath ldef
/cm /currentmatrix ldef
/sm /setmatrix ldef
/rm /rmoveto ldef
/rl /rlineto ldef
/s {show newpath} bdef
/sc {setcmykcolor} bdef
/sr /setrgbcolor ldef
/sg /setgray ldef
/w /setlinewidth ldef
/j /setlinejoin ldef
/cap /setlinecap ldef
/rc {rectclip} bdef
/rf {rectfill} bdef
% page state control
/pgsv () def
/bpage {/pgsv save def} bdef
/epage {pgsv restore} bdef
/bplot /gsave ldef
/eplot {stroke grestore} bdef
% orientation switch
/portraitMode 0 def /landscapeMode 1 def /rotateMode 2 def
% coordinate system mappings
/dpi2point 0 def
% font control
/FontSize 0 def
/FMS {/FontSize xstore findfont [FontSize 0 0 FontSize neg 0 0]
  makefont setfont} bdef
/reencode {exch dup where {pop load} {pop StandardEncoding} ifelse
  exch dup 3 1 roll findfont dup length dict begin
  { 1 index /FID ne {def}{pop pop} ifelse } forall
  /Encoding exch def currentdict end definefont pop} bdef
/isroman {findfont /CharStrings get /Agrave known} bdef
/FMSR {3 1 roll 1 index dup isroman {reencode} {pop pop} ifelse
  exch FMS} bdef
/csm {1 dpi2point div -1 dpi2point div scale neg translate
 dup landscapeMode eq {pop -90 rotate}
  {rotateMode eq {90 rotate} if} ifelse} bdef
% line types: solid, dotted, dashed, dotdash
/SO { [] 0 setdash } bdef
/DO { [.5 dpi2point mul 4 dpi2point mul] 0 setdash } bdef
/DA { [6 dpi2point mul] 0 setdash } bdef
/DD { [.5 dpi2point mul 4 dpi2point mul 6 dpi2point mul 4
  dpi2point mul] 0 setdash } bdef
% macros for lines and objects
/L {lineto stroke} bdef
/MP {3 1 roll moveto 1 sub {rlineto} repeat} bdef
/AP {{rlineto} repeat} bdef
/PDlw -1 def
/W {/PDlw currentlinewidth def setlinewidth} def
/PP {closepath eofill} bdef
/DP {closepath stroke} bdef
/MR {4 -2 roll moveto dup  0 exch rlineto exch 0 rlineto
  neg 0 exch rlineto closepath} bdef
/FR {MR stroke} bdef
/PR {MR fill} bdef
/L1i {{currentfile picstr readhexstring pop} image} bdef
/tMatrix matrix def
/MakeOval {newpath tMatrix currentmatrix pop translate scale
0 0 1 0 360 arc tMatrix setmatrix} bdef
/FO {MakeOval stroke} bdef
/PO {MakeOval fill} bdef
/PD {currentlinewidth 2 div 0 360 arc fill
   PDlw -1 eq not {PDlw w /PDlw -1 def} if} def
/FA {newpath tMatrix currentmatrix pop translate scale
  0 0 1 5 -2 roll arc tMatrix setmatrix stroke} bdef
/PA {newpath tMatrix currentmatrix pop	translate 0 0 moveto scale
  0 0 1 5 -2 roll arc closepath tMatrix setmatrix fill} bdef
/FAn {newpath tMatrix currentmatrix pop translate scale
  0 0 1 5 -2 roll arcn tMatrix setmatrix stroke} bdef
/PAn {newpath tMatrix currentmatrix pop translate 0 0 moveto scale
  0 0 1 5 -2 roll arcn closepath tMatrix setmatrix fill} bdef
/vradius 0 def /hradius 0 def /lry 0 def
/lrx 0 def /uly 0 def /ulx 0 def /rad 0 def
/MRR {/vradius xdef /hradius xdef /lry xdef /lrx xdef /uly xdef
  /ulx xdef newpath tMatrix currentmatrix pop ulx hradius add uly
  vradius add translate hradius vradius scale 0 0 1 180 270 arc 
  tMatrix setmatrix lrx hradius sub uly vradius add translate
  hradius vradius scale 0 0 1 270 360 arc tMatrix setmatrix
  lrx hradius sub lry vradius sub translate hradius vradius scale
  0 0 1 0 90 arc tMatrix setmatrix ulx hradius add lry vradius sub
  translate hradius vradius scale 0 0 1 90 180 arc tMatrix setmatrix
  closepath} bdef
/FRR {MRR stroke } bdef
/PRR {MRR fill } bdef
/MlrRR {/lry xdef /lrx xdef /uly xdef /ulx xdef /rad lry uly sub 2 div def
  newpath tMatrix currentmatrix pop ulx rad add uly rad add translate
  rad rad scale 0 0 1 90 270 arc tMatrix setmatrix lrx rad sub lry rad
  sub translate rad rad scale 0 0 1 270 90 arc tMatrix setmatrix
  closepath} bdef
/FlrRR {MlrRR stroke } bdef
/PlrRR {MlrRR fill } bdef
/MtbRR {/lry xdef /lrx xdef /uly xdef /ulx xdef /rad lrx ulx sub 2 div def
  newpath tMatrix currentmatrix pop ulx rad add uly rad add translate
  rad rad scale 0 0 1 180 360 arc tMatrix setmatrix lrx rad sub lry rad
  sub translate rad rad scale 0 0 1 0 180 arc tMatrix setmatrix
  closepath} bdef
/FtbRR {MtbRR stroke } bdef
/PtbRR {MtbRR fill } bdef
/stri 6 array def /dtri 6 array def
/smat 6 array def /dmat 6 array def
/tmat1 6 array def /tmat2 6 array def /dif 3 array def
/asub {/ind2 exch def /ind1 exch def dup dup
  ind1 get exch ind2 get sub exch } bdef
/tri_to_matrix {
  2 0 asub 3 1 asub 4 0 asub 5 1 asub
  dup 0 get exch 1 get 7 -1 roll astore } bdef
/compute_transform {
  dmat dtri tri_to_matrix tmat1 invertmatrix 
  smat stri tri_to_matrix tmat2 concatmatrix } bdef
/ds {stri astore pop} bdef
/dt {dtri astore pop} bdef
/db {2 copy /cols xdef /rows xdef mul dup 3 mul string
  currentfile 
  3 index 0 eq {/ASCIIHexDecode filter}
  {/ASCII85Decode filter 3 index 2 eq {/RunLengthDecode filter} if }
  ifelse exch readstring pop
  dup 0 3 index getinterval /rbmap xdef
  dup 2 index dup getinterval /gbmap xdef
  1 index dup 2 mul exch getinterval /bbmap xdef pop pop}bdef
/it {gs np dtri aload pop moveto lineto lineto cp c
  cols rows 8 compute_transform 
  rbmap gbmap bbmap true 3 colorimage gr}bdef
/il {newpath moveto lineto stroke}bdef
currentdict end def
%%EndProlog

%%BeginSetup
MathWorks begin

0 cap

end
%%EndSetup

%%Page: 1 1
%%BeginPageSetup
%%PageBoundingBox:    24    69   597   605
MathWorks begin
bpage
%%EndPageSetup

%%BeginObject: obj1
bplot

/dpi2point 8.33333 def
portraitMode -0158 5475 csm

  366   430  4774  4469 rc
84 dict begin %Colortable dictionary
/c0 { 0.000000 0.000000 0.000000 sr} bdef
/c1 { 1.000000 1.000000 1.000000 sr} bdef
/c2 { 0.900000 0.000000 0.000000 sr} bdef
/c3 { 0.000000 0.820000 0.000000 sr} bdef
/c4 { 0.000000 0.000000 0.800000 sr} bdef
/c5 { 0.910000 0.820000 0.320000 sr} bdef
/c6 { 1.000000 0.260000 0.820000 sr} bdef
/c7 { 0.000000 0.820000 0.820000 sr} bdef
c0
1 j
1 sg
   0    0 5651 5651 rf
12.5 w
0 3956 4237 0 0 -3956 848 4520 4 MP
PP
-4237 0 0 3956 4237 0 0 -3956 848 4520 5 MP stroke
gs 848 565 4238 3956 rc
16.6667 w
gr

16.6667 w
gs 848 565 4238 3956 rc
gr

0 sg
 819 3636 mt  877 3694 L
 877 3636 mt  819 3694 L
 819 3715 mt  877 3773 L
 877 3715 mt  819 3773 L
 819 3756 mt  877 3814 L
 877 3756 mt  819 3814 L
 819 4180 mt  877 4238 L
 877 4180 mt  819 4238 L
 820 4270 mt  878 4328 L
 878 4270 mt  820 4328 L
 820 4316 mt  878 4374 L
 878 4316 mt  820 4374 L
 821 4268 mt  879 4326 L
 879 4268 mt  821 4326 L
 821 4315 mt  879 4373 L
 879 4315 mt  821 4373 L
 822 4317 mt  880 4375 L
 880 4317 mt  822 4375 L
 823 4321 mt  881 4379 L
 881 4321 mt  823 4379 L
 824 4329 mt  882 4387 L
 882 4329 mt  824 4387 L
 826 4310 mt  884 4368 L
 884 4310 mt  826 4368 L
 826 4288 mt  884 4346 L
 884 4288 mt  826 4346 L
 827 4275 mt  885 4333 L
 885 4275 mt  827 4333 L
 828 4246 mt  886 4304 L
 886 4246 mt  828 4304 L
 828 4195 mt  886 4253 L
 886 4195 mt  828 4253 L
 829 4169 mt  887 4227 L
 887 4169 mt  829 4227 L
 829 4131 mt  887 4189 L
 887 4131 mt  829 4189 L
 829 4081 mt  887 4139 L
 887 4081 mt  829 4139 L
 830 4073 mt  888 4131 L
 888 4073 mt  830 4131 L
 830 4029 mt  888 4087 L
 888 4029 mt  830 4087 L
 831 3992 mt  889 4050 L
 889 3992 mt  831 4050 L
 831 3993 mt  889 4051 L
 889 3993 mt  831 4051 L
 831 3969 mt  889 4027 L
 889 3969 mt  831 4027 L
 832 3943 mt  890 4001 L
 890 3943 mt  832 4001 L
 832 3924 mt  890 3982 L
 890 3924 mt  832 3982 L
 833 3926 mt  891 3984 L
 891 3926 mt  833 3984 L
 834 3919 mt  892 3977 L
 892 3919 mt  834 3977 L
 834 3899 mt  892 3957 L
 892 3899 mt  834 3957 L
 835 3892 mt  893 3950 L
 893 3892 mt  835 3950 L
 836 3899 mt  894 3957 L
 894 3899 mt  836 3957 L
 837 3892 mt  895 3950 L
 895 3892 mt  837 3950 L
 837 3872 mt  895 3930 L
 895 3872 mt  837 3930 L
 838 3872 mt  896 3930 L
 896 3872 mt  838 3930 L
 839 3873 mt  897 3931 L
 897 3873 mt  839 3931 L
 840 3847 mt  898 3905 L
 898 3847 mt  840 3905 L
 840 3840 mt  898 3898 L
 898 3840 mt  840 3898 L
 841 3829 mt  899 3887 L
 899 3829 mt  841 3887 L
 842 3815 mt  900 3873 L
 900 3815 mt  842 3873 L
 843 3804 mt  901 3862 L
 901 3804 mt  843 3862 L
 843 3799 mt  901 3857 L
 901 3799 mt  843 3857 L
 844 3793 mt  902 3851 L
 902 3793 mt  844 3851 L
 844 3800 mt  902 3858 L
 902 3800 mt  844 3858 L
 845 3788 mt  903 3846 L
 903 3788 mt  845 3846 L
 846 3779 mt  904 3837 L
 904 3779 mt  846 3837 L
 846 3761 mt  904 3819 L
 904 3761 mt  846 3819 L
 847 3752 mt  905 3810 L
 905 3752 mt  847 3810 L
 848 3750 mt  906 3808 L
 906 3750 mt  848 3808 L
 849 3742 mt  907 3800 L
 907 3742 mt  849 3800 L
 850 3743 mt  908 3801 L
 908 3743 mt  850 3801 L
 851 3748 mt  909 3806 L
 909 3748 mt  851 3806 L
 852 3735 mt  910 3793 L
 910 3735 mt  852 3793 L
 853 3734 mt  911 3792 L
 911 3734 mt  853 3792 L
 854 3729 mt  912 3787 L
 912 3729 mt  854 3787 L
 855 3721 mt  913 3779 L
 913 3721 mt  855 3779 L
 856 3706 mt  914 3764 L
 914 3706 mt  856 3764 L
 856 3678 mt  914 3736 L
 914 3678 mt  856 3736 L
 857 3674 mt  915 3732 L
 915 3674 mt  857 3732 L
 858 3666 mt  916 3724 L
 916 3666 mt  858 3724 L
 859 3645 mt  917 3703 L
 917 3645 mt  859 3703 L
 860 3631 mt  918 3689 L
 918 3631 mt  860 3689 L
 861 3616 mt  919 3674 L
 919 3616 mt  861 3674 L
 862 3608 mt  920 3666 L
 920 3608 mt  862 3666 L
 863 3597 mt  921 3655 L
 921 3597 mt  863 3655 L
 864 3586 mt  922 3644 L
 922 3586 mt  864 3644 L
 865 3587 mt  923 3645 L
 923 3587 mt  865 3645 L
 866 3586 mt  924 3644 L
 924 3586 mt  866 3644 L
 868 3589 mt  926 3647 L
 926 3589 mt  868 3647 L
 869 3580 mt  927 3638 L
 927 3580 mt  869 3638 L
 870 3574 mt  928 3632 L
 928 3574 mt  870 3632 L
 871 3566 mt  929 3624 L
 929 3566 mt  871 3624 L
 871 3550 mt  929 3608 L
 929 3550 mt  871 3608 L
 873 3551 mt  931 3609 L
 931 3551 mt  873 3609 L
 874 3552 mt  932 3610 L
 932 3552 mt  874 3610 L
 875 3548 mt  933 3606 L
 933 3548 mt  875 3606 L
 875 3535 mt  933 3593 L
 933 3535 mt  875 3593 L
 876 3538 mt  934 3596 L
 934 3538 mt  876 3596 L
 877 3526 mt  935 3584 L
 935 3526 mt  877 3584 L
 878 3527 mt  936 3585 L
 936 3527 mt  878 3585 L
 879 3524 mt  937 3582 L
 937 3524 mt  879 3582 L
 881 3514 mt  939 3572 L
 939 3514 mt  881 3572 L
 882 3517 mt  940 3575 L
 940 3517 mt  882 3575 L
 884 3508 mt  942 3566 L
 942 3508 mt  884 3566 L
 885 3506 mt  943 3564 L
 943 3506 mt  885 3564 L
 886 3496 mt  944 3554 L
 944 3496 mt  886 3554 L
 887 3478 mt  945 3536 L
 945 3478 mt  887 3536 L
 887 3463 mt  945 3521 L
 945 3463 mt  887 3521 L
 889 3469 mt  947 3527 L
 947 3469 mt  889 3527 L
 891 3474 mt  949 3532 L
 949 3474 mt  891 3532 L
 893 3475 mt  951 3533 L
 951 3475 mt  893 3533 L
 893 3458 mt  951 3516 L
 951 3458 mt  893 3516 L
 894 3451 mt  952 3509 L
 952 3451 mt  894 3509 L
 896 3448 mt  954 3506 L
 954 3448 mt  896 3506 L
 896 3444 mt  954 3502 L
 954 3444 mt  896 3502 L
 897 3439 mt  955 3497 L
 955 3439 mt  897 3497 L
 898 3435 mt  956 3493 L
 956 3435 mt  898 3493 L
 900 3451 mt  958 3509 L
 958 3451 mt  900 3509 L
 901 3445 mt  959 3503 L
 959 3445 mt  901 3503 L
 902 3432 mt  960 3490 L
 960 3432 mt  902 3490 L
 903 3424 mt  961 3482 L
 961 3424 mt  903 3482 L
 904 3425 mt  962 3483 L
 962 3425 mt  904 3483 L
 904 3417 mt  962 3475 L
 962 3417 mt  904 3475 L
 904 3398 mt  962 3456 L
 962 3398 mt  904 3456 L
 905 3385 mt  963 3443 L
 963 3385 mt  905 3443 L
 907 3382 mt  965 3440 L
 965 3382 mt  907 3440 L
 909 3381 mt  967 3439 L
 967 3381 mt  909 3439 L
 910 3376 mt  968 3434 L
 968 3376 mt  910 3434 L
 911 3364 mt  969 3422 L
 969 3364 mt  911 3422 L
 913 3359 mt  971 3417 L
 971 3359 mt  913 3417 L
 915 3357 mt  973 3415 L
 973 3357 mt  915 3415 L
 918 3374 mt  976 3432 L
 976 3374 mt  918 3432 L
 919 3361 mt  977 3419 L
 977 3361 mt  919 3419 L
 921 3357 mt  979 3415 L
 979 3357 mt  921 3415 L
 922 3349 mt  980 3407 L
 980 3349 mt  922 3407 L
 924 3349 mt  982 3407 L
 982 3349 mt  924 3407 L
 925 3345 mt  983 3403 L
 983 3345 mt  925 3403 L
 926 3335 mt  984 3393 L
 984 3335 mt  926 3393 L
 925 3315 mt  983 3373 L
 983 3315 mt  925 3373 L
 927 3310 mt  985 3368 L
 985 3310 mt  927 3368 L
 929 3311 mt  987 3369 L
 987 3311 mt  929 3369 L
 931 3316 mt  989 3374 L
 989 3316 mt  931 3374 L
 935 3323 mt  993 3381 L
 993 3323 mt  935 3381 L
 937 3321 mt  995 3379 L
 995 3321 mt  937 3379 L
 939 3307 mt  997 3365 L
 997 3307 mt  939 3365 L
 941 3306 mt  999 3364 L
 999 3306 mt  941 3364 L
 942 3306 mt 1000 3364 L
1000 3306 mt  942 3364 L
 943 3294 mt 1001 3352 L
1001 3294 mt  943 3352 L
 945 3290 mt 1003 3348 L
1003 3290 mt  945 3348 L
 945 3283 mt 1003 3341 L
1003 3283 mt  945 3341 L
 947 3284 mt 1005 3342 L
1005 3284 mt  947 3342 L
 950 3284 mt 1008 3342 L
1008 3284 mt  950 3342 L
 953 3285 mt 1011 3343 L
1011 3285 mt  953 3343 L
 954 3281 mt 1012 3339 L
1012 3281 mt  954 3339 L
 955 3272 mt 1013 3330 L
1013 3272 mt  955 3330 L
 957 3274 mt 1015 3332 L
1015 3274 mt  957 3332 L
 959 3266 mt 1017 3324 L
1017 3266 mt  959 3324 L
 961 3267 mt 1019 3325 L
1019 3267 mt  961 3325 L
 960 3254 mt 1018 3312 L
1018 3254 mt  960 3312 L
 961 3241 mt 1019 3299 L
1019 3241 mt  961 3299 L
 962 3233 mt 1020 3291 L
1020 3233 mt  962 3291 L
 965 3240 mt 1023 3298 L
1023 3240 mt  965 3298 L
 968 3238 mt 1026 3296 L
1026 3238 mt  968 3296 L
 971 3243 mt 1029 3301 L
1029 3243 mt  971 3301 L
 974 3242 mt 1032 3300 L
1032 3242 mt  974 3300 L
 976 3236 mt 1034 3294 L
1034 3236 mt  976 3294 L
 978 3235 mt 1036 3293 L
1036 3235 mt  978 3293 L
 980 3234 mt 1038 3292 L
1038 3234 mt  980 3292 L
 982 3232 mt 1040 3290 L
1040 3232 mt  982 3290 L
 983 3224 mt 1041 3282 L
1041 3224 mt  983 3282 L
 985 3228 mt 1043 3286 L
1043 3228 mt  985 3286 L
 987 3231 mt 1045 3289 L
1045 3231 mt  987 3289 L
 987 3220 mt 1045 3278 L
1045 3220 mt  987 3278 L
 988 3208 mt 1046 3266 L
1046 3208 mt  988 3266 L
 990 3205 mt 1048 3263 L
1048 3205 mt  990 3263 L
 993 3203 mt 1051 3261 L
1051 3203 mt  993 3261 L
 998 3205 mt 1056 3263 L
1056 3205 mt  998 3263 L
1000 3196 mt 1058 3254 L
1058 3196 mt 1000 3254 L
1002 3199 mt 1060 3257 L
1060 3199 mt 1002 3257 L
1004 3185 mt 1062 3243 L
1062 3185 mt 1004 3243 L
1006 3185 mt 1064 3243 L
1064 3185 mt 1006 3243 L
1006 3170 mt 1064 3228 L
1064 3170 mt 1006 3228 L
1006 3165 mt 1064 3223 L
1064 3165 mt 1006 3223 L
1007 3159 mt 1065 3217 L
1065 3159 mt 1007 3217 L
1010 3161 mt 1068 3219 L
1068 3161 mt 1010 3219 L
1012 3151 mt 1070 3209 L
1070 3151 mt 1012 3209 L
1016 3154 mt 1074 3212 L
1074 3154 mt 1016 3212 L
1020 3154 mt 1078 3212 L
1078 3154 mt 1020 3212 L
1024 3155 mt 1082 3213 L
1082 3155 mt 1024 3213 L
1025 3150 mt 1083 3208 L
1083 3150 mt 1025 3208 L
1025 3139 mt 1083 3197 L
1083 3139 mt 1025 3197 L
1027 3136 mt 1085 3194 L
1085 3136 mt 1027 3194 L
1028 3131 mt 1086 3189 L
1086 3131 mt 1028 3189 L
1031 3135 mt 1089 3193 L
1089 3135 mt 1031 3193 L
1035 3142 mt 1093 3200 L
1093 3142 mt 1035 3200 L
1037 3131 mt 1095 3189 L
1095 3131 mt 1037 3189 L
1040 3124 mt 1098 3182 L
1098 3124 mt 1040 3182 L
1041 3122 mt 1099 3180 L
1099 3122 mt 1041 3180 L
1043 3121 mt 1101 3179 L
1101 3121 mt 1043 3179 L
1045 3117 mt 1103 3175 L
1103 3117 mt 1045 3175 L
1044 3103 mt 1102 3161 L
1102 3103 mt 1044 3161 L
1046 3098 mt 1104 3156 L
1104 3098 mt 1046 3156 L
1053 3105 mt 1111 3163 L
1111 3105 mt 1053 3163 L
1055 3105 mt 1113 3163 L
1113 3105 mt 1055 3163 L
1059 3102 mt 1117 3160 L
1117 3102 mt 1059 3160 L
1061 3096 mt 1119 3154 L
1119 3096 mt 1061 3154 L
1064 3097 mt 1122 3155 L
1122 3097 mt 1064 3155 L
1066 3105 mt 1124 3163 L
1124 3105 mt 1066 3163 L
1065 3087 mt 1123 3145 L
1123 3087 mt 1065 3145 L
1067 3085 mt 1125 3143 L
1125 3085 mt 1067 3143 L
1070 3080 mt 1128 3138 L
1128 3080 mt 1070 3138 L
1073 3076 mt 1131 3134 L
1131 3076 mt 1073 3134 L
1079 3084 mt 1137 3142 L
1137 3084 mt 1079 3142 L
1079 3074 mt 1137 3132 L
1137 3074 mt 1079 3132 L
1081 3071 mt 1139 3129 L
1139 3071 mt 1081 3129 L
1082 3061 mt 1140 3119 L
1140 3061 mt 1082 3119 L
1087 3057 mt 1145 3115 L
1145 3057 mt 1087 3115 L
1089 3054 mt 1147 3112 L
1147 3054 mt 1089 3112 L
1092 3050 mt 1150 3108 L
1150 3050 mt 1092 3108 L
1095 3049 mt 1153 3107 L
1153 3049 mt 1095 3107 L
1098 3053 mt 1156 3111 L
1156 3053 mt 1098 3111 L
1100 3051 mt 1158 3109 L
1158 3051 mt 1100 3109 L
1102 3045 mt 1160 3103 L
1160 3045 mt 1102 3103 L
1105 3044 mt 1163 3102 L
1163 3044 mt 1105 3102 L
1108 3046 mt 1166 3104 L
1166 3046 mt 1108 3104 L
1110 3040 mt 1168 3098 L
1168 3040 mt 1110 3098 L
1115 3040 mt 1173 3098 L
1173 3040 mt 1115 3098 L
1119 3039 mt 1177 3097 L
1177 3039 mt 1119 3097 L
1124 3040 mt 1182 3098 L
1182 3040 mt 1124 3098 L
1126 3040 mt 1184 3098 L
1184 3040 mt 1126 3098 L
1126 3030 mt 1184 3088 L
1184 3030 mt 1126 3088 L
1127 3024 mt 1185 3082 L
1185 3024 mt 1127 3082 L
1132 3023 mt 1190 3081 L
1190 3023 mt 1132 3081 L
1136 3027 mt 1194 3085 L
1194 3027 mt 1136 3085 L
1138 3025 mt 1196 3083 L
1196 3025 mt 1138 3083 L
1142 3028 mt 1200 3086 L
1200 3028 mt 1142 3086 L
1145 3026 mt 1203 3084 L
1203 3026 mt 1145 3084 L
1147 3019 mt 1205 3077 L
1205 3019 mt 1147 3077 L
1151 3017 mt 1209 3075 L
1209 3017 mt 1151 3075 L
1155 3015 mt 1213 3073 L
1213 3015 mt 1155 3073 L
1161 3017 mt 1219 3075 L
1219 3017 mt 1161 3075 L
1162 3009 mt 1220 3067 L
1220 3009 mt 1162 3067 L
1166 3011 mt 1224 3069 L
1224 3011 mt 1166 3069 L
1169 3005 mt 1227 3063 L
1227 3005 mt 1169 3063 L
1172 3003 mt 1230 3061 L
1230 3003 mt 1172 3061 L
1175 3003 mt 1233 3061 L
1233 3003 mt 1175 3061 L
1181 3005 mt 1239 3063 L
1239 3005 mt 1181 3063 L
1182 2998 mt 1240 3056 L
1240 2998 mt 1182 3056 L
1185 2988 mt 1243 3046 L
1243 2988 mt 1185 3046 L
1189 2989 mt 1247 3047 L
1247 2989 mt 1189 3047 L
1193 2985 mt 1251 3043 L
1251 2985 mt 1193 3043 L
1195 2980 mt 1253 3038 L
1253 2980 mt 1195 3038 L
1198 2976 mt 1256 3034 L
1256 2976 mt 1198 3034 L
1200 2976 mt 1258 3034 L
1258 2976 mt 1200 3034 L
1201 2971 mt 1259 3029 L
1259 2971 mt 1201 3029 L
1207 2972 mt 1265 3030 L
1265 2972 mt 1207 3030 L
1212 2967 mt 1270 3025 L
1270 2967 mt 1212 3025 L
1217 2964 mt 1275 3022 L
1275 2964 mt 1217 3022 L
1221 2962 mt 1279 3020 L
1279 2962 mt 1221 3020 L
1224 2961 mt 1282 3019 L
1282 2961 mt 1224 3019 L
1228 2961 mt 1286 3019 L
1286 2961 mt 1228 3019 L
1232 2956 mt 1290 3014 L
1290 2956 mt 1232 3014 L
1234 2951 mt 1292 3009 L
1292 2951 mt 1234 3009 L
1239 2949 mt 1297 3007 L
1297 2949 mt 1239 3007 L
1245 2950 mt 1303 3008 L
1303 2950 mt 1245 3008 L
1251 2951 mt 1309 3009 L
1309 2951 mt 1251 3009 L
1254 2947 mt 1312 3005 L
1312 2947 mt 1254 3005 L
1257 2943 mt 1315 3001 L
1315 2943 mt 1257 3001 L
1258 2939 mt 1316 2997 L
1316 2939 mt 1258 2997 L
1260 2939 mt 1318 2997 L
1318 2939 mt 1260 2997 L
1263 2935 mt 1321 2993 L
1321 2935 mt 1263 2993 L
1271 2939 mt 1329 2997 L
1329 2939 mt 1271 2997 L
1276 2935 mt 1334 2993 L
1334 2935 mt 1276 2993 L
1277 2927 mt 1335 2985 L
1335 2927 mt 1277 2985 L
1280 2928 mt 1338 2986 L
1338 2928 mt 1280 2986 L
1282 2928 mt 1340 2986 L
1340 2928 mt 1282 2986 L
1288 2928 mt 1346 2986 L
1346 2928 mt 1288 2986 L
1295 2928 mt 1353 2986 L
1353 2928 mt 1295 2986 L
1298 2925 mt 1356 2983 L
1356 2925 mt 1298 2983 L
1300 2914 mt 1358 2972 L
1358 2914 mt 1300 2972 L
1303 2914 mt 1361 2972 L
1361 2914 mt 1303 2972 L
1310 2917 mt 1368 2975 L
1368 2917 mt 1310 2975 L
1315 2915 mt 1373 2973 L
1373 2915 mt 1315 2973 L
1320 2912 mt 1378 2970 L
1378 2912 mt 1320 2970 L
1322 2905 mt 1380 2963 L
1380 2905 mt 1322 2963 L
1328 2908 mt 1386 2966 L
1386 2908 mt 1328 2966 L
1333 2907 mt 1391 2965 L
1391 2907 mt 1333 2965 L
1343 2912 mt 1401 2970 L
1401 2912 mt 1343 2970 L
1345 2901 mt 1403 2959 L
1403 2901 mt 1345 2959 L
1349 2899 mt 1407 2957 L
1407 2899 mt 1349 2957 L
1353 2896 mt 1411 2954 L
1411 2896 mt 1353 2954 L
1357 2892 mt 1415 2950 L
1415 2892 mt 1357 2950 L
1362 2896 mt 1420 2954 L
1420 2896 mt 1362 2954 L
1371 2898 mt 1429 2956 L
1429 2898 mt 1371 2956 L
1374 2890 mt 1432 2948 L
1432 2890 mt 1374 2948 L
1376 2881 mt 1434 2939 L
1434 2881 mt 1376 2939 L
1383 2883 mt 1441 2941 L
1441 2883 mt 1383 2941 L
1388 2879 mt 1446 2937 L
1446 2879 mt 1388 2937 L
1396 2885 mt 1454 2943 L
1454 2885 mt 1396 2943 L
1400 2882 mt 1458 2940 L
1458 2882 mt 1400 2940 L
1401 2879 mt 1459 2937 L
1459 2879 mt 1401 2937 L
1405 2874 mt 1463 2932 L
1463 2874 mt 1405 2932 L
1412 2877 mt 1470 2935 L
1470 2877 mt 1412 2935 L
1410 2870 mt 1468 2928 L
1468 2870 mt 1410 2928 L
1419 2872 mt 1477 2930 L
1477 2872 mt 1419 2930 L
1428 2879 mt 1486 2937 L
1486 2879 mt 1428 2937 L
1432 2875 mt 1490 2933 L
1490 2875 mt 1432 2933 L
1435 2875 mt 1493 2933 L
1493 2875 mt 1435 2933 L
1443 2876 mt 1501 2934 L
1501 2876 mt 1443 2934 L
1447 2874 mt 1505 2932 L
1505 2874 mt 1447 2932 L
1453 2873 mt 1511 2931 L
1511 2873 mt 1453 2931 L
1461 2878 mt 1519 2936 L
1519 2878 mt 1461 2936 L
1460 2871 mt 1518 2929 L
1518 2871 mt 1460 2929 L
1467 2870 mt 1525 2928 L
1525 2870 mt 1467 2928 L
1476 2874 mt 1534 2932 L
1534 2874 mt 1476 2932 L
1477 2862 mt 1535 2920 L
1535 2862 mt 1477 2920 L
1483 2864 mt 1541 2922 L
1541 2864 mt 1483 2922 L
1489 2865 mt 1547 2923 L
1547 2865 mt 1489 2923 L
1495 2863 mt 1553 2921 L
1553 2863 mt 1495 2921 L
1506 2865 mt 1564 2923 L
1564 2865 mt 1506 2923 L
1505 2864 mt 1563 2922 L
1563 2864 mt 1505 2922 L
1510 2863 mt 1568 2921 L
1568 2863 mt 1510 2921 L
1520 2862 mt 1578 2920 L
1578 2862 mt 1520 2920 L
1530 2862 mt 1588 2920 L
1588 2862 mt 1530 2920 L
1532 2855 mt 1590 2913 L
1590 2855 mt 1532 2913 L
1537 2853 mt 1595 2911 L
1595 2853 mt 1537 2911 L
1541 2854 mt 1599 2912 L
1599 2854 mt 1541 2912 L
1549 2856 mt 1607 2914 L
1607 2856 mt 1549 2914 L
1553 2848 mt 1611 2906 L
1611 2848 mt 1553 2906 L
1558 2846 mt 1616 2904 L
1616 2846 mt 1558 2904 L
1563 2842 mt 1621 2900 L
1621 2842 mt 1563 2900 L
1570 2839 mt 1628 2897 L
1628 2839 mt 1570 2897 L
1581 2842 mt 1639 2900 L
1639 2842 mt 1581 2900 L
1587 2836 mt 1645 2894 L
1645 2836 mt 1587 2894 L
1590 2839 mt 1648 2897 L
1648 2839 mt 1590 2897 L
1596 2837 mt 1654 2895 L
1654 2837 mt 1596 2895 L
1606 2837 mt 1664 2895 L
1664 2837 mt 1606 2895 L
1608 2835 mt 1666 2893 L
1666 2835 mt 1608 2893 L
1620 2835 mt 1678 2893 L
1678 2835 mt 1620 2893 L
1628 2828 mt 1686 2886 L
1686 2828 mt 1628 2886 L
1633 2828 mt 1691 2886 L
1691 2828 mt 1633 2886 L
1641 2833 mt 1699 2891 L
1699 2833 mt 1641 2891 L
1642 2820 mt 1700 2878 L
1700 2820 mt 1642 2878 L
1651 2829 mt 1709 2887 L
1709 2829 mt 1651 2887 L
1656 2822 mt 1714 2880 L
1714 2822 mt 1656 2880 L
1666 2820 mt 1724 2878 L
1724 2820 mt 1666 2878 L
1668 2812 mt 1726 2870 L
1726 2812 mt 1668 2870 L
1679 2815 mt 1737 2873 L
1737 2815 mt 1679 2873 L
1690 2810 mt 1748 2868 L
1748 2810 mt 1690 2868 L
1699 2810 mt 1757 2868 L
1757 2810 mt 1699 2868 L
1705 2810 mt 1763 2868 L
1763 2810 mt 1705 2868 L
1707 2806 mt 1765 2864 L
1765 2806 mt 1707 2864 L
1716 2807 mt 1774 2865 L
1774 2807 mt 1716 2865 L
1726 2804 mt 1784 2862 L
1784 2804 mt 1726 2862 L
1727 2798 mt 1785 2856 L
1785 2798 mt 1727 2856 L
1735 2797 mt 1793 2855 L
1793 2797 mt 1735 2855 L
1748 2795 mt 1806 2853 L
1806 2795 mt 1748 2853 L
1762 2803 mt 1820 2861 L
1820 2803 mt 1762 2861 L
1764 2798 mt 1822 2856 L
1822 2798 mt 1764 2856 L
1768 2793 mt 1826 2851 L
1826 2793 mt 1768 2851 L
1781 2798 mt 1839 2856 L
1839 2798 mt 1781 2856 L
1783 2791 mt 1841 2849 L
1841 2791 mt 1783 2849 L
1789 2791 mt 1847 2849 L
1847 2791 mt 1789 2849 L
1808 2798 mt 1866 2856 L
1866 2798 mt 1808 2856 L
1812 2790 mt 1870 2848 L
1870 2790 mt 1812 2848 L
1813 2783 mt 1871 2841 L
1871 2783 mt 1813 2841 L
1822 2784 mt 1880 2842 L
1880 2784 mt 1822 2842 L
1833 2781 mt 1891 2839 L
1891 2781 mt 1833 2839 L
1841 2780 mt 1899 2838 L
1899 2780 mt 1841 2838 L
1845 2776 mt 1903 2834 L
1903 2776 mt 1845 2834 L
1855 2776 mt 1913 2834 L
1913 2776 mt 1855 2834 L
1856 2763 mt 1914 2821 L
1914 2763 mt 1856 2821 L
1867 2766 mt 1925 2824 L
1925 2766 mt 1867 2824 L
1881 2766 mt 1939 2824 L
1939 2766 mt 1881 2824 L
1886 2761 mt 1944 2819 L
1944 2761 mt 1886 2819 L
1895 2761 mt 1953 2819 L
1953 2761 mt 1895 2819 L
1908 2762 mt 1966 2820 L
1966 2762 mt 1908 2820 L
1914 2757 mt 1972 2815 L
1972 2757 mt 1914 2815 L
1915 2753 mt 1973 2811 L
1973 2753 mt 1915 2811 L
1929 2757 mt 1987 2815 L
1987 2757 mt 1929 2815 L
1942 2757 mt 2000 2815 L
2000 2757 mt 1942 2815 L
1948 2753 mt 2006 2811 L
2006 2753 mt 1948 2811 L
1963 2754 mt 2021 2812 L
2021 2754 mt 1963 2812 L
1971 2755 mt 2029 2813 L
2029 2755 mt 1971 2813 L
1971 2750 mt 2029 2808 L
2029 2750 mt 1971 2808 L
1980 2746 mt 2038 2804 L
2038 2746 mt 1980 2804 L
1997 2748 mt 2055 2806 L
2055 2748 mt 1997 2806 L
2007 2747 mt 2065 2805 L
2065 2747 mt 2007 2805 L
2009 2742 mt 2067 2800 L
2067 2742 mt 2009 2800 L
2022 2744 mt 2080 2802 L
2080 2744 mt 2022 2802 L
2036 2746 mt 2094 2804 L
2094 2746 mt 2036 2804 L
2047 2745 mt 2105 2803 L
2105 2745 mt 2047 2803 L
2057 2743 mt 2115 2801 L
2115 2743 mt 2057 2801 L
2063 2744 mt 2121 2802 L
2121 2744 mt 2063 2802 L
2076 2739 mt 2134 2797 L
2134 2739 mt 2076 2797 L
2092 2741 mt 2150 2799 L
2150 2741 mt 2092 2799 L
2101 2737 mt 2159 2795 L
2159 2737 mt 2101 2795 L
2110 2736 mt 2168 2794 L
2168 2736 mt 2110 2794 L
2118 2729 mt 2176 2787 L
2176 2729 mt 2118 2787 L
2134 2730 mt 2192 2788 L
2192 2730 mt 2134 2788 L
2148 2730 mt 2206 2788 L
2206 2730 mt 2148 2788 L
2150 2724 mt 2208 2782 L
2208 2724 mt 2150 2782 L
2163 2727 mt 2221 2785 L
2221 2727 mt 2163 2785 L
2176 2726 mt 2234 2784 L
2234 2726 mt 2176 2784 L
2187 2726 mt 2245 2784 L
2245 2726 mt 2187 2784 L
2203 2724 mt 2261 2782 L
2261 2724 mt 2203 2782 L
2206 2720 mt 2264 2778 L
2264 2720 mt 2206 2778 L
2219 2720 mt 2277 2778 L
2277 2720 mt 2219 2778 L
2232 2719 mt 2290 2777 L
2290 2719 mt 2232 2777 L
2246 2719 mt 2304 2777 L
2304 2719 mt 2246 2777 L
2259 2718 mt 2317 2776 L
2317 2718 mt 2259 2776 L
2272 2719 mt 2330 2777 L
2330 2719 mt 2272 2777 L
2284 2719 mt 2342 2777 L
2342 2719 mt 2284 2777 L
2292 2712 mt 2350 2770 L
2350 2712 mt 2292 2770 L
2303 2713 mt 2361 2771 L
2361 2713 mt 2303 2771 L
2318 2710 mt 2376 2768 L
2376 2710 mt 2318 2768 L
2330 2711 mt 2388 2769 L
2388 2711 mt 2330 2769 L
2342 2711 mt 2400 2769 L
2400 2711 mt 2342 2769 L
2358 2708 mt 2416 2766 L
2416 2708 mt 2358 2766 L
2363 2703 mt 2421 2761 L
2421 2703 mt 2363 2761 L
2372 2697 mt 2430 2755 L
2430 2697 mt 2372 2755 L
2393 2701 mt 2451 2759 L
2451 2701 mt 2393 2759 L
2400 2699 mt 2458 2757 L
2458 2699 mt 2400 2757 L
2415 2694 mt 2473 2752 L
2473 2694 mt 2415 2752 L
2430 2697 mt 2488 2755 L
2488 2697 mt 2430 2755 L
2442 2699 mt 2500 2757 L
2500 2699 mt 2442 2757 L
2455 2698 mt 2513 2756 L
2513 2698 mt 2455 2756 L
2471 2696 mt 2529 2754 L
2529 2696 mt 2471 2754 L
2485 2695 mt 2543 2753 L
2543 2695 mt 2485 2753 L
2504 2692 mt 2562 2750 L
2562 2692 mt 2504 2750 L
2517 2691 mt 2575 2749 L
2575 2691 mt 2517 2749 L
2526 2688 mt 2584 2746 L
2584 2688 mt 2526 2746 L
2538 2689 mt 2596 2747 L
2596 2689 mt 2538 2747 L
2558 2693 mt 2616 2751 L
2616 2693 mt 2558 2751 L
2565 2684 mt 2623 2742 L
2623 2684 mt 2565 2742 L
2581 2688 mt 2639 2746 L
2639 2688 mt 2581 2746 L
2598 2688 mt 2656 2746 L
2656 2688 mt 2598 2746 L
2606 2686 mt 2664 2744 L
2664 2686 mt 2606 2744 L
2620 2685 mt 2678 2743 L
2678 2685 mt 2620 2743 L
2636 2684 mt 2694 2742 L
2694 2684 mt 2636 2742 L
2647 2683 mt 2705 2741 L
2705 2683 mt 2647 2741 L
2662 2683 mt 2720 2741 L
2720 2683 mt 2662 2741 L
2674 2678 mt 2732 2736 L
2732 2678 mt 2674 2736 L
2684 2678 mt 2742 2736 L
2742 2678 mt 2684 2736 L
2698 2675 mt 2756 2733 L
2756 2675 mt 2698 2733 L
2714 2674 mt 2772 2732 L
2772 2674 mt 2714 2732 L
2731 2674 mt 2789 2732 L
2789 2674 mt 2731 2732 L
2748 2670 mt 2806 2728 L
2806 2670 mt 2748 2728 L
2767 2671 mt 2825 2729 L
2825 2671 mt 2767 2729 L
2780 2671 mt 2838 2729 L
2838 2671 mt 2780 2729 L
2793 2671 mt 2851 2729 L
2851 2671 mt 2793 2729 L
2809 2670 mt 2867 2728 L
2867 2670 mt 2809 2728 L
2825 2670 mt 2883 2728 L
2883 2670 mt 2825 2728 L
2842 2672 mt 2900 2730 L
2900 2672 mt 2842 2730 L
2850 2669 mt 2908 2727 L
2908 2669 mt 2850 2727 L
2875 2670 mt 2933 2728 L
2933 2670 mt 2875 2728 L
2867 2664 mt 2925 2722 L
2925 2664 mt 2867 2722 L
2907 2670 mt 2965 2728 L
2965 2670 mt 2907 2728 L
2910 2661 mt 2968 2719 L
2968 2661 mt 2910 2719 L
2933 2664 mt 2991 2722 L
2991 2664 mt 2933 2722 L
2951 2660 mt 3009 2718 L
3009 2660 mt 2951 2718 L
2969 2659 mt 3027 2717 L
3027 2659 mt 2969 2717 L
2984 2659 mt 3042 2717 L
3042 2659 mt 2984 2717 L
2999 2657 mt 3057 2715 L
3057 2657 mt 2999 2715 L
3012 2656 mt 3070 2714 L
3070 2656 mt 3012 2714 L
3028 2659 mt 3086 2717 L
3086 2659 mt 3028 2717 L
3053 2656 mt 3111 2714 L
3111 2656 mt 3053 2714 L
3068 2657 mt 3126 2715 L
3126 2657 mt 3068 2715 L
3087 2656 mt 3145 2714 L
3145 2656 mt 3087 2714 L
3098 2653 mt 3156 2711 L
3156 2653 mt 3098 2711 L
3122 2656 mt 3180 2714 L
3180 2656 mt 3122 2714 L
3132 2650 mt 3190 2708 L
3190 2650 mt 3132 2708 L
3141 2654 mt 3199 2712 L
3199 2654 mt 3141 2712 L
3154 2648 mt 3212 2706 L
3212 2648 mt 3154 2706 L
3175 2650 mt 3233 2708 L
3233 2650 mt 3175 2708 L
3198 2647 mt 3256 2705 L
3256 2647 mt 3198 2705 L
3216 2648 mt 3274 2706 L
3274 2648 mt 3216 2706 L
3234 2646 mt 3292 2704 L
3292 2646 mt 3234 2704 L
3255 2647 mt 3313 2705 L
3313 2647 mt 3255 2705 L
3266 2641 mt 3324 2699 L
3324 2641 mt 3266 2699 L
3293 2646 mt 3351 2704 L
3351 2646 mt 3293 2704 L
3304 2644 mt 3362 2702 L
3362 2644 mt 3304 2702 L
3328 2643 mt 3386 2701 L
3386 2643 mt 3328 2701 L
3348 2642 mt 3406 2700 L
3406 2642 mt 3348 2700 L
3369 2641 mt 3427 2699 L
3427 2641 mt 3369 2699 L
3388 2642 mt 3446 2700 L
3446 2642 mt 3388 2700 L
3409 2642 mt 3467 2700 L
3467 2642 mt 3409 2700 L
3432 2638 mt 3490 2696 L
3490 2638 mt 3432 2696 L
3448 2637 mt 3506 2695 L
3506 2637 mt 3448 2695 L
3468 2639 mt 3526 2697 L
3526 2639 mt 3468 2697 L
3487 2639 mt 3545 2697 L
3545 2639 mt 3487 2697 L
3500 2633 mt 3558 2691 L
3558 2633 mt 3500 2691 L
3524 2633 mt 3582 2691 L
3582 2633 mt 3524 2691 L
3546 2636 mt 3604 2694 L
3604 2636 mt 3546 2694 L
3568 2634 mt 3626 2692 L
3626 2634 mt 3568 2692 L
3580 2632 mt 3638 2690 L
3638 2632 mt 3580 2690 L
3605 2629 mt 3663 2687 L
3663 2629 mt 3605 2687 L
3626 2625 mt 3684 2683 L
3684 2625 mt 3626 2683 L
3648 2628 mt 3706 2686 L
3706 2628 mt 3648 2686 L
3667 2626 mt 3725 2684 L
3725 2626 mt 3667 2684 L
3683 2626 mt 3741 2684 L
3741 2626 mt 3683 2684 L
3711 2624 mt 3769 2682 L
3769 2624 mt 3711 2682 L
3730 2621 mt 3788 2679 L
3788 2621 mt 3730 2679 L
3747 2619 mt 3805 2677 L
3805 2619 mt 3747 2677 L
3775 2621 mt 3833 2679 L
3833 2621 mt 3775 2679 L
3788 2619 mt 3846 2677 L
3846 2619 mt 3788 2677 L
3813 2612 mt 3871 2670 L
3871 2612 mt 3813 2670 L
3836 2616 mt 3894 2674 L
3894 2616 mt 3836 2674 L
3846 2613 mt 3904 2671 L
3904 2613 mt 3846 2671 L
3870 2613 mt 3928 2671 L
3928 2613 mt 3870 2671 L
3902 2611 mt 3960 2669 L
3960 2611 mt 3902 2669 L
3933 2612 mt 3991 2670 L
3991 2612 mt 3933 2670 L
3954 2603 mt 4012 2661 L
4012 2603 mt 3954 2661 L
3983 2607 mt 4041 2665 L
4041 2607 mt 3983 2665 L
4008 2606 mt 4066 2664 L
4066 2606 mt 4008 2664 L
4028 2605 mt 4086 2663 L
4086 2605 mt 4028 2663 L
4054 2602 mt 4112 2660 L
4112 2602 mt 4054 2660 L
4083 2602 mt 4141 2660 L
4141 2602 mt 4083 2660 L
4103 2599 mt 4161 2657 L
4161 2599 mt 4103 2657 L
4135 2598 mt 4193 2656 L
4193 2598 mt 4135 2656 L
4158 2600 mt 4216 2658 L
4216 2600 mt 4158 2658 L
4179 2594 mt 4237 2652 L
4237 2594 mt 4179 2652 L
4210 2599 mt 4268 2657 L
4268 2599 mt 4210 2657 L
4238 2598 mt 4296 2656 L
4296 2598 mt 4238 2656 L
4259 2594 mt 4317 2652 L
4317 2594 mt 4259 2652 L
4290 2592 mt 4348 2650 L
4348 2592 mt 4290 2650 L
4318 2594 mt 4376 2652 L
4376 2594 mt 4318 2652 L
4339 2592 mt 4397 2650 L
4397 2592 mt 4339 2650 L
4375 2593 mt 4433 2651 L
4433 2593 mt 4375 2651 L
4393 2589 mt 4451 2647 L
4451 2589 mt 4393 2647 L
4415 2590 mt 4473 2648 L
4473 2590 mt 4415 2648 L
4441 2589 mt 4499 2647 L
4499 2589 mt 4441 2647 L
4472 2588 mt 4530 2646 L
4530 2588 mt 4472 2646 L
4498 2582 mt 4556 2640 L
4556 2582 mt 4498 2640 L
4530 2583 mt 4588 2641 L
4588 2583 mt 4530 2641 L
4555 2582 mt 4613 2640 L
4613 2582 mt 4555 2640 L
4587 2586 mt 4645 2644 L
4645 2586 mt 4587 2644 L
4617 2585 mt 4675 2643 L
4675 2585 mt 4617 2643 L
4645 2583 mt 4703 2641 L
4703 2583 mt 4645 2641 L
4671 2583 mt 4729 2641 L
4729 2583 mt 4671 2641 L
3106 1953 mt 3164 2011 L
3164 1953 mt 3106 2011 L
2723 1789 mt 2781 1847 L
2781 1789 mt 2723 1847 L
2602 1748 mt 2660 1806 L
2660 1748 mt 2602 1806 L
2508 1722 mt 2566 1780 L
2566 1722 mt 2508 1780 L
2424 1702 mt 2482 1760 L
2482 1702 mt 2424 1760 L
2354 1679 mt 2412 1737 L
2412 1679 mt 2354 1737 L
2292 1655 mt 2350 1713 L
2350 1655 mt 2292 1713 L
2232 1646 mt 2290 1704 L
2290 1646 mt 2232 1704 L
2176 1618 mt 2234 1676 L
2234 1618 mt 2176 1676 L
2118 1604 mt 2176 1662 L
2176 1604 mt 2118 1662 L
2070 1598 mt 2128 1656 L
2128 1598 mt 2070 1656 L
2025 1583 mt 2083 1641 L
2083 1583 mt 2025 1641 L
1980 1572 mt 2038 1630 L
2038 1572 mt 1980 1630 L
1935 1562 mt 1993 1620 L
1993 1562 mt 1935 1620 L
1889 1536 mt 1947 1594 L
1947 1536 mt 1889 1594 L
1850 1525 mt 1908 1583 L
1908 1525 mt 1850 1583 L
1808 1501 mt 1866 1559 L
1866 1501 mt 1808 1559 L
1762 1471 mt 1820 1529 L
1820 1471 mt 1762 1529 L
1726 1463 mt 1784 1521 L
1784 1463 mt 1726 1521 L
1688 1439 mt 1746 1497 L
1746 1439 mt 1688 1497 L
1654 1421 mt 1712 1479 L
1712 1421 mt 1654 1479 L
1617 1396 mt 1675 1454 L
1675 1396 mt 1617 1454 L
1581 1377 mt 1639 1435 L
1639 1377 mt 1581 1435 L
1550 1356 mt 1608 1414 L
1608 1356 mt 1550 1414 L
1522 1339 mt 1580 1397 L
1580 1339 mt 1522 1397 L
1495 1318 mt 1553 1376 L
1553 1318 mt 1495 1376 L
1471 1301 mt 1529 1359 L
1529 1301 mt 1471 1359 L
1447 1290 mt 1505 1348 L
1505 1290 mt 1447 1348 L
1420 1267 mt 1478 1325 L
1478 1267 mt 1420 1325 L
1390 1236 mt 1448 1294 L
1448 1236 mt 1390 1294 L
1364 1207 mt 1422 1265 L
1422 1207 mt 1364 1265 L
1341 1182 mt 1399 1240 L
1399 1182 mt 1341 1240 L
1319 1157 mt 1377 1215 L
1377 1157 mt 1319 1215 L
1295 1123 mt 1353 1181 L
1353 1123 mt 1295 1181 L
1272 1095 mt 1330 1153 L
1330 1095 mt 1272 1153 L
1253 1068 mt 1311 1126 L
1311 1068 mt 1253 1126 L
1236 1056 mt 1294 1114 L
1294 1056 mt 1236 1114 L
1220 1045 mt 1278 1103 L
1278 1045 mt 1220 1103 L
1203 1019 mt 1261 1077 L
1261 1019 mt 1203 1077 L
1187  998 mt 1245 1056 L
1245  998 mt 1187 1056 L
1168  961 mt 1226 1019 L
1226  961 mt 1168 1019 L
1149  927 mt 1207  985 L
1207  927 mt 1149  985 L
1133  911 mt 1191  969 L
1191  911 mt 1133  969 L
1115  860 mt 1173  918 L
1173  860 mt 1115  918 L
1100  853 mt 1158  911 L
1158  853 mt 1100  911 L
1089  814 mt 1147  872 L
1147  814 mt 1089  872 L
1078  785 mt 1136  843 L
1136  785 mt 1078  843 L
1064  755 mt 1122  813 L
1122  755 mt 1064  813 L
1054  726 mt 1112  784 L
1112  726 mt 1054  784 L
1043  717 mt 1101  775 L
1101  717 mt 1043  775 L
1032  674 mt 1090  732 L
1090  674 mt 1032  732 L
1021  654 mt 1079  712 L
1079  654 mt 1021  712 L
1012  638 mt 1070  696 L
1070  638 mt 1012  696 L
1001  610 mt 1059  668 L
1059  610 mt 1001  668 L
 989  567 mt 1047  625 L
1047  567 mt  989  625 L
 980  541 mt 1038  599 L
1038  541 mt  980  599 L
gs 848 565 4238 3956 rc
gr

0.1 sg
%%IncludeResource: font Helvetica-Bold
/Helvetica-Bold /ISOLatin1Encoding 183.333 FMSR

2331 4841 mt 
(Vertical Stress) s
 559 3516 mt  -90 rotate
(Lateral Pressure Ratio) s
90 rotate
gs 848 565 4238 3956 rc
gr

/c8 { 1.000000 0.000000 0.000000 sr} bdef
c8
 819 3735 mt  877 3793 L
 877 3735 mt  819 3793 L
gs 848 565 4238 3956 rc
gr

 820 4471 mt  878 4529 L
 878 4471 mt  820 4529 L
 821 4391 mt  879 4449 L
 879 4391 mt  821 4449 L
 821 4327 mt  879 4385 L
 879 4327 mt  821 4385 L
 822 4220 mt  880 4278 L
 880 4220 mt  822 4278 L
 822 4157 mt  880 4215 L
 880 4157 mt  822 4215 L
 823 4143 mt  881 4201 L
 881 4143 mt  823 4201 L
 823 4063 mt  881 4121 L
 881 4063 mt  823 4121 L
 824 3998 mt  882 4056 L
 882 3998 mt  824 4056 L
 825 3943 mt  883 4001 L
 883 3943 mt  825 4001 L
 826 3910 mt  884 3968 L
 884 3910 mt  826 3968 L
 826 3845 mt  884 3903 L
 884 3845 mt  826 3903 L
 827 3828 mt  885 3886 L
 885 3828 mt  827 3886 L
 828 3838 mt  886 3896 L
 886 3838 mt  828 3896 L
 828 3836 mt  886 3894 L
 886 3836 mt  828 3894 L
 829 3820 mt  887 3878 L
 887 3820 mt  829 3878 L
 829 3780 mt  887 3838 L
 887 3780 mt  829 3838 L
 830 3771 mt  888 3829 L
 888 3771 mt  830 3829 L
 830 3744 mt  888 3802 L
 888 3744 mt  830 3802 L
 830 3775 mt  888 3833 L
 888 3775 mt  830 3833 L
 831 3778 mt  889 3836 L
 889 3778 mt  831 3836 L
 831 3721 mt  889 3779 L
 889 3721 mt  831 3779 L
 831 3665 mt  889 3723 L
 889 3665 mt  831 3723 L
 832 3672 mt  890 3730 L
 890 3672 mt  832 3730 L
 832 3631 mt  890 3689 L
 890 3631 mt  832 3689 L
 833 3599 mt  891 3657 L
 891 3599 mt  833 3657 L
 833 3579 mt  891 3637 L
 891 3579 mt  833 3637 L
 834 3558 mt  892 3616 L
 892 3558 mt  834 3616 L
 835 3568 mt  893 3626 L
 893 3568 mt  835 3626 L
 835 3580 mt  893 3638 L
 893 3580 mt  835 3638 L
 836 3590 mt  894 3648 L
 894 3590 mt  836 3648 L
 837 3598 mt  895 3656 L
 895 3598 mt  837 3656 L
 837 3547 mt  895 3605 L
 895 3547 mt  837 3605 L
 838 3548 mt  896 3606 L
 896 3548 mt  838 3606 L
 838 3560 mt  896 3618 L
 896 3560 mt  838 3618 L
 839 3583 mt  897 3641 L
 897 3583 mt  839 3641 L
 840 3553 mt  898 3611 L
 898 3553 mt  840 3611 L
 841 3582 mt  899 3640 L
 899 3582 mt  841 3640 L
 841 3571 mt  899 3629 L
 899 3571 mt  841 3629 L
 841 3525 mt  899 3583 L
 899 3525 mt  841 3583 L
 842 3516 mt  900 3574 L
 900 3516 mt  842 3574 L
 843 3488 mt  901 3546 L
 901 3488 mt  843 3546 L
 844 3484 mt  902 3542 L
 902 3484 mt  844 3542 L
 844 3482 mt  902 3540 L
 902 3482 mt  844 3540 L
 845 3476 mt  903 3534 L
 903 3476 mt  845 3534 L
 847 3480 mt  905 3538 L
 905 3480 mt  847 3538 L
 849 3496 mt  907 3554 L
 907 3496 mt  849 3554 L
 850 3526 mt  908 3584 L
 908 3526 mt  850 3584 L
 851 3526 mt  909 3584 L
 909 3526 mt  851 3584 L
 851 3502 mt  909 3560 L
 909 3502 mt  851 3560 L
 852 3492 mt  910 3550 L
 910 3492 mt  852 3550 L
 853 3483 mt  911 3541 L
 911 3483 mt  853 3541 L
 854 3470 mt  912 3528 L
 912 3470 mt  854 3528 L
 854 3465 mt  912 3523 L
 912 3465 mt  854 3523 L
 853 3445 mt  911 3503 L
 911 3445 mt  853 3503 L
 854 3447 mt  912 3505 L
 912 3447 mt  854 3505 L
 855 3444 mt  913 3502 L
 913 3444 mt  855 3502 L
 857 3447 mt  915 3505 L
 915 3447 mt  857 3505 L
 858 3449 mt  916 3507 L
 916 3449 mt  858 3507 L
 858 3438 mt  916 3496 L
 916 3438 mt  858 3496 L
 859 3426 mt  917 3484 L
 917 3426 mt  859 3484 L
 861 3449 mt  919 3507 L
 919 3449 mt  861 3507 L
 862 3424 mt  920 3482 L
 920 3424 mt  862 3482 L
 863 3410 mt  921 3468 L
 921 3410 mt  863 3468 L
 864 3407 mt  922 3465 L
 922 3407 mt  864 3465 L
 865 3418 mt  923 3476 L
 923 3418 mt  865 3476 L
 867 3434 mt  925 3492 L
 925 3434 mt  867 3492 L
 868 3428 mt  926 3486 L
 926 3428 mt  868 3486 L
 868 3427 mt  926 3485 L
 926 3427 mt  868 3485 L
 869 3417 mt  927 3475 L
 927 3417 mt  869 3475 L
 870 3408 mt  928 3466 L
 928 3408 mt  870 3466 L
 870 3390 mt  928 3448 L
 928 3390 mt  870 3448 L
 871 3376 mt  929 3434 L
 929 3376 mt  871 3434 L
 872 3375 mt  930 3433 L
 930 3375 mt  872 3433 L
 873 3347 mt  931 3405 L
 931 3347 mt  873 3405 L
 875 3329 mt  933 3387 L
 933 3329 mt  875 3387 L
 874 3300 mt  932 3358 L
 932 3300 mt  874 3358 L
 875 3290 mt  933 3348 L
 933 3290 mt  875 3348 L
 875 3287 mt  933 3345 L
 933 3287 mt  875 3345 L
 875 3254 mt  933 3312 L
 933 3254 mt  875 3312 L
 876 3253 mt  934 3311 L
 934 3253 mt  876 3311 L
 878 3274 mt  936 3332 L
 936 3274 mt  878 3332 L
 879 3280 mt  937 3338 L
 937 3280 mt  879 3338 L
 880 3275 mt  938 3333 L
 938 3275 mt  880 3333 L
 882 3285 mt  940 3343 L
 940 3285 mt  882 3343 L
 884 3296 mt  942 3354 L
 942 3296 mt  884 3354 L
 885 3297 mt  943 3355 L
 943 3297 mt  885 3355 L
 886 3292 mt  944 3350 L
 944 3292 mt  886 3350 L
 887 3283 mt  945 3341 L
 945 3283 mt  887 3341 L
 887 3267 mt  945 3325 L
 945 3267 mt  887 3325 L
 889 3267 mt  947 3325 L
 947 3267 mt  889 3325 L
 890 3251 mt  948 3309 L
 948 3251 mt  890 3309 L
 891 3239 mt  949 3297 L
 949 3239 mt  891 3297 L
 892 3223 mt  950 3281 L
 950 3223 mt  892 3281 L
 894 3217 mt  952 3275 L
 952 3217 mt  894 3275 L
 895 3216 mt  953 3274 L
 953 3216 mt  895 3274 L
 896 3196 mt  954 3254 L
 954 3196 mt  896 3254 L
 897 3193 mt  955 3251 L
 955 3193 mt  897 3251 L
 899 3188 mt  957 3246 L
 957 3188 mt  899 3246 L
 902 3207 mt  960 3265 L
 960 3207 mt  902 3265 L
 901 3188 mt  959 3246 L
 959 3188 mt  901 3246 L
 902 3166 mt  960 3224 L
 960 3166 mt  902 3224 L
 903 3152 mt  961 3210 L
 961 3152 mt  903 3210 L
 905 3148 mt  963 3206 L
 963 3148 mt  905 3206 L
 906 3132 mt  964 3190 L
 964 3132 mt  906 3190 L
 907 3125 mt  965 3183 L
 965 3125 mt  907 3183 L
 908 3117 mt  966 3175 L
 966 3117 mt  908 3175 L
 911 3120 mt  969 3178 L
 969 3120 mt  911 3178 L
 913 3117 mt  971 3175 L
 971 3117 mt  913 3175 L
 914 3106 mt  972 3164 L
 972 3106 mt  914 3164 L
 917 3102 mt  975 3160 L
 975 3102 mt  917 3160 L
 919 3108 mt  977 3166 L
 977 3108 mt  919 3166 L
 920 3101 mt  978 3159 L
 978 3101 mt  920 3159 L
 920 3093 mt  978 3151 L
 978 3093 mt  920 3151 L
 923 3101 mt  981 3159 L
 981 3101 mt  923 3159 L
 925 3091 mt  983 3149 L
 983 3091 mt  925 3149 L
 925 3083 mt  983 3141 L
 983 3083 mt  925 3141 L
 927 3100 mt  985 3158 L
 985 3100 mt  927 3158 L
 930 3092 mt  988 3150 L
 988 3092 mt  930 3150 L
 929 3056 mt  987 3114 L
 987 3056 mt  929 3114 L
 930 3061 mt  988 3119 L
 988 3061 mt  930 3119 L
 933 3055 mt  991 3113 L
 991 3055 mt  933 3113 L
 936 3052 mt  994 3110 L
 994 3052 mt  936 3110 L
 937 3055 mt  995 3113 L
 995 3055 mt  937 3113 L
 937 3048 mt  995 3106 L
 995 3048 mt  937 3106 L
 939 3053 mt  997 3111 L
 997 3053 mt  939 3111 L
 940 3042 mt  998 3100 L
 998 3042 mt  940 3100 L
 943 3048 mt 1001 3106 L
1001 3048 mt  943 3106 L
 947 3050 mt 1005 3108 L
1005 3050 mt  947 3108 L
 946 3035 mt 1004 3093 L
1004 3035 mt  946 3093 L
 944 3019 mt 1002 3077 L
1002 3019 mt  944 3077 L
 946 3010 mt 1004 3068 L
1004 3010 mt  946 3068 L
 949 3003 mt 1007 3061 L
1007 3003 mt  949 3061 L
 951 3004 mt 1009 3062 L
1009 3004 mt  951 3062 L
 955 3028 mt 1013 3086 L
1013 3028 mt  955 3086 L
 958 3031 mt 1016 3089 L
1016 3031 mt  958 3089 L
 959 3030 mt 1017 3088 L
1017 3030 mt  959 3088 L
 960 3023 mt 1018 3081 L
1018 3023 mt  960 3081 L
 961 3025 mt 1019 3083 L
1019 3025 mt  961 3083 L
 966 3033 mt 1024 3091 L
1024 3033 mt  966 3091 L
 968 3037 mt 1026 3095 L
1026 3037 mt  968 3095 L
 968 3029 mt 1026 3087 L
1026 3029 mt  968 3087 L
 970 3017 mt 1028 3075 L
1028 3017 mt  970 3075 L
 971 3012 mt 1029 3070 L
1029 3012 mt  971 3070 L
 972 3013 mt 1030 3071 L
1030 3013 mt  972 3071 L
 975 3017 mt 1033 3075 L
1033 3017 mt  975 3075 L
 976 3014 mt 1034 3072 L
1034 3014 mt  976 3072 L
 979 3016 mt 1037 3074 L
1037 3016 mt  979 3074 L
 981 3015 mt 1039 3073 L
1039 3015 mt  981 3073 L
 982 3007 mt 1040 3065 L
1040 3007 mt  982 3065 L
 984 2996 mt 1042 3054 L
1042 2996 mt  984 3054 L
 986 3001 mt 1044 3059 L
1044 3001 mt  986 3059 L
 990 2993 mt 1048 3051 L
1048 2993 mt  990 3051 L
 992 2980 mt 1050 3038 L
1050 2980 mt  992 3038 L
 995 2991 mt 1053 3049 L
1053 2991 mt  995 3049 L
 998 2993 mt 1056 3051 L
1056 2993 mt  998 3051 L
1000 2989 mt 1058 3047 L
1058 2989 mt 1000 3047 L
 999 2967 mt 1057 3025 L
1057 2967 mt  999 3025 L
 999 2965 mt 1057 3023 L
1057 2965 mt  999 3023 L
1003 2977 mt 1061 3035 L
1061 2977 mt 1003 3035 L
1003 2954 mt 1061 3012 L
1061 2954 mt 1003 3012 L
1008 2952 mt 1066 3010 L
1066 2952 mt 1008 3010 L
1009 2957 mt 1067 3015 L
1067 2957 mt 1009 3015 L
1012 2952 mt 1070 3010 L
1070 2952 mt 1012 3010 L
1014 2945 mt 1072 3003 L
1072 2945 mt 1014 3003 L
1016 2942 mt 1074 3000 L
1074 2942 mt 1016 3000 L
1016 2936 mt 1074 2994 L
1074 2936 mt 1016 2994 L
1016 2922 mt 1074 2980 L
1074 2922 mt 1016 2980 L
1023 2930 mt 1081 2988 L
1081 2930 mt 1023 2988 L
1026 2925 mt 1084 2983 L
1084 2925 mt 1026 2983 L
1028 2928 mt 1086 2986 L
1086 2928 mt 1028 2986 L
1032 2928 mt 1090 2986 L
1090 2928 mt 1032 2986 L
1033 2919 mt 1091 2977 L
1091 2919 mt 1033 2977 L
1034 2904 mt 1092 2962 L
1092 2904 mt 1034 2962 L
1035 2904 mt 1093 2962 L
1093 2904 mt 1035 2962 L
1039 2915 mt 1097 2973 L
1097 2915 mt 1039 2973 L
1043 2914 mt 1101 2972 L
1101 2914 mt 1043 2972 L
1047 2924 mt 1105 2982 L
1105 2924 mt 1047 2982 L
1048 2915 mt 1106 2973 L
1106 2915 mt 1048 2973 L
1049 2915 mt 1107 2973 L
1107 2915 mt 1049 2973 L
1053 2921 mt 1111 2979 L
1111 2921 mt 1053 2979 L
1058 2921 mt 1116 2979 L
1116 2921 mt 1058 2979 L
1060 2911 mt 1118 2969 L
1118 2911 mt 1060 2969 L
1063 2917 mt 1121 2975 L
1121 2917 mt 1063 2975 L
1066 2932 mt 1124 2990 L
1124 2932 mt 1066 2990 L
1068 2921 mt 1126 2979 L
1126 2921 mt 1068 2979 L
1071 2919 mt 1129 2977 L
1129 2919 mt 1071 2977 L
1072 2908 mt 1130 2966 L
1130 2908 mt 1072 2966 L
1076 2901 mt 1134 2959 L
1134 2901 mt 1076 2959 L
1081 2900 mt 1139 2958 L
1139 2900 mt 1081 2958 L
1086 2901 mt 1144 2959 L
1144 2901 mt 1086 2959 L
1089 2888 mt 1147 2946 L
1147 2888 mt 1089 2946 L
1092 2889 mt 1150 2947 L
1150 2889 mt 1092 2947 L
1094 2883 mt 1152 2941 L
1152 2883 mt 1094 2941 L
1096 2884 mt 1154 2942 L
1154 2884 mt 1096 2942 L
1099 2885 mt 1157 2943 L
1157 2885 mt 1099 2943 L
1103 2878 mt 1161 2936 L
1161 2878 mt 1103 2936 L
1104 2868 mt 1162 2926 L
1162 2868 mt 1104 2926 L
1106 2864 mt 1164 2922 L
1164 2864 mt 1106 2922 L
1109 2859 mt 1167 2917 L
1167 2859 mt 1109 2917 L
1115 2865 mt 1173 2923 L
1173 2865 mt 1115 2923 L
1117 2853 mt 1175 2911 L
1175 2853 mt 1117 2911 L
1121 2858 mt 1179 2916 L
1179 2858 mt 1121 2916 L
1122 2851 mt 1180 2909 L
1180 2851 mt 1122 2909 L
1123 2851 mt 1181 2909 L
1181 2851 mt 1123 2909 L
1125 2839 mt 1183 2897 L
1183 2839 mt 1125 2897 L
1133 2841 mt 1191 2899 L
1191 2841 mt 1133 2899 L
1139 2843 mt 1197 2901 L
1197 2843 mt 1139 2901 L
1142 2840 mt 1200 2898 L
1200 2840 mt 1142 2898 L
1142 2829 mt 1200 2887 L
1200 2829 mt 1142 2887 L
1146 2822 mt 1204 2880 L
1204 2822 mt 1146 2880 L
1150 2820 mt 1208 2878 L
1208 2820 mt 1150 2878 L
1155 2812 mt 1213 2870 L
1213 2812 mt 1155 2870 L
1161 2817 mt 1219 2875 L
1219 2817 mt 1161 2875 L
1163 2810 mt 1221 2868 L
1221 2810 mt 1163 2868 L
1169 2813 mt 1227 2871 L
1227 2813 mt 1169 2871 L
1169 2805 mt 1227 2863 L
1227 2805 mt 1169 2863 L
1174 2802 mt 1232 2860 L
1232 2802 mt 1174 2860 L
1176 2788 mt 1234 2846 L
1234 2788 mt 1176 2846 L
1180 2789 mt 1238 2847 L
1238 2789 mt 1180 2847 L
1183 2790 mt 1241 2848 L
1241 2790 mt 1183 2848 L
1187 2791 mt 1245 2849 L
1245 2791 mt 1187 2849 L
1188 2785 mt 1246 2843 L
1246 2785 mt 1188 2843 L
1194 2786 mt 1252 2844 L
1252 2786 mt 1194 2844 L
1198 2774 mt 1256 2832 L
1256 2774 mt 1198 2832 L
1201 2770 mt 1259 2828 L
1259 2770 mt 1201 2828 L
1207 2770 mt 1265 2828 L
1265 2770 mt 1207 2828 L
1208 2762 mt 1266 2820 L
1266 2762 mt 1208 2820 L
1213 2770 mt 1271 2828 L
1271 2770 mt 1213 2828 L
1220 2768 mt 1278 2826 L
1278 2768 mt 1220 2826 L
1227 2772 mt 1285 2830 L
1285 2772 mt 1227 2830 L
1231 2771 mt 1289 2829 L
1289 2771 mt 1231 2829 L
1235 2769 mt 1293 2827 L
1293 2769 mt 1235 2827 L
1240 2777 mt 1298 2835 L
1298 2777 mt 1240 2835 L
1242 2764 mt 1300 2822 L
1300 2764 mt 1242 2822 L
1245 2765 mt 1303 2823 L
1303 2765 mt 1245 2823 L
1247 2758 mt 1305 2816 L
1305 2758 mt 1247 2816 L
1256 2762 mt 1314 2820 L
1314 2762 mt 1256 2820 L
1260 2761 mt 1318 2819 L
1318 2761 mt 1260 2819 L
1263 2753 mt 1321 2811 L
1321 2753 mt 1263 2811 L
1266 2749 mt 1324 2807 L
1324 2749 mt 1266 2807 L
1275 2753 mt 1333 2811 L
1333 2753 mt 1275 2811 L
1279 2755 mt 1337 2813 L
1337 2755 mt 1279 2813 L
1282 2750 mt 1340 2808 L
1340 2750 mt 1282 2808 L
1287 2747 mt 1345 2805 L
1345 2747 mt 1287 2805 L
1292 2751 mt 1350 2809 L
1350 2751 mt 1292 2809 L
1294 2742 mt 1352 2800 L
1352 2742 mt 1294 2800 L
1297 2735 mt 1355 2793 L
1355 2735 mt 1297 2793 L
1304 2736 mt 1362 2794 L
1362 2736 mt 1304 2794 L
1304 2731 mt 1362 2789 L
1362 2731 mt 1304 2789 L
1311 2729 mt 1369 2787 L
1369 2729 mt 1311 2787 L
1310 2723 mt 1368 2781 L
1368 2723 mt 1310 2781 L
1318 2727 mt 1376 2785 L
1376 2727 mt 1318 2785 L
1323 2722 mt 1381 2780 L
1381 2722 mt 1323 2780 L
1330 2721 mt 1388 2779 L
1388 2721 mt 1330 2779 L
1333 2717 mt 1391 2775 L
1391 2717 mt 1333 2775 L
1340 2720 mt 1398 2778 L
1398 2720 mt 1340 2778 L
1342 2720 mt 1400 2778 L
1400 2720 mt 1342 2778 L
1347 2718 mt 1405 2776 L
1405 2718 mt 1347 2776 L
1351 2717 mt 1409 2775 L
1409 2717 mt 1351 2775 L
1349 2710 mt 1407 2768 L
1407 2710 mt 1349 2768 L
1361 2721 mt 1419 2779 L
1419 2721 mt 1361 2779 L
1371 2723 mt 1429 2781 L
1429 2723 mt 1371 2781 L
1378 2725 mt 1436 2783 L
1436 2725 mt 1378 2783 L
1381 2721 mt 1439 2779 L
1439 2721 mt 1381 2779 L
1384 2718 mt 1442 2776 L
1442 2718 mt 1384 2776 L
1391 2718 mt 1449 2776 L
1449 2718 mt 1391 2776 L
1396 2713 mt 1454 2771 L
1454 2713 mt 1396 2771 L
1406 2712 mt 1464 2770 L
1464 2712 mt 1406 2770 L
1412 2714 mt 1470 2772 L
1470 2714 mt 1412 2772 L
1418 2712 mt 1476 2770 L
1476 2712 mt 1418 2770 L
1423 2705 mt 1481 2763 L
1481 2705 mt 1423 2763 L
1431 2707 mt 1489 2765 L
1489 2707 mt 1431 2765 L
1440 2709 mt 1498 2767 L
1498 2709 mt 1440 2767 L
1447 2710 mt 1505 2768 L
1505 2710 mt 1447 2768 L
1450 2703 mt 1508 2761 L
1508 2703 mt 1450 2761 L
1457 2704 mt 1515 2762 L
1515 2704 mt 1457 2762 L
1464 2700 mt 1522 2758 L
1522 2700 mt 1464 2758 L
1475 2703 mt 1533 2761 L
1533 2703 mt 1475 2761 L
1477 2694 mt 1535 2752 L
1535 2694 mt 1477 2752 L
1486 2693 mt 1544 2751 L
1544 2693 mt 1486 2751 L
1492 2692 mt 1550 2750 L
1550 2692 mt 1492 2750 L
1500 2690 mt 1558 2748 L
1558 2690 mt 1500 2748 L
1509 2692 mt 1567 2750 L
1567 2692 mt 1509 2750 L
1509 2680 mt 1567 2738 L
1567 2680 mt 1509 2738 L
1516 2691 mt 1574 2749 L
1574 2691 mt 1516 2749 L
1523 2686 mt 1581 2744 L
1581 2686 mt 1523 2744 L
1528 2678 mt 1586 2736 L
1586 2678 mt 1528 2736 L
1536 2680 mt 1594 2738 L
1594 2680 mt 1536 2738 L
1546 2680 mt 1604 2738 L
1604 2680 mt 1546 2738 L
1550 2676 mt 1608 2734 L
1608 2676 mt 1550 2734 L
1553 2668 mt 1611 2726 L
1611 2668 mt 1553 2726 L
1561 2669 mt 1619 2727 L
1619 2669 mt 1561 2727 L
1570 2676 mt 1628 2734 L
1628 2676 mt 1570 2734 L
1573 2677 mt 1631 2735 L
1631 2677 mt 1573 2735 L
1582 2672 mt 1640 2730 L
1640 2672 mt 1582 2730 L
1589 2666 mt 1647 2724 L
1647 2666 mt 1589 2724 L
1594 2666 mt 1652 2724 L
1652 2666 mt 1594 2724 L
1600 2663 mt 1658 2721 L
1658 2663 mt 1600 2721 L
1612 2663 mt 1670 2721 L
1670 2663 mt 1612 2721 L
1623 2657 mt 1681 2715 L
1681 2657 mt 1623 2715 L
1631 2651 mt 1689 2709 L
1689 2651 mt 1631 2709 L
1642 2653 mt 1700 2711 L
1700 2653 mt 1642 2711 L
1645 2646 mt 1703 2704 L
1703 2646 mt 1645 2704 L
1656 2649 mt 1714 2707 L
1714 2649 mt 1656 2707 L
1663 2649 mt 1721 2707 L
1721 2649 mt 1663 2707 L
1668 2651 mt 1726 2709 L
1726 2651 mt 1668 2709 L
1674 2645 mt 1732 2703 L
1732 2645 mt 1674 2703 L
1686 2648 mt 1744 2706 L
1744 2648 mt 1686 2706 L
1695 2645 mt 1753 2703 L
1753 2645 mt 1695 2703 L
1695 2639 mt 1753 2697 L
1753 2639 mt 1695 2697 L
1707 2637 mt 1765 2695 L
1765 2637 mt 1707 2695 L
1717 2640 mt 1775 2698 L
1775 2640 mt 1717 2698 L
1719 2629 mt 1777 2687 L
1777 2629 mt 1719 2687 L
1729 2632 mt 1787 2690 L
1787 2632 mt 1729 2690 L
1738 2632 mt 1796 2690 L
1796 2632 mt 1738 2690 L
1748 2631 mt 1806 2689 L
1806 2631 mt 1748 2689 L
1756 2627 mt 1814 2685 L
1814 2627 mt 1756 2685 L
1764 2625 mt 1822 2683 L
1822 2625 mt 1764 2683 L
1781 2629 mt 1839 2687 L
1839 2629 mt 1781 2687 L
1789 2625 mt 1847 2683 L
1847 2625 mt 1789 2683 L
1793 2621 mt 1851 2679 L
1851 2621 mt 1793 2679 L
1799 2619 mt 1857 2677 L
1857 2619 mt 1799 2677 L
1811 2619 mt 1869 2677 L
1869 2619 mt 1811 2677 L
1816 2613 mt 1874 2671 L
1874 2613 mt 1816 2671 L
1832 2623 mt 1890 2681 L
1890 2623 mt 1832 2681 L
1840 2620 mt 1898 2678 L
1898 2620 mt 1840 2678 L
1837 2612 mt 1895 2670 L
1895 2612 mt 1837 2670 L
1854 2620 mt 1912 2678 L
1912 2620 mt 1854 2678 L
1865 2616 mt 1923 2674 L
1923 2616 mt 1865 2674 L
1871 2620 mt 1929 2678 L
1929 2620 mt 1871 2678 L
1878 2619 mt 1936 2677 L
1936 2619 mt 1878 2677 L
1892 2620 mt 1950 2678 L
1950 2620 mt 1892 2678 L
1904 2617 mt 1962 2675 L
1962 2617 mt 1904 2675 L
1917 2621 mt 1975 2679 L
1975 2621 mt 1917 2679 L
1926 2612 mt 1984 2670 L
1984 2612 mt 1926 2670 L
1937 2611 mt 1995 2669 L
1995 2611 mt 1937 2669 L
1945 2618 mt 2003 2676 L
2003 2618 mt 1945 2676 L
1955 2612 mt 2013 2670 L
2013 2612 mt 1955 2670 L
1965 2607 mt 2023 2665 L
2023 2607 mt 1965 2665 L
1967 2598 mt 2025 2656 L
2025 2598 mt 1967 2656 L
1981 2600 mt 2039 2658 L
2039 2600 mt 1981 2658 L
1993 2598 mt 2051 2656 L
2051 2598 mt 1993 2656 L
2006 2599 mt 2064 2657 L
2064 2599 mt 2006 2657 L
2022 2602 mt 2080 2660 L
2080 2602 mt 2022 2660 L
2037 2600 mt 2095 2658 L
2095 2600 mt 2037 2658 L
2054 2600 mt 2112 2658 L
2112 2600 mt 2054 2658 L
2067 2602 mt 2125 2660 L
2125 2602 mt 2067 2660 L
2076 2599 mt 2134 2657 L
2134 2599 mt 2076 2657 L
2086 2601 mt 2144 2659 L
2144 2601 mt 2086 2659 L
2102 2602 mt 2160 2660 L
2160 2602 mt 2102 2660 L
2116 2601 mt 2174 2659 L
2174 2601 mt 2116 2659 L
2127 2596 mt 2185 2654 L
2185 2596 mt 2127 2654 L
2120 2585 mt 2178 2643 L
2178 2585 mt 2120 2643 L
2144 2593 mt 2202 2651 L
2202 2593 mt 2144 2651 L
2163 2594 mt 2221 2652 L
2221 2594 mt 2163 2652 L
2173 2592 mt 2231 2650 L
2231 2592 mt 2173 2650 L
2185 2592 mt 2243 2650 L
2243 2592 mt 2185 2650 L
2199 2591 mt 2257 2649 L
2257 2591 mt 2199 2649 L
2214 2590 mt 2272 2648 L
2272 2590 mt 2214 2648 L
2231 2588 mt 2289 2646 L
2289 2588 mt 2231 2646 L
2247 2590 mt 2305 2648 L
2305 2590 mt 2247 2648 L
2261 2588 mt 2319 2646 L
2319 2588 mt 2261 2646 L
2279 2588 mt 2337 2646 L
2337 2588 mt 2279 2646 L
2293 2587 mt 2351 2645 L
2351 2587 mt 2293 2645 L
2310 2584 mt 2368 2642 L
2368 2584 mt 2310 2642 L
2322 2588 mt 2380 2646 L
2380 2588 mt 2322 2646 L
2336 2588 mt 2394 2646 L
2394 2588 mt 2336 2646 L
2350 2585 mt 2408 2643 L
2408 2585 mt 2350 2643 L
2367 2582 mt 2425 2640 L
2425 2582 mt 2367 2640 L
2379 2580 mt 2437 2638 L
2437 2580 mt 2379 2638 L
2388 2576 mt 2446 2634 L
2446 2576 mt 2388 2634 L
2409 2575 mt 2467 2633 L
2467 2575 mt 2409 2633 L
2423 2572 mt 2481 2630 L
2481 2572 mt 2423 2630 L
2444 2573 mt 2502 2631 L
2502 2573 mt 2444 2631 L
2452 2570 mt 2510 2628 L
2510 2570 mt 2452 2628 L
2475 2571 mt 2533 2629 L
2533 2571 mt 2475 2629 L
2485 2564 mt 2543 2622 L
2543 2564 mt 2485 2622 L
2503 2567 mt 2561 2625 L
2561 2567 mt 2503 2625 L
2524 2565 mt 2582 2623 L
2582 2565 mt 2524 2623 L
2537 2564 mt 2595 2622 L
2595 2564 mt 2537 2622 L
2553 2564 mt 2611 2622 L
2611 2564 mt 2553 2622 L
2562 2558 mt 2620 2616 L
2620 2558 mt 2562 2616 L
2589 2562 mt 2647 2620 L
2647 2562 mt 2589 2620 L
2605 2561 mt 2663 2619 L
2663 2561 mt 2605 2619 L
2616 2557 mt 2674 2615 L
2674 2557 mt 2616 2615 L
2629 2558 mt 2687 2616 L
2687 2558 mt 2629 2616 L
2645 2556 mt 2703 2614 L
2703 2556 mt 2645 2614 L
2654 2554 mt 2712 2612 L
2712 2554 mt 2654 2612 L
2678 2552 mt 2736 2610 L
2736 2552 mt 2678 2610 L
2683 2550 mt 2741 2608 L
2741 2550 mt 2683 2608 L
2712 2552 mt 2770 2610 L
2770 2552 mt 2712 2610 L
2728 2547 mt 2786 2605 L
2786 2547 mt 2728 2605 L
2743 2547 mt 2801 2605 L
2801 2547 mt 2743 2605 L
2759 2543 mt 2817 2601 L
2817 2543 mt 2759 2601 L
2769 2538 mt 2827 2596 L
2827 2538 mt 2769 2596 L
2794 2540 mt 2852 2598 L
2852 2540 mt 2794 2598 L
2814 2539 mt 2872 2597 L
2872 2539 mt 2814 2597 L
2829 2537 mt 2887 2595 L
2887 2537 mt 2829 2595 L
2845 2535 mt 2903 2593 L
2903 2535 mt 2845 2593 L
2866 2534 mt 2924 2592 L
2924 2534 mt 2866 2592 L
2880 2532 mt 2938 2590 L
2938 2532 mt 2880 2590 L
2890 2527 mt 2948 2585 L
2948 2527 mt 2890 2585 L
2921 2529 mt 2979 2587 L
2979 2529 mt 2921 2587 L
2939 2525 mt 2997 2583 L
2997 2525 mt 2939 2583 L
2962 2525 mt 3020 2583 L
3020 2525 mt 2962 2583 L
2979 2519 mt 3037 2577 L
3037 2519 mt 2979 2577 L
2984 2514 mt 3042 2572 L
3042 2514 mt 2984 2572 L
3008 2512 mt 3066 2570 L
3066 2512 mt 3008 2570 L
3033 2512 mt 3091 2570 L
3091 2512 mt 3033 2570 L
3044 2505 mt 3102 2563 L
3102 2505 mt 3044 2563 L
3068 2507 mt 3126 2565 L
3126 2507 mt 3068 2565 L
3090 2507 mt 3148 2565 L
3148 2507 mt 3090 2565 L
3108 2504 mt 3166 2562 L
3166 2504 mt 3108 2562 L
3130 2505 mt 3188 2563 L
3188 2505 mt 3130 2563 L
3155 2505 mt 3213 2563 L
3213 2505 mt 3155 2563 L
3165 2497 mt 3223 2555 L
3223 2497 mt 3165 2555 L
3199 2503 mt 3257 2561 L
3257 2503 mt 3199 2561 L
3218 2496 mt 3276 2554 L
3276 2496 mt 3218 2554 L
3245 2497 mt 3303 2555 L
3303 2497 mt 3245 2555 L
3267 2497 mt 3325 2555 L
3325 2497 mt 3267 2555 L
3287 2499 mt 3345 2557 L
3345 2499 mt 3287 2557 L
3309 2498 mt 3367 2556 L
3367 2498 mt 3309 2556 L
3331 2499 mt 3389 2557 L
3389 2499 mt 3331 2557 L
3355 2498 mt 3413 2556 L
3413 2498 mt 3355 2556 L
3372 2496 mt 3430 2554 L
3430 2496 mt 3372 2554 L
3388 2491 mt 3446 2549 L
3446 2491 mt 3388 2549 L
3423 2492 mt 3481 2550 L
3481 2492 mt 3423 2550 L
3436 2491 mt 3494 2549 L
3494 2491 mt 3436 2549 L
3457 2489 mt 3515 2547 L
3515 2489 mt 3457 2547 L
3486 2489 mt 3544 2547 L
3544 2489 mt 3486 2547 L
3513 2488 mt 3571 2546 L
3571 2488 mt 3513 2546 L
3535 2485 mt 3593 2543 L
3593 2485 mt 3535 2543 L
3562 2484 mt 3620 2542 L
3620 2484 mt 3562 2542 L
3590 2483 mt 3648 2541 L
3648 2483 mt 3590 2541 L
3619 2483 mt 3677 2541 L
3677 2483 mt 3619 2541 L
3648 2483 mt 3706 2541 L
3706 2483 mt 3648 2541 L
3677 2486 mt 3735 2544 L
3735 2486 mt 3677 2544 L
3702 2483 mt 3760 2541 L
3760 2483 mt 3702 2541 L
3729 2488 mt 3787 2546 L
3787 2488 mt 3729 2546 L
3758 2486 mt 3816 2544 L
3816 2486 mt 3758 2544 L
3780 2481 mt 3838 2539 L
3838 2481 mt 3780 2539 L
3815 2481 mt 3873 2539 L
3873 2481 mt 3815 2539 L
3837 2482 mt 3895 2540 L
3895 2482 mt 3837 2540 L
3859 2480 mt 3917 2538 L
3917 2480 mt 3859 2538 L
3887 2483 mt 3945 2541 L
3945 2483 mt 3887 2541 L
3921 2481 mt 3979 2539 L
3979 2481 mt 3921 2539 L
3952 2481 mt 4010 2539 L
4010 2481 mt 3952 2539 L
3975 2477 mt 4033 2535 L
4033 2477 mt 3975 2535 L
4009 2478 mt 4067 2536 L
4067 2478 mt 4009 2536 L
4036 2480 mt 4094 2538 L
4094 2480 mt 4036 2538 L
4063 2479 mt 4121 2537 L
4121 2479 mt 4063 2537 L
4090 2477 mt 4148 2535 L
4148 2477 mt 4090 2535 L
4120 2474 mt 4178 2532 L
4178 2474 mt 4120 2532 L
4154 2476 mt 4212 2534 L
4212 2476 mt 4154 2534 L
4183 2475 mt 4241 2533 L
4241 2475 mt 4183 2533 L
4213 2475 mt 4271 2533 L
4271 2475 mt 4213 2533 L
4242 2471 mt 4300 2529 L
4300 2471 mt 4242 2529 L
4281 2474 mt 4339 2532 L
4339 2474 mt 4281 2532 L
4318 2475 mt 4376 2533 L
4376 2475 mt 4318 2533 L
4352 2474 mt 4410 2532 L
4410 2474 mt 4352 2532 L
4374 2469 mt 4432 2527 L
4432 2469 mt 4374 2527 L
4418 2475 mt 4476 2533 L
4476 2475 mt 4418 2533 L
4448 2473 mt 4506 2531 L
4506 2473 mt 4448 2531 L
4480 2469 mt 4538 2527 L
4538 2469 mt 4480 2527 L
4519 2470 mt 4577 2528 L
4577 2470 mt 4519 2528 L
4548 2474 mt 4606 2532 L
4606 2474 mt 4548 2532 L
4587 2472 mt 4645 2530 L
4645 2472 mt 4587 2530 L
4628 2472 mt 4686 2530 L
4686 2472 mt 4628 2530 L
4662 2471 mt 4720 2529 L
4720 2471 mt 4662 2529 L
4705 2475 mt 4763 2533 L
4763 2475 mt 4705 2533 L
2863 1669 mt 2921 1727 L
2921 1669 mt 2863 1727 L
2657 1627 mt 2715 1685 L
2715 1627 mt 2657 1685 L
2552 1587 mt 2610 1645 L
2610 1587 mt 2552 1645 L
2469 1568 mt 2527 1626 L
2527 1568 mt 2469 1626 L
2395 1552 mt 2453 1610 L
2453 1552 mt 2395 1610 L
2314 1524 mt 2372 1582 L
2372 1524 mt 2314 1582 L
2240 1502 mt 2298 1560 L
2298 1502 mt 2240 1560 L
2177 1486 mt 2235 1544 L
2235 1486 mt 2177 1544 L
2115 1467 mt 2173 1525 L
2173 1467 mt 2115 1525 L
2044 1434 mt 2102 1492 L
2102 1434 mt 2044 1492 L
1983 1406 mt 2041 1464 L
2041 1406 mt 1983 1464 L
1931 1388 mt 1989 1446 L
1989 1388 mt 1931 1446 L
1883 1376 mt 1941 1434 L
1941 1376 mt 1883 1434 L
1835 1354 mt 1893 1412 L
1893 1354 mt 1835 1412 L
1790 1334 mt 1848 1392 L
1848 1334 mt 1790 1392 L
1731 1291 mt 1789 1349 L
1789 1291 mt 1731 1349 L
1685 1261 mt 1743 1319 L
1743 1261 mt 1685 1319 L
1637 1228 mt 1695 1286 L
1695 1228 mt 1637 1286 L
1585 1183 mt 1643 1241 L
1643 1183 mt 1585 1241 L
1538 1142 mt 1596 1200 L
1596 1142 mt 1538 1200 L
1502 1108 mt 1560 1166 L
1560 1108 mt 1502 1166 L
1460 1068 mt 1518 1126 L
1518 1068 mt 1460 1126 L
1422 1034 mt 1480 1092 L
1480 1034 mt 1422 1092 L
1386  986 mt 1444 1044 L
1444  986 mt 1386 1044 L
1351  948 mt 1409 1006 L
1409  948 mt 1351 1006 L
1315  907 mt 1373  965 L
1373  907 mt 1315  965 L
1288  867 mt 1346  925 L
1346  867 mt 1288  925 L
1261  833 mt 1319  891 L
1319  833 mt 1261  891 L
1234  798 mt 1292  856 L
1292  798 mt 1234  856 L
1204  739 mt 1262  797 L
1262  739 mt 1204  797 L
1179  690 mt 1237  748 L
1237  690 mt 1179  748 L
1158  651 mt 1216  709 L
1216  651 mt 1158  709 L
1135  608 mt 1193  666 L
1193  608 mt 1135  666 L
gs 848 565 4238 3956 rc
gr

/c9 { 0.000000 0.000000 1.000000 sr} bdef
c9
 819 3931 mt  877 3989 L
 877 3931 mt  819 3989 L
gs 848 565 4238 3956 rc
gr

 821 4447 mt  879 4505 L
 879 4447 mt  821 4505 L
 821 4281 mt  879 4339 L
 879 4281 mt  821 4339 L
 821 4143 mt  879 4201 L
 879 4143 mt  821 4201 L
 822 4042 mt  880 4100 L
 880 4042 mt  822 4100 L
 822 3979 mt  880 4037 L
 880 3979 mt  822 4037 L
 823 3963 mt  881 4021 L
 881 3963 mt  823 4021 L
 823 3959 mt  881 4017 L
 881 3959 mt  823 4017 L
 824 3955 mt  882 4013 L
 882 3955 mt  824 4013 L
 824 3912 mt  882 3970 L
 882 3912 mt  824 3970 L
 824 3865 mt  882 3923 L
 882 3865 mt  824 3923 L
 825 3832 mt  883 3890 L
 883 3832 mt  825 3890 L
 825 3799 mt  883 3857 L
 883 3799 mt  825 3857 L
 826 3850 mt  884 3908 L
 884 3850 mt  826 3908 L
 827 3938 mt  885 3996 L
 885 3938 mt  827 3996 L
 828 3971 mt  886 4029 L
 886 3971 mt  828 4029 L
 829 3955 mt  887 4013 L
 887 3955 mt  829 4013 L
 830 3914 mt  888 3972 L
 888 3914 mt  830 3972 L
 830 3926 mt  888 3984 L
 888 3926 mt  830 3984 L
 831 3844 mt  889 3902 L
 889 3844 mt  831 3902 L
 831 3814 mt  889 3872 L
 889 3814 mt  831 3872 L
 831 3793 mt  889 3851 L
 889 3793 mt  831 3851 L
 831 3792 mt  889 3850 L
 889 3792 mt  831 3850 L
 832 3752 mt  890 3810 L
 890 3752 mt  832 3810 L
 832 3732 mt  890 3790 L
 890 3732 mt  832 3790 L
 832 3707 mt  890 3765 L
 890 3707 mt  832 3765 L
 832 3690 mt  890 3748 L
 890 3690 mt  832 3748 L
 833 3682 mt  891 3740 L
 891 3682 mt  833 3740 L
 833 3633 mt  891 3691 L
 891 3633 mt  833 3691 L
 834 3633 mt  892 3691 L
 892 3633 mt  834 3691 L
 834 3608 mt  892 3666 L
 892 3608 mt  834 3666 L
 834 3544 mt  892 3602 L
 892 3544 mt  834 3602 L
 835 3550 mt  893 3608 L
 893 3550 mt  835 3608 L
 836 3549 mt  894 3607 L
 894 3549 mt  836 3607 L
 837 3537 mt  895 3595 L
 895 3537 mt  837 3595 L
 837 3529 mt  895 3587 L
 895 3529 mt  837 3587 L
 838 3537 mt  896 3595 L
 896 3537 mt  838 3595 L
 839 3533 mt  897 3591 L
 897 3533 mt  839 3591 L
 839 3507 mt  897 3565 L
 897 3507 mt  839 3565 L
 840 3516 mt  898 3574 L
 898 3516 mt  840 3574 L
 841 3515 mt  899 3573 L
 899 3515 mt  841 3573 L
 842 3511 mt  900 3569 L
 900 3511 mt  842 3569 L
 842 3492 mt  900 3550 L
 900 3492 mt  842 3550 L
 843 3462 mt  901 3520 L
 901 3462 mt  843 3520 L
 844 3447 mt  902 3505 L
 902 3447 mt  844 3505 L
 844 3446 mt  902 3504 L
 902 3446 mt  844 3504 L
 845 3438 mt  903 3496 L
 903 3438 mt  845 3496 L
 846 3430 mt  904 3488 L
 904 3430 mt  846 3488 L
 846 3400 mt  904 3458 L
 904 3400 mt  846 3458 L
 846 3373 mt  904 3431 L
 904 3373 mt  846 3431 L
 847 3380 mt  905 3438 L
 905 3380 mt  847 3438 L
 848 3384 mt  906 3442 L
 906 3384 mt  848 3442 L
 848 3349 mt  906 3407 L
 906 3349 mt  848 3407 L
 848 3335 mt  906 3393 L
 906 3335 mt  848 3393 L
 848 3290 mt  906 3348 L
 906 3290 mt  848 3348 L
 848 3282 mt  906 3340 L
 906 3282 mt  848 3340 L
 849 3279 mt  907 3337 L
 907 3279 mt  849 3337 L
 850 3274 mt  908 3332 L
 908 3274 mt  850 3332 L
 851 3283 mt  909 3341 L
 909 3283 mt  851 3341 L
 849 3241 mt  907 3299 L
 907 3241 mt  849 3299 L
 850 3231 mt  908 3289 L
 908 3231 mt  850 3289 L
 851 3215 mt  909 3273 L
 909 3215 mt  851 3273 L
 852 3227 mt  910 3285 L
 910 3227 mt  852 3285 L
 853 3218 mt  911 3276 L
 911 3218 mt  853 3276 L
 853 3201 mt  911 3259 L
 911 3201 mt  853 3259 L
 855 3220 mt  913 3278 L
 913 3220 mt  855 3278 L
 856 3218 mt  914 3276 L
 914 3218 mt  856 3276 L
 857 3232 mt  915 3290 L
 915 3232 mt  857 3290 L
 857 3213 mt  915 3271 L
 915 3213 mt  857 3271 L
 857 3215 mt  915 3273 L
 915 3215 mt  857 3273 L
 859 3196 mt  917 3254 L
 917 3196 mt  859 3254 L
 859 3172 mt  917 3230 L
 917 3172 mt  859 3230 L
 859 3171 mt  917 3229 L
 917 3171 mt  859 3229 L
 861 3174 mt  919 3232 L
 919 3174 mt  861 3232 L
 861 3168 mt  919 3226 L
 919 3168 mt  861 3226 L
 862 3159 mt  920 3217 L
 920 3159 mt  862 3217 L
 863 3151 mt  921 3209 L
 921 3151 mt  863 3209 L
 863 3152 mt  921 3210 L
 921 3152 mt  863 3210 L
 864 3160 mt  922 3218 L
 922 3160 mt  864 3218 L
 865 3171 mt  923 3229 L
 923 3171 mt  865 3229 L
 866 3193 mt  924 3251 L
 924 3193 mt  866 3251 L
 867 3174 mt  925 3232 L
 925 3174 mt  867 3232 L
 868 3157 mt  926 3215 L
 926 3157 mt  868 3215 L
 868 3150 mt  926 3208 L
 926 3150 mt  868 3208 L
 869 3151 mt  927 3209 L
 927 3151 mt  869 3209 L
 869 3153 mt  927 3211 L
 927 3153 mt  869 3211 L
 871 3153 mt  929 3211 L
 929 3153 mt  871 3211 L
 872 3156 mt  930 3214 L
 930 3156 mt  872 3214 L
 873 3167 mt  931 3225 L
 931 3167 mt  873 3225 L
 873 3185 mt  931 3243 L
 931 3185 mt  873 3243 L
 874 3173 mt  932 3231 L
 932 3173 mt  874 3231 L
 873 3143 mt  931 3201 L
 931 3143 mt  873 3201 L
 874 3160 mt  932 3218 L
 932 3160 mt  874 3218 L
 877 3182 mt  935 3240 L
 935 3182 mt  877 3240 L
 877 3184 mt  935 3242 L
 935 3184 mt  877 3242 L
 878 3193 mt  936 3251 L
 936 3193 mt  878 3251 L
 879 3187 mt  937 3245 L
 937 3187 mt  879 3245 L
 880 3180 mt  938 3238 L
 938 3180 mt  880 3238 L
 881 3174 mt  939 3232 L
 939 3174 mt  881 3232 L
 881 3153 mt  939 3211 L
 939 3153 mt  881 3211 L
 881 3149 mt  939 3207 L
 939 3149 mt  881 3207 L
 882 3130 mt  940 3188 L
 940 3130 mt  882 3188 L
 883 3111 mt  941 3169 L
 941 3111 mt  883 3169 L
 884 3111 mt  942 3169 L
 942 3111 mt  884 3169 L
 885 3124 mt  943 3182 L
 943 3124 mt  885 3182 L
 885 3112 mt  943 3170 L
 943 3112 mt  885 3170 L
 885 3100 mt  943 3158 L
 943 3100 mt  885 3158 L
 885 3097 mt  943 3155 L
 943 3097 mt  885 3155 L
 885 3079 mt  943 3137 L
 943 3079 mt  885 3137 L
 886 3067 mt  944 3125 L
 944 3067 mt  886 3125 L
 886 3043 mt  944 3101 L
 944 3043 mt  886 3101 L
 887 3050 mt  945 3108 L
 945 3050 mt  887 3108 L
 888 3055 mt  946 3113 L
 946 3055 mt  888 3113 L
 889 3040 mt  947 3098 L
 947 3040 mt  889 3098 L
 892 3068 mt  950 3126 L
 950 3068 mt  892 3126 L
 893 3072 mt  951 3130 L
 951 3072 mt  893 3130 L
 894 3072 mt  952 3130 L
 952 3072 mt  894 3130 L
 895 3058 mt  953 3116 L
 953 3058 mt  895 3116 L
 898 3066 mt  956 3124 L
 956 3066 mt  898 3124 L
 899 3051 mt  957 3109 L
 957 3051 mt  899 3109 L
 900 3042 mt  958 3100 L
 958 3042 mt  900 3100 L
 901 3033 mt  959 3091 L
 959 3033 mt  901 3091 L
 901 3034 mt  959 3092 L
 959 3034 mt  901 3092 L
 902 3049 mt  960 3107 L
 960 3049 mt  902 3107 L
 904 3038 mt  962 3096 L
 962 3038 mt  904 3096 L
 905 3029 mt  963 3087 L
 963 3029 mt  905 3087 L
 906 3016 mt  964 3074 L
 964 3016 mt  906 3074 L
 907 3020 mt  965 3078 L
 965 3020 mt  907 3078 L
 908 3021 mt  966 3079 L
 966 3021 mt  908 3079 L
 908 3012 mt  966 3070 L
 966 3012 mt  908 3070 L
 909 3008 mt  967 3066 L
 967 3008 mt  909 3066 L
 908 2998 mt  966 3056 L
 966 2998 mt  908 3056 L
 910 2984 mt  968 3042 L
 968 2984 mt  910 3042 L
 913 2992 mt  971 3050 L
 971 2992 mt  913 3050 L
 914 2998 mt  972 3056 L
 972 2998 mt  914 3056 L
 916 2997 mt  974 3055 L
 974 2997 mt  916 3055 L
 915 2972 mt  973 3030 L
 973 2972 mt  915 3030 L
 916 2998 mt  974 3056 L
 974 2998 mt  916 3056 L
 918 2997 mt  976 3055 L
 976 2997 mt  918 3055 L
 918 2984 mt  976 3042 L
 976 2984 mt  918 3042 L
 920 2980 mt  978 3038 L
 978 2980 mt  920 3038 L
 921 2972 mt  979 3030 L
 979 2972 mt  921 3030 L
 924 2969 mt  982 3027 L
 982 2969 mt  924 3027 L
 927 2975 mt  985 3033 L
 985 2975 mt  927 3033 L
 927 2981 mt  985 3039 L
 985 2981 mt  927 3039 L
 928 2969 mt  986 3027 L
 986 2969 mt  928 3027 L
 929 2965 mt  987 3023 L
 987 2965 mt  929 3023 L
 930 2950 mt  988 3008 L
 988 2950 mt  930 3008 L
 933 2965 mt  991 3023 L
 991 2965 mt  933 3023 L
 934 2973 mt  992 3031 L
 992 2973 mt  934 3031 L
 936 2976 mt  994 3034 L
 994 2976 mt  936 3034 L
 939 2983 mt  997 3041 L
 997 2983 mt  939 3041 L
 942 2992 mt 1000 3050 L
1000 2992 mt  942 3050 L
 943 2987 mt 1001 3045 L
1001 2987 mt  943 3045 L
 943 2979 mt 1001 3037 L
1001 2979 mt  943 3037 L
 943 2969 mt 1001 3027 L
1001 2969 mt  943 3027 L
 945 2962 mt 1003 3020 L
1003 2962 mt  945 3020 L
 945 2945 mt 1003 3003 L
1003 2945 mt  945 3003 L
 947 2952 mt 1005 3010 L
1005 2952 mt  947 3010 L
 950 2951 mt 1008 3009 L
1008 2951 mt  950 3009 L
 950 2945 mt 1008 3003 L
1008 2945 mt  950 3003 L
 951 2944 mt 1009 3002 L
1009 2944 mt  951 3002 L
 953 2948 mt 1011 3006 L
1011 2948 mt  953 3006 L
 955 2945 mt 1013 3003 L
1013 2945 mt  955 3003 L
 957 2964 mt 1015 3022 L
1015 2964 mt  957 3022 L
 958 2955 mt 1016 3013 L
1016 2955 mt  958 3013 L
 961 2953 mt 1019 3011 L
1019 2953 mt  961 3011 L
 963 2956 mt 1021 3014 L
1021 2956 mt  963 3014 L
 963 2948 mt 1021 3006 L
1021 2948 mt  963 3006 L
 963 2935 mt 1021 2993 L
1021 2935 mt  963 2993 L
 964 2930 mt 1022 2988 L
1022 2930 mt  964 2988 L
 967 2940 mt 1025 2998 L
1025 2940 mt  967 2998 L
 969 2950 mt 1027 3008 L
1027 2950 mt  969 3008 L
 970 2931 mt 1028 2989 L
1028 2931 mt  970 2989 L
 972 2935 mt 1030 2993 L
1030 2935 mt  972 2993 L
 976 2942 mt 1034 3000 L
1034 2942 mt  976 3000 L
 977 2946 mt 1035 3004 L
1035 2946 mt  977 3004 L
 977 2933 mt 1035 2991 L
1035 2933 mt  977 2991 L
 978 2919 mt 1036 2977 L
1036 2919 mt  978 2977 L
 978 2918 mt 1036 2976 L
1036 2918 mt  978 2976 L
 978 2907 mt 1036 2965 L
1036 2907 mt  978 2965 L
 979 2911 mt 1037 2969 L
1037 2911 mt  979 2969 L
 979 2899 mt 1037 2957 L
1037 2899 mt  979 2957 L
 982 2908 mt 1040 2966 L
1040 2908 mt  982 2966 L
 988 2926 mt 1046 2984 L
1046 2926 mt  988 2984 L
 990 2921 mt 1048 2979 L
1048 2921 mt  990 2979 L
 991 2915 mt 1049 2973 L
1049 2915 mt  991 2973 L
 991 2907 mt 1049 2965 L
1049 2907 mt  991 2965 L
 990 2893 mt 1048 2951 L
1048 2893 mt  990 2951 L
 992 2892 mt 1050 2950 L
1050 2892 mt  992 2950 L
 994 2890 mt 1052 2948 L
1052 2890 mt  994 2948 L
 997 2891 mt 1055 2949 L
1055 2891 mt  997 2949 L
 999 2881 mt 1057 2939 L
1057 2881 mt  999 2939 L
1002 2881 mt 1060 2939 L
1060 2881 mt 1002 2939 L
1003 2878 mt 1061 2936 L
1061 2878 mt 1003 2936 L
1004 2886 mt 1062 2944 L
1062 2886 mt 1004 2944 L
1005 2880 mt 1063 2938 L
1063 2880 mt 1005 2938 L
1002 2854 mt 1060 2912 L
1060 2854 mt 1002 2912 L
1004 2863 mt 1062 2921 L
1062 2863 mt 1004 2921 L
1009 2877 mt 1067 2935 L
1067 2877 mt 1009 2935 L
1009 2862 mt 1067 2920 L
1067 2862 mt 1009 2920 L
1011 2869 mt 1069 2927 L
1069 2869 mt 1011 2927 L
1012 2867 mt 1070 2925 L
1070 2867 mt 1012 2925 L
1015 2869 mt 1073 2927 L
1073 2869 mt 1015 2927 L
1018 2867 mt 1076 2925 L
1076 2867 mt 1018 2925 L
1022 2879 mt 1080 2937 L
1080 2879 mt 1022 2937 L
1022 2872 mt 1080 2930 L
1080 2872 mt 1022 2930 L
1023 2866 mt 1081 2924 L
1081 2866 mt 1023 2924 L
1024 2854 mt 1082 2912 L
1082 2854 mt 1024 2912 L
1027 2850 mt 1085 2908 L
1085 2850 mt 1027 2908 L
1027 2844 mt 1085 2902 L
1085 2844 mt 1027 2902 L
1030 2845 mt 1088 2903 L
1088 2845 mt 1030 2903 L
1031 2840 mt 1089 2898 L
1089 2840 mt 1031 2898 L
1034 2841 mt 1092 2899 L
1092 2841 mt 1034 2899 L
1036 2838 mt 1094 2896 L
1094 2838 mt 1036 2896 L
1039 2840 mt 1097 2898 L
1097 2840 mt 1039 2898 L
1041 2834 mt 1099 2892 L
1099 2834 mt 1041 2892 L
1040 2822 mt 1098 2880 L
1098 2822 mt 1040 2880 L
1045 2839 mt 1103 2897 L
1103 2839 mt 1045 2897 L
1049 2848 mt 1107 2906 L
1107 2848 mt 1049 2906 L
1051 2848 mt 1109 2906 L
1109 2848 mt 1051 2906 L
1052 2848 mt 1110 2906 L
1110 2848 mt 1052 2906 L
1053 2841 mt 1111 2899 L
1111 2841 mt 1053 2899 L
1054 2841 mt 1112 2899 L
1112 2841 mt 1054 2899 L
1057 2845 mt 1115 2903 L
1115 2845 mt 1057 2903 L
1058 2832 mt 1116 2890 L
1116 2832 mt 1058 2890 L
1060 2836 mt 1118 2894 L
1118 2836 mt 1060 2894 L
1063 2841 mt 1121 2899 L
1121 2841 mt 1063 2899 L
1067 2845 mt 1125 2903 L
1125 2845 mt 1067 2903 L
1068 2840 mt 1126 2898 L
1126 2840 mt 1068 2898 L
1070 2838 mt 1128 2896 L
1128 2838 mt 1070 2896 L
1071 2835 mt 1129 2893 L
1129 2835 mt 1071 2893 L
1075 2834 mt 1133 2892 L
1133 2834 mt 1075 2892 L
1079 2841 mt 1137 2899 L
1137 2841 mt 1079 2899 L
1080 2843 mt 1138 2901 L
1138 2843 mt 1080 2901 L
1085 2834 mt 1143 2892 L
1143 2834 mt 1085 2892 L
1085 2822 mt 1143 2880 L
1143 2822 mt 1085 2880 L
1086 2821 mt 1144 2879 L
1144 2821 mt 1086 2879 L
1092 2828 mt 1150 2886 L
1150 2828 mt 1092 2886 L
1093 2816 mt 1151 2874 L
1151 2816 mt 1093 2874 L
1098 2816 mt 1156 2874 L
1156 2816 mt 1098 2874 L
1099 2814 mt 1157 2872 L
1157 2814 mt 1099 2872 L
1098 2804 mt 1156 2862 L
1156 2804 mt 1098 2862 L
1101 2803 mt 1159 2861 L
1159 2803 mt 1101 2861 L
1104 2807 mt 1162 2865 L
1162 2807 mt 1104 2865 L
1108 2806 mt 1166 2864 L
1166 2806 mt 1108 2864 L
1111 2806 mt 1169 2864 L
1169 2806 mt 1111 2864 L
1113 2815 mt 1171 2873 L
1171 2815 mt 1113 2873 L
1114 2811 mt 1172 2869 L
1172 2811 mt 1114 2869 L
1117 2813 mt 1175 2871 L
1175 2813 mt 1117 2871 L
1118 2815 mt 1176 2873 L
1176 2815 mt 1118 2873 L
1120 2805 mt 1178 2863 L
1178 2805 mt 1120 2863 L
1124 2808 mt 1182 2866 L
1182 2808 mt 1124 2866 L
1129 2808 mt 1187 2866 L
1187 2808 mt 1129 2866 L
1131 2807 mt 1189 2865 L
1189 2807 mt 1131 2865 L
1133 2798 mt 1191 2856 L
1191 2798 mt 1133 2856 L
1135 2799 mt 1193 2857 L
1193 2799 mt 1135 2857 L
1136 2787 mt 1194 2845 L
1194 2787 mt 1136 2845 L
1138 2782 mt 1196 2840 L
1196 2782 mt 1138 2840 L
1141 2786 mt 1199 2844 L
1199 2786 mt 1141 2844 L
1147 2787 mt 1205 2845 L
1205 2787 mt 1147 2845 L
1147 2785 mt 1205 2843 L
1205 2785 mt 1147 2843 L
1152 2784 mt 1210 2842 L
1210 2784 mt 1152 2842 L
1158 2784 mt 1216 2842 L
1216 2784 mt 1158 2842 L
1163 2782 mt 1221 2840 L
1221 2782 mt 1163 2840 L
1165 2771 mt 1223 2829 L
1223 2771 mt 1165 2829 L
1166 2762 mt 1224 2820 L
1224 2762 mt 1166 2820 L
1164 2746 mt 1222 2804 L
1222 2746 mt 1164 2804 L
1166 2750 mt 1224 2808 L
1224 2750 mt 1166 2808 L
1171 2756 mt 1229 2814 L
1229 2756 mt 1171 2814 L
1175 2754 mt 1233 2812 L
1233 2754 mt 1175 2812 L
1181 2761 mt 1239 2819 L
1239 2761 mt 1181 2819 L
1183 2755 mt 1241 2813 L
1241 2755 mt 1183 2813 L
1186 2758 mt 1244 2816 L
1244 2758 mt 1186 2816 L
1188 2754 mt 1246 2812 L
1246 2754 mt 1188 2812 L
1190 2752 mt 1248 2810 L
1248 2752 mt 1190 2810 L
1193 2754 mt 1251 2812 L
1251 2754 mt 1193 2812 L
1197 2741 mt 1255 2799 L
1255 2741 mt 1197 2799 L
1199 2741 mt 1257 2799 L
1257 2741 mt 1199 2799 L
1202 2744 mt 1260 2802 L
1260 2744 mt 1202 2802 L
1205 2742 mt 1263 2800 L
1263 2742 mt 1205 2800 L
1208 2732 mt 1266 2790 L
1266 2732 mt 1208 2790 L
1207 2720 mt 1265 2778 L
1265 2720 mt 1207 2778 L
1217 2740 mt 1275 2798 L
1275 2740 mt 1217 2798 L
1224 2744 mt 1282 2802 L
1282 2744 mt 1224 2802 L
1226 2745 mt 1284 2803 L
1284 2745 mt 1226 2803 L
1223 2723 mt 1281 2781 L
1281 2723 mt 1223 2781 L
1228 2727 mt 1286 2785 L
1286 2727 mt 1228 2785 L
1235 2727 mt 1293 2785 L
1293 2727 mt 1235 2785 L
1239 2719 mt 1297 2777 L
1297 2719 mt 1239 2777 L
1240 2714 mt 1298 2772 L
1298 2714 mt 1240 2772 L
1247 2720 mt 1305 2778 L
1305 2720 mt 1247 2778 L
1250 2716 mt 1308 2774 L
1308 2716 mt 1250 2774 L
1255 2712 mt 1313 2770 L
1313 2712 mt 1255 2770 L
1260 2717 mt 1318 2775 L
1318 2717 mt 1260 2775 L
1267 2721 mt 1325 2779 L
1325 2721 mt 1267 2779 L
1270 2714 mt 1328 2772 L
1328 2714 mt 1270 2772 L
1275 2714 mt 1333 2772 L
1333 2714 mt 1275 2772 L
1277 2709 mt 1335 2767 L
1335 2709 mt 1277 2767 L
1281 2717 mt 1339 2775 L
1339 2717 mt 1281 2775 L
1285 2711 mt 1343 2769 L
1343 2711 mt 1285 2769 L
1288 2711 mt 1346 2769 L
1346 2711 mt 1288 2769 L
1293 2709 mt 1351 2767 L
1351 2709 mt 1293 2767 L
1293 2698 mt 1351 2756 L
1351 2698 mt 1293 2756 L
1295 2689 mt 1353 2747 L
1353 2689 mt 1295 2747 L
1304 2700 mt 1362 2758 L
1362 2700 mt 1304 2758 L
1308 2691 mt 1366 2749 L
1366 2691 mt 1308 2749 L
1314 2692 mt 1372 2750 L
1372 2692 mt 1314 2750 L
1320 2693 mt 1378 2751 L
1378 2693 mt 1320 2751 L
1325 2693 mt 1383 2751 L
1383 2693 mt 1325 2751 L
1330 2693 mt 1388 2751 L
1388 2693 mt 1330 2751 L
1330 2691 mt 1388 2749 L
1388 2691 mt 1330 2749 L
1332 2687 mt 1390 2745 L
1390 2687 mt 1332 2745 L
1339 2691 mt 1397 2749 L
1397 2691 mt 1339 2749 L
1344 2692 mt 1402 2750 L
1402 2692 mt 1344 2750 L
1348 2686 mt 1406 2744 L
1406 2686 mt 1348 2744 L
1349 2680 mt 1407 2738 L
1407 2680 mt 1349 2738 L
1357 2680 mt 1415 2738 L
1415 2680 mt 1357 2738 L
1366 2681 mt 1424 2739 L
1424 2681 mt 1366 2739 L
1368 2676 mt 1426 2734 L
1426 2676 mt 1368 2734 L
1372 2676 mt 1430 2734 L
1430 2676 mt 1372 2734 L
1378 2668 mt 1436 2726 L
1436 2668 mt 1378 2726 L
1382 2668 mt 1440 2726 L
1440 2668 mt 1382 2726 L
1387 2667 mt 1445 2725 L
1445 2667 mt 1387 2725 L
1397 2673 mt 1455 2731 L
1455 2673 mt 1397 2731 L
1401 2669 mt 1459 2727 L
1459 2669 mt 1401 2727 L
1402 2666 mt 1460 2724 L
1460 2666 mt 1402 2724 L
1409 2663 mt 1467 2721 L
1467 2663 mt 1409 2721 L
1417 2664 mt 1475 2722 L
1475 2664 mt 1417 2722 L
1420 2658 mt 1478 2716 L
1478 2658 mt 1420 2716 L
1430 2662 mt 1488 2720 L
1488 2662 mt 1430 2720 L
1434 2660 mt 1492 2718 L
1492 2660 mt 1434 2718 L
1432 2656 mt 1490 2714 L
1490 2656 mt 1432 2714 L
1436 2649 mt 1494 2707 L
1494 2649 mt 1436 2707 L
1444 2650 mt 1502 2708 L
1502 2650 mt 1444 2708 L
1446 2642 mt 1504 2700 L
1504 2642 mt 1446 2700 L
1453 2640 mt 1511 2698 L
1511 2640 mt 1453 2698 L
1459 2640 mt 1517 2698 L
1517 2640 mt 1459 2698 L
1464 2635 mt 1522 2693 L
1522 2635 mt 1464 2693 L
1468 2635 mt 1526 2693 L
1526 2635 mt 1468 2693 L
1464 2621 mt 1522 2679 L
1522 2621 mt 1464 2679 L
1478 2631 mt 1536 2689 L
1536 2631 mt 1478 2689 L
1484 2629 mt 1542 2687 L
1542 2629 mt 1484 2687 L
1485 2622 mt 1543 2680 L
1543 2622 mt 1485 2680 L
1489 2620 mt 1547 2678 L
1547 2620 mt 1489 2678 L
1496 2625 mt 1554 2683 L
1554 2625 mt 1496 2683 L
1500 2623 mt 1558 2681 L
1558 2623 mt 1500 2681 L
1509 2626 mt 1567 2684 L
1567 2626 mt 1509 2684 L
1514 2622 mt 1572 2680 L
1572 2622 mt 1514 2680 L
1519 2622 mt 1577 2680 L
1577 2622 mt 1519 2680 L
1526 2625 mt 1584 2683 L
1584 2625 mt 1526 2683 L
1532 2621 mt 1590 2679 L
1590 2621 mt 1532 2679 L
1531 2615 mt 1589 2673 L
1589 2615 mt 1531 2673 L
1537 2613 mt 1595 2671 L
1595 2613 mt 1537 2671 L
1548 2617 mt 1606 2675 L
1606 2617 mt 1548 2675 L
1551 2611 mt 1609 2669 L
1609 2611 mt 1551 2669 L
1563 2610 mt 1621 2668 L
1621 2610 mt 1563 2668 L
1568 2605 mt 1626 2663 L
1626 2605 mt 1568 2663 L
1575 2607 mt 1633 2665 L
1633 2607 mt 1575 2665 L
1580 2605 mt 1638 2663 L
1638 2605 mt 1580 2663 L
1585 2597 mt 1643 2655 L
1643 2597 mt 1585 2655 L
1595 2604 mt 1653 2662 L
1653 2604 mt 1595 2662 L
1605 2601 mt 1663 2659 L
1663 2601 mt 1605 2659 L
1609 2601 mt 1667 2659 L
1667 2601 mt 1609 2659 L
1617 2598 mt 1675 2656 L
1675 2598 mt 1617 2656 L
1622 2596 mt 1680 2654 L
1680 2596 mt 1622 2654 L
1631 2593 mt 1689 2651 L
1689 2593 mt 1631 2651 L
1635 2592 mt 1693 2650 L
1693 2592 mt 1635 2650 L
1641 2592 mt 1699 2650 L
1699 2592 mt 1641 2650 L
1646 2596 mt 1704 2654 L
1704 2596 mt 1646 2654 L
1648 2589 mt 1706 2647 L
1706 2589 mt 1648 2647 L
1658 2589 mt 1716 2647 L
1716 2589 mt 1658 2647 L
1667 2589 mt 1725 2647 L
1725 2589 mt 1667 2647 L
1674 2588 mt 1732 2646 L
1732 2588 mt 1674 2646 L
1678 2582 mt 1736 2640 L
1736 2582 mt 1678 2640 L
1692 2589 mt 1750 2647 L
1750 2589 mt 1692 2647 L
1698 2583 mt 1756 2641 L
1756 2583 mt 1698 2641 L
1709 2592 mt 1767 2650 L
1767 2592 mt 1709 2650 L
1715 2591 mt 1773 2649 L
1773 2591 mt 1715 2649 L
1715 2586 mt 1773 2644 L
1773 2586 mt 1715 2644 L
1730 2585 mt 1788 2643 L
1788 2585 mt 1730 2643 L
1739 2581 mt 1797 2639 L
1797 2581 mt 1739 2639 L
1746 2580 mt 1804 2638 L
1804 2580 mt 1746 2638 L
1751 2576 mt 1809 2634 L
1809 2576 mt 1751 2634 L
1758 2574 mt 1816 2632 L
1816 2574 mt 1758 2632 L
1768 2575 mt 1826 2633 L
1826 2575 mt 1768 2633 L
1781 2574 mt 1839 2632 L
1839 2574 mt 1781 2632 L
1787 2569 mt 1845 2627 L
1845 2569 mt 1787 2627 L
1795 2572 mt 1853 2630 L
1853 2572 mt 1795 2630 L
1801 2565 mt 1859 2623 L
1859 2565 mt 1801 2623 L
1810 2564 mt 1868 2622 L
1868 2564 mt 1810 2622 L
1824 2567 mt 1882 2625 L
1882 2567 mt 1824 2625 L
1834 2568 mt 1892 2626 L
1892 2568 mt 1834 2626 L
1843 2568 mt 1901 2626 L
1901 2568 mt 1843 2626 L
1852 2567 mt 1910 2625 L
1910 2567 mt 1852 2625 L
1861 2571 mt 1919 2629 L
1919 2571 mt 1861 2629 L
1869 2567 mt 1927 2625 L
1927 2567 mt 1869 2625 L
1880 2572 mt 1938 2630 L
1938 2572 mt 1880 2630 L
1886 2565 mt 1944 2623 L
1944 2565 mt 1886 2623 L
1900 2569 mt 1958 2627 L
1958 2569 mt 1900 2627 L
1905 2566 mt 1963 2624 L
1963 2566 mt 1905 2624 L
1914 2566 mt 1972 2624 L
1972 2566 mt 1914 2624 L
1925 2563 mt 1983 2621 L
1983 2563 mt 1925 2621 L
1927 2559 mt 1985 2617 L
1985 2559 mt 1927 2617 L
1946 2565 mt 2004 2623 L
2004 2565 mt 1946 2623 L
1954 2564 mt 2012 2622 L
2012 2564 mt 1954 2622 L
1966 2565 mt 2024 2623 L
2024 2565 mt 1966 2623 L
1972 2560 mt 2030 2618 L
2030 2560 mt 1972 2618 L
1974 2555 mt 2032 2613 L
2032 2555 mt 1974 2613 L
1998 2564 mt 2056 2622 L
2056 2564 mt 1998 2622 L
2008 2564 mt 2066 2622 L
2066 2564 mt 2008 2622 L
2016 2564 mt 2074 2622 L
2074 2564 mt 2016 2622 L
2020 2558 mt 2078 2616 L
2078 2558 mt 2020 2616 L
2022 2552 mt 2080 2610 L
2080 2552 mt 2022 2610 L
2047 2560 mt 2105 2618 L
2105 2560 mt 2047 2618 L
2055 2560 mt 2113 2618 L
2113 2560 mt 2055 2618 L
2052 2554 mt 2110 2612 L
2110 2554 mt 2052 2612 L
2067 2554 mt 2125 2612 L
2125 2554 mt 2067 2612 L
2081 2554 mt 2139 2612 L
2139 2554 mt 2081 2612 L
2090 2554 mt 2148 2612 L
2148 2554 mt 2090 2612 L
2109 2560 mt 2167 2618 L
2167 2560 mt 2109 2618 L
2114 2554 mt 2172 2612 L
2172 2554 mt 2114 2612 L
2123 2551 mt 2181 2609 L
2181 2551 mt 2123 2609 L
2139 2553 mt 2197 2611 L
2197 2553 mt 2139 2611 L
2153 2553 mt 2211 2611 L
2211 2553 mt 2153 2611 L
2167 2555 mt 2225 2613 L
2225 2555 mt 2167 2613 L
2180 2553 mt 2238 2611 L
2238 2553 mt 2180 2611 L
2193 2555 mt 2251 2613 L
2251 2555 mt 2193 2613 L
2207 2556 mt 2265 2614 L
2265 2556 mt 2207 2614 L
2221 2556 mt 2279 2614 L
2279 2556 mt 2221 2614 L
2231 2556 mt 2289 2614 L
2289 2556 mt 2231 2614 L
2242 2547 mt 2300 2605 L
2300 2547 mt 2242 2605 L
2252 2552 mt 2310 2610 L
2310 2552 mt 2252 2610 L
2261 2546 mt 2319 2604 L
2319 2546 mt 2261 2604 L
2276 2547 mt 2334 2605 L
2334 2547 mt 2276 2605 L
2293 2547 mt 2351 2605 L
2351 2547 mt 2293 2605 L
2305 2545 mt 2363 2603 L
2363 2545 mt 2305 2603 L
2322 2546 mt 2380 2604 L
2380 2546 mt 2322 2604 L
2329 2542 mt 2387 2600 L
2387 2542 mt 2329 2600 L
2343 2544 mt 2401 2602 L
2401 2544 mt 2343 2602 L
2362 2549 mt 2420 2607 L
2420 2549 mt 2362 2607 L
2368 2541 mt 2426 2599 L
2426 2541 mt 2368 2599 L
2381 2545 mt 2439 2603 L
2439 2545 mt 2381 2603 L
2404 2549 mt 2462 2607 L
2462 2549 mt 2404 2607 L
2417 2546 mt 2475 2604 L
2475 2546 mt 2417 2604 L
2432 2546 mt 2490 2604 L
2490 2546 mt 2432 2604 L
2446 2548 mt 2504 2606 L
2504 2548 mt 2446 2606 L
2460 2544 mt 2518 2602 L
2518 2544 mt 2460 2602 L
2474 2545 mt 2532 2603 L
2532 2545 mt 2474 2603 L
2491 2548 mt 2549 2606 L
2549 2548 mt 2491 2606 L
2494 2547 mt 2552 2605 L
2552 2547 mt 2494 2605 L
2513 2546 mt 2571 2604 L
2571 2546 mt 2513 2604 L
2532 2545 mt 2590 2603 L
2590 2545 mt 2532 2603 L
2539 2543 mt 2597 2601 L
2597 2543 mt 2539 2601 L
2548 2540 mt 2606 2598 L
2606 2540 mt 2548 2598 L
2570 2541 mt 2628 2599 L
2628 2541 mt 2570 2599 L
2584 2538 mt 2642 2596 L
2642 2538 mt 2584 2596 L
2597 2534 mt 2655 2592 L
2655 2534 mt 2597 2592 L
2612 2537 mt 2670 2595 L
2670 2537 mt 2612 2595 L
2626 2538 mt 2684 2596 L
2684 2538 mt 2626 2596 L
2640 2537 mt 2698 2595 L
2698 2537 mt 2640 2595 L
2653 2534 mt 2711 2592 L
2711 2534 mt 2653 2592 L
2660 2528 mt 2718 2586 L
2718 2528 mt 2660 2586 L
2673 2528 mt 2731 2586 L
2731 2528 mt 2673 2586 L
2686 2531 mt 2744 2589 L
2744 2531 mt 2686 2589 L
2715 2533 mt 2773 2591 L
2773 2533 mt 2715 2591 L
2724 2531 mt 2782 2589 L
2782 2531 mt 2724 2589 L
2749 2529 mt 2807 2587 L
2807 2529 mt 2749 2587 L
2749 2526 mt 2807 2584 L
2807 2526 mt 2749 2584 L
2776 2530 mt 2834 2588 L
2834 2530 mt 2776 2588 L
2800 2529 mt 2858 2587 L
2858 2529 mt 2800 2587 L
2812 2528 mt 2870 2586 L
2870 2528 mt 2812 2586 L
2832 2526 mt 2890 2584 L
2890 2526 mt 2832 2584 L
2852 2527 mt 2910 2585 L
2910 2527 mt 2852 2585 L
2870 2525 mt 2928 2583 L
2928 2525 mt 2870 2583 L
2891 2525 mt 2949 2583 L
2949 2525 mt 2891 2583 L
2904 2523 mt 2962 2581 L
2962 2523 mt 2904 2581 L
2925 2525 mt 2983 2583 L
2983 2525 mt 2925 2583 L
2932 2526 mt 2990 2584 L
2990 2526 mt 2932 2584 L
2958 2529 mt 3016 2587 L
3016 2529 mt 2958 2587 L
2972 2524 mt 3030 2582 L
3030 2524 mt 2972 2582 L
2990 2522 mt 3048 2580 L
3048 2522 mt 2990 2580 L
3010 2522 mt 3068 2580 L
3068 2522 mt 3010 2580 L
3015 2516 mt 3073 2574 L
3073 2516 mt 3015 2574 L
3044 2518 mt 3102 2576 L
3102 2518 mt 3044 2576 L
3064 2519 mt 3122 2577 L
3122 2519 mt 3064 2577 L
3078 2512 mt 3136 2570 L
3136 2512 mt 3078 2570 L
3105 2520 mt 3163 2578 L
3163 2520 mt 3105 2578 L
3128 2518 mt 3186 2576 L
3186 2518 mt 3128 2576 L
3142 2515 mt 3200 2573 L
3200 2515 mt 3142 2573 L
3166 2514 mt 3224 2572 L
3224 2514 mt 3166 2572 L
3180 2513 mt 3238 2571 L
3238 2513 mt 3180 2571 L
3198 2514 mt 3256 2572 L
3256 2514 mt 3198 2572 L
3233 2520 mt 3291 2578 L
3291 2520 mt 3233 2578 L
3250 2518 mt 3308 2576 L
3308 2518 mt 3250 2576 L
3279 2515 mt 3337 2573 L
3337 2515 mt 3279 2573 L
3297 2516 mt 3355 2574 L
3355 2516 mt 3297 2574 L
3319 2515 mt 3377 2573 L
3377 2515 mt 3319 2573 L
3350 2518 mt 3408 2576 L
3408 2518 mt 3350 2576 L
3370 2519 mt 3428 2577 L
3428 2519 mt 3370 2577 L
3396 2518 mt 3454 2576 L
3454 2518 mt 3396 2576 L
3421 2518 mt 3479 2576 L
3479 2518 mt 3421 2576 L
3441 2517 mt 3499 2575 L
3499 2517 mt 3441 2575 L
3466 2518 mt 3524 2576 L
3524 2518 mt 3466 2576 L
3493 2521 mt 3551 2579 L
3551 2521 mt 3493 2579 L
3520 2518 mt 3578 2576 L
3578 2518 mt 3520 2576 L
3546 2522 mt 3604 2580 L
3604 2522 mt 3546 2580 L
3560 2519 mt 3618 2577 L
3618 2519 mt 3560 2577 L
3595 2521 mt 3653 2579 L
3653 2521 mt 3595 2579 L
3618 2522 mt 3676 2580 L
3676 2522 mt 3618 2580 L
3644 2522 mt 3702 2580 L
3702 2522 mt 3644 2580 L
3670 2522 mt 3728 2580 L
3728 2522 mt 3670 2580 L
3703 2523 mt 3761 2581 L
3761 2523 mt 3703 2581 L
3727 2522 mt 3785 2580 L
3785 2522 mt 3727 2580 L
3755 2522 mt 3813 2580 L
3813 2522 mt 3755 2580 L
3786 2522 mt 3844 2580 L
3844 2522 mt 3786 2580 L
3805 2521 mt 3863 2579 L
3863 2521 mt 3805 2579 L
3834 2522 mt 3892 2580 L
3892 2522 mt 3834 2580 L
3859 2522 mt 3917 2580 L
3917 2522 mt 3859 2580 L
3891 2522 mt 3949 2580 L
3949 2522 mt 3891 2580 L
3917 2521 mt 3975 2579 L
3975 2521 mt 3917 2579 L
3944 2523 mt 4002 2581 L
4002 2523 mt 3944 2581 L
3965 2519 mt 4023 2577 L
4023 2519 mt 3965 2577 L
4004 2520 mt 4062 2578 L
4062 2520 mt 4004 2578 L
4035 2520 mt 4093 2578 L
4093 2520 mt 4035 2578 L
4057 2519 mt 4115 2577 L
4115 2519 mt 4057 2577 L
4100 2520 mt 4158 2578 L
4158 2520 mt 4100 2578 L
4123 2517 mt 4181 2575 L
4181 2517 mt 4123 2575 L
4159 2519 mt 4217 2577 L
4217 2519 mt 4159 2577 L
4191 2519 mt 4249 2577 L
4249 2519 mt 4191 2577 L
4218 2517 mt 4276 2575 L
4276 2517 mt 4218 2575 L
4252 2518 mt 4310 2576 L
4310 2518 mt 4252 2576 L
4284 2519 mt 4342 2577 L
4342 2519 mt 4284 2577 L
4308 2516 mt 4366 2574 L
4366 2516 mt 4308 2574 L
4345 2516 mt 4403 2574 L
4403 2516 mt 4345 2574 L
4377 2517 mt 4435 2575 L
4435 2517 mt 4377 2575 L
4411 2517 mt 4469 2575 L
4469 2517 mt 4411 2575 L
4433 2516 mt 4491 2574 L
4491 2516 mt 4433 2574 L
4475 2517 mt 4533 2575 L
4533 2517 mt 4475 2575 L
4499 2516 mt 4557 2574 L
4557 2516 mt 4499 2574 L
4538 2515 mt 4596 2573 L
4596 2515 mt 4538 2573 L
4563 2513 mt 4621 2571 L
4621 2513 mt 4563 2571 L
4607 2514 mt 4665 2572 L
4665 2514 mt 4607 2572 L
4633 2511 mt 4691 2569 L
4691 2511 mt 4633 2569 L
4670 2512 mt 4728 2570 L
4728 2512 mt 4670 2570 L
3291 1961 mt 3349 2019 L
3349 1961 mt 3291 2019 L
2829 1715 mt 2887 1773 L
2887 1715 mt 2829 1773 L
2689 1669 mt 2747 1727 L
2747 1669 mt 2689 1727 L
2621 1668 mt 2679 1726 L
2679 1668 mt 2621 1726 L
2562 1647 mt 2620 1705 L
2620 1647 mt 2562 1705 L
2516 1635 mt 2574 1693 L
2574 1635 mt 2516 1693 L
2480 1628 mt 2538 1686 L
2538 1628 mt 2480 1686 L
2442 1616 mt 2500 1674 L
2500 1616 mt 2442 1674 L
2401 1605 mt 2459 1663 L
2459 1605 mt 2401 1663 L
2363 1596 mt 2421 1654 L
2421 1596 mt 2363 1654 L
2331 1588 mt 2389 1646 L
2389 1588 mt 2331 1646 L
2306 1585 mt 2364 1643 L
2364 1585 mt 2306 1643 L
2277 1580 mt 2335 1638 L
2335 1580 mt 2277 1638 L
2244 1570 mt 2302 1628 L
2302 1570 mt 2244 1628 L
2212 1560 mt 2270 1618 L
2270 1560 mt 2212 1618 L
2175 1545 mt 2233 1603 L
2233 1545 mt 2175 1603 L
2141 1530 mt 2199 1588 L
2199 1530 mt 2141 1588 L
2110 1520 mt 2168 1578 L
2168 1520 mt 2110 1578 L
2081 1510 mt 2139 1568 L
2139 1510 mt 2081 1568 L
2052 1498 mt 2110 1556 L
2110 1498 mt 2052 1556 L
2025 1487 mt 2083 1545 L
2083 1487 mt 2025 1545 L
1996 1473 mt 2054 1531 L
2054 1473 mt 1996 1531 L
1967 1466 mt 2025 1524 L
2025 1466 mt 1967 1524 L
1935 1446 mt 1993 1504 L
1993 1446 mt 1935 1504 L
1907 1436 mt 1965 1494 L
1965 1436 mt 1907 1494 L
1879 1417 mt 1937 1475 L
1937 1417 mt 1879 1475 L
1854 1406 mt 1912 1464 L
1912 1406 mt 1854 1464 L
1833 1402 mt 1891 1460 L
1891 1402 mt 1833 1460 L
1810 1388 mt 1868 1446 L
1868 1388 mt 1810 1446 L
1790 1379 mt 1848 1437 L
1848 1379 mt 1790 1437 L
1767 1369 mt 1825 1427 L
1825 1369 mt 1767 1427 L
1745 1358 mt 1803 1416 L
1803 1358 mt 1745 1416 L
1725 1351 mt 1783 1409 L
1783 1351 mt 1725 1409 L
1705 1339 mt 1763 1397 L
1763 1339 mt 1705 1397 L
1684 1327 mt 1742 1385 L
1742 1327 mt 1684 1385 L
1661 1309 mt 1719 1367 L
1719 1309 mt 1661 1367 L
1638 1291 mt 1696 1349 L
1696 1291 mt 1638 1349 L
1617 1276 mt 1675 1334 L
1675 1276 mt 1617 1334 L
1597 1262 mt 1655 1320 L
1655 1262 mt 1597 1320 L
1565 1226 mt 1623 1284 L
1623 1226 mt 1565 1284 L
1545 1210 mt 1603 1268 L
1603 1210 mt 1545 1268 L
1526 1193 mt 1584 1251 L
1584 1193 mt 1526 1251 L
1511 1183 mt 1569 1241 L
1569 1183 mt 1511 1241 L
1492 1163 mt 1550 1221 L
1550 1163 mt 1492 1221 L
1473 1146 mt 1531 1204 L
1531 1146 mt 1473 1204 L
1457 1136 mt 1515 1194 L
1515 1136 mt 1457 1194 L
1437 1112 mt 1495 1170 L
1495 1112 mt 1437 1170 L
1416 1080 mt 1474 1138 L
1474 1080 mt 1416 1138 L
1402 1068 mt 1460 1126 L
1460 1068 mt 1402 1126 L
1386 1048 mt 1444 1106 L
1444 1048 mt 1386 1106 L
1369 1025 mt 1427 1083 L
1427 1025 mt 1369 1083 L
1353 1011 mt 1411 1069 L
1411 1011 mt 1353 1069 L
1340 1002 mt 1398 1060 L
1398 1002 mt 1340 1060 L
1323  970 mt 1381 1028 L
1381  970 mt 1323 1028 L
1309  950 mt 1367 1008 L
1367  950 mt 1309 1008 L
1296  937 mt 1354  995 L
1354  937 mt 1296  995 L
1283  916 mt 1341  974 L
1341  916 mt 1283  974 L
1269  902 mt 1327  960 L
1327  902 mt 1269  960 L
1256  887 mt 1314  945 L
1314  887 mt 1256  945 L
1241  863 mt 1299  921 L
1299  863 mt 1241  921 L
1226  837 mt 1284  895 L
1284  837 mt 1226  895 L
1211  803 mt 1269  861 L
1269  803 mt 1211  861 L
1198  778 mt 1256  836 L
1256  778 mt 1198  836 L
1186  761 mt 1244  819 L
1244  761 mt 1186  819 L
1177  741 mt 1235  799 L
1235  741 mt 1177  799 L
1166  722 mt 1224  780 L
1224  722 mt 1166  780 L
1154  701 mt 1212  759 L
1212  701 mt 1154  759 L
1142  673 mt 1200  731 L
1200  673 mt 1142  731 L
1130  640 mt 1188  698 L
1188  640 mt 1130  698 L
1119  620 mt 1177  678 L
1177  620 mt 1119  678 L
1107  589 mt 1165  647 L
1165  589 mt 1107  647 L
1095  557 mt 1153  615 L
1153  557 mt 1095  615 L
gs 848 565 4238 3956 rc
gr

0 sg
%%IncludeResource: font Helvetica
/Helvetica /ISOLatin1Encoding 83.3333 FMSR

 829 4558 mt 
( ) s
5067  602 mt 
( ) s
8.33333 w
DO
SO
12.5 w
0.1 sg
 848 4520 mt 5085 4520 L
 848  564 mt 5085  564 L
 848 4520 mt  848  564 L
5085 4520 mt 5085  564 L
 848 4520 mt 5085 4520 L
 848 4520 mt  848  564 L
 848 4520 mt  848 4456 L
 848  564 mt  848  628 L
%%IncludeResource: font Helvetica
/Helvetica /ISOLatin1Encoding 133.333 FMSR

 811 4667 mt 
(0) s
1617 4520 mt 1617 4456 L
1617  564 mt 1617  628 L
1543 4667 mt 
(20) s
2386 4520 mt 2386 4456 L
2386  564 mt 2386  628 L
2312 4667 mt 
(40) s
3156 4520 mt 3156 4456 L
3156  564 mt 3156  628 L
3082 4667 mt 
(60) s
3925 4520 mt 3925 4456 L
3925  564 mt 3925  628 L
3851 4667 mt 
(80) s
4694 4520 mt 4694 4456 L
4694  564 mt 4694  628 L
4583 4667 mt 
(100) s
 848 4520 mt  911 4520 L
5085 4520 mt 5021 4520 L
 750 4569 mt 
(0) s
 848 3955 mt  911 3955 L
5085 3955 mt 5021 3955 L
 639 4004 mt 
(0.1) s
 848 3390 mt  911 3390 L
5085 3390 mt 5021 3390 L
 639 3439 mt 
(0.2) s
 848 2824 mt  911 2824 L
5085 2824 mt 5021 2824 L
 639 2873 mt 
(0.3) s
 848 2259 mt  911 2259 L
5085 2259 mt 5021 2259 L
 639 2308 mt 
(0.4) s
 848 1694 mt  911 1694 L
5085 1694 mt 5021 1694 L
 639 1743 mt 
(0.5) s
 848 1129 mt  911 1129 L
5085 1129 mt 5021 1129 L
 639 1178 mt 
(0.6) s
 848  564 mt  911  564 L
5085  564 mt 5021  564 L
 639  613 mt 
(0.7) s
 848 4520 mt 5085 4520 L
 848  564 mt 5085  564 L
 848 4520 mt  848  564 L
5085 4520 mt 5085  564 L
0 sg
%%IncludeResource: font Helvetica-Bold
/Helvetica-Bold /ISOLatin1Encoding 125 FMSR

3653  802 mt 
(k) s
%%IncludeResource: font Helvetica-Bold
/Helvetica-Bold /ISOLatin1Encoding 100 FMSR

3722  864 mt 
(1) s
%%IncludeResource: font Helvetica-Bold
/Helvetica-Bold /ISOLatin1Encoding 125 FMSR

3777  802 mt 
( = G = 2.5E6 Pa) s
gs 3328 668 1396 784 rc
16.6667 w
gr

16.6667 w
3474  779 mt 3532  837 L
3532  779 mt 3474  837 L
gs 3328 668 1396 784 rc
gr

3653 1054 mt 
(k) s
%%IncludeResource: font Helvetica-Bold
/Helvetica-Bold /ISOLatin1Encoding 100 FMSR

3722 1116 mt 
(1) s
%%IncludeResource: font Helvetica-Bold
/Helvetica-Bold /ISOLatin1Encoding 125 FMSR

3777 1054 mt 
( = G = 5E6 Pa) s
gs 3328 668 1396 784 rc
gr

c8
3474 1030 mt 3532 1088 L
3532 1030 mt 3474 1088 L
gs 3328 668 1396 784 rc
gr

0 sg
3653 1306 mt 
(k) s
%%IncludeResource: font Helvetica-Bold
/Helvetica-Bold /ISOLatin1Encoding 100 FMSR

3722 1368 mt 
(1) s
%%IncludeResource: font Helvetica-Bold
/Helvetica-Bold /ISOLatin1Encoding 125 FMSR

3777 1306 mt 
( = G = 7.5E6 Pa) s
gs 3328 668 1396 784 rc
gr

c9
3474 1281 mt 3532 1339 L
3532 1281 mt 3474 1339 L
gs 3328 668 1396 784 rc
12.5 w
gr

12.5 w

end %%Color Dict

eplot
%%EndObject

epage
end

showpage

%%Trailer
%%EOF
