%!PS-Adobe-3.0 EPSF-3.0
%%Creator: MATLAB, The MathWorks, Inc. Version 7.12.0.635 (R2011a). Operating System: Linux 2.6.32-358.6.2.el6.x86_64 #1 SMP Thu May 16 11:21:38 CDT 2013 x86_64.
%%Title: ./EPT_Tests_Paired_K2_Var_Stress_K0_Same.eps
%%CreationDate: 08/16/2013  15:31:29
%%DocumentNeededFonts: Helvetica-Bold
%%+ Helvetica
%%DocumentProcessColors: Cyan Magenta Yellow Black
%%LanguageLevel: 2
%%Pages: 1
%%BoundingBox:    16    69   598   605
%%EndComments

%%BeginProlog
% MathWorks dictionary
/MathWorks 160 dict begin
% definition operators
/bdef {bind def} bind def
/ldef {load def} bind def
/xdef {exch def} bdef
/xstore {exch store} bdef
% operator abbreviations
/c  /clip ldef
/cc /concat ldef
/cp /closepath ldef
/gr /grestore ldef
/gs /gsave ldef
/mt /moveto ldef
/np /newpath ldef
/cm /currentmatrix ldef
/sm /setmatrix ldef
/rm /rmoveto ldef
/rl /rlineto ldef
/s {show newpath} bdef
/sc {setcmykcolor} bdef
/sr /setrgbcolor ldef
/sg /setgray ldef
/w /setlinewidth ldef
/j /setlinejoin ldef
/cap /setlinecap ldef
/rc {rectclip} bdef
/rf {rectfill} bdef
% page state control
/pgsv () def
/bpage {/pgsv save def} bdef
/epage {pgsv restore} bdef
/bplot /gsave ldef
/eplot {stroke grestore} bdef
% orientation switch
/portraitMode 0 def /landscapeMode 1 def /rotateMode 2 def
% coordinate system mappings
/dpi2point 0 def
% font control
/FontSize 0 def
/FMS {/FontSize xstore findfont [FontSize 0 0 FontSize neg 0 0]
  makefont setfont} bdef
/reencode {exch dup where {pop load} {pop StandardEncoding} ifelse
  exch dup 3 1 roll findfont dup length dict begin
  { 1 index /FID ne {def}{pop pop} ifelse } forall
  /Encoding exch def currentdict end definefont pop} bdef
/isroman {findfont /CharStrings get /Agrave known} bdef
/FMSR {3 1 roll 1 index dup isroman {reencode} {pop pop} ifelse
  exch FMS} bdef
/csm {1 dpi2point div -1 dpi2point div scale neg translate
 dup landscapeMode eq {pop -90 rotate}
  {rotateMode eq {90 rotate} if} ifelse} bdef
% line types: solid, dotted, dashed, dotdash
/SO { [] 0 setdash } bdef
/DO { [.5 dpi2point mul 4 dpi2point mul] 0 setdash } bdef
/DA { [6 dpi2point mul] 0 setdash } bdef
/DD { [.5 dpi2point mul 4 dpi2point mul 6 dpi2point mul 4
  dpi2point mul] 0 setdash } bdef
% macros for lines and objects
/L {lineto stroke} bdef
/MP {3 1 roll moveto 1 sub {rlineto} repeat} bdef
/AP {{rlineto} repeat} bdef
/PDlw -1 def
/W {/PDlw currentlinewidth def setlinewidth} def
/PP {closepath eofill} bdef
/DP {closepath stroke} bdef
/MR {4 -2 roll moveto dup  0 exch rlineto exch 0 rlineto
  neg 0 exch rlineto closepath} bdef
/FR {MR stroke} bdef
/PR {MR fill} bdef
/L1i {{currentfile picstr readhexstring pop} image} bdef
/tMatrix matrix def
/MakeOval {newpath tMatrix currentmatrix pop translate scale
0 0 1 0 360 arc tMatrix setmatrix} bdef
/FO {MakeOval stroke} bdef
/PO {MakeOval fill} bdef
/PD {currentlinewidth 2 div 0 360 arc fill
   PDlw -1 eq not {PDlw w /PDlw -1 def} if} def
/FA {newpath tMatrix currentmatrix pop translate scale
  0 0 1 5 -2 roll arc tMatrix setmatrix stroke} bdef
/PA {newpath tMatrix currentmatrix pop	translate 0 0 moveto scale
  0 0 1 5 -2 roll arc closepath tMatrix setmatrix fill} bdef
/FAn {newpath tMatrix currentmatrix pop translate scale
  0 0 1 5 -2 roll arcn tMatrix setmatrix stroke} bdef
/PAn {newpath tMatrix currentmatrix pop translate 0 0 moveto scale
  0 0 1 5 -2 roll arcn closepath tMatrix setmatrix fill} bdef
/vradius 0 def /hradius 0 def /lry 0 def
/lrx 0 def /uly 0 def /ulx 0 def /rad 0 def
/MRR {/vradius xdef /hradius xdef /lry xdef /lrx xdef /uly xdef
  /ulx xdef newpath tMatrix currentmatrix pop ulx hradius add uly
  vradius add translate hradius vradius scale 0 0 1 180 270 arc 
  tMatrix setmatrix lrx hradius sub uly vradius add translate
  hradius vradius scale 0 0 1 270 360 arc tMatrix setmatrix
  lrx hradius sub lry vradius sub translate hradius vradius scale
  0 0 1 0 90 arc tMatrix setmatrix ulx hradius add lry vradius sub
  translate hradius vradius scale 0 0 1 90 180 arc tMatrix setmatrix
  closepath} bdef
/FRR {MRR stroke } bdef
/PRR {MRR fill } bdef
/MlrRR {/lry xdef /lrx xdef /uly xdef /ulx xdef /rad lry uly sub 2 div def
  newpath tMatrix currentmatrix pop ulx rad add uly rad add translate
  rad rad scale 0 0 1 90 270 arc tMatrix setmatrix lrx rad sub lry rad
  sub translate rad rad scale 0 0 1 270 90 arc tMatrix setmatrix
  closepath} bdef
/FlrRR {MlrRR stroke } bdef
/PlrRR {MlrRR fill } bdef
/MtbRR {/lry xdef /lrx xdef /uly xdef /ulx xdef /rad lrx ulx sub 2 div def
  newpath tMatrix currentmatrix pop ulx rad add uly rad add translate
  rad rad scale 0 0 1 180 360 arc tMatrix setmatrix lrx rad sub lry rad
  sub translate rad rad scale 0 0 1 0 180 arc tMatrix setmatrix
  closepath} bdef
/FtbRR {MtbRR stroke } bdef
/PtbRR {MtbRR fill } bdef
/stri 6 array def /dtri 6 array def
/smat 6 array def /dmat 6 array def
/tmat1 6 array def /tmat2 6 array def /dif 3 array def
/asub {/ind2 exch def /ind1 exch def dup dup
  ind1 get exch ind2 get sub exch } bdef
/tri_to_matrix {
  2 0 asub 3 1 asub 4 0 asub 5 1 asub
  dup 0 get exch 1 get 7 -1 roll astore } bdef
/compute_transform {
  dmat dtri tri_to_matrix tmat1 invertmatrix 
  smat stri tri_to_matrix tmat2 concatmatrix } bdef
/ds {stri astore pop} bdef
/dt {dtri astore pop} bdef
/db {2 copy /cols xdef /rows xdef mul dup 3 mul string
  currentfile 
  3 index 0 eq {/ASCIIHexDecode filter}
  {/ASCII85Decode filter 3 index 2 eq {/RunLengthDecode filter} if }
  ifelse exch readstring pop
  dup 0 3 index getinterval /rbmap xdef
  dup 2 index dup getinterval /gbmap xdef
  1 index dup 2 mul exch getinterval /bbmap xdef pop pop}bdef
/it {gs np dtri aload pop moveto lineto lineto cp c
  cols rows 8 compute_transform 
  rbmap gbmap bbmap true 3 colorimage gr}bdef
/il {newpath moveto lineto stroke}bdef
currentdict end def
%%EndProlog

%%BeginSetup
MathWorks begin

0 cap

end
%%EndSetup

%%Page: 1 1
%%BeginPageSetup
%%PageBoundingBox:    16    69   598   605
MathWorks begin
bpage
%%EndPageSetup

%%BeginObject: obj1
bplot

/dpi2point 8.33333 def
portraitMode -0158 5475 csm

  292   429  4855  4471 rc
84 dict begin %Colortable dictionary
/c0 { 0.000000 0.000000 0.000000 sr} bdef
/c1 { 1.000000 1.000000 1.000000 sr} bdef
/c2 { 0.900000 0.000000 0.000000 sr} bdef
/c3 { 0.000000 0.820000 0.000000 sr} bdef
/c4 { 0.000000 0.000000 0.800000 sr} bdef
/c5 { 0.910000 0.820000 0.320000 sr} bdef
/c6 { 1.000000 0.260000 0.820000 sr} bdef
/c7 { 0.000000 0.820000 0.820000 sr} bdef
c0
1 j
1 sg
   0    0 5651 5651 rf
12.5 w
0 3956 4237 0 0 -3956 848 4520 4 MP
PP
-4237 0 0 3956 4237 0 0 -3956 848 4520 5 MP stroke
gs 848 564 4238 3957 rc
16.6667 w
gr

16.6667 w
0 sg
 819 3221 mt  877 3279 L
 877 3221 mt  819 3279 L
 820 3351 mt  878 3409 L
 878 3351 mt  820 3409 L
 820 3359 mt  878 3417 L
 878 3359 mt  820 3417 L
 820 3366 mt  878 3424 L
 878 3366 mt  820 3424 L
 820 3383 mt  878 3441 L
 878 3383 mt  820 3441 L
 820 3376 mt  878 3434 L
 878 3376 mt  820 3434 L
 821 3383 mt  879 3441 L
 879 3383 mt  821 3441 L
 821 3392 mt  879 3450 L
 879 3392 mt  821 3450 L
 821 3383 mt  879 3441 L
 879 3383 mt  821 3441 L
 822 3489 mt  880 3547 L
 880 3489 mt  822 3547 L
 821 3440 mt  879 3498 L
 879 3440 mt  821 3498 L
 821 3371 mt  879 3429 L
 879 3371 mt  821 3429 L
 822 3403 mt  880 3461 L
 880 3403 mt  822 3461 L
 822 3436 mt  880 3494 L
 880 3436 mt  822 3494 L
 822 3396 mt  880 3454 L
 880 3396 mt  822 3454 L
 822 3366 mt  880 3424 L
 880 3366 mt  822 3424 L
 822 3353 mt  880 3411 L
 880 3353 mt  822 3411 L
 822 3329 mt  880 3387 L
 880 3329 mt  822 3387 L
 821 3330 mt  879 3388 L
 879 3330 mt  821 3388 L
 822 3327 mt  880 3385 L
 880 3327 mt  822 3385 L
 822 3360 mt  880 3418 L
 880 3360 mt  822 3418 L
 822 3405 mt  880 3463 L
 880 3405 mt  822 3463 L
 822 3443 mt  880 3501 L
 880 3443 mt  822 3501 L
 823 3487 mt  881 3545 L
 881 3487 mt  823 3545 L
 823 3492 mt  881 3550 L
 881 3492 mt  823 3550 L
 824 3576 mt  882 3634 L
 882 3576 mt  824 3634 L
 825 3643 mt  883 3701 L
 883 3643 mt  825 3701 L
 825 3641 mt  883 3699 L
 883 3641 mt  825 3699 L
 825 3616 mt  883 3674 L
 883 3616 mt  825 3674 L
 825 3614 mt  883 3672 L
 883 3614 mt  825 3672 L
 825 3598 mt  883 3656 L
 883 3598 mt  825 3656 L
 826 3656 mt  884 3714 L
 884 3656 mt  826 3714 L
 827 3677 mt  885 3735 L
 885 3677 mt  827 3735 L
 828 3710 mt  886 3768 L
 886 3710 mt  828 3768 L
 829 3720 mt  887 3778 L
 887 3720 mt  829 3778 L
 830 3814 mt  888 3872 L
 888 3814 mt  830 3872 L
 830 3801 mt  888 3859 L
 888 3801 mt  830 3859 L
 831 3807 mt  889 3865 L
 889 3807 mt  831 3865 L
 831 3814 mt  889 3872 L
 889 3814 mt  831 3872 L
 832 3834 mt  890 3892 L
 890 3834 mt  832 3892 L
 832 3840 mt  890 3898 L
 890 3840 mt  832 3898 L
 832 3855 mt  890 3913 L
 890 3855 mt  832 3913 L
 832 3887 mt  890 3945 L
 890 3887 mt  832 3945 L
 833 3917 mt  891 3975 L
 891 3917 mt  833 3975 L
 834 3958 mt  892 4016 L
 892 3958 mt  834 4016 L
 834 3979 mt  892 4037 L
 892 3979 mt  834 4037 L
 835 3983 mt  893 4041 L
 893 3983 mt  835 4041 L
 835 3973 mt  893 4031 L
 893 3973 mt  835 4031 L
 837 4030 mt  895 4088 L
 895 4030 mt  837 4088 L
 837 3980 mt  895 4038 L
 895 3980 mt  837 4038 L
 837 3969 mt  895 4027 L
 895 3969 mt  837 4027 L
 837 3947 mt  895 4005 L
 895 3947 mt  837 4005 L
 838 3954 mt  896 4012 L
 896 3954 mt  838 4012 L
 838 3947 mt  896 4005 L
 896 3947 mt  838 4005 L
 837 3923 mt  895 3981 L
 895 3923 mt  837 3981 L
 837 3930 mt  895 3988 L
 895 3930 mt  837 3988 L
 839 3958 mt  897 4016 L
 897 3958 mt  839 4016 L
 840 3985 mt  898 4043 L
 898 3985 mt  840 4043 L
 839 3953 mt  897 4011 L
 897 3953 mt  839 4011 L
 839 3947 mt  897 4005 L
 897 3947 mt  839 4005 L
 840 3975 mt  898 4033 L
 898 3975 mt  840 4033 L
 840 3931 mt  898 3989 L
 898 3931 mt  840 3989 L
 840 3959 mt  898 4017 L
 898 3959 mt  840 4017 L
 841 3963 mt  899 4021 L
 899 3963 mt  841 4021 L
 843 3999 mt  901 4057 L
 901 3999 mt  843 4057 L
 843 3988 mt  901 4046 L
 901 3988 mt  843 4046 L
 843 3983 mt  901 4041 L
 901 3983 mt  843 4041 L
 844 3987 mt  902 4045 L
 902 3987 mt  844 4045 L
 845 4053 mt  903 4111 L
 903 4053 mt  845 4111 L
 846 4048 mt  904 4106 L
 904 4048 mt  846 4106 L
 845 4020 mt  903 4078 L
 903 4020 mt  845 4078 L
 846 4036 mt  904 4094 L
 904 4036 mt  846 4094 L
 847 4061 mt  905 4119 L
 905 4061 mt  847 4119 L
 848 4084 mt  906 4142 L
 906 4084 mt  848 4142 L
 849 4128 mt  907 4186 L
 907 4128 mt  849 4186 L
 850 4132 mt  908 4190 L
 908 4132 mt  850 4190 L
 850 4139 mt  908 4197 L
 908 4139 mt  850 4197 L
 850 4153 mt  908 4211 L
 908 4153 mt  850 4211 L
 851 4153 mt  909 4211 L
 909 4153 mt  851 4211 L
 851 4162 mt  909 4220 L
 909 4162 mt  851 4220 L
 851 4144 mt  909 4202 L
 909 4144 mt  851 4202 L
 851 4106 mt  909 4164 L
 909 4106 mt  851 4164 L
 852 4095 mt  910 4153 L
 910 4095 mt  852 4153 L
 852 4124 mt  910 4182 L
 910 4124 mt  852 4182 L
 853 4128 mt  911 4186 L
 911 4128 mt  853 4186 L
 853 4131 mt  911 4189 L
 911 4131 mt  853 4189 L
 854 4157 mt  912 4215 L
 912 4157 mt  854 4215 L
 855 4170 mt  913 4228 L
 913 4170 mt  855 4228 L
 856 4187 mt  914 4245 L
 914 4187 mt  856 4245 L
 855 4182 mt  913 4240 L
 913 4182 mt  855 4240 L
 855 4158 mt  913 4216 L
 913 4158 mt  855 4216 L
 856 4158 mt  914 4216 L
 914 4158 mt  856 4216 L
 857 4167 mt  915 4225 L
 915 4167 mt  857 4225 L
 857 4121 mt  915 4179 L
 915 4121 mt  857 4179 L
 857 4073 mt  915 4131 L
 915 4073 mt  857 4131 L
 858 4070 mt  916 4128 L
 916 4070 mt  858 4128 L
 859 4053 mt  917 4111 L
 917 4053 mt  859 4111 L
 859 4091 mt  917 4149 L
 917 4091 mt  859 4149 L
 859 4080 mt  917 4138 L
 917 4080 mt  859 4138 L
 859 4031 mt  917 4089 L
 917 4031 mt  859 4089 L
 860 4039 mt  918 4097 L
 918 4039 mt  860 4097 L
 860 4023 mt  918 4081 L
 918 4023 mt  860 4081 L
 861 4027 mt  919 4085 L
 919 4027 mt  861 4085 L
 861 4025 mt  919 4083 L
 919 4025 mt  861 4083 L
 862 4038 mt  920 4096 L
 920 4038 mt  862 4096 L
 864 4055 mt  922 4113 L
 922 4055 mt  864 4113 L
 865 4047 mt  923 4105 L
 923 4047 mt  865 4105 L
 866 4024 mt  924 4082 L
 924 4024 mt  866 4082 L
 866 4004 mt  924 4062 L
 924 4004 mt  866 4062 L
 867 4023 mt  925 4081 L
 925 4023 mt  867 4081 L
 869 4051 mt  927 4109 L
 927 4051 mt  869 4109 L
 872 4097 mt  930 4155 L
 930 4097 mt  872 4155 L
 873 4085 mt  931 4143 L
 931 4085 mt  873 4143 L
 873 4072 mt  931 4130 L
 931 4072 mt  873 4130 L
 873 4070 mt  931 4128 L
 931 4070 mt  873 4128 L
 873 4055 mt  931 4113 L
 931 4055 mt  873 4113 L
 873 4076 mt  931 4134 L
 931 4076 mt  873 4134 L
 872 4076 mt  930 4134 L
 930 4076 mt  872 4134 L
 873 4098 mt  931 4156 L
 931 4098 mt  873 4156 L
 873 4072 mt  931 4130 L
 931 4072 mt  873 4130 L
 874 4051 mt  932 4109 L
 932 4051 mt  874 4109 L
 875 4040 mt  933 4098 L
 933 4040 mt  875 4098 L
 876 4017 mt  934 4075 L
 934 4017 mt  876 4075 L
 876 4006 mt  934 4064 L
 934 4006 mt  876 4064 L
 876 3979 mt  934 4037 L
 934 3979 mt  876 4037 L
 876 3967 mt  934 4025 L
 934 3967 mt  876 4025 L
 878 3974 mt  936 4032 L
 936 3974 mt  878 4032 L
 879 3981 mt  937 4039 L
 937 3981 mt  879 4039 L
 878 3947 mt  936 4005 L
 936 3947 mt  878 4005 L
 880 3953 mt  938 4011 L
 938 3953 mt  880 4011 L
 880 3960 mt  938 4018 L
 938 3960 mt  880 4018 L
 881 3984 mt  939 4042 L
 939 3984 mt  881 4042 L
 881 3975 mt  939 4033 L
 939 3975 mt  881 4033 L
 883 3993 mt  941 4051 L
 941 3993 mt  883 4051 L
 884 3996 mt  942 4054 L
 942 3996 mt  884 4054 L
 885 3971 mt  943 4029 L
 943 3971 mt  885 4029 L
 887 3985 mt  945 4043 L
 945 3985 mt  887 4043 L
 888 3970 mt  946 4028 L
 946 3970 mt  888 4028 L
 887 3919 mt  945 3977 L
 945 3919 mt  887 3977 L
 889 3948 mt  947 4006 L
 947 3948 mt  889 4006 L
 890 3952 mt  948 4010 L
 948 3952 mt  890 4010 L
 891 3928 mt  949 3986 L
 949 3928 mt  891 3986 L
 892 3921 mt  950 3979 L
 950 3921 mt  892 3979 L
 892 3905 mt  950 3963 L
 950 3905 mt  892 3963 L
 893 3905 mt  951 3963 L
 951 3905 mt  893 3963 L
 893 3889 mt  951 3947 L
 951 3889 mt  893 3947 L
 895 3896 mt  953 3954 L
 953 3896 mt  895 3954 L
 896 3901 mt  954 3959 L
 954 3901 mt  896 3959 L
 897 3887 mt  955 3945 L
 955 3887 mt  897 3945 L
 897 3877 mt  955 3935 L
 955 3877 mt  897 3935 L
 897 3884 mt  955 3942 L
 955 3884 mt  897 3942 L
 897 3880 mt  955 3938 L
 955 3880 mt  897 3938 L
 898 3894 mt  956 3952 L
 956 3894 mt  898 3952 L
 897 3876 mt  955 3934 L
 955 3876 mt  897 3934 L
 898 3863 mt  956 3921 L
 956 3863 mt  898 3921 L
 899 3873 mt  957 3931 L
 957 3873 mt  899 3931 L
 900 3871 mt  958 3929 L
 958 3871 mt  900 3929 L
 901 3861 mt  959 3919 L
 959 3861 mt  901 3919 L
 901 3835 mt  959 3893 L
 959 3835 mt  901 3893 L
 902 3841 mt  960 3899 L
 960 3841 mt  902 3899 L
 903 3851 mt  961 3909 L
 961 3851 mt  903 3909 L
 904 3866 mt  962 3924 L
 962 3866 mt  904 3924 L
 904 3868 mt  962 3926 L
 962 3868 mt  904 3926 L
 905 3876 mt  963 3934 L
 963 3876 mt  905 3934 L
 906 3889 mt  964 3947 L
 964 3889 mt  906 3947 L
 906 3903 mt  964 3961 L
 964 3903 mt  906 3961 L
 907 3895 mt  965 3953 L
 965 3895 mt  907 3953 L
 908 3908 mt  966 3966 L
 966 3908 mt  908 3966 L
 908 3910 mt  966 3968 L
 966 3910 mt  908 3968 L
 908 3883 mt  966 3941 L
 966 3883 mt  908 3941 L
 910 3897 mt  968 3955 L
 968 3897 mt  910 3955 L
 911 3892 mt  969 3950 L
 969 3892 mt  911 3950 L
 910 3870 mt  968 3928 L
 968 3870 mt  910 3928 L
 911 3847 mt  969 3905 L
 969 3847 mt  911 3905 L
 912 3845 mt  970 3903 L
 970 3845 mt  912 3903 L
 914 3849 mt  972 3907 L
 972 3849 mt  914 3907 L
 914 3825 mt  972 3883 L
 972 3825 mt  914 3883 L
 914 3822 mt  972 3880 L
 972 3822 mt  914 3880 L
 916 3820 mt  974 3878 L
 974 3820 mt  916 3878 L
 917 3828 mt  975 3886 L
 975 3828 mt  917 3886 L
 918 3818 mt  976 3876 L
 976 3818 mt  918 3876 L
 919 3797 mt  977 3855 L
 977 3797 mt  919 3855 L
 920 3776 mt  978 3834 L
 978 3776 mt  920 3834 L
 922 3791 mt  980 3849 L
 980 3791 mt  922 3849 L
 922 3798 mt  980 3856 L
 980 3798 mt  922 3856 L
 921 3798 mt  979 3856 L
 979 3798 mt  921 3856 L
 921 3783 mt  979 3841 L
 979 3783 mt  921 3841 L
 920 3784 mt  978 3842 L
 978 3784 mt  920 3842 L
 921 3802 mt  979 3860 L
 979 3802 mt  921 3860 L
 924 3788 mt  982 3846 L
 982 3788 mt  924 3846 L
 925 3777 mt  983 3835 L
 983 3777 mt  925 3835 L
 928 3786 mt  986 3844 L
 986 3786 mt  928 3844 L
 927 3774 mt  985 3832 L
 985 3774 mt  927 3832 L
 926 3761 mt  984 3819 L
 984 3761 mt  926 3819 L
 929 3767 mt  987 3825 L
 987 3767 mt  929 3825 L
 932 3777 mt  990 3835 L
 990 3777 mt  932 3835 L
 936 3791 mt  994 3849 L
 994 3791 mt  936 3849 L
 936 3783 mt  994 3841 L
 994 3783 mt  936 3841 L
 936 3767 mt  994 3825 L
 994 3767 mt  936 3825 L
 936 3775 mt  994 3833 L
 994 3775 mt  936 3833 L
 937 3782 mt  995 3840 L
 995 3782 mt  937 3840 L
 939 3791 mt  997 3849 L
 997 3791 mt  939 3849 L
 941 3783 mt  999 3841 L
 999 3783 mt  941 3841 L
 941 3780 mt  999 3838 L
 999 3780 mt  941 3838 L
 942 3770 mt 1000 3828 L
1000 3770 mt  942 3828 L
 942 3765 mt 1000 3823 L
1000 3765 mt  942 3823 L
 942 3753 mt 1000 3811 L
1000 3753 mt  942 3811 L
 942 3758 mt 1000 3816 L
1000 3758 mt  942 3816 L
 943 3753 mt 1001 3811 L
1001 3753 mt  943 3811 L
 943 3730 mt 1001 3788 L
1001 3730 mt  943 3788 L
 945 3726 mt 1003 3784 L
1003 3726 mt  945 3784 L
 945 3704 mt 1003 3762 L
1003 3704 mt  945 3762 L
 946 3696 mt 1004 3754 L
1004 3696 mt  946 3754 L
 946 3695 mt 1004 3753 L
1004 3695 mt  946 3753 L
 949 3691 mt 1007 3749 L
1007 3691 mt  949 3749 L
 950 3693 mt 1008 3751 L
1008 3693 mt  950 3751 L
 951 3700 mt 1009 3758 L
1009 3700 mt  951 3758 L
 953 3707 mt 1011 3765 L
1011 3707 mt  953 3765 L
 954 3709 mt 1012 3767 L
1012 3709 mt  954 3767 L
 954 3702 mt 1012 3760 L
1012 3702 mt  954 3760 L
 955 3709 mt 1013 3767 L
1013 3709 mt  955 3767 L
 955 3718 mt 1013 3776 L
1013 3718 mt  955 3776 L
 954 3703 mt 1012 3761 L
1012 3703 mt  954 3761 L
 954 3721 mt 1012 3779 L
1012 3721 mt  954 3779 L
 954 3711 mt 1012 3769 L
1012 3711 mt  954 3769 L
 955 3702 mt 1013 3760 L
1013 3702 mt  955 3760 L
 956 3693 mt 1014 3751 L
1014 3693 mt  956 3751 L
 958 3677 mt 1016 3735 L
1016 3677 mt  958 3735 L
 959 3678 mt 1017 3736 L
1017 3678 mt  959 3736 L
 962 3692 mt 1020 3750 L
1020 3692 mt  962 3750 L
 962 3684 mt 1020 3742 L
1020 3684 mt  962 3742 L
 959 3663 mt 1017 3721 L
1017 3663 mt  959 3721 L
 958 3652 mt 1016 3710 L
1016 3652 mt  958 3710 L
 958 3647 mt 1016 3705 L
1016 3647 mt  958 3705 L
 959 3633 mt 1017 3691 L
1017 3633 mt  959 3691 L
 961 3639 mt 1019 3697 L
1019 3639 mt  961 3697 L
 963 3640 mt 1021 3698 L
1021 3640 mt  963 3698 L
 964 3654 mt 1022 3712 L
1022 3654 mt  964 3712 L
 964 3642 mt 1022 3700 L
1022 3642 mt  964 3700 L
 965 3642 mt 1023 3700 L
1023 3642 mt  965 3700 L
 967 3647 mt 1025 3705 L
1025 3647 mt  967 3705 L
 968 3644 mt 1026 3702 L
1026 3644 mt  968 3702 L
 966 3619 mt 1024 3677 L
1024 3619 mt  966 3677 L
 968 3622 mt 1026 3680 L
1026 3622 mt  968 3680 L
 968 3602 mt 1026 3660 L
1026 3602 mt  968 3660 L
 972 3613 mt 1030 3671 L
1030 3613 mt  972 3671 L
 974 3590 mt 1032 3648 L
1032 3590 mt  974 3648 L
 975 3578 mt 1033 3636 L
1033 3578 mt  975 3636 L
 974 3561 mt 1032 3619 L
1032 3561 mt  974 3619 L
 975 3564 mt 1033 3622 L
1033 3564 mt  975 3622 L
 977 3546 mt 1035 3604 L
1035 3546 mt  977 3604 L
 978 3523 mt 1036 3581 L
1036 3523 mt  978 3581 L
 982 3554 mt 1040 3612 L
1040 3554 mt  982 3612 L
 983 3545 mt 1041 3603 L
1041 3545 mt  983 3603 L
 984 3547 mt 1042 3605 L
1042 3547 mt  984 3605 L
 987 3557 mt 1045 3615 L
1045 3557 mt  987 3615 L
 988 3535 mt 1046 3593 L
1046 3535 mt  988 3593 L
 992 3540 mt 1050 3598 L
1050 3540 mt  992 3598 L
 994 3534 mt 1052 3592 L
1052 3534 mt  994 3592 L
 996 3529 mt 1054 3587 L
1054 3529 mt  996 3587 L
 999 3531 mt 1057 3589 L
1057 3531 mt  999 3589 L
1000 3521 mt 1058 3579 L
1058 3521 mt 1000 3579 L
1002 3531 mt 1060 3589 L
1060 3531 mt 1002 3589 L
1004 3520 mt 1062 3578 L
1062 3520 mt 1004 3578 L
1005 3510 mt 1063 3568 L
1063 3510 mt 1005 3568 L
1008 3514 mt 1066 3572 L
1066 3514 mt 1008 3572 L
1011 3525 mt 1069 3583 L
1069 3525 mt 1011 3583 L
1013 3510 mt 1071 3568 L
1071 3510 mt 1013 3568 L
1014 3501 mt 1072 3559 L
1072 3501 mt 1014 3559 L
1016 3521 mt 1074 3579 L
1074 3521 mt 1016 3579 L
1015 3515 mt 1073 3573 L
1073 3515 mt 1015 3573 L
1018 3521 mt 1076 3579 L
1076 3521 mt 1018 3579 L
1022 3525 mt 1080 3583 L
1080 3525 mt 1022 3583 L
1023 3512 mt 1081 3570 L
1081 3512 mt 1023 3570 L
1027 3534 mt 1085 3592 L
1085 3534 mt 1027 3592 L
1028 3558 mt 1086 3616 L
1086 3558 mt 1028 3616 L
1029 3579 mt 1087 3637 L
1087 3579 mt 1029 3637 L
1033 3587 mt 1091 3645 L
1091 3587 mt 1033 3645 L
1038 3602 mt 1096 3660 L
1096 3602 mt 1038 3660 L
1037 3579 mt 1095 3637 L
1095 3579 mt 1037 3637 L
1038 3577 mt 1096 3635 L
1096 3577 mt 1038 3635 L
1041 3577 mt 1099 3635 L
1099 3577 mt 1041 3635 L
1044 3579 mt 1102 3637 L
1102 3579 mt 1044 3637 L
1047 3581 mt 1105 3639 L
1105 3581 mt 1047 3639 L
1049 3574 mt 1107 3632 L
1107 3574 mt 1049 3632 L
1051 3564 mt 1109 3622 L
1109 3564 mt 1051 3622 L
1053 3565 mt 1111 3623 L
1111 3565 mt 1053 3623 L
1054 3559 mt 1112 3617 L
1112 3559 mt 1054 3617 L
1057 3552 mt 1115 3610 L
1115 3552 mt 1057 3610 L
1058 3548 mt 1116 3606 L
1116 3548 mt 1058 3606 L
1060 3541 mt 1118 3599 L
1118 3541 mt 1060 3599 L
1064 3551 mt 1122 3609 L
1122 3551 mt 1064 3609 L
1067 3564 mt 1125 3622 L
1125 3564 mt 1067 3622 L
1070 3564 mt 1128 3622 L
1128 3564 mt 1070 3622 L
1072 3554 mt 1130 3612 L
1130 3554 mt 1072 3612 L
1079 3576 mt 1137 3634 L
1137 3576 mt 1079 3634 L
1079 3562 mt 1137 3620 L
1137 3562 mt 1079 3620 L
1077 3549 mt 1135 3607 L
1135 3549 mt 1077 3607 L
1081 3555 mt 1139 3613 L
1139 3555 mt 1081 3613 L
1085 3557 mt 1143 3615 L
1143 3557 mt 1085 3615 L
1091 3583 mt 1149 3641 L
1149 3583 mt 1091 3641 L
1092 3565 mt 1150 3623 L
1150 3565 mt 1092 3623 L
1094 3563 mt 1152 3621 L
1152 3563 mt 1094 3621 L
1095 3554 mt 1153 3612 L
1153 3554 mt 1095 3612 L
1096 3559 mt 1154 3617 L
1154 3559 mt 1096 3617 L
1096 3557 mt 1154 3615 L
1154 3557 mt 1096 3615 L
1099 3564 mt 1157 3622 L
1157 3564 mt 1099 3622 L
1100 3557 mt 1158 3615 L
1158 3557 mt 1100 3615 L
1099 3549 mt 1157 3607 L
1157 3549 mt 1099 3607 L
1101 3545 mt 1159 3603 L
1159 3545 mt 1101 3603 L
1102 3529 mt 1160 3587 L
1160 3529 mt 1102 3587 L
1106 3515 mt 1164 3573 L
1164 3515 mt 1106 3573 L
1110 3510 mt 1168 3568 L
1168 3510 mt 1110 3568 L
1109 3505 mt 1167 3563 L
1167 3505 mt 1109 3563 L
1112 3513 mt 1170 3571 L
1170 3513 mt 1112 3571 L
1120 3519 mt 1178 3577 L
1178 3519 mt 1120 3577 L
1123 3506 mt 1181 3564 L
1181 3506 mt 1123 3564 L
1125 3496 mt 1183 3554 L
1183 3496 mt 1125 3554 L
1132 3514 mt 1190 3572 L
1190 3514 mt 1132 3572 L
1134 3506 mt 1192 3564 L
1192 3506 mt 1134 3564 L
1135 3484 mt 1193 3542 L
1193 3484 mt 1135 3542 L
1137 3477 mt 1195 3535 L
1195 3477 mt 1137 3535 L
1140 3470 mt 1198 3528 L
1198 3470 mt 1140 3528 L
1144 3464 mt 1202 3522 L
1202 3464 mt 1144 3522 L
1146 3451 mt 1204 3509 L
1204 3451 mt 1146 3509 L
1150 3451 mt 1208 3509 L
1208 3451 mt 1150 3509 L
1153 3453 mt 1211 3511 L
1211 3453 mt 1153 3511 L
1156 3432 mt 1214 3490 L
1214 3432 mt 1156 3490 L
1162 3435 mt 1220 3493 L
1220 3435 mt 1162 3493 L
1163 3430 mt 1221 3488 L
1221 3430 mt 1163 3488 L
1167 3432 mt 1225 3490 L
1225 3432 mt 1167 3490 L
1174 3440 mt 1232 3498 L
1232 3440 mt 1174 3498 L
1180 3445 mt 1238 3503 L
1238 3445 mt 1180 3503 L
1182 3443 mt 1240 3501 L
1240 3443 mt 1182 3501 L
1181 3434 mt 1239 3492 L
1239 3434 mt 1181 3492 L
1188 3442 mt 1246 3500 L
1246 3442 mt 1188 3500 L
1192 3456 mt 1250 3514 L
1250 3456 mt 1192 3514 L
1197 3464 mt 1255 3522 L
1255 3464 mt 1197 3522 L
1202 3471 mt 1260 3529 L
1260 3471 mt 1202 3529 L
1204 3467 mt 1262 3525 L
1262 3467 mt 1204 3525 L
1199 3454 mt 1257 3512 L
1257 3454 mt 1199 3512 L
1202 3451 mt 1260 3509 L
1260 3451 mt 1202 3509 L
1206 3443 mt 1264 3501 L
1264 3443 mt 1206 3501 L
1212 3444 mt 1270 3502 L
1270 3444 mt 1212 3502 L
1215 3445 mt 1273 3503 L
1273 3445 mt 1215 3503 L
1220 3446 mt 1278 3504 L
1278 3446 mt 1220 3504 L
1221 3448 mt 1279 3506 L
1279 3448 mt 1221 3506 L
1224 3453 mt 1282 3511 L
1282 3453 mt 1224 3511 L
1228 3462 mt 1286 3520 L
1286 3462 mt 1228 3520 L
1228 3460 mt 1286 3518 L
1286 3460 mt 1228 3518 L
1223 3450 mt 1281 3508 L
1281 3450 mt 1223 3508 L
1227 3438 mt 1285 3496 L
1285 3438 mt 1227 3496 L
1238 3444 mt 1296 3502 L
1296 3444 mt 1238 3502 L
1241 3438 mt 1299 3496 L
1299 3438 mt 1241 3496 L
1244 3441 mt 1302 3499 L
1302 3441 mt 1244 3499 L
1250 3447 mt 1308 3505 L
1308 3447 mt 1250 3505 L
1255 3446 mt 1313 3504 L
1313 3446 mt 1255 3504 L
1259 3449 mt 1317 3507 L
1317 3449 mt 1259 3507 L
1263 3441 mt 1321 3499 L
1321 3441 mt 1263 3499 L
1269 3451 mt 1327 3509 L
1327 3451 mt 1269 3509 L
1273 3468 mt 1331 3526 L
1331 3468 mt 1273 3526 L
1271 3465 mt 1329 3523 L
1329 3465 mt 1271 3523 L
1271 3455 mt 1329 3513 L
1329 3455 mt 1271 3513 L
1275 3462 mt 1333 3520 L
1333 3462 mt 1275 3520 L
1279 3462 mt 1337 3520 L
1337 3462 mt 1279 3520 L
1278 3466 mt 1336 3524 L
1336 3466 mt 1278 3524 L
1284 3468 mt 1342 3526 L
1342 3468 mt 1284 3526 L
1286 3455 mt 1344 3513 L
1344 3455 mt 1286 3513 L
1290 3443 mt 1348 3501 L
1348 3443 mt 1290 3501 L
1293 3439 mt 1351 3497 L
1351 3439 mt 1293 3497 L
1292 3421 mt 1350 3479 L
1350 3421 mt 1292 3479 L
1296 3421 mt 1354 3479 L
1354 3421 mt 1296 3479 L
1297 3423 mt 1355 3481 L
1355 3423 mt 1297 3481 L
1300 3423 mt 1358 3481 L
1358 3423 mt 1300 3481 L
1304 3427 mt 1362 3485 L
1362 3427 mt 1304 3485 L
1311 3432 mt 1369 3490 L
1369 3432 mt 1311 3490 L
1320 3435 mt 1378 3493 L
1378 3435 mt 1320 3493 L
1325 3431 mt 1383 3489 L
1383 3431 mt 1325 3489 L
1330 3438 mt 1388 3496 L
1388 3438 mt 1330 3496 L
1329 3432 mt 1387 3490 L
1387 3432 mt 1329 3490 L
1331 3430 mt 1389 3488 L
1389 3430 mt 1331 3488 L
1336 3433 mt 1394 3491 L
1394 3433 mt 1336 3491 L
1338 3430 mt 1396 3488 L
1396 3430 mt 1338 3488 L
1335 3428 mt 1393 3486 L
1393 3428 mt 1335 3486 L
1339 3431 mt 1397 3489 L
1397 3431 mt 1339 3489 L
1346 3435 mt 1404 3493 L
1404 3435 mt 1346 3493 L
1349 3435 mt 1407 3493 L
1407 3435 mt 1349 3493 L
1354 3439 mt 1412 3497 L
1412 3439 mt 1354 3497 L
1359 3443 mt 1417 3501 L
1417 3443 mt 1359 3501 L
1364 3438 mt 1422 3496 L
1422 3438 mt 1364 3496 L
1372 3436 mt 1430 3494 L
1430 3436 mt 1372 3494 L
1377 3438 mt 1435 3496 L
1435 3438 mt 1377 3496 L
1378 3430 mt 1436 3488 L
1436 3430 mt 1378 3488 L
1386 3431 mt 1444 3489 L
1444 3431 mt 1386 3489 L
1394 3429 mt 1452 3487 L
1452 3429 mt 1394 3487 L
1400 3416 mt 1458 3474 L
1458 3416 mt 1400 3474 L
1404 3416 mt 1462 3474 L
1462 3416 mt 1404 3474 L
1414 3420 mt 1472 3478 L
1472 3420 mt 1414 3478 L
1417 3420 mt 1475 3478 L
1475 3420 mt 1417 3478 L
1424 3411 mt 1482 3469 L
1482 3411 mt 1424 3469 L
1434 3421 mt 1492 3479 L
1492 3421 mt 1434 3479 L
1438 3414 mt 1496 3472 L
1496 3414 mt 1438 3472 L
1440 3405 mt 1498 3463 L
1498 3405 mt 1440 3463 L
1448 3409 mt 1506 3467 L
1506 3409 mt 1448 3467 L
1457 3412 mt 1515 3470 L
1515 3412 mt 1457 3470 L
1467 3411 mt 1525 3469 L
1525 3411 mt 1467 3469 L
1474 3402 mt 1532 3460 L
1532 3402 mt 1474 3460 L
1479 3401 mt 1537 3459 L
1537 3401 mt 1479 3459 L
1482 3388 mt 1540 3446 L
1540 3388 mt 1482 3446 L
1486 3382 mt 1544 3440 L
1544 3382 mt 1486 3440 L
1495 3380 mt 1553 3438 L
1553 3380 mt 1495 3438 L
1506 3384 mt 1564 3442 L
1564 3384 mt 1506 3442 L
1514 3378 mt 1572 3436 L
1572 3378 mt 1514 3436 L
1517 3368 mt 1575 3426 L
1575 3368 mt 1517 3426 L
1522 3362 mt 1580 3420 L
1580 3362 mt 1522 3420 L
1530 3367 mt 1588 3425 L
1588 3367 mt 1530 3425 L
1532 3365 mt 1590 3423 L
1590 3365 mt 1532 3423 L
1537 3348 mt 1595 3406 L
1595 3348 mt 1537 3406 L
1549 3342 mt 1607 3400 L
1607 3342 mt 1549 3400 L
1560 3344 mt 1618 3402 L
1618 3344 mt 1560 3402 L
1569 3355 mt 1627 3413 L
1627 3355 mt 1569 3413 L
1577 3344 mt 1635 3402 L
1635 3344 mt 1577 3402 L
1580 3350 mt 1638 3408 L
1638 3350 mt 1580 3408 L
1582 3330 mt 1640 3388 L
1640 3330 mt 1582 3388 L
1593 3335 mt 1651 3393 L
1651 3335 mt 1593 3393 L
1601 3333 mt 1659 3391 L
1659 3333 mt 1601 3391 L
1616 3345 mt 1674 3403 L
1674 3345 mt 1616 3403 L
1621 3338 mt 1679 3396 L
1679 3338 mt 1621 3396 L
1625 3340 mt 1683 3398 L
1683 3340 mt 1625 3398 L
1633 3337 mt 1691 3395 L
1691 3337 mt 1633 3395 L
1638 3320 mt 1696 3378 L
1696 3320 mt 1638 3378 L
1647 3319 mt 1705 3377 L
1705 3319 mt 1647 3377 L
1652 3316 mt 1710 3374 L
1710 3316 mt 1652 3374 L
1662 3315 mt 1720 3373 L
1720 3315 mt 1662 3373 L
1675 3318 mt 1733 3376 L
1733 3318 mt 1675 3376 L
1687 3321 mt 1745 3379 L
1745 3321 mt 1687 3379 L
1697 3322 mt 1755 3380 L
1755 3322 mt 1697 3380 L
1696 3318 mt 1754 3376 L
1754 3318 mt 1696 3376 L
1710 3316 mt 1768 3374 L
1768 3316 mt 1710 3374 L
1712 3312 mt 1770 3370 L
1770 3312 mt 1712 3370 L
1713 3300 mt 1771 3358 L
1771 3300 mt 1713 3358 L
1726 3319 mt 1784 3377 L
1784 3319 mt 1726 3377 L
1742 3312 mt 1800 3370 L
1800 3312 mt 1742 3370 L
1752 3316 mt 1810 3374 L
1810 3316 mt 1752 3374 L
1763 3316 mt 1821 3374 L
1821 3316 mt 1763 3374 L
1773 3320 mt 1831 3378 L
1831 3320 mt 1773 3378 L
1777 3314 mt 1835 3372 L
1835 3314 mt 1777 3372 L
1781 3309 mt 1839 3367 L
1839 3309 mt 1781 3367 L
1779 3306 mt 1837 3364 L
1837 3306 mt 1779 3364 L
1791 3309 mt 1849 3367 L
1849 3309 mt 1791 3367 L
1802 3315 mt 1860 3373 L
1860 3315 mt 1802 3373 L
1808 3318 mt 1866 3376 L
1866 3318 mt 1808 3376 L
1825 3320 mt 1883 3378 L
1883 3320 mt 1825 3378 L
1843 3321 mt 1901 3379 L
1901 3321 mt 1843 3379 L
1855 3320 mt 1913 3378 L
1913 3320 mt 1855 3378 L
1870 3320 mt 1928 3378 L
1928 3320 mt 1870 3378 L
1884 3317 mt 1942 3375 L
1942 3317 mt 1884 3375 L
1898 3320 mt 1956 3378 L
1956 3320 mt 1898 3378 L
1903 3310 mt 1961 3368 L
1961 3310 mt 1903 3368 L
1915 3314 mt 1973 3372 L
1973 3314 mt 1915 3372 L
1925 3312 mt 1983 3370 L
1983 3312 mt 1925 3370 L
1923 3317 mt 1981 3375 L
1981 3317 mt 1923 3375 L
1924 3317 mt 1982 3375 L
1982 3317 mt 1924 3375 L
1944 3323 mt 2002 3381 L
2002 3323 mt 1944 3381 L
1959 3325 mt 2017 3383 L
2017 3325 mt 1959 3383 L
1971 3317 mt 2029 3375 L
2029 3317 mt 1971 3375 L
1990 3316 mt 2048 3374 L
2048 3316 mt 1990 3374 L
2001 3313 mt 2059 3371 L
2059 3313 mt 2001 3371 L
2018 3312 mt 2076 3370 L
2076 3312 mt 2018 3370 L
2036 3313 mt 2094 3371 L
2094 3313 mt 2036 3371 L
2043 3307 mt 2101 3365 L
2101 3307 mt 2043 3365 L
2052 3299 mt 2110 3357 L
2110 3299 mt 2052 3357 L
2074 3307 mt 2132 3365 L
2132 3307 mt 2074 3365 L
2082 3303 mt 2140 3361 L
2140 3303 mt 2082 3361 L
2086 3295 mt 2144 3353 L
2144 3295 mt 2086 3353 L
2089 3289 mt 2147 3347 L
2147 3289 mt 2089 3347 L
2112 3299 mt 2170 3357 L
2170 3299 mt 2112 3357 L
2134 3300 mt 2192 3358 L
2192 3300 mt 2134 3358 L
2150 3297 mt 2208 3355 L
2208 3297 mt 2150 3355 L
2163 3292 mt 2221 3350 L
2221 3292 mt 2163 3350 L
2176 3292 mt 2234 3350 L
2234 3292 mt 2176 3350 L
2193 3299 mt 2251 3357 L
2251 3299 mt 2193 3357 L
2210 3302 mt 2268 3360 L
2268 3302 mt 2210 3360 L
2216 3297 mt 2274 3355 L
2274 3297 mt 2216 3355 L
2232 3297 mt 2290 3355 L
2290 3297 mt 2232 3355 L
2249 3294 mt 2307 3352 L
2307 3294 mt 2249 3352 L
2265 3292 mt 2323 3350 L
2323 3292 mt 2265 3350 L
2289 3296 mt 2347 3354 L
2347 3296 mt 2289 3354 L
2308 3295 mt 2366 3353 L
2366 3295 mt 2308 3353 L
2316 3289 mt 2374 3347 L
2374 3289 mt 2316 3347 L
2332 3287 mt 2390 3345 L
2390 3287 mt 2332 3345 L
2353 3288 mt 2411 3346 L
2411 3288 mt 2353 3346 L
2367 3283 mt 2425 3341 L
2425 3283 mt 2367 3341 L
2374 3278 mt 2432 3336 L
2432 3278 mt 2374 3336 L
2397 3281 mt 2455 3339 L
2455 3281 mt 2397 3339 L
2417 3285 mt 2475 3343 L
2475 3285 mt 2417 3343 L
2430 3279 mt 2488 3337 L
2488 3279 mt 2430 3337 L
2451 3287 mt 2509 3345 L
2509 3287 mt 2451 3345 L
2457 3273 mt 2515 3331 L
2515 3273 mt 2457 3331 L
2476 3271 mt 2534 3329 L
2534 3271 mt 2476 3329 L
2493 3272 mt 2551 3330 L
2551 3272 mt 2493 3330 L
2508 3269 mt 2566 3327 L
2566 3269 mt 2508 3327 L
2542 3275 mt 2600 3333 L
2600 3275 mt 2542 3333 L
2570 3278 mt 2628 3336 L
2628 3278 mt 2570 3336 L
2590 3277 mt 2648 3335 L
2648 3277 mt 2590 3335 L
2609 3278 mt 2667 3336 L
2667 3278 mt 2609 3336 L
2620 3266 mt 2678 3324 L
2678 3266 mt 2620 3324 L
2651 3273 mt 2709 3331 L
2709 3273 mt 2651 3331 L
2678 3274 mt 2736 3332 L
2736 3274 mt 2678 3332 L
2707 3279 mt 2765 3337 L
2765 3279 mt 2707 3337 L
2721 3276 mt 2779 3334 L
2779 3276 mt 2721 3334 L
2741 3282 mt 2799 3340 L
2799 3282 mt 2741 3340 L
2768 3280 mt 2826 3338 L
2826 3280 mt 2768 3338 L
2794 3278 mt 2852 3336 L
2852 3278 mt 2794 3336 L
2820 3283 mt 2878 3341 L
2878 3283 mt 2820 3341 L
2848 3283 mt 2906 3341 L
2906 3283 mt 2848 3341 L
2872 3286 mt 2930 3344 L
2930 3286 mt 2872 3344 L
2886 3279 mt 2944 3337 L
2944 3279 mt 2886 3337 L
2909 3285 mt 2967 3343 L
2967 3285 mt 2909 3343 L
2926 3279 mt 2984 3337 L
2984 3279 mt 2926 3337 L
2952 3285 mt 3010 3343 L
3010 3285 mt 2952 3343 L
2937 3268 mt 2995 3326 L
2995 3268 mt 2937 3326 L
2963 3268 mt 3021 3326 L
3021 3268 mt 2963 3326 L
3002 3274 mt 3060 3332 L
3060 3274 mt 3002 3332 L
3010 3267 mt 3068 3325 L
3068 3267 mt 3010 3325 L
3035 3269 mt 3093 3327 L
3093 3269 mt 3035 3327 L
3063 3271 mt 3121 3329 L
3121 3271 mt 3063 3329 L
3086 3272 mt 3144 3330 L
3144 3272 mt 3086 3330 L
3114 3274 mt 3172 3332 L
3172 3274 mt 3114 3332 L
3132 3273 mt 3190 3331 L
3190 3273 mt 3132 3331 L
3157 3272 mt 3215 3330 L
3215 3272 mt 3157 3330 L
3187 3274 mt 3245 3332 L
3245 3274 mt 3187 3332 L
3156 3259 mt 3214 3317 L
3214 3259 mt 3156 3317 L
3160 3259 mt 3218 3317 L
3218 3259 mt 3160 3317 L
3225 3267 mt 3283 3325 L
3283 3267 mt 3225 3325 L
3247 3262 mt 3305 3320 L
3305 3262 mt 3247 3320 L
3274 3259 mt 3332 3317 L
3332 3259 mt 3274 3317 L
3309 3262 mt 3367 3320 L
3367 3262 mt 3309 3320 L
3331 3256 mt 3389 3314 L
3389 3256 mt 3331 3314 L
3355 3255 mt 3413 3313 L
3413 3255 mt 3355 3313 L
3387 3261 mt 3445 3319 L
3445 3261 mt 3387 3319 L
3388 3248 mt 3446 3306 L
3446 3248 mt 3388 3306 L
3424 3246 mt 3482 3304 L
3482 3246 mt 3424 3304 L
3455 3248 mt 3513 3306 L
3513 3248 mt 3455 3306 L
3471 3253 mt 3529 3311 L
3529 3253 mt 3471 3311 L
3501 3256 mt 3559 3314 L
3559 3256 mt 3501 3314 L
3522 3250 mt 3580 3308 L
3580 3250 mt 3522 3308 L
3567 3254 mt 3625 3312 L
3625 3254 mt 3567 3312 L
3597 3252 mt 3655 3310 L
3655 3252 mt 3597 3310 L
3628 3252 mt 3686 3310 L
3686 3252 mt 3628 3310 L
3653 3253 mt 3711 3311 L
3711 3253 mt 3653 3311 L
3676 3247 mt 3734 3305 L
3734 3247 mt 3676 3305 L
3718 3250 mt 3776 3308 L
3776 3250 mt 3718 3308 L
3753 3248 mt 3811 3306 L
3811 3248 mt 3753 3306 L
3784 3246 mt 3842 3304 L
3842 3246 mt 3784 3304 L
3817 3248 mt 3875 3306 L
3875 3248 mt 3817 3306 L
3844 3243 mt 3902 3301 L
3902 3243 mt 3844 3301 L
3886 3249 mt 3944 3307 L
3944 3249 mt 3886 3307 L
3915 3247 mt 3973 3305 L
3973 3247 mt 3915 3305 L
3937 3247 mt 3995 3305 L
3995 3247 mt 3937 3305 L
3955 3237 mt 4013 3295 L
4013 3237 mt 3955 3295 L
3987 3239 mt 4045 3297 L
4045 3239 mt 3987 3297 L
4002 3234 mt 4060 3292 L
4060 3234 mt 4002 3292 L
4051 3236 mt 4109 3294 L
4109 3236 mt 4051 3294 L
4044 3221 mt 4102 3279 L
4102 3221 mt 4044 3279 L
4100 3231 mt 4158 3289 L
4158 3231 mt 4100 3289 L
4130 3228 mt 4188 3286 L
4188 3228 mt 4130 3286 L
4153 3221 mt 4211 3279 L
4211 3221 mt 4153 3279 L
4172 3223 mt 4230 3281 L
4230 3223 mt 4172 3281 L
4197 3220 mt 4255 3278 L
4255 3220 mt 4197 3278 L
4223 3226 mt 4281 3284 L
4281 3226 mt 4223 3284 L
4269 3224 mt 4327 3282 L
4327 3224 mt 4269 3282 L
4296 3219 mt 4354 3277 L
4354 3219 mt 4296 3277 L
4326 3218 mt 4384 3276 L
4384 3218 mt 4326 3276 L
4343 3214 mt 4401 3272 L
4401 3214 mt 4343 3272 L
4382 3217 mt 4440 3275 L
4440 3217 mt 4382 3275 L
4424 3220 mt 4482 3278 L
4482 3220 mt 4424 3278 L
4414 3215 mt 4472 3273 L
4472 3215 mt 4414 3273 L
4455 3230 mt 4513 3288 L
4513 3230 mt 4455 3288 L
4476 3219 mt 4534 3277 L
4534 3219 mt 4476 3277 L
4476 3215 mt 4534 3273 L
4534 3215 mt 4476 3273 L
4537 3216 mt 4595 3274 L
4595 3216 mt 4537 3274 L
4560 3213 mt 4618 3271 L
4618 3213 mt 4560 3271 L
4585 3212 mt 4643 3270 L
4643 3212 mt 4585 3270 L
4652 3219 mt 4710 3277 L
4710 3219 mt 4652 3277 L
2770 2022 mt 2828 2080 L
2828 2022 mt 2770 2080 L
2642 1997 mt 2700 2055 L
2700 1997 mt 2642 2055 L
2584 1972 mt 2642 2030 L
2642 1972 mt 2584 2030 L
2531 1956 mt 2589 2014 L
2589 1956 mt 2531 2014 L
2468 1936 mt 2526 1994 L
2526 1936 mt 2468 1994 L
2409 1917 mt 2467 1975 L
2467 1917 mt 2409 1975 L
2363 1894 mt 2421 1952 L
2421 1894 mt 2363 1952 L
2295 1866 mt 2353 1924 L
2353 1866 mt 2295 1924 L
2234 1839 mt 2292 1897 L
2292 1839 mt 2234 1897 L
2178 1802 mt 2236 1860 L
2236 1802 mt 2178 1860 L
2107 1752 mt 2165 1810 L
2165 1752 mt 2107 1810 L
2042 1712 mt 2100 1770 L
2100 1712 mt 2042 1770 L
1996 1678 mt 2054 1736 L
2054 1678 mt 1996 1736 L
1945 1642 mt 2003 1700 L
2003 1642 mt 1945 1700 L
1897 1619 mt 1955 1677 L
1955 1619 mt 1897 1677 L
1851 1584 mt 1909 1642 L
1909 1584 mt 1851 1642 L
1800 1532 mt 1858 1590 L
1858 1532 mt 1800 1590 L
1751 1483 mt 1809 1541 L
1809 1483 mt 1751 1541 L
1701 1479 mt 1759 1537 L
1759 1479 mt 1701 1537 L
1642 1405 mt 1700 1463 L
1700 1405 mt 1642 1463 L
1600 1365 mt 1658 1423 L
1658 1365 mt 1600 1423 L
1561 1321 mt 1619 1379 L
1619 1321 mt 1561 1379 L
1518 1282 mt 1576 1340 L
1576 1282 mt 1518 1340 L
1477 1237 mt 1535 1295 L
1535 1237 mt 1477 1295 L
1437 1170 mt 1495 1228 L
1495 1170 mt 1437 1228 L
1404 1121 mt 1462 1179 L
1462 1121 mt 1404 1179 L
1374 1092 mt 1432 1150 L
1432 1092 mt 1374 1150 L
1332 1011 mt 1390 1069 L
1390 1011 mt 1332 1069 L
1294  933 mt 1352  991 L
1352  933 mt 1294  991 L
1259  850 mt 1317  908 L
1317  850 mt 1259  908 L
1225  764 mt 1283  822 L
1283  764 mt 1225  822 L
1191  674 mt 1249  732 L
1249  674 mt 1191  732 L
1155  565 mt 1213  623 L
1213  565 mt 1155  623 L
gs 848 564 4238 3957 rc
gr

0.1 sg
%%IncludeResource: font Helvetica-Bold
/Helvetica-Bold /ISOLatin1Encoding 183.333 FMSR

2331 4842 mt 
(Vertical Stress) s
 485 3516 mt  -90 rotate
(Lateral Pressure Ratio) s
90 rotate
gs 848 564 4238 3957 rc
gr

/c8 { 1.000000 0.000000 0.000000 sr} bdef
c8
 819 3207 mt  877 3265 L
 877 3207 mt  819 3265 L
 819 3214 mt  877 3272 L
 877 3214 mt  819 3272 L
 820 3325 mt  878 3383 L
 878 3325 mt  820 3383 L
 820 3332 mt  878 3390 L
 878 3332 mt  820 3390 L
 820 3341 mt  878 3399 L
 878 3341 mt  820 3399 L
 820 3359 mt  878 3417 L
 878 3359 mt  820 3417 L
 820 3356 mt  878 3414 L
 878 3356 mt  820 3414 L
 820 3362 mt  878 3420 L
 878 3362 mt  820 3420 L
 821 3366 mt  879 3424 L
 879 3366 mt  821 3424 L
 821 3359 mt  879 3417 L
 879 3359 mt  821 3417 L
 821 3454 mt  879 3512 L
 879 3454 mt  821 3512 L
 821 3412 mt  879 3470 L
 879 3412 mt  821 3470 L
 821 3347 mt  879 3405 L
 879 3347 mt  821 3405 L
 821 3374 mt  879 3432 L
 879 3374 mt  821 3432 L
 822 3384 mt  880 3442 L
 880 3384 mt  822 3442 L
 821 3340 mt  879 3398 L
 879 3340 mt  821 3398 L
 821 3299 mt  879 3357 L
 879 3299 mt  821 3357 L
 821 3296 mt  879 3354 L
 879 3296 mt  821 3354 L
 821 3276 mt  879 3334 L
 879 3276 mt  821 3334 L
 821 3269 mt  879 3327 L
 879 3269 mt  821 3327 L
 821 3271 mt  879 3329 L
 879 3271 mt  821 3329 L
 822 3357 mt  880 3415 L
 880 3357 mt  822 3415 L
 822 3393 mt  880 3451 L
 880 3393 mt  822 3451 L
 823 3439 mt  881 3497 L
 881 3439 mt  823 3497 L
 823 3436 mt  881 3494 L
 881 3436 mt  823 3494 L
 823 3438 mt  881 3496 L
 881 3438 mt  823 3496 L
 823 3480 mt  881 3538 L
 881 3480 mt  823 3538 L
 825 3618 mt  883 3676 L
 883 3618 mt  825 3676 L
 826 3642 mt  884 3700 L
 884 3642 mt  826 3700 L
 825 3626 mt  883 3684 L
 883 3626 mt  825 3684 L
 825 3567 mt  883 3625 L
 883 3567 mt  825 3625 L
 825 3549 mt  883 3607 L
 883 3549 mt  825 3607 L
 825 3509 mt  883 3567 L
 883 3509 mt  825 3567 L
 825 3522 mt  883 3580 L
 883 3522 mt  825 3580 L
 825 3547 mt  883 3605 L
 883 3547 mt  825 3605 L
 825 3549 mt  883 3607 L
 883 3549 mt  825 3607 L
 825 3526 mt  883 3584 L
 883 3526 mt  825 3584 L
 827 3673 mt  885 3731 L
 885 3673 mt  827 3731 L
 828 3673 mt  886 3731 L
 886 3673 mt  828 3731 L
 829 3721 mt  887 3779 L
 887 3721 mt  829 3779 L
 829 3714 mt  887 3772 L
 887 3714 mt  829 3772 L
 830 3755 mt  888 3813 L
 888 3755 mt  830 3813 L
 830 3787 mt  888 3845 L
 888 3787 mt  830 3845 L
 830 3760 mt  888 3818 L
 888 3760 mt  830 3818 L
 830 3759 mt  888 3817 L
 888 3759 mt  830 3817 L
 830 3767 mt  888 3825 L
 888 3767 mt  830 3825 L
 830 3774 mt  888 3832 L
 888 3774 mt  830 3832 L
 832 3851 mt  890 3909 L
 890 3851 mt  832 3909 L
 832 3860 mt  890 3918 L
 890 3860 mt  832 3918 L
 833 3872 mt  891 3930 L
 891 3872 mt  833 3930 L
 833 3897 mt  891 3955 L
 891 3897 mt  833 3955 L
 833 3917 mt  891 3975 L
 891 3917 mt  833 3975 L
 833 3902 mt  891 3960 L
 891 3902 mt  833 3960 L
 833 3910 mt  891 3968 L
 891 3910 mt  833 3968 L
 834 3946 mt  892 4004 L
 892 3946 mt  834 4004 L
 835 3996 mt  893 4054 L
 893 3996 mt  835 4054 L
 836 4019 mt  894 4077 L
 894 4019 mt  836 4077 L
 836 4026 mt  894 4084 L
 894 4026 mt  836 4084 L
 836 3991 mt  894 4049 L
 894 3991 mt  836 4049 L
 837 4024 mt  895 4082 L
 895 4024 mt  837 4082 L
 838 4067 mt  896 4125 L
 896 4067 mt  838 4125 L
 838 4047 mt  896 4105 L
 896 4047 mt  838 4105 L
 839 4031 mt  897 4089 L
 897 4031 mt  839 4089 L
 839 4028 mt  897 4086 L
 897 4028 mt  839 4086 L
 840 4027 mt  898 4085 L
 898 4027 mt  840 4085 L
 841 4038 mt  899 4096 L
 899 4038 mt  841 4096 L
 841 4037 mt  899 4095 L
 899 4037 mt  841 4095 L
 841 4029 mt  899 4087 L
 899 4029 mt  841 4087 L
 843 4086 mt  901 4144 L
 901 4086 mt  843 4144 L
 844 4108 mt  902 4166 L
 902 4108 mt  844 4166 L
 845 4118 mt  903 4176 L
 903 4118 mt  845 4176 L
 845 4104 mt  903 4162 L
 903 4104 mt  845 4162 L
 846 4118 mt  904 4176 L
 904 4118 mt  846 4176 L
 846 4142 mt  904 4200 L
 904 4142 mt  846 4200 L
 846 4136 mt  904 4194 L
 904 4136 mt  846 4194 L
 845 4103 mt  903 4161 L
 903 4103 mt  845 4161 L
 846 4144 mt  904 4202 L
 904 4144 mt  846 4202 L
 846 4166 mt  904 4224 L
 904 4166 mt  846 4224 L
 847 4181 mt  905 4239 L
 905 4181 mt  847 4239 L
 848 4215 mt  906 4273 L
 906 4215 mt  848 4273 L
 849 4229 mt  907 4287 L
 907 4229 mt  849 4287 L
 849 4225 mt  907 4283 L
 907 4225 mt  849 4283 L
 850 4204 mt  908 4262 L
 908 4204 mt  850 4262 L
 850 4188 mt  908 4246 L
 908 4188 mt  850 4246 L
 851 4189 mt  909 4247 L
 909 4189 mt  851 4247 L
 852 4193 mt  910 4251 L
 910 4193 mt  852 4251 L
 852 4188 mt  910 4246 L
 910 4188 mt  852 4246 L
 852 4156 mt  910 4214 L
 910 4156 mt  852 4214 L
 853 4163 mt  911 4221 L
 911 4163 mt  853 4221 L
 853 4188 mt  911 4246 L
 911 4188 mt  853 4246 L
 853 4200 mt  911 4258 L
 911 4200 mt  853 4258 L
 852 4189 mt  910 4247 L
 910 4189 mt  852 4247 L
 852 4178 mt  910 4236 L
 910 4178 mt  852 4236 L
 853 4192 mt  911 4250 L
 911 4192 mt  853 4250 L
 854 4196 mt  912 4254 L
 912 4196 mt  854 4254 L
 854 4184 mt  912 4242 L
 912 4184 mt  854 4242 L
 855 4199 mt  913 4257 L
 913 4199 mt  855 4257 L
 856 4208 mt  914 4266 L
 914 4208 mt  856 4266 L
 856 4176 mt  914 4234 L
 914 4176 mt  856 4234 L
 856 4188 mt  914 4246 L
 914 4188 mt  856 4246 L
 858 4214 mt  916 4272 L
 916 4214 mt  858 4272 L
 858 4198 mt  916 4256 L
 916 4198 mt  858 4256 L
 858 4172 mt  916 4230 L
 916 4172 mt  858 4230 L
 859 4171 mt  917 4229 L
 917 4171 mt  859 4229 L
 860 4148 mt  918 4206 L
 918 4148 mt  860 4206 L
 863 4160 mt  921 4218 L
 921 4160 mt  863 4218 L
 864 4136 mt  922 4194 L
 922 4136 mt  864 4194 L
 864 4118 mt  922 4176 L
 922 4118 mt  864 4176 L
 863 4112 mt  921 4170 L
 921 4112 mt  863 4170 L
 864 4117 mt  922 4175 L
 922 4117 mt  864 4175 L
 864 4104 mt  922 4162 L
 922 4104 mt  864 4162 L
 865 4112 mt  923 4170 L
 923 4112 mt  865 4170 L
 865 4090 mt  923 4148 L
 923 4090 mt  865 4148 L
 865 4079 mt  923 4137 L
 923 4079 mt  865 4137 L
 865 4069 mt  923 4127 L
 923 4069 mt  865 4127 L
 865 4050 mt  923 4108 L
 923 4050 mt  865 4108 L
 866 4039 mt  924 4097 L
 924 4039 mt  866 4097 L
 866 4043 mt  924 4101 L
 924 4043 mt  866 4101 L
 867 4032 mt  925 4090 L
 925 4032 mt  867 4090 L
 868 4018 mt  926 4076 L
 926 4018 mt  868 4076 L
 867 3977 mt  925 4035 L
 925 3977 mt  867 4035 L
 867 3951 mt  925 4009 L
 925 3951 mt  867 4009 L
 867 3968 mt  925 4026 L
 925 3968 mt  867 4026 L
 868 3964 mt  926 4022 L
 926 3964 mt  868 4022 L
 868 3960 mt  926 4018 L
 926 3960 mt  868 4018 L
 870 3982 mt  928 4040 L
 928 3982 mt  870 4040 L
 870 3991 mt  928 4049 L
 928 3991 mt  870 4049 L
 871 3993 mt  929 4051 L
 929 3993 mt  871 4051 L
 871 3994 mt  929 4052 L
 929 3994 mt  871 4052 L
 872 4008 mt  930 4066 L
 930 4008 mt  872 4066 L
 872 3984 mt  930 4042 L
 930 3984 mt  872 4042 L
 873 3986 mt  931 4044 L
 931 3986 mt  873 4044 L
 874 3984 mt  932 4042 L
 932 3984 mt  874 4042 L
 875 4001 mt  933 4059 L
 933 4001 mt  875 4059 L
 874 3982 mt  932 4040 L
 932 3982 mt  874 4040 L
 875 3985 mt  933 4043 L
 933 3985 mt  875 4043 L
 876 3968 mt  934 4026 L
 934 3968 mt  876 4026 L
 876 3959 mt  934 4017 L
 934 3959 mt  876 4017 L
 877 3959 mt  935 4017 L
 935 3959 mt  877 4017 L
 877 3966 mt  935 4024 L
 935 3966 mt  877 4024 L
 878 3974 mt  936 4032 L
 936 3974 mt  878 4032 L
 881 4022 mt  939 4080 L
 939 4022 mt  881 4080 L
 882 4034 mt  940 4092 L
 940 4034 mt  882 4092 L
 882 4017 mt  940 4075 L
 940 4017 mt  882 4075 L
 883 4028 mt  941 4086 L
 941 4028 mt  883 4086 L
 885 4037 mt  943 4095 L
 943 4037 mt  885 4095 L
 886 4036 mt  944 4094 L
 944 4036 mt  886 4094 L
 885 4008 mt  943 4066 L
 943 4008 mt  885 4066 L
 886 3994 mt  944 4052 L
 944 3994 mt  886 4052 L
 886 3983 mt  944 4041 L
 944 3983 mt  886 4041 L
 887 3966 mt  945 4024 L
 945 3966 mt  887 4024 L
 887 3950 mt  945 4008 L
 945 3950 mt  887 4008 L
 888 3941 mt  946 3999 L
 946 3941 mt  888 3999 L
 889 3945 mt  947 4003 L
 947 3945 mt  889 4003 L
 890 3933 mt  948 3991 L
 948 3933 mt  890 3991 L
 891 3922 mt  949 3980 L
 949 3922 mt  891 3980 L
 892 3924 mt  950 3982 L
 950 3924 mt  892 3982 L
 892 3935 mt  950 3993 L
 950 3935 mt  892 3993 L
 893 3932 mt  951 3990 L
 951 3932 mt  893 3990 L
 893 3921 mt  951 3979 L
 951 3921 mt  893 3979 L
 894 3912 mt  952 3970 L
 952 3912 mt  894 3970 L
 894 3915 mt  952 3973 L
 952 3915 mt  894 3973 L
 894 3901 mt  952 3959 L
 952 3901 mt  894 3959 L
 894 3890 mt  952 3948 L
 952 3890 mt  894 3948 L
 895 3891 mt  953 3949 L
 953 3891 mt  895 3949 L
 897 3875 mt  955 3933 L
 955 3875 mt  897 3933 L
 898 3870 mt  956 3928 L
 956 3870 mt  898 3928 L
 899 3858 mt  957 3916 L
 957 3858 mt  899 3916 L
 900 3869 mt  958 3927 L
 958 3869 mt  900 3927 L
 900 3859 mt  958 3917 L
 958 3859 mt  900 3917 L
 902 3875 mt  960 3933 L
 960 3875 mt  902 3933 L
 903 3877 mt  961 3935 L
 961 3877 mt  903 3935 L
 904 3856 mt  962 3914 L
 962 3856 mt  904 3914 L
 905 3853 mt  963 3911 L
 963 3853 mt  905 3911 L
 906 3844 mt  964 3902 L
 964 3844 mt  906 3902 L
 905 3827 mt  963 3885 L
 963 3827 mt  905 3885 L
 906 3842 mt  964 3900 L
 964 3842 mt  906 3900 L
 906 3812 mt  964 3870 L
 964 3812 mt  906 3870 L
 907 3809 mt  965 3867 L
 965 3809 mt  907 3867 L
 908 3835 mt  966 3893 L
 966 3835 mt  908 3893 L
 909 3845 mt  967 3903 L
 967 3845 mt  909 3903 L
 909 3824 mt  967 3882 L
 967 3824 mt  909 3882 L
 909 3822 mt  967 3880 L
 967 3822 mt  909 3880 L
 910 3816 mt  968 3874 L
 968 3816 mt  910 3874 L
 911 3817 mt  969 3875 L
 969 3817 mt  911 3875 L
 911 3814 mt  969 3872 L
 969 3814 mt  911 3872 L
 910 3810 mt  968 3868 L
 968 3810 mt  910 3868 L
 910 3797 mt  968 3855 L
 968 3797 mt  910 3855 L
 910 3776 mt  968 3834 L
 968 3776 mt  910 3834 L
 911 3776 mt  969 3834 L
 969 3776 mt  911 3834 L
 911 3763 mt  969 3821 L
 969 3763 mt  911 3821 L
 912 3761 mt  970 3819 L
 970 3761 mt  912 3819 L
 913 3762 mt  971 3820 L
 971 3762 mt  913 3820 L
 915 3760 mt  973 3818 L
 973 3760 mt  915 3818 L
 916 3773 mt  974 3831 L
 974 3773 mt  916 3831 L
 916 3767 mt  974 3825 L
 974 3767 mt  916 3825 L
 915 3746 mt  973 3804 L
 973 3746 mt  915 3804 L
 916 3742 mt  974 3800 L
 974 3742 mt  916 3800 L
 916 3744 mt  974 3802 L
 974 3744 mt  916 3802 L
 917 3737 mt  975 3795 L
 975 3737 mt  917 3795 L
 918 3741 mt  976 3799 L
 976 3741 mt  918 3799 L
 919 3749 mt  977 3807 L
 977 3749 mt  919 3807 L
 919 3745 mt  977 3803 L
 977 3745 mt  919 3803 L
 921 3736 mt  979 3794 L
 979 3736 mt  921 3794 L
 922 3745 mt  980 3803 L
 980 3745 mt  922 3803 L
 924 3746 mt  982 3804 L
 982 3746 mt  924 3804 L
 924 3733 mt  982 3791 L
 982 3733 mt  924 3791 L
 925 3735 mt  983 3793 L
 983 3735 mt  925 3793 L
 925 3730 mt  983 3788 L
 983 3730 mt  925 3788 L
 926 3746 mt  984 3804 L
 984 3746 mt  926 3804 L
 926 3752 mt  984 3810 L
 984 3752 mt  926 3810 L
 927 3757 mt  985 3815 L
 985 3757 mt  927 3815 L
 928 3755 mt  986 3813 L
 986 3755 mt  928 3813 L
 930 3753 mt  988 3811 L
 988 3753 mt  930 3811 L
 930 3728 mt  988 3786 L
 988 3728 mt  930 3786 L
 931 3722 mt  989 3780 L
 989 3722 mt  931 3780 L
 933 3730 mt  991 3788 L
 991 3730 mt  933 3788 L
 933 3717 mt  991 3775 L
 991 3717 mt  933 3775 L
 934 3719 mt  992 3777 L
 992 3719 mt  934 3777 L
 937 3726 mt  995 3784 L
 995 3726 mt  937 3784 L
 938 3708 mt  996 3766 L
 996 3708 mt  938 3766 L
 939 3712 mt  997 3770 L
 997 3712 mt  939 3770 L
 941 3711 mt  999 3769 L
 999 3711 mt  941 3769 L
 941 3697 mt  999 3755 L
 999 3697 mt  941 3755 L
 942 3691 mt 1000 3749 L
1000 3691 mt  942 3749 L
 943 3702 mt 1001 3760 L
1001 3702 mt  943 3760 L
 944 3709 mt 1002 3767 L
1002 3709 mt  944 3767 L
 947 3725 mt 1005 3783 L
1005 3725 mt  947 3783 L
 948 3718 mt 1006 3776 L
1006 3718 mt  948 3776 L
 951 3733 mt 1009 3791 L
1009 3733 mt  951 3791 L
 952 3715 mt 1010 3773 L
1010 3715 mt  952 3773 L
 954 3719 mt 1012 3777 L
1012 3719 mt  954 3777 L
 954 3718 mt 1012 3776 L
1012 3718 mt  954 3776 L
 954 3708 mt 1012 3766 L
1012 3708 mt  954 3766 L
 956 3696 mt 1014 3754 L
1014 3696 mt  956 3754 L
 957 3687 mt 1015 3745 L
1015 3687 mt  957 3745 L
 959 3694 mt 1017 3752 L
1017 3694 mt  959 3752 L
 959 3679 mt 1017 3737 L
1017 3679 mt  959 3737 L
 959 3664 mt 1017 3722 L
1017 3664 mt  959 3722 L
 960 3648 mt 1018 3706 L
1018 3648 mt  960 3706 L
 960 3632 mt 1018 3690 L
1018 3632 mt  960 3690 L
 961 3636 mt 1019 3694 L
1019 3636 mt  961 3694 L
 960 3615 mt 1018 3673 L
1018 3615 mt  960 3673 L
 961 3606 mt 1019 3664 L
1019 3606 mt  961 3664 L
 960 3579 mt 1018 3637 L
1018 3579 mt  960 3637 L
 963 3588 mt 1021 3646 L
1021 3588 mt  963 3646 L
 965 3598 mt 1023 3656 L
1023 3598 mt  965 3656 L
 967 3609 mt 1025 3667 L
1025 3609 mt  967 3667 L
 969 3605 mt 1027 3663 L
1027 3605 mt  969 3663 L
 970 3606 mt 1028 3664 L
1028 3606 mt  970 3664 L
 971 3605 mt 1029 3663 L
1029 3605 mt  971 3663 L
 972 3593 mt 1030 3651 L
1030 3593 mt  972 3651 L
 974 3605 mt 1032 3663 L
1032 3605 mt  974 3663 L
 977 3592 mt 1035 3650 L
1035 3592 mt  977 3650 L
 979 3605 mt 1037 3663 L
1037 3605 mt  979 3663 L
 981 3600 mt 1039 3658 L
1039 3600 mt  981 3658 L
 983 3604 mt 1041 3662 L
1041 3604 mt  983 3662 L
 988 3613 mt 1046 3671 L
1046 3613 mt  988 3671 L
 989 3604 mt 1047 3662 L
1047 3604 mt  989 3662 L
 988 3558 mt 1046 3616 L
1046 3558 mt  988 3616 L
 989 3543 mt 1047 3601 L
1047 3543 mt  989 3601 L
 992 3550 mt 1050 3608 L
1050 3550 mt  992 3608 L
 995 3541 mt 1053 3599 L
1053 3541 mt  995 3599 L
 997 3533 mt 1055 3591 L
1055 3533 mt  997 3591 L
1000 3539 mt 1058 3597 L
1058 3539 mt 1000 3597 L
1002 3552 mt 1060 3610 L
1060 3552 mt 1002 3610 L
1007 3579 mt 1065 3637 L
1065 3579 mt 1007 3637 L
1009 3569 mt 1067 3627 L
1067 3569 mt 1009 3627 L
1011 3566 mt 1069 3624 L
1069 3566 mt 1011 3624 L
1012 3572 mt 1070 3630 L
1070 3572 mt 1012 3630 L
1014 3576 mt 1072 3634 L
1072 3576 mt 1014 3634 L
1014 3560 mt 1072 3618 L
1072 3560 mt 1014 3618 L
1016 3569 mt 1074 3627 L
1074 3569 mt 1016 3627 L
1017 3572 mt 1075 3630 L
1075 3572 mt 1017 3630 L
1019 3575 mt 1077 3633 L
1077 3575 mt 1019 3633 L
1021 3567 mt 1079 3625 L
1079 3567 mt 1021 3625 L
1021 3553 mt 1079 3611 L
1079 3553 mt 1021 3611 L
1022 3563 mt 1080 3621 L
1080 3563 mt 1022 3621 L
1023 3557 mt 1081 3615 L
1081 3557 mt 1023 3615 L
1025 3565 mt 1083 3623 L
1083 3565 mt 1025 3623 L
1027 3568 mt 1085 3626 L
1085 3568 mt 1027 3626 L
1027 3571 mt 1085 3629 L
1085 3571 mt 1027 3629 L
1029 3564 mt 1087 3622 L
1087 3564 mt 1029 3622 L
1033 3573 mt 1091 3631 L
1091 3573 mt 1033 3631 L
1037 3563 mt 1095 3621 L
1095 3563 mt 1037 3621 L
1037 3552 mt 1095 3610 L
1095 3552 mt 1037 3610 L
1038 3558 mt 1096 3616 L
1096 3558 mt 1038 3616 L
1040 3564 mt 1098 3622 L
1098 3564 mt 1040 3622 L
1041 3551 mt 1099 3609 L
1099 3551 mt 1041 3609 L
1044 3574 mt 1102 3632 L
1102 3574 mt 1044 3632 L
1045 3570 mt 1103 3628 L
1103 3570 mt 1045 3628 L
1048 3580 mt 1106 3638 L
1106 3580 mt 1048 3638 L
1050 3591 mt 1108 3649 L
1108 3591 mt 1050 3649 L
1052 3582 mt 1110 3640 L
1110 3582 mt 1052 3640 L
1050 3569 mt 1108 3627 L
1108 3569 mt 1050 3627 L
1052 3563 mt 1110 3621 L
1110 3563 mt 1052 3621 L
1055 3563 mt 1113 3621 L
1113 3563 mt 1055 3621 L
1054 3549 mt 1112 3607 L
1112 3549 mt 1054 3607 L
1053 3542 mt 1111 3600 L
1111 3542 mt 1053 3600 L
1053 3540 mt 1111 3598 L
1111 3540 mt 1053 3598 L
1054 3532 mt 1112 3590 L
1112 3532 mt 1054 3590 L
1056 3546 mt 1114 3604 L
1114 3546 mt 1056 3604 L
1058 3546 mt 1116 3604 L
1116 3546 mt 1058 3604 L
1061 3544 mt 1119 3602 L
1119 3544 mt 1061 3602 L
1063 3530 mt 1121 3588 L
1121 3530 mt 1063 3588 L
1065 3516 mt 1123 3574 L
1123 3516 mt 1065 3574 L
1071 3525 mt 1129 3583 L
1129 3525 mt 1071 3583 L
1072 3515 mt 1130 3573 L
1130 3515 mt 1072 3573 L
1072 3506 mt 1130 3564 L
1130 3506 mt 1072 3564 L
1075 3524 mt 1133 3582 L
1133 3524 mt 1075 3582 L
1078 3517 mt 1136 3575 L
1136 3517 mt 1078 3575 L
1079 3524 mt 1137 3582 L
1137 3524 mt 1079 3582 L
1079 3505 mt 1137 3563 L
1137 3505 mt 1079 3563 L
1077 3507 mt 1135 3565 L
1135 3507 mt 1077 3565 L
1077 3506 mt 1135 3564 L
1135 3506 mt 1077 3564 L
1081 3507 mt 1139 3565 L
1139 3507 mt 1081 3565 L
1083 3486 mt 1141 3544 L
1141 3486 mt 1083 3544 L
1087 3493 mt 1145 3551 L
1145 3493 mt 1087 3551 L
1090 3498 mt 1148 3556 L
1148 3498 mt 1090 3556 L
1094 3504 mt 1152 3562 L
1152 3504 mt 1094 3562 L
1100 3507 mt 1158 3565 L
1158 3507 mt 1100 3565 L
1104 3512 mt 1162 3570 L
1162 3512 mt 1104 3570 L
1110 3527 mt 1168 3585 L
1168 3527 mt 1110 3585 L
1115 3539 mt 1173 3597 L
1173 3539 mt 1115 3597 L
1116 3533 mt 1174 3591 L
1174 3533 mt 1116 3591 L
1117 3534 mt 1175 3592 L
1175 3534 mt 1117 3592 L
1120 3516 mt 1178 3574 L
1178 3516 mt 1120 3574 L
1124 3514 mt 1182 3572 L
1182 3514 mt 1124 3572 L
1127 3510 mt 1185 3568 L
1185 3510 mt 1127 3568 L
1128 3502 mt 1186 3560 L
1186 3502 mt 1128 3560 L
1132 3507 mt 1190 3565 L
1190 3507 mt 1132 3565 L
1138 3520 mt 1196 3578 L
1196 3520 mt 1138 3578 L
1142 3526 mt 1200 3584 L
1200 3526 mt 1142 3584 L
1145 3534 mt 1203 3592 L
1203 3534 mt 1145 3592 L
1147 3532 mt 1205 3590 L
1205 3532 mt 1147 3590 L
1152 3538 mt 1210 3596 L
1210 3538 mt 1152 3596 L
1156 3538 mt 1214 3596 L
1214 3538 mt 1156 3596 L
1160 3540 mt 1218 3598 L
1218 3540 mt 1160 3598 L
1164 3537 mt 1222 3595 L
1222 3537 mt 1164 3595 L
1170 3533 mt 1228 3591 L
1228 3533 mt 1170 3591 L
1171 3530 mt 1229 3588 L
1229 3530 mt 1171 3588 L
1172 3518 mt 1230 3576 L
1230 3518 mt 1172 3576 L
1172 3501 mt 1230 3559 L
1230 3501 mt 1172 3559 L
1179 3507 mt 1237 3565 L
1237 3507 mt 1179 3565 L
1183 3502 mt 1241 3560 L
1241 3502 mt 1183 3560 L
1186 3494 mt 1244 3552 L
1244 3494 mt 1186 3552 L
1187 3493 mt 1245 3551 L
1245 3493 mt 1187 3551 L
1188 3496 mt 1246 3554 L
1246 3496 mt 1188 3554 L
1190 3488 mt 1248 3546 L
1248 3488 mt 1190 3546 L
1192 3480 mt 1250 3538 L
1250 3480 mt 1192 3538 L
1194 3474 mt 1252 3532 L
1252 3474 mt 1194 3532 L
1198 3474 mt 1256 3532 L
1256 3474 mt 1198 3532 L
1209 3490 mt 1267 3548 L
1267 3490 mt 1209 3548 L
1212 3487 mt 1270 3545 L
1270 3487 mt 1212 3545 L
1212 3477 mt 1270 3535 L
1270 3477 mt 1212 3535 L
1212 3466 mt 1270 3524 L
1270 3466 mt 1212 3524 L
1213 3453 mt 1271 3511 L
1271 3453 mt 1213 3511 L
1217 3461 mt 1275 3519 L
1275 3461 mt 1217 3519 L
1219 3456 mt 1277 3514 L
1277 3456 mt 1219 3514 L
1223 3459 mt 1281 3517 L
1281 3459 mt 1223 3517 L
1227 3456 mt 1285 3514 L
1285 3456 mt 1227 3514 L
1230 3463 mt 1288 3521 L
1288 3463 mt 1230 3521 L
1229 3451 mt 1287 3509 L
1287 3451 mt 1229 3509 L
1229 3452 mt 1287 3510 L
1287 3452 mt 1229 3510 L
1231 3423 mt 1289 3481 L
1289 3423 mt 1231 3481 L
1234 3420 mt 1292 3478 L
1292 3420 mt 1234 3478 L
1234 3431 mt 1292 3489 L
1292 3431 mt 1234 3489 L
1232 3418 mt 1290 3476 L
1290 3418 mt 1232 3476 L
1238 3425 mt 1296 3483 L
1296 3425 mt 1238 3483 L
1248 3435 mt 1306 3493 L
1306 3435 mt 1248 3493 L
1255 3449 mt 1313 3507 L
1313 3449 mt 1255 3507 L
1257 3454 mt 1315 3512 L
1315 3454 mt 1257 3512 L
1263 3451 mt 1321 3509 L
1321 3451 mt 1263 3509 L
1265 3452 mt 1323 3510 L
1323 3452 mt 1265 3510 L
1272 3454 mt 1330 3512 L
1330 3454 mt 1272 3512 L
1278 3453 mt 1336 3511 L
1336 3453 mt 1278 3511 L
1285 3464 mt 1343 3522 L
1343 3464 mt 1285 3522 L
1282 3453 mt 1340 3511 L
1340 3453 mt 1282 3511 L
1277 3472 mt 1335 3530 L
1335 3472 mt 1277 3530 L
1276 3464 mt 1334 3522 L
1334 3464 mt 1276 3522 L
1287 3473 mt 1345 3531 L
1345 3473 mt 1287 3531 L
1289 3464 mt 1347 3522 L
1347 3464 mt 1289 3522 L
1292 3453 mt 1350 3511 L
1350 3453 mt 1292 3511 L
1292 3449 mt 1350 3507 L
1350 3449 mt 1292 3507 L
1301 3451 mt 1359 3509 L
1359 3451 mt 1301 3509 L
1308 3443 mt 1366 3501 L
1366 3443 mt 1308 3501 L
1314 3432 mt 1372 3490 L
1372 3432 mt 1314 3490 L
1324 3438 mt 1382 3496 L
1382 3438 mt 1324 3496 L
1335 3434 mt 1393 3492 L
1393 3434 mt 1335 3492 L
1343 3438 mt 1401 3496 L
1401 3438 mt 1343 3496 L
1350 3436 mt 1408 3494 L
1408 3436 mt 1350 3494 L
1357 3437 mt 1415 3495 L
1415 3437 mt 1357 3495 L
1364 3430 mt 1422 3488 L
1422 3430 mt 1364 3488 L
1375 3448 mt 1433 3506 L
1433 3448 mt 1375 3506 L
1378 3449 mt 1436 3507 L
1436 3449 mt 1378 3507 L
1380 3444 mt 1438 3502 L
1438 3444 mt 1380 3502 L
1381 3437 mt 1439 3495 L
1439 3437 mt 1381 3495 L
1382 3430 mt 1440 3488 L
1440 3430 mt 1382 3488 L
1399 3440 mt 1457 3498 L
1457 3440 mt 1399 3498 L
1406 3436 mt 1464 3494 L
1464 3436 mt 1406 3494 L
1409 3436 mt 1467 3494 L
1467 3436 mt 1409 3494 L
1412 3425 mt 1470 3483 L
1470 3425 mt 1412 3483 L
1421 3422 mt 1479 3480 L
1479 3422 mt 1421 3480 L
1429 3425 mt 1487 3483 L
1487 3425 mt 1429 3483 L
1439 3420 mt 1497 3478 L
1497 3420 mt 1439 3478 L
1448 3423 mt 1506 3481 L
1506 3423 mt 1448 3481 L
1457 3420 mt 1515 3478 L
1515 3420 mt 1457 3478 L
1459 3406 mt 1517 3464 L
1517 3406 mt 1459 3464 L
1460 3389 mt 1518 3447 L
1518 3389 mt 1460 3447 L
1465 3391 mt 1523 3449 L
1523 3391 mt 1465 3449 L
1462 3367 mt 1520 3425 L
1520 3367 mt 1462 3425 L
1460 3357 mt 1518 3415 L
1518 3357 mt 1460 3415 L
1460 3351 mt 1518 3409 L
1518 3351 mt 1460 3409 L
1467 3358 mt 1525 3416 L
1525 3358 mt 1467 3416 L
1477 3357 mt 1535 3415 L
1535 3357 mt 1477 3415 L
1492 3362 mt 1550 3420 L
1550 3362 mt 1492 3420 L
1500 3360 mt 1558 3418 L
1558 3360 mt 1500 3418 L
1513 3363 mt 1571 3421 L
1571 3363 mt 1513 3421 L
1518 3354 mt 1576 3412 L
1576 3354 mt 1518 3412 L
1522 3341 mt 1580 3399 L
1580 3341 mt 1522 3399 L
1526 3330 mt 1584 3388 L
1584 3330 mt 1526 3388 L
1540 3332 mt 1598 3390 L
1598 3332 mt 1540 3390 L
1549 3324 mt 1607 3382 L
1607 3324 mt 1549 3382 L
1548 3320 mt 1606 3378 L
1606 3320 mt 1548 3378 L
1540 3312 mt 1598 3370 L
1598 3312 mt 1540 3370 L
1546 3321 mt 1604 3379 L
1604 3321 mt 1546 3379 L
1548 3319 mt 1606 3377 L
1606 3319 mt 1548 3377 L
1571 3340 mt 1629 3398 L
1629 3340 mt 1571 3398 L
1587 3341 mt 1645 3399 L
1645 3341 mt 1587 3399 L
1592 3330 mt 1650 3388 L
1650 3330 mt 1592 3388 L
1583 3304 mt 1641 3362 L
1641 3304 mt 1583 3362 L
1582 3302 mt 1640 3360 L
1640 3302 mt 1582 3360 L
1591 3303 mt 1649 3361 L
1649 3303 mt 1591 3361 L
1588 3292 mt 1646 3350 L
1646 3292 mt 1588 3350 L
1603 3291 mt 1661 3349 L
1661 3291 mt 1603 3349 L
1615 3297 mt 1673 3355 L
1673 3297 mt 1615 3355 L
1618 3288 mt 1676 3346 L
1676 3288 mt 1618 3346 L
1631 3293 mt 1689 3351 L
1689 3293 mt 1631 3351 L
1635 3302 mt 1693 3360 L
1693 3302 mt 1635 3360 L
1645 3302 mt 1703 3360 L
1703 3302 mt 1645 3360 L
1653 3297 mt 1711 3355 L
1711 3297 mt 1653 3355 L
1657 3292 mt 1715 3350 L
1715 3292 mt 1657 3350 L
1668 3288 mt 1726 3346 L
1726 3288 mt 1668 3346 L
1679 3278 mt 1737 3336 L
1737 3278 mt 1679 3336 L
1687 3278 mt 1745 3336 L
1745 3278 mt 1687 3336 L
1695 3276 mt 1753 3334 L
1753 3276 mt 1695 3334 L
1704 3278 mt 1762 3336 L
1762 3278 mt 1704 3336 L
1715 3286 mt 1773 3344 L
1773 3286 mt 1715 3344 L
1730 3289 mt 1788 3347 L
1788 3289 mt 1730 3347 L
1738 3289 mt 1796 3347 L
1796 3289 mt 1738 3347 L
1747 3288 mt 1805 3346 L
1805 3288 mt 1747 3346 L
1755 3278 mt 1813 3336 L
1813 3278 mt 1755 3336 L
1767 3294 mt 1825 3352 L
1825 3294 mt 1767 3352 L
1784 3298 mt 1842 3356 L
1842 3298 mt 1784 3356 L
1794 3293 mt 1852 3351 L
1852 3293 mt 1794 3351 L
1788 3275 mt 1846 3333 L
1846 3275 mt 1788 3333 L
1792 3274 mt 1850 3332 L
1850 3274 mt 1792 3332 L
1804 3271 mt 1862 3329 L
1862 3271 mt 1804 3329 L
1814 3278 mt 1872 3336 L
1872 3278 mt 1814 3336 L
1820 3276 mt 1878 3334 L
1878 3276 mt 1820 3334 L
1826 3275 mt 1884 3333 L
1884 3275 mt 1826 3333 L
1843 3278 mt 1901 3336 L
1901 3278 mt 1843 3336 L
1857 3277 mt 1915 3335 L
1915 3277 mt 1857 3335 L
1869 3284 mt 1927 3342 L
1927 3284 mt 1869 3342 L
1888 3284 mt 1946 3342 L
1946 3284 mt 1888 3342 L
1900 3281 mt 1958 3339 L
1958 3281 mt 1900 3339 L
1907 3270 mt 1965 3328 L
1965 3270 mt 1907 3328 L
1920 3272 mt 1978 3330 L
1978 3272 mt 1920 3330 L
1925 3268 mt 1983 3326 L
1983 3268 mt 1925 3326 L
1932 3268 mt 1990 3326 L
1990 3268 mt 1932 3326 L
1946 3275 mt 2004 3333 L
2004 3275 mt 1946 3333 L
1961 3279 mt 2019 3337 L
2019 3279 mt 1961 3337 L
1983 3269 mt 2041 3327 L
2041 3269 mt 1983 3327 L
1990 3282 mt 2048 3340 L
2048 3282 mt 1990 3340 L
1993 3277 mt 2051 3335 L
2051 3277 mt 1993 3335 L
2014 3272 mt 2072 3330 L
2072 3272 mt 2014 3330 L
2024 3269 mt 2082 3327 L
2082 3269 mt 2024 3327 L
2034 3271 mt 2092 3329 L
2092 3271 mt 2034 3329 L
2045 3269 mt 2103 3327 L
2103 3269 mt 2045 3327 L
2058 3269 mt 2116 3327 L
2116 3269 mt 2058 3327 L
2072 3271 mt 2130 3329 L
2130 3271 mt 2072 3329 L
2085 3268 mt 2143 3326 L
2143 3268 mt 2085 3326 L
2103 3274 mt 2161 3332 L
2161 3274 mt 2103 3332 L
2112 3270 mt 2170 3328 L
2170 3270 mt 2112 3328 L
2129 3275 mt 2187 3333 L
2187 3275 mt 2129 3333 L
2136 3267 mt 2194 3325 L
2194 3267 mt 2136 3325 L
2152 3275 mt 2210 3333 L
2210 3275 mt 2152 3333 L
2154 3266 mt 2212 3324 L
2212 3266 mt 2154 3324 L
2147 3246 mt 2205 3304 L
2205 3246 mt 2147 3304 L
2186 3270 mt 2244 3328 L
2244 3270 mt 2186 3328 L
2202 3265 mt 2260 3323 L
2260 3265 mt 2202 3323 L
2213 3264 mt 2271 3322 L
2271 3264 mt 2213 3322 L
2228 3270 mt 2286 3328 L
2286 3270 mt 2228 3328 L
2240 3273 mt 2298 3331 L
2298 3273 mt 2240 3331 L
2228 3259 mt 2286 3317 L
2286 3259 mt 2228 3317 L
2217 3251 mt 2275 3309 L
2275 3251 mt 2217 3309 L
2238 3256 mt 2296 3314 L
2296 3256 mt 2238 3314 L
2241 3252 mt 2299 3310 L
2299 3252 mt 2241 3310 L
2265 3251 mt 2323 3309 L
2323 3251 mt 2265 3309 L
2296 3250 mt 2354 3308 L
2354 3250 mt 2296 3308 L
2314 3255 mt 2372 3313 L
2372 3255 mt 2314 3313 L
2325 3251 mt 2383 3309 L
2383 3251 mt 2325 3309 L
2345 3254 mt 2403 3312 L
2403 3254 mt 2345 3312 L
2366 3260 mt 2424 3318 L
2424 3260 mt 2366 3318 L
2376 3256 mt 2434 3314 L
2434 3256 mt 2376 3314 L
2387 3255 mt 2445 3313 L
2445 3255 mt 2387 3313 L
2428 3269 mt 2486 3327 L
2486 3269 mt 2428 3327 L
2445 3261 mt 2503 3319 L
2503 3261 mt 2445 3319 L
2458 3256 mt 2516 3314 L
2516 3256 mt 2458 3314 L
2480 3259 mt 2538 3317 L
2538 3259 mt 2480 3317 L
2503 3262 mt 2561 3320 L
2561 3262 mt 2503 3320 L
2526 3261 mt 2584 3319 L
2584 3261 mt 2526 3319 L
2546 3260 mt 2604 3318 L
2604 3260 mt 2546 3318 L
2561 3262 mt 2619 3320 L
2619 3262 mt 2561 3320 L
2573 3250 mt 2631 3308 L
2631 3250 mt 2573 3308 L
2596 3258 mt 2654 3316 L
2654 3258 mt 2596 3316 L
2607 3250 mt 2665 3308 L
2665 3250 mt 2607 3308 L
2617 3249 mt 2675 3307 L
2675 3249 mt 2617 3307 L
2636 3251 mt 2694 3309 L
2694 3251 mt 2636 3309 L
2649 3245 mt 2707 3303 L
2707 3245 mt 2649 3303 L
2679 3250 mt 2737 3308 L
2737 3250 mt 2679 3308 L
2704 3249 mt 2762 3307 L
2762 3249 mt 2704 3307 L
2720 3248 mt 2778 3306 L
2778 3248 mt 2720 3306 L
2738 3247 mt 2796 3305 L
2796 3247 mt 2738 3305 L
2750 3243 mt 2808 3301 L
2808 3243 mt 2750 3301 L
2767 3238 mt 2825 3296 L
2825 3238 mt 2767 3296 L
2782 3233 mt 2840 3291 L
2840 3233 mt 2782 3291 L
2803 3233 mt 2861 3291 L
2861 3233 mt 2803 3291 L
2818 3233 mt 2876 3291 L
2876 3233 mt 2818 3291 L
2851 3240 mt 2909 3298 L
2909 3240 mt 2851 3298 L
2872 3239 mt 2930 3297 L
2930 3239 mt 2872 3297 L
2886 3236 mt 2944 3294 L
2944 3236 mt 2886 3294 L
2920 3241 mt 2978 3299 L
2978 3241 mt 2920 3299 L
2950 3247 mt 3008 3305 L
3008 3247 mt 2950 3305 L
2974 3248 mt 3032 3306 L
3032 3248 mt 2974 3306 L
3008 3251 mt 3066 3309 L
3066 3251 mt 3008 3309 L
3033 3254 mt 3091 3312 L
3091 3254 mt 3033 3312 L
3054 3254 mt 3112 3312 L
3112 3254 mt 3054 3312 L
3075 3250 mt 3133 3308 L
3133 3250 mt 3075 3308 L
3109 3257 mt 3167 3315 L
3167 3257 mt 3109 3315 L
3134 3255 mt 3192 3313 L
3192 3255 mt 3134 3313 L
3159 3253 mt 3217 3311 L
3217 3253 mt 3159 3311 L
3181 3250 mt 3239 3308 L
3239 3250 mt 3181 3308 L
3196 3244 mt 3254 3302 L
3254 3244 mt 3196 3302 L
3223 3243 mt 3281 3301 L
3281 3243 mt 3223 3301 L
3255 3242 mt 3313 3300 L
3313 3242 mt 3255 3300 L
3291 3248 mt 3349 3306 L
3349 3248 mt 3291 3306 L
3326 3251 mt 3384 3309 L
3384 3251 mt 3326 3309 L
3360 3252 mt 3418 3310 L
3418 3252 mt 3360 3310 L
3393 3257 mt 3451 3315 L
3451 3257 mt 3393 3315 L
3419 3257 mt 3477 3315 L
3477 3257 mt 3419 3315 L
3452 3260 mt 3510 3318 L
3510 3260 mt 3452 3318 L
3489 3264 mt 3547 3322 L
3547 3264 mt 3489 3322 L
3518 3262 mt 3576 3320 L
3576 3262 mt 3518 3320 L
3544 3262 mt 3602 3320 L
3602 3262 mt 3544 3320 L
3578 3267 mt 3636 3325 L
3636 3267 mt 3578 3325 L
3601 3268 mt 3659 3326 L
3659 3268 mt 3601 3326 L
3634 3270 mt 3692 3328 L
3692 3270 mt 3634 3328 L
3663 3268 mt 3721 3326 L
3721 3268 mt 3663 3326 L
3691 3269 mt 3749 3327 L
3749 3269 mt 3691 3327 L
3738 3272 mt 3796 3330 L
3796 3272 mt 3738 3330 L
3766 3271 mt 3824 3329 L
3824 3271 mt 3766 3329 L
3803 3274 mt 3861 3332 L
3861 3274 mt 3803 3332 L
3834 3275 mt 3892 3333 L
3892 3275 mt 3834 3333 L
3860 3274 mt 3918 3332 L
3918 3274 mt 3860 3332 L
3893 3273 mt 3951 3331 L
3951 3273 mt 3893 3331 L
3919 3272 mt 3977 3330 L
3977 3272 mt 3919 3330 L
3939 3273 mt 3997 3331 L
3997 3273 mt 3939 3331 L
3946 3266 mt 4004 3324 L
4004 3266 mt 3946 3324 L
3990 3268 mt 4048 3326 L
4048 3268 mt 3990 3326 L
4023 3264 mt 4081 3322 L
4081 3264 mt 4023 3322 L
4062 3263 mt 4120 3321 L
4120 3263 mt 4062 3321 L
4092 3260 mt 4150 3318 L
4150 3260 mt 4092 3318 L
4110 3260 mt 4168 3318 L
4168 3260 mt 4110 3318 L
4116 3252 mt 4174 3310 L
4174 3252 mt 4116 3310 L
4133 3248 mt 4191 3306 L
4191 3248 mt 4133 3306 L
4182 3249 mt 4240 3307 L
4240 3249 mt 4182 3307 L
4189 3243 mt 4247 3301 L
4247 3243 mt 4189 3301 L
4212 3239 mt 4270 3297 L
4270 3239 mt 4212 3297 L
4243 3233 mt 4301 3291 L
4301 3233 mt 4243 3291 L
4264 3228 mt 4322 3286 L
4322 3228 mt 4264 3286 L
4332 3237 mt 4390 3295 L
4390 3237 mt 4332 3295 L
4323 3233 mt 4381 3291 L
4381 3233 mt 4323 3291 L
4388 3236 mt 4446 3294 L
4446 3236 mt 4388 3294 L
4409 3232 mt 4467 3290 L
4467 3232 mt 4409 3290 L
4450 3232 mt 4508 3290 L
4508 3232 mt 4450 3290 L
4484 3231 mt 4542 3289 L
4542 3231 mt 4484 3289 L
4525 3232 mt 4583 3290 L
4583 3232 mt 4525 3290 L
4584 3237 mt 4642 3295 L
4642 3237 mt 4584 3295 L
4614 3235 mt 4672 3293 L
4672 3235 mt 4614 3293 L
2631 2003 mt 2689 2061 L
2689 2003 mt 2631 2061 L
2409 1908 mt 2467 1966 L
2467 1908 mt 2409 1966 L
2318 1856 mt 2376 1914 L
2376 1856 mt 2318 1914 L
2208 1805 mt 2266 1863 L
2266 1805 mt 2208 1863 L
2131 1781 mt 2189 1839 L
2189 1781 mt 2131 1839 L
2054 1740 mt 2112 1798 L
2112 1740 mt 2054 1798 L
1972 1704 mt 2030 1762 L
2030 1704 mt 1972 1762 L
1891 1657 mt 1949 1715 L
1949 1657 mt 1891 1715 L
1812 1601 mt 1870 1659 L
1870 1601 mt 1812 1659 L
1736 1507 mt 1794 1565 L
1794 1507 mt 1736 1565 L
1669 1452 mt 1727 1510 L
1727 1452 mt 1669 1510 L
1609 1403 mt 1667 1461 L
1667 1403 mt 1609 1461 L
1559 1343 mt 1617 1401 L
1617 1343 mt 1559 1401 L
1502 1285 mt 1560 1343 L
1560 1285 mt 1502 1343 L
1447 1216 mt 1505 1274 L
1505 1216 mt 1447 1274 L
1391 1127 mt 1449 1185 L
1449 1127 mt 1391 1185 L
1351 1074 mt 1409 1132 L
1409 1074 mt 1351 1132 L
1300  986 mt 1358 1044 L
1358  986 mt 1300 1044 L
1262  917 mt 1320  975 L
1320  917 mt 1262  975 L
1225  827 mt 1283  885 L
1283  827 mt 1225  885 L
1185  721 mt 1243  779 L
1243  721 mt 1185  779 L
1151  655 mt 1209  713 L
1209  655 mt 1151  713 L
gs 848 564 4238 3957 rc
gr

/c9 { 0.000000 0.000000 1.000000 sr} bdef
c9
 819 1990 mt  877 2048 L
 877 1990 mt  819 2048 L
 820 2505 mt  878 2563 L
 878 2505 mt  820 2563 L
 820 2583 mt  878 2641 L
 878 2583 mt  820 2641 L
 821 2748 mt  879 2806 L
 879 2748 mt  821 2806 L
 821 2609 mt  879 2667 L
 879 2609 mt  821 2667 L
 822 2835 mt  880 2893 L
 880 2835 mt  822 2893 L
 825 3530 mt  883 3588 L
 883 3530 mt  825 3588 L
 824 3224 mt  882 3282 L
 882 3224 mt  824 3282 L
 827 3562 mt  885 3620 L
 885 3562 mt  827 3620 L
 829 3712 mt  887 3770 L
 887 3712 mt  829 3770 L
 831 3918 mt  889 3976 L
 889 3918 mt  831 3976 L
 833 3945 mt  891 4003 L
 891 3945 mt  833 4003 L
 836 4082 mt  894 4140 L
 894 4082 mt  836 4140 L
 836 4059 mt  894 4117 L
 894 4059 mt  836 4117 L
 838 4156 mt  896 4214 L
 896 4156 mt  838 4214 L
 838 4041 mt  896 4099 L
 896 4041 mt  838 4099 L
 841 4120 mt  899 4178 L
 899 4120 mt  841 4178 L
 842 4069 mt  900 4127 L
 900 4069 mt  842 4127 L
 847 4176 mt  905 4234 L
 905 4176 mt  847 4234 L
 849 4160 mt  907 4218 L
 907 4160 mt  849 4218 L
 852 4170 mt  910 4228 L
 910 4170 mt  852 4228 L
 853 4142 mt  911 4200 L
 911 4142 mt  853 4200 L
 856 4060 mt  914 4118 L
 914 4060 mt  856 4118 L
 859 4135 mt  917 4193 L
 917 4135 mt  859 4193 L
 860 4148 mt  918 4206 L
 918 4148 mt  860 4206 L
 860 4045 mt  918 4103 L
 918 4045 mt  860 4103 L
 861 4018 mt  919 4076 L
 919 4018 mt  861 4076 L
 863 3962 mt  921 4020 L
 921 3962 mt  863 4020 L
 867 4001 mt  925 4059 L
 925 4001 mt  867 4059 L
 868 3922 mt  926 3980 L
 926 3922 mt  868 3980 L
 873 3952 mt  931 4010 L
 931 3952 mt  873 4010 L
 876 3871 mt  934 3929 L
 934 3871 mt  876 3929 L
 878 3857 mt  936 3915 L
 936 3857 mt  878 3915 L
 880 3884 mt  938 3942 L
 938 3884 mt  880 3942 L
 885 3903 mt  943 3961 L
 943 3903 mt  885 3961 L
 889 3917 mt  947 3975 L
 947 3917 mt  889 3975 L
 892 3922 mt  950 3980 L
 950 3922 mt  892 3980 L
 897 3908 mt  955 3966 L
 955 3908 mt  897 3966 L
 900 3886 mt  958 3944 L
 958 3886 mt  900 3944 L
 902 3867 mt  960 3925 L
 960 3867 mt  902 3925 L
 905 3839 mt  963 3897 L
 963 3839 mt  905 3897 L
 910 3815 mt  968 3873 L
 968 3815 mt  910 3873 L
 911 3759 mt  969 3817 L
 969 3759 mt  911 3817 L
 914 3704 mt  972 3762 L
 972 3704 mt  914 3762 L
 918 3684 mt  976 3742 L
 976 3684 mt  918 3742 L
 922 3667 mt  980 3725 L
 980 3667 mt  922 3725 L
 925 3640 mt  983 3698 L
 983 3640 mt  925 3698 L
 931 3672 mt  989 3730 L
 989 3672 mt  931 3730 L
 936 3692 mt  994 3750 L
 994 3692 mt  936 3750 L
 942 3647 mt 1000 3705 L
1000 3647 mt  942 3705 L
 949 3654 mt 1007 3712 L
1007 3654 mt  949 3712 L
 949 3607 mt 1007 3665 L
1007 3607 mt  949 3665 L
 957 3642 mt 1015 3700 L
1015 3642 mt  957 3700 L
 959 3639 mt 1017 3697 L
1017 3639 mt  959 3697 L
 972 3654 mt 1030 3712 L
1030 3654 mt  972 3712 L
 978 3636 mt 1036 3694 L
1036 3636 mt  978 3694 L
 982 3599 mt 1040 3657 L
1040 3599 mt  982 3657 L
 990 3611 mt 1048 3669 L
1048 3611 mt  990 3669 L
 997 3619 mt 1055 3677 L
1055 3619 mt  997 3677 L
1001 3564 mt 1059 3622 L
1059 3564 mt 1001 3622 L
1008 3553 mt 1066 3611 L
1066 3553 mt 1008 3611 L
1016 3543 mt 1074 3601 L
1074 3543 mt 1016 3601 L
1023 3520 mt 1081 3578 L
1081 3520 mt 1023 3578 L
1030 3507 mt 1088 3565 L
1088 3507 mt 1030 3565 L
1036 3498 mt 1094 3556 L
1094 3498 mt 1036 3556 L
1048 3534 mt 1106 3592 L
1106 3534 mt 1048 3592 L
1056 3514 mt 1114 3572 L
1114 3514 mt 1056 3572 L
1066 3494 mt 1124 3552 L
1124 3494 mt 1066 3552 L
1081 3462 mt 1139 3520 L
1139 3462 mt 1081 3520 L
1091 3477 mt 1149 3535 L
1149 3477 mt 1091 3535 L
1110 3496 mt 1168 3554 L
1168 3496 mt 1110 3554 L
1117 3453 mt 1175 3511 L
1175 3453 mt 1117 3511 L
1133 3436 mt 1191 3494 L
1191 3436 mt 1133 3494 L
1145 3409 mt 1203 3467 L
1203 3409 mt 1145 3467 L
1156 3371 mt 1214 3429 L
1214 3371 mt 1156 3429 L
1175 3391 mt 1233 3449 L
1233 3391 mt 1175 3449 L
1189 3382 mt 1247 3440 L
1247 3382 mt 1189 3440 L
1202 3366 mt 1260 3424 L
1260 3366 mt 1202 3424 L
1225 3363 mt 1283 3421 L
1283 3363 mt 1225 3421 L
1243 3361 mt 1301 3419 L
1301 3361 mt 1243 3419 L
1272 3378 mt 1330 3436 L
1330 3378 mt 1272 3436 L
1291 3350 mt 1349 3408 L
1349 3350 mt 1291 3408 L
1310 3341 mt 1368 3399 L
1368 3341 mt 1310 3399 L
1316 3313 mt 1374 3371 L
1374 3313 mt 1316 3371 L
1356 3317 mt 1414 3375 L
1414 3317 mt 1356 3375 L
1380 3282 mt 1438 3340 L
1438 3282 mt 1380 3340 L
1401 3265 mt 1459 3323 L
1459 3265 mt 1401 3323 L
1448 3297 mt 1506 3355 L
1506 3297 mt 1448 3355 L
1482 3294 mt 1540 3352 L
1540 3294 mt 1482 3352 L
1513 3301 mt 1571 3359 L
1571 3301 mt 1513 3359 L
1547 3299 mt 1605 3357 L
1605 3299 mt 1547 3357 L
1560 3271 mt 1618 3329 L
1618 3271 mt 1560 3329 L
1601 3275 mt 1659 3333 L
1659 3275 mt 1601 3333 L
1642 3278 mt 1700 3336 L
1700 3278 mt 1642 3336 L
1680 3255 mt 1738 3313 L
1738 3255 mt 1680 3313 L
1710 3245 mt 1768 3303 L
1768 3245 mt 1710 3303 L
1761 3249 mt 1819 3307 L
1819 3249 mt 1761 3307 L
1806 3234 mt 1864 3292 L
1864 3234 mt 1806 3292 L
1837 3215 mt 1895 3273 L
1895 3215 mt 1837 3273 L
1889 3213 mt 1947 3271 L
1947 3213 mt 1889 3271 L
1949 3217 mt 2007 3275 L
2007 3217 mt 1949 3275 L
2037 3221 mt 2095 3279 L
2095 3221 mt 2037 3279 L
2102 3231 mt 2160 3289 L
2160 3231 mt 2102 3289 L
2182 3220 mt 2240 3278 L
2240 3220 mt 2182 3278 L
2270 3230 mt 2328 3288 L
2328 3230 mt 2270 3288 L
2318 3198 mt 2376 3256 L
2376 3198 mt 2318 3256 L
2408 3195 mt 2466 3253 L
2466 3195 mt 2408 3253 L
2494 3187 mt 2552 3245 L
2552 3187 mt 2494 3245 L
2558 3194 mt 2616 3252 L
2616 3194 mt 2558 3252 L
2658 3195 mt 2716 3253 L
2716 3195 mt 2658 3253 L
2776 3210 mt 2834 3268 L
2834 3210 mt 2776 3268 L
2915 3223 mt 2973 3281 L
2973 3223 mt 2915 3281 L
3041 3238 mt 3099 3296 L
3099 3238 mt 3041 3296 L
3164 3245 mt 3222 3303 L
3222 3245 mt 3164 3303 L
3273 3253 mt 3331 3311 L
3331 3253 mt 3273 3311 L
3436 3259 mt 3494 3317 L
3494 3259 mt 3436 3317 L
3589 3262 mt 3647 3320 L
3647 3262 mt 3589 3320 L
3752 3263 mt 3810 3321 L
3810 3263 mt 3752 3321 L
3917 3260 mt 3975 3318 L
3975 3260 mt 3917 3318 L
4111 3272 mt 4169 3330 L
4169 3272 mt 4111 3330 L
4284 3264 mt 4342 3322 L
4342 3264 mt 4284 3322 L
4475 3262 mt 4533 3320 L
4533 3262 mt 4475 3320 L
4670 3260 mt 4728 3318 L
4728 3260 mt 4670 3318 L
2570 1959 mt 2628 2017 L
2628 1959 mt 2570 2017 L
2298 1859 mt 2356 1917 L
2356 1859 mt 2298 1917 L
2136 1788 mt 2194 1846 L
2194 1788 mt 2136 1846 L
2018 1689 mt 2076 1747 L
2076 1689 mt 2018 1747 L
gs 848 564 4238 3957 rc
gr

0 sg
%%IncludeResource: font Helvetica
/Helvetica /ISOLatin1Encoding 83.3333 FMSR

 836 4551 mt 
( ) s
5074  594 mt 
( ) s
8.33333 w
DO
SO
12.5 w
0.1 sg
 848 4520 mt 5085 4520 L
 848  564 mt 5085  564 L
 848 4520 mt  848  564 L
5085 4520 mt 5085  564 L
 848 4520 mt 5085 4520 L
 848 4520 mt  848  564 L
 848 4520 mt  848 4456 L
 848  565 mt  848  628 L
%%IncludeResource: font Helvetica
/Helvetica /ISOLatin1Encoding 133.333 FMSR

 811 4668 mt 
(0) s
1606 4520 mt 1606 4456 L
1606  565 mt 1606  628 L
1532 4668 mt 
(20) s
2365 4520 mt 2365 4456 L
2365  565 mt 2365  628 L
2291 4668 mt 
(40) s
3123 4520 mt 3123 4456 L
3123  565 mt 3123  628 L
3049 4668 mt 
(60) s
3882 4520 mt 3882 4456 L
3882  565 mt 3882  628 L
3808 4668 mt 
(80) s
4640 4520 mt 4640 4456 L
4640  565 mt 4640  628 L
4529 4668 mt 
(100) s
 848 4520 mt  911 4520 L
5085 4520 mt 5021 4520 L
 639 4569 mt 
(0.2) s
 848 4124 mt  911 4124 L
5085 4124 mt 5021 4124 L
 565 4173 mt 
(0.25) s
 848 3729 mt  911 3729 L
5085 3729 mt 5021 3729 L
 639 3778 mt 
(0.3) s
 848 3333 mt  911 3333 L
5085 3333 mt 5021 3333 L
 565 3382 mt 
(0.35) s
 848 2938 mt  911 2938 L
5085 2938 mt 5021 2938 L
 639 2987 mt 
(0.4) s
 848 2542 mt  911 2542 L
5085 2542 mt 5021 2542 L
 565 2591 mt 
(0.45) s
 848 2146 mt  911 2146 L
5085 2146 mt 5021 2146 L
 639 2195 mt 
(0.5) s
 848 1751 mt  911 1751 L
5085 1751 mt 5021 1751 L
 565 1800 mt 
(0.55) s
 848 1356 mt  911 1356 L
5085 1356 mt 5021 1356 L
 639 1405 mt 
(0.6) s
 848  960 mt  911  960 L
5085  960 mt 5021  960 L
 565 1009 mt 
(0.65) s
 848  565 mt  911  565 L
5085  565 mt 5021  565 L
 639  614 mt 
(0.7) s
 848 4520 mt 5085 4520 L
 848  564 mt 5085  564 L
 848 4520 mt  848  564 L
5085 4520 mt 5085  564 L
0 sg
%%IncludeResource: font Helvetica-Bold
/Helvetica-Bold /ISOLatin1Encoding 125 FMSR

2482 3932 mt 
(K) s
%%IncludeResource: font Helvetica-Bold
/Helvetica-Bold /ISOLatin1Encoding 100 FMSR

2572 3994 mt 
(2) s
%%IncludeResource: font Helvetica-Bold
/Helvetica-Bold /ISOLatin1Encoding 125 FMSR

2627 3932 mt 
( = 10K) s
%%IncludeResource: font Helvetica-Bold
/Helvetica-Bold /ISOLatin1Encoding 100 FMSR

2998 3994 mt 
(1) s
%%IncludeResource: font Helvetica-Bold
/Helvetica-Bold /ISOLatin1Encoding 125 FMSR

3053 3932 mt 
( - Same Fill) s
gs 2164 3820 1607 661 rc
16.6667 w
gs 2233 3836 205 205 rc
2306 3909 mt 2364 3967 L
2364 3909 mt 2306 3967 L
gr

gr

16.6667 w
2482 4145 mt 
(K) s
%%IncludeResource: font Helvetica-Bold
/Helvetica-Bold /ISOLatin1Encoding 100 FMSR

2572 4207 mt 
(2) s
%%IncludeResource: font Helvetica-Bold
/Helvetica-Bold /ISOLatin1Encoding 125 FMSR

2627 4145 mt 
( = 25K) s
%%IncludeResource: font Helvetica-Bold
/Helvetica-Bold /ISOLatin1Encoding 100 FMSR

2998 4207 mt 
(1) s
%%IncludeResource: font Helvetica-Bold
/Helvetica-Bold /ISOLatin1Encoding 125 FMSR

3053 4145 mt 
( - Same Fill) s
gs 2164 3820 1607 661 rc
gs 2233 4048 205 205 rc
c8
2306 4121 mt 2364 4179 L
2364 4121 mt 2306 4179 L
gr

c8
gr

c8
0 sg
2482 4357 mt 
(K) s
%%IncludeResource: font Helvetica-Bold
/Helvetica-Bold /ISOLatin1Encoding 100 FMSR

2572 4419 mt 
(2) s
%%IncludeResource: font Helvetica-Bold
/Helvetica-Bold /ISOLatin1Encoding 125 FMSR

2627 4357 mt 
( = 50K) s
%%IncludeResource: font Helvetica-Bold
/Helvetica-Bold /ISOLatin1Encoding 100 FMSR

2998 4419 mt 
(1) s
gs 2164 3820 1607 661 rc
gs 2233 4259 205 205 rc
c9
2306 4332 mt 2364 4390 L
2364 4332 mt 2306 4390 L
gr

c9
12.5 w
gr

12.5 w
c9

end %%Color Dict

eplot
%%EndObject

epage
end

showpage

%%Trailer
%%EOF
