%!PS-Adobe-3.0 EPSF-3.0
%%Creator: MATLAB, The MathWorks, Inc. Version 7.12.0.635 (R2011a). Operating System: Linux 2.6.32-358.6.2.el6.x86_64 #1 SMP Thu May 16 11:21:38 CDT 2013 x86_64.
%%Title: ./EPT_Tests_Spherical_StaticFriction_Stress_K0.eps
%%CreationDate: 08/16/2013  16:41:14
%%DocumentNeededFonts: Helvetica-Bold
%%+ Helvetica
%%DocumentProcessColors: Cyan Magenta Yellow Black
%%LanguageLevel: 2
%%Pages: 1
%%BoundingBox:    24    69   597   605
%%EndComments

%%BeginProlog
% MathWorks dictionary
/MathWorks 160 dict begin
% definition operators
/bdef {bind def} bind def
/ldef {load def} bind def
/xdef {exch def} bdef
/xstore {exch store} bdef
% operator abbreviations
/c  /clip ldef
/cc /concat ldef
/cp /closepath ldef
/gr /grestore ldef
/gs /gsave ldef
/mt /moveto ldef
/np /newpath ldef
/cm /currentmatrix ldef
/sm /setmatrix ldef
/rm /rmoveto ldef
/rl /rlineto ldef
/s {show newpath} bdef
/sc {setcmykcolor} bdef
/sr /setrgbcolor ldef
/sg /setgray ldef
/w /setlinewidth ldef
/j /setlinejoin ldef
/cap /setlinecap ldef
/rc {rectclip} bdef
/rf {rectfill} bdef
% page state control
/pgsv () def
/bpage {/pgsv save def} bdef
/epage {pgsv restore} bdef
/bplot /gsave ldef
/eplot {stroke grestore} bdef
% orientation switch
/portraitMode 0 def /landscapeMode 1 def /rotateMode 2 def
% coordinate system mappings
/dpi2point 0 def
% font control
/FontSize 0 def
/FMS {/FontSize xstore findfont [FontSize 0 0 FontSize neg 0 0]
  makefont setfont} bdef
/reencode {exch dup where {pop load} {pop StandardEncoding} ifelse
  exch dup 3 1 roll findfont dup length dict begin
  { 1 index /FID ne {def}{pop pop} ifelse } forall
  /Encoding exch def currentdict end definefont pop} bdef
/isroman {findfont /CharStrings get /Agrave known} bdef
/FMSR {3 1 roll 1 index dup isroman {reencode} {pop pop} ifelse
  exch FMS} bdef
/csm {1 dpi2point div -1 dpi2point div scale neg translate
 dup landscapeMode eq {pop -90 rotate}
  {rotateMode eq {90 rotate} if} ifelse} bdef
% line types: solid, dotted, dashed, dotdash
/SO { [] 0 setdash } bdef
/DO { [.5 dpi2point mul 4 dpi2point mul] 0 setdash } bdef
/DA { [6 dpi2point mul] 0 setdash } bdef
/DD { [.5 dpi2point mul 4 dpi2point mul 6 dpi2point mul 4
  dpi2point mul] 0 setdash } bdef
% macros for lines and objects
/L {lineto stroke} bdef
/MP {3 1 roll moveto 1 sub {rlineto} repeat} bdef
/AP {{rlineto} repeat} bdef
/PDlw -1 def
/W {/PDlw currentlinewidth def setlinewidth} def
/PP {closepath eofill} bdef
/DP {closepath stroke} bdef
/MR {4 -2 roll moveto dup  0 exch rlineto exch 0 rlineto
  neg 0 exch rlineto closepath} bdef
/FR {MR stroke} bdef
/PR {MR fill} bdef
/L1i {{currentfile picstr readhexstring pop} image} bdef
/tMatrix matrix def
/MakeOval {newpath tMatrix currentmatrix pop translate scale
0 0 1 0 360 arc tMatrix setmatrix} bdef
/FO {MakeOval stroke} bdef
/PO {MakeOval fill} bdef
/PD {currentlinewidth 2 div 0 360 arc fill
   PDlw -1 eq not {PDlw w /PDlw -1 def} if} def
/FA {newpath tMatrix currentmatrix pop translate scale
  0 0 1 5 -2 roll arc tMatrix setmatrix stroke} bdef
/PA {newpath tMatrix currentmatrix pop	translate 0 0 moveto scale
  0 0 1 5 -2 roll arc closepath tMatrix setmatrix fill} bdef
/FAn {newpath tMatrix currentmatrix pop translate scale
  0 0 1 5 -2 roll arcn tMatrix setmatrix stroke} bdef
/PAn {newpath tMatrix currentmatrix pop translate 0 0 moveto scale
  0 0 1 5 -2 roll arcn closepath tMatrix setmatrix fill} bdef
/vradius 0 def /hradius 0 def /lry 0 def
/lrx 0 def /uly 0 def /ulx 0 def /rad 0 def
/MRR {/vradius xdef /hradius xdef /lry xdef /lrx xdef /uly xdef
  /ulx xdef newpath tMatrix currentmatrix pop ulx hradius add uly
  vradius add translate hradius vradius scale 0 0 1 180 270 arc 
  tMatrix setmatrix lrx hradius sub uly vradius add translate
  hradius vradius scale 0 0 1 270 360 arc tMatrix setmatrix
  lrx hradius sub lry vradius sub translate hradius vradius scale
  0 0 1 0 90 arc tMatrix setmatrix ulx hradius add lry vradius sub
  translate hradius vradius scale 0 0 1 90 180 arc tMatrix setmatrix
  closepath} bdef
/FRR {MRR stroke } bdef
/PRR {MRR fill } bdef
/MlrRR {/lry xdef /lrx xdef /uly xdef /ulx xdef /rad lry uly sub 2 div def
  newpath tMatrix currentmatrix pop ulx rad add uly rad add translate
  rad rad scale 0 0 1 90 270 arc tMatrix setmatrix lrx rad sub lry rad
  sub translate rad rad scale 0 0 1 270 90 arc tMatrix setmatrix
  closepath} bdef
/FlrRR {MlrRR stroke } bdef
/PlrRR {MlrRR fill } bdef
/MtbRR {/lry xdef /lrx xdef /uly xdef /ulx xdef /rad lrx ulx sub 2 div def
  newpath tMatrix currentmatrix pop ulx rad add uly rad add translate
  rad rad scale 0 0 1 180 360 arc tMatrix setmatrix lrx rad sub lry rad
  sub translate rad rad scale 0 0 1 0 180 arc tMatrix setmatrix
  closepath} bdef
/FtbRR {MtbRR stroke } bdef
/PtbRR {MtbRR fill } bdef
/stri 6 array def /dtri 6 array def
/smat 6 array def /dmat 6 array def
/tmat1 6 array def /tmat2 6 array def /dif 3 array def
/asub {/ind2 exch def /ind1 exch def dup dup
  ind1 get exch ind2 get sub exch } bdef
/tri_to_matrix {
  2 0 asub 3 1 asub 4 0 asub 5 1 asub
  dup 0 get exch 1 get 7 -1 roll astore } bdef
/compute_transform {
  dmat dtri tri_to_matrix tmat1 invertmatrix 
  smat stri tri_to_matrix tmat2 concatmatrix } bdef
/ds {stri astore pop} bdef
/dt {dtri astore pop} bdef
/db {2 copy /cols xdef /rows xdef mul dup 3 mul string
  currentfile 
  3 index 0 eq {/ASCIIHexDecode filter}
  {/ASCII85Decode filter 3 index 2 eq {/RunLengthDecode filter} if }
  ifelse exch readstring pop
  dup 0 3 index getinterval /rbmap xdef
  dup 2 index dup getinterval /gbmap xdef
  1 index dup 2 mul exch getinterval /bbmap xdef pop pop}bdef
/it {gs np dtri aload pop moveto lineto lineto cp c
  cols rows 8 compute_transform 
  rbmap gbmap bbmap true 3 colorimage gr}bdef
/il {newpath moveto lineto stroke}bdef
currentdict end def
%%EndProlog

%%BeginSetup
MathWorks begin

0 cap

end
%%EndSetup

%%Page: 1 1
%%BeginPageSetup
%%PageBoundingBox:    24    69   597   605
MathWorks begin
bpage
%%EndPageSetup

%%BeginObject: obj1
bplot

/dpi2point 8.33333 def
portraitMode -0158 5475 csm

  366   428  4774  4472 rc
84 dict begin %Colortable dictionary
/c0 { 0.000000 0.000000 0.000000 sr} bdef
/c1 { 1.000000 1.000000 1.000000 sr} bdef
/c2 { 0.900000 0.000000 0.000000 sr} bdef
/c3 { 0.000000 0.820000 0.000000 sr} bdef
/c4 { 0.000000 0.000000 0.800000 sr} bdef
/c5 { 0.910000 0.820000 0.320000 sr} bdef
/c6 { 1.000000 0.260000 0.820000 sr} bdef
/c7 { 0.000000 0.820000 0.820000 sr} bdef
c0
1 j
1 sg
   0    0 5651 5651 rf
12.5 w
0 3955 4237 0 0 -3955 848 4520 4 MP
PP
-4237 0 0 3955 4237 0 0 -3955 848 4520 5 MP stroke
gs 848 564 4238 3957 rc
16.6667 w
gr

16.6667 w
0 sg
 820 4448 mt  878 4506 L
 878 4448 mt  820 4506 L
 820 3626 mt  878 3684 L
 878 3626 mt  820 3684 L
 819 3457 mt  877 3515 L
 877 3457 mt  819 3515 L
 820 3905 mt  878 3963 L
 878 3905 mt  820 3963 L
 820 3637 mt  878 3695 L
 878 3637 mt  820 3695 L
 820 3474 mt  878 3532 L
 878 3474 mt  820 3532 L
 820 3542 mt  878 3600 L
 878 3542 mt  820 3600 L
 820 2624 mt  878 2682 L
 878 2624 mt  820 2682 L
 820 2523 mt  878 2581 L
 878 2523 mt  820 2581 L
 821 3353 mt  879 3411 L
 879 3353 mt  821 3411 L
 821 2492 mt  879 2550 L
 879 2492 mt  821 2550 L
 821 3310 mt  879 3368 L
 879 3310 mt  821 3368 L
 822 3423 mt  880 3481 L
 880 3423 mt  822 3481 L
 821 3141 mt  879 3199 L
 879 3141 mt  821 3199 L
 823 3554 mt  881 3612 L
 881 3554 mt  823 3612 L
 824 3498 mt  882 3556 L
 882 3498 mt  824 3556 L
 825 3252 mt  883 3310 L
 883 3252 mt  825 3310 L
 826 3377 mt  884 3435 L
 884 3377 mt  826 3435 L
 828 3358 mt  886 3416 L
 886 3358 mt  828 3416 L
 828 3135 mt  886 3193 L
 886 3135 mt  828 3193 L
 828 3174 mt  886 3232 L
 886 3174 mt  828 3232 L
 828 3231 mt  886 3289 L
 886 3231 mt  828 3289 L
 829 3137 mt  887 3195 L
 887 3137 mt  829 3195 L
 830 3075 mt  888 3133 L
 888 3075 mt  830 3133 L
 831 3082 mt  889 3140 L
 889 3082 mt  831 3140 L
 831 2872 mt  889 2930 L
 889 2872 mt  831 2930 L
 840 3341 mt  898 3399 L
 898 3341 mt  840 3399 L
 843 3203 mt  901 3261 L
 901 3203 mt  843 3261 L
 845 3238 mt  903 3296 L
 903 3238 mt  845 3296 L
 848 3274 mt  906 3332 L
 906 3274 mt  848 3332 L
 849 3147 mt  907 3205 L
 907 3147 mt  849 3205 L
 852 3175 mt  910 3233 L
 910 3175 mt  852 3233 L
 855 3173 mt  913 3231 L
 913 3173 mt  855 3231 L
 858 3085 mt  916 3143 L
 916 3085 mt  858 3143 L
 861 3035 mt  919 3093 L
 919 3035 mt  861 3093 L
 861 2956 mt  919 3014 L
 919 2956 mt  861 3014 L
 863 2926 mt  921 2984 L
 921 2926 mt  863 2984 L
 866 2902 mt  924 2960 L
 924 2902 mt  866 2960 L
 872 2915 mt  930 2973 L
 930 2915 mt  872 2973 L
 878 2880 mt  936 2938 L
 936 2880 mt  878 2938 L
 883 2808 mt  941 2866 L
 941 2808 mt  883 2866 L
 885 2756 mt  943 2814 L
 943 2756 mt  885 2814 L
 886 2701 mt  944 2759 L
 944 2701 mt  886 2759 L
 886 2674 mt  944 2732 L
 944 2674 mt  886 2732 L
 887 2672 mt  945 2730 L
 945 2672 mt  887 2730 L
 889 2649 mt  947 2707 L
 947 2649 mt  889 2707 L
 891 2634 mt  949 2692 L
 949 2634 mt  891 2692 L
 891 2609 mt  949 2667 L
 949 2609 mt  891 2667 L
 893 2608 mt  951 2666 L
 951 2608 mt  893 2666 L
 893 2560 mt  951 2618 L
 951 2560 mt  893 2618 L
 894 2518 mt  952 2576 L
 952 2518 mt  894 2576 L
 895 2542 mt  953 2600 L
 953 2542 mt  895 2600 L
 896 2531 mt  954 2589 L
 954 2531 mt  896 2589 L
 897 2491 mt  955 2549 L
 955 2491 mt  897 2549 L
 898 2519 mt  956 2577 L
 956 2519 mt  898 2577 L
 900 2473 mt  958 2531 L
 958 2473 mt  900 2531 L
 899 2436 mt  957 2494 L
 957 2436 mt  899 2494 L
 902 2456 mt  960 2514 L
 960 2456 mt  902 2514 L
 907 2454 mt  965 2512 L
 965 2454 mt  907 2512 L
 911 2425 mt  969 2483 L
 969 2425 mt  911 2483 L
 916 2423 mt  974 2481 L
 974 2423 mt  916 2481 L
 919 2413 mt  977 2471 L
 977 2413 mt  919 2471 L
 926 2453 mt  984 2511 L
 984 2453 mt  926 2511 L
 937 2498 mt  995 2556 L
 995 2498 mt  937 2556 L
 946 2504 mt 1004 2562 L
1004 2504 mt  946 2562 L
 955 2517 mt 1013 2575 L
1013 2517 mt  955 2575 L
 962 2499 mt 1020 2557 L
1020 2499 mt  962 2557 L
 966 2455 mt 1024 2513 L
1024 2455 mt  966 2513 L
 967 2439 mt 1025 2497 L
1025 2439 mt  967 2497 L
 963 2378 mt 1021 2436 L
1021 2378 mt  963 2436 L
 962 2359 mt 1020 2417 L
1020 2359 mt  962 2417 L
 963 2374 mt 1021 2432 L
1021 2374 mt  963 2432 L
 962 2376 mt 1020 2434 L
1020 2376 mt  962 2434 L
 960 2378 mt 1018 2436 L
1018 2378 mt  960 2436 L
 961 2346 mt 1019 2404 L
1019 2346 mt  961 2404 L
 964 2340 mt 1022 2398 L
1022 2340 mt  964 2398 L
 967 2339 mt 1025 2397 L
1025 2339 mt  967 2397 L
 971 2358 mt 1029 2416 L
1029 2358 mt  971 2416 L
 972 2336 mt 1030 2394 L
1030 2336 mt  972 2394 L
 976 2312 mt 1034 2370 L
1034 2312 mt  976 2370 L
 979 2282 mt 1037 2340 L
1037 2282 mt  979 2340 L
 984 2305 mt 1042 2363 L
1042 2305 mt  984 2363 L
 987 2301 mt 1045 2359 L
1045 2301 mt  987 2359 L
 990 2274 mt 1048 2332 L
1048 2274 mt  990 2332 L
 994 2284 mt 1052 2342 L
1052 2284 mt  994 2342 L
 998 2250 mt 1056 2308 L
1056 2250 mt  998 2308 L
1003 2239 mt 1061 2297 L
1061 2239 mt 1003 2297 L
1007 2258 mt 1065 2316 L
1065 2258 mt 1007 2316 L
1013 2280 mt 1071 2338 L
1071 2280 mt 1013 2338 L
1016 2254 mt 1074 2312 L
1074 2254 mt 1016 2312 L
1019 2236 mt 1077 2294 L
1077 2236 mt 1019 2294 L
1020 2225 mt 1078 2283 L
1078 2225 mt 1020 2283 L
1024 2213 mt 1082 2271 L
1082 2213 mt 1024 2271 L
1026 2224 mt 1084 2282 L
1084 2224 mt 1026 2282 L
1028 2203 mt 1086 2261 L
1086 2203 mt 1028 2261 L
1031 2195 mt 1089 2253 L
1089 2195 mt 1031 2253 L
1034 2195 mt 1092 2253 L
1092 2195 mt 1034 2253 L
1036 2173 mt 1094 2231 L
1094 2173 mt 1036 2231 L
1038 2164 mt 1096 2222 L
1096 2164 mt 1038 2222 L
1042 2152 mt 1100 2210 L
1100 2152 mt 1042 2210 L
1047 2156 mt 1105 2214 L
1105 2156 mt 1047 2214 L
1052 2152 mt 1110 2210 L
1110 2152 mt 1052 2210 L
1057 2152 mt 1115 2210 L
1115 2152 mt 1057 2210 L
1060 2150 mt 1118 2208 L
1118 2150 mt 1060 2208 L
1064 2131 mt 1122 2189 L
1122 2131 mt 1064 2189 L
1068 2128 mt 1126 2186 L
1126 2128 mt 1068 2186 L
1070 2123 mt 1128 2181 L
1128 2123 mt 1070 2181 L
1076 2130 mt 1134 2188 L
1134 2130 mt 1076 2188 L
1078 2115 mt 1136 2173 L
1136 2115 mt 1078 2173 L
1085 2123 mt 1143 2181 L
1143 2123 mt 1085 2181 L
1087 2111 mt 1145 2169 L
1145 2111 mt 1087 2169 L
1091 2107 mt 1149 2165 L
1149 2107 mt 1091 2165 L
1094 2092 mt 1152 2150 L
1152 2092 mt 1094 2150 L
1097 2083 mt 1155 2141 L
1155 2083 mt 1097 2141 L
1101 2088 mt 1159 2146 L
1159 2088 mt 1101 2146 L
1101 2062 mt 1159 2120 L
1159 2062 mt 1101 2120 L
1105 2066 mt 1163 2124 L
1163 2066 mt 1105 2124 L
1108 2052 mt 1166 2110 L
1166 2052 mt 1108 2110 L
1114 2059 mt 1172 2117 L
1172 2059 mt 1114 2117 L
1118 2060 mt 1176 2118 L
1176 2060 mt 1118 2118 L
1121 2058 mt 1179 2116 L
1179 2058 mt 1121 2116 L
1121 2045 mt 1179 2103 L
1179 2045 mt 1121 2103 L
1126 2042 mt 1184 2100 L
1184 2042 mt 1126 2100 L
1131 2054 mt 1189 2112 L
1189 2054 mt 1131 2112 L
1136 2053 mt 1194 2111 L
1194 2053 mt 1136 2111 L
1142 2060 mt 1200 2118 L
1200 2060 mt 1142 2118 L
1145 2060 mt 1203 2118 L
1203 2060 mt 1145 2118 L
1149 2054 mt 1207 2112 L
1207 2054 mt 1149 2112 L
1156 2071 mt 1214 2129 L
1214 2071 mt 1156 2129 L
1157 2064 mt 1215 2122 L
1215 2064 mt 1157 2122 L
1160 2069 mt 1218 2127 L
1218 2069 mt 1160 2127 L
1163 2053 mt 1221 2111 L
1221 2053 mt 1163 2111 L
1165 2039 mt 1223 2097 L
1223 2039 mt 1165 2097 L
1170 2022 mt 1228 2080 L
1228 2022 mt 1170 2080 L
1179 2028 mt 1237 2086 L
1237 2028 mt 1179 2086 L
1184 2027 mt 1242 2085 L
1242 2027 mt 1184 2085 L
1192 2025 mt 1250 2083 L
1250 2025 mt 1192 2083 L
1200 2027 mt 1258 2085 L
1258 2027 mt 1200 2085 L
1204 2025 mt 1262 2083 L
1262 2025 mt 1204 2083 L
1207 2011 mt 1265 2069 L
1265 2011 mt 1207 2069 L
1210 2004 mt 1268 2062 L
1268 2004 mt 1210 2062 L
1215 1993 mt 1273 2051 L
1273 1993 mt 1215 2051 L
1218 1988 mt 1276 2046 L
1276 1988 mt 1218 2046 L
1219 1981 mt 1277 2039 L
1277 1981 mt 1219 2039 L
1226 1972 mt 1284 2030 L
1284 1972 mt 1226 2030 L
1232 1978 mt 1290 2036 L
1290 1978 mt 1232 2036 L
1238 1961 mt 1296 2019 L
1296 1961 mt 1238 2019 L
1242 1945 mt 1300 2003 L
1300 1945 mt 1242 2003 L
1245 1938 mt 1303 1996 L
1303 1938 mt 1245 1996 L
1251 1943 mt 1309 2001 L
1309 1943 mt 1251 2001 L
1257 1935 mt 1315 1993 L
1315 1935 mt 1257 1993 L
1263 1929 mt 1321 1987 L
1321 1929 mt 1263 1987 L
1268 1925 mt 1326 1983 L
1326 1925 mt 1268 1983 L
1272 1909 mt 1330 1967 L
1330 1909 mt 1272 1967 L
1275 1907 mt 1333 1965 L
1333 1907 mt 1275 1965 L
1284 1917 mt 1342 1975 L
1342 1917 mt 1284 1975 L
1291 1921 mt 1349 1979 L
1349 1921 mt 1291 1979 L
1298 1922 mt 1356 1980 L
1356 1922 mt 1298 1980 L
1307 1927 mt 1365 1985 L
1365 1927 mt 1307 1985 L
1315 1933 mt 1373 1991 L
1373 1933 mt 1315 1991 L
1319 1932 mt 1377 1990 L
1377 1932 mt 1319 1990 L
1326 1924 mt 1384 1982 L
1384 1924 mt 1326 1982 L
1329 1937 mt 1387 1995 L
1387 1937 mt 1329 1995 L
1331 1935 mt 1389 1993 L
1389 1935 mt 1331 1993 L
1338 1940 mt 1396 1998 L
1396 1940 mt 1338 1998 L
1348 1945 mt 1406 2003 L
1406 1945 mt 1348 2003 L
1354 1935 mt 1412 1993 L
1412 1935 mt 1354 1993 L
1364 1947 mt 1422 2005 L
1422 1947 mt 1364 2005 L
1374 1948 mt 1432 2006 L
1432 1948 mt 1374 2006 L
1378 1942 mt 1436 2000 L
1436 1942 mt 1378 2000 L
1386 1948 mt 1444 2006 L
1444 1948 mt 1386 2006 L
1387 1945 mt 1445 2003 L
1445 1945 mt 1387 2003 L
1391 1938 mt 1449 1996 L
1449 1938 mt 1391 1996 L
1399 1940 mt 1457 1998 L
1457 1940 mt 1399 1998 L
1408 1952 mt 1466 2010 L
1466 1952 mt 1408 2010 L
1416 1956 mt 1474 2014 L
1474 1956 mt 1416 2014 L
1424 1957 mt 1482 2015 L
1482 1957 mt 1424 2015 L
1423 1929 mt 1481 1987 L
1481 1929 mt 1423 1987 L
1431 1940 mt 1489 1998 L
1489 1940 mt 1431 1998 L
1440 1940 mt 1498 1998 L
1498 1940 mt 1440 1998 L
1451 1947 mt 1509 2005 L
1509 1947 mt 1451 2005 L
1459 1941 mt 1517 1999 L
1517 1941 mt 1459 1999 L
1470 1946 mt 1528 2004 L
1528 1946 mt 1470 2004 L
1479 1955 mt 1537 2013 L
1537 1955 mt 1479 2013 L
1484 1953 mt 1542 2011 L
1542 1953 mt 1484 2011 L
1492 1956 mt 1550 2014 L
1550 1956 mt 1492 2014 L
1505 1954 mt 1563 2012 L
1563 1954 mt 1505 2012 L
1511 1947 mt 1569 2005 L
1569 1947 mt 1511 2005 L
1523 1951 mt 1581 2009 L
1581 1951 mt 1523 2009 L
1530 1946 mt 1588 2004 L
1588 1946 mt 1530 2004 L
1543 1951 mt 1601 2009 L
1601 1951 mt 1543 2009 L
1556 1949 mt 1614 2007 L
1614 1949 mt 1556 2007 L
1567 1951 mt 1625 2009 L
1625 1951 mt 1567 2009 L
1574 1944 mt 1632 2002 L
1632 1944 mt 1574 2002 L
1578 1936 mt 1636 1994 L
1636 1936 mt 1578 1994 L
1584 1945 mt 1642 2003 L
1642 1945 mt 1584 2003 L
1596 1953 mt 1654 2011 L
1654 1953 mt 1596 2011 L
1608 1946 mt 1666 2004 L
1666 1946 mt 1608 2004 L
1618 1942 mt 1676 2000 L
1676 1942 mt 1618 2000 L
1627 1942 mt 1685 2000 L
1685 1942 mt 1627 2000 L
1634 1939 mt 1692 1997 L
1692 1939 mt 1634 1997 L
1643 1926 mt 1701 1984 L
1701 1926 mt 1643 1984 L
1648 1934 mt 1706 1992 L
1706 1934 mt 1648 1992 L
1657 1949 mt 1715 2007 L
1715 1949 mt 1657 2007 L
1673 1950 mt 1731 2008 L
1731 1950 mt 1673 2008 L
1682 1952 mt 1740 2010 L
1740 1952 mt 1682 2010 L
1690 1948 mt 1748 2006 L
1748 1948 mt 1690 2006 L
1705 1956 mt 1763 2014 L
1763 1956 mt 1705 2014 L
1717 1953 mt 1775 2011 L
1775 1953 mt 1717 2011 L
1730 1955 mt 1788 2013 L
1788 1955 mt 1730 2013 L
1743 1951 mt 1801 2009 L
1801 1951 mt 1743 2009 L
1756 1952 mt 1814 2010 L
1814 1952 mt 1756 2010 L
1764 1961 mt 1822 2019 L
1822 1961 mt 1764 2019 L
1768 1949 mt 1826 2007 L
1826 1949 mt 1768 2007 L
1778 1952 mt 1836 2010 L
1836 1952 mt 1778 2010 L
1788 1950 mt 1846 2008 L
1846 1950 mt 1788 2008 L
1802 1944 mt 1860 2002 L
1860 1944 mt 1802 2002 L
1817 1965 mt 1875 2023 L
1875 1965 mt 1817 2023 L
1831 1956 mt 1889 2014 L
1889 1956 mt 1831 2014 L
1848 1963 mt 1906 2021 L
1906 1963 mt 1848 2021 L
1863 1959 mt 1921 2017 L
1921 1959 mt 1863 2017 L
1867 1948 mt 1925 2006 L
1925 1948 mt 1867 2006 L
1878 1947 mt 1936 2005 L
1936 1947 mt 1878 2005 L
1892 1952 mt 1950 2010 L
1950 1952 mt 1892 2010 L
1902 1958 mt 1960 2016 L
1960 1958 mt 1902 2016 L
1917 1957 mt 1975 2015 L
1975 1957 mt 1917 2015 L
1934 1960 mt 1992 2018 L
1992 1960 mt 1934 2018 L
1947 1951 mt 2005 2009 L
2005 1951 mt 1947 2009 L
1963 1950 mt 2021 2008 L
2021 1950 mt 1963 2008 L
1976 1950 mt 2034 2008 L
2034 1950 mt 1976 2008 L
1979 1943 mt 2037 2001 L
2037 1943 mt 1979 2001 L
1989 1944 mt 2047 2002 L
2047 1944 mt 1989 2002 L
2008 1964 mt 2066 2022 L
2066 1964 mt 2008 2022 L
2019 1945 mt 2077 2003 L
2077 1945 mt 2019 2003 L
2033 1946 mt 2091 2004 L
2091 1946 mt 2033 2004 L
2051 1946 mt 2109 2004 L
2109 1946 mt 2051 2004 L
2070 1955 mt 2128 2013 L
2128 1955 mt 2070 2013 L
2083 1955 mt 2141 2013 L
2141 1955 mt 2083 2013 L
2095 1952 mt 2153 2010 L
2153 1952 mt 2095 2010 L
2110 1949 mt 2168 2007 L
2168 1949 mt 2110 2007 L
2125 1947 mt 2183 2005 L
2183 1947 mt 2125 2005 L
2139 1943 mt 2197 2001 L
2197 1943 mt 2139 2001 L
2150 1946 mt 2208 2004 L
2208 1946 mt 2150 2004 L
2161 1939 mt 2219 1997 L
2219 1939 mt 2161 1997 L
2174 1938 mt 2232 1996 L
2232 1938 mt 2174 1996 L
2191 1948 mt 2249 2006 L
2249 1948 mt 2191 2006 L
2207 1946 mt 2265 2004 L
2265 1946 mt 2207 2004 L
2221 1938 mt 2279 1996 L
2279 1938 mt 2221 1996 L
2237 1935 mt 2295 1993 L
2295 1935 mt 2237 1993 L
2259 1940 mt 2317 1998 L
2317 1940 mt 2259 1998 L
2276 1942 mt 2334 2000 L
2334 1942 mt 2276 2000 L
2286 1938 mt 2344 1996 L
2344 1938 mt 2286 1996 L
2286 1930 mt 2344 1988 L
2344 1930 mt 2286 1988 L
2302 1936 mt 2360 1994 L
2360 1936 mt 2302 1994 L
2317 1925 mt 2375 1983 L
2375 1925 mt 2317 1983 L
2342 1925 mt 2400 1983 L
2400 1925 mt 2342 1983 L
2360 1931 mt 2418 1989 L
2418 1931 mt 2360 1989 L
2372 1925 mt 2430 1983 L
2430 1925 mt 2372 1983 L
2388 1929 mt 2446 1987 L
2446 1929 mt 2388 1987 L
2397 1919 mt 2455 1977 L
2455 1919 mt 2397 1977 L
2407 1914 mt 2465 1972 L
2465 1914 mt 2407 1972 L
2416 1905 mt 2474 1963 L
2474 1905 mt 2416 1963 L
2427 1905 mt 2485 1963 L
2485 1905 mt 2427 1963 L
2442 1900 mt 2500 1958 L
2500 1900 mt 2442 1958 L
2466 1898 mt 2524 1956 L
2524 1898 mt 2466 1956 L
2488 1902 mt 2546 1960 L
2546 1902 mt 2488 1960 L
2508 1892 mt 2566 1950 L
2566 1892 mt 2508 1950 L
2515 1894 mt 2573 1952 L
2573 1894 mt 2515 1952 L
2529 1894 mt 2587 1952 L
2587 1894 mt 2529 1952 L
2538 1894 mt 2596 1952 L
2596 1894 mt 2538 1952 L
2560 1902 mt 2618 1960 L
2618 1902 mt 2560 1960 L
2574 1886 mt 2632 1944 L
2632 1886 mt 2574 1944 L
2592 1888 mt 2650 1946 L
2650 1888 mt 2592 1946 L
2611 1890 mt 2669 1948 L
2669 1890 mt 2611 1948 L
2627 1887 mt 2685 1945 L
2685 1887 mt 2627 1945 L
2641 1881 mt 2699 1939 L
2699 1881 mt 2641 1939 L
2659 1878 mt 2717 1936 L
2717 1878 mt 2659 1936 L
2683 1883 mt 2741 1941 L
2741 1883 mt 2683 1941 L
2697 1879 mt 2755 1937 L
2755 1879 mt 2697 1937 L
2706 1874 mt 2764 1932 L
2764 1874 mt 2706 1932 L
2716 1870 mt 2774 1928 L
2774 1870 mt 2716 1928 L
2729 1872 mt 2787 1930 L
2787 1872 mt 2729 1930 L
2753 1872 mt 2811 1930 L
2811 1872 mt 2753 1930 L
2775 1869 mt 2833 1927 L
2833 1869 mt 2775 1927 L
2800 1868 mt 2858 1926 L
2858 1868 mt 2800 1926 L
2818 1866 mt 2876 1924 L
2876 1866 mt 2818 1924 L
2838 1866 mt 2896 1924 L
2896 1866 mt 2838 1924 L
2848 1863 mt 2906 1921 L
2906 1863 mt 2848 1921 L
2862 1861 mt 2920 1919 L
2920 1861 mt 2862 1919 L
2881 1864 mt 2939 1922 L
2939 1864 mt 2881 1922 L
2900 1861 mt 2958 1919 L
2958 1861 mt 2900 1919 L
2920 1861 mt 2978 1919 L
2978 1861 mt 2920 1919 L
2946 1866 mt 3004 1924 L
3004 1866 mt 2946 1924 L
2971 1864 mt 3029 1922 L
3029 1864 mt 2971 1922 L
2981 1862 mt 3039 1920 L
3039 1862 mt 2981 1920 L
2995 1860 mt 3053 1918 L
3053 1860 mt 2995 1918 L
3014 1865 mt 3072 1923 L
3072 1865 mt 3014 1923 L
3035 1863 mt 3093 1921 L
3093 1863 mt 3035 1921 L
3057 1864 mt 3115 1922 L
3115 1864 mt 3057 1922 L
3081 1864 mt 3139 1922 L
3139 1864 mt 3081 1922 L
3101 1867 mt 3159 1925 L
3159 1867 mt 3101 1925 L
3127 1875 mt 3185 1933 L
3185 1875 mt 3127 1933 L
3139 1872 mt 3197 1930 L
3197 1872 mt 3139 1930 L
3168 1877 mt 3226 1935 L
3226 1877 mt 3168 1935 L
3189 1877 mt 3247 1935 L
3247 1877 mt 3189 1935 L
3205 1875 mt 3263 1933 L
3263 1875 mt 3205 1933 L
3232 1877 mt 3290 1935 L
3290 1877 mt 3232 1935 L
3259 1881 mt 3317 1939 L
3317 1881 mt 3259 1939 L
3269 1875 mt 3327 1933 L
3327 1875 mt 3269 1933 L
3288 1877 mt 3346 1935 L
3346 1877 mt 3288 1935 L
3318 1878 mt 3376 1936 L
3376 1878 mt 3318 1936 L
3335 1871 mt 3393 1929 L
3393 1871 mt 3335 1929 L
3346 1875 mt 3404 1933 L
3404 1875 mt 3346 1933 L
3356 1874 mt 3414 1932 L
3414 1874 mt 3356 1932 L
3392 1876 mt 3450 1934 L
3450 1876 mt 3392 1934 L
3416 1874 mt 3474 1932 L
3474 1874 mt 3416 1932 L
3431 1873 mt 3489 1931 L
3489 1873 mt 3431 1931 L
3456 1872 mt 3514 1930 L
3514 1872 mt 3456 1930 L
3479 1869 mt 3537 1927 L
3537 1869 mt 3479 1927 L
3508 1875 mt 3566 1933 L
3566 1875 mt 3508 1933 L
3535 1872 mt 3593 1930 L
3593 1872 mt 3535 1930 L
3555 1867 mt 3613 1925 L
3613 1867 mt 3555 1925 L
3584 1875 mt 3642 1933 L
3642 1875 mt 3584 1933 L
3600 1869 mt 3658 1927 L
3658 1869 mt 3600 1927 L
3614 1866 mt 3672 1924 L
3672 1866 mt 3614 1924 L
3647 1872 mt 3705 1930 L
3705 1872 mt 3647 1930 L
3670 1865 mt 3728 1923 L
3728 1865 mt 3670 1923 L
3695 1863 mt 3753 1921 L
3753 1863 mt 3695 1921 L
3719 1864 mt 3777 1922 L
3777 1864 mt 3719 1922 L
3736 1861 mt 3794 1919 L
3794 1861 mt 3736 1919 L
3735 1846 mt 3793 1904 L
3793 1846 mt 3735 1904 L
3778 1859 mt 3836 1917 L
3836 1859 mt 3778 1917 L
3741 1846 mt 3799 1904 L
3799 1846 mt 3741 1904 L
3798 1863 mt 3856 1921 L
3856 1863 mt 3798 1921 L
3838 1866 mt 3896 1924 L
3896 1866 mt 3838 1924 L
3877 1865 mt 3935 1923 L
3935 1865 mt 3877 1923 L
3903 1858 mt 3961 1916 L
3961 1858 mt 3903 1916 L
3931 1859 mt 3989 1917 L
3989 1859 mt 3931 1917 L
3943 1858 mt 4001 1916 L
4001 1858 mt 3943 1916 L
3968 1857 mt 4026 1915 L
4026 1857 mt 3968 1915 L
4000 1857 mt 4058 1915 L
4058 1857 mt 4000 1915 L
4032 1864 mt 4090 1922 L
4090 1864 mt 4032 1922 L
4053 1859 mt 4111 1917 L
4111 1859 mt 4053 1917 L
4080 1861 mt 4138 1919 L
4138 1861 mt 4080 1919 L
4105 1861 mt 4163 1919 L
4163 1861 mt 4105 1919 L
4128 1860 mt 4186 1918 L
4186 1860 mt 4128 1918 L
4162 1860 mt 4220 1918 L
4220 1860 mt 4162 1918 L
4187 1867 mt 4245 1925 L
4245 1867 mt 4187 1925 L
4215 1862 mt 4273 1920 L
4273 1862 mt 4215 1920 L
4239 1861 mt 4297 1919 L
4297 1861 mt 4239 1919 L
4266 1861 mt 4324 1919 L
4324 1861 mt 4266 1919 L
4297 1861 mt 4355 1919 L
4355 1861 mt 4297 1919 L
4317 1861 mt 4375 1919 L
4375 1861 mt 4317 1919 L
4338 1859 mt 4396 1917 L
4396 1859 mt 4338 1917 L
4374 1860 mt 4432 1918 L
4432 1860 mt 4374 1918 L
4403 1866 mt 4461 1924 L
4461 1866 mt 4403 1924 L
4428 1861 mt 4486 1919 L
4486 1861 mt 4428 1919 L
4462 1862 mt 4520 1920 L
4520 1862 mt 4462 1920 L
4489 1862 mt 4547 1920 L
4547 1862 mt 4489 1920 L
4514 1865 mt 4572 1923 L
4572 1865 mt 4514 1923 L
4532 1862 mt 4590 1920 L
4590 1862 mt 4532 1920 L
4571 1865 mt 4629 1923 L
4629 1865 mt 4571 1923 L
4607 1865 mt 4665 1923 L
4665 1865 mt 4607 1923 L
4633 1864 mt 4691 1922 L
4691 1864 mt 4633 1922 L
4655 1867 mt 4713 1925 L
4713 1867 mt 4655 1925 L
4084 1578 mt 4142 1636 L
4142 1578 mt 4084 1636 L
3646 1323 mt 3704 1381 L
3704 1323 mt 3646 1381 L
3270 1040 mt 3328 1098 L
3328 1040 mt 3270 1098 L
2968  724 mt 3026  782 L
3026  724 mt 2968  782 L
gs 848 564 4238 3957 rc
gr

gs 848 564 4238 3957 rc
gr

0.1 sg
%%IncludeResource: font Helvetica-Bold
/Helvetica-Bold /ISOLatin1Encoding 183.333 FMSR

2331 4842 mt 
(Vertical Stress) s
 559 3516 mt  -90 rotate
(Lateral Pressure Ratio) s
90 rotate
gs 848 564 4238 3957 rc
gr

/c8 { 1.000000 0.000000 0.000000 sr} bdef
c8
  41   41  848 3639 FO
  41   41  848 3480 FO
  41   41  849 3459 FO
  41   41  850 3431 FO
gs 848 564 4238 3957 rc
gr

  41   41  851 3921 FO
  41   41  851 3516 FO
  41   41  850 3259 FO
  41   41  851 3145 FO
  41   41  850 2537 FO
gs 848 564 4238 3957 rc
gr

gs 848 564 4238 3957 rc
gr

  41   41  848 4156 FO
  41   41  849 3454 FO
  41   41  850 3659 FO
  41   41  851 3043 FO
  41   41  852 4374 FO
  41   41  852 3574 FO
  41   41  853 3563 FO
  41   41  853 3405 FO
  41   41  854 3493 FO
  41   41  857 3439 FO
  41   41  860 3433 FO
  41   41  860 3403 FO
  41   41  861 3365 FO
  41   41  859 3185 FO
  41   41  858 3103 FO
  41   41  856 3112 FO
  41   41  856 3145 FO
  41   41  857 3029 FO
  41   41  856 2749 FO
  41   41  858 3269 FO
  41   41  861 3314 FO
  41   41  864 3274 FO
  41   41  867 3474 FO
  41   41  871 3432 FO
  41   41  874 3309 FO
  41   41  879 3321 FO
  41   41  885 3355 FO
  41   41  889 3275 FO
  41   41  894 3298 FO
  41   41  900 3281 FO
  41   41  903 3210 FO
  41   41  905 3167 FO
  41   41  908 3142 FO
  41   41  912 3102 FO
  41   41  916 3069 FO
  41   41  915 3003 FO
  41   41  912 2985 FO
  41   41  912 2984 FO
  41   41  919 2977 FO
  41   41  925 3004 FO
  41   41  933 3019 FO
  41   41  936 2983 FO
  41   41  943 3051 FO
  41   41  949 2991 FO
  41   41  956 2988 FO
  41   41  959 2920 FO
  41   41  962 2913 FO
  41   41  966 2886 FO
  41   41  969 2842 FO
  41   41  971 2837 FO
  41   41  974 2826 FO
  41   41  974 2807 FO
  41   41  976 2803 FO
  41   41  980 2812 FO
  41   41  984 2828 FO
  41   41  988 2787 FO
  41   41  992 2775 FO
  41   41  996 2735 FO
  41   41  999 2711 FO
  41   41 1004 2726 FO
  41   41 1008 2724 FO
  41   41 1016 2737 FO
  41   41 1022 2692 FO
  41   41 1026 2689 FO
  41   41 1031 2691 FO
  41   41 1034 2681 FO
  41   41 1040 2667 FO
  41   41 1043 2652 FO
  41   41 1046 2643 FO
  41   41 1054 2646 FO
  41   41 1060 2662 FO
  41   41 1065 2652 FO
  41   41 1074 2649 FO
  41   41 1079 2645 FO
  41   41 1083 2633 FO
  41   41 1085 2621 FO
  41   41 1088 2615 FO
  41   41 1091 2606 FO
  41   41 1093 2597 FO
  41   41 1095 2600 FO
  41   41 1096 2586 FO
  41   41 1099 2612 FO
  41   41 1102 2625 FO
  41   41 1105 2609 FO
  41   41 1110 2588 FO
  41   41 1115 2593 FO
  41   41 1122 2569 FO
  41   41 1131 2587 FO
  41   41 1139 2590 FO
  41   41 1143 2573 FO
  41   41 1152 2577 FO
  41   41 1160 2580 FO
  41   41 1166 2564 FO
  41   41 1172 2574 FO
  41   41 1176 2564 FO
  41   41 1181 2548 FO
  41   41 1187 2540 FO
  41   41 1193 2550 FO
  41   41 1194 2538 FO
  41   41 1198 2525 FO
  41   41 1201 2520 FO
  41   41 1201 2487 FO
  41   41 1208 2502 FO
  41   41 1215 2507 FO
  41   41 1212 2498 FO
  41   41 1214 2484 FO
  41   41 1224 2505 FO
  41   41 1237 2507 FO
  41   41 1248 2492 FO
  41   41 1260 2503 FO
  41   41 1267 2514 FO
  41   41 1266 2482 FO
  41   41 1274 2489 FO
  41   41 1278 2492 FO
  41   41 1282 2470 FO
  41   41 1290 2475 FO
  41   41 1298 2485 FO
  41   41 1306 2464 FO
  41   41 1318 2485 FO
  41   41 1326 2472 FO
  41   41 1332 2467 FO
  41   41 1337 2457 FO
  41   41 1345 2457 FO
  41   41 1351 2465 FO
  41   41 1359 2461 FO
  41   41 1368 2481 FO
  41   41 1381 2481 FO
  41   41 1391 2463 FO
  41   41 1399 2466 FO
  41   41 1409 2468 FO
  41   41 1419 2468 FO
  41   41 1417 2458 FO
  41   41 1427 2463 FO
  41   41 1438 2467 FO
  41   41 1447 2468 FO
  41   41 1454 2460 FO
  41   41 1459 2451 FO
  41   41 1461 2439 FO
  41   41 1465 2438 FO
  41   41 1469 2428 FO
  41   41 1486 2442 FO
  41   41 1502 2443 FO
  41   41 1511 2437 FO
  41   41 1521 2433 FO
  41   41 1530 2449 FO
  41   41 1528 2435 FO
  41   41 1532 2441 FO
  41   41 1537 2431 FO
  41   41 1541 2421 FO
  41   41 1548 2420 FO
  41   41 1563 2425 FO
  41   41 1574 2423 FO
  41   41 1586 2430 FO
  41   41 1597 2435 FO
  41   41 1609 2438 FO
  41   41 1612 2432 FO
  41   41 1615 2428 FO
  41   41 1629 2443 FO
  41   41 1624 2423 FO
  41   41 1642 2423 FO
  41   41 1652 2427 FO
  41   41 1663 2429 FO
  41   41 1674 2441 FO
  41   41 1694 2436 FO
  41   41 1708 2441 FO
  41   41 1714 2431 FO
  41   41 1708 2413 FO
  41   41 1716 2435 FO
  41   41 1727 2437 FO
  41   41 1739 2431 FO
  41   41 1750 2427 FO
  41   41 1765 2432 FO
  41   41 1777 2440 FO
  41   41 1793 2447 FO
  41   41 1800 2446 FO
  41   41 1809 2439 FO
  41   41 1822 2442 FO
  41   41 1830 2448 FO
  41   41 1846 2448 FO
  41   41 1855 2448 FO
  41   41 1867 2454 FO
  41   41 1877 2446 FO
  41   41 1892 2460 FO
  41   41 1898 2458 FO
  41   41 1898 2452 FO
  41   41 1912 2460 FO
  41   41 1926 2456 FO
  41   41 1939 2455 FO
  41   41 1957 2457 FO
  41   41 1971 2455 FO
  41   41 1985 2452 FO
  41   41 1993 2459 FO
  41   41 2007 2458 FO
  41   41 2021 2450 FO
  41   41 2035 2455 FO
  41   41 2035 2453 FO
  41   41 2042 2452 FO
  41   41 2049 2457 FO
  41   41 2062 2456 FO
  41   41 2073 2457 FO
  41   41 2096 2453 FO
  41   41 2134 2467 FO
  41   41 2139 2451 FO
  41   41 2148 2447 FO
  41   41 2166 2464 FO
  41   41 2177 2469 FO
  41   41 2185 2463 FO
  41   41 2197 2468 FO
  41   41 2210 2467 FO
  41   41 2223 2473 FO
  41   41 2236 2468 FO
  41   41 2248 2468 FO
  41   41 2267 2467 FO
  41   41 2288 2475 FO
  41   41 2305 2473 FO
  41   41 2293 2459 FO
  41   41 2303 2469 FO
  41   41 2337 2448 FO
  41   41 2370 2469 FO
  41   41 2382 2467 FO
  41   41 2388 2479 FO
  41   41 2385 2462 FO
  41   41 2416 2477 FO
  41   41 2438 2482 FO
  41   41 2463 2476 FO
  41   41 2483 2478 FO
  41   41 2499 2489 FO
  41   41 2505 2477 FO
  41   41 2525 2483 FO
  41   41 2537 2478 FO
  41   41 2562 2489 FO
  41   41 2578 2484 FO
  41   41 2602 2485 FO
  41   41 2627 2489 FO
  41   41 2642 2488 FO
  41   41 2660 2492 FO
  41   41 2675 2491 FO
  41   41 2687 2493 FO
  41   41 2702 2498 FO
  41   41 2722 2492 FO
  41   41 2756 2493 FO
  41   41 2772 2498 FO
  41   41 2781 2496 FO
  41   41 2786 2500 FO
  41   41 2805 2499 FO
  41   41 2828 2500 FO
  41   41 2857 2508 FO
  41   41 2879 2507 FO
  41   41 2908 2511 FO
  41   41 2930 2508 FO
  41   41 2948 2509 FO
  41   41 2958 2507 FO
  41   41 2970 2506 FO
  41   41 2981 2506 FO
  41   41 3009 2504 FO
  41   41 3048 2513 FO
  41   41 3078 2517 FO
  41   41 3101 2518 FO
  41   41 3111 2519 FO
  41   41 3122 2519 FO
  41   41 3147 2516 FO
  41   41 3156 2518 FO
  41   41 3185 2516 FO
  41   41 3218 2522 FO
  41   41 3251 2525 FO
  41   41 3268 2521 FO
  41   41 3291 2524 FO
  41   41 3303 2524 FO
  41   41 3318 2525 FO
  41   41 3344 2524 FO
  41   41 3378 2526 FO
  41   41 3396 2522 FO
  41   41 3417 2522 FO
  41   41 3445 2531 FO
  41   41 3463 2530 FO
  41   41 3477 2521 FO
  41   41 3492 2524 FO
  41   41 3507 2527 FO
  41   41 3522 2522 FO
  41   41 3569 2521 FO
  41   41 3591 2525 FO
  41   41 3610 2525 FO
  41   41 3604 2520 FO
  41   41 3649 2517 FO
  41   41 3698 2525 FO
  41   41 3722 2525 FO
  41   41 3735 2524 FO
  41   41 3748 2525 FO
  41   41 3768 2524 FO
  41   41 3804 2527 FO
  41   41 3839 2523 FO
  41   41 3868 2524 FO
  41   41 3895 2530 FO
  41   41 3911 2527 FO
  41   41 3936 2528 FO
  41   41 3958 2527 FO
  41   41 3992 2530 FO
  41   41 4023 2533 FO
  41   41 4043 2527 FO
  41   41 4065 2528 FO
  41   41 4106 2537 FO
  41   41 4125 2532 FO
  41   41 4155 2535 FO
  41   41 4184 2536 FO
  41   41 4207 2538 FO
  41   41 4237 2539 FO
  41   41 4266 2540 FO
  41   41 4294 2538 FO
  41   41 4324 2541 FO
  41   41 4352 2543 FO
  41   41 4363 2531 FO
  41   41 4381 2533 FO
  41   41 4419 2533 FO
  41   41 4447 2535 FO
  41   41 4472 2535 FO
  41   41 4499 2534 FO
  41   41 4532 2537 FO
  41   41 4561 2537 FO
  41   41 4591 2535 FO
  41   41 4622 2536 FO
  41   41 4648 2536 FO
  41   41 4672 2532 FO
  41   41 4699 2536 FO
  41   41 4144 2444 FO
  41   41 4033 2344 FO
  41   41 3385 2225 FO
  41   41 3458 2110 FO
  41   41 2821 1985 FO
  41   41 2830 1862 FO
  41   41 2484 1713 FO
  41   41 2213 1526 FO
  41   41 2160 1365 FO
  41   41 1866 1178 FO
  41   41 1702  907 FO
  41   41 1632  630 FO
gs 848 564 4238 3957 rc
gr

gs 848 564 4238 3957 rc
gr

0 j
41 54 -41 54 -41 -54 41 -54 848 3418 5 MP
/c9 { 0.000000 0.000000 1.000000 sr} bdef
c9
DP
41 54 -41 54 -41 -54 41 -54 848 2971 5 MP
DP
gs 848 564 4238 3957 rc
gr

gs 848 564 4238 3957 rc
gr

41 54 -41 54 -41 -54 41 -54 851 3666 5 MP
DP
41 54 -41 54 -41 -54 41 -54 853 3629 5 MP
DP
41 54 -41 54 -41 -54 41 -54 853 3420 5 MP
DP
41 54 -41 54 -41 -54 41 -54 854 3261 5 MP
DP
41 54 -41 54 -41 -54 41 -54 853 3181 5 MP
DP
41 54 -41 54 -41 -54 41 -54 854 3459 5 MP
DP
41 54 -41 54 -41 -54 41 -54 857 3604 5 MP
DP
41 54 -41 54 -41 -54 41 -54 861 3485 5 MP
DP
41 54 -41 54 -41 -54 41 -54 866 3568 5 MP
DP
41 54 -41 54 -41 -54 41 -54 867 3466 5 MP
DP
41 54 -41 54 -41 -54 41 -54 865 3238 5 MP
DP
41 54 -41 54 -41 -54 41 -54 870 3477 5 MP
DP
41 54 -41 54 -41 -54 41 -54 871 3339 5 MP
DP
41 54 -41 54 -41 -54 41 -54 876 3262 5 MP
DP
41 54 -41 54 -41 -54 41 -54 881 3259 5 MP
DP
41 54 -41 54 -41 -54 41 -54 885 3289 5 MP
DP
41 54 -41 54 -41 -54 41 -54 888 3225 5 MP
DP
41 54 -41 54 -41 -54 41 -54 890 3156 5 MP
DP
41 54 -41 54 -41 -54 41 -54 893 3169 5 MP
DP
41 54 -41 54 -41 -54 41 -54 893 3103 5 MP
DP
41 54 -41 54 -41 -54 41 -54 895 3059 5 MP
DP
41 54 -41 54 -41 -54 41 -54 897 3007 5 MP
DP
41 54 -41 54 -41 -54 41 -54 900 2989 5 MP
DP
41 54 -41 54 -41 -54 41 -54 905 2986 5 MP
DP
41 54 -41 54 -41 -54 41 -54 909 2941 5 MP
DP
41 54 -41 54 -41 -54 41 -54 913 2901 5 MP
DP
41 54 -41 54 -41 -54 41 -54 918 2929 5 MP
DP
41 54 -41 54 -41 -54 41 -54 923 2929 5 MP
DP
41 54 -41 54 -41 -54 41 -54 928 2932 5 MP
DP
41 54 -41 54 -41 -54 41 -54 932 2934 5 MP
DP
41 54 -41 54 -41 -54 41 -54 936 2930 5 MP
DP
41 54 -41 54 -41 -54 41 -54 936 2875 5 MP
DP
41 54 -41 54 -41 -54 41 -54 940 2882 5 MP
DP
41 54 -41 54 -41 -54 41 -54 947 2953 5 MP
DP
41 54 -41 54 -41 -54 41 -54 954 2908 5 MP
DP
41 54 -41 54 -41 -54 41 -54 954 2845 5 MP
DP
41 54 -41 54 -41 -54 41 -54 951 2823 5 MP
DP
41 54 -41 54 -41 -54 41 -54 955 2883 5 MP
DP
41 54 -41 54 -41 -54 41 -54 963 2873 5 MP
DP
41 54 -41 54 -41 -54 41 -54 974 2891 5 MP
DP
41 54 -41 54 -41 -54 41 -54 986 2927 5 MP
DP
41 54 -41 54 -41 -54 41 -54 991 2891 5 MP
DP
41 54 -41 54 -41 -54 41 -54 995 2877 5 MP
DP
41 54 -41 54 -41 -54 41 -54 997 2866 5 MP
DP
41 54 -41 54 -41 -54 41 -54 999 2908 5 MP
DP
41 54 -41 54 -41 -54 41 -54 1005 2902 5 MP
DP
41 54 -41 54 -41 -54 41 -54 1011 2850 5 MP
DP
41 54 -41 54 -41 -54 41 -54 1015 2841 5 MP
DP
41 54 -41 54 -41 -54 41 -54 1018 2836 5 MP
DP
41 54 -41 54 -41 -54 41 -54 1020 2837 5 MP
DP
41 54 -41 54 -41 -54 41 -54 1022 2844 5 MP
DP
41 54 -41 54 -41 -54 41 -54 1028 2855 5 MP
DP
41 54 -41 54 -41 -54 41 -54 1032 2806 5 MP
DP
41 54 -41 54 -41 -54 41 -54 1034 2787 5 MP
DP
41 54 -41 54 -41 -54 41 -54 1043 2812 5 MP
DP
41 54 -41 54 -41 -54 41 -54 1056 2830 5 MP
DP
41 54 -41 54 -41 -54 41 -54 1065 2845 5 MP
DP
41 54 -41 54 -41 -54 41 -54 1066 2822 5 MP
DP
41 54 -41 54 -41 -54 41 -54 1066 2777 5 MP
DP
41 54 -41 54 -41 -54 41 -54 1070 2785 5 MP
DP
41 54 -41 54 -41 -54 41 -54 1080 2808 5 MP
DP
41 54 -41 54 -41 -54 41 -54 1083 2778 5 MP
DP
41 54 -41 54 -41 -54 41 -54 1092 2785 5 MP
DP
41 54 -41 54 -41 -54 41 -54 1096 2780 5 MP
DP
41 54 -41 54 -41 -54 41 -54 1104 2807 5 MP
DP
41 54 -41 54 -41 -54 41 -54 1107 2799 5 MP
DP
41 54 -41 54 -41 -54 41 -54 1108 2790 5 MP
DP
41 54 -41 54 -41 -54 41 -54 1113 2769 5 MP
DP
41 54 -41 54 -41 -54 41 -54 1122 2778 5 MP
DP
41 54 -41 54 -41 -54 41 -54 1125 2759 5 MP
DP
41 54 -41 54 -41 -54 41 -54 1133 2788 5 MP
DP
41 54 -41 54 -41 -54 41 -54 1146 2812 5 MP
DP
41 54 -41 54 -41 -54 41 -54 1153 2807 5 MP
DP
41 54 -41 54 -41 -54 41 -54 1155 2797 5 MP
DP
41 54 -41 54 -41 -54 41 -54 1157 2789 5 MP
DP
41 54 -41 54 -41 -54 41 -54 1160 2787 5 MP
DP
41 54 -41 54 -41 -54 41 -54 1169 2786 5 MP
DP
41 54 -41 54 -41 -54 41 -54 1177 2802 5 MP
DP
41 54 -41 54 -41 -54 41 -54 1183 2786 5 MP
DP
41 54 -41 54 -41 -54 41 -54 1189 2777 5 MP
DP
41 54 -41 54 -41 -54 41 -54 1199 2790 5 MP
DP
41 54 -41 54 -41 -54 41 -54 1208 2796 5 MP
DP
41 54 -41 54 -41 -54 41 -54 1214 2801 5 MP
DP
41 54 -41 54 -41 -54 41 -54 1217 2813 5 MP
DP
41 54 -41 54 -41 -54 41 -54 1220 2787 5 MP
DP
41 54 -41 54 -41 -54 41 -54 1231 2801 5 MP
DP
41 54 -41 54 -41 -54 41 -54 1235 2796 5 MP
DP
41 54 -41 54 -41 -54 41 -54 1246 2801 5 MP
DP
41 54 -41 54 -41 -54 41 -54 1255 2810 5 MP
DP
41 54 -41 54 -41 -54 41 -54 1260 2787 5 MP
DP
41 54 -41 54 -41 -54 41 -54 1266 2807 5 MP
DP
41 54 -41 54 -41 -54 41 -54 1267 2791 5 MP
DP
41 54 -41 54 -41 -54 41 -54 1275 2801 5 MP
DP
41 54 -41 54 -41 -54 41 -54 1289 2800 5 MP
DP
41 54 -41 54 -41 -54 41 -54 1304 2795 5 MP
DP
41 54 -41 54 -41 -54 41 -54 1312 2796 5 MP
DP
41 54 -41 54 -41 -54 41 -54 1316 2796 5 MP
DP
41 54 -41 54 -41 -54 41 -54 1321 2792 5 MP
DP
41 54 -41 54 -41 -54 41 -54 1324 2782 5 MP
DP
41 54 -41 54 -41 -54 41 -54 1334 2796 5 MP
DP
41 54 -41 54 -41 -54 41 -54 1338 2793 5 MP
DP
41 54 -41 54 -41 -54 41 -54 1341 2790 5 MP
DP
41 54 -41 54 -41 -54 41 -54 1353 2781 5 MP
DP
41 54 -41 54 -41 -54 41 -54 1367 2780 5 MP
DP
41 54 -41 54 -41 -54 41 -54 1380 2788 5 MP
DP
41 54 -41 54 -41 -54 41 -54 1384 2778 5 MP
DP
41 54 -41 54 -41 -54 41 -54 1396 2777 5 MP
DP
41 54 -41 54 -41 -54 41 -54 1405 2784 5 MP
DP
41 54 -41 54 -41 -54 41 -54 1409 2767 5 MP
DP
41 54 -41 54 -41 -54 41 -54 1410 2766 5 MP
DP
41 54 -41 54 -41 -54 41 -54 1428 2792 5 MP
DP
41 54 -41 54 -41 -54 41 -54 1439 2794 5 MP
DP
41 54 -41 54 -41 -54 41 -54 1450 2791 5 MP
DP
41 54 -41 54 -41 -54 41 -54 1461 2787 5 MP
DP
41 54 -41 54 -41 -54 41 -54 1470 2782 5 MP
DP
41 54 -41 54 -41 -54 41 -54 1481 2793 5 MP
DP
41 54 -41 54 -41 -54 41 -54 1498 2808 5 MP
DP
41 54 -41 54 -41 -54 41 -54 1510 2815 5 MP
DP
41 54 -41 54 -41 -54 41 -54 1519 2816 5 MP
DP
41 54 -41 54 -41 -54 41 -54 1533 2819 5 MP
DP
41 54 -41 54 -41 -54 41 -54 1539 2826 5 MP
DP
41 54 -41 54 -41 -54 41 -54 1548 2829 5 MP
DP
41 54 -41 54 -41 -54 41 -54 1565 2835 5 MP
DP
41 54 -41 54 -41 -54 41 -54 1581 2828 5 MP
DP
41 54 -41 54 -41 -54 41 -54 1585 2804 5 MP
DP
41 54 -41 54 -41 -54 41 -54 1583 2819 5 MP
DP
41 54 -41 54 -41 -54 41 -54 1588 2809 5 MP
DP
41 54 -41 54 -41 -54 41 -54 1596 2805 5 MP
DP
41 54 -41 54 -41 -54 41 -54 1611 2807 5 MP
DP
41 54 -41 54 -41 -54 41 -54 1623 2809 5 MP
DP
41 54 -41 54 -41 -54 41 -54 1623 2792 5 MP
DP
41 54 -41 54 -41 -54 41 -54 1629 2790 5 MP
DP
41 54 -41 54 -41 -54 41 -54 1642 2781 5 MP
DP
41 54 -41 54 -41 -54 41 -54 1668 2797 5 MP
DP
41 54 -41 54 -41 -54 41 -54 1682 2804 5 MP
DP
41 54 -41 54 -41 -54 41 -54 1676 2790 5 MP
DP
41 54 -41 54 -41 -54 41 -54 1690 2790 5 MP
DP
41 54 -41 54 -41 -54 41 -54 1705 2802 5 MP
DP
41 54 -41 54 -41 -54 41 -54 1711 2793 5 MP
DP
41 54 -41 54 -41 -54 41 -54 1722 2788 5 MP
DP
41 54 -41 54 -41 -54 41 -54 1742 2804 5 MP
DP
41 54 -41 54 -41 -54 41 -54 1755 2804 5 MP
DP
41 54 -41 54 -41 -54 41 -54 1764 2804 5 MP
DP
41 54 -41 54 -41 -54 41 -54 1776 2813 5 MP
DP
41 54 -41 54 -41 -54 41 -54 1782 2801 5 MP
DP
41 54 -41 54 -41 -54 41 -54 1796 2813 5 MP
DP
41 54 -41 54 -41 -54 41 -54 1809 2810 5 MP
DP
41 54 -41 54 -41 -54 41 -54 1827 2794 5 MP
DP
41 54 -41 54 -41 -54 41 -54 1839 2790 5 MP
DP
41 54 -41 54 -41 -54 41 -54 1844 2796 5 MP
DP
41 54 -41 54 -41 -54 41 -54 1860 2813 5 MP
DP
41 54 -41 54 -41 -54 41 -54 1872 2805 5 MP
DP
41 54 -41 54 -41 -54 41 -54 1889 2800 5 MP
DP
41 54 -41 54 -41 -54 41 -54 1899 2795 5 MP
DP
41 54 -41 54 -41 -54 41 -54 1917 2807 5 MP
DP
41 54 -41 54 -41 -54 41 -54 1922 2792 5 MP
DP
41 54 -41 54 -41 -54 41 -54 1927 2799 5 MP
DP
41 54 -41 54 -41 -54 41 -54 1942 2800 5 MP
DP
41 54 -41 54 -41 -54 41 -54 1964 2808 5 MP
DP
41 54 -41 54 -41 -54 41 -54 1977 2802 5 MP
DP
41 54 -41 54 -41 -54 41 -54 1997 2806 5 MP
DP
41 54 -41 54 -41 -54 41 -54 2006 2804 5 MP
DP
41 54 -41 54 -41 -54 41 -54 1970 2788 5 MP
DP
41 54 -41 54 -41 -54 41 -54 1987 2782 5 MP
DP
41 54 -41 54 -41 -54 41 -54 2032 2778 5 MP
DP
41 54 -41 54 -41 -54 41 -54 2045 2775 5 MP
DP
41 54 -41 54 -41 -54 41 -54 2058 2790 5 MP
DP
41 54 -41 54 -41 -54 41 -54 2066 2790 5 MP
DP
41 54 -41 54 -41 -54 41 -54 2083 2794 5 MP
DP
41 54 -41 54 -41 -54 41 -54 2104 2791 5 MP
DP
41 54 -41 54 -41 -54 41 -54 2120 2790 5 MP
DP
41 54 -41 54 -41 -54 41 -54 2133 2799 5 MP
DP
41 54 -41 54 -41 -54 41 -54 2138 2787 5 MP
DP
41 54 -41 54 -41 -54 41 -54 2158 2804 5 MP
DP
41 54 -41 54 -41 -54 41 -54 2173 2798 5 MP
DP
41 54 -41 54 -41 -54 41 -54 2196 2805 5 MP
DP
41 54 -41 54 -41 -54 41 -54 2209 2801 5 MP
DP
41 54 -41 54 -41 -54 41 -54 2231 2801 5 MP
DP
41 54 -41 54 -41 -54 41 -54 2254 2810 5 MP
DP
41 54 -41 54 -41 -54 41 -54 2264 2805 5 MP
DP
41 54 -41 54 -41 -54 41 -54 2280 2806 5 MP
DP
41 54 -41 54 -41 -54 41 -54 2290 2808 5 MP
DP
41 54 -41 54 -41 -54 41 -54 2294 2804 5 MP
DP
41 54 -41 54 -41 -54 41 -54 2319 2804 5 MP
DP
41 54 -41 54 -41 -54 41 -54 2337 2807 5 MP
DP
41 54 -41 54 -41 -54 41 -54 2355 2808 5 MP
DP
41 54 -41 54 -41 -54 41 -54 2381 2808 5 MP
DP
41 54 -41 54 -41 -54 41 -54 2391 2808 5 MP
DP
41 54 -41 54 -41 -54 41 -54 2405 2807 5 MP
DP
41 54 -41 54 -41 -54 41 -54 2428 2810 5 MP
DP
41 54 -41 54 -41 -54 41 -54 2431 2802 5 MP
DP
41 54 -41 54 -41 -54 41 -54 2452 2802 5 MP
DP
41 54 -41 54 -41 -54 41 -54 2478 2811 5 MP
DP
41 54 -41 54 -41 -54 41 -54 2494 2833 5 MP
DP
41 54 -41 54 -41 -54 41 -54 2428 2747 5 MP
DP
41 54 -41 54 -41 -54 41 -54 2472 2802 5 MP
DP
41 54 -41 54 -41 -54 41 -54 2494 2780 5 MP
DP
41 54 -41 54 -41 -54 41 -54 2525 2794 5 MP
DP
41 54 -41 54 -41 -54 41 -54 2551 2800 5 MP
DP
41 54 -41 54 -41 -54 41 -54 2568 2798 5 MP
DP
41 54 -41 54 -41 -54 41 -54 2597 2801 5 MP
DP
41 54 -41 54 -41 -54 41 -54 2623 2804 5 MP
DP
41 54 -41 54 -41 -54 41 -54 2630 2796 5 MP
DP
41 54 -41 54 -41 -54 41 -54 2648 2806 5 MP
DP
41 54 -41 54 -41 -54 41 -54 2660 2792 5 MP
DP
41 54 -41 54 -41 -54 41 -54 2679 2804 5 MP
DP
41 54 -41 54 -41 -54 41 -54 2689 2799 5 MP
DP
41 54 -41 54 -41 -54 41 -54 2706 2801 5 MP
DP
41 54 -41 54 -41 -54 41 -54 2708 2798 5 MP
DP
41 54 -41 54 -41 -54 41 -54 2733 2797 5 MP
DP
41 54 -41 54 -41 -54 41 -54 2785 2810 5 MP
DP
41 54 -41 54 -41 -54 41 -54 2796 2804 5 MP
DP
41 54 -41 54 -41 -54 41 -54 2816 2807 5 MP
DP
41 54 -41 54 -41 -54 41 -54 2828 2813 5 MP
DP
41 54 -41 54 -41 -54 41 -54 2837 2814 5 MP
DP
41 54 -41 54 -41 -54 41 -54 2851 2793 5 MP
DP
41 54 -41 54 -41 -54 41 -54 2879 2807 5 MP
DP
41 54 -41 54 -41 -54 41 -54 2912 2813 5 MP
DP
41 54 -41 54 -41 -54 41 -54 2935 2810 5 MP
DP
41 54 -41 54 -41 -54 41 -54 2953 2809 5 MP
DP
41 54 -41 54 -41 -54 41 -54 2969 2820 5 MP
DP
41 54 -41 54 -41 -54 41 -54 2988 2817 5 MP
DP
41 54 -41 54 -41 -54 41 -54 3010 2812 5 MP
DP
41 54 -41 54 -41 -54 41 -54 3031 2813 5 MP
DP
41 54 -41 54 -41 -54 41 -54 3057 2818 5 MP
DP
41 54 -41 54 -41 -54 41 -54 3067 2813 5 MP
DP
41 54 -41 54 -41 -54 41 -54 3090 2818 5 MP
DP
41 54 -41 54 -41 -54 41 -54 3109 2812 5 MP
DP
41 54 -41 54 -41 -54 41 -54 3134 2813 5 MP
DP
41 54 -41 54 -41 -54 41 -54 3155 2813 5 MP
DP
41 54 -41 54 -41 -54 41 -54 3176 2820 5 MP
DP
41 54 -41 54 -41 -54 41 -54 3203 2818 5 MP
DP
41 54 -41 54 -41 -54 41 -54 3217 2814 5 MP
DP
41 54 -41 54 -41 -54 41 -54 3236 2815 5 MP
DP
41 54 -41 54 -41 -54 41 -54 3266 2821 5 MP
DP
41 54 -41 54 -41 -54 41 -54 3264 2807 5 MP
DP
41 54 -41 54 -41 -54 41 -54 3289 2818 5 MP
DP
41 54 -41 54 -41 -54 41 -54 3313 2817 5 MP
DP
41 54 -41 54 -41 -54 41 -54 3319 2812 5 MP
DP
41 54 -41 54 -41 -54 41 -54 3345 2815 5 MP
DP
41 54 -41 54 -41 -54 41 -54 3375 2817 5 MP
DP
41 54 -41 54 -41 -54 41 -54 3408 2821 5 MP
DP
41 54 -41 54 -41 -54 41 -54 3437 2820 5 MP
DP
41 54 -41 54 -41 -54 41 -54 3446 2816 5 MP
DP
41 54 -41 54 -41 -54 41 -54 3474 2820 5 MP
DP
41 54 -41 54 -41 -54 41 -54 3507 2821 5 MP
DP
41 54 -41 54 -41 -54 41 -54 3523 2819 5 MP
DP
41 54 -41 54 -41 -54 41 -54 3535 2819 5 MP
DP
41 54 -41 54 -41 -54 41 -54 3553 2812 5 MP
DP
41 54 -41 54 -41 -54 41 -54 3587 2823 5 MP
DP
41 54 -41 54 -41 -54 41 -54 3594 2819 5 MP
DP
41 54 -41 54 -41 -54 41 -54 3628 2823 5 MP
DP
41 54 -41 54 -41 -54 41 -54 3657 2823 5 MP
DP
41 54 -41 54 -41 -54 41 -54 3679 2820 5 MP
DP
41 54 -41 54 -41 -54 41 -54 3697 2818 5 MP
DP
41 54 -41 54 -41 -54 41 -54 3715 2819 5 MP
DP
41 54 -41 54 -41 -54 41 -54 3736 2814 5 MP
DP
41 54 -41 54 -41 -54 41 -54 3780 2819 5 MP
DP
41 54 -41 54 -41 -54 41 -54 3794 2817 5 MP
DP
41 54 -41 54 -41 -54 41 -54 3819 2823 5 MP
DP
41 54 -41 54 -41 -54 41 -54 3842 2820 5 MP
DP
41 54 -41 54 -41 -54 41 -54 3856 2819 5 MP
DP
41 54 -41 54 -41 -54 41 -54 3884 2819 5 MP
DP
41 54 -41 54 -41 -54 41 -54 3919 2820 5 MP
DP
41 54 -41 54 -41 -54 41 -54 3943 2821 5 MP
DP
41 54 -41 54 -41 -54 41 -54 3962 2819 5 MP
DP
41 54 -41 54 -41 -54 41 -54 3999 2823 5 MP
DP
41 54 -41 54 -41 -54 41 -54 4018 2820 5 MP
DP
41 54 -41 54 -41 -54 41 -54 4049 2828 5 MP
DP
41 54 -41 54 -41 -54 41 -54 4068 2824 5 MP
DP
41 54 -41 54 -41 -54 41 -54 4087 2827 5 MP
DP
41 54 -41 54 -41 -54 41 -54 4124 2821 5 MP
DP
41 54 -41 54 -41 -54 41 -54 4150 2826 5 MP
DP
41 54 -41 54 -41 -54 41 -54 4168 2824 5 MP
DP
41 54 -41 54 -41 -54 41 -54 4154 2817 5 MP
DP
41 54 -41 54 -41 -54 41 -54 4196 2821 5 MP
DP
41 54 -41 54 -41 -54 41 -54 4252 2832 5 MP
DP
41 54 -41 54 -41 -54 41 -54 4286 2825 5 MP
DP
41 54 -41 54 -41 -54 41 -54 4325 2833 5 MP
DP
41 54 -41 54 -41 -54 41 -54 4341 2832 5 MP
DP
41 54 -41 54 -41 -54 41 -54 4328 2816 5 MP
DP
41 54 -41 54 -41 -54 41 -54 4371 2827 5 MP
DP
41 54 -41 54 -41 -54 41 -54 4417 2829 5 MP
DP
41 54 -41 54 -41 -54 41 -54 4451 2825 5 MP
DP
41 54 -41 54 -41 -54 41 -54 4502 2833 5 MP
DP
41 54 -41 54 -41 -54 41 -54 4516 2833 5 MP
DP
41 54 -41 54 -41 -54 41 -54 4538 2834 5 MP
DP
41 54 -41 54 -41 -54 41 -54 4578 2839 5 MP
DP
41 54 -41 54 -41 -54 41 -54 4611 2840 5 MP
DP
41 54 -41 54 -41 -54 41 -54 4614 2840 5 MP
DP
41 54 -41 54 -41 -54 41 -54 4642 2823 5 MP
DP
41 54 -41 54 -41 -54 41 -54 4699 2836 5 MP
DP
41 54 -41 54 -41 -54 41 -54 4184 2817 5 MP
DP
41 54 -41 54 -41 -54 41 -54 4190 2735 5 MP
DP
41 54 -41 54 -41 -54 41 -54 3458 2640 5 MP
DP
41 54 -41 54 -41 -54 41 -54 3598 2574 5 MP
DP
41 54 -41 54 -41 -54 41 -54 3088 2519 5 MP
DP
41 54 -41 54 -41 -54 41 -54 2931 2435 5 MP
DP
41 54 -41 54 -41 -54 41 -54 2820 2358 5 MP
DP
41 54 -41 54 -41 -54 41 -54 2456 2293 5 MP
DP
41 54 -41 54 -41 -54 41 -54 2390 2203 5 MP
DP
41 54 -41 54 -41 -54 41 -54 2233 2080 5 MP
DP
41 54 -41 54 -41 -54 41 -54 1989 1978 5 MP
DP
41 54 -41 54 -41 -54 41 -54 1898 1851 5 MP
DP
41 54 -41 54 -41 -54 41 -54 1808 1732 5 MP
DP
41 54 -41 54 -41 -54 41 -54 1635 1596 5 MP
DP
41 54 -41 54 -41 -54 41 -54 1508 1396 5 MP
DP
41 54 -41 54 -41 -54 41 -54 1449 1226 5 MP
DP
41 54 -41 54 -41 -54 41 -54 1359 951 5 MP
DP
41 54 -41 54 -41 -54 41 -54 1251 651 5 MP
DP
gs 848 564 4238 3957 rc
gr

gs 848 564 4238 3957 rc
gr

/c10 { 1.000000 0.000000 1.000000 sr} bdef
c10
 808 4438 mt  890 4438 L
 849 4397 mt  849 4479 L
 809 4011 mt  891 4011 L
 850 3970 mt  850 4052 L
 809 3499 mt  891 3499 L
 850 3458 mt  850 3540 L
 807 3499 mt  889 3499 L
 848 3458 mt  848 3540 L
 808 3899 mt  890 3899 L
 849 3858 mt  849 3940 L
 809 3641 mt  891 3641 L
 850 3600 mt  850 3682 L
 808 3307 mt  890 3307 L
 849 3266 mt  849 3348 L
 810 3890 mt  892 3890 L
 851 3849 mt  851 3931 L
 820 4409 mt  878 4467 L
 878 4409 mt  820 4467 L
 821 3982 mt  879 4040 L
 879 3982 mt  821 4040 L
 821 3470 mt  879 3528 L
 879 3470 mt  821 3528 L
 819 3470 mt  877 3528 L
 877 3470 mt  819 3528 L
 820 3870 mt  878 3928 L
 878 3870 mt  820 3928 L
 821 3612 mt  879 3670 L
 879 3612 mt  821 3670 L
 820 3278 mt  878 3336 L
 878 3278 mt  820 3336 L
 822 3861 mt  880 3919 L
 880 3861 mt  822 3919 L
gs 848 564 4238 3957 rc
gr

 810 4497 mt  892 4497 L
 851 4456 mt  851 4538 L
 810 2759 mt  892 2759 L
 851 2718 mt  851 2800 L
 812 3430 mt  894 3430 L
 853 3389 mt  853 3471 L
 811 3308 mt  893 3308 L
 852 3267 mt  852 3349 L
 811 3223 mt  893 3223 L
 852 3182 mt  852 3264 L
 814 3443 mt  896 3443 L
 855 3402 mt  855 3484 L
 815 3311 mt  897 3311 L
 856 3270 mt  856 3352 L
 815 3245 mt  897 3245 L
 856 3204 mt  856 3286 L
 817 3444 mt  899 3444 L
 858 3403 mt  858 3485 L
 819 3212 mt  901 3212 L
 860 3171 mt  860 3253 L
 820 3177 mt  902 3177 L
 861 3136 mt  861 3218 L
 821 3246 mt  903 3246 L
 862 3205 mt  862 3287 L
 823 3142 mt  905 3142 L
 864 3101 mt  864 3183 L
 823 2932 mt  905 2932 L
 864 2891 mt  864 2973 L
 826 3058 mt  908 3058 L
 867 3017 mt  867 3099 L
 827 3035 mt  909 3035 L
 868 2994 mt  868 3076 L
 829 3060 mt  911 3060 L
 870 3019 mt  870 3101 L
 838 3256 mt  920 3256 L
 879 3215 mt  879 3297 L
 845 3234 mt  927 3234 L
 886 3193 mt  886 3275 L
 846 3119 mt  928 3119 L
 887 3078 mt  887 3160 L
 850 3199 mt  932 3199 L
 891 3158 mt  891 3240 L
 856 3282 mt  938 3282 L
 897 3241 mt  897 3323 L
 861 3216 mt  943 3216 L
 902 3175 mt  902 3257 L
 867 3233 mt  949 3233 L
 908 3192 mt  908 3274 L
 875 3252 mt  957 3252 L
 916 3211 mt  916 3293 L
 883 3227 mt  965 3227 L
 924 3186 mt  924 3268 L
 887 3153 mt  969 3153 L
 928 3112 mt  928 3194 L
 895 3172 mt  977 3172 L
 936 3131 mt  936 3213 L
 897 3130 mt  979 3130 L
 938 3089 mt  938 3171 L
 902 3101 mt  984 3101 L
 943 3060 mt  943 3142 L
 911 3147 mt  993 3147 L
 952 3106 mt  952 3188 L
 920 3102 mt 1002 3102 L
 961 3061 mt  961 3143 L
 926 3088 mt 1008 3088 L
 967 3047 mt  967 3129 L
 932 3100 mt 1014 3100 L
 973 3059 mt  973 3141 L
 939 3084 mt 1021 3084 L
 980 3043 mt  980 3125 L
 943 3078 mt 1025 3078 L
 984 3037 mt  984 3119 L
 948 3091 mt 1030 3091 L
 989 3050 mt  989 3132 L
 952 3066 mt 1034 3066 L
 993 3025 mt  993 3107 L
 955 3026 mt 1037 3026 L
 996 2985 mt  996 3067 L
 959 3004 mt 1041 3004 L
1000 2963 mt 1000 3045 L
 963 2965 mt 1045 2965 L
1004 2924 mt 1004 3006 L
 965 2962 mt 1047 2962 L
1006 2921 mt 1006 3003 L
 969 2963 mt 1051 2963 L
1010 2922 mt 1010 3004 L
 971 2933 mt 1053 2933 L
1012 2892 mt 1012 2974 L
 975 2914 mt 1057 2914 L
1016 2873 mt 1016 2955 L
 982 2897 mt 1064 2897 L
1023 2856 mt 1023 2938 L
 990 2912 mt 1072 2912 L
1031 2871 mt 1031 2953 L
 997 2906 mt 1079 2906 L
1038 2865 mt 1038 2947 L
1004 2901 mt 1086 2901 L
1045 2860 mt 1045 2942 L
1011 2891 mt 1093 2891 L
1052 2850 mt 1052 2932 L
1017 2868 mt 1099 2868 L
1058 2827 mt 1058 2909 L
1023 2853 mt 1105 2853 L
1064 2812 mt 1064 2894 L
1031 2841 mt 1113 2841 L
1072 2800 mt 1072 2882 L
1036 2837 mt 1118 2837 L
1077 2796 mt 1077 2878 L
1042 2843 mt 1124 2843 L
1083 2802 mt 1083 2884 L
1045 2829 mt 1127 2829 L
1086 2788 mt 1086 2870 L
1048 2816 mt 1130 2816 L
1089 2775 mt 1089 2857 L
1050 2802 mt 1132 2802 L
1091 2761 mt 1091 2843 L
1056 2802 mt 1138 2802 L
1097 2761 mt 1097 2843 L
1065 2807 mt 1147 2807 L
1106 2766 mt 1106 2848 L
1073 2824 mt 1155 2824 L
1114 2783 mt 1114 2865 L
1081 2803 mt 1163 2803 L
1122 2762 mt 1122 2844 L
1086 2784 mt 1168 2784 L
1127 2743 mt 1127 2825 L
1090 2783 mt 1172 2783 L
1131 2742 mt 1131 2824 L
1097 2794 mt 1179 2794 L
1138 2753 mt 1138 2835 L
1101 2773 mt 1183 2773 L
1142 2732 mt 1142 2814 L
1108 2773 mt 1190 2773 L
1149 2732 mt 1149 2814 L
1116 2759 mt 1198 2759 L
1157 2718 mt 1157 2800 L
1119 2754 mt 1201 2754 L
1160 2713 mt 1160 2795 L
1120 2742 mt 1202 2742 L
1161 2701 mt 1161 2783 L
1124 2734 mt 1206 2734 L
1165 2693 mt 1165 2775 L
1133 2726 mt 1215 2726 L
1174 2685 mt 1174 2767 L
1138 2732 mt 1220 2732 L
1179 2691 mt 1179 2773 L
1137 2714 mt 1219 2714 L
1178 2673 mt 1178 2755 L
1142 2708 mt 1224 2708 L
1183 2667 mt 1183 2749 L
1150 2706 mt 1232 2706 L
1191 2665 mt 1191 2747 L
1158 2703 mt 1240 2703 L
1199 2662 mt 1199 2744 L
1167 2699 mt 1249 2699 L
1208 2658 mt 1208 2740 L
1177 2695 mt 1259 2695 L
1218 2654 mt 1218 2736 L
1189 2698 mt 1271 2698 L
1230 2657 mt 1230 2739 L
1197 2680 mt 1279 2680 L
1238 2639 mt 1238 2721 L
1203 2683 mt 1285 2683 L
1244 2642 mt 1244 2724 L
1208 2673 mt 1290 2673 L
1249 2632 mt 1249 2714 L
1217 2674 mt 1299 2674 L
1258 2633 mt 1258 2715 L
1217 2646 mt 1299 2646 L
1258 2605 mt 1258 2687 L
1223 2640 mt 1305 2640 L
1264 2599 mt 1264 2681 L
1234 2653 mt 1316 2653 L
1275 2612 mt 1275 2694 L
1237 2623 mt 1319 2623 L
1278 2582 mt 1278 2664 L
1244 2625 mt 1326 2625 L
1285 2584 mt 1285 2666 L
1251 2617 mt 1333 2617 L
1292 2576 mt 1292 2658 L
1256 2622 mt 1338 2622 L
1297 2581 mt 1297 2663 L
1261 2611 mt 1343 2611 L
1302 2570 mt 1302 2652 L
1265 2585 mt 1347 2585 L
1306 2544 mt 1306 2626 L
1274 2593 mt 1356 2593 L
1315 2552 mt 1315 2634 L
1279 2594 mt 1361 2594 L
1320 2553 mt 1320 2635 L
1280 2577 mt 1362 2577 L
1321 2536 mt 1321 2618 L
1286 2584 mt 1368 2584 L
1327 2543 mt 1327 2625 L
1291 2575 mt 1373 2575 L
1332 2534 mt 1332 2616 L
1303 2586 mt 1385 2586 L
1344 2545 mt 1344 2627 L
1313 2584 mt 1395 2584 L
1354 2543 mt 1354 2625 L
1316 2572 mt 1398 2572 L
1357 2531 mt 1357 2613 L
1320 2575 mt 1402 2575 L
1361 2534 mt 1361 2616 L
1328 2568 mt 1410 2568 L
1369 2527 mt 1369 2609 L
1339 2574 mt 1421 2574 L
1380 2533 mt 1380 2615 L
1346 2567 mt 1428 2567 L
1387 2526 mt 1387 2608 L
1356 2575 mt 1438 2575 L
1397 2534 mt 1397 2616 L
1364 2569 mt 1446 2569 L
1405 2528 mt 1405 2610 L
1368 2556 mt 1450 2556 L
1409 2515 mt 1409 2597 L
1376 2563 mt 1458 2563 L
1417 2522 mt 1417 2604 L
1382 2562 mt 1464 2562 L
1423 2521 mt 1423 2603 L
1393 2571 mt 1475 2571 L
1434 2530 mt 1434 2612 L
1401 2569 mt 1483 2569 L
1442 2528 mt 1442 2610 L
1404 2556 mt 1486 2556 L
1445 2515 mt 1445 2597 L
1417 2556 mt 1499 2556 L
1458 2515 mt 1458 2597 L
1431 2565 mt 1513 2565 L
1472 2524 mt 1472 2606 L
1435 2565 mt 1517 2565 L
1476 2524 mt 1476 2606 L
1443 2573 mt 1525 2573 L
1484 2532 mt 1484 2614 L
1452 2565 mt 1534 2565 L
1493 2524 mt 1493 2606 L
1461 2569 mt 1543 2569 L
1502 2528 mt 1502 2610 L
1463 2572 mt 1545 2572 L
1504 2531 mt 1504 2613 L
1460 2565 mt 1542 2565 L
1501 2524 mt 1501 2606 L
1472 2568 mt 1554 2568 L
1513 2527 mt 1513 2609 L
1492 2567 mt 1574 2567 L
1533 2526 mt 1533 2608 L
1513 2560 mt 1595 2560 L
1554 2519 mt 1554 2601 L
1522 2574 mt 1604 2574 L
1563 2533 mt 1563 2615 L
1529 2565 mt 1611 2565 L
1570 2524 mt 1570 2606 L
1534 2568 mt 1616 2568 L
1575 2527 mt 1575 2609 L
1534 2558 mt 1616 2558 L
1575 2517 mt 1575 2599 L
1542 2562 mt 1624 2562 L
1583 2521 mt 1583 2603 L
1556 2566 mt 1638 2566 L
1597 2525 mt 1597 2607 L
1569 2577 mt 1651 2577 L
1610 2536 mt 1610 2618 L
1585 2573 mt 1667 2573 L
1626 2532 mt 1626 2614 L
1601 2567 mt 1683 2567 L
1642 2526 mt 1642 2608 L
1608 2561 mt 1690 2561 L
1649 2520 mt 1649 2602 L
1622 2571 mt 1704 2571 L
1663 2530 mt 1663 2612 L
1632 2569 mt 1714 2569 L
1673 2528 mt 1673 2610 L
1637 2564 mt 1719 2564 L
1678 2523 mt 1678 2605 L
1644 2561 mt 1726 2561 L
1685 2520 mt 1685 2602 L
1647 2560 mt 1729 2560 L
1688 2519 mt 1688 2601 L
1656 2560 mt 1738 2560 L
1697 2519 mt 1697 2601 L
1670 2563 mt 1752 2563 L
1711 2522 mt 1711 2604 L
1686 2568 mt 1768 2568 L
1727 2527 mt 1727 2609 L
1703 2573 mt 1785 2573 L
1744 2532 mt 1744 2614 L
1721 2569 mt 1803 2569 L
1762 2528 mt 1762 2610 L
1737 2568 mt 1819 2568 L
1778 2527 mt 1778 2609 L
1751 2571 mt 1833 2571 L
1792 2530 mt 1792 2612 L
1756 2567 mt 1838 2567 L
1797 2526 mt 1797 2608 L
1753 2555 mt 1835 2555 L
1794 2514 mt 1794 2596 L
1757 2542 mt 1839 2542 L
1798 2501 mt 1798 2583 L
1769 2558 mt 1851 2558 L
1810 2517 mt 1810 2599 L
1771 2545 mt 1853 2545 L
1812 2504 mt 1812 2586 L
1788 2544 mt 1870 2544 L
1829 2503 mt 1829 2585 L
1809 2553 mt 1891 2553 L
1850 2512 mt 1850 2594 L
1826 2551 mt 1908 2551 L
1867 2510 mt 1867 2592 L
1841 2547 mt 1923 2547 L
1882 2506 mt 1882 2588 L
1854 2540 mt 1936 2540 L
1895 2499 mt 1895 2581 L
1870 2545 mt 1952 2545 L
1911 2504 mt 1911 2586 L
1875 2539 mt 1957 2539 L
1916 2498 mt 1916 2580 L
1887 2539 mt 1969 2539 L
1928 2498 mt 1928 2580 L
1898 2533 mt 1980 2533 L
1939 2492 mt 1939 2574 L
1901 2537 mt 1983 2537 L
1942 2496 mt 1942 2578 L
1920 2532 mt 2002 2532 L
1961 2491 mt 1961 2573 L
1934 2532 mt 2016 2532 L
1975 2491 mt 1975 2573 L
1946 2518 mt 2028 2518 L
1987 2477 mt 1987 2559 L
1959 2530 mt 2041 2530 L
2000 2489 mt 2000 2571 L
1967 2518 mt 2049 2518 L
2008 2477 mt 2008 2559 L
1984 2517 mt 2066 2517 L
2025 2476 mt 2025 2558 L
1997 2520 mt 2079 2520 L
2038 2479 mt 2038 2561 L
2004 2524 mt 2086 2524 L
2045 2483 mt 2045 2565 L
2013 2529 mt 2095 2529 L
2054 2488 mt 2054 2570 L
2029 2532 mt 2111 2532 L
2070 2491 mt 2070 2573 L
2047 2524 mt 2129 2524 L
2088 2483 mt 2088 2565 L
2068 2540 mt 2150 2540 L
2109 2499 mt 2109 2581 L
2077 2526 mt 2159 2526 L
2118 2485 mt 2118 2567 L
2093 2527 mt 2175 2527 L
2134 2486 mt 2134 2568 L
2101 2528 mt 2183 2528 L
2142 2487 mt 2142 2569 L
2119 2531 mt 2201 2531 L
2160 2490 mt 2160 2572 L
2136 2524 mt 2218 2524 L
2177 2483 mt 2177 2565 L
2147 2525 mt 2229 2525 L
2188 2484 mt 2188 2566 L
2158 2522 mt 2240 2522 L
2199 2481 mt 2199 2563 L
2171 2519 mt 2253 2519 L
2212 2478 mt 2212 2560 L
2194 2524 mt 2276 2524 L
2235 2483 mt 2235 2565 L
2210 2524 mt 2292 2524 L
2251 2483 mt 2251 2565 L
2226 2527 mt 2308 2527 L
2267 2486 mt 2267 2568 L
2239 2527 mt 2321 2527 L
2280 2486 mt 2280 2568 L
2241 2508 mt 2323 2508 L
2282 2467 mt 2282 2549 L
2262 2525 mt 2344 2525 L
2303 2484 mt 2303 2566 L
2274 2523 mt 2356 2523 L
2315 2482 mt 2315 2564 L
2292 2528 mt 2374 2528 L
2333 2487 mt 2333 2569 L
2308 2524 mt 2390 2524 L
2349 2483 mt 2349 2565 L
2319 2518 mt 2401 2518 L
2360 2477 mt 2360 2559 L
2347 2520 mt 2429 2520 L
2388 2479 mt 2388 2561 L
2362 2525 mt 2444 2525 L
2403 2484 mt 2403 2566 L
2364 2520 mt 2446 2520 L
2405 2479 mt 2405 2561 L
2376 2524 mt 2458 2524 L
2417 2483 mt 2417 2565 L
2397 2527 mt 2479 2527 L
2438 2486 mt 2438 2568 L
2412 2520 mt 2494 2520 L
2453 2479 mt 2453 2561 L
2430 2518 mt 2512 2518 L
2471 2477 mt 2471 2559 L
2458 2518 mt 2540 2518 L
2499 2477 mt 2499 2559 L
2475 2521 mt 2557 2521 L
2516 2480 mt 2516 2562 L
2487 2522 mt 2569 2522 L
2528 2481 mt 2528 2563 L
2490 2519 mt 2572 2519 L
2531 2478 mt 2531 2560 L
2514 2516 mt 2596 2516 L
2555 2475 mt 2555 2557 L
2528 2518 mt 2610 2518 L
2569 2477 mt 2569 2559 L
2545 2519 mt 2627 2519 L
2586 2478 mt 2586 2560 L
2572 2522 mt 2654 2522 L
2613 2481 mt 2613 2563 L
2593 2521 mt 2675 2521 L
2634 2480 mt 2634 2562 L
2602 2524 mt 2684 2524 L
2643 2483 mt 2643 2565 L
2598 2516 mt 2680 2516 L
2639 2475 mt 2639 2557 L
2615 2509 mt 2697 2509 L
2656 2468 mt 2656 2550 L
2628 2508 mt 2710 2508 L
2669 2467 mt 2669 2549 L
2652 2512 mt 2734 2512 L
2693 2471 mt 2693 2553 L
2672 2518 mt 2754 2518 L
2713 2477 mt 2713 2559 L
2692 2517 mt 2774 2517 L
2733 2476 mt 2733 2558 L
2711 2519 mt 2793 2519 L
2752 2478 mt 2752 2560 L
2729 2520 mt 2811 2520 L
2770 2479 mt 2770 2561 L
2741 2514 mt 2823 2514 L
2782 2473 mt 2782 2555 L
2751 2512 mt 2833 2512 L
2792 2471 mt 2792 2553 L
2751 2510 mt 2833 2510 L
2792 2469 mt 2792 2551 L
2786 2508 mt 2868 2508 L
2827 2467 mt 2827 2549 L
2812 2515 mt 2894 2515 L
2853 2474 mt 2853 2556 L
2834 2519 mt 2916 2519 L
2875 2478 mt 2875 2560 L
2841 2515 mt 2923 2515 L
2882 2474 mt 2882 2556 L
2849 2514 mt 2931 2514 L
2890 2473 mt 2890 2555 L
2852 2502 mt 2934 2502 L
2893 2461 mt 2893 2543 L
2884 2502 mt 2966 2502 L
2925 2461 mt 2925 2543 L
2911 2509 mt 2993 2509 L
2952 2468 mt 2952 2550 L
2922 2510 mt 3004 2510 L
2963 2469 mt 2963 2551 L
2942 2509 mt 3024 2509 L
2983 2468 mt 2983 2550 L
2960 2508 mt 3042 2508 L
3001 2467 mt 3001 2549 L
2980 2510 mt 3062 2510 L
3021 2469 mt 3021 2551 L
2995 2511 mt 3077 2511 L
3036 2470 mt 3036 2552 L
3008 2517 mt 3090 2517 L
3049 2476 mt 3049 2558 L
3044 2517 mt 3126 2517 L
3085 2476 mt 3085 2558 L
3075 2521 mt 3157 2521 L
3116 2480 mt 3116 2562 L
3073 2514 mt 3155 2514 L
3114 2473 mt 3114 2555 L
3094 2513 mt 3176 2513 L
3135 2472 mt 3135 2554 L
3128 2510 mt 3210 2510 L
3169 2469 mt 3169 2551 L
3154 2516 mt 3236 2516 L
3195 2475 mt 3195 2557 L
3158 2510 mt 3240 2510 L
3199 2469 mt 3199 2551 L
3179 2514 mt 3261 2514 L
3220 2473 mt 3220 2555 L
3207 2517 mt 3289 2517 L
3248 2476 mt 3248 2558 L
3223 2512 mt 3305 2512 L
3264 2471 mt 3264 2553 L
3247 2515 mt 3329 2515 L
3288 2474 mt 3288 2556 L
3277 2516 mt 3359 2516 L
3318 2475 mt 3318 2557 L
3294 2512 mt 3376 2512 L
3335 2471 mt 3335 2553 L
3316 2513 mt 3398 2513 L
3357 2472 mt 3357 2554 L
3336 2511 mt 3418 2511 L
3377 2470 mt 3377 2552 L
3340 2511 mt 3422 2511 L
3381 2470 mt 3381 2552 L
3362 2510 mt 3444 2510 L
3403 2469 mt 3403 2551 L
3395 2507 mt 3477 2507 L
3436 2466 mt 3436 2548 L
3407 2509 mt 3489 2509 L
3448 2468 mt 3448 2550 L
3405 2505 mt 3487 2505 L
3446 2464 mt 3446 2546 L
3446 2508 mt 3528 2508 L
3487 2467 mt 3487 2549 L
3475 2509 mt 3557 2509 L
3516 2468 mt 3516 2550 L
3494 2510 mt 3576 2510 L
3535 2469 mt 3535 2551 L
3523 2503 mt 3605 2503 L
3564 2462 mt 3564 2544 L
3527 2503 mt 3609 2503 L
3568 2462 mt 3568 2544 L
3523 2501 mt 3605 2501 L
3564 2460 mt 3564 2542 L
3565 2513 mt 3647 2513 L
3606 2472 mt 3606 2554 L
3607 2511 mt 3689 2511 L
3648 2470 mt 3648 2552 L
3641 2509 mt 3723 2509 L
3682 2468 mt 3682 2550 L
3675 2509 mt 3757 2509 L
3716 2468 mt 3716 2550 L
3699 2516 mt 3781 2516 L
3740 2475 mt 3740 2557 L
3711 2513 mt 3793 2513 L
3752 2472 mt 3752 2554 L
3729 2510 mt 3811 2510 L
3770 2469 mt 3770 2551 L
3753 2518 mt 3835 2518 L
3794 2477 mt 3794 2559 L
3777 2505 mt 3859 2505 L
3818 2464 mt 3818 2546 L
3802 2516 mt 3884 2516 L
3843 2475 mt 3843 2557 L
3834 2520 mt 3916 2520 L
3875 2479 mt 3875 2561 L
3856 2517 mt 3938 2517 L
3897 2476 mt 3897 2558 L
3882 2517 mt 3964 2517 L
3923 2476 mt 3923 2558 L
3913 2520 mt 3995 2520 L
3954 2479 mt 3954 2561 L
3931 2516 mt 4013 2516 L
3972 2475 mt 3972 2557 L
3962 2521 mt 4044 2521 L
4003 2480 mt 4003 2562 L
3983 2514 mt 4065 2514 L
4024 2473 mt 4024 2555 L
4013 2521 mt 4095 2521 L
4054 2480 mt 4054 2562 L
4035 2519 mt 4117 2519 L
4076 2478 mt 4076 2560 L
4052 2519 mt 4134 2519 L
4093 2478 mt 4093 2560 L
4077 2519 mt 4159 2519 L
4118 2478 mt 4118 2560 L
4117 2517 mt 4199 2517 L
4158 2476 mt 4158 2558 L
4144 2522 mt 4226 2522 L
4185 2481 mt 4185 2563 L
4179 2525 mt 4261 2525 L
4220 2484 mt 4220 2566 L
4191 2520 mt 4273 2520 L
4232 2479 mt 4232 2561 L
4220 2520 mt 4302 2520 L
4261 2479 mt 4261 2561 L
4256 2524 mt 4338 2524 L
4297 2483 mt 4297 2565 L
4277 2522 mt 4359 2522 L
4318 2481 mt 4318 2563 L
4303 2521 mt 4385 2521 L
4344 2480 mt 4344 2562 L
4339 2519 mt 4421 2519 L
4380 2478 mt 4380 2560 L
4354 2522 mt 4436 2522 L
4395 2481 mt 4395 2563 L
4381 2526 mt 4463 2526 L
4422 2485 mt 4422 2567 L
4424 2524 mt 4506 2524 L
4465 2483 mt 4465 2565 L
4440 2524 mt 4522 2524 L
4481 2483 mt 4481 2565 L
4474 2527 mt 4556 2527 L
4515 2486 mt 4515 2568 L
4510 2526 mt 4592 2526 L
4551 2485 mt 4551 2567 L
4533 2527 mt 4615 2527 L
4574 2486 mt 4574 2568 L
4544 2526 mt 4626 2526 L
4585 2485 mt 4585 2567 L
4564 2529 mt 4646 2529 L
4605 2488 mt 4605 2570 L
4609 2524 mt 4691 2524 L
4650 2483 mt 4650 2565 L
4647 2531 mt 4729 2531 L
4688 2490 mt 4688 2572 L
4122 2458 mt 4204 2458 L
4163 2417 mt 4163 2499 L
3989 2350 mt 4071 2350 L
4030 2309 mt 4030 2391 L
3350 2219 mt 3432 2219 L
3391 2178 mt 3391 2260 L
3402 2088 mt 3484 2088 L
3443 2047 mt 3443 2129 L
2772 1957 mt 2854 1957 L
2813 1916 mt 2813 1998 L
2781 1839 mt 2863 1839 L
2822 1798 mt 2822 1880 L
2437 1683 mt 2519 1683 L
2478 1642 mt 2478 1724 L
2168 1498 mt 2250 1498 L
2209 1457 mt 2209 1539 L
2110 1341 mt 2192 1341 L
2151 1300 mt 2151 1382 L
1835 1152 mt 1917 1152 L
1876 1111 mt 1876 1193 L
1668  899 mt 1750  899 L
1709  858 mt 1709  940 L
1598  617 mt 1680  617 L
1639  576 mt 1639  658 L
 822 4468 mt  880 4526 L
 880 4468 mt  822 4526 L
 822 2730 mt  880 2788 L
 880 2730 mt  822 2788 L
 824 3401 mt  882 3459 L
 882 3401 mt  824 3459 L
 823 3279 mt  881 3337 L
 881 3279 mt  823 3337 L
 823 3194 mt  881 3252 L
 881 3194 mt  823 3252 L
 826 3414 mt  884 3472 L
 884 3414 mt  826 3472 L
 827 3282 mt  885 3340 L
 885 3282 mt  827 3340 L
 827 3216 mt  885 3274 L
 885 3216 mt  827 3274 L
 829 3415 mt  887 3473 L
 887 3415 mt  829 3473 L
 831 3183 mt  889 3241 L
 889 3183 mt  831 3241 L
 832 3148 mt  890 3206 L
 890 3148 mt  832 3206 L
 833 3217 mt  891 3275 L
 891 3217 mt  833 3275 L
 835 3113 mt  893 3171 L
 893 3113 mt  835 3171 L
 835 2903 mt  893 2961 L
 893 2903 mt  835 2961 L
 838 3029 mt  896 3087 L
 896 3029 mt  838 3087 L
 839 3006 mt  897 3064 L
 897 3006 mt  839 3064 L
 841 3031 mt  899 3089 L
 899 3031 mt  841 3089 L
 850 3227 mt  908 3285 L
 908 3227 mt  850 3285 L
 857 3205 mt  915 3263 L
 915 3205 mt  857 3263 L
 858 3090 mt  916 3148 L
 916 3090 mt  858 3148 L
 862 3170 mt  920 3228 L
 920 3170 mt  862 3228 L
 868 3253 mt  926 3311 L
 926 3253 mt  868 3311 L
 873 3187 mt  931 3245 L
 931 3187 mt  873 3245 L
 879 3204 mt  937 3262 L
 937 3204 mt  879 3262 L
 887 3223 mt  945 3281 L
 945 3223 mt  887 3281 L
 895 3198 mt  953 3256 L
 953 3198 mt  895 3256 L
 899 3124 mt  957 3182 L
 957 3124 mt  899 3182 L
 907 3143 mt  965 3201 L
 965 3143 mt  907 3201 L
 909 3101 mt  967 3159 L
 967 3101 mt  909 3159 L
 914 3072 mt  972 3130 L
 972 3072 mt  914 3130 L
 923 3118 mt  981 3176 L
 981 3118 mt  923 3176 L
 932 3073 mt  990 3131 L
 990 3073 mt  932 3131 L
 938 3059 mt  996 3117 L
 996 3059 mt  938 3117 L
 944 3071 mt 1002 3129 L
1002 3071 mt  944 3129 L
 951 3055 mt 1009 3113 L
1009 3055 mt  951 3113 L
 955 3049 mt 1013 3107 L
1013 3049 mt  955 3107 L
 960 3062 mt 1018 3120 L
1018 3062 mt  960 3120 L
 964 3037 mt 1022 3095 L
1022 3037 mt  964 3095 L
 967 2997 mt 1025 3055 L
1025 2997 mt  967 3055 L
 971 2975 mt 1029 3033 L
1029 2975 mt  971 3033 L
 975 2936 mt 1033 2994 L
1033 2936 mt  975 2994 L
 977 2933 mt 1035 2991 L
1035 2933 mt  977 2991 L
 981 2934 mt 1039 2992 L
1039 2934 mt  981 2992 L
 983 2904 mt 1041 2962 L
1041 2904 mt  983 2962 L
 987 2885 mt 1045 2943 L
1045 2885 mt  987 2943 L
 994 2868 mt 1052 2926 L
1052 2868 mt  994 2926 L
1002 2883 mt 1060 2941 L
1060 2883 mt 1002 2941 L
1009 2877 mt 1067 2935 L
1067 2877 mt 1009 2935 L
1016 2872 mt 1074 2930 L
1074 2872 mt 1016 2930 L
1023 2862 mt 1081 2920 L
1081 2862 mt 1023 2920 L
1029 2839 mt 1087 2897 L
1087 2839 mt 1029 2897 L
1035 2824 mt 1093 2882 L
1093 2824 mt 1035 2882 L
1043 2812 mt 1101 2870 L
1101 2812 mt 1043 2870 L
1048 2808 mt 1106 2866 L
1106 2808 mt 1048 2866 L
1054 2814 mt 1112 2872 L
1112 2814 mt 1054 2872 L
1057 2800 mt 1115 2858 L
1115 2800 mt 1057 2858 L
1060 2787 mt 1118 2845 L
1118 2787 mt 1060 2845 L
1062 2773 mt 1120 2831 L
1120 2773 mt 1062 2831 L
1068 2773 mt 1126 2831 L
1126 2773 mt 1068 2831 L
1077 2778 mt 1135 2836 L
1135 2778 mt 1077 2836 L
1085 2795 mt 1143 2853 L
1143 2795 mt 1085 2853 L
1093 2774 mt 1151 2832 L
1151 2774 mt 1093 2832 L
1098 2755 mt 1156 2813 L
1156 2755 mt 1098 2813 L
1102 2754 mt 1160 2812 L
1160 2754 mt 1102 2812 L
1109 2765 mt 1167 2823 L
1167 2765 mt 1109 2823 L
1113 2744 mt 1171 2802 L
1171 2744 mt 1113 2802 L
1120 2744 mt 1178 2802 L
1178 2744 mt 1120 2802 L
1128 2730 mt 1186 2788 L
1186 2730 mt 1128 2788 L
1131 2725 mt 1189 2783 L
1189 2725 mt 1131 2783 L
1132 2713 mt 1190 2771 L
1190 2713 mt 1132 2771 L
1136 2705 mt 1194 2763 L
1194 2705 mt 1136 2763 L
1145 2697 mt 1203 2755 L
1203 2697 mt 1145 2755 L
1150 2703 mt 1208 2761 L
1208 2703 mt 1150 2761 L
1149 2685 mt 1207 2743 L
1207 2685 mt 1149 2743 L
1154 2679 mt 1212 2737 L
1212 2679 mt 1154 2737 L
1162 2677 mt 1220 2735 L
1220 2677 mt 1162 2735 L
1170 2674 mt 1228 2732 L
1228 2674 mt 1170 2732 L
1179 2670 mt 1237 2728 L
1237 2670 mt 1179 2728 L
1189 2666 mt 1247 2724 L
1247 2666 mt 1189 2724 L
1201 2669 mt 1259 2727 L
1259 2669 mt 1201 2727 L
1209 2651 mt 1267 2709 L
1267 2651 mt 1209 2709 L
1215 2654 mt 1273 2712 L
1273 2654 mt 1215 2712 L
1220 2644 mt 1278 2702 L
1278 2644 mt 1220 2702 L
1229 2645 mt 1287 2703 L
1287 2645 mt 1229 2703 L
1229 2617 mt 1287 2675 L
1287 2617 mt 1229 2675 L
1235 2611 mt 1293 2669 L
1293 2611 mt 1235 2669 L
1246 2624 mt 1304 2682 L
1304 2624 mt 1246 2682 L
1249 2594 mt 1307 2652 L
1307 2594 mt 1249 2652 L
1256 2596 mt 1314 2654 L
1314 2596 mt 1256 2654 L
1263 2588 mt 1321 2646 L
1321 2588 mt 1263 2646 L
1268 2593 mt 1326 2651 L
1326 2593 mt 1268 2651 L
1273 2582 mt 1331 2640 L
1331 2582 mt 1273 2640 L
1277 2556 mt 1335 2614 L
1335 2556 mt 1277 2614 L
1286 2564 mt 1344 2622 L
1344 2564 mt 1286 2622 L
1291 2565 mt 1349 2623 L
1349 2565 mt 1291 2623 L
1292 2548 mt 1350 2606 L
1350 2548 mt 1292 2606 L
1298 2555 mt 1356 2613 L
1356 2555 mt 1298 2613 L
1303 2546 mt 1361 2604 L
1361 2546 mt 1303 2604 L
1315 2557 mt 1373 2615 L
1373 2557 mt 1315 2615 L
1325 2555 mt 1383 2613 L
1383 2555 mt 1325 2613 L
1328 2543 mt 1386 2601 L
1386 2543 mt 1328 2601 L
1332 2546 mt 1390 2604 L
1390 2546 mt 1332 2604 L
1340 2539 mt 1398 2597 L
1398 2539 mt 1340 2597 L
1351 2545 mt 1409 2603 L
1409 2545 mt 1351 2603 L
1358 2538 mt 1416 2596 L
1416 2538 mt 1358 2596 L
1368 2546 mt 1426 2604 L
1426 2546 mt 1368 2604 L
1376 2540 mt 1434 2598 L
1434 2540 mt 1376 2598 L
1380 2527 mt 1438 2585 L
1438 2527 mt 1380 2585 L
1388 2534 mt 1446 2592 L
1446 2534 mt 1388 2592 L
1394 2533 mt 1452 2591 L
1452 2533 mt 1394 2591 L
1405 2542 mt 1463 2600 L
1463 2542 mt 1405 2600 L
1413 2540 mt 1471 2598 L
1471 2540 mt 1413 2598 L
1416 2527 mt 1474 2585 L
1474 2527 mt 1416 2585 L
1429 2527 mt 1487 2585 L
1487 2527 mt 1429 2585 L
1443 2536 mt 1501 2594 L
1501 2536 mt 1443 2594 L
1447 2536 mt 1505 2594 L
1505 2536 mt 1447 2594 L
1455 2544 mt 1513 2602 L
1513 2544 mt 1455 2602 L
1464 2536 mt 1522 2594 L
1522 2536 mt 1464 2594 L
1473 2540 mt 1531 2598 L
1531 2540 mt 1473 2598 L
1475 2543 mt 1533 2601 L
1533 2543 mt 1475 2601 L
1472 2536 mt 1530 2594 L
1530 2536 mt 1472 2594 L
1484 2539 mt 1542 2597 L
1542 2539 mt 1484 2597 L
1504 2538 mt 1562 2596 L
1562 2538 mt 1504 2596 L
1525 2531 mt 1583 2589 L
1583 2531 mt 1525 2589 L
1534 2545 mt 1592 2603 L
1592 2545 mt 1534 2603 L
1541 2536 mt 1599 2594 L
1599 2536 mt 1541 2594 L
1546 2539 mt 1604 2597 L
1604 2539 mt 1546 2597 L
1546 2529 mt 1604 2587 L
1604 2529 mt 1546 2587 L
1554 2533 mt 1612 2591 L
1612 2533 mt 1554 2591 L
1568 2537 mt 1626 2595 L
1626 2537 mt 1568 2595 L
1581 2548 mt 1639 2606 L
1639 2548 mt 1581 2606 L
1597 2544 mt 1655 2602 L
1655 2544 mt 1597 2602 L
1613 2538 mt 1671 2596 L
1671 2538 mt 1613 2596 L
1620 2532 mt 1678 2590 L
1678 2532 mt 1620 2590 L
1634 2542 mt 1692 2600 L
1692 2542 mt 1634 2600 L
1644 2540 mt 1702 2598 L
1702 2540 mt 1644 2598 L
1649 2535 mt 1707 2593 L
1707 2535 mt 1649 2593 L
1656 2532 mt 1714 2590 L
1714 2532 mt 1656 2590 L
1659 2531 mt 1717 2589 L
1717 2531 mt 1659 2589 L
1668 2531 mt 1726 2589 L
1726 2531 mt 1668 2589 L
1682 2534 mt 1740 2592 L
1740 2534 mt 1682 2592 L
1698 2539 mt 1756 2597 L
1756 2539 mt 1698 2597 L
1715 2544 mt 1773 2602 L
1773 2544 mt 1715 2602 L
1733 2540 mt 1791 2598 L
1791 2540 mt 1733 2598 L
1749 2539 mt 1807 2597 L
1807 2539 mt 1749 2597 L
1763 2542 mt 1821 2600 L
1821 2542 mt 1763 2600 L
1768 2538 mt 1826 2596 L
1826 2538 mt 1768 2596 L
1765 2526 mt 1823 2584 L
1823 2526 mt 1765 2584 L
1769 2513 mt 1827 2571 L
1827 2513 mt 1769 2571 L
1781 2529 mt 1839 2587 L
1839 2529 mt 1781 2587 L
1783 2516 mt 1841 2574 L
1841 2516 mt 1783 2574 L
1800 2515 mt 1858 2573 L
1858 2515 mt 1800 2573 L
1821 2524 mt 1879 2582 L
1879 2524 mt 1821 2582 L
1838 2522 mt 1896 2580 L
1896 2522 mt 1838 2580 L
1853 2518 mt 1911 2576 L
1911 2518 mt 1853 2576 L
1866 2511 mt 1924 2569 L
1924 2511 mt 1866 2569 L
1882 2516 mt 1940 2574 L
1940 2516 mt 1882 2574 L
1887 2510 mt 1945 2568 L
1945 2510 mt 1887 2568 L
1899 2510 mt 1957 2568 L
1957 2510 mt 1899 2568 L
1910 2504 mt 1968 2562 L
1968 2504 mt 1910 2562 L
1913 2508 mt 1971 2566 L
1971 2508 mt 1913 2566 L
1932 2503 mt 1990 2561 L
1990 2503 mt 1932 2561 L
1946 2503 mt 2004 2561 L
2004 2503 mt 1946 2561 L
1958 2489 mt 2016 2547 L
2016 2489 mt 1958 2547 L
1971 2501 mt 2029 2559 L
2029 2501 mt 1971 2559 L
1979 2489 mt 2037 2547 L
2037 2489 mt 1979 2547 L
1996 2488 mt 2054 2546 L
2054 2488 mt 1996 2546 L
2009 2491 mt 2067 2549 L
2067 2491 mt 2009 2549 L
2016 2495 mt 2074 2553 L
2074 2495 mt 2016 2553 L
2025 2500 mt 2083 2558 L
2083 2500 mt 2025 2558 L
2041 2503 mt 2099 2561 L
2099 2503 mt 2041 2561 L
2059 2495 mt 2117 2553 L
2117 2495 mt 2059 2553 L
2080 2511 mt 2138 2569 L
2138 2511 mt 2080 2569 L
2089 2497 mt 2147 2555 L
2147 2497 mt 2089 2555 L
2105 2498 mt 2163 2556 L
2163 2498 mt 2105 2556 L
2113 2499 mt 2171 2557 L
2171 2499 mt 2113 2557 L
2131 2502 mt 2189 2560 L
2189 2502 mt 2131 2560 L
2148 2495 mt 2206 2553 L
2206 2495 mt 2148 2553 L
2159 2496 mt 2217 2554 L
2217 2496 mt 2159 2554 L
2170 2493 mt 2228 2551 L
2228 2493 mt 2170 2551 L
2183 2490 mt 2241 2548 L
2241 2490 mt 2183 2548 L
2206 2495 mt 2264 2553 L
2264 2495 mt 2206 2553 L
2222 2495 mt 2280 2553 L
2280 2495 mt 2222 2553 L
2238 2498 mt 2296 2556 L
2296 2498 mt 2238 2556 L
2251 2498 mt 2309 2556 L
2309 2498 mt 2251 2556 L
2253 2479 mt 2311 2537 L
2311 2479 mt 2253 2537 L
2274 2496 mt 2332 2554 L
2332 2496 mt 2274 2554 L
2286 2494 mt 2344 2552 L
2344 2494 mt 2286 2552 L
2304 2499 mt 2362 2557 L
2362 2499 mt 2304 2557 L
2320 2495 mt 2378 2553 L
2378 2495 mt 2320 2553 L
2331 2489 mt 2389 2547 L
2389 2489 mt 2331 2547 L
2359 2491 mt 2417 2549 L
2417 2491 mt 2359 2549 L
2374 2496 mt 2432 2554 L
2432 2496 mt 2374 2554 L
2376 2491 mt 2434 2549 L
2434 2491 mt 2376 2549 L
2388 2495 mt 2446 2553 L
2446 2495 mt 2388 2553 L
2409 2498 mt 2467 2556 L
2467 2498 mt 2409 2556 L
2424 2491 mt 2482 2549 L
2482 2491 mt 2424 2549 L
2442 2489 mt 2500 2547 L
2500 2489 mt 2442 2547 L
2470 2489 mt 2528 2547 L
2528 2489 mt 2470 2547 L
2487 2492 mt 2545 2550 L
2545 2492 mt 2487 2550 L
2499 2493 mt 2557 2551 L
2557 2493 mt 2499 2551 L
2502 2490 mt 2560 2548 L
2560 2490 mt 2502 2548 L
2526 2487 mt 2584 2545 L
2584 2487 mt 2526 2545 L
2540 2489 mt 2598 2547 L
2598 2489 mt 2540 2547 L
2557 2490 mt 2615 2548 L
2615 2490 mt 2557 2548 L
2584 2493 mt 2642 2551 L
2642 2493 mt 2584 2551 L
2605 2492 mt 2663 2550 L
2663 2492 mt 2605 2550 L
2614 2495 mt 2672 2553 L
2672 2495 mt 2614 2553 L
2610 2487 mt 2668 2545 L
2668 2487 mt 2610 2545 L
2627 2480 mt 2685 2538 L
2685 2480 mt 2627 2538 L
2640 2479 mt 2698 2537 L
2698 2479 mt 2640 2537 L
2664 2483 mt 2722 2541 L
2722 2483 mt 2664 2541 L
2684 2489 mt 2742 2547 L
2742 2489 mt 2684 2547 L
2704 2488 mt 2762 2546 L
2762 2488 mt 2704 2546 L
2723 2490 mt 2781 2548 L
2781 2490 mt 2723 2548 L
2741 2491 mt 2799 2549 L
2799 2491 mt 2741 2549 L
2753 2485 mt 2811 2543 L
2811 2485 mt 2753 2543 L
2763 2483 mt 2821 2541 L
2821 2483 mt 2763 2541 L
2763 2481 mt 2821 2539 L
2821 2481 mt 2763 2539 L
2798 2479 mt 2856 2537 L
2856 2479 mt 2798 2537 L
2824 2486 mt 2882 2544 L
2882 2486 mt 2824 2544 L
2846 2490 mt 2904 2548 L
2904 2490 mt 2846 2548 L
2853 2486 mt 2911 2544 L
2911 2486 mt 2853 2544 L
2861 2485 mt 2919 2543 L
2919 2485 mt 2861 2543 L
2864 2473 mt 2922 2531 L
2922 2473 mt 2864 2531 L
2896 2473 mt 2954 2531 L
2954 2473 mt 2896 2531 L
2923 2480 mt 2981 2538 L
2981 2480 mt 2923 2538 L
2934 2481 mt 2992 2539 L
2992 2481 mt 2934 2539 L
2954 2480 mt 3012 2538 L
3012 2480 mt 2954 2538 L
2972 2479 mt 3030 2537 L
3030 2479 mt 2972 2537 L
2992 2481 mt 3050 2539 L
3050 2481 mt 2992 2539 L
3007 2482 mt 3065 2540 L
3065 2482 mt 3007 2540 L
3020 2488 mt 3078 2546 L
3078 2488 mt 3020 2546 L
3056 2488 mt 3114 2546 L
3114 2488 mt 3056 2546 L
3087 2492 mt 3145 2550 L
3145 2492 mt 3087 2550 L
3085 2485 mt 3143 2543 L
3143 2485 mt 3085 2543 L
3106 2484 mt 3164 2542 L
3164 2484 mt 3106 2542 L
3140 2481 mt 3198 2539 L
3198 2481 mt 3140 2539 L
3166 2487 mt 3224 2545 L
3224 2487 mt 3166 2545 L
3170 2481 mt 3228 2539 L
3228 2481 mt 3170 2539 L
3191 2485 mt 3249 2543 L
3249 2485 mt 3191 2543 L
3219 2488 mt 3277 2546 L
3277 2488 mt 3219 2546 L
3235 2483 mt 3293 2541 L
3293 2483 mt 3235 2541 L
3259 2486 mt 3317 2544 L
3317 2486 mt 3259 2544 L
3289 2487 mt 3347 2545 L
3347 2487 mt 3289 2545 L
3306 2483 mt 3364 2541 L
3364 2483 mt 3306 2541 L
3328 2484 mt 3386 2542 L
3386 2484 mt 3328 2542 L
3348 2482 mt 3406 2540 L
3406 2482 mt 3348 2540 L
3352 2482 mt 3410 2540 L
3410 2482 mt 3352 2540 L
3374 2481 mt 3432 2539 L
3432 2481 mt 3374 2539 L
3407 2478 mt 3465 2536 L
3465 2478 mt 3407 2536 L
3419 2480 mt 3477 2538 L
3477 2480 mt 3419 2538 L
3417 2476 mt 3475 2534 L
3475 2476 mt 3417 2534 L
3458 2479 mt 3516 2537 L
3516 2479 mt 3458 2537 L
3487 2480 mt 3545 2538 L
3545 2480 mt 3487 2538 L
3506 2481 mt 3564 2539 L
3564 2481 mt 3506 2539 L
3535 2474 mt 3593 2532 L
3593 2474 mt 3535 2532 L
3539 2474 mt 3597 2532 L
3597 2474 mt 3539 2532 L
3535 2472 mt 3593 2530 L
3593 2472 mt 3535 2530 L
3577 2484 mt 3635 2542 L
3635 2484 mt 3577 2542 L
3619 2482 mt 3677 2540 L
3677 2482 mt 3619 2540 L
3653 2480 mt 3711 2538 L
3711 2480 mt 3653 2538 L
3687 2480 mt 3745 2538 L
3745 2480 mt 3687 2538 L
3711 2487 mt 3769 2545 L
3769 2487 mt 3711 2545 L
3723 2484 mt 3781 2542 L
3781 2484 mt 3723 2542 L
3741 2481 mt 3799 2539 L
3799 2481 mt 3741 2539 L
3765 2489 mt 3823 2547 L
3823 2489 mt 3765 2547 L
3789 2476 mt 3847 2534 L
3847 2476 mt 3789 2534 L
3814 2487 mt 3872 2545 L
3872 2487 mt 3814 2545 L
3846 2491 mt 3904 2549 L
3904 2491 mt 3846 2549 L
3868 2488 mt 3926 2546 L
3926 2488 mt 3868 2546 L
3894 2488 mt 3952 2546 L
3952 2488 mt 3894 2546 L
3925 2491 mt 3983 2549 L
3983 2491 mt 3925 2549 L
3943 2487 mt 4001 2545 L
4001 2487 mt 3943 2545 L
3974 2492 mt 4032 2550 L
4032 2492 mt 3974 2550 L
3995 2485 mt 4053 2543 L
4053 2485 mt 3995 2543 L
4025 2492 mt 4083 2550 L
4083 2492 mt 4025 2550 L
4047 2490 mt 4105 2548 L
4105 2490 mt 4047 2548 L
4064 2490 mt 4122 2548 L
4122 2490 mt 4064 2548 L
4089 2490 mt 4147 2548 L
4147 2490 mt 4089 2548 L
4129 2488 mt 4187 2546 L
4187 2488 mt 4129 2546 L
4156 2493 mt 4214 2551 L
4214 2493 mt 4156 2551 L
4191 2496 mt 4249 2554 L
4249 2496 mt 4191 2554 L
4203 2491 mt 4261 2549 L
4261 2491 mt 4203 2549 L
4232 2491 mt 4290 2549 L
4290 2491 mt 4232 2549 L
4268 2495 mt 4326 2553 L
4326 2495 mt 4268 2553 L
4289 2493 mt 4347 2551 L
4347 2493 mt 4289 2551 L
4315 2492 mt 4373 2550 L
4373 2492 mt 4315 2550 L
4351 2490 mt 4409 2548 L
4409 2490 mt 4351 2548 L
4366 2493 mt 4424 2551 L
4424 2493 mt 4366 2551 L
4393 2497 mt 4451 2555 L
4451 2497 mt 4393 2555 L
4436 2495 mt 4494 2553 L
4494 2495 mt 4436 2553 L
4452 2495 mt 4510 2553 L
4510 2495 mt 4452 2553 L
4486 2498 mt 4544 2556 L
4544 2498 mt 4486 2556 L
4522 2497 mt 4580 2555 L
4580 2497 mt 4522 2555 L
4545 2498 mt 4603 2556 L
4603 2498 mt 4545 2556 L
4556 2497 mt 4614 2555 L
4614 2497 mt 4556 2555 L
4576 2500 mt 4634 2558 L
4634 2500 mt 4576 2558 L
4621 2495 mt 4679 2553 L
4679 2495 mt 4621 2553 L
4659 2502 mt 4717 2560 L
4717 2502 mt 4659 2560 L
4134 2429 mt 4192 2487 L
4192 2429 mt 4134 2487 L
4001 2321 mt 4059 2379 L
4059 2321 mt 4001 2379 L
3362 2190 mt 3420 2248 L
3420 2190 mt 3362 2248 L
3414 2059 mt 3472 2117 L
3472 2059 mt 3414 2117 L
2784 1928 mt 2842 1986 L
2842 1928 mt 2784 1986 L
2793 1810 mt 2851 1868 L
2851 1810 mt 2793 1868 L
2449 1654 mt 2507 1712 L
2507 1654 mt 2449 1712 L
2180 1469 mt 2238 1527 L
2238 1469 mt 2180 1527 L
2122 1312 mt 2180 1370 L
2180 1312 mt 2122 1370 L
1847 1123 mt 1905 1181 L
1905 1123 mt 1847 1181 L
1680  870 mt 1738  928 L
1738  870 mt 1680  928 L
1610  588 mt 1668  646 L
1668  588 mt 1610  646 L
gs 848 564 4238 3957 rc
gr

gs 848 564 4238 3957 rc
gr

-47 81 -47 -81 94 0 802 4468 4 MP
/c11 { 0.000000 1.000000 0.000000 sr} bdef
c11
DP
-47 81 -47 -81 94 0 803 3968 4 MP
DP
-47 81 -47 -81 94 0 803 3738 4 MP
DP
-47 81 -47 -81 94 0 803 3761 4 MP
DP
-47 81 -47 -81 94 0 803 3614 4 MP
DP
-47 81 -47 -81 94 0 803 3496 4 MP
DP
-47 81 -47 -81 94 0 801 3286 4 MP
DP
-47 81 -47 -81 94 0 801 3670 4 MP
DP
-47 81 -47 -81 94 0 801 2263 4 MP
DP
gs 848 564 4238 3957 rc
gr

-47 81 -47 -81 94 0 804 2615 4 MP
DP
-47 81 -47 -81 94 0 805 3617 4 MP
DP
-47 81 -47 -81 94 0 807 3844 4 MP
DP
-47 81 -47 -81 94 0 809 3541 4 MP
DP
-47 81 -47 -81 94 0 810 3399 4 MP
DP
-47 81 -47 -81 94 0 808 3261 4 MP
DP
-47 81 -47 -81 94 0 808 3284 4 MP
DP
-47 81 -47 -81 94 0 811 3373 4 MP
DP
-47 81 -47 -81 94 0 817 3286 4 MP
DP
-47 81 -47 -81 94 0 820 3184 4 MP
DP
-47 81 -47 -81 94 0 820 3331 4 MP
DP
-47 81 -47 -81 94 0 821 3232 4 MP
DP
-47 81 -47 -81 94 0 824 3171 4 MP
DP
-47 81 -47 -81 94 0 826 3109 4 MP
DP
-47 81 -47 -81 94 0 832 3200 4 MP
DP
-47 81 -47 -81 94 0 836 3072 4 MP
DP
-47 81 -47 -81 94 0 841 3001 4 MP
DP
-47 81 -47 -81 94 0 850 3081 4 MP
DP
-47 81 -47 -81 94 0 857 3107 4 MP
DP
-47 81 -47 -81 94 0 863 3121 4 MP
DP
-47 81 -47 -81 94 0 869 3168 4 MP
DP
-47 81 -47 -81 94 0 872 3184 4 MP
DP
-47 81 -47 -81 94 0 871 3152 4 MP
DP
-47 81 -47 -81 94 0 874 3178 4 MP
DP
-47 81 -47 -81 94 0 884 3193 4 MP
DP
-47 81 -47 -81 94 0 896 3172 4 MP
DP
-47 81 -47 -81 94 0 903 3107 4 MP
DP
-47 81 -47 -81 94 0 911 3146 4 MP
DP
-47 81 -47 -81 94 0 914 3108 4 MP
DP
-47 81 -47 -81 94 0 926 3106 4 MP
DP
-47 81 -47 -81 94 0 941 3125 4 MP
DP
-47 81 -47 -81 94 0 949 3114 4 MP
DP
-47 81 -47 -81 94 0 953 3125 4 MP
DP
-47 81 -47 -81 94 0 959 3130 4 MP
DP
-47 81 -47 -81 94 0 964 3124 4 MP
DP
-47 81 -47 -81 94 0 971 3132 4 MP
DP
-47 81 -47 -81 94 0 977 3110 4 MP
DP
-47 81 -47 -81 94 0 981 3129 4 MP
DP
-47 81 -47 -81 94 0 985 3131 4 MP
DP
-47 81 -47 -81 94 0 986 3080 4 MP
DP
-47 81 -47 -81 94 0 992 3086 4 MP
DP
-47 81 -47 -81 94 0 1002 3077 4 MP
DP
-47 81 -47 -81 94 0 1011 3048 4 MP
DP
-47 81 -47 -81 94 0 1019 3068 4 MP
DP
-47 81 -47 -81 94 0 1026 3049 4 MP
DP
-47 81 -47 -81 94 0 1034 3059 4 MP
DP
-47 81 -47 -81 94 0 1042 3074 4 MP
DP
-47 81 -47 -81 94 0 1048 3066 4 MP
DP
-47 81 -47 -81 94 0 1053 3049 4 MP
DP
-47 81 -47 -81 94 0 1057 3036 4 MP
DP
-47 81 -47 -81 94 0 1058 3007 4 MP
DP
-47 81 -47 -81 94 0 1067 3020 4 MP
DP
-47 81 -47 -81 94 0 1076 3030 4 MP
DP
-47 81 -47 -81 94 0 1082 3006 4 MP
DP
-47 81 -47 -81 94 0 1096 3030 4 MP
DP
-47 81 -47 -81 94 0 1110 3026 4 MP
DP
-47 81 -47 -81 94 0 1123 3036 4 MP
DP
-47 81 -47 -81 94 0 1134 3027 4 MP
DP
-47 81 -47 -81 94 0 1137 3029 4 MP
DP
-47 81 -47 -81 94 0 1128 3000 4 MP
DP
-47 81 -47 -81 94 0 1129 3022 4 MP
DP
-47 81 -47 -81 94 0 1135 3022 4 MP
DP
-47 81 -47 -81 94 0 1142 3014 4 MP
DP
-47 81 -47 -81 94 0 1156 2999 4 MP
DP
-47 81 -47 -81 94 0 1170 3006 4 MP
DP
-47 81 -47 -81 94 0 1181 3008 4 MP
DP
-47 81 -47 -81 94 0 1189 3012 4 MP
DP
-47 81 -47 -81 94 0 1197 3015 4 MP
DP
-47 81 -47 -81 94 0 1204 3015 4 MP
DP
-47 81 -47 -81 94 0 1210 2996 4 MP
DP
-47 81 -47 -81 94 0 1220 2982 4 MP
DP
-47 81 -47 -81 94 0 1224 2968 4 MP
DP
-47 81 -47 -81 94 0 1234 2975 4 MP
DP
-47 81 -47 -81 94 0 1244 2982 4 MP
DP
-47 81 -47 -81 94 0 1251 2966 4 MP
DP
-47 81 -47 -81 94 0 1260 2977 4 MP
DP
-47 81 -47 -81 94 0 1268 2971 4 MP
DP
-47 81 -47 -81 94 0 1274 2956 4 MP
DP
-47 81 -47 -81 94 0 1282 2946 4 MP
DP
-47 81 -47 -81 94 0 1291 2947 4 MP
DP
-47 81 -47 -81 94 0 1303 2950 4 MP
DP
-47 81 -47 -81 94 0 1308 2948 4 MP
DP
-47 81 -47 -81 94 0 1310 2934 4 MP
DP
-47 81 -47 -81 94 0 1318 2923 4 MP
DP
-47 81 -47 -81 94 0 1334 2940 4 MP
DP
-47 81 -47 -81 94 0 1344 2940 4 MP
DP
-47 81 -47 -81 94 0 1353 2936 4 MP
DP
-47 81 -47 -81 94 0 1360 2938 4 MP
DP
-47 81 -47 -81 94 0 1366 2949 4 MP
DP
-47 81 -47 -81 94 0 1366 2944 4 MP
DP
-47 81 -47 -81 94 0 1368 2929 4 MP
DP
-47 81 -47 -81 94 0 1388 2942 4 MP
DP
-47 81 -47 -81 94 0 1411 2944 4 MP
DP
-47 81 -47 -81 94 0 1426 2931 4 MP
DP
-47 81 -47 -81 94 0 1437 2931 4 MP
DP
-47 81 -47 -81 94 0 1442 2936 4 MP
DP
-47 81 -47 -81 94 0 1441 2934 4 MP
DP
-47 81 -47 -81 94 0 1450 2944 4 MP
DP
-47 81 -47 -81 94 0 1458 2938 4 MP
DP
-47 81 -47 -81 94 0 1468 2930 4 MP
DP
-47 81 -47 -81 94 0 1470 2925 4 MP
DP
-47 81 -47 -81 94 0 1480 2922 4 MP
DP
-47 81 -47 -81 94 0 1487 2926 4 MP
DP
-47 81 -47 -81 94 0 1494 2912 4 MP
DP
-47 81 -47 -81 94 0 1507 2922 4 MP
DP
-47 81 -47 -81 94 0 1515 2923 4 MP
DP
-47 81 -47 -81 94 0 1531 2919 4 MP
DP
-47 81 -47 -81 94 0 1544 2913 4 MP
DP
-47 81 -47 -81 94 0 1556 2907 4 MP
DP
-47 81 -47 -81 94 0 1573 2914 4 MP
DP
-47 81 -47 -81 94 0 1580 2903 4 MP
DP
-47 81 -47 -81 94 0 1582 2902 4 MP
DP
-47 81 -47 -81 94 0 1601 2909 4 MP
DP
-47 81 -47 -81 94 0 1619 2907 4 MP
DP
-47 81 -47 -81 94 0 1633 2907 4 MP
DP
-47 81 -47 -81 94 0 1639 2908 4 MP
DP
-47 81 -47 -81 94 0 1642 2907 4 MP
DP
-47 81 -47 -81 94 0 1651 2908 4 MP
DP
-47 81 -47 -81 94 0 1664 2910 4 MP
DP
-47 81 -47 -81 94 0 1677 2915 4 MP
DP
-47 81 -47 -81 94 0 1689 2900 4 MP
DP
-47 81 -47 -81 94 0 1700 2911 4 MP
DP
-47 81 -47 -81 94 0 1717 2903 4 MP
DP
-47 81 -47 -81 94 0 1726 2910 4 MP
DP
-47 81 -47 -81 94 0 1724 2895 4 MP
DP
-47 81 -47 -81 94 0 1731 2902 4 MP
DP
-47 81 -47 -81 94 0 1744 2892 4 MP
DP
-47 81 -47 -81 94 0 1764 2893 4 MP
DP
-47 81 -47 -81 94 0 1784 2880 4 MP
DP
-47 81 -47 -81 94 0 1795 2908 4 MP
DP
-47 81 -47 -81 94 0 1793 2890 4 MP
DP
-47 81 -47 -81 94 0 1809 2893 4 MP
DP
-47 81 -47 -81 94 0 1828 2893 4 MP
DP
-47 81 -47 -81 94 0 1845 2895 4 MP
DP
-47 81 -47 -81 94 0 1866 2900 4 MP
DP
-47 81 -47 -81 94 0 1878 2902 4 MP
DP
-47 81 -47 -81 94 0 1882 2899 4 MP
DP
-47 81 -47 -81 94 0 1891 2896 4 MP
DP
-47 81 -47 -81 94 0 1900 2886 4 MP
DP
-47 81 -47 -81 94 0 1923 2885 4 MP
DP
-47 81 -47 -81 94 0 1939 2891 4 MP
DP
-47 81 -47 -81 94 0 1946 2886 4 MP
DP
-47 81 -47 -81 94 0 1955 2890 4 MP
DP
-47 81 -47 -81 94 0 1966 2878 4 MP
DP
-47 81 -47 -81 94 0 1979 2884 4 MP
DP
-47 81 -47 -81 94 0 1991 2880 4 MP
DP
-47 81 -47 -81 94 0 2016 2881 4 MP
DP
-47 81 -47 -81 94 0 2038 2877 4 MP
DP
-47 81 -47 -81 94 0 2045 2884 4 MP
DP
-47 81 -47 -81 94 0 2051 2875 4 MP
DP
-47 81 -47 -81 94 0 2076 2882 4 MP
DP
-47 81 -47 -81 94 0 2095 2880 4 MP
DP
-47 81 -47 -81 94 0 2108 2879 4 MP
DP
-47 81 -47 -81 94 0 2120 2881 4 MP
DP
-47 81 -47 -81 94 0 2137 2872 4 MP
DP
-47 81 -47 -81 94 0 2149 2875 4 MP
DP
-47 81 -47 -81 94 0 2165 2876 4 MP
DP
-47 81 -47 -81 94 0 2181 2872 4 MP
DP
-47 81 -47 -81 94 0 2205 2879 4 MP
DP
-47 81 -47 -81 94 0 2221 2878 4 MP
DP
-47 81 -47 -81 94 0 2226 2870 4 MP
DP
-47 81 -47 -81 94 0 2232 2862 4 MP
DP
-47 81 -47 -81 94 0 2246 2859 4 MP
DP
-47 81 -47 -81 94 0 2284 2857 4 MP
DP
-47 81 -47 -81 94 0 2297 2862 4 MP
DP
-47 81 -47 -81 94 0 2301 2856 4 MP
DP
-47 81 -47 -81 94 0 2320 2860 4 MP
DP
-47 81 -47 -81 94 0 2312 2839 4 MP
DP
-47 81 -47 -81 94 0 2321 2837 4 MP
DP
-47 81 -47 -81 94 0 2350 2834 4 MP
DP
-47 81 -47 -81 94 0 2368 2831 4 MP
DP
-47 81 -47 -81 94 0 2384 2830 4 MP
DP
-47 81 -47 -81 94 0 2395 2839 4 MP
DP
-47 81 -47 -81 94 0 2415 2836 4 MP
DP
-47 81 -47 -81 94 0 2437 2831 4 MP
DP
-47 81 -47 -81 94 0 2458 2837 4 MP
DP
-47 81 -47 -81 94 0 2477 2831 4 MP
DP
-47 81 -47 -81 94 0 2481 2838 4 MP
DP
-47 81 -47 -81 94 0 2476 2831 4 MP
DP
-47 81 -47 -81 94 0 2474 2829 4 MP
DP
-47 81 -47 -81 94 0 2501 2822 4 MP
DP
-47 81 -47 -81 94 0 2537 2825 4 MP
DP
-47 81 -47 -81 94 0 2558 2819 4 MP
DP
-47 81 -47 -81 94 0 2572 2818 4 MP
DP
-47 81 -47 -81 94 0 2558 2820 4 MP
DP
-47 81 -47 -81 94 0 2588 2817 4 MP
DP
-47 81 -47 -81 94 0 2618 2824 4 MP
DP
-47 81 -47 -81 94 0 2644 2825 4 MP
DP
-47 81 -47 -81 94 0 2647 2816 4 MP
DP
-47 81 -47 -81 94 0 2681 2822 4 MP
DP
-47 81 -47 -81 94 0 2700 2820 4 MP
DP
-47 81 -47 -81 94 0 2711 2822 4 MP
DP
-47 81 -47 -81 94 0 2717 2819 4 MP
DP
-47 81 -47 -81 94 0 2715 2805 4 MP
DP
-47 81 -47 -81 94 0 2740 2808 4 MP
DP
-47 81 -47 -81 94 0 2777 2810 4 MP
DP
-47 81 -47 -81 94 0 2796 2809 4 MP
DP
-47 81 -47 -81 94 0 2828 2811 4 MP
DP
-47 81 -47 -81 94 0 2816 2797 4 MP
DP
-47 81 -47 -81 94 0 2820 2792 4 MP
DP
-47 81 -47 -81 94 0 2854 2807 4 MP
DP
-47 81 -47 -81 94 0 2879 2800 4 MP
DP
-47 81 -47 -81 94 0 2896 2790 4 MP
DP
-47 81 -47 -81 94 0 2916 2799 4 MP
DP
-47 81 -47 -81 94 0 2937 2806 4 MP
DP
-47 81 -47 -81 94 0 2949 2799 4 MP
DP
-47 81 -47 -81 94 0 2989 2804 4 MP
DP
-47 81 -47 -81 94 0 3006 2797 4 MP
DP
-47 81 -47 -81 94 0 3031 2805 4 MP
DP
-47 81 -47 -81 94 0 3064 2806 4 MP
DP
-47 81 -47 -81 94 0 3084 2806 4 MP
DP
-47 81 -47 -81 94 0 3104 2813 4 MP
DP
-47 81 -47 -81 94 0 3125 2813 4 MP
DP
-47 81 -47 -81 94 0 3141 2811 4 MP
DP
-47 81 -47 -81 94 0 3164 2811 4 MP
DP
-47 81 -47 -81 94 0 3186 2809 4 MP
DP
-47 81 -47 -81 94 0 3194 2801 4 MP
DP
-47 81 -47 -81 94 0 3223 2816 4 MP
DP
-47 81 -47 -81 94 0 3234 2812 4 MP
DP
-47 81 -47 -81 94 0 3258 2814 4 MP
DP
-47 81 -47 -81 94 0 3297 2816 4 MP
DP
-47 81 -47 -81 94 0 3325 2818 4 MP
DP
-47 81 -47 -81 94 0 3353 2816 4 MP
DP
-47 81 -47 -81 94 0 3366 2813 4 MP
DP
-47 81 -47 -81 94 0 3392 2817 4 MP
DP
-47 81 -47 -81 94 0 3395 2823 4 MP
DP
-47 81 -47 -81 94 0 3407 2825 4 MP
DP
-47 81 -47 -81 94 0 3440 2818 4 MP
DP
-47 81 -47 -81 94 0 3468 2824 4 MP
DP
-47 81 -47 -81 94 0 3509 2828 4 MP
DP
-47 81 -47 -81 94 0 3536 2830 4 MP
DP
-47 81 -47 -81 94 0 3555 2830 4 MP
DP
-47 81 -47 -81 94 0 3588 2831 4 MP
DP
-47 81 -47 -81 94 0 3620 2837 4 MP
DP
-47 81 -47 -81 94 0 3611 2820 4 MP
DP
-47 81 -47 -81 94 0 3627 2821 4 MP
DP
-47 81 -47 -81 94 0 3640 2824 4 MP
DP
-47 81 -47 -81 94 0 3698 2831 4 MP
DP
-47 81 -47 -81 94 0 3734 2834 4 MP
DP
-47 81 -47 -81 94 0 3763 2834 4 MP
DP
-47 81 -47 -81 94 0 3783 2832 4 MP
DP
-47 81 -47 -81 94 0 3812 2835 4 MP
DP
-47 81 -47 -81 94 0 3842 2837 4 MP
DP
-47 81 -47 -81 94 0 3851 2837 4 MP
DP
-47 81 -47 -81 94 0 3843 2823 4 MP
DP
-47 81 -47 -81 94 0 3890 2835 4 MP
DP
-47 81 -47 -81 94 0 3920 2834 4 MP
DP
-47 81 -47 -81 94 0 3957 2834 4 MP
DP
-47 81 -47 -81 94 0 3979 2834 4 MP
DP
-47 81 -47 -81 94 0 4012 2838 4 MP
DP
-47 81 -47 -81 94 0 4039 2832 4 MP
DP
-47 81 -47 -81 94 0 4051 2834 4 MP
DP
-47 81 -47 -81 94 0 4081 2833 4 MP
DP
-47 81 -47 -81 94 0 4122 2843 4 MP
DP
-47 81 -47 -81 94 0 4134 2837 4 MP
DP
-47 81 -47 -81 94 0 4172 2841 4 MP
DP
-47 81 -47 -81 94 0 4199 2840 4 MP
DP
-47 81 -47 -81 94 0 4234 2844 4 MP
DP
-47 81 -47 -81 94 0 4248 2845 4 MP
DP
-47 81 -47 -81 94 0 4285 2847 4 MP
DP
-47 81 -47 -81 94 0 4315 2850 4 MP
DP
-47 81 -47 -81 94 0 4337 2849 4 MP
DP
-47 81 -47 -81 94 0 4347 2850 4 MP
DP
-47 81 -47 -81 94 0 4391 2839 4 MP
DP
-47 81 -47 -81 94 0 4428 2844 4 MP
DP
-47 81 -47 -81 94 0 4436 2848 4 MP
DP
-47 81 -47 -81 94 0 4451 2850 4 MP
DP
-47 81 -47 -81 94 0 4499 2853 4 MP
DP
-47 81 -47 -81 94 0 4550 2853 4 MP
DP
-47 81 -47 -81 94 0 4589 2858 4 MP
DP
-47 81 -47 -81 94 0 4599 2859 4 MP
DP
-47 81 -47 -81 94 0 4619 2847 4 MP
DP
-47 81 -47 -81 94 0 4652 2860 4 MP
DP
-47 81 -47 -81 94 0 4132 2835 4 MP
DP
-47 81 -47 -81 94 0 4173 2767 4 MP
DP
-47 81 -47 -81 94 0 3370 2665 4 MP
DP
-47 81 -47 -81 94 0 3569 2608 4 MP
DP
-47 81 -47 -81 94 0 3014 2541 4 MP
DP
-47 81 -47 -81 94 0 2865 2447 4 MP
DP
-47 81 -47 -81 94 0 2770 2372 4 MP
DP
-47 81 -47 -81 94 0 2373 2311 4 MP
DP
-47 81 -47 -81 94 0 2339 2231 4 MP
DP
-47 81 -47 -81 94 0 2160 2097 4 MP
DP
-47 81 -47 -81 94 0 1912 1998 4 MP
DP
-47 81 -47 -81 94 0 1836 1891 4 MP
DP
-47 81 -47 -81 94 0 1733 1767 4 MP
DP
-47 81 -47 -81 94 0 1555 1618 4 MP
DP
-47 81 -47 -81 94 0 1442 1423 4 MP
DP
-47 81 -47 -81 94 0 1382 1230 4 MP
DP
-47 81 -47 -81 94 0 1286 990 4 MP
DP
-47 81 -47 -81 94 0 1179 630 4 MP
DP
gs 848 564 4238 3957 rc
gr

gs 848 564 4238 3957 rc
gr

0 sg
%%IncludeResource: font Helvetica
/Helvetica /ISOLatin1Encoding 83.3333 FMSR

 829 4558 mt 
( ) s
5067  601 mt 
( ) s
8.33333 w
DO
SO
12.5 w
0.1 sg
 848 4520 mt 5085 4520 L
 848  565 mt 5085  565 L
 848 4520 mt  848  565 L
5085 4520 mt 5085  565 L
 848 4520 mt 5085 4520 L
 848 4520 mt  848  565 L
 848 4520 mt  848 4456 L
 848  565 mt  848  628 L
%%IncludeResource: font Helvetica
/Helvetica /ISOLatin1Encoding 133.333 FMSR

 811 4668 mt 
(0) s
1614 4520 mt 1614 4456 L
1614  565 mt 1614  628 L
1540 4668 mt 
(20) s
2380 4520 mt 2380 4456 L
2380  565 mt 2380  628 L
2306 4668 mt 
(40) s
3146 4520 mt 3146 4456 L
3146  565 mt 3146  628 L
3072 4668 mt 
(60) s
3912 4520 mt 3912 4456 L
3912  565 mt 3912  628 L
3838 4668 mt 
(80) s
4678 4520 mt 4678 4456 L
4678  565 mt 4678  628 L
4567 4668 mt 
(100) s
 848 4520 mt  911 4520 L
5085 4520 mt 5021 4520 L
 639 4569 mt 
(0.1) s
 848 3955 mt  911 3955 L
5085 3955 mt 5021 3955 L
 639 4004 mt 
(0.2) s
 848 3390 mt  911 3390 L
5085 3390 mt 5021 3390 L
 639 3439 mt 
(0.3) s
 848 2825 mt  911 2825 L
5085 2825 mt 5021 2825 L
 639 2874 mt 
(0.4) s
 848 2260 mt  911 2260 L
5085 2260 mt 5021 2260 L
 639 2309 mt 
(0.5) s
 848 1695 mt  911 1695 L
5085 1695 mt 5021 1695 L
 639 1744 mt 
(0.6) s
 848 1129 mt  911 1129 L
5085 1129 mt 5021 1129 L
 639 1178 mt 
(0.7) s
 848  565 mt  911  565 L
5085  565 mt 5021  565 L
 639  614 mt 
(0.8) s
 848 4520 mt 5085 4520 L
 848  565 mt 5085  565 L
 848 4520 mt  848  565 L
5085 4520 mt 5085  565 L
0 sg
%%IncludeResource: font Symbol
/Symbol /ISOLatin1Encoding 125 FMSR

3589 3020 mt 
(m) s
%%IncludeResource: font Helvetica-Bold
/Helvetica-Bold /ISOLatin1Encoding 100 FMSR

3661 3082 mt 
(S) s
%%IncludeResource: font Helvetica-Bold
/Helvetica-Bold /ISOLatin1Encoding 125 FMSR

3727 3020 mt 
( = 0.2) s
gs 3264 2889 1523 1286 rc
16.6667 w
gs 3337 2927 205 205 rc
3410 3000 mt 3468 3058 L
3468 3000 mt 3410 3058 L
gr

gr

16.6667 w
%%IncludeResource: font Symbol
/Symbol /ISOLatin1Encoding 125 FMSR

3589 3272 mt 
(m) s
%%IncludeResource: font Helvetica-Bold
/Helvetica-Bold /ISOLatin1Encoding 100 FMSR

3661 3334 mt 
(S) s
%%IncludeResource: font Helvetica-Bold
/Helvetica-Bold /ISOLatin1Encoding 125 FMSR

3727 3272 mt 
( = 0.5) s
gs 3264 2889 1523 1286 rc
gs 3337 3178 205 205 rc
c8
  41   41 3439 3280 FO
gr

c8
gr

c8
0 sg
%%IncludeResource: font Symbol
/Symbol /ISOLatin1Encoding 125 FMSR

3589 3523 mt 
(m) s
%%IncludeResource: font Helvetica-Bold
/Helvetica-Bold /ISOLatin1Encoding 100 FMSR

3661 3585 mt 
(S) s
%%IncludeResource: font Helvetica-Bold
/Helvetica-Bold /ISOLatin1Encoding 125 FMSR

3727 3523 mt 
( = 0.8) s
gs 3264 2889 1523 1286 rc
gs 3337 3429 205 205 rc
41 54 -41 54 -41 -54 41 -54 3439 3585 5 MP
c9
DP
gr

c9
gr

c9
0 sg
%%IncludeResource: font Symbol
/Symbol /ISOLatin1Encoding 125 FMSR

3589 3774 mt 
(m) s
%%IncludeResource: font Helvetica-Bold
/Helvetica-Bold /ISOLatin1Encoding 100 FMSR

3661 3836 mt 
(S) s
%%IncludeResource: font Helvetica-Bold
/Helvetica-Bold /ISOLatin1Encoding 125 FMSR

3727 3774 mt 
( = 0.5 - Same Fill) s
gs 3264 2889 1523 1286 rc
gs 3337 3680 205 205 rc
c10
3398 3782 mt 3480 3782 L
3439 3741 mt 3439 3823 L
3410 3753 mt 3468 3811 L
3468 3753 mt 3410 3811 L
gr

c10
gr

c10
0 sg
%%IncludeResource: font Symbol
/Symbol /ISOLatin1Encoding 125 FMSR

3589 4026 mt 
(m) s
%%IncludeResource: font Helvetica-Bold
/Helvetica-Bold /ISOLatin1Encoding 100 FMSR

3661 4088 mt 
(R) s
%%IncludeResource: font Helvetica-Bold
/Helvetica-Bold /ISOLatin1Encoding 125 FMSR

3733 4026 mt 
( = 0.8 - Same Fill) s
gs 3264 2889 1523 1286 rc
gs 3337 3931 205 205 rc
-47 81 -47 -81 94 0 3392 4060 4 MP
c11
DP
gr

c11
12.5 w
gr

12.5 w
c11

end %%Color Dict

eplot
%%EndObject

epage
end

showpage

%%Trailer
%%EOF
