%!PS-Adobe-3.0 EPSF-3.0
%%Creator: MATLAB, The MathWorks, Inc. Version 7.12.0.635 (R2011a). Operating System: Linux 2.6.32-358.6.2.el6.x86_64 #1 SMP Thu May 16 11:21:38 CDT 2013 x86_64.
%%Title: ./EPT_Tests_Paired_K2_Var_Stress_K0.eps
%%CreationDate: 08/16/2013  15:34:56
%%DocumentNeededFonts: Helvetica-Bold
%%+ Helvetica
%%DocumentProcessColors: Cyan Magenta Yellow Black
%%LanguageLevel: 2
%%Pages: 1
%%BoundingBox:    24    69   598   605
%%EndComments

%%BeginProlog
% MathWorks dictionary
/MathWorks 160 dict begin
% definition operators
/bdef {bind def} bind def
/ldef {load def} bind def
/xdef {exch def} bdef
/xstore {exch store} bdef
% operator abbreviations
/c  /clip ldef
/cc /concat ldef
/cp /closepath ldef
/gr /grestore ldef
/gs /gsave ldef
/mt /moveto ldef
/np /newpath ldef
/cm /currentmatrix ldef
/sm /setmatrix ldef
/rm /rmoveto ldef
/rl /rlineto ldef
/s {show newpath} bdef
/sc {setcmykcolor} bdef
/sr /setrgbcolor ldef
/sg /setgray ldef
/w /setlinewidth ldef
/j /setlinejoin ldef
/cap /setlinecap ldef
/rc {rectclip} bdef
/rf {rectfill} bdef
% page state control
/pgsv () def
/bpage {/pgsv save def} bdef
/epage {pgsv restore} bdef
/bplot /gsave ldef
/eplot {stroke grestore} bdef
% orientation switch
/portraitMode 0 def /landscapeMode 1 def /rotateMode 2 def
% coordinate system mappings
/dpi2point 0 def
% font control
/FontSize 0 def
/FMS {/FontSize xstore findfont [FontSize 0 0 FontSize neg 0 0]
  makefont setfont} bdef
/reencode {exch dup where {pop load} {pop StandardEncoding} ifelse
  exch dup 3 1 roll findfont dup length dict begin
  { 1 index /FID ne {def}{pop pop} ifelse } forall
  /Encoding exch def currentdict end definefont pop} bdef
/isroman {findfont /CharStrings get /Agrave known} bdef
/FMSR {3 1 roll 1 index dup isroman {reencode} {pop pop} ifelse
  exch FMS} bdef
/csm {1 dpi2point div -1 dpi2point div scale neg translate
 dup landscapeMode eq {pop -90 rotate}
  {rotateMode eq {90 rotate} if} ifelse} bdef
% line types: solid, dotted, dashed, dotdash
/SO { [] 0 setdash } bdef
/DO { [.5 dpi2point mul 4 dpi2point mul] 0 setdash } bdef
/DA { [6 dpi2point mul] 0 setdash } bdef
/DD { [.5 dpi2point mul 4 dpi2point mul 6 dpi2point mul 4
  dpi2point mul] 0 setdash } bdef
% macros for lines and objects
/L {lineto stroke} bdef
/MP {3 1 roll moveto 1 sub {rlineto} repeat} bdef
/AP {{rlineto} repeat} bdef
/PDlw -1 def
/W {/PDlw currentlinewidth def setlinewidth} def
/PP {closepath eofill} bdef
/DP {closepath stroke} bdef
/MR {4 -2 roll moveto dup  0 exch rlineto exch 0 rlineto
  neg 0 exch rlineto closepath} bdef
/FR {MR stroke} bdef
/PR {MR fill} bdef
/L1i {{currentfile picstr readhexstring pop} image} bdef
/tMatrix matrix def
/MakeOval {newpath tMatrix currentmatrix pop translate scale
0 0 1 0 360 arc tMatrix setmatrix} bdef
/FO {MakeOval stroke} bdef
/PO {MakeOval fill} bdef
/PD {currentlinewidth 2 div 0 360 arc fill
   PDlw -1 eq not {PDlw w /PDlw -1 def} if} def
/FA {newpath tMatrix currentmatrix pop translate scale
  0 0 1 5 -2 roll arc tMatrix setmatrix stroke} bdef
/PA {newpath tMatrix currentmatrix pop	translate 0 0 moveto scale
  0 0 1 5 -2 roll arc closepath tMatrix setmatrix fill} bdef
/FAn {newpath tMatrix currentmatrix pop translate scale
  0 0 1 5 -2 roll arcn tMatrix setmatrix stroke} bdef
/PAn {newpath tMatrix currentmatrix pop translate 0 0 moveto scale
  0 0 1 5 -2 roll arcn closepath tMatrix setmatrix fill} bdef
/vradius 0 def /hradius 0 def /lry 0 def
/lrx 0 def /uly 0 def /ulx 0 def /rad 0 def
/MRR {/vradius xdef /hradius xdef /lry xdef /lrx xdef /uly xdef
  /ulx xdef newpath tMatrix currentmatrix pop ulx hradius add uly
  vradius add translate hradius vradius scale 0 0 1 180 270 arc 
  tMatrix setmatrix lrx hradius sub uly vradius add translate
  hradius vradius scale 0 0 1 270 360 arc tMatrix setmatrix
  lrx hradius sub lry vradius sub translate hradius vradius scale
  0 0 1 0 90 arc tMatrix setmatrix ulx hradius add lry vradius sub
  translate hradius vradius scale 0 0 1 90 180 arc tMatrix setmatrix
  closepath} bdef
/FRR {MRR stroke } bdef
/PRR {MRR fill } bdef
/MlrRR {/lry xdef /lrx xdef /uly xdef /ulx xdef /rad lry uly sub 2 div def
  newpath tMatrix currentmatrix pop ulx rad add uly rad add translate
  rad rad scale 0 0 1 90 270 arc tMatrix setmatrix lrx rad sub lry rad
  sub translate rad rad scale 0 0 1 270 90 arc tMatrix setmatrix
  closepath} bdef
/FlrRR {MlrRR stroke } bdef
/PlrRR {MlrRR fill } bdef
/MtbRR {/lry xdef /lrx xdef /uly xdef /ulx xdef /rad lrx ulx sub 2 div def
  newpath tMatrix currentmatrix pop ulx rad add uly rad add translate
  rad rad scale 0 0 1 180 360 arc tMatrix setmatrix lrx rad sub lry rad
  sub translate rad rad scale 0 0 1 0 180 arc tMatrix setmatrix
  closepath} bdef
/FtbRR {MtbRR stroke } bdef
/PtbRR {MtbRR fill } bdef
/stri 6 array def /dtri 6 array def
/smat 6 array def /dmat 6 array def
/tmat1 6 array def /tmat2 6 array def /dif 3 array def
/asub {/ind2 exch def /ind1 exch def dup dup
  ind1 get exch ind2 get sub exch } bdef
/tri_to_matrix {
  2 0 asub 3 1 asub 4 0 asub 5 1 asub
  dup 0 get exch 1 get 7 -1 roll astore } bdef
/compute_transform {
  dmat dtri tri_to_matrix tmat1 invertmatrix 
  smat stri tri_to_matrix tmat2 concatmatrix } bdef
/ds {stri astore pop} bdef
/dt {dtri astore pop} bdef
/db {2 copy /cols xdef /rows xdef mul dup 3 mul string
  currentfile 
  3 index 0 eq {/ASCIIHexDecode filter}
  {/ASCII85Decode filter 3 index 2 eq {/RunLengthDecode filter} if }
  ifelse exch readstring pop
  dup 0 3 index getinterval /rbmap xdef
  dup 2 index dup getinterval /gbmap xdef
  1 index dup 2 mul exch getinterval /bbmap xdef pop pop}bdef
/it {gs np dtri aload pop moveto lineto lineto cp c
  cols rows 8 compute_transform 
  rbmap gbmap bbmap true 3 colorimage gr}bdef
/il {newpath moveto lineto stroke}bdef
currentdict end def
%%EndProlog

%%BeginSetup
MathWorks begin

0 cap

end
%%EndSetup

%%Page: 1 1
%%BeginPageSetup
%%PageBoundingBox:    24    69   598   605
MathWorks begin
bpage
%%EndPageSetup

%%BeginObject: obj1
bplot

/dpi2point 8.33333 def
portraitMode -0158 5475 csm

  366   430  4781  4469 rc
84 dict begin %Colortable dictionary
/c0 { 0.000000 0.000000 0.000000 sr} bdef
/c1 { 1.000000 1.000000 1.000000 sr} bdef
/c2 { 0.900000 0.000000 0.000000 sr} bdef
/c3 { 0.000000 0.820000 0.000000 sr} bdef
/c4 { 0.000000 0.000000 0.800000 sr} bdef
/c5 { 0.910000 0.820000 0.320000 sr} bdef
/c6 { 1.000000 0.260000 0.820000 sr} bdef
/c7 { 0.000000 0.820000 0.820000 sr} bdef
c0
1 j
1 sg
   0    0 5651 5651 rf
12.5 w
0 3956 4237 0 0 -3956 848 4520 4 MP
PP
-4237 0 0 3956 4237 0 0 -3956 848 4520 5 MP stroke
gs 848 565 4238 3956 rc
16.6667 w
gr

16.6667 w
0 sg
 823 2059 mt  881 2117 L
 881 2059 mt  823 2117 L
 825 2351 mt  883 2409 L
 883 2351 mt  825 2409 L
 828 2935 mt  886 2993 L
 886 2935 mt  828 2993 L
 831 3127 mt  889 3185 L
 889 3127 mt  831 3185 L
 833 3205 mt  891 3263 L
 891 3205 mt  833 3263 L
 834 3202 mt  892 3260 L
 892 3202 mt  834 3260 L
 840 3337 mt  898 3395 L
 898 3337 mt  840 3395 L
 843 3429 mt  901 3487 L
 901 3429 mt  843 3487 L
 847 3355 mt  905 3413 L
 905 3355 mt  847 3413 L
 853 3344 mt  911 3402 L
 911 3344 mt  853 3402 L
 855 3369 mt  913 3427 L
 913 3369 mt  855 3427 L
 856 3290 mt  914 3348 L
 914 3290 mt  856 3348 L
 860 3354 mt  918 3412 L
 918 3354 mt  860 3412 L
 865 3373 mt  923 3431 L
 923 3373 mt  865 3431 L
 866 3361 mt  924 3419 L
 924 3361 mt  866 3419 L
 867 3410 mt  925 3468 L
 925 3410 mt  867 3468 L
 871 3423 mt  929 3481 L
 929 3423 mt  871 3481 L
 872 3431 mt  930 3489 L
 930 3431 mt  872 3489 L
 874 3264 mt  932 3322 L
 932 3264 mt  874 3322 L
 880 3179 mt  938 3237 L
 938 3179 mt  880 3237 L
 885 3180 mt  943 3238 L
 943 3180 mt  885 3238 L
 890 3196 mt  948 3254 L
 948 3196 mt  890 3254 L
 893 3287 mt  951 3345 L
 951 3287 mt  893 3345 L
 896 3279 mt  954 3337 L
 954 3279 mt  896 3337 L
 900 3221 mt  958 3279 L
 958 3221 mt  900 3279 L
 908 3237 mt  966 3295 L
 966 3237 mt  908 3295 L
 913 3230 mt  971 3288 L
 971 3230 mt  913 3288 L
 920 3204 mt  978 3262 L
 978 3204 mt  920 3262 L
 927 3176 mt  985 3234 L
 985 3176 mt  927 3234 L
 934 3152 mt  992 3210 L
 992 3152 mt  934 3210 L
 943 3099 mt 1001 3157 L
1001 3099 mt  943 3157 L
 952 3085 mt 1010 3143 L
1010 3085 mt  952 3143 L
 958 3046 mt 1016 3104 L
1016 3046 mt  958 3104 L
 964 3041 mt 1022 3099 L
1022 3041 mt  964 3099 L
 982 3094 mt 1040 3152 L
1040 3094 mt  982 3152 L
 988 3055 mt 1046 3113 L
1046 3055 mt  988 3113 L
 997 3042 mt 1055 3100 L
1055 3042 mt  997 3100 L
1007 3021 mt 1065 3079 L
1065 3021 mt 1007 3079 L
1020 3004 mt 1078 3062 L
1078 3004 mt 1020 3062 L
1032 2995 mt 1090 3053 L
1090 2995 mt 1032 3053 L
1060 3002 mt 1118 3060 L
1118 3002 mt 1060 3060 L
1078 3015 mt 1136 3073 L
1136 3015 mt 1078 3073 L
1101 3032 mt 1159 3090 L
1159 3032 mt 1101 3090 L
1116 3020 mt 1174 3078 L
1174 3020 mt 1116 3078 L
1117 3025 mt 1175 3083 L
1175 3025 mt 1117 3083 L
1136 3003 mt 1194 3061 L
1194 3003 mt 1136 3061 L
1149 2994 mt 1207 3052 L
1207 2994 mt 1149 3052 L
1183 3042 mt 1241 3100 L
1241 3042 mt 1183 3100 L
1203 3035 mt 1261 3093 L
1261 3035 mt 1203 3093 L
1233 3036 mt 1291 3094 L
1291 3036 mt 1233 3094 L
1264 3040 mt 1322 3098 L
1322 3040 mt 1264 3098 L
1289 3028 mt 1347 3086 L
1347 3028 mt 1289 3086 L
1333 3020 mt 1391 3078 L
1391 3020 mt 1333 3078 L
1372 3035 mt 1430 3093 L
1430 3035 mt 1372 3093 L
1380 3022 mt 1438 3080 L
1438 3022 mt 1380 3080 L
1365 2965 mt 1423 3023 L
1423 2965 mt 1365 3023 L
1398 2975 mt 1456 3033 L
1456 2975 mt 1398 3033 L
1414 2935 mt 1472 2993 L
1472 2935 mt 1414 2993 L
1440 2971 mt 1498 3029 L
1498 2971 mt 1440 3029 L
1424 2959 mt 1482 3017 L
1482 2959 mt 1424 3017 L
1497 2977 mt 1555 3035 L
1555 2977 mt 1497 3035 L
1551 2981 mt 1609 3039 L
1609 2981 mt 1551 3039 L
1562 2934 mt 1620 2992 L
1620 2934 mt 1562 2992 L
1646 2991 mt 1704 3049 L
1704 2991 mt 1646 3049 L
1692 2998 mt 1750 3056 L
1750 2998 mt 1692 3056 L
1699 2944 mt 1757 3002 L
1757 2944 mt 1699 3002 L
1701 2937 mt 1759 2995 L
1759 2937 mt 1701 2995 L
1759 2943 mt 1817 3001 L
1817 2943 mt 1759 3001 L
1820 2953 mt 1878 3011 L
1878 2953 mt 1820 3011 L
1907 2977 mt 1965 3035 L
1965 2977 mt 1907 3035 L
1978 2968 mt 2036 3026 L
2036 2968 mt 1978 3026 L
1993 2950 mt 2051 3008 L
2051 2950 mt 1993 3008 L
1932 2916 mt 1990 2974 L
1990 2916 mt 1932 2974 L
2007 2924 mt 2065 2982 L
2065 2924 mt 2007 2982 L
2120 2950 mt 2178 3008 L
2178 2950 mt 2120 3008 L
2228 2964 mt 2286 3022 L
2286 2964 mt 2228 3022 L
2324 2981 mt 2382 3039 L
2382 2981 mt 2324 3039 L
2289 2937 mt 2347 2995 L
2347 2937 mt 2289 2995 L
2348 2935 mt 2406 2993 L
2406 2935 mt 2348 2993 L
2489 2945 mt 2547 3003 L
2547 2945 mt 2489 3003 L
2603 2958 mt 2661 3016 L
2661 2958 mt 2603 3016 L
2697 2962 mt 2755 3020 L
2755 2962 mt 2697 3020 L
2787 2978 mt 2845 3036 L
2845 2978 mt 2787 3036 L
2884 2966 mt 2942 3024 L
2942 2966 mt 2884 3024 L
2833 2909 mt 2891 2967 L
2891 2909 mt 2833 2967 L
2824 2912 mt 2882 2970 L
2882 2912 mt 2824 2970 L
2966 2915 mt 3024 2973 L
3024 2915 mt 2966 2973 L
2905 2872 mt 2963 2930 L
2963 2872 mt 2905 2930 L
2991 2876 mt 3049 2934 L
3049 2876 mt 2991 2934 L
2961 2849 mt 3019 2907 L
3019 2849 mt 2961 2907 L
2900 2821 mt 2958 2879 L
2958 2821 mt 2900 2879 L
2970 2819 mt 3028 2877 L
3028 2819 mt 2970 2877 L
3169 2846 mt 3227 2904 L
3227 2846 mt 3169 2904 L
3339 2841 mt 3397 2899 L
3397 2841 mt 3339 2899 L
3551 2858 mt 3609 2916 L
3609 2858 mt 3551 2916 L
3752 2875 mt 3810 2933 L
3810 2875 mt 3752 2933 L
3937 2890 mt 3995 2948 L
3995 2890 mt 3937 2948 L
4020 2894 mt 4078 2952 L
4078 2894 mt 4020 2952 L
3991 2887 mt 4049 2945 L
4049 2887 mt 3991 2945 L
4260 2903 mt 4318 2961 L
4318 2903 mt 4260 2961 L
4484 2916 mt 4542 2974 L
4542 2916 mt 4484 2974 L
4679 2911 mt 4737 2969 L
4737 2911 mt 4679 2969 L
2276 1751 mt 2334 1809 L
2334 1751 mt 2276 1809 L
1661 1392 mt 1719 1450 L
1719 1392 mt 1661 1450 L
1437 1191 mt 1495 1249 L
1495 1191 mt 1437 1249 L
1259  847 mt 1317  905 L
1317  847 mt 1259  905 L
1138  573 mt 1196  631 L
1196  573 mt 1138  631 L
gs 848 565 4238 3956 rc
gr

0.1 sg
%%IncludeResource: font Helvetica-Bold
/Helvetica-Bold /ISOLatin1Encoding 183.333 FMSR

2331 4841 mt 
(Vertical Stress) s
 559 3516 mt  -90 rotate
(Lateral Pressure Ratio) s
90 rotate
gs 848 565 4238 3956 rc
gr

/c8 { 1.000000 0.000000 0.000000 sr} bdef
c8
 819 1821 mt  877 1879 L
 877 1821 mt  819 1879 L
 819 1857 mt  877 1915 L
 877 1857 mt  819 1915 L
 819 1738 mt  877 1796 L
 877 1738 mt  819 1796 L
 819 1793 mt  877 1851 L
 877 1793 mt  819 1851 L
 819 1729 mt  877 1787 L
 877 1729 mt  819 1787 L
 820 1823 mt  878 1881 L
 878 1823 mt  820 1881 L
 819 1693 mt  877 1751 L
 877 1693 mt  819 1751 L
 819 1529 mt  877 1587 L
 877 1529 mt  819 1587 L
 822 2095 mt  880 2153 L
 880 2095 mt  822 2153 L
 822 2267 mt  880 2325 L
 880 2267 mt  822 2325 L
 823 2190 mt  881 2248 L
 881 2190 mt  823 2248 L
 824 2360 mt  882 2418 L
 882 2360 mt  824 2418 L
 825 2379 mt  883 2437 L
 883 2379 mt  825 2437 L
 826 2474 mt  884 2532 L
 884 2474 mt  826 2532 L
 827 2524 mt  885 2582 L
 885 2524 mt  827 2582 L
 825 2318 mt  883 2376 L
 883 2318 mt  825 2376 L
 825 2292 mt  883 2350 L
 883 2292 mt  825 2350 L
 827 2383 mt  885 2441 L
 885 2383 mt  827 2441 L
 827 2437 mt  885 2495 L
 885 2437 mt  827 2495 L
 829 2601 mt  887 2659 L
 887 2601 mt  829 2659 L
 833 2802 mt  891 2860 L
 891 2802 mt  833 2860 L
 833 2770 mt  891 2828 L
 891 2770 mt  833 2828 L
 836 2948 mt  894 3006 L
 894 2948 mt  836 3006 L
 838 3020 mt  896 3078 L
 896 3020 mt  838 3078 L
 839 2992 mt  897 3050 L
 897 2992 mt  839 3050 L
 842 3022 mt  900 3080 L
 900 3022 mt  842 3080 L
 845 2987 mt  903 3045 L
 903 2987 mt  845 3045 L
 851 3218 mt  909 3276 L
 909 3218 mt  851 3276 L
 850 3191 mt  908 3249 L
 908 3191 mt  850 3249 L
 851 3176 mt  909 3234 L
 909 3176 mt  851 3234 L
 855 3284 mt  913 3342 L
 913 3284 mt  855 3342 L
 858 3197 mt  916 3255 L
 916 3197 mt  858 3255 L
 864 3283 mt  922 3341 L
 922 3283 mt  864 3341 L
 868 3226 mt  926 3284 L
 926 3226 mt  868 3284 L
 872 3297 mt  930 3355 L
 930 3297 mt  872 3355 L
 876 3367 mt  934 3425 L
 934 3367 mt  876 3425 L
 883 3379 mt  941 3437 L
 941 3379 mt  883 3437 L
 888 3369 mt  946 3427 L
 946 3369 mt  888 3427 L
 890 3268 mt  948 3326 L
 948 3268 mt  890 3326 L
 895 3304 mt  953 3362 L
 953 3304 mt  895 3362 L
 901 3324 mt  959 3382 L
 959 3324 mt  901 3382 L
 909 3298 mt  967 3356 L
 967 3298 mt  909 3356 L
 914 3285 mt  972 3343 L
 972 3285 mt  914 3343 L
 921 3287 mt  979 3345 L
 979 3287 mt  921 3345 L
 930 3287 mt  988 3345 L
 988 3287 mt  930 3345 L
 937 3314 mt  995 3372 L
 995 3314 mt  937 3372 L
 939 3313 mt  997 3371 L
 997 3313 mt  939 3371 L
 941 3300 mt  999 3358 L
 999 3300 mt  941 3358 L
 950 3266 mt 1008 3324 L
1008 3266 mt  950 3324 L
 962 3243 mt 1020 3301 L
1020 3243 mt  962 3301 L
 971 3284 mt 1029 3342 L
1029 3284 mt  971 3342 L
 978 3262 mt 1036 3320 L
1036 3262 mt  978 3320 L
 973 3197 mt 1031 3255 L
1031 3197 mt  973 3255 L
 985 3151 mt 1043 3209 L
1043 3151 mt  985 3209 L
 991 3156 mt 1049 3214 L
1049 3156 mt  991 3214 L
 997 3134 mt 1055 3192 L
1055 3134 mt  997 3192 L
1008 3152 mt 1066 3210 L
1066 3152 mt 1008 3210 L
1011 3110 mt 1069 3168 L
1069 3110 mt 1011 3168 L
1023 3120 mt 1081 3178 L
1081 3120 mt 1023 3178 L
1027 3109 mt 1085 3167 L
1085 3109 mt 1027 3167 L
1041 3087 mt 1099 3145 L
1099 3087 mt 1041 3145 L
1053 3070 mt 1111 3128 L
1111 3070 mt 1053 3128 L
1067 3100 mt 1125 3158 L
1125 3100 mt 1067 3158 L
1068 3060 mt 1126 3118 L
1126 3060 mt 1068 3118 L
1093 3048 mt 1151 3106 L
1151 3048 mt 1093 3106 L
1106 3051 mt 1164 3109 L
1164 3051 mt 1106 3109 L
1118 3059 mt 1176 3117 L
1176 3059 mt 1118 3117 L
1134 3078 mt 1192 3136 L
1192 3078 mt 1134 3136 L
1134 3066 mt 1192 3124 L
1192 3066 mt 1134 3124 L
1158 3061 mt 1216 3119 L
1216 3061 mt 1158 3119 L
1176 3021 mt 1234 3079 L
1234 3021 mt 1176 3079 L
1195 3062 mt 1253 3120 L
1253 3062 mt 1195 3120 L
1208 3023 mt 1266 3081 L
1266 3023 mt 1208 3081 L
1222 2977 mt 1280 3035 L
1280 2977 mt 1222 3035 L
1226 2968 mt 1284 3026 L
1284 2968 mt 1226 3026 L
1242 2973 mt 1300 3031 L
1300 2973 mt 1242 3031 L
1256 2948 mt 1314 3006 L
1314 2948 mt 1256 3006 L
1269 2930 mt 1327 2988 L
1327 2930 mt 1269 2988 L
1312 2926 mt 1370 2984 L
1370 2926 mt 1312 2984 L
1344 2950 mt 1402 3008 L
1402 2950 mt 1344 3008 L
1378 2965 mt 1436 3023 L
1436 2965 mt 1378 3023 L
1402 2986 mt 1460 3044 L
1460 2986 mt 1402 3044 L
1442 3001 mt 1500 3059 L
1500 3001 mt 1442 3059 L
1451 2987 mt 1509 3045 L
1509 2987 mt 1451 3045 L
1479 2992 mt 1537 3050 L
1537 2992 mt 1479 3050 L
1521 3002 mt 1579 3060 L
1579 3002 mt 1521 3060 L
1530 2981 mt 1588 3039 L
1588 2981 mt 1530 3039 L
1591 2974 mt 1649 3032 L
1649 2974 mt 1591 3032 L
1621 2956 mt 1679 3014 L
1679 2956 mt 1621 3014 L
1668 2930 mt 1726 2988 L
1726 2930 mt 1668 2988 L
1720 2933 mt 1778 2991 L
1778 2933 mt 1720 2991 L
1743 2891 mt 1801 2949 L
1801 2891 mt 1743 2949 L
1761 2885 mt 1819 2943 L
1819 2885 mt 1761 2943 L
1844 2884 mt 1902 2942 L
1902 2884 mt 1844 2942 L
1915 2882 mt 1973 2940 L
1973 2882 mt 1915 2940 L
1965 2881 mt 2023 2939 L
2023 2881 mt 1965 2939 L
1999 2863 mt 2057 2921 L
2057 2863 mt 1999 2921 L
2053 2869 mt 2111 2927 L
2111 2869 mt 2053 2927 L
2085 2845 mt 2143 2903 L
2143 2845 mt 2085 2903 L
2135 2868 mt 2193 2926 L
2193 2868 mt 2135 2926 L
2238 2893 mt 2296 2951 L
2296 2893 mt 2238 2951 L
2295 2896 mt 2353 2954 L
2353 2896 mt 2295 2954 L
2296 2890 mt 2354 2948 L
2354 2890 mt 2296 2948 L
2413 2904 mt 2471 2962 L
2471 2904 mt 2413 2962 L
2480 2881 mt 2538 2939 L
2538 2881 mt 2480 2939 L
2511 2873 mt 2569 2931 L
2569 2873 mt 2511 2931 L
2640 2907 mt 2698 2965 L
2698 2907 mt 2640 2965 L
2769 2924 mt 2827 2982 L
2827 2924 mt 2769 2982 L
2839 2914 mt 2897 2972 L
2897 2914 mt 2839 2972 L
2903 2922 mt 2961 2980 L
2961 2922 mt 2903 2980 L
2979 2923 mt 3037 2981 L
3037 2923 mt 2979 2981 L
3124 2934 mt 3182 2992 L
3182 2934 mt 3124 2992 L
3236 2937 mt 3294 2995 L
3294 2937 mt 3236 2995 L
3288 2914 mt 3346 2972 L
3346 2914 mt 3288 2972 L
3383 2909 mt 3441 2967 L
3441 2909 mt 3383 2967 L
3542 2919 mt 3600 2977 L
3600 2919 mt 3542 2977 L
3712 2922 mt 3770 2980 L
3770 2922 mt 3712 2980 L
3821 2910 mt 3879 2968 L
3879 2910 mt 3821 2968 L
3977 2917 mt 4035 2975 L
4035 2917 mt 3977 2975 L
4048 2909 mt 4106 2967 L
4106 2909 mt 4048 2967 L
4176 2909 mt 4234 2967 L
4234 2909 mt 4176 2967 L
4314 2904 mt 4372 2962 L
4372 2904 mt 4314 2962 L
4445 2891 mt 4503 2949 L
4503 2891 mt 4445 2949 L
4558 2878 mt 4616 2936 L
4616 2878 mt 4558 2936 L
4731 2877 mt 4789 2935 L
4789 2877 mt 4731 2935 L
2346 1790 mt 2404 1848 L
2404 1790 mt 2346 1848 L
1994 1643 mt 2052 1701 L
2052 1643 mt 1994 1701 L
1694 1454 mt 1752 1512 L
1752 1454 mt 1694 1512 L
1440 1208 mt 1498 1266 L
1498 1208 mt 1440 1266 L
1236  889 mt 1294  947 L
1294  889 mt 1236  947 L
gs 848 565 4238 3956 rc
gr

/c9 { 0.000000 0.000000 1.000000 sr} bdef
c9
 819 1419 mt  877 1477 L
 877 1419 mt  819 1477 L
 819 1614 mt  877 1672 L
 877 1614 mt  819 1672 L
 819 1515 mt  877 1573 L
 877 1515 mt  819 1573 L
 819 1614 mt  877 1672 L
 877 1614 mt  819 1672 L
 820 1961 mt  878 2019 L
 878 1961 mt  820 2019 L
 821 2183 mt  879 2241 L
 879 2183 mt  821 2241 L
 823 2591 mt  881 2649 L
 881 2591 mt  823 2649 L
 824 2651 mt  882 2709 L
 882 2651 mt  824 2709 L
 825 2711 mt  883 2769 L
 883 2711 mt  825 2769 L
 826 2681 mt  884 2739 L
 884 2681 mt  826 2739 L
 827 2790 mt  885 2848 L
 885 2790 mt  827 2848 L
 828 2854 mt  886 2912 L
 886 2854 mt  828 2912 L
 831 3015 mt  889 3073 L
 889 3015 mt  831 3073 L
 833 3049 mt  891 3107 L
 891 3049 mt  833 3107 L
 833 3020 mt  891 3078 L
 891 3020 mt  833 3078 L
 834 3010 mt  892 3068 L
 892 3010 mt  834 3068 L
 837 3071 mt  895 3129 L
 895 3071 mt  837 3129 L
 838 3017 mt  896 3075 L
 896 3017 mt  838 3075 L
 840 3099 mt  898 3157 L
 898 3099 mt  840 3157 L
 843 3178 mt  901 3236 L
 901 3178 mt  843 3236 L
 845 3171 mt  903 3229 L
 903 3171 mt  845 3229 L
 848 3211 mt  906 3269 L
 906 3211 mt  848 3269 L
 847 3077 mt  905 3135 L
 905 3077 mt  847 3135 L
 850 3086 mt  908 3144 L
 908 3086 mt  850 3144 L
 853 3125 mt  911 3183 L
 911 3125 mt  853 3183 L
 857 3206 mt  915 3264 L
 915 3206 mt  857 3264 L
 859 3235 mt  917 3293 L
 917 3235 mt  859 3293 L
 861 3244 mt  919 3302 L
 919 3244 mt  861 3302 L
 864 3244 mt  922 3302 L
 922 3244 mt  864 3302 L
 867 3225 mt  925 3283 L
 925 3225 mt  867 3283 L
 868 3165 mt  926 3223 L
 926 3165 mt  868 3223 L
 871 3151 mt  929 3209 L
 929 3151 mt  871 3209 L
 875 3213 mt  933 3271 L
 933 3213 mt  875 3271 L
 878 3200 mt  936 3258 L
 936 3200 mt  878 3258 L
 883 3201 mt  941 3259 L
 941 3201 mt  883 3259 L
 886 3245 mt  944 3303 L
 944 3245 mt  886 3303 L
 889 3309 mt  947 3367 L
 947 3309 mt  889 3367 L
 894 3317 mt  952 3375 L
 952 3317 mt  894 3375 L
 895 3293 mt  953 3351 L
 953 3293 mt  895 3351 L
 898 3310 mt  956 3368 L
 956 3310 mt  898 3368 L
 899 3302 mt  957 3360 L
 957 3302 mt  899 3360 L
 905 3304 mt  963 3362 L
 963 3304 mt  905 3362 L
 908 3294 mt  966 3352 L
 966 3294 mt  908 3352 L
 913 3255 mt  971 3313 L
 971 3255 mt  913 3313 L
 921 3286 mt  979 3344 L
 979 3286 mt  921 3344 L
 926 3280 mt  984 3338 L
 984 3280 mt  926 3338 L
 925 3231 mt  983 3289 L
 983 3231 mt  925 3289 L
 928 3204 mt  986 3262 L
 986 3204 mt  928 3262 L
 937 3216 mt  995 3274 L
 995 3216 mt  937 3274 L
 947 3221 mt 1005 3279 L
1005 3221 mt  947 3279 L
 952 3200 mt 1010 3258 L
1010 3200 mt  952 3258 L
 958 3205 mt 1016 3263 L
1016 3205 mt  958 3263 L
 963 3197 mt 1021 3255 L
1021 3197 mt  963 3255 L
 971 3177 mt 1029 3235 L
1029 3177 mt  971 3235 L
 978 3155 mt 1036 3213 L
1036 3155 mt  978 3213 L
 983 3127 mt 1041 3185 L
1041 3127 mt  983 3185 L
 992 3127 mt 1050 3185 L
1050 3127 mt  992 3185 L
 999 3118 mt 1057 3176 L
1057 3118 mt  999 3176 L
1002 3094 mt 1060 3152 L
1060 3094 mt 1002 3152 L
1007 3085 mt 1065 3143 L
1065 3085 mt 1007 3143 L
1017 3090 mt 1075 3148 L
1075 3090 mt 1017 3148 L
1023 3047 mt 1081 3105 L
1081 3047 mt 1023 3105 L
1034 3055 mt 1092 3113 L
1092 3055 mt 1034 3113 L
1039 3048 mt 1097 3106 L
1097 3048 mt 1039 3106 L
1046 3030 mt 1104 3088 L
1104 3030 mt 1046 3088 L
1055 3056 mt 1113 3114 L
1113 3056 mt 1055 3114 L
1065 3046 mt 1123 3104 L
1123 3046 mt 1065 3104 L
1071 3025 mt 1129 3083 L
1129 3025 mt 1071 3083 L
1078 3021 mt 1136 3079 L
1136 3021 mt 1078 3079 L
1086 2986 mt 1144 3044 L
1144 2986 mt 1086 3044 L
1105 2982 mt 1163 3040 L
1163 2982 mt 1105 3040 L
1113 2954 mt 1171 3012 L
1171 2954 mt 1113 3012 L
1133 2964 mt 1191 3022 L
1191 2964 mt 1133 3022 L
1143 2943 mt 1201 3001 L
1201 2943 mt 1143 3001 L
1172 2978 mt 1230 3036 L
1230 2978 mt 1172 3036 L
1181 2929 mt 1239 2987 L
1239 2929 mt 1181 2987 L
1192 2917 mt 1250 2975 L
1250 2917 mt 1192 2975 L
1214 2937 mt 1272 2995 L
1272 2937 mt 1214 2995 L
1231 2919 mt 1289 2977 L
1289 2919 mt 1231 2977 L
1233 2897 mt 1291 2955 L
1291 2897 mt 1233 2955 L
1257 2903 mt 1315 2961 L
1315 2903 mt 1257 2961 L
1268 2907 mt 1326 2965 L
1326 2907 mt 1268 2965 L
1287 2900 mt 1345 2958 L
1345 2900 mt 1287 2958 L
1309 2893 mt 1367 2951 L
1367 2893 mt 1309 2951 L
1311 2861 mt 1369 2919 L
1369 2861 mt 1311 2919 L
1329 2867 mt 1387 2925 L
1387 2867 mt 1329 2925 L
1360 2900 mt 1418 2958 L
1418 2900 mt 1360 2958 L
1397 2906 mt 1455 2964 L
1455 2906 mt 1397 2964 L
1436 2927 mt 1494 2985 L
1494 2927 mt 1436 2985 L
1457 2903 mt 1515 2961 L
1515 2903 mt 1457 2961 L
1477 2877 mt 1535 2935 L
1535 2877 mt 1477 2935 L
1530 2878 mt 1588 2936 L
1588 2878 mt 1530 2936 L
1569 2874 mt 1627 2932 L
1627 2874 mt 1569 2932 L
1622 2873 mt 1680 2931 L
1680 2873 mt 1622 2931 L
1652 2862 mt 1710 2920 L
1710 2862 mt 1652 2920 L
1688 2863 mt 1746 2921 L
1746 2863 mt 1688 2921 L
1705 2847 mt 1763 2905 L
1763 2847 mt 1705 2905 L
1738 2850 mt 1796 2908 L
1796 2850 mt 1738 2908 L
1773 2827 mt 1831 2885 L
1831 2827 mt 1773 2885 L
1816 2830 mt 1874 2888 L
1874 2830 mt 1816 2888 L
1885 2823 mt 1943 2881 L
1943 2823 mt 1885 2881 L
1931 2821 mt 1989 2879 L
1989 2821 mt 1931 2879 L
2007 2826 mt 2065 2884 L
2065 2826 mt 2007 2884 L
2073 2826 mt 2131 2884 L
2131 2826 mt 2073 2884 L
2123 2813 mt 2181 2871 L
2181 2813 mt 2123 2871 L
2192 2812 mt 2250 2870 L
2250 2812 mt 2192 2870 L
2266 2815 mt 2324 2873 L
2324 2815 mt 2266 2873 L
2366 2828 mt 2424 2886 L
2424 2828 mt 2366 2886 L
2454 2828 mt 2512 2886 L
2512 2828 mt 2454 2886 L
2548 2828 mt 2606 2886 L
2606 2828 mt 2548 2886 L
2622 2819 mt 2680 2877 L
2680 2819 mt 2622 2877 L
2750 2827 mt 2808 2885 L
2808 2827 mt 2750 2885 L
2853 2827 mt 2911 2885 L
2911 2827 mt 2853 2885 L
2966 2815 mt 3024 2873 L
3024 2815 mt 2966 2873 L
3073 2806 mt 3131 2864 L
3131 2806 mt 3073 2864 L
3163 2795 mt 3221 2853 L
3221 2795 mt 3163 2853 L
3267 2796 mt 3325 2854 L
3325 2796 mt 3267 2854 L
3417 2802 mt 3475 2860 L
3475 2802 mt 3417 2860 L
3458 2782 mt 3516 2840 L
3516 2782 mt 3458 2840 L
3623 2788 mt 3681 2846 L
3681 2788 mt 3623 2846 L
3772 2794 mt 3830 2852 L
3830 2794 mt 3772 2852 L
3892 2788 mt 3950 2846 L
3950 2788 mt 3892 2846 L
4064 2796 mt 4122 2854 L
4122 2796 mt 4064 2854 L
4205 2793 mt 4263 2851 L
4263 2793 mt 4205 2851 L
4371 2786 mt 4429 2844 L
4429 2786 mt 4371 2844 L
4521 2777 mt 4579 2835 L
4579 2777 mt 4521 2835 L
gs 848 565 4238 3956 rc
gr

/c10 { 1.000000 0.000000 1.000000 sr} bdef
c10
 819 1748 mt  877 1806 L
 877 1748 mt  819 1806 L
 820 2177 mt  878 2235 L
 878 2177 mt  820 2235 L
 820 2242 mt  878 2300 L
 878 2242 mt  820 2300 L
 821 2380 mt  879 2438 L
 879 2380 mt  821 2438 L
 821 2263 mt  879 2321 L
 879 2263 mt  821 2321 L
 822 2452 mt  880 2510 L
 880 2452 mt  822 2510 L
 825 3031 mt  883 3089 L
 883 3031 mt  825 3089 L
 824 2776 mt  882 2834 L
 882 2776 mt  824 2834 L
 827 3058 mt  885 3116 L
 885 3058 mt  827 3116 L
 829 3182 mt  887 3240 L
 887 3182 mt  829 3240 L
 831 3355 mt  889 3413 L
 889 3355 mt  831 3413 L
 833 3377 mt  891 3435 L
 891 3377 mt  833 3435 L
 836 3491 mt  894 3549 L
 894 3491 mt  836 3549 L
 836 3472 mt  894 3530 L
 894 3472 mt  836 3530 L
 838 3553 mt  896 3611 L
 896 3553 mt  838 3611 L
 838 3457 mt  896 3515 L
 896 3457 mt  838 3515 L
 841 3522 mt  899 3580 L
 899 3522 mt  841 3580 L
 842 3480 mt  900 3538 L
 900 3480 mt  842 3538 L
 847 3569 mt  905 3627 L
 905 3569 mt  847 3627 L
 849 3556 mt  907 3614 L
 907 3556 mt  849 3614 L
 852 3565 mt  910 3623 L
 910 3565 mt  852 3623 L
 853 3541 mt  911 3599 L
 911 3541 mt  853 3599 L
 856 3473 mt  914 3531 L
 914 3473 mt  856 3531 L
 859 3535 mt  917 3593 L
 917 3535 mt  859 3593 L
 860 3546 mt  918 3604 L
 918 3546 mt  860 3604 L
 860 3460 mt  918 3518 L
 918 3460 mt  860 3518 L
 861 3438 mt  919 3496 L
 919 3438 mt  861 3496 L
 863 3391 mt  921 3449 L
 921 3391 mt  863 3449 L
 867 3423 mt  925 3481 L
 925 3423 mt  867 3481 L
 868 3358 mt  926 3416 L
 926 3358 mt  868 3416 L
 873 3383 mt  931 3441 L
 931 3383 mt  873 3441 L
 876 3315 mt  934 3373 L
 934 3315 mt  876 3373 L
 878 3303 mt  936 3361 L
 936 3303 mt  878 3361 L
 880 3326 mt  938 3384 L
 938 3326 mt  880 3384 L
 885 3342 mt  943 3400 L
 943 3342 mt  885 3400 L
 889 3353 mt  947 3411 L
 947 3353 mt  889 3411 L
 892 3357 mt  950 3415 L
 950 3357 mt  892 3415 L
 897 3346 mt  955 3404 L
 955 3346 mt  897 3404 L
 900 3328 mt  958 3386 L
 958 3328 mt  900 3386 L
 902 3312 mt  960 3370 L
 960 3312 mt  902 3370 L
 905 3289 mt  963 3347 L
 963 3289 mt  905 3347 L
 910 3268 mt  968 3326 L
 968 3268 mt  910 3326 L
 911 3222 mt  969 3280 L
 969 3222 mt  911 3280 L
 914 3176 mt  972 3234 L
 972 3176 mt  914 3234 L
 918 3159 mt  976 3217 L
 976 3159 mt  918 3217 L
 922 3145 mt  980 3203 L
 980 3145 mt  922 3203 L
 925 3123 mt  983 3181 L
 983 3123 mt  925 3181 L
 931 3150 mt  989 3208 L
 989 3150 mt  931 3208 L
 936 3166 mt  994 3224 L
 994 3166 mt  936 3224 L
 942 3128 mt 1000 3186 L
1000 3128 mt  942 3186 L
 949 3134 mt 1007 3192 L
1007 3134 mt  949 3192 L
 949 3095 mt 1007 3153 L
1007 3095 mt  949 3153 L
 957 3124 mt 1015 3182 L
1015 3124 mt  957 3182 L
 959 3122 mt 1017 3180 L
1017 3122 mt  959 3180 L
 972 3134 mt 1030 3192 L
1030 3134 mt  972 3192 L
 978 3119 mt 1036 3177 L
1036 3119 mt  978 3177 L
 982 3089 mt 1040 3147 L
1040 3089 mt  982 3147 L
 990 3098 mt 1048 3156 L
1048 3098 mt  990 3156 L
 997 3105 mt 1055 3163 L
1055 3105 mt  997 3163 L
1001 3059 mt 1059 3117 L
1059 3059 mt 1001 3117 L
1008 3050 mt 1066 3108 L
1066 3050 mt 1008 3108 L
1016 3042 mt 1074 3100 L
1074 3042 mt 1016 3100 L
1023 3023 mt 1081 3081 L
1081 3023 mt 1023 3081 L
1030 3011 mt 1088 3069 L
1088 3011 mt 1030 3069 L
1036 3005 mt 1094 3063 L
1094 3005 mt 1036 3063 L
1048 3034 mt 1106 3092 L
1106 3034 mt 1048 3092 L
1056 3018 mt 1114 3076 L
1114 3018 mt 1056 3076 L
1066 3001 mt 1124 3059 L
1124 3001 mt 1066 3059 L
1081 2974 mt 1139 3032 L
1139 2974 mt 1081 3032 L
1091 2987 mt 1149 3045 L
1149 2987 mt 1091 3045 L
1110 3002 mt 1168 3060 L
1168 3002 mt 1110 3060 L
1117 2967 mt 1175 3025 L
1175 2967 mt 1117 3025 L
1133 2953 mt 1191 3011 L
1191 2953 mt 1133 3011 L
1145 2930 mt 1203 2988 L
1203 2930 mt 1145 2988 L
1156 2898 mt 1214 2956 L
1214 2898 mt 1156 2956 L
1175 2915 mt 1233 2973 L
1233 2915 mt 1175 2973 L
1189 2908 mt 1247 2966 L
1247 2908 mt 1189 2966 L
1202 2895 mt 1260 2953 L
1260 2895 mt 1202 2953 L
1225 2891 mt 1283 2949 L
1283 2891 mt 1225 2949 L
1243 2890 mt 1301 2948 L
1301 2890 mt 1243 2948 L
1272 2905 mt 1330 2963 L
1330 2905 mt 1272 2963 L
1291 2881 mt 1349 2939 L
1349 2881 mt 1291 2939 L
1310 2874 mt 1368 2932 L
1368 2874 mt 1310 2932 L
1316 2850 mt 1374 2908 L
1374 2850 mt 1316 2908 L
1356 2853 mt 1414 2911 L
1414 2853 mt 1356 2911 L
1380 2824 mt 1438 2882 L
1438 2824 mt 1380 2882 L
1401 2810 mt 1459 2868 L
1459 2810 mt 1401 2868 L
1448 2837 mt 1506 2895 L
1506 2837 mt 1448 2895 L
1482 2835 mt 1540 2893 L
1540 2835 mt 1482 2893 L
1513 2840 mt 1571 2898 L
1571 2840 mt 1513 2898 L
1547 2838 mt 1605 2896 L
1605 2838 mt 1547 2896 L
1560 2815 mt 1618 2873 L
1618 2815 mt 1560 2873 L
1601 2818 mt 1659 2876 L
1659 2818 mt 1601 2876 L
1642 2821 mt 1700 2879 L
1700 2821 mt 1642 2879 L
1680 2802 mt 1738 2860 L
1738 2802 mt 1680 2860 L
1710 2793 mt 1768 2851 L
1768 2793 mt 1710 2851 L
1761 2797 mt 1819 2855 L
1819 2797 mt 1761 2855 L
1806 2784 mt 1864 2842 L
1864 2784 mt 1806 2842 L
1837 2768 mt 1895 2826 L
1895 2768 mt 1837 2826 L
1889 2767 mt 1947 2825 L
1947 2767 mt 1889 2825 L
1949 2770 mt 2007 2828 L
2007 2770 mt 1949 2828 L
2037 2774 mt 2095 2832 L
2095 2774 mt 2037 2832 L
2102 2782 mt 2160 2840 L
2160 2782 mt 2102 2840 L
2182 2773 mt 2240 2831 L
2240 2773 mt 2182 2831 L
2270 2781 mt 2328 2839 L
2328 2781 mt 2270 2839 L
2318 2754 mt 2376 2812 L
2376 2754 mt 2318 2812 L
2408 2752 mt 2466 2810 L
2466 2752 mt 2408 2810 L
2494 2745 mt 2552 2803 L
2552 2745 mt 2494 2803 L
2558 2751 mt 2616 2809 L
2616 2751 mt 2558 2809 L
2658 2751 mt 2716 2809 L
2716 2751 mt 2658 2809 L
2776 2764 mt 2834 2822 L
2834 2764 mt 2776 2822 L
2915 2775 mt 2973 2833 L
2973 2775 mt 2915 2833 L
3041 2787 mt 3099 2845 L
3099 2787 mt 3041 2845 L
3164 2793 mt 3222 2851 L
3222 2793 mt 3164 2851 L
3273 2800 mt 3331 2858 L
3331 2800 mt 3273 2858 L
3436 2805 mt 3494 2863 L
3494 2805 mt 3436 2863 L
3589 2808 mt 3647 2866 L
3647 2808 mt 3589 2866 L
3752 2808 mt 3810 2866 L
3810 2808 mt 3752 2866 L
3917 2806 mt 3975 2864 L
3975 2806 mt 3917 2864 L
4111 2816 mt 4169 2874 L
4169 2816 mt 4111 2874 L
4284 2809 mt 4342 2867 L
4342 2809 mt 4284 2867 L
4475 2808 mt 4533 2866 L
4533 2808 mt 4475 2866 L
4670 2806 mt 4728 2864 L
4728 2806 mt 4670 2864 L
2570 1722 mt 2628 1780 L
2628 1722 mt 2570 1780 L
2298 1638 mt 2356 1696 L
2356 1638 mt 2298 1696 L
2136 1580 mt 2194 1638 L
2194 1580 mt 2136 1638 L
2018 1497 mt 2076 1555 L
2076 1497 mt 2018 1555 L
gs 848 565 4238 3956 rc
gr

0 sg
%%IncludeResource: font Helvetica
/Helvetica /ISOLatin1Encoding 83.3333 FMSR

 836 4551 mt 
( ) s
5074  595 mt 
( ) s
8.33333 w
DO
SO
12.5 w
0.1 sg
 848 4520 mt 5085 4520 L
 848  564 mt 5085  564 L
 848 4520 mt  848  564 L
5085 4520 mt 5085  564 L
 848 4520 mt 5085 4520 L
 848 4520 mt  848  564 L
 848 4520 mt  848 4456 L
 848  564 mt  848  628 L
%%IncludeResource: font Helvetica
/Helvetica /ISOLatin1Encoding 133.333 FMSR

 811 4667 mt 
(0) s
1606 4520 mt 1606 4456 L
1606  564 mt 1606  628 L
1532 4667 mt 
(20) s
2365 4520 mt 2365 4456 L
2365  564 mt 2365  628 L
2291 4667 mt 
(40) s
3123 4520 mt 3123 4456 L
3123  564 mt 3123  628 L
3049 4667 mt 
(60) s
3882 4520 mt 3882 4456 L
3882  564 mt 3882  628 L
3808 4667 mt 
(80) s
4640 4520 mt 4640 4456 L
4640  564 mt 4640  628 L
4529 4667 mt 
(100) s
 848 4520 mt  911 4520 L
5085 4520 mt 5021 4520 L
 639 4569 mt 
(0.1) s
 848 3860 mt  911 3860 L
5085 3860 mt 5021 3860 L
 639 3909 mt 
(0.2) s
 848 3201 mt  911 3201 L
5085 3201 mt 5021 3201 L
 639 3250 mt 
(0.3) s
 848 2542 mt  911 2542 L
5085 2542 mt 5021 2542 L
 639 2591 mt 
(0.4) s
 848 1883 mt  911 1883 L
5085 1883 mt 5021 1883 L
 639 1932 mt 
(0.5) s
 848 1224 mt  911 1224 L
5085 1224 mt 5021 1224 L
 639 1273 mt 
(0.6) s
 848  564 mt  911  564 L
5085  564 mt 5021  564 L
 639  613 mt 
(0.7) s
 848 4520 mt 5085 4520 L
 848  564 mt 5085  564 L
 848 4520 mt  848  564 L
5085 4520 mt 5085  564 L
0 sg
%%IncludeResource: font Helvetica-Bold
/Helvetica-Bold /ISOLatin1Encoding 125 FMSR

2819 3722 mt 
(K) s
%%IncludeResource: font Helvetica-Bold
/Helvetica-Bold /ISOLatin1Encoding 100 FMSR

2909 3784 mt 
(2) s
%%IncludeResource: font Helvetica-Bold
/Helvetica-Bold /ISOLatin1Encoding 125 FMSR

2964 3722 mt 
( = 5K) s
%%IncludeResource: font Helvetica-Bold
/Helvetica-Bold /ISOLatin1Encoding 100 FMSR

3266 3784 mt 
(1) s
gs 2506 3610 922 871 rc
16.6667 w
gs 2572 3625 205 205 rc
2645 3698 mt 2703 3756 L
2703 3698 mt 2645 3756 L
gr

gr

16.6667 w
%%IncludeResource: font Helvetica-Bold
/Helvetica-Bold /ISOLatin1Encoding 125 FMSR

2819 3934 mt 
(K) s
%%IncludeResource: font Helvetica-Bold
/Helvetica-Bold /ISOLatin1Encoding 100 FMSR

2909 3996 mt 
(2) s
%%IncludeResource: font Helvetica-Bold
/Helvetica-Bold /ISOLatin1Encoding 125 FMSR

2964 3934 mt 
( = 10K) s
%%IncludeResource: font Helvetica-Bold
/Helvetica-Bold /ISOLatin1Encoding 100 FMSR

3335 3996 mt 
(1) s
gs 2506 3610 922 871 rc
gs 2572 3837 205 205 rc
c8
2645 3910 mt 2703 3968 L
2703 3910 mt 2645 3968 L
gr

c8
gr

c8
0 sg
%%IncludeResource: font Helvetica-Bold
/Helvetica-Bold /ISOLatin1Encoding 125 FMSR

2819 4145 mt 
(K) s
%%IncludeResource: font Helvetica-Bold
/Helvetica-Bold /ISOLatin1Encoding 100 FMSR

2909 4207 mt 
(2) s
%%IncludeResource: font Helvetica-Bold
/Helvetica-Bold /ISOLatin1Encoding 125 FMSR

2964 4145 mt 
( = 25K) s
%%IncludeResource: font Helvetica-Bold
/Helvetica-Bold /ISOLatin1Encoding 100 FMSR

3335 4207 mt 
(1) s
gs 2506 3610 922 871 rc
gs 2572 4048 205 205 rc
c9
2645 4121 mt 2703 4179 L
2703 4121 mt 2645 4179 L
gr

c9
gr

c9
0 sg
%%IncludeResource: font Helvetica-Bold
/Helvetica-Bold /ISOLatin1Encoding 125 FMSR

2819 4357 mt 
(K) s
%%IncludeResource: font Helvetica-Bold
/Helvetica-Bold /ISOLatin1Encoding 100 FMSR

2909 4419 mt 
(2) s
%%IncludeResource: font Helvetica-Bold
/Helvetica-Bold /ISOLatin1Encoding 125 FMSR

2964 4357 mt 
( = 50K) s
%%IncludeResource: font Helvetica-Bold
/Helvetica-Bold /ISOLatin1Encoding 100 FMSR

3335 4419 mt 
(1) s
gs 2506 3610 922 871 rc
gs 2572 4260 205 205 rc
c10
2645 4333 mt 2703 4391 L
2703 4333 mt 2645 4391 L
gr

c10
12.5 w
gr

12.5 w
c10

end %%Color Dict

eplot
%%EndObject

epage
end

showpage

%%Trailer
%%EOF
