%!PS-Adobe-3.0 EPSF-3.0
%%Creator: MATLAB, The MathWorks, Inc. Version 7.12.0.635 (R2011a). Operating System: Linux 2.6.32-358.6.2.el6.x86_64 #1 SMP Thu May 16 11:21:38 CDT 2013 x86_64.
%%Title: ./EPT_Tests_Spherical_GDVar_Stress_K0.eps
%%CreationDate: 08/16/2013  15:23:46
%%DocumentNeededFonts: Helvetica-Bold
%%+ Helvetica
%%DocumentProcessColors: Cyan Magenta Yellow Black
%%LanguageLevel: 2
%%Pages: 1
%%BoundingBox:    24    69   597   605
%%EndComments

%%BeginProlog
% MathWorks dictionary
/MathWorks 160 dict begin
% definition operators
/bdef {bind def} bind def
/ldef {load def} bind def
/xdef {exch def} bdef
/xstore {exch store} bdef
% operator abbreviations
/c  /clip ldef
/cc /concat ldef
/cp /closepath ldef
/gr /grestore ldef
/gs /gsave ldef
/mt /moveto ldef
/np /newpath ldef
/cm /currentmatrix ldef
/sm /setmatrix ldef
/rm /rmoveto ldef
/rl /rlineto ldef
/s {show newpath} bdef
/sc {setcmykcolor} bdef
/sr /setrgbcolor ldef
/sg /setgray ldef
/w /setlinewidth ldef
/j /setlinejoin ldef
/cap /setlinecap ldef
/rc {rectclip} bdef
/rf {rectfill} bdef
% page state control
/pgsv () def
/bpage {/pgsv save def} bdef
/epage {pgsv restore} bdef
/bplot /gsave ldef
/eplot {stroke grestore} bdef
% orientation switch
/portraitMode 0 def /landscapeMode 1 def /rotateMode 2 def
% coordinate system mappings
/dpi2point 0 def
% font control
/FontSize 0 def
/FMS {/FontSize xstore findfont [FontSize 0 0 FontSize neg 0 0]
  makefont setfont} bdef
/reencode {exch dup where {pop load} {pop StandardEncoding} ifelse
  exch dup 3 1 roll findfont dup length dict begin
  { 1 index /FID ne {def}{pop pop} ifelse } forall
  /Encoding exch def currentdict end definefont pop} bdef
/isroman {findfont /CharStrings get /Agrave known} bdef
/FMSR {3 1 roll 1 index dup isroman {reencode} {pop pop} ifelse
  exch FMS} bdef
/csm {1 dpi2point div -1 dpi2point div scale neg translate
 dup landscapeMode eq {pop -90 rotate}
  {rotateMode eq {90 rotate} if} ifelse} bdef
% line types: solid, dotted, dashed, dotdash
/SO { [] 0 setdash } bdef
/DO { [.5 dpi2point mul 4 dpi2point mul] 0 setdash } bdef
/DA { [6 dpi2point mul] 0 setdash } bdef
/DD { [.5 dpi2point mul 4 dpi2point mul 6 dpi2point mul 4
  dpi2point mul] 0 setdash } bdef
% macros for lines and objects
/L {lineto stroke} bdef
/MP {3 1 roll moveto 1 sub {rlineto} repeat} bdef
/AP {{rlineto} repeat} bdef
/PDlw -1 def
/W {/PDlw currentlinewidth def setlinewidth} def
/PP {closepath eofill} bdef
/DP {closepath stroke} bdef
/MR {4 -2 roll moveto dup  0 exch rlineto exch 0 rlineto
  neg 0 exch rlineto closepath} bdef
/FR {MR stroke} bdef
/PR {MR fill} bdef
/L1i {{currentfile picstr readhexstring pop} image} bdef
/tMatrix matrix def
/MakeOval {newpath tMatrix currentmatrix pop translate scale
0 0 1 0 360 arc tMatrix setmatrix} bdef
/FO {MakeOval stroke} bdef
/PO {MakeOval fill} bdef
/PD {currentlinewidth 2 div 0 360 arc fill
   PDlw -1 eq not {PDlw w /PDlw -1 def} if} def
/FA {newpath tMatrix currentmatrix pop translate scale
  0 0 1 5 -2 roll arc tMatrix setmatrix stroke} bdef
/PA {newpath tMatrix currentmatrix pop	translate 0 0 moveto scale
  0 0 1 5 -2 roll arc closepath tMatrix setmatrix fill} bdef
/FAn {newpath tMatrix currentmatrix pop translate scale
  0 0 1 5 -2 roll arcn tMatrix setmatrix stroke} bdef
/PAn {newpath tMatrix currentmatrix pop translate 0 0 moveto scale
  0 0 1 5 -2 roll arcn closepath tMatrix setmatrix fill} bdef
/vradius 0 def /hradius 0 def /lry 0 def
/lrx 0 def /uly 0 def /ulx 0 def /rad 0 def
/MRR {/vradius xdef /hradius xdef /lry xdef /lrx xdef /uly xdef
  /ulx xdef newpath tMatrix currentmatrix pop ulx hradius add uly
  vradius add translate hradius vradius scale 0 0 1 180 270 arc 
  tMatrix setmatrix lrx hradius sub uly vradius add translate
  hradius vradius scale 0 0 1 270 360 arc tMatrix setmatrix
  lrx hradius sub lry vradius sub translate hradius vradius scale
  0 0 1 0 90 arc tMatrix setmatrix ulx hradius add lry vradius sub
  translate hradius vradius scale 0 0 1 90 180 arc tMatrix setmatrix
  closepath} bdef
/FRR {MRR stroke } bdef
/PRR {MRR fill } bdef
/MlrRR {/lry xdef /lrx xdef /uly xdef /ulx xdef /rad lry uly sub 2 div def
  newpath tMatrix currentmatrix pop ulx rad add uly rad add translate
  rad rad scale 0 0 1 90 270 arc tMatrix setmatrix lrx rad sub lry rad
  sub translate rad rad scale 0 0 1 270 90 arc tMatrix setmatrix
  closepath} bdef
/FlrRR {MlrRR stroke } bdef
/PlrRR {MlrRR fill } bdef
/MtbRR {/lry xdef /lrx xdef /uly xdef /ulx xdef /rad lrx ulx sub 2 div def
  newpath tMatrix currentmatrix pop ulx rad add uly rad add translate
  rad rad scale 0 0 1 180 360 arc tMatrix setmatrix lrx rad sub lry rad
  sub translate rad rad scale 0 0 1 0 180 arc tMatrix setmatrix
  closepath} bdef
/FtbRR {MtbRR stroke } bdef
/PtbRR {MtbRR fill } bdef
/stri 6 array def /dtri 6 array def
/smat 6 array def /dmat 6 array def
/tmat1 6 array def /tmat2 6 array def /dif 3 array def
/asub {/ind2 exch def /ind1 exch def dup dup
  ind1 get exch ind2 get sub exch } bdef
/tri_to_matrix {
  2 0 asub 3 1 asub 4 0 asub 5 1 asub
  dup 0 get exch 1 get 7 -1 roll astore } bdef
/compute_transform {
  dmat dtri tri_to_matrix tmat1 invertmatrix 
  smat stri tri_to_matrix tmat2 concatmatrix } bdef
/ds {stri astore pop} bdef
/dt {dtri astore pop} bdef
/db {2 copy /cols xdef /rows xdef mul dup 3 mul string
  currentfile 
  3 index 0 eq {/ASCIIHexDecode filter}
  {/ASCII85Decode filter 3 index 2 eq {/RunLengthDecode filter} if }
  ifelse exch readstring pop
  dup 0 3 index getinterval /rbmap xdef
  dup 2 index dup getinterval /gbmap xdef
  1 index dup 2 mul exch getinterval /bbmap xdef pop pop}bdef
/it {gs np dtri aload pop moveto lineto lineto cp c
  cols rows 8 compute_transform 
  rbmap gbmap bbmap true 3 colorimage gr}bdef
/il {newpath moveto lineto stroke}bdef
currentdict end def
%%EndProlog

%%BeginSetup
MathWorks begin

0 cap

end
%%EndSetup

%%Page: 1 1
%%BeginPageSetup
%%PageBoundingBox:    24    69   597   605
MathWorks begin
bpage
%%EndPageSetup

%%BeginObject: obj1
bplot

/dpi2point 8.33333 def
portraitMode -0158 5475 csm

  366   430  4774  4469 rc
84 dict begin %Colortable dictionary
/c0 { 0.000000 0.000000 0.000000 sr} bdef
/c1 { 1.000000 1.000000 1.000000 sr} bdef
/c2 { 0.900000 0.000000 0.000000 sr} bdef
/c3 { 0.000000 0.820000 0.000000 sr} bdef
/c4 { 0.000000 0.000000 0.800000 sr} bdef
/c5 { 0.910000 0.820000 0.320000 sr} bdef
/c6 { 1.000000 0.260000 0.820000 sr} bdef
/c7 { 0.000000 0.820000 0.820000 sr} bdef
c0
1 j
1 sg
   0    0 5651 5651 rf
12.5 w
0 3956 4237 0 0 -3956 848 4520 4 MP
PP
-4237 0 0 3956 4237 0 0 -3956 848 4520 5 MP stroke
gs 848 565 4238 3956 rc
16.6667 w
gr

16.6667 w
0 sg
 819 3203 mt  877 3261 L
 877 3203 mt  819 3261 L
 819 3070 mt  877 3128 L
 877 3070 mt  819 3128 L
 820 2780 mt  878 2838 L
 878 2780 mt  820 2838 L
 821 2811 mt  879 2869 L
 879 2811 mt  821 2869 L
 821 2923 mt  879 2981 L
 879 2923 mt  821 2981 L
 823 1709 mt  881 1767 L
 881 1709 mt  823 1767 L
gs 848 565 4238 3956 rc
gr

 824 3234 mt  882 3292 L
 882 3234 mt  824 3292 L
 825 3171 mt  883 3229 L
 883 3171 mt  825 3229 L
 825 3079 mt  883 3137 L
 883 3079 mt  825 3137 L
 825 2990 mt  883 3048 L
 883 2990 mt  825 3048 L
 826 2963 mt  884 3021 L
 884 2963 mt  826 3021 L
 827 3020 mt  885 3078 L
 885 3020 mt  827 3078 L
 827 2824 mt  885 2882 L
 885 2824 mt  827 2882 L
 828 2746 mt  886 2804 L
 886 2746 mt  828 2804 L
 829 2679 mt  887 2737 L
 887 2679 mt  829 2737 L
 833 3137 mt  891 3195 L
 891 3137 mt  833 3195 L
 839 3228 mt  897 3286 L
 897 3228 mt  839 3286 L
 847 3137 mt  905 3195 L
 905 3137 mt  847 3195 L
 852 2989 mt  910 3047 L
 910 2989 mt  852 3047 L
 858 2969 mt  916 3027 L
 916 2969 mt  858 3027 L
 864 2954 mt  922 3012 L
 922 2954 mt  864 3012 L
 868 2900 mt  926 2958 L
 926 2900 mt  868 2958 L
 872 2865 mt  930 2923 L
 930 2865 mt  872 2923 L
 876 2832 mt  934 2890 L
 934 2832 mt  876 2890 L
 880 2810 mt  938 2868 L
 938 2810 mt  880 2868 L
 882 2769 mt  940 2827 L
 940 2769 mt  882 2827 L
 885 2774 mt  943 2832 L
 943 2774 mt  885 2832 L
 889 2763 mt  947 2821 L
 947 2763 mt  889 2821 L
 895 2757 mt  953 2815 L
 953 2757 mt  895 2815 L
 901 2737 mt  959 2795 L
 959 2737 mt  901 2795 L
 905 2728 mt  963 2786 L
 963 2728 mt  905 2786 L
 910 2726 mt  968 2784 L
 968 2726 mt  910 2784 L
 917 2732 mt  975 2790 L
 975 2732 mt  917 2790 L
 924 2737 mt  982 2795 L
 982 2737 mt  924 2795 L
 930 2719 mt  988 2777 L
 988 2719 mt  930 2777 L
 934 2707 mt  992 2765 L
 992 2707 mt  934 2765 L
 939 2694 mt  997 2752 L
 997 2694 mt  939 2752 L
 940 2635 mt  998 2693 L
 998 2635 mt  940 2693 L
 940 2630 mt  998 2688 L
 998 2630 mt  940 2688 L
 941 2634 mt  999 2692 L
 999 2634 mt  941 2692 L
 945 2625 mt 1003 2683 L
1003 2625 mt  945 2683 L
 949 2631 mt 1007 2689 L
1007 2631 mt  949 2689 L
 953 2600 mt 1011 2658 L
1011 2600 mt  953 2658 L
 959 2596 mt 1017 2654 L
1017 2596 mt  959 2654 L
 964 2597 mt 1022 2655 L
1022 2597 mt  964 2655 L
 968 2548 mt 1026 2606 L
1026 2548 mt  968 2606 L
 974 2583 mt 1032 2641 L
1032 2583 mt  974 2641 L
 979 2587 mt 1037 2645 L
1037 2587 mt  979 2645 L
 983 2581 mt 1041 2639 L
1041 2581 mt  983 2639 L
 989 2581 mt 1047 2639 L
1047 2581 mt  989 2639 L
 993 2562 mt 1051 2620 L
1051 2562 mt  993 2620 L
 996 2557 mt 1054 2615 L
1054 2557 mt  996 2615 L
 998 2560 mt 1056 2618 L
1056 2560 mt  998 2618 L
1004 2578 mt 1062 2636 L
1062 2578 mt 1004 2636 L
1010 2562 mt 1068 2620 L
1068 2562 mt 1010 2620 L
1016 2555 mt 1074 2613 L
1074 2555 mt 1016 2613 L
1022 2545 mt 1080 2603 L
1080 2545 mt 1022 2603 L
1026 2534 mt 1084 2592 L
1084 2534 mt 1026 2592 L
1029 2523 mt 1087 2581 L
1087 2523 mt 1029 2581 L
1032 2524 mt 1090 2582 L
1090 2524 mt 1032 2582 L
1039 2542 mt 1097 2600 L
1097 2542 mt 1039 2600 L
1044 2548 mt 1102 2606 L
1102 2548 mt 1044 2606 L
1052 2554 mt 1110 2612 L
1110 2554 mt 1052 2612 L
1058 2532 mt 1116 2590 L
1116 2532 mt 1058 2590 L
1063 2507 mt 1121 2565 L
1121 2507 mt 1063 2565 L
1068 2539 mt 1126 2597 L
1126 2539 mt 1068 2597 L
1068 2522 mt 1126 2580 L
1126 2522 mt 1068 2580 L
1069 2505 mt 1127 2563 L
1127 2505 mt 1069 2563 L
1075 2516 mt 1133 2574 L
1133 2516 mt 1075 2574 L
1077 2498 mt 1135 2556 L
1135 2498 mt 1077 2556 L
1081 2500 mt 1139 2558 L
1139 2500 mt 1081 2558 L
1086 2492 mt 1144 2550 L
1144 2492 mt 1086 2550 L
1090 2477 mt 1148 2535 L
1148 2477 mt 1090 2535 L
1094 2484 mt 1152 2542 L
1152 2484 mt 1094 2542 L
1099 2468 mt 1157 2526 L
1157 2468 mt 1099 2526 L
1102 2473 mt 1160 2531 L
1160 2473 mt 1102 2531 L
1106 2473 mt 1164 2531 L
1164 2473 mt 1106 2531 L
1113 2472 mt 1171 2530 L
1171 2472 mt 1113 2530 L
1116 2460 mt 1174 2518 L
1174 2460 mt 1116 2518 L
1122 2458 mt 1180 2516 L
1180 2458 mt 1122 2516 L
1132 2457 mt 1190 2515 L
1190 2457 mt 1132 2515 L
1141 2473 mt 1199 2531 L
1199 2473 mt 1141 2531 L
1148 2456 mt 1206 2514 L
1206 2456 mt 1148 2514 L
1152 2448 mt 1210 2506 L
1210 2448 mt 1152 2506 L
1154 2449 mt 1212 2507 L
1212 2449 mt 1154 2507 L
1157 2439 mt 1215 2497 L
1215 2439 mt 1157 2497 L
1162 2438 mt 1220 2496 L
1220 2438 mt 1162 2496 L
1166 2435 mt 1224 2493 L
1224 2435 mt 1166 2493 L
1173 2436 mt 1231 2494 L
1231 2436 mt 1173 2494 L
1176 2430 mt 1234 2488 L
1234 2430 mt 1176 2488 L
1184 2433 mt 1242 2491 L
1242 2433 mt 1184 2491 L
1192 2434 mt 1250 2492 L
1250 2434 mt 1192 2492 L
1200 2415 mt 1258 2473 L
1258 2415 mt 1200 2473 L
1208 2424 mt 1266 2482 L
1266 2424 mt 1208 2482 L
1216 2419 mt 1274 2477 L
1274 2419 mt 1216 2477 L
1222 2419 mt 1280 2477 L
1280 2419 mt 1222 2477 L
1230 2424 mt 1288 2482 L
1288 2424 mt 1230 2482 L
1239 2430 mt 1297 2488 L
1297 2430 mt 1239 2488 L
1241 2417 mt 1299 2475 L
1299 2417 mt 1241 2475 L
1246 2408 mt 1304 2466 L
1304 2408 mt 1246 2466 L
1251 2408 mt 1309 2466 L
1309 2408 mt 1251 2466 L
1255 2408 mt 1313 2466 L
1313 2408 mt 1255 2466 L
1260 2405 mt 1318 2463 L
1318 2405 mt 1260 2463 L
1268 2403 mt 1326 2461 L
1326 2403 mt 1268 2461 L
1275 2410 mt 1333 2468 L
1333 2410 mt 1275 2468 L
1282 2401 mt 1340 2459 L
1340 2401 mt 1282 2459 L
1290 2406 mt 1348 2464 L
1348 2406 mt 1290 2464 L
1293 2387 mt 1351 2445 L
1351 2387 mt 1293 2445 L
1298 2395 mt 1356 2453 L
1356 2395 mt 1298 2453 L
1307 2379 mt 1365 2437 L
1365 2379 mt 1307 2437 L
1312 2371 mt 1370 2429 L
1370 2371 mt 1312 2429 L
1321 2367 mt 1379 2425 L
1379 2367 mt 1321 2425 L
1329 2369 mt 1387 2427 L
1387 2369 mt 1329 2427 L
1334 2362 mt 1392 2420 L
1392 2362 mt 1334 2420 L
1341 2365 mt 1399 2423 L
1399 2365 mt 1341 2423 L
1345 2349 mt 1403 2407 L
1403 2349 mt 1345 2407 L
1355 2364 mt 1413 2422 L
1413 2364 mt 1355 2422 L
1363 2357 mt 1421 2415 L
1421 2357 mt 1363 2415 L
1372 2358 mt 1430 2416 L
1430 2358 mt 1372 2416 L
1382 2354 mt 1440 2412 L
1440 2354 mt 1382 2412 L
1390 2353 mt 1448 2411 L
1448 2353 mt 1390 2411 L
1399 2355 mt 1457 2413 L
1457 2355 mt 1399 2413 L
1410 2357 mt 1468 2415 L
1468 2357 mt 1410 2415 L
1419 2362 mt 1477 2420 L
1477 2362 mt 1419 2420 L
1423 2347 mt 1481 2405 L
1481 2347 mt 1423 2405 L
1423 2337 mt 1481 2395 L
1481 2337 mt 1423 2395 L
1433 2337 mt 1491 2395 L
1491 2337 mt 1433 2395 L
1443 2348 mt 1501 2406 L
1501 2348 mt 1443 2406 L
1451 2341 mt 1509 2399 L
1509 2341 mt 1451 2399 L
1459 2337 mt 1517 2395 L
1517 2337 mt 1459 2395 L
1471 2336 mt 1529 2394 L
1529 2336 mt 1471 2394 L
1483 2337 mt 1541 2395 L
1541 2337 mt 1483 2395 L
1491 2331 mt 1549 2389 L
1549 2331 mt 1491 2389 L
1501 2333 mt 1559 2391 L
1559 2333 mt 1501 2391 L
1510 2340 mt 1568 2398 L
1568 2340 mt 1510 2398 L
1515 2328 mt 1573 2386 L
1573 2328 mt 1515 2386 L
1523 2332 mt 1581 2390 L
1581 2332 mt 1523 2390 L
1530 2323 mt 1588 2381 L
1588 2323 mt 1530 2381 L
1536 2327 mt 1594 2385 L
1594 2327 mt 1536 2385 L
1545 2321 mt 1603 2379 L
1603 2321 mt 1545 2379 L
1553 2319 mt 1611 2377 L
1611 2319 mt 1553 2377 L
1559 2315 mt 1617 2373 L
1617 2315 mt 1559 2373 L
1571 2322 mt 1629 2380 L
1629 2322 mt 1571 2380 L
1580 2320 mt 1638 2378 L
1638 2320 mt 1580 2378 L
1594 2324 mt 1652 2382 L
1652 2324 mt 1594 2382 L
1607 2320 mt 1665 2378 L
1665 2320 mt 1607 2378 L
1618 2315 mt 1676 2373 L
1676 2315 mt 1618 2373 L
1627 2319 mt 1685 2377 L
1685 2319 mt 1627 2377 L
1637 2322 mt 1695 2380 L
1695 2322 mt 1637 2380 L
1644 2321 mt 1702 2379 L
1702 2321 mt 1644 2379 L
1653 2318 mt 1711 2376 L
1711 2318 mt 1653 2376 L
1660 2314 mt 1718 2372 L
1718 2314 mt 1660 2372 L
1668 2312 mt 1726 2370 L
1726 2312 mt 1668 2370 L
1672 2305 mt 1730 2363 L
1730 2305 mt 1672 2363 L
1687 2313 mt 1745 2371 L
1745 2313 mt 1687 2371 L
1698 2314 mt 1756 2372 L
1756 2314 mt 1698 2372 L
1712 2311 mt 1770 2369 L
1770 2311 mt 1712 2369 L
1722 2310 mt 1780 2368 L
1780 2310 mt 1722 2368 L
1737 2317 mt 1795 2375 L
1795 2317 mt 1737 2375 L
1744 2311 mt 1802 2369 L
1802 2311 mt 1744 2369 L
1751 2304 mt 1809 2362 L
1809 2304 mt 1751 2362 L
1760 2311 mt 1818 2369 L
1818 2311 mt 1760 2369 L
1769 2310 mt 1827 2368 L
1827 2310 mt 1769 2368 L
1779 2306 mt 1837 2364 L
1837 2306 mt 1779 2364 L
1791 2307 mt 1849 2365 L
1849 2307 mt 1791 2365 L
1797 2301 mt 1855 2359 L
1855 2301 mt 1797 2359 L
1813 2302 mt 1871 2360 L
1871 2302 mt 1813 2360 L
1833 2312 mt 1891 2370 L
1891 2312 mt 1833 2370 L
1844 2313 mt 1902 2371 L
1902 2313 mt 1844 2371 L
1851 2303 mt 1909 2361 L
1909 2303 mt 1851 2361 L
1857 2295 mt 1915 2353 L
1915 2295 mt 1857 2353 L
1879 2311 mt 1937 2369 L
1937 2311 mt 1879 2369 L
1888 2303 mt 1946 2361 L
1946 2303 mt 1888 2361 L
1896 2299 mt 1954 2357 L
1954 2299 mt 1896 2357 L
1903 2293 mt 1961 2351 L
1961 2293 mt 1903 2351 L
1921 2293 mt 1979 2351 L
1979 2293 mt 1921 2351 L
1937 2295 mt 1995 2353 L
1995 2295 mt 1937 2353 L
1950 2295 mt 2008 2353 L
2008 2295 mt 1950 2353 L
1957 2288 mt 2015 2346 L
2015 2288 mt 1957 2346 L
1964 2285 mt 2022 2343 L
2022 2285 mt 1964 2343 L
1979 2289 mt 2037 2347 L
2037 2289 mt 1979 2347 L
1993 2289 mt 2051 2347 L
2051 2289 mt 1993 2347 L
2002 2284 mt 2060 2342 L
2060 2284 mt 2002 2342 L
2018 2282 mt 2076 2340 L
2076 2282 mt 2018 2340 L
2027 2275 mt 2085 2333 L
2085 2275 mt 2027 2333 L
2045 2279 mt 2103 2337 L
2103 2279 mt 2045 2337 L
2053 2280 mt 2111 2338 L
2111 2280 mt 2053 2338 L
2065 2278 mt 2123 2336 L
2123 2278 mt 2065 2336 L
2077 2275 mt 2135 2333 L
2135 2275 mt 2077 2333 L
2090 2277 mt 2148 2335 L
2148 2277 mt 2090 2335 L
2107 2277 mt 2165 2335 L
2165 2277 mt 2107 2335 L
2120 2274 mt 2178 2332 L
2178 2274 mt 2120 2332 L
2132 2272 mt 2190 2330 L
2190 2272 mt 2132 2330 L
2147 2277 mt 2205 2335 L
2205 2277 mt 2147 2335 L
2156 2273 mt 2214 2331 L
2214 2273 mt 2156 2331 L
2171 2269 mt 2229 2327 L
2229 2269 mt 2171 2327 L
2179 2266 mt 2237 2324 L
2237 2266 mt 2179 2324 L
2186 2265 mt 2244 2323 L
2244 2265 mt 2186 2323 L
2196 2268 mt 2254 2326 L
2254 2268 mt 2196 2326 L
2213 2265 mt 2271 2323 L
2271 2265 mt 2213 2323 L
2225 2264 mt 2283 2322 L
2283 2264 mt 2225 2322 L
2238 2257 mt 2296 2315 L
2296 2257 mt 2238 2315 L
2251 2260 mt 2309 2318 L
2309 2260 mt 2251 2318 L
2264 2260 mt 2322 2318 L
2322 2260 mt 2264 2318 L
2275 2255 mt 2333 2313 L
2333 2255 mt 2275 2313 L
2288 2257 mt 2346 2315 L
2346 2257 mt 2288 2315 L
2303 2259 mt 2361 2317 L
2361 2259 mt 2303 2317 L
2315 2252 mt 2373 2310 L
2373 2252 mt 2315 2310 L
2328 2250 mt 2386 2308 L
2386 2250 mt 2328 2308 L
2335 2244 mt 2393 2302 L
2393 2244 mt 2335 2302 L
2350 2250 mt 2408 2308 L
2408 2250 mt 2350 2308 L
2359 2248 mt 2417 2306 L
2417 2248 mt 2359 2306 L
2374 2241 mt 2432 2299 L
2432 2241 mt 2374 2299 L
2394 2245 mt 2452 2303 L
2452 2245 mt 2394 2303 L
2409 2241 mt 2467 2299 L
2467 2241 mt 2409 2299 L
2417 2238 mt 2475 2296 L
2475 2238 mt 2417 2296 L
2439 2243 mt 2497 2301 L
2497 2243 mt 2439 2301 L
2452 2239 mt 2510 2297 L
2510 2239 mt 2452 2297 L
2465 2236 mt 2523 2294 L
2523 2236 mt 2465 2294 L
2484 2239 mt 2542 2297 L
2542 2239 mt 2484 2297 L
2494 2237 mt 2552 2295 L
2552 2237 mt 2494 2295 L
2508 2232 mt 2566 2290 L
2566 2232 mt 2508 2290 L
2528 2236 mt 2586 2294 L
2586 2236 mt 2528 2294 L
2543 2235 mt 2601 2293 L
2601 2235 mt 2543 2293 L
2559 2230 mt 2617 2288 L
2617 2230 mt 2559 2288 L
2577 2232 mt 2635 2290 L
2635 2232 mt 2577 2290 L
2594 2232 mt 2652 2290 L
2652 2232 mt 2594 2290 L
2609 2230 mt 2667 2288 L
2667 2230 mt 2609 2288 L
2623 2227 mt 2681 2285 L
2681 2227 mt 2623 2285 L
2642 2225 mt 2700 2283 L
2700 2225 mt 2642 2283 L
2657 2225 mt 2715 2283 L
2715 2225 mt 2657 2283 L
2675 2226 mt 2733 2284 L
2733 2226 mt 2675 2284 L
2690 2224 mt 2748 2282 L
2748 2224 mt 2690 2282 L
2707 2222 mt 2765 2280 L
2765 2222 mt 2707 2280 L
2726 2222 mt 2784 2280 L
2784 2222 mt 2726 2280 L
2741 2220 mt 2799 2278 L
2799 2220 mt 2741 2278 L
2759 2220 mt 2817 2278 L
2817 2220 mt 2759 2278 L
2777 2219 mt 2835 2277 L
2835 2219 mt 2777 2277 L
2794 2218 mt 2852 2276 L
2852 2218 mt 2794 2276 L
2811 2216 mt 2869 2274 L
2869 2216 mt 2811 2274 L
2827 2209 mt 2885 2267 L
2885 2209 mt 2827 2267 L
2846 2214 mt 2904 2272 L
2904 2214 mt 2846 2272 L
2861 2210 mt 2919 2268 L
2919 2210 mt 2861 2268 L
2875 2208 mt 2933 2266 L
2933 2208 mt 2875 2266 L
2899 2212 mt 2957 2270 L
2957 2212 mt 2899 2270 L
2918 2208 mt 2976 2266 L
2976 2208 mt 2918 2266 L
2937 2204 mt 2995 2262 L
2995 2204 mt 2937 2262 L
2955 2207 mt 3013 2265 L
3013 2207 mt 2955 2265 L
2967 2207 mt 3025 2265 L
3025 2207 mt 2967 2265 L
2986 2204 mt 3044 2262 L
3044 2204 mt 2986 2262 L
3007 2204 mt 3065 2262 L
3065 2204 mt 3007 2262 L
3024 2205 mt 3082 2263 L
3082 2205 mt 3024 2263 L
3047 2202 mt 3105 2260 L
3105 2202 mt 3047 2260 L
3064 2205 mt 3122 2263 L
3122 2205 mt 3064 2263 L
3073 2199 mt 3131 2257 L
3131 2199 mt 3073 2257 L
3099 2204 mt 3157 2262 L
3157 2204 mt 3099 2262 L
3116 2199 mt 3174 2257 L
3174 2199 mt 3116 2257 L
3135 2199 mt 3193 2257 L
3193 2199 mt 3135 2257 L
3157 2199 mt 3215 2257 L
3215 2199 mt 3157 2257 L
3171 2198 mt 3229 2256 L
3229 2198 mt 3171 2256 L
3192 2197 mt 3250 2255 L
3250 2197 mt 3192 2255 L
3213 2198 mt 3271 2256 L
3271 2198 mt 3213 2256 L
3228 2193 mt 3286 2251 L
3286 2193 mt 3228 2251 L
3253 2196 mt 3311 2254 L
3311 2196 mt 3253 2254 L
3272 2194 mt 3330 2252 L
3330 2194 mt 3272 2252 L
3291 2194 mt 3349 2252 L
3349 2194 mt 3291 2252 L
3306 2190 mt 3364 2248 L
3364 2190 mt 3306 2248 L
3323 2193 mt 3381 2251 L
3381 2193 mt 3323 2251 L
3343 2188 mt 3401 2246 L
3401 2188 mt 3343 2246 L
3369 2190 mt 3427 2248 L
3427 2190 mt 3369 2248 L
3383 2186 mt 3441 2244 L
3441 2186 mt 3383 2244 L
3393 2183 mt 3451 2241 L
3451 2183 mt 3393 2241 L
3408 2186 mt 3466 2244 L
3466 2186 mt 3408 2244 L
3440 2187 mt 3498 2245 L
3498 2187 mt 3440 2245 L
3464 2184 mt 3522 2242 L
3522 2184 mt 3464 2242 L
3485 2183 mt 3543 2241 L
3543 2183 mt 3485 2241 L
3501 2183 mt 3559 2241 L
3559 2183 mt 3501 2241 L
3523 2184 mt 3581 2242 L
3581 2184 mt 3523 2242 L
3543 2183 mt 3601 2241 L
3601 2183 mt 3543 2241 L
3565 2182 mt 3623 2240 L
3623 2182 mt 3565 2240 L
3586 2183 mt 3644 2241 L
3644 2183 mt 3586 2241 L
3605 2180 mt 3663 2238 L
3663 2180 mt 3605 2238 L
3630 2182 mt 3688 2240 L
3688 2182 mt 3630 2240 L
3646 2179 mt 3704 2237 L
3704 2179 mt 3646 2237 L
3668 2179 mt 3726 2237 L
3726 2179 mt 3668 2237 L
3689 2179 mt 3747 2237 L
3747 2179 mt 3689 2237 L
3710 2176 mt 3768 2234 L
3768 2176 mt 3710 2234 L
3737 2179 mt 3795 2237 L
3795 2179 mt 3737 2237 L
3761 2178 mt 3819 2236 L
3819 2178 mt 3761 2236 L
3781 2174 mt 3839 2232 L
3839 2174 mt 3781 2232 L
3801 2173 mt 3859 2231 L
3859 2173 mt 3801 2231 L
3821 2173 mt 3879 2231 L
3879 2173 mt 3821 2231 L
3841 2172 mt 3899 2230 L
3899 2172 mt 3841 2230 L
3871 2172 mt 3929 2230 L
3929 2172 mt 3871 2230 L
3898 2172 mt 3956 2230 L
3956 2172 mt 3898 2230 L
3918 2174 mt 3976 2232 L
3976 2174 mt 3918 2232 L
3935 2171 mt 3993 2229 L
3993 2171 mt 3935 2229 L
3954 2171 mt 4012 2229 L
4012 2171 mt 3954 2229 L
3981 2171 mt 4039 2229 L
4039 2171 mt 3981 2229 L
4008 2168 mt 4066 2226 L
4066 2168 mt 4008 2226 L
4031 2168 mt 4089 2226 L
4089 2168 mt 4031 2226 L
4052 2167 mt 4110 2225 L
4110 2167 mt 4052 2225 L
4073 2165 mt 4131 2223 L
4131 2165 mt 4073 2223 L
4095 2166 mt 4153 2224 L
4153 2166 mt 4095 2224 L
4119 2168 mt 4177 2226 L
4177 2168 mt 4119 2226 L
4151 2167 mt 4209 2225 L
4209 2167 mt 4151 2225 L
4168 2162 mt 4226 2220 L
4226 2162 mt 4168 2220 L
4191 2163 mt 4249 2221 L
4249 2163 mt 4191 2221 L
4216 2162 mt 4274 2220 L
4274 2162 mt 4216 2220 L
4242 2159 mt 4300 2217 L
4300 2159 mt 4242 2217 L
4267 2159 mt 4325 2217 L
4325 2159 mt 4267 2217 L
4282 2158 mt 4340 2216 L
4340 2158 mt 4282 2216 L
4292 2153 mt 4350 2211 L
4350 2153 mt 4292 2211 L
4336 2158 mt 4394 2216 L
4394 2158 mt 4336 2216 L
4365 2155 mt 4423 2213 L
4423 2155 mt 4365 2213 L
4393 2154 mt 4451 2212 L
4451 2154 mt 4393 2212 L
4406 2154 mt 4464 2212 L
4464 2154 mt 4406 2212 L
4424 2148 mt 4482 2206 L
4482 2148 mt 4424 2206 L
4465 2153 mt 4523 2211 L
4523 2153 mt 4465 2211 L
4487 2148 mt 4545 2206 L
4545 2148 mt 4487 2206 L
4518 2148 mt 4576 2206 L
4576 2148 mt 4518 2206 L
4536 2148 mt 4594 2206 L
4594 2148 mt 4536 2206 L
4560 2145 mt 4618 2203 L
4618 2145 mt 4560 2203 L
4588 2147 mt 4646 2205 L
4646 2147 mt 4588 2205 L
4615 2145 mt 4673 2203 L
4673 2145 mt 4615 2203 L
4647 2144 mt 4705 2202 L
4705 2144 mt 4647 2202 L
4670 2142 mt 4728 2200 L
4728 2142 mt 4670 2200 L
4181 2136 mt 4239 2194 L
4239 2136 mt 4181 2194 L
4264 2066 mt 4322 2124 L
4322 2066 mt 4264 2124 L
3569 1963 mt 3627 2021 L
3627 1963 mt 3569 2021 L
3586 1904 mt 3644 1962 L
3644 1904 mt 3586 1962 L
3310 1853 mt 3368 1911 L
3368 1853 mt 3310 1911 L
2937 1788 mt 2995 1846 L
2995 1788 mt 2937 1846 L
2954 1729 mt 3012 1787 L
3012 1729 mt 2954 1787 L
2623 1653 mt 2681 1711 L
2681 1653 mt 2623 1711 L
2406 1556 mt 2464 1614 L
2464 1556 mt 2406 1614 L
2366 1499 mt 2424 1557 L
2424 1499 mt 2366 1557 L
2139 1414 mt 2197 1472 L
2197 1414 mt 2139 1472 L
1950 1310 mt 2008 1368 L
2008 1310 mt 1950 1368 L
1892 1217 mt 1950 1275 L
1950 1217 mt 1892 1275 L
1767 1102 mt 1825 1160 L
1825 1102 mt 1767 1160 L
1598  956 mt 1656 1014 L
1656  956 mt 1598 1014 L
1509  803 mt 1567  861 L
1567  803 mt 1509  861 L
1449  650 mt 1507  708 L
1507  650 mt 1449  708 L
gs 848 565 4238 3956 rc
gr

gs 848 565 4238 3956 rc
gr

0.1 sg
%%IncludeResource: font Helvetica-Bold
/Helvetica-Bold /ISOLatin1Encoding 183.333 FMSR

2331 4841 mt 
(Vertical Stress) s
 559 3516 mt  -90 rotate
(Lateral Pressure Ratio) s
90 rotate
gs 848 565 4238 3956 rc
gr

/c8 { 1.000000 0.000000 0.000000 sr} bdef
c8
 820 3461 mt  878 3519 L
 878 3461 mt  820 3519 L
 821 3894 mt  879 3952 L
 879 3894 mt  821 3952 L
 822 3916 mt  880 3974 L
 880 3916 mt  822 3974 L
 824 4033 mt  882 4091 L
 882 4033 mt  824 4091 L
 825 4010 mt  883 4068 L
 883 4010 mt  825 4068 L
 826 3936 mt  884 3994 L
 884 3936 mt  826 3994 L
 827 3845 mt  885 3903 L
 885 3845 mt  827 3903 L
 827 3752 mt  885 3810 L
 885 3752 mt  827 3810 L
 826 3632 mt  884 3690 L
 884 3632 mt  826 3690 L
 829 3742 mt  887 3800 L
 887 3742 mt  829 3800 L
 829 3677 mt  887 3735 L
 887 3677 mt  829 3735 L
 830 3515 mt  888 3573 L
 888 3515 mt  830 3573 L
 831 3401 mt  889 3459 L
 889 3401 mt  831 3459 L
 833 3384 mt  891 3442 L
 891 3384 mt  833 3442 L
 839 3584 mt  897 3642 L
 897 3584 mt  839 3642 L
 847 3673 mt  905 3731 L
 905 3673 mt  847 3731 L
 856 3624 mt  914 3682 L
 914 3624 mt  856 3682 L
 865 3463 mt  923 3521 L
 923 3463 mt  865 3521 L
 871 3325 mt  929 3383 L
 929 3325 mt  871 3383 L
 874 3218 mt  932 3276 L
 932 3218 mt  874 3276 L
 882 3239 mt  940 3297 L
 940 3239 mt  882 3297 L
 890 3230 mt  948 3288 L
 948 3230 mt  890 3288 L
 895 3142 mt  953 3200 L
 953 3142 mt  895 3200 L
 900 3111 mt  958 3169 L
 958 3111 mt  900 3169 L
 907 3122 mt  965 3180 L
 965 3122 mt  907 3180 L
 914 3116 mt  972 3174 L
 972 3116 mt  914 3174 L
 921 3081 mt  979 3139 L
 979 3081 mt  921 3139 L
 928 3064 mt  986 3122 L
 986 3064 mt  928 3122 L
 933 3039 mt  991 3097 L
 991 3039 mt  933 3097 L
 939 3020 mt  997 3078 L
 997 3020 mt  939 3078 L
 946 3025 mt 1004 3083 L
1004 3025 mt  946 3083 L
 954 3037 mt 1012 3095 L
1012 3037 mt  954 3095 L
 961 3033 mt 1019 3091 L
1019 3033 mt  961 3091 L
 967 3012 mt 1025 3070 L
1025 3012 mt  967 3070 L
 971 2995 mt 1029 3053 L
1029 2995 mt  971 3053 L
 975 2983 mt 1033 3041 L
1033 2983 mt  975 3041 L
 979 2965 mt 1037 3023 L
1037 2965 mt  979 3023 L
 983 2954 mt 1041 3012 L
1041 2954 mt  983 3012 L
 986 2927 mt 1044 2985 L
1044 2927 mt  986 2985 L
 992 2933 mt 1050 2991 L
1050 2933 mt  992 2991 L
 998 2935 mt 1056 2993 L
1056 2935 mt  998 2993 L
1002 2926 mt 1060 2984 L
1060 2926 mt 1002 2984 L
1012 2941 mt 1070 2999 L
1070 2941 mt 1012 2999 L
1021 2949 mt 1079 3007 L
1079 2949 mt 1021 3007 L
1029 2940 mt 1087 2998 L
1087 2940 mt 1029 2998 L
1039 2947 mt 1097 3005 L
1097 2947 mt 1039 3005 L
1045 2932 mt 1103 2990 L
1103 2932 mt 1045 2990 L
1052 2930 mt 1110 2988 L
1110 2930 mt 1052 2988 L
1059 2920 mt 1117 2978 L
1117 2920 mt 1059 2978 L
1062 2905 mt 1120 2963 L
1120 2905 mt 1062 2963 L
1066 2894 mt 1124 2952 L
1124 2894 mt 1066 2952 L
1068 2879 mt 1126 2937 L
1126 2879 mt 1068 2937 L
1072 2873 mt 1130 2931 L
1130 2873 mt 1072 2931 L
1077 2873 mt 1135 2931 L
1135 2873 mt 1077 2931 L
1082 2870 mt 1140 2928 L
1140 2870 mt 1082 2928 L
1090 2867 mt 1148 2925 L
1148 2867 mt 1090 2925 L
1099 2869 mt 1157 2927 L
1157 2869 mt 1099 2927 L
1106 2865 mt 1164 2923 L
1164 2865 mt 1106 2923 L
1113 2859 mt 1171 2917 L
1171 2859 mt 1113 2917 L
1123 2864 mt 1181 2922 L
1181 2864 mt 1123 2922 L
1130 2861 mt 1188 2919 L
1188 2861 mt 1130 2919 L
1138 2862 mt 1196 2920 L
1196 2862 mt 1138 2920 L
1148 2863 mt 1206 2921 L
1206 2863 mt 1148 2921 L
1152 2857 mt 1210 2915 L
1210 2857 mt 1152 2915 L
1157 2839 mt 1215 2897 L
1215 2839 mt 1157 2897 L
1162 2835 mt 1220 2893 L
1220 2835 mt 1162 2893 L
1167 2831 mt 1225 2889 L
1225 2831 mt 1167 2889 L
1173 2828 mt 1231 2886 L
1231 2828 mt 1173 2886 L
1179 2824 mt 1237 2882 L
1237 2824 mt 1179 2882 L
1183 2813 mt 1241 2871 L
1241 2813 mt 1183 2871 L
1188 2806 mt 1246 2864 L
1246 2806 mt 1188 2864 L
1194 2800 mt 1252 2858 L
1252 2800 mt 1194 2858 L
1203 2811 mt 1261 2869 L
1261 2811 mt 1203 2869 L
1207 2800 mt 1265 2858 L
1265 2800 mt 1207 2858 L
1213 2798 mt 1271 2856 L
1271 2798 mt 1213 2856 L
1222 2800 mt 1280 2858 L
1280 2800 mt 1222 2858 L
1231 2801 mt 1289 2859 L
1289 2801 mt 1231 2859 L
1243 2810 mt 1301 2868 L
1301 2810 mt 1243 2868 L
1252 2812 mt 1310 2870 L
1310 2812 mt 1252 2870 L
1257 2803 mt 1315 2861 L
1315 2803 mt 1257 2861 L
1263 2793 mt 1321 2851 L
1321 2793 mt 1263 2851 L
1268 2788 mt 1326 2846 L
1326 2788 mt 1268 2846 L
1270 2770 mt 1328 2828 L
1328 2770 mt 1270 2828 L
1274 2761 mt 1332 2819 L
1332 2761 mt 1274 2819 L
1279 2757 mt 1337 2815 L
1337 2757 mt 1279 2815 L
1284 2754 mt 1342 2812 L
1342 2754 mt 1284 2812 L
1291 2746 mt 1349 2804 L
1349 2746 mt 1291 2804 L
1300 2749 mt 1358 2807 L
1358 2749 mt 1300 2807 L
1307 2747 mt 1365 2805 L
1365 2747 mt 1307 2805 L
1318 2752 mt 1376 2810 L
1376 2752 mt 1318 2810 L
1325 2748 mt 1383 2806 L
1383 2748 mt 1325 2806 L
1339 2759 mt 1397 2817 L
1397 2759 mt 1339 2817 L
1348 2761 mt 1406 2819 L
1406 2761 mt 1348 2819 L
1357 2755 mt 1415 2813 L
1415 2755 mt 1357 2813 L
1364 2750 mt 1422 2808 L
1422 2750 mt 1364 2808 L
1372 2748 mt 1430 2806 L
1430 2748 mt 1372 2806 L
1379 2745 mt 1437 2803 L
1437 2745 mt 1379 2803 L
1381 2737 mt 1439 2795 L
1439 2737 mt 1381 2795 L
1386 2727 mt 1444 2785 L
1444 2727 mt 1386 2785 L
1396 2724 mt 1454 2782 L
1454 2724 mt 1396 2782 L
1406 2726 mt 1464 2784 L
1464 2726 mt 1406 2784 L
1417 2727 mt 1475 2785 L
1475 2727 mt 1417 2785 L
1425 2725 mt 1483 2783 L
1483 2725 mt 1425 2783 L
1434 2722 mt 1492 2780 L
1492 2722 mt 1434 2780 L
1446 2723 mt 1504 2781 L
1504 2723 mt 1446 2781 L
1455 2723 mt 1513 2781 L
1513 2723 mt 1455 2781 L
1462 2718 mt 1520 2776 L
1520 2718 mt 1462 2776 L
1465 2706 mt 1523 2764 L
1523 2706 mt 1465 2764 L
1472 2702 mt 1530 2760 L
1530 2702 mt 1472 2760 L
1484 2706 mt 1542 2764 L
1542 2706 mt 1484 2764 L
1493 2703 mt 1551 2761 L
1551 2703 mt 1493 2761 L
1502 2701 mt 1560 2759 L
1560 2701 mt 1502 2759 L
1513 2700 mt 1571 2758 L
1571 2700 mt 1513 2758 L
1522 2696 mt 1580 2754 L
1580 2696 mt 1522 2754 L
1532 2695 mt 1590 2753 L
1590 2695 mt 1532 2753 L
1540 2692 mt 1598 2750 L
1598 2692 mt 1540 2750 L
1549 2693 mt 1607 2751 L
1607 2693 mt 1549 2751 L
1556 2690 mt 1614 2748 L
1614 2690 mt 1556 2748 L
1562 2686 mt 1620 2744 L
1620 2686 mt 1562 2744 L
1565 2677 mt 1623 2735 L
1623 2677 mt 1565 2735 L
1565 2660 mt 1623 2718 L
1623 2660 mt 1565 2718 L
1581 2670 mt 1639 2728 L
1639 2670 mt 1581 2728 L
1597 2678 mt 1655 2736 L
1655 2678 mt 1597 2736 L
1607 2675 mt 1665 2733 L
1665 2675 mt 1607 2733 L
1624 2680 mt 1682 2738 L
1682 2680 mt 1624 2738 L
1634 2678 mt 1692 2736 L
1692 2678 mt 1634 2736 L
1644 2676 mt 1702 2734 L
1702 2676 mt 1644 2734 L
1651 2675 mt 1709 2733 L
1709 2675 mt 1651 2733 L
1658 2670 mt 1716 2728 L
1716 2670 mt 1658 2728 L
1664 2665 mt 1722 2723 L
1722 2665 mt 1664 2723 L
1673 2662 mt 1731 2720 L
1731 2662 mt 1673 2720 L
1684 2662 mt 1742 2720 L
1742 2662 mt 1684 2720 L
1697 2667 mt 1755 2725 L
1755 2667 mt 1697 2725 L
1706 2663 mt 1764 2721 L
1764 2663 mt 1706 2721 L
1719 2663 mt 1777 2721 L
1777 2663 mt 1719 2721 L
1732 2664 mt 1790 2722 L
1790 2664 mt 1732 2722 L
1745 2667 mt 1803 2725 L
1803 2667 mt 1745 2725 L
1754 2666 mt 1812 2724 L
1812 2666 mt 1754 2724 L
1759 2659 mt 1817 2717 L
1817 2659 mt 1759 2717 L
1770 2658 mt 1828 2716 L
1828 2658 mt 1770 2716 L
1782 2656 mt 1840 2714 L
1840 2656 mt 1782 2714 L
1795 2657 mt 1853 2715 L
1853 2657 mt 1795 2715 L
1804 2653 mt 1862 2711 L
1862 2653 mt 1804 2711 L
1815 2652 mt 1873 2710 L
1873 2652 mt 1815 2710 L
1828 2652 mt 1886 2710 L
1886 2652 mt 1828 2710 L
1841 2651 mt 1899 2709 L
1899 2651 mt 1841 2709 L
1857 2650 mt 1915 2708 L
1915 2650 mt 1857 2708 L
1872 2653 mt 1930 2711 L
1930 2653 mt 1872 2711 L
1884 2653 mt 1942 2711 L
1942 2653 mt 1884 2711 L
1892 2650 mt 1950 2708 L
1950 2650 mt 1892 2708 L
1902 2649 mt 1960 2707 L
1960 2649 mt 1902 2707 L
1916 2651 mt 1974 2709 L
1974 2651 mt 1916 2709 L
1932 2655 mt 1990 2713 L
1990 2655 mt 1932 2713 L
1945 2653 mt 2003 2711 L
2003 2653 mt 1945 2711 L
1958 2650 mt 2016 2708 L
2016 2650 mt 1958 2708 L
1973 2651 mt 2031 2709 L
2031 2651 mt 1973 2709 L
1986 2651 mt 2044 2709 L
2044 2651 mt 1986 2709 L
1999 2650 mt 2057 2708 L
2057 2650 mt 1999 2708 L
2011 2641 mt 2069 2699 L
2069 2641 mt 2011 2699 L
2027 2645 mt 2085 2703 L
2085 2645 mt 2027 2703 L
2041 2643 mt 2099 2701 L
2099 2643 mt 2041 2701 L
2054 2641 mt 2112 2699 L
2112 2641 mt 2054 2699 L
2067 2639 mt 2125 2697 L
2125 2639 mt 2067 2697 L
2079 2636 mt 2137 2694 L
2137 2636 mt 2079 2694 L
2091 2633 mt 2149 2691 L
2149 2633 mt 2091 2691 L
2103 2630 mt 2161 2688 L
2161 2630 mt 2103 2688 L
2120 2631 mt 2178 2689 L
2178 2631 mt 2120 2689 L
2136 2632 mt 2194 2690 L
2194 2632 mt 2136 2690 L
2150 2628 mt 2208 2686 L
2208 2628 mt 2150 2686 L
2162 2626 mt 2220 2684 L
2220 2626 mt 2162 2684 L
2178 2626 mt 2236 2684 L
2236 2626 mt 2178 2684 L
2194 2627 mt 2252 2685 L
2252 2627 mt 2194 2685 L
2207 2626 mt 2265 2684 L
2265 2626 mt 2207 2684 L
2220 2624 mt 2278 2682 L
2278 2624 mt 2220 2682 L
2234 2621 mt 2292 2679 L
2292 2621 mt 2234 2679 L
2252 2622 mt 2310 2680 L
2310 2622 mt 2252 2680 L
2266 2621 mt 2324 2679 L
2324 2621 mt 2266 2679 L
2281 2619 mt 2339 2677 L
2339 2619 mt 2281 2677 L
2298 2620 mt 2356 2678 L
2356 2620 mt 2298 2678 L
2312 2620 mt 2370 2678 L
2370 2620 mt 2312 2678 L
2324 2615 mt 2382 2673 L
2382 2615 mt 2324 2673 L
2338 2614 mt 2396 2672 L
2396 2614 mt 2338 2672 L
2357 2618 mt 2415 2676 L
2415 2618 mt 2357 2676 L
2371 2617 mt 2429 2675 L
2429 2617 mt 2371 2675 L
2385 2614 mt 2443 2672 L
2443 2614 mt 2385 2672 L
2401 2612 mt 2459 2670 L
2459 2612 mt 2401 2670 L
2416 2614 mt 2474 2672 L
2474 2614 mt 2416 2672 L
2432 2614 mt 2490 2672 L
2490 2614 mt 2432 2672 L
2449 2614 mt 2507 2672 L
2507 2614 mt 2449 2672 L
2459 2611 mt 2517 2669 L
2517 2611 mt 2459 2669 L
2470 2608 mt 2528 2666 L
2528 2608 mt 2470 2666 L
2487 2613 mt 2545 2671 L
2545 2613 mt 2487 2671 L
2504 2610 mt 2562 2668 L
2562 2610 mt 2504 2668 L
2522 2610 mt 2580 2668 L
2580 2610 mt 2522 2668 L
2541 2610 mt 2599 2668 L
2599 2610 mt 2541 2668 L
2556 2608 mt 2614 2666 L
2614 2608 mt 2556 2666 L
2570 2605 mt 2628 2663 L
2628 2605 mt 2570 2663 L
2583 2603 mt 2641 2661 L
2641 2603 mt 2583 2661 L
2599 2603 mt 2657 2661 L
2657 2603 mt 2599 2661 L
2613 2600 mt 2671 2658 L
2671 2600 mt 2613 2658 L
2637 2602 mt 2695 2660 L
2695 2602 mt 2637 2660 L
2651 2596 mt 2709 2654 L
2709 2596 mt 2651 2654 L
2669 2595 mt 2727 2653 L
2727 2595 mt 2669 2653 L
2680 2594 mt 2738 2652 L
2738 2594 mt 2680 2652 L
2688 2590 mt 2746 2648 L
2746 2590 mt 2688 2648 L
2701 2587 mt 2759 2645 L
2759 2587 mt 2701 2645 L
2723 2587 mt 2781 2645 L
2781 2587 mt 2723 2645 L
2748 2588 mt 2806 2646 L
2806 2588 mt 2748 2646 L
2766 2584 mt 2824 2642 L
2824 2584 mt 2766 2642 L
2782 2583 mt 2840 2641 L
2840 2583 mt 2782 2641 L
2793 2578 mt 2851 2636 L
2851 2578 mt 2793 2636 L
2809 2579 mt 2867 2637 L
2867 2579 mt 2809 2637 L
2816 2571 mt 2874 2629 L
2874 2571 mt 2816 2629 L
2835 2573 mt 2893 2631 L
2893 2573 mt 2835 2631 L
2870 2579 mt 2928 2637 L
2928 2579 mt 2870 2637 L
2889 2575 mt 2947 2633 L
2947 2575 mt 2889 2633 L
2900 2572 mt 2958 2630 L
2958 2572 mt 2900 2630 L
2905 2567 mt 2963 2625 L
2963 2567 mt 2905 2625 L
2916 2564 mt 2974 2622 L
2974 2564 mt 2916 2622 L
2942 2568 mt 3000 2626 L
3000 2568 mt 2942 2626 L
2969 2569 mt 3027 2627 L
3027 2569 mt 2969 2627 L
2992 2567 mt 3050 2625 L
3050 2567 mt 2992 2625 L
3006 2565 mt 3064 2623 L
3064 2565 mt 3006 2623 L
3020 2562 mt 3078 2620 L
3078 2562 mt 3020 2620 L
3029 2556 mt 3087 2614 L
3087 2556 mt 3029 2614 L
3051 2555 mt 3109 2613 L
3109 2555 mt 3051 2613 L
3073 2553 mt 3131 2611 L
3131 2553 mt 3073 2611 L
3101 2555 mt 3159 2613 L
3159 2555 mt 3101 2613 L
3121 2554 mt 3179 2612 L
3179 2554 mt 3121 2612 L
3130 2551 mt 3188 2609 L
3188 2551 mt 3130 2609 L
3149 2549 mt 3207 2607 L
3207 2549 mt 3149 2607 L
3170 2549 mt 3228 2607 L
3228 2549 mt 3170 2607 L
3189 2546 mt 3247 2604 L
3247 2546 mt 3189 2604 L
3213 2546 mt 3271 2604 L
3271 2546 mt 3213 2604 L
3226 2542 mt 3284 2600 L
3284 2542 mt 3226 2600 L
3249 2543 mt 3307 2601 L
3307 2543 mt 3249 2601 L
3269 2540 mt 3327 2598 L
3327 2540 mt 3269 2598 L
3292 2541 mt 3350 2599 L
3350 2541 mt 3292 2599 L
3311 2540 mt 3369 2598 L
3369 2540 mt 3311 2598 L
3331 2537 mt 3389 2595 L
3389 2537 mt 3331 2595 L
3351 2536 mt 3409 2594 L
3409 2536 mt 3351 2594 L
3370 2532 mt 3428 2590 L
3428 2532 mt 3370 2590 L
3391 2531 mt 3449 2589 L
3449 2531 mt 3391 2589 L
3420 2533 mt 3478 2591 L
3478 2533 mt 3420 2591 L
3439 2530 mt 3497 2588 L
3497 2530 mt 3439 2588 L
3457 2529 mt 3515 2587 L
3515 2529 mt 3457 2587 L
3472 2526 mt 3530 2584 L
3530 2526 mt 3472 2584 L
3494 2525 mt 3552 2583 L
3552 2525 mt 3494 2583 L
3517 2522 mt 3575 2580 L
3575 2522 mt 3517 2580 L
3542 2520 mt 3600 2578 L
3600 2520 mt 3542 2578 L
3567 2523 mt 3625 2581 L
3625 2523 mt 3567 2581 L
3583 2521 mt 3641 2579 L
3641 2521 mt 3583 2579 L
3596 2515 mt 3654 2573 L
3654 2515 mt 3596 2573 L
3623 2517 mt 3681 2575 L
3681 2517 mt 3623 2575 L
3649 2516 mt 3707 2574 L
3707 2516 mt 3649 2574 L
3671 2516 mt 3729 2574 L
3729 2516 mt 3671 2574 L
3693 2514 mt 3751 2572 L
3751 2514 mt 3693 2572 L
3711 2513 mt 3769 2571 L
3769 2513 mt 3711 2571 L
3732 2509 mt 3790 2567 L
3790 2509 mt 3732 2567 L
3757 2510 mt 3815 2568 L
3815 2510 mt 3757 2568 L
3784 2507 mt 3842 2565 L
3842 2507 mt 3784 2565 L
3808 2509 mt 3866 2567 L
3866 2509 mt 3808 2567 L
3827 2507 mt 3885 2565 L
3885 2507 mt 3827 2565 L
3849 2503 mt 3907 2561 L
3907 2503 mt 3849 2561 L
3870 2500 mt 3928 2558 L
3928 2500 mt 3870 2558 L
3900 2501 mt 3958 2559 L
3958 2501 mt 3900 2559 L
3920 2496 mt 3978 2554 L
3978 2496 mt 3920 2554 L
3940 2494 mt 3998 2552 L
3998 2494 mt 3940 2552 L
3958 2490 mt 4016 2548 L
4016 2490 mt 3958 2548 L
3983 2489 mt 4041 2547 L
4041 2489 mt 3983 2547 L
4015 2490 mt 4073 2548 L
4073 2490 mt 4015 2548 L
4037 2486 mt 4095 2544 L
4095 2486 mt 4037 2544 L
4058 2484 mt 4116 2542 L
4116 2484 mt 4058 2542 L
4072 2482 mt 4130 2540 L
4130 2482 mt 4072 2540 L
4095 2481 mt 4153 2539 L
4153 2481 mt 4095 2539 L
4135 2483 mt 4193 2541 L
4193 2483 mt 4135 2541 L
4154 2479 mt 4212 2537 L
4212 2479 mt 4154 2537 L
4174 2478 mt 4232 2536 L
4232 2478 mt 4174 2536 L
4195 2475 mt 4253 2533 L
4253 2475 mt 4195 2533 L
4215 2471 mt 4273 2529 L
4273 2471 mt 4215 2529 L
4251 2471 mt 4309 2529 L
4309 2471 mt 4251 2529 L
4274 2469 mt 4332 2527 L
4332 2469 mt 4274 2527 L
4295 2464 mt 4353 2522 L
4353 2464 mt 4295 2522 L
4320 2465 mt 4378 2523 L
4378 2465 mt 4320 2523 L
4337 2462 mt 4395 2520 L
4395 2462 mt 4337 2520 L
4368 2464 mt 4426 2522 L
4426 2464 mt 4368 2522 L
4401 2463 mt 4459 2521 L
4459 2463 mt 4401 2521 L
4421 2460 mt 4479 2518 L
4479 2460 mt 4421 2518 L
4437 2457 mt 4495 2515 L
4495 2457 mt 4437 2515 L
4463 2454 mt 4521 2512 L
4521 2454 mt 4463 2512 L
4494 2456 mt 4552 2514 L
4552 2456 mt 4494 2514 L
4520 2454 mt 4578 2512 L
4578 2454 mt 4520 2512 L
4546 2453 mt 4604 2511 L
4604 2453 mt 4546 2511 L
4568 2451 mt 4626 2509 L
4626 2451 mt 4568 2509 L
4591 2448 mt 4649 2506 L
4649 2448 mt 4591 2506 L
4620 2448 mt 4678 2506 L
4678 2448 mt 4620 2506 L
4646 2446 mt 4704 2504 L
4704 2446 mt 4646 2504 L
4674 2445 mt 4732 2503 L
4732 2445 mt 4674 2503 L
3442 2017 mt 3500 2075 L
3500 2017 mt 3442 2075 L
2976 1821 mt 3034 1879 L
3034 1821 mt 2976 1879 L
2818 1772 mt 2876 1830 L
2876 1772 mt 2818 1830 L
2596 1674 mt 2654 1732 L
2654 1674 mt 2596 1732 L
2424 1579 mt 2482 1637 L
2482 1579 mt 2424 1637 L
2290 1480 mt 2348 1538 L
2348 1480 mt 2290 1538 L
2126 1396 mt 2184 1454 L
2184 1396 mt 2126 1454 L
1985 1290 mt 2043 1348 L
2043 1290 mt 1985 1348 L
1878 1197 mt 1936 1255 L
1936 1197 mt 1878 1255 L
1757 1087 mt 1815 1145 L
1815 1087 mt 1757 1145 L
1638  979 mt 1696 1037 L
1696  979 mt 1638 1037 L
1543  840 mt 1601  898 L
1601  840 mt 1543  898 L
1459  693 mt 1517  751 L
1517  693 mt 1459  751 L
gs 848 565 4238 3956 rc
gr

gs 848 565 4238 3956 rc
gr

/c9 { 0.000000 0.000000 1.000000 sr} bdef
c9
 820 4220 mt  878 4278 L
 878 4220 mt  820 4278 L
 822 4345 mt  880 4403 L
 880 4345 mt  822 4403 L
 823 4341 mt  881 4399 L
 881 4341 mt  823 4399 L
 825 4342 mt  883 4400 L
 883 4342 mt  825 4400 L
 827 4320 mt  885 4378 L
 885 4320 mt  827 4378 L
 828 4280 mt  886 4338 L
 886 4280 mt  828 4338 L
 830 4243 mt  888 4301 L
 888 4243 mt  830 4301 L
 830 4191 mt  888 4249 L
 888 4191 mt  830 4249 L
 832 4171 mt  890 4229 L
 890 4171 mt  832 4229 L
 834 4161 mt  892 4219 L
 892 4161 mt  834 4219 L
 836 4149 mt  894 4207 L
 894 4149 mt  836 4207 L
 838 4128 mt  896 4186 L
 896 4128 mt  838 4186 L
 841 4116 mt  899 4174 L
 899 4116 mt  841 4174 L
 844 4093 mt  902 4151 L
 902 4093 mt  844 4151 L
 850 4044 mt  908 4102 L
 908 4044 mt  850 4102 L
 861 4078 mt  919 4136 L
 919 4078 mt  861 4136 L
 873 4097 mt  931 4155 L
 931 4097 mt  873 4155 L
 884 4033 mt  942 4091 L
 942 4033 mt  884 4091 L
 893 3951 mt  951 4009 L
 951 3951 mt  893 4009 L
 900 3871 mt  958 3929 L
 958 3871 mt  900 3929 L
 911 3844 mt  969 3902 L
 969 3844 mt  911 3902 L
 921 3804 mt  979 3862 L
 979 3804 mt  921 3862 L
 931 3765 mt  989 3823 L
 989 3765 mt  931 3823 L
 940 3731 mt  998 3789 L
 998 3731 mt  940 3789 L
 948 3699 mt 1006 3757 L
1006 3699 mt  948 3757 L
 955 3661 mt 1013 3719 L
1013 3661 mt  955 3719 L
 961 3642 mt 1019 3700 L
1019 3642 mt  961 3700 L
 970 3618 mt 1028 3676 L
1028 3618 mt  970 3676 L
 981 3610 mt 1039 3668 L
1039 3610 mt  981 3668 L
 992 3600 mt 1050 3658 L
1050 3600 mt  992 3658 L
1000 3580 mt 1058 3638 L
1058 3580 mt 1000 3638 L
1006 3553 mt 1064 3611 L
1064 3553 mt 1006 3611 L
1014 3534 mt 1072 3592 L
1072 3534 mt 1014 3592 L
1025 3533 mt 1083 3591 L
1083 3533 mt 1025 3591 L
1034 3515 mt 1092 3573 L
1092 3515 mt 1034 3573 L
1042 3500 mt 1100 3558 L
1100 3500 mt 1042 3558 L
1051 3486 mt 1109 3544 L
1109 3486 mt 1051 3544 L
1058 3476 mt 1116 3534 L
1116 3476 mt 1058 3534 L
1064 3460 mt 1122 3518 L
1122 3460 mt 1064 3518 L
1068 3441 mt 1126 3499 L
1126 3441 mt 1068 3499 L
1073 3423 mt 1131 3481 L
1131 3423 mt 1073 3481 L
1078 3409 mt 1136 3467 L
1136 3409 mt 1078 3467 L
1087 3405 mt 1145 3463 L
1145 3405 mt 1087 3463 L
1098 3407 mt 1156 3465 L
1156 3407 mt 1098 3465 L
1110 3407 mt 1168 3465 L
1168 3407 mt 1110 3465 L
1118 3398 mt 1176 3456 L
1176 3398 mt 1118 3456 L
1131 3406 mt 1189 3464 L
1189 3406 mt 1131 3464 L
1143 3410 mt 1201 3468 L
1201 3410 mt 1143 3468 L
1152 3407 mt 1210 3465 L
1210 3407 mt 1152 3465 L
1159 3394 mt 1217 3452 L
1217 3394 mt 1159 3452 L
1160 3371 mt 1218 3429 L
1218 3371 mt 1160 3429 L
1165 3357 mt 1223 3415 L
1223 3357 mt 1165 3415 L
1169 3345 mt 1227 3403 L
1227 3345 mt 1169 3403 L
1177 3342 mt 1235 3400 L
1235 3342 mt 1177 3400 L
1187 3339 mt 1245 3397 L
1245 3339 mt 1187 3397 L
1197 3334 mt 1255 3392 L
1255 3334 mt 1197 3392 L
1209 3333 mt 1267 3391 L
1267 3333 mt 1209 3391 L
1223 3335 mt 1281 3393 L
1281 3335 mt 1223 3393 L
1234 3334 mt 1292 3392 L
1292 3334 mt 1234 3392 L
1245 3334 mt 1303 3392 L
1303 3334 mt 1245 3392 L
1253 3326 mt 1311 3384 L
1311 3326 mt 1253 3384 L
1261 3318 mt 1319 3376 L
1319 3318 mt 1261 3376 L
1266 3307 mt 1324 3365 L
1324 3307 mt 1266 3365 L
1272 3298 mt 1330 3356 L
1330 3298 mt 1272 3356 L
1276 3285 mt 1334 3343 L
1334 3285 mt 1276 3343 L
1288 3284 mt 1346 3342 L
1346 3284 mt 1288 3342 L
1297 3278 mt 1355 3336 L
1355 3278 mt 1297 3336 L
1306 3271 mt 1364 3329 L
1364 3271 mt 1306 3329 L
1316 3263 mt 1374 3321 L
1374 3263 mt 1316 3321 L
1328 3258 mt 1386 3316 L
1386 3258 mt 1328 3316 L
1338 3251 mt 1396 3309 L
1396 3251 mt 1338 3309 L
1347 3245 mt 1405 3303 L
1405 3245 mt 1347 3303 L
1357 3241 mt 1415 3299 L
1415 3241 mt 1357 3299 L
1365 3232 mt 1423 3290 L
1423 3232 mt 1365 3290 L
1373 3225 mt 1431 3283 L
1431 3225 mt 1373 3283 L
1382 3221 mt 1440 3279 L
1440 3221 mt 1382 3279 L
1391 3218 mt 1449 3276 L
1449 3218 mt 1391 3276 L
1399 3214 mt 1457 3272 L
1457 3214 mt 1399 3272 L
1406 3208 mt 1464 3266 L
1464 3208 mt 1406 3266 L
1416 3205 mt 1474 3263 L
1474 3205 mt 1416 3263 L
1425 3202 mt 1483 3260 L
1483 3202 mt 1425 3260 L
1435 3197 mt 1493 3255 L
1493 3197 mt 1435 3255 L
1444 3193 mt 1502 3251 L
1502 3193 mt 1444 3251 L
1449 3185 mt 1507 3243 L
1507 3185 mt 1449 3243 L
1464 3187 mt 1522 3245 L
1522 3187 mt 1464 3245 L
1474 3184 mt 1532 3242 L
1532 3184 mt 1474 3242 L
1485 3182 mt 1543 3240 L
1543 3182 mt 1485 3240 L
1494 3176 mt 1552 3234 L
1552 3176 mt 1494 3234 L
1502 3170 mt 1560 3228 L
1560 3170 mt 1502 3228 L
1509 3164 mt 1567 3222 L
1567 3164 mt 1509 3222 L
1517 3159 mt 1575 3217 L
1575 3159 mt 1517 3217 L
1521 3150 mt 1579 3208 L
1579 3150 mt 1521 3208 L
1528 3144 mt 1586 3202 L
1586 3144 mt 1528 3202 L
1541 3145 mt 1599 3203 L
1599 3145 mt 1541 3203 L
1554 3145 mt 1612 3203 L
1612 3145 mt 1554 3203 L
1569 3148 mt 1627 3206 L
1627 3148 mt 1569 3206 L
1584 3150 mt 1642 3208 L
1642 3150 mt 1584 3208 L
1598 3152 mt 1656 3210 L
1656 3152 mt 1598 3210 L
1608 3146 mt 1666 3204 L
1666 3146 mt 1608 3204 L
1620 3143 mt 1678 3201 L
1678 3143 mt 1620 3201 L
1627 3137 mt 1685 3195 L
1685 3137 mt 1627 3195 L
1635 3132 mt 1693 3190 L
1693 3132 mt 1635 3190 L
1644 3128 mt 1702 3186 L
1702 3128 mt 1644 3186 L
1656 3126 mt 1714 3184 L
1714 3126 mt 1656 3184 L
1670 3122 mt 1728 3180 L
1728 3122 mt 1670 3180 L
1684 3121 mt 1742 3179 L
1742 3121 mt 1684 3179 L
1699 3122 mt 1757 3180 L
1757 3122 mt 1699 3180 L
1711 3120 mt 1769 3178 L
1769 3120 mt 1711 3178 L
1722 3116 mt 1780 3174 L
1780 3116 mt 1722 3174 L
1732 3113 mt 1790 3171 L
1790 3113 mt 1732 3171 L
1738 3107 mt 1796 3165 L
1796 3107 mt 1738 3165 L
1750 3105 mt 1808 3163 L
1808 3105 mt 1750 3163 L
1760 3100 mt 1818 3158 L
1818 3100 mt 1760 3158 L
1775 3098 mt 1833 3156 L
1833 3098 mt 1775 3156 L
1790 3097 mt 1848 3155 L
1848 3097 mt 1790 3155 L
1803 3097 mt 1861 3155 L
1861 3097 mt 1803 3155 L
1813 3094 mt 1871 3152 L
1871 3094 mt 1813 3152 L
1821 3087 mt 1879 3145 L
1879 3087 mt 1821 3145 L
1831 3084 mt 1889 3142 L
1889 3084 mt 1831 3142 L
1848 3085 mt 1906 3143 L
1906 3085 mt 1848 3143 L
1859 3081 mt 1917 3139 L
1917 3081 mt 1859 3139 L
1870 3078 mt 1928 3136 L
1928 3078 mt 1870 3136 L
1885 3075 mt 1943 3133 L
1943 3075 mt 1885 3133 L
1902 3074 mt 1960 3132 L
1960 3074 mt 1902 3132 L
1912 3071 mt 1970 3129 L
1970 3071 mt 1912 3129 L
1921 3065 mt 1979 3123 L
1979 3065 mt 1921 3123 L
1934 3063 mt 1992 3121 L
1992 3063 mt 1934 3121 L
1946 3061 mt 2004 3119 L
2004 3061 mt 1946 3119 L
1959 3060 mt 2017 3118 L
2017 3060 mt 1959 3118 L
1971 3059 mt 2029 3117 L
2029 3059 mt 1971 3117 L
1983 3057 mt 2041 3115 L
2041 3057 mt 1983 3115 L
1993 3051 mt 2051 3109 L
2051 3051 mt 1993 3109 L
2013 3055 mt 2071 3113 L
2071 3055 mt 2013 3113 L
2027 3052 mt 2085 3110 L
2085 3052 mt 2027 3110 L
2039 3047 mt 2097 3105 L
2097 3047 mt 2039 3105 L
2054 3046 mt 2112 3104 L
2112 3046 mt 2054 3104 L
2066 3042 mt 2124 3100 L
2124 3042 mt 2066 3100 L
2080 3039 mt 2138 3097 L
2138 3039 mt 2080 3097 L
2096 3039 mt 2154 3097 L
2154 3039 mt 2096 3097 L
2114 3038 mt 2172 3096 L
2172 3038 mt 2114 3096 L
2131 3036 mt 2189 3094 L
2189 3036 mt 2131 3094 L
2144 3033 mt 2202 3091 L
2202 3033 mt 2144 3091 L
2157 3026 mt 2215 3084 L
2215 3026 mt 2157 3084 L
2170 3025 mt 2228 3083 L
2228 3025 mt 2170 3083 L
2188 3026 mt 2246 3084 L
2246 3026 mt 2188 3084 L
2203 3025 mt 2261 3083 L
2261 3025 mt 2203 3083 L
2218 3025 mt 2276 3083 L
2276 3025 mt 2218 3083 L
2233 3023 mt 2291 3081 L
2291 3023 mt 2233 3081 L
2246 3021 mt 2304 3079 L
2304 3021 mt 2246 3079 L
2257 3015 mt 2315 3073 L
2315 3015 mt 2257 3073 L
2279 3018 mt 2337 3076 L
2337 3018 mt 2279 3076 L
2297 3017 mt 2355 3075 L
2355 3017 mt 2297 3075 L
2314 3013 mt 2372 3071 L
2372 3013 mt 2314 3071 L
2327 3009 mt 2385 3067 L
2385 3009 mt 2327 3067 L
2341 3007 mt 2399 3065 L
2399 3007 mt 2341 3065 L
2360 3007 mt 2418 3065 L
2418 3007 mt 2360 3065 L
2375 3004 mt 2433 3062 L
2433 3004 mt 2375 3062 L
2388 3000 mt 2446 3058 L
2446 3000 mt 2388 3058 L
2407 3001 mt 2465 3059 L
2465 3001 mt 2407 3059 L
2427 3002 mt 2485 3060 L
2485 3002 mt 2427 3060 L
2439 2998 mt 2497 3056 L
2497 2998 mt 2439 3056 L
2453 2994 mt 2511 3052 L
2511 2994 mt 2453 3052 L
2470 2992 mt 2528 3050 L
2528 2992 mt 2470 3050 L
2489 2992 mt 2547 3050 L
2547 2992 mt 2489 3050 L
2507 2990 mt 2565 3048 L
2565 2990 mt 2507 3048 L
2525 2988 mt 2583 3046 L
2583 2988 mt 2525 3046 L
2541 2985 mt 2599 3043 L
2599 2985 mt 2541 3043 L
2557 2982 mt 2615 3040 L
2615 2982 mt 2557 3040 L
2572 2978 mt 2630 3036 L
2630 2978 mt 2572 3036 L
2589 2976 mt 2647 3034 L
2647 2976 mt 2589 3034 L
2609 2977 mt 2667 3035 L
2667 2977 mt 2609 3035 L
2629 2976 mt 2687 3034 L
2687 2976 mt 2629 3034 L
2649 2975 mt 2707 3033 L
2707 2975 mt 2649 3033 L
2663 2970 mt 2721 3028 L
2721 2970 mt 2663 3028 L
2678 2968 mt 2736 3026 L
2736 2968 mt 2678 3026 L
2695 2966 mt 2753 3024 L
2753 2966 mt 2695 3024 L
2716 2965 mt 2774 3023 L
2774 2965 mt 2716 3023 L
2734 2961 mt 2792 3019 L
2792 2961 mt 2734 3019 L
2755 2961 mt 2813 3019 L
2813 2961 mt 2755 3019 L
2774 2959 mt 2832 3017 L
2832 2959 mt 2774 3017 L
2791 2956 mt 2849 3014 L
2849 2956 mt 2791 3014 L
2811 2954 mt 2869 3012 L
2869 2954 mt 2811 3012 L
2831 2954 mt 2889 3012 L
2889 2954 mt 2831 3012 L
2850 2950 mt 2908 3008 L
2908 2950 mt 2850 3008 L
2868 2947 mt 2926 3005 L
2926 2947 mt 2868 3005 L
2890 2946 mt 2948 3004 L
2948 2946 mt 2890 3004 L
2912 2944 mt 2970 3002 L
2970 2944 mt 2912 3002 L
2924 2939 mt 2982 2997 L
2982 2939 mt 2924 2997 L
2944 2939 mt 3002 2997 L
3002 2939 mt 2944 2997 L
2970 2940 mt 3028 2998 L
3028 2940 mt 2970 2998 L
2991 2939 mt 3049 2997 L
3049 2939 mt 2991 2997 L
3011 2937 mt 3069 2995 L
3069 2937 mt 3011 2995 L
3032 2931 mt 3090 2989 L
3090 2931 mt 3032 2989 L
3048 2931 mt 3106 2989 L
3106 2931 mt 3048 2989 L
3070 2931 mt 3128 2989 L
3128 2931 mt 3070 2989 L
3090 2930 mt 3148 2988 L
3148 2930 mt 3090 2988 L
3116 2930 mt 3174 2988 L
3174 2930 mt 3116 2988 L
3138 2928 mt 3196 2986 L
3196 2928 mt 3138 2986 L
3157 2926 mt 3215 2984 L
3215 2926 mt 3157 2984 L
3175 2922 mt 3233 2980 L
3233 2922 mt 3175 2980 L
3197 2921 mt 3255 2979 L
3255 2921 mt 3197 2979 L
3219 2920 mt 3277 2978 L
3277 2920 mt 3219 2978 L
3240 2915 mt 3298 2973 L
3298 2915 mt 3240 2973 L
3262 2913 mt 3320 2971 L
3320 2913 mt 3262 2971 L
3286 2914 mt 3344 2972 L
3344 2914 mt 3286 2972 L
3303 2912 mt 3361 2970 L
3361 2912 mt 3303 2970 L
3313 2908 mt 3371 2966 L
3371 2908 mt 3313 2966 L
3335 2908 mt 3393 2966 L
3393 2908 mt 3335 2966 L
3360 2906 mt 3418 2964 L
3418 2906 mt 3360 2964 L
3389 2907 mt 3447 2965 L
3447 2907 mt 3389 2965 L
3416 2906 mt 3474 2964 L
3474 2906 mt 3416 2964 L
3436 2902 mt 3494 2960 L
3494 2902 mt 3436 2960 L
3456 2900 mt 3514 2958 L
3514 2900 mt 3456 2958 L
3479 2900 mt 3537 2958 L
3537 2900 mt 3479 2958 L
3504 2899 mt 3562 2957 L
3562 2899 mt 3504 2957 L
3531 2899 mt 3589 2957 L
3589 2899 mt 3531 2957 L
3554 2897 mt 3612 2955 L
3612 2897 mt 3554 2955 L
3574 2894 mt 3632 2952 L
3632 2894 mt 3574 2952 L
3599 2893 mt 3657 2951 L
3657 2893 mt 3599 2951 L
3623 2891 mt 3681 2949 L
3681 2891 mt 3623 2949 L
3648 2890 mt 3706 2948 L
3706 2890 mt 3648 2948 L
3673 2889 mt 3731 2947 L
3731 2889 mt 3673 2947 L
3697 2885 mt 3755 2943 L
3755 2885 mt 3697 2943 L
3719 2884 mt 3777 2942 L
3777 2884 mt 3719 2942 L
3741 2882 mt 3799 2940 L
3799 2882 mt 3741 2940 L
3764 2881 mt 3822 2939 L
3822 2881 mt 3764 2939 L
3789 2881 mt 3847 2939 L
3847 2881 mt 3789 2939 L
3815 2882 mt 3873 2940 L
3873 2882 mt 3815 2940 L
3840 2883 mt 3898 2941 L
3898 2883 mt 3840 2941 L
3864 2883 mt 3922 2941 L
3922 2883 mt 3864 2941 L
3889 2881 mt 3947 2939 L
3947 2881 mt 3889 2939 L
3912 2879 mt 3970 2937 L
3970 2879 mt 3912 2937 L
3939 2878 mt 3997 2936 L
3997 2878 mt 3939 2936 L
3965 2877 mt 4023 2935 L
4023 2877 mt 3965 2935 L
3990 2874 mt 4048 2932 L
4048 2874 mt 3990 2932 L
4013 2871 mt 4071 2929 L
4071 2871 mt 4013 2929 L
4038 2868 mt 4096 2926 L
4096 2868 mt 4038 2926 L
4066 2868 mt 4124 2926 L
4124 2868 mt 4066 2926 L
4094 2866 mt 4152 2924 L
4152 2866 mt 4094 2924 L
4119 2866 mt 4177 2924 L
4177 2866 mt 4119 2924 L
4146 2866 mt 4204 2924 L
4204 2866 mt 4146 2924 L
4173 2861 mt 4231 2919 L
4231 2861 mt 4173 2919 L
4202 2862 mt 4260 2920 L
4260 2862 mt 4202 2920 L
4228 2861 mt 4286 2919 L
4286 2861 mt 4228 2919 L
4254 2860 mt 4312 2918 L
4312 2860 mt 4254 2918 L
4280 2859 mt 4338 2917 L
4338 2859 mt 4280 2917 L
4309 2858 mt 4367 2916 L
4367 2858 mt 4309 2916 L
4334 2857 mt 4392 2915 L
4392 2857 mt 4334 2915 L
4358 2855 mt 4416 2913 L
4416 2855 mt 4358 2913 L
4387 2855 mt 4445 2913 L
4445 2855 mt 4387 2913 L
4412 2853 mt 4470 2911 L
4470 2853 mt 4412 2911 L
4443 2854 mt 4501 2912 L
4501 2854 mt 4443 2912 L
4468 2851 mt 4526 2909 L
4526 2851 mt 4468 2909 L
4493 2849 mt 4551 2907 L
4551 2849 mt 4493 2907 L
4515 2846 mt 4573 2904 L
4573 2846 mt 4515 2904 L
4553 2846 mt 4611 2904 L
4611 2846 mt 4553 2904 L
4583 2844 mt 4641 2902 L
4641 2844 mt 4583 2902 L
4609 2839 mt 4667 2897 L
4667 2839 mt 4609 2897 L
4633 2838 mt 4691 2896 L
4691 2838 mt 4633 2896 L
4660 2835 mt 4718 2893 L
4718 2835 mt 4660 2893 L
3381 2413 mt 3439 2471 L
3439 2413 mt 3381 2471 L
2553 1987 mt 2611 2045 L
2611 1987 mt 2553 2045 L
2039 1629 mt 2097 1687 L
2097 1629 mt 2039 1687 L
1820 1450 mt 1878 1508 L
1878 1450 mt 1820 1508 L
1685 1339 mt 1743 1397 L
1743 1339 mt 1685 1397 L
1552 1216 mt 1610 1274 L
1610 1216 mt 1552 1274 L
1472 1136 mt 1530 1194 L
1530 1136 mt 1472 1194 L
1407 1031 mt 1465 1089 L
1465 1031 mt 1407 1089 L
1326  904 mt 1384  962 L
1384  904 mt 1326  962 L
1251  779 mt 1309  837 L
1309  779 mt 1251  837 L
1196  651 mt 1254  709 L
1254  651 mt 1196  709 L
gs 848 565 4238 3956 rc
gr

/c10 { 1.000000 0.000000 1.000000 sr} bdef
c10
 823 4486 mt  881 4544 L
 881 4486 mt  823 4544 L
 824 4462 mt  882 4520 L
 882 4462 mt  824 4520 L
 827 4436 mt  885 4494 L
 885 4436 mt  827 4494 L
 829 4409 mt  887 4467 L
 887 4409 mt  829 4467 L
 831 4378 mt  889 4436 L
 889 4378 mt  831 4436 L
 832 4358 mt  890 4416 L
 890 4358 mt  832 4416 L
 833 4324 mt  891 4382 L
 891 4324 mt  833 4382 L
 834 4289 mt  892 4347 L
 892 4289 mt  834 4347 L
 836 4282 mt  894 4340 L
 894 4282 mt  836 4340 L
 838 4270 mt  896 4328 L
 896 4270 mt  838 4328 L
 840 4252 mt  898 4310 L
 898 4252 mt  840 4310 L
 843 4244 mt  901 4302 L
 901 4244 mt  843 4302 L
 849 4252 mt  907 4310 L
 907 4252 mt  849 4310 L
 859 4271 mt  917 4329 L
 917 4271 mt  859 4329 L
 871 4271 mt  929 4329 L
 929 4271 mt  871 4329 L
 885 4268 mt  943 4326 L
 943 4268 mt  885 4326 L
 899 4245 mt  957 4303 L
 957 4245 mt  899 4303 L
 914 4208 mt  972 4266 L
 972 4208 mt  914 4266 L
 927 4162 mt  985 4220 L
 985 4162 mt  927 4220 L
 939 4119 mt  997 4177 L
 997 4119 mt  939 4177 L
 953 4083 mt 1011 4141 L
1011 4083 mt  953 4141 L
 966 4049 mt 1024 4107 L
1024 4049 mt  966 4107 L
 977 4013 mt 1035 4071 L
1035 4013 mt  977 4071 L
 990 3985 mt 1048 4043 L
1048 3985 mt  990 4043 L
1002 3957 mt 1060 4015 L
1060 3957 mt 1002 4015 L
1012 3926 mt 1070 3984 L
1070 3926 mt 1012 3984 L
1021 3891 mt 1079 3949 L
1079 3891 mt 1021 3949 L
1033 3868 mt 1091 3926 L
1091 3868 mt 1033 3926 L
1044 3845 mt 1102 3903 L
1102 3845 mt 1044 3903 L
1057 3824 mt 1115 3882 L
1115 3824 mt 1057 3882 L
1069 3806 mt 1127 3864 L
1127 3806 mt 1069 3864 L
1080 3786 mt 1138 3844 L
1138 3786 mt 1080 3844 L
1088 3758 mt 1146 3816 L
1146 3758 mt 1088 3816 L
1096 3739 mt 1154 3797 L
1154 3739 mt 1096 3797 L
1105 3726 mt 1163 3784 L
1163 3726 mt 1105 3784 L
1115 3713 mt 1173 3771 L
1173 3713 mt 1115 3771 L
1124 3697 mt 1182 3755 L
1182 3697 mt 1124 3755 L
1134 3684 mt 1192 3742 L
1192 3684 mt 1134 3742 L
1145 3673 mt 1203 3731 L
1203 3673 mt 1145 3731 L
1157 3665 mt 1215 3723 L
1215 3665 mt 1157 3723 L
1165 3651 mt 1223 3709 L
1223 3651 mt 1165 3709 L
1174 3638 mt 1232 3696 L
1232 3638 mt 1174 3696 L
1184 3630 mt 1242 3688 L
1242 3630 mt 1184 3688 L
1192 3619 mt 1250 3677 L
1250 3619 mt 1192 3677 L
1203 3610 mt 1261 3668 L
1261 3610 mt 1203 3668 L
1213 3601 mt 1271 3659 L
1271 3601 mt 1213 3659 L
1223 3593 mt 1281 3651 L
1281 3593 mt 1223 3651 L
1234 3587 mt 1292 3645 L
1292 3587 mt 1234 3645 L
1244 3579 mt 1302 3637 L
1302 3579 mt 1244 3637 L
1253 3570 mt 1311 3628 L
1311 3570 mt 1253 3628 L
1264 3565 mt 1322 3623 L
1322 3565 mt 1264 3623 L
1275 3560 mt 1333 3618 L
1333 3560 mt 1275 3618 L
1283 3551 mt 1341 3609 L
1341 3551 mt 1283 3609 L
1293 3544 mt 1351 3602 L
1351 3544 mt 1293 3602 L
1302 3538 mt 1360 3596 L
1360 3538 mt 1302 3596 L
1312 3533 mt 1370 3591 L
1370 3533 mt 1312 3591 L
1323 3529 mt 1381 3587 L
1381 3529 mt 1323 3587 L
1337 3527 mt 1395 3585 L
1395 3527 mt 1337 3585 L
1347 3520 mt 1405 3578 L
1405 3520 mt 1347 3578 L
1355 3509 mt 1413 3567 L
1413 3509 mt 1355 3567 L
1366 3503 mt 1424 3561 L
1424 3503 mt 1366 3561 L
1375 3495 mt 1433 3553 L
1433 3495 mt 1375 3553 L
1386 3489 mt 1444 3547 L
1444 3489 mt 1386 3547 L
1397 3484 mt 1455 3542 L
1455 3484 mt 1397 3542 L
1408 3479 mt 1466 3537 L
1466 3479 mt 1408 3537 L
1417 3472 mt 1475 3530 L
1475 3472 mt 1417 3530 L
1426 3463 mt 1484 3521 L
1484 3463 mt 1426 3521 L
1435 3456 mt 1493 3514 L
1493 3456 mt 1435 3514 L
1447 3454 mt 1505 3512 L
1505 3454 mt 1447 3512 L
1459 3452 mt 1517 3510 L
1517 3452 mt 1459 3510 L
1470 3448 mt 1528 3506 L
1528 3448 mt 1470 3506 L
1479 3440 mt 1537 3498 L
1537 3440 mt 1479 3498 L
1491 3434 mt 1549 3492 L
1549 3434 mt 1491 3492 L
1501 3426 mt 1559 3484 L
1559 3426 mt 1501 3484 L
1512 3421 mt 1570 3479 L
1570 3421 mt 1512 3479 L
1528 3420 mt 1586 3478 L
1586 3420 mt 1528 3478 L
1541 3416 mt 1599 3474 L
1599 3416 mt 1541 3474 L
1553 3412 mt 1611 3470 L
1611 3412 mt 1553 3470 L
1565 3408 mt 1623 3466 L
1623 3408 mt 1565 3466 L
1576 3404 mt 1634 3462 L
1634 3404 mt 1576 3462 L
1584 3398 mt 1642 3456 L
1642 3398 mt 1584 3456 L
1593 3392 mt 1651 3450 L
1651 3392 mt 1593 3450 L
1606 3391 mt 1664 3449 L
1664 3391 mt 1606 3449 L
1618 3387 mt 1676 3445 L
1676 3387 mt 1618 3445 L
1629 3380 mt 1687 3438 L
1687 3380 mt 1629 3438 L
1642 3377 mt 1700 3435 L
1700 3377 mt 1642 3435 L
1655 3376 mt 1713 3434 L
1713 3376 mt 1655 3434 L
1667 3372 mt 1725 3430 L
1725 3372 mt 1667 3430 L
1676 3366 mt 1734 3424 L
1734 3366 mt 1676 3424 L
1685 3362 mt 1743 3420 L
1743 3362 mt 1685 3420 L
1693 3356 mt 1751 3414 L
1751 3356 mt 1693 3414 L
1703 3352 mt 1761 3410 L
1761 3352 mt 1703 3410 L
1715 3349 mt 1773 3407 L
1773 3349 mt 1715 3407 L
1724 3344 mt 1782 3402 L
1782 3344 mt 1724 3402 L
1739 3342 mt 1797 3400 L
1797 3342 mt 1739 3400 L
1753 3340 mt 1811 3398 L
1811 3340 mt 1753 3398 L
1766 3335 mt 1824 3393 L
1824 3335 mt 1766 3393 L
1779 3333 mt 1837 3391 L
1837 3333 mt 1779 3391 L
1792 3330 mt 1850 3388 L
1850 3330 mt 1792 3388 L
1807 3329 mt 1865 3387 L
1865 3329 mt 1807 3387 L
1825 3330 mt 1883 3388 L
1883 3330 mt 1825 3388 L
1839 3326 mt 1897 3384 L
1897 3326 mt 1839 3384 L
1852 3323 mt 1910 3381 L
1910 3323 mt 1852 3381 L
1864 3315 mt 1922 3373 L
1922 3315 mt 1864 3373 L
1876 3312 mt 1934 3370 L
1934 3312 mt 1876 3370 L
1892 3310 mt 1950 3368 L
1950 3310 mt 1892 3368 L
1908 3308 mt 1966 3366 L
1966 3308 mt 1908 3366 L
1924 3306 mt 1982 3364 L
1982 3306 mt 1924 3364 L
1939 3303 mt 1997 3361 L
1997 3303 mt 1939 3361 L
1952 3299 mt 2010 3357 L
2010 3299 mt 1952 3357 L
1965 3297 mt 2023 3355 L
2023 3297 mt 1965 3355 L
1980 3293 mt 2038 3351 L
2038 3293 mt 1980 3351 L
1993 3291 mt 2051 3349 L
2051 3291 mt 1993 3349 L
2006 3288 mt 2064 3346 L
2064 3288 mt 2006 3346 L
2022 3286 mt 2080 3344 L
2080 3286 mt 2022 3344 L
2037 3282 mt 2095 3340 L
2095 3282 mt 2037 3340 L
2053 3280 mt 2111 3338 L
2111 3280 mt 2053 3338 L
2068 3278 mt 2126 3336 L
2126 3278 mt 2068 3336 L
2079 3273 mt 2137 3331 L
2137 3273 mt 2079 3331 L
2089 3269 mt 2147 3327 L
2147 3269 mt 2089 3327 L
2105 3267 mt 2163 3325 L
2163 3267 mt 2105 3325 L
2122 3264 mt 2180 3322 L
2180 3264 mt 2122 3322 L
2136 3261 mt 2194 3319 L
2194 3261 mt 2136 3319 L
2155 3261 mt 2213 3319 L
2213 3261 mt 2155 3319 L
2166 3257 mt 2224 3315 L
2224 3257 mt 2166 3315 L
2178 3253 mt 2236 3311 L
2236 3253 mt 2178 3311 L
2191 3249 mt 2249 3307 L
2249 3249 mt 2191 3307 L
2206 3247 mt 2264 3305 L
2264 3247 mt 2206 3305 L
2221 3245 mt 2279 3303 L
2279 3245 mt 2221 3303 L
2236 3242 mt 2294 3300 L
2294 3242 mt 2236 3300 L
2255 3241 mt 2313 3299 L
2313 3241 mt 2255 3299 L
2272 3244 mt 2330 3302 L
2330 3244 mt 2272 3302 L
2285 3239 mt 2343 3297 L
2343 3239 mt 2285 3297 L
2300 3238 mt 2358 3296 L
2358 3238 mt 2300 3296 L
2316 3237 mt 2374 3295 L
2374 3237 mt 2316 3295 L
2334 3237 mt 2392 3295 L
2392 3237 mt 2334 3295 L
2352 3236 mt 2410 3294 L
2410 3236 mt 2352 3294 L
2369 3235 mt 2427 3293 L
2427 3235 mt 2369 3293 L
2380 3233 mt 2438 3291 L
2438 3233 mt 2380 3291 L
2401 3237 mt 2459 3295 L
2459 3237 mt 2401 3295 L
2414 3229 mt 2472 3287 L
2472 3229 mt 2414 3287 L
2433 3227 mt 2491 3285 L
2491 3227 mt 2433 3285 L
2453 3227 mt 2511 3285 L
2511 3227 mt 2453 3285 L
2466 3222 mt 2524 3280 L
2524 3222 mt 2466 3280 L
2483 3220 mt 2541 3278 L
2541 3220 mt 2483 3278 L
2502 3216 mt 2560 3274 L
2560 3216 mt 2502 3274 L
2522 3216 mt 2580 3274 L
2580 3216 mt 2522 3274 L
2540 3216 mt 2598 3274 L
2598 3216 mt 2540 3274 L
2562 3217 mt 2620 3275 L
2620 3217 mt 2562 3275 L
2581 3215 mt 2639 3273 L
2639 3215 mt 2581 3273 L
2596 3210 mt 2654 3268 L
2654 3210 mt 2596 3268 L
2614 3209 mt 2672 3267 L
2672 3209 mt 2614 3267 L
2634 3208 mt 2692 3266 L
2692 3208 mt 2634 3266 L
2650 3203 mt 2708 3261 L
2708 3203 mt 2650 3261 L
2669 3201 mt 2727 3259 L
2727 3201 mt 2669 3259 L
2691 3200 mt 2749 3258 L
2749 3200 mt 2691 3258 L
2710 3198 mt 2768 3256 L
2768 3198 mt 2710 3256 L
2731 3197 mt 2789 3255 L
2789 3197 mt 2731 3255 L
2749 3194 mt 2807 3252 L
2807 3194 mt 2749 3252 L
2765 3191 mt 2823 3249 L
2823 3191 mt 2765 3249 L
2780 3188 mt 2838 3246 L
2838 3188 mt 2780 3246 L
2802 3186 mt 2860 3244 L
2860 3186 mt 2802 3244 L
2827 3186 mt 2885 3244 L
2885 3186 mt 2827 3244 L
2846 3183 mt 2904 3241 L
2904 3183 mt 2846 3241 L
2868 3183 mt 2926 3241 L
2926 3183 mt 2868 3241 L
2883 3178 mt 2941 3236 L
2941 3178 mt 2883 3236 L
2904 3177 mt 2962 3235 L
2962 3177 mt 2904 3235 L
2926 3174 mt 2984 3232 L
2984 3174 mt 2926 3232 L
2948 3173 mt 3006 3231 L
3006 3173 mt 2948 3231 L
2968 3171 mt 3026 3229 L
3026 3171 mt 2968 3229 L
2987 3169 mt 3045 3227 L
3045 3169 mt 2987 3227 L
3008 3168 mt 3066 3226 L
3066 3168 mt 3008 3226 L
3027 3167 mt 3085 3225 L
3085 3167 mt 3027 3225 L
3047 3165 mt 3105 3223 L
3105 3165 mt 3047 3223 L
3066 3163 mt 3124 3221 L
3124 3163 mt 3066 3221 L
3092 3161 mt 3150 3219 L
3150 3161 mt 3092 3219 L
3113 3157 mt 3171 3215 L
3171 3157 mt 3113 3215 L
3135 3156 mt 3193 3214 L
3193 3156 mt 3135 3214 L
3152 3153 mt 3210 3211 L
3210 3153 mt 3152 3211 L
3173 3147 mt 3231 3205 L
3231 3147 mt 3173 3205 L
3196 3147 mt 3254 3205 L
3254 3147 mt 3196 3205 L
3224 3148 mt 3282 3206 L
3282 3148 mt 3224 3206 L
3245 3145 mt 3303 3203 L
3303 3145 mt 3245 3203 L
3267 3146 mt 3325 3204 L
3325 3146 mt 3267 3204 L
3284 3145 mt 3342 3203 L
3342 3145 mt 3284 3203 L
3304 3141 mt 3362 3199 L
3362 3141 mt 3304 3199 L
3330 3141 mt 3388 3199 L
3388 3141 mt 3330 3199 L
3356 3140 mt 3414 3198 L
3414 3140 mt 3356 3198 L
3377 3136 mt 3435 3194 L
3435 3136 mt 3377 3194 L
3398 3134 mt 3456 3192 L
3456 3134 mt 3398 3192 L
3415 3133 mt 3473 3191 L
3473 3133 mt 3415 3191 L
3439 3131 mt 3497 3189 L
3497 3131 mt 3439 3189 L
3461 3130 mt 3519 3188 L
3519 3130 mt 3461 3188 L
3486 3129 mt 3544 3187 L
3544 3129 mt 3486 3187 L
3507 3126 mt 3565 3184 L
3565 3126 mt 3507 3184 L
3530 3125 mt 3588 3183 L
3588 3125 mt 3530 3183 L
3549 3122 mt 3607 3180 L
3607 3122 mt 3549 3180 L
3576 3121 mt 3634 3179 L
3634 3121 mt 3576 3179 L
3601 3120 mt 3659 3178 L
3659 3120 mt 3601 3178 L
3631 3119 mt 3689 3177 L
3689 3119 mt 3631 3177 L
3652 3115 mt 3710 3173 L
3710 3115 mt 3652 3173 L
3672 3112 mt 3730 3170 L
3730 3112 mt 3672 3170 L
3693 3107 mt 3751 3165 L
3751 3107 mt 3693 3165 L
3714 3106 mt 3772 3164 L
3772 3106 mt 3714 3164 L
3744 3105 mt 3802 3163 L
3802 3105 mt 3744 3163 L
3776 3104 mt 3834 3162 L
3834 3104 mt 3776 3162 L
3801 3102 mt 3859 3160 L
3859 3102 mt 3801 3160 L
3819 3096 mt 3877 3154 L
3877 3096 mt 3819 3154 L
3840 3094 mt 3898 3152 L
3898 3094 mt 3840 3152 L
3864 3092 mt 3922 3150 L
3922 3092 mt 3864 3150 L
3897 3091 mt 3955 3149 L
3955 3091 mt 3897 3149 L
3926 3089 mt 3984 3147 L
3984 3089 mt 3926 3147 L
3951 3087 mt 4009 3145 L
4009 3087 mt 3951 3145 L
3974 3084 mt 4032 3142 L
4032 3084 mt 3974 3142 L
3995 3081 mt 4053 3139 L
4053 3081 mt 3995 3139 L
4025 3079 mt 4083 3137 L
4083 3079 mt 4025 3137 L
4055 3079 mt 4113 3137 L
4113 3079 mt 4055 3137 L
4081 3077 mt 4139 3135 L
4139 3077 mt 4081 3135 L
4107 3077 mt 4165 3135 L
4165 3077 mt 4107 3135 L
4134 3076 mt 4192 3134 L
4192 3076 mt 4134 3134 L
4158 3069 mt 4216 3127 L
4216 3069 mt 4158 3127 L
4188 3070 mt 4246 3128 L
4246 3070 mt 4188 3128 L
4217 3069 mt 4275 3127 L
4275 3069 mt 4217 3127 L
4247 3068 mt 4305 3126 L
4305 3068 mt 4247 3126 L
4275 3069 mt 4333 3127 L
4333 3069 mt 4275 3127 L
4298 3067 mt 4356 3125 L
4356 3067 mt 4298 3125 L
4325 3066 mt 4383 3124 L
4383 3066 mt 4325 3124 L
4355 3062 mt 4413 3120 L
4413 3062 mt 4355 3120 L
4386 3060 mt 4444 3118 L
4444 3060 mt 4386 3118 L
4416 3059 mt 4474 3117 L
4474 3059 mt 4416 3117 L
4442 3052 mt 4500 3110 L
4500 3052 mt 4442 3110 L
4469 3049 mt 4527 3107 L
4527 3049 mt 4469 3107 L
4497 3049 mt 4555 3107 L
4555 3049 mt 4497 3107 L
4527 3049 mt 4585 3107 L
4585 3049 mt 4527 3107 L
4547 3047 mt 4605 3105 L
4605 3047 mt 4547 3105 L
4561 3041 mt 4619 3099 L
4619 3041 mt 4561 3099 L
4601 3041 mt 4659 3099 L
4659 3041 mt 4601 3099 L
4644 3041 mt 4702 3099 L
4702 3041 mt 4644 3099 L
4674 3039 mt 4732 3097 L
4732 3039 mt 4674 3097 L
3357 2628 mt 3415 2686 L
3415 2628 mt 3357 2686 L
2475 2177 mt 2533 2235 L
2533 2177 mt 2475 2235 L
1881 1747 mt 1939 1805 L
1939 1747 mt 1881 1805 L
1502 1385 mt 1560 1443 L
1560 1385 mt 1502 1443 L
1299 1107 mt 1357 1165 L
1357 1107 mt 1299 1165 L
1210  950 mt 1268 1008 L
1268  950 mt 1210 1008 L
1144  819 mt 1202  877 L
1202  819 mt 1144  877 L
1081  696 mt 1139  754 L
1139  696 mt 1081  754 L
1024  592 mt 1082  650 L
1082  592 mt 1024  650 L
gs 848 565 4238 3956 rc
gr

0 sg
%%IncludeResource: font Helvetica
/Helvetica /ISOLatin1Encoding 83.3333 FMSR

 829 4558 mt 
( ) s
5067  602 mt 
( ) s
8.33333 w
DO
SO
12.5 w
0.1 sg
 848 4520 mt 5085 4520 L
 848  564 mt 5085  564 L
 848 4520 mt  848  564 L
5085 4520 mt 5085  564 L
 848 4520 mt 5085 4520 L
 848 4520 mt  848  564 L
 848 4520 mt  848 4456 L
 848  564 mt  848  628 L
%%IncludeResource: font Helvetica
/Helvetica /ISOLatin1Encoding 133.333 FMSR

 811 4667 mt 
(0) s
1614 4520 mt 1614 4456 L
1614  564 mt 1614  628 L
1540 4667 mt 
(20) s
2381 4520 mt 2381 4456 L
2381  564 mt 2381  628 L
2307 4667 mt 
(40) s
3147 4520 mt 3147 4456 L
3147  564 mt 3147  628 L
3073 4667 mt 
(60) s
3914 4520 mt 3914 4456 L
3914  564 mt 3914  628 L
3840 4667 mt 
(80) s
4680 4520 mt 4680 4456 L
4680  564 mt 4680  628 L
4569 4667 mt 
(100) s
 848 4520 mt  911 4520 L
5085 4520 mt 5021 4520 L
 750 4569 mt 
(0) s
 848 3955 mt  911 3955 L
5085 3955 mt 5021 3955 L
 639 4004 mt 
(0.1) s
 848 3390 mt  911 3390 L
5085 3390 mt 5021 3390 L
 639 3439 mt 
(0.2) s
 848 2824 mt  911 2824 L
5085 2824 mt 5021 2824 L
 639 2873 mt 
(0.3) s
 848 2259 mt  911 2259 L
5085 2259 mt 5021 2259 L
 639 2308 mt 
(0.4) s
 848 1694 mt  911 1694 L
5085 1694 mt 5021 1694 L
 639 1743 mt 
(0.5) s
 848 1129 mt  911 1129 L
5085 1129 mt 5021 1129 L
 639 1178 mt 
(0.6) s
 848  564 mt  911  564 L
5085  564 mt 5021  564 L
 639  613 mt 
(0.7) s
 848 4520 mt 5085 4520 L
 848  564 mt 5085  564 L
 848 4520 mt  848  564 L
5085 4520 mt 5085  564 L
0 sg
%%IncludeResource: font Helvetica-Bold
/Helvetica-Bold /ISOLatin1Encoding 125 FMSR

2816 3759 mt 
(GD = 0) s
gs 2491 3594 951 865 rc
16.6667 w
gs 2564 3610 205 205 rc
2637 3683 mt 2695 3741 L
2695 3683 mt 2637 3741 L
gr

gr

16.6667 w
2816 3968 mt 
(GD = 0.2) s
gs 2491 3594 951 865 rc
gs 2564 3819 205 205 rc
c8
2637 3892 mt 2695 3950 L
2695 3892 mt 2637 3950 L
gr

c8
gr

c8
0 sg
2816 4177 mt 
(GD = 0.5) s
gs 2491 3594 951 865 rc
gs 2564 4028 205 205 rc
c9
2637 4101 mt 2695 4159 L
2695 4101 mt 2637 4159 L
gr

c9
gr

c9
0 sg
2816 4386 mt 
(GD = 0.75) s
gs 2491 3594 951 865 rc
gs 2564 4237 205 205 rc
c10
2637 4310 mt 2695 4368 L
2695 4310 mt 2637 4368 L
gr

c10
12.5 w
gr

12.5 w
c10

end %%Color Dict

eplot
%%EndObject

epage
end

showpage

%%Trailer
%%EOF
