%!PS-Adobe-3.0 EPSF-3.0
%%Creator: MATLAB, The MathWorks, Inc. Version 8.1.0.604 (R2013a). Operating System: Microsoft Windows 7.
%%Title: .\GD_Confined_Density.eps
%%CreationDate: 08/17/2013  15:29:12
%%DocumentNeededFonts: Helvetica-Bold
%%+ Helvetica
%%DocumentProcessColors: Cyan Magenta Yellow Black
%%LanguageLevel: 2
%%Pages: 1
%%BoundingBox:    30    88   564   572
%%EndComments

%%BeginProlog
% MathWorks dictionary
/MathWorks 160 dict begin
% definition operators
/bdef {bind def} bind def
/ldef {load def} bind def
/xdef {exch def} bdef
/xstore {exch store} bdef
% operator abbreviations
/c  /clip ldef
/cc /concat ldef
/cp /closepath ldef
/gr /grestore ldef
/gs /gsave ldef
/mt /moveto ldef
/np /newpath ldef
/cm /currentmatrix ldef
/sm /setmatrix ldef
/rm /rmoveto ldef
/rl /rlineto ldef
/s {show newpath} bdef
/sc {setcmykcolor} bdef
/sr /setrgbcolor ldef
/sg /setgray ldef
/w /setlinewidth ldef
/j /setlinejoin ldef
/cap /setlinecap ldef
/rc {rectclip} bdef
/rf {rectfill} bdef
% page state control
/pgsv () def
/bpage {/pgsv save def} bdef
/epage {pgsv restore} bdef
/bplot /gsave ldef
/eplot {stroke grestore} bdef
% orientation switch
/portraitMode 0 def /landscapeMode 1 def /rotateMode 2 def
% coordinate system mappings
/dpi2point 0 def
% font control
/FontSize 0 def
/FMS {/FontSize xstore findfont [FontSize 0 0 FontSize neg 0 0]
  makefont setfont} bdef
/ISOLatin1Encoding where {pop /WindowsLatin1Encoding 256 array bdef
ISOLatin1Encoding WindowsLatin1Encoding copy pop
/.notdef/.notdef/quotesinglbase/florin/quotedblbase/ellipsis/dagger
/daggerdbl/circumflex/perthousand/Scaron/guilsinglleft/OE/.notdef/.notdef
/.notdef/.notdef/quoteleft/quoteright/quotedblleft/quotedblright/bullet
/endash/emdash/tilde/trademark/scaron/guilsinglright/oe/.notdef/.notdef
/Ydieresis WindowsLatin1Encoding 128 32 getinterval astore pop}
{/WindowsLatin1Encoding StandardEncoding bdef} ifelse
/reencode {exch dup where {pop load} {pop StandardEncoding} ifelse
  exch dup 3 1 roll findfont dup length dict begin
  { 1 index /FID ne {def}{pop pop} ifelse } forall
  /Encoding exch def currentdict end definefont pop} bdef
/isroman {findfont /CharStrings get /Agrave known} bdef
/FMSR {3 1 roll 1 index dup isroman {reencode} {pop pop} ifelse
  exch FMS} bdef
/csm {1 dpi2point div -1 dpi2point div scale neg translate
 dup landscapeMode eq {pop -90 rotate}
  {rotateMode eq {90 rotate} if} ifelse} bdef
% line types: solid, dotted, dashed, dotdash
/SO { [] 0 setdash } bdef
/DO { [.5 dpi2point mul 4 dpi2point mul] 0 setdash } bdef
/DA { [6 dpi2point mul] 0 setdash } bdef
/DD { [.5 dpi2point mul 4 dpi2point mul 6 dpi2point mul 4
  dpi2point mul] 0 setdash } bdef
% macros for lines and objects
/L {lineto stroke} bdef
/MP {3 1 roll moveto 1 sub {rlineto} repeat} bdef
/AP {{rlineto} repeat} bdef
/PDlw -1 def
/W {/PDlw currentlinewidth def setlinewidth} def
/PP {closepath eofill} bdef
/DP {closepath stroke} bdef
/MR {4 -2 roll moveto dup  0 exch rlineto exch 0 rlineto
  neg 0 exch rlineto closepath} bdef
/FR {MR stroke} bdef
/PR {MR fill} bdef
/L1i {{currentfile picstr readhexstring pop} image} bdef
/tMatrix matrix def
/MakeOval {newpath tMatrix currentmatrix pop translate scale
0 0 1 0 360 arc tMatrix setmatrix} bdef
/FO {MakeOval stroke} bdef
/PO {MakeOval fill} bdef
/PD {currentlinewidth 2 div 0 360 arc fill
   PDlw -1 eq not {PDlw w /PDlw -1 def} if} def
/FA {newpath tMatrix currentmatrix pop translate scale
  0 0 1 5 -2 roll arc tMatrix setmatrix stroke} bdef
/PA {newpath tMatrix currentmatrix pop	translate 0 0 moveto scale
  0 0 1 5 -2 roll arc closepath tMatrix setmatrix fill} bdef
/FAn {newpath tMatrix currentmatrix pop translate scale
  0 0 1 5 -2 roll arcn tMatrix setmatrix stroke} bdef
/PAn {newpath tMatrix currentmatrix pop translate 0 0 moveto scale
  0 0 1 5 -2 roll arcn closepath tMatrix setmatrix fill} bdef
/vradius 0 def /hradius 0 def /lry 0 def
/lrx 0 def /uly 0 def /ulx 0 def /rad 0 def
/MRR {/vradius xdef /hradius xdef /lry xdef /lrx xdef /uly xdef
  /ulx xdef newpath tMatrix currentmatrix pop ulx hradius add uly
  vradius add translate hradius vradius scale 0 0 1 180 270 arc 
  tMatrix setmatrix lrx hradius sub uly vradius add translate
  hradius vradius scale 0 0 1 270 360 arc tMatrix setmatrix
  lrx hradius sub lry vradius sub translate hradius vradius scale
  0 0 1 0 90 arc tMatrix setmatrix ulx hradius add lry vradius sub
  translate hradius vradius scale 0 0 1 90 180 arc tMatrix setmatrix
  closepath} bdef
/FRR {MRR stroke } bdef
/PRR {MRR fill } bdef
/MlrRR {/lry xdef /lrx xdef /uly xdef /ulx xdef /rad lry uly sub 2 div def
  newpath tMatrix currentmatrix pop ulx rad add uly rad add translate
  rad rad scale 0 0 1 90 270 arc tMatrix setmatrix lrx rad sub lry rad
  sub translate rad rad scale 0 0 1 270 90 arc tMatrix setmatrix
  closepath} bdef
/FlrRR {MlrRR stroke } bdef
/PlrRR {MlrRR fill } bdef
/MtbRR {/lry xdef /lrx xdef /uly xdef /ulx xdef /rad lrx ulx sub 2 div def
  newpath tMatrix currentmatrix pop ulx rad add uly rad add translate
  rad rad scale 0 0 1 180 360 arc tMatrix setmatrix lrx rad sub lry rad
  sub translate rad rad scale 0 0 1 0 180 arc tMatrix setmatrix
  closepath} bdef
/FtbRR {MtbRR stroke } bdef
/PtbRR {MtbRR fill } bdef
/stri 6 array def /dtri 6 array def
/smat 6 array def /dmat 6 array def
/tmat1 6 array def /tmat2 6 array def /dif 3 array def
/asub {/ind2 exch def /ind1 exch def dup dup
  ind1 get exch ind2 get sub exch } bdef
/tri_to_matrix {
  2 0 asub 3 1 asub 4 0 asub 5 1 asub
  dup 0 get exch 1 get 7 -1 roll astore } bdef
/compute_transform {
  dmat dtri tri_to_matrix tmat1 invertmatrix 
  smat stri tri_to_matrix tmat2 concatmatrix } bdef
/ds {stri astore pop} bdef
/dt {dtri astore pop} bdef
/db {2 copy /cols xdef /rows xdef mul dup 3 mul string
  currentfile 
  3 index 0 eq {/ASCIIHexDecode filter}
  {/ASCII85Decode filter 3 index 2 eq {/RunLengthDecode filter} if }
  ifelse exch readstring pop
  dup 0 3 index getinterval /rbmap xdef
  dup 2 index dup getinterval /gbmap xdef
  1 index dup 2 mul exch getinterval /bbmap xdef pop pop}bdef
/it {gs np dtri aload pop moveto lineto lineto cp c
  cols rows 8 compute_transform 
  rbmap gbmap bbmap true 3 colorimage gr}bdef
/il {newpath moveto lineto stroke}bdef
currentdict end def
%%EndProlog

%%BeginSetup
MathWorks begin

0 cap

end
%%EndSetup

%%Page: 1 1
%%BeginPageSetup
%%PageBoundingBox:    30    88   564   572
MathWorks begin
bpage
%%EndPageSetup

%%BeginObject: obj1
bplot

/dpi2point 8.33333 def
portraitMode 0150 5158 csm

  106   390  4450  4030 rc
84 dict begin %Colortable dictionary
/c0 { 0.000000 0.000000 0.000000 sr} bdef
/c1 { 1.000000 1.000000 1.000000 sr} bdef
/c2 { 0.900000 0.000000 0.000000 sr} bdef
/c3 { 0.000000 0.820000 0.000000 sr} bdef
/c4 { 0.000000 0.000000 0.800000 sr} bdef
/c5 { 0.910000 0.820000 0.320000 sr} bdef
/c6 { 1.000000 0.260000 0.820000 sr} bdef
/c7 { 0.000000 0.820000 0.820000 sr} bdef
c0
1 j
1 sg
   0    0 5001 5001 rf
12.5 w
0 3500 3750 0 0 -3500 750 4000 4 MP
PP
-3750 0 0 3500 3750 0 0 -3500 750 4000 5 MP stroke
gs 750 500 3751 3501 rc
16.6667 w
0 sg
-653 7 -336 10 -284 9 -244 10 -216 9 -186 10 -154 9 -127 10 
-113 9 -106 10 -99 10 -85 9 -80 10 -84 9 -76 10 -61 10 
-68 9 -72 10 -55 10 -56 10 -66 10 -49 9 -52 10 -57 10 
-43 10 -53 10 -46 10 -45 10 -33 9 -30 10 -10 -10 -11 -9 
4 -10 4 -10 4 -10 3 -10 4 -10 3 -10 5 -9 3 -10 
3 -10 4 -10 4 -10 3 -9 3 -10 4 -10 4 -9 4 -10 
4 -9 4 -10 3 -10 4 -9 3 -10 4 -9 5 -10 4 -9 
4 -10 4 -9 3 -10 4 -9 4 -9 4 -10 4 -9 3 -9 
5 -10 4 -9 4 -9 4 -10 4 -9 5 -9 4 -9 5 -9 
4 -10 4 -9 4 -9 4 -9 5 -9 5 -9 4 -9 4 -9 
5 -9 4 -9 4 -9 5 -9 4 -9 4 -9 4 -9 5 -9 
4 -9 4 -9 5 -9 3 -9 4 -8 5 -9 4 -9 4 -9 
5 -9 4 -8 4 -9 4 -9 5 -8 5 -9 5 -9 4 -8 
4 -9 5 -9 4 -8 4 -9 5 -8 4 -9 4 -9 4 -8 
4 -9 4 -8 5 -9 5 -8 4 -8 5 -9 4 -8 5 -9 
5 -8 5 -8 5 -9 5 -8 4 -8 4 -9 5 -8 5 -8 
5 -9 6 -8 5 -8 4 -8 5 -8 5 -9 5 -8 5 -8 
5 -8 5 -8 4 -8 5 -8 6 -9 5 -8 4 -8 4 -8 
5 -8 4 -8 5 -8 6 -8 4 -8 5 -8 4 -8 4 -7 
4 -8 6 -8 5 -8 5 -8 4 -8 5 -8 5 -8 6 -7 
5 -8 5 -8 5 -8 5 -7 4 -8 6 -8 5 -8 5 -7 
4 -8 5 -8 4 -7 5 -8 6 -8 6 -7 6 -8 6 -7 
5 -8 5 -8 5 -7 5 -8 4 -7 5 -8 6 -7 7 -8 
6 -7 6 -8 7 -7 6 -8 5 -7 4 -7 5 -8 5 -7 
6 -8 6 -7 7 -7 6 -8 5 -7 4 -7 5 -8 4 -7 
6 -7 6 -7 6 -8 6 -7 6 -7 7 -7 7 -7 7 -8 
7 -7 7 -7 5 -7 5 -7 6 -7 6 -8 8 -7 7 -7 
8 -7 8 -7 7 -7 6 -7 5 -7 4 -7 3 -7 4 -7 
6 -7 8 -7 9 -7 8 -7 8 -7 6 -7 5 -7 4 -7 
5 -6 7 -7 5 -7 5 -7 5 -7 6 -7 4 -6 7 -7 
8 -7 9 -7 8 -7 9 -6 7 -7 5 -7 5 -7 4 -6 
5 -7 5 -7 7 -6 9 -7 10 -7 11 -6 11 -7 10 -7 
9 -6 7 -7 7 -7 6 -6 6 -7 7 -6 7 -7 9 -6 
10 -7 12 -6 12 -7 13 -6 12 -7 12 -6 11 -7 11 -6 
10 -7 8 -6 7 -7 6 -6 7 -7 8 -6 9 -6 10 -7 
11 -6 13 -6 13 -7 12 -6 10 -6 9 -7 7 -6 6 -6 
8 -7 10 -6 11 -6 13 -6 12 -7 12 -6 10 -6 11 -6 
11 -7 9 -6 8 -6 2853 2820 300 MP stroke
10 -6 9 -6 9 -7 11 -6 13 -6 16 -6 17 -6 20 -6 
22 -6 22 -6 21 -6 20 -7 16 -6 10 -6 8 -6 2 -6 
-1 -6 -2 -6 0 -12 5 -6 11 -6 17 -6 22 -6 26 -6 
32 -6 33 -6 30 -5 26 -6 28 -6 23 -6 21 -6 20 -6 
22 -6 22 -6 22 -6 21 -5 19 -6 18 -6 18 -6 19 -6 
27 -5 40 -6 50 -6 62 -6 66 -6 71 -5 66 -6 57 -6 
42 -5 49 -6 47 -6 47 -6 55 -5 62 -6 49 -6 54 -5 
66 -6 74 -6 91 -5 75 -6 50 -6 15 -5 -21 -6 -54 -5 
-23 -6 9 -6 37 -5 47 -6 47 -5 51 -6 17 -5 -2 -6 
31 -5 71 -6 750 3258 75 MP stroke
gr

16.6667 w
0 sg
0.1 sg
%%IncludeResource: font Helvetica-Bold
/Helvetica-Bold /WindowsLatin1Encoding 183.333 FMSR

1903 4362 mt 
(Log Stress [kPa]) s
 350 3181 mt  -90 rotate
(Bulk Density [kgm) s
90 rotate
%%IncludeResource: font Helvetica-Bold
/Helvetica-Bold /WindowsLatin1Encoding 141.667 FMSR

 259 1582 mt  -90 rotate
(-) s
90 rotate
 259 1500 mt  -90 rotate
(3) s
90 rotate
%%IncludeResource: font Helvetica-Bold
/Helvetica-Bold /WindowsLatin1Encoding 183.333 FMSR

 350 1422 mt  -90 rotate
( ]) s
90 rotate
gs 750 500 3751 3501 rc
/c8 { 1.000000 0.000000 0.000000 sr} bdef
c8
-530 5 -380 10 -304 9 -257 10 -219 9 -190 10 -156 9 -129 10 
-116 9 -110 10 -100 10 -87 9 -83 10 -86 9 -78 10 -63 10 
-70 9 -73 10 -55 10 -56 10 -68 10 -48 9 -53 10 -59 10 
-42 10 -55 10 -47 10 -47 10 -34 9 -32 10 -9 -10 -11 -9 
3 -10 4 -10 4 -10 3 -10 4 -10 4 -10 3 -9 4 -10 
4 -10 3 -10 4 -10 4 -9 3 -10 4 -10 4 -9 4 -10 
3 -9 4 -10 4 -10 4 -9 3 -10 4 -9 4 -10 4 -9 
4 -10 3 -9 4 -10 4 -9 4 -9 4 -10 4 -9 4 -9 
4 -10 3 -9 4 -9 4 -10 4 -9 4 -9 4 -9 4 -9 
4 -10 4 -9 4 -9 4 -9 5 -9 4 -9 4 -9 4 -9 
4 -9 5 -9 4 -9 4 -9 4 -9 4 -9 4 -9 4 -9 
4 -9 4 -9 5 -9 4 -9 4 -8 4 -9 4 -9 4 -9 
5 -9 4 -8 5 -9 4 -9 4 -8 4 -9 5 -9 5 -8 
5 -9 4 -9 4 -8 4 -9 5 -8 4 -9 5 -9 4 -8 
4 -9 4 -8 5 -9 5 -8 4 -8 5 -9 4 -8 4 -9 
4 -8 5 -8 5 -9 4 -8 5 -8 5 -9 4 -8 5 -8 
5 -9 5 -8 5 -8 5 -8 4 -8 4 -9 5 -8 5 -8 
5 -8 5 -8 5 -8 5 -8 4 -9 5 -8 4 -8 5 -8 
5 -8 6 -8 5 -8 5 -8 5 -8 5 -8 5 -8 6 -7 
5 -8 5 -8 6 -8 5 -8 6 -8 6 -8 5 -8 6 -7 
5 -8 5 -8 6 -8 6 -7 5 -8 6 -8 5 -8 5 -7 
5 -8 5 -8 5 -7 5 -8 5 -8 6 -7 6 -8 5 -7 
5 -8 6 -8 6 -7 6 -8 6 -7 5 -8 5 -7 5 -8 
5 -7 5 -8 6 -7 6 -8 6 -7 6 -7 6 -8 5 -7 
6 -8 5 -7 6 -7 6 -8 6 -7 6 -7 6 -8 6 -7 
5 -7 5 -7 6 -8 6 -7 7 -7 6 -7 7 -7 6 -8 
6 -7 5 -7 6 -7 7 -7 6 -7 6 -8 7 -7 7 -7 
7 -7 7 -7 8 -7 8 -7 6 -7 6 -7 6 -7 6 -7 
6 -7 7 -7 6 -7 7 -7 7 -7 7 -7 6 -7 7 -7 
7 -6 7 -7 7 -7 8 -7 8 -7 7 -7 7 -6 7 -7 
8 -7 7 -7 8 -7 8 -6 8 -7 7 -7 8 -7 9 -6 
8 -7 8 -7 8 -6 6 -7 6 -7 7 -6 6 -7 7 -7 
7 -6 7 -7 7 -7 8 -6 7 -7 8 -6 8 -7 9 -6 
10 -7 11 -6 10 -7 10 -6 9 -7 9 -6 9 -7 8 -6 
7 -7 6 -6 6 -7 5 -6 6 -7 8 -6 9 -6 10 -7 
11 -6 11 -6 10 -7 11 -6 11 -6 10 -7 9 -6 10 -6 
10 -7 9 -6 9 -6 9 -6 9 -7 7 -6 9 -6 10 -6 
11 -7 13 -6 16 -6 2850 2820 300 MP stroke
15 -6 16 -6 17 -7 19 -6 18 -6 18 -6 17 -6 14 -6 
9 -6 9 -6 11 -6 11 -7 12 -6 15 -6 16 -6 17 -6 
16 -6 17 -6 17 -6 16 -6 20 -6 23 -6 25 -6 28 -6 
31 -6 30 -6 30 -6 29 -5 29 -6 29 -6 29 -6 30 -6 
34 -6 33 -6 42 -6 51 -6 63 -5 82 -6 111 -6 126 -6 
137 -6 146 -5 121 -6 72 -6 51 -6 46 -6 39 -5 36 -6 
32 -6 46 -5 78 -6 93 -6 28 -1 750 3130 54 MP stroke
/c9 { 0.000000 0.000000 1.000000 sr} bdef
c9
-508 5 -381 9 -302 9 -243 9 -194 9 -166 9 -145 9 -128 9 
-115 9 -104 9 -95 9 -90 9 -84 9 -77 9 -73 9 -72 10 
-67 9 -62 9 -62 9 -62 9 -56 10 -55 9 -57 9 -53 10 
-62 9 -107 9 -81 10 -63 9 -51 -9 -33 -10 4 -9 3 -9 
3 -10 4 -9 3 -9 4 -10 3 -9 4 -9 3 -9 3 -9 
4 -10 3 -9 4 -9 3 -9 4 -9 3 -9 3 -9 4 -9 
4 -9 3 -9 4 -9 4 -9 3 -9 4 -9 4 -9 3 -9 
4 -9 4 -9 4 -9 4 -9 4 -8 4 -9 3 -9 4 -9 
5 -9 4 -8 4 -9 4 -9 4 -8 4 -9 5 -9 4 -8 
5 -9 4 -9 4 -8 4 -9 4 -8 5 -9 4 -9 5 -8 
4 -9 4 -8 4 -9 4 -8 5 -8 4 -9 4 -8 4 -9 
5 -8 5 -8 4 -9 5 -8 4 -8 4 -9 4 -8 4 -8 
4 -9 4 -8 4 -8 4 -8 4 -8 4 -9 5 -8 4 -8 
5 -8 5 -8 4 -8 5 -8 5 -9 4 -8 4 -8 6 -8 
4 -8 5 -8 4 -8 5 -8 3 -8 5 -8 4 -8 5 -7 
4 -8 5 -8 4 -8 5 -8 4 -8 6 -8 4 -8 6 -7 
5 -8 4 -8 4 -8 4 -7 5 -8 4 -8 5 -8 5 -7 
4 -8 5 -8 5 -7 5 -8 5 -8 5 -7 5 -8 5 -7 
6 -8 4 -8 6 -7 5 -8 5 -7 4 -8 5 -7 5 -8 
4 -7 5 -8 6 -7 5 -8 4 -7 4 -7 5 -8 4 -7 
6 -8 5 -7 6 -7 5 -8 6 -7 5 -7 5 -8 4 -7 
5 -7 5 -7 5 -8 5 -7 5 -7 5 -7 5 -7 5 -8 
5 -7 6 -7 7 -7 6 -7 5 -7 5 -8 5 -7 4 -7 
5 -7 5 -7 5 -7 5 -7 6 -7 6 -7 6 -7 8 -7 
7 -7 7 -7 6 -7 6 -7 4 -7 5 -7 5 -7 6 -7 
6 -6 7 -7 7 -7 7 -7 6 -7 6 -7 6 -6 6 -7 
7 -7 7 -7 8 -7 8 -6 7 -7 6 -7 5 -7 4 -6 
6 -7 6 -7 9 -6 9 -7 9 -7 9 -6 6 -7 6 -7 
5 -6 6 -7 6 -7 7 -6 8 -7 7 -6 9 -7 7 -6 
7 -7 7 -6 7 -7 7 -6 9 -7 8 -6 9 -7 7 -6 
7 -7 6 -6 7 -7 6 -6 9 -7 10 -6 10 -6 10 -7 
11 -6 8 -6 7 -7 7 -6 7 -6 8 -7 9 -6 10 -6 
10 -7 10 -6 11 -6 10 -6 9 -7 11 -6 11 -6 10 -6 
10 -7 9 -6 7 -6 7 -6 7 -6 7 -7 9 -6 11 -6 
14 -6 16 -6 17 -6 16 -6 15 -6 14 -6 13 -7 11 -6 
11 -6 10 -6 9 -6 7 -6 8 -6 8 -6 9 -6 11 -6 
12 -6 14 -6 15 -6 17 -6 17 -6 18 -6 17 -5 16 -6 
16 -6 15 -6 14 -6 2706 3013 300 MP stroke
12 -6 11 -6 8 -6 9 -6 10 -5 11 -6 14 -6 17 -6 
19 -6 20 -5 20 -6 22 -6 21 -6 20 -6 22 -5 22 -6 
22 -6 21 -5 20 -6 19 -6 18 -6 16 -5 18 -6 22 -6 
27 -5 31 -6 37 -6 42 -5 44 -6 50 -6 59 -5 68 -6 
78 -5 88 -6 92 -6 88 -5 71 -6 63 -5 44 -6 29 -5 
16 -6 10 -5 -1 -6 8 -5 10 -6 23 -5 36 -6 61 -5 
64 -6 65 -5 60 -6 62 -5 52 -6 78 -5 87 -5 750 3323 56 MP stroke
/c10 { 1.000000 0.000000 1.000000 sr} bdef
c10
-305 6 -320 8 -265 8 -220 8 -189 9 -164 8 -138 8 -113 8 
-100 8 -92 8 -91 8 -97 9 -94 8 -96 8 -122 8 -173 8 
-215 9 -237 8 -242 8 -158 9 -106 8 -71 -8 -36 -9 4 -8 
4 -8 3 -9 3 -8 4 -8 4 -8 4 -8 4 -9 4 -8 
4 -8 4 -8 4 -8 4 -8 4 -8 4 -9 4 -8 4 -8 
4 -8 5 -8 4 -8 4 -8 4 -8 4 -8 5 -8 4 -8 
5 -7 4 -8 5 -8 4 -8 5 -8 5 -8 4 -8 5 -8 
4 -7 5 -8 4 -8 5 -8 5 -7 5 -8 4 -8 5 -8 
4 -7 5 -8 5 -8 4 -7 5 -8 5 -8 4 -7 5 -8 
5 -7 5 -8 5 -8 5 -7 5 -8 5 -7 5 -8 5 -7 
5 -8 5 -7 4 -8 6 -7 5 -8 5 -7 4 -7 5 -8 
5 -7 5 -8 4 -7 6 -7 5 -8 5 -7 5 -7 4 -8 
5 -7 5 -7 6 -7 5 -8 5 -7 5 -7 5 -7 4 -7 
5 -8 5 -7 5 -7 5 -7 5 -7 5 -7 5 -8 5 -7 
5 -7 6 -7 5 -7 6 -7 5 -7 5 -7 6 -7 5 -7 
6 -7 5 -7 6 -7 5 -7 5 -7 4 -7 5 -7 5 -7 
6 -7 6 -6 5 -7 5 -7 5 -7 4 -7 5 -7 5 -6 
6 -7 5 -7 5 -7 5 -7 5 -6 5 -7 6 -7 5 -7 
6 -6 6 -7 6 -7 6 -6 6 -7 6 -7 6 -6 6 -7 
7 -7 6 -6 6 -7 5 -7 6 -6 5 -7 5 -6 6 -7 
6 -6 6 -7 6 -6 7 -7 5 -6 6 -7 6 -6 7 -7 
7 -6 6 -7 6 -6 6 -7 7 -6 7 -7 7 -6 7 -6 
8 -7 7 -6 6 -6 6 -7 6 -6 6 -6 6 -7 7 -6 
7 -6 7 -7 7 -6 6 -6 7 -6 7 -7 7 -6 7 -6 
7 -6 7 -7 8 -6 7 -6 9 -6 9 -6 9 -7 8 -6 
8 -6 6 -6 6 -6 6 -6 7 -6 8 -6 10 -6 9 -7 
10 -6 10 -6 8 -6 8 -6 8 -6 8 -6 7 -6 8 -6 
8 -6 8 -6 10 -6 9 -6 9 -6 8 -6 7 -6 7 -5 
8 -6 7 -6 7 -6 8 -6 8 -6 9 -6 8 -6 8 -6 
7 -5 8 -6 8 -6 8 -6 10 -6 10 -5 9 -6 9 -6 
9 -6 9 -6 8 -5 8 -6 9 -6 9 -5 11 -6 10 -6 
11 -6 10 -5 9 -6 9 -6 9 -5 8 -6 9 -6 10 -5 
9 -6 10 -6 11 -5 11 -6 11 -5 10 -6 9 -6 10 -5 
9 -6 9 -5 11 -6 11 -5 11 -6 11 -5 12 -6 10 -5 
11 -6 9 -5 10 -6 12 -5 14 -6 15 -5 15 -6 14 -5 
11 -6 11 -5 12 -5 13 -6 13 -5 14 -6 12 -5 11 -5 
10 -6 9 -5 10 -6 9 -5 10 -5 9 -6 11 -5 13 -5 
13 -5 14 -6 11 -5 2497 3409 300 MP stroke
10 -5 10 -6 8 -5 7 -5 9 -5 9 -6 11 -5 11 -5 
12 -5 12 -6 10 -5 10 -5 10 -5 10 -5 13 -6 13 -5 
14 -5 16 -5 18 -5 18 -5 19 -5 20 -6 17 -5 13 -5 
12 -5 11 -5 11 -5 14 -5 11 -5 13 -5 13 -5 14 -5 
13 -6 16 -5 15 -5 15 -5 14 -5 14 -5 14 -5 17 -5 
18 -5 23 -5 24 -5 27 -5 28 -5 31 -4 29 -5 28 -5 
25 -5 26 -5 23 -5 19 -5 17 -5 17 -5 17 -5 14 -5 
16 -5 19 -4 22 -5 26 -5 27 -5 37 -5 41 -5 38 -4 
33 -5 35 -5 27 -5 29 -5 33 -5 50 -4 55 -5 48 -5 
58 -5 86 -4 73 -5 68 -5 43 -2 750 3792 78 MP stroke
gr

c10
0 sg
%%IncludeResource: font Helvetica
/Helvetica /WindowsLatin1Encoding 83.3333 FMSR

 732 4037 mt 
( ) s
4483  536 mt 
( ) s
8.33333 w
DO
SO
12.5 w
0.1 sg
 750  500 mt 4500  500 L
 750 4000 mt 4500 4000 L
4500 4000 mt 4500  500 L
 750 4000 mt  750  500 L
 750 4000 mt 4500 4000 L
 750 4000 mt  750  500 L
 750 4000 mt  750 3971 L
 750  500 mt  750  528 L
 750 4000 mt  750 3943 L
 750  500 mt  750  556 L
%%IncludeResource: font Helvetica
/Helvetica /WindowsLatin1Encoding 133.333 FMSR

 626 4188 mt 
(10) s
%%IncludeResource: font Helvetica
/Helvetica /WindowsLatin1Encoding 88.8889 FMSR

 774 4106 mt 
(-1) s
1116 4000 mt 1116 3971 L
1116  500 mt 1116  528 L
1331 4000 mt 1331 3971 L
1331  500 mt 1331  528 L
1483 4000 mt 1483 3971 L
1483  500 mt 1483  528 L
1601 4000 mt 1601 3971 L
1601  500 mt 1601  528 L
1697 4000 mt 1697 3971 L
1697  500 mt 1697  528 L
1779 4000 mt 1779 3971 L
1779  500 mt 1779  528 L
1849 4000 mt 1849 3971 L
1849  500 mt 1849  528 L
1912 4000 mt 1912 3971 L
1912  500 mt 1912  528 L
1967 4000 mt 1967 3971 L
1967  500 mt 1967  528 L
1967 4000 mt 1967 3943 L
1967  500 mt 1967  556 L
%%IncludeResource: font Helvetica
/Helvetica /WindowsLatin1Encoding 133.333 FMSR

1869 4188 mt 
(10) s
%%IncludeResource: font Helvetica
/Helvetica /WindowsLatin1Encoding 88.8889 FMSR

2017 4106 mt 
(0) s
2334 4000 mt 2334 3971 L
2334  500 mt 2334  528 L
2548 4000 mt 2548 3971 L
2548  500 mt 2548  528 L
2701 4000 mt 2701 3971 L
2701  500 mt 2701  528 L
2819 4000 mt 2819 3971 L
2819  500 mt 2819  528 L
2915 4000 mt 2915 3971 L
2915  500 mt 2915  528 L
2997 4000 mt 2997 3971 L
2997  500 mt 2997  528 L
3067 4000 mt 3067 3971 L
3067  500 mt 3067  528 L
3129 4000 mt 3129 3971 L
3129  500 mt 3129  528 L
3185 4000 mt 3185 3971 L
3185  500 mt 3185  528 L
3185 4000 mt 3185 3943 L
3185  500 mt 3185  556 L
%%IncludeResource: font Helvetica
/Helvetica /WindowsLatin1Encoding 133.333 FMSR

3087 4188 mt 
(10) s
%%IncludeResource: font Helvetica
/Helvetica /WindowsLatin1Encoding 88.8889 FMSR

3235 4106 mt 
(1) s
3552 4000 mt 3552 3971 L
3552  500 mt 3552  528 L
3766 4000 mt 3766 3971 L
3766  500 mt 3766  528 L
3918 4000 mt 3918 3971 L
3918  500 mt 3918  528 L
4036 4000 mt 4036 3971 L
4036  500 mt 4036  528 L
4133 4000 mt 4133 3971 L
4133  500 mt 4133  528 L
4214 4000 mt 4214 3971 L
4214  500 mt 4214  528 L
4285 4000 mt 4285 3971 L
4285  500 mt 4285  528 L
4347 4000 mt 4347 3971 L
4347  500 mt 4347  528 L
4403 4000 mt 4403 3971 L
4403  500 mt 4403  528 L
4403 4000 mt 4403 3943 L
4403  500 mt 4403  556 L
%%IncludeResource: font Helvetica
/Helvetica /WindowsLatin1Encoding 133.333 FMSR

4305 4188 mt 
(10) s
%%IncludeResource: font Helvetica
/Helvetica /WindowsLatin1Encoding 88.8889 FMSR

4453 4106 mt 
(2) s
 750 4000 mt  806 4000 L
4500 4000 mt 4443 4000 L
%%IncludeResource: font Helvetica
/Helvetica /WindowsLatin1Encoding 133.333 FMSR

 430 4049 mt 
(1900) s
 750 3650 mt  806 3650 L
4500 3650 mt 4443 3650 L
 430 3699 mt 
(2000) s
 750 3300 mt  806 3300 L
4500 3300 mt 4443 3300 L
 430 3349 mt 
(2100) s
 750 2950 mt  806 2950 L
4500 2950 mt 4443 2950 L
 430 2999 mt 
(2200) s
 750 2600 mt  806 2600 L
4500 2600 mt 4443 2600 L
 430 2649 mt 
(2300) s
 750 2250 mt  806 2250 L
4500 2250 mt 4443 2250 L
 430 2299 mt 
(2400) s
 750 1900 mt  806 1900 L
4500 1900 mt 4443 1900 L
 430 1949 mt 
(2500) s
 750 1550 mt  806 1550 L
4500 1550 mt 4443 1550 L
 430 1599 mt 
(2600) s
 750 1200 mt  806 1200 L
4500 1200 mt 4443 1200 L
 430 1249 mt 
(2700) s
 750  850 mt  806  850 L
4500  850 mt 4443  850 L
 430  899 mt 
(2800) s
 750  500 mt  806  500 L
4500  500 mt 4443  500 L
 430  549 mt 
(2900) s
 750  500 mt 4500  500 L
 750 4000 mt 4500 4000 L
4500 4000 mt 4500  500 L
 750 4000 mt  750  500 L
0 sg
%%IncludeResource: font Helvetica-Bold
/Helvetica-Bold /WindowsLatin1Encoding 125 FMSR

1277 1609 mt 
(No Damping Model) s
gs 950 1465 1485 696 rc
16.6667 w
251 0 1000 1562 2 MP stroke
gr

16.6667 w
1277 1776 mt 
(GD = 0.0) s
gs 950 1465 1485 696 rc
c8
251 0 1000 1729 2 MP stroke
gr

c8
0 sg
1277 1942 mt 
(GD = 0.2) s
gs 950 1465 1485 696 rc
c9
251 0 1000 1895 2 MP stroke
gr

c9
0 sg
1277 2109 mt 
(GD = 0.75) s
gs 950 1465 1485 696 rc
c10
251 0 1000 2062 2 MP stroke
12.5 w
gr

12.5 w
c10

end %%Color Dict

eplot
%%EndObject

epage
end

showpage

%%Trailer
%%EOF
