%!PS-Adobe-3.0 EPSF-3.0
%%Creator: MATLAB, The MathWorks, Inc. Version 8.1.0.604 (R2013a). Operating System: Microsoft Windows 7.
%%Title: .\GD_Confined_Porosity.eps
%%CreationDate: 08/17/2013  15:29:11
%%DocumentNeededFonts: Helvetica-Bold
%%+ Helvetica
%%DocumentProcessColors: Cyan Magenta Yellow Black
%%LanguageLevel: 2
%%Pages: 1
%%BoundingBox:    41    88   564   570
%%EndComments

%%BeginProlog
% MathWorks dictionary
/MathWorks 160 dict begin
% definition operators
/bdef {bind def} bind def
/ldef {load def} bind def
/xdef {exch def} bdef
/xstore {exch store} bdef
% operator abbreviations
/c  /clip ldef
/cc /concat ldef
/cp /closepath ldef
/gr /grestore ldef
/gs /gsave ldef
/mt /moveto ldef
/np /newpath ldef
/cm /currentmatrix ldef
/sm /setmatrix ldef
/rm /rmoveto ldef
/rl /rlineto ldef
/s {show newpath} bdef
/sc {setcmykcolor} bdef
/sr /setrgbcolor ldef
/sg /setgray ldef
/w /setlinewidth ldef
/j /setlinejoin ldef
/cap /setlinecap ldef
/rc {rectclip} bdef
/rf {rectfill} bdef
% page state control
/pgsv () def
/bpage {/pgsv save def} bdef
/epage {pgsv restore} bdef
/bplot /gsave ldef
/eplot {stroke grestore} bdef
% orientation switch
/portraitMode 0 def /landscapeMode 1 def /rotateMode 2 def
% coordinate system mappings
/dpi2point 0 def
% font control
/FontSize 0 def
/FMS {/FontSize xstore findfont [FontSize 0 0 FontSize neg 0 0]
  makefont setfont} bdef
/ISOLatin1Encoding where {pop /WindowsLatin1Encoding 256 array bdef
ISOLatin1Encoding WindowsLatin1Encoding copy pop
/.notdef/.notdef/quotesinglbase/florin/quotedblbase/ellipsis/dagger
/daggerdbl/circumflex/perthousand/Scaron/guilsinglleft/OE/.notdef/.notdef
/.notdef/.notdef/quoteleft/quoteright/quotedblleft/quotedblright/bullet
/endash/emdash/tilde/trademark/scaron/guilsinglright/oe/.notdef/.notdef
/Ydieresis WindowsLatin1Encoding 128 32 getinterval astore pop}
{/WindowsLatin1Encoding StandardEncoding bdef} ifelse
/reencode {exch dup where {pop load} {pop StandardEncoding} ifelse
  exch dup 3 1 roll findfont dup length dict begin
  { 1 index /FID ne {def}{pop pop} ifelse } forall
  /Encoding exch def currentdict end definefont pop} bdef
/isroman {findfont /CharStrings get /Agrave known} bdef
/FMSR {3 1 roll 1 index dup isroman {reencode} {pop pop} ifelse
  exch FMS} bdef
/csm {1 dpi2point div -1 dpi2point div scale neg translate
 dup landscapeMode eq {pop -90 rotate}
  {rotateMode eq {90 rotate} if} ifelse} bdef
% line types: solid, dotted, dashed, dotdash
/SO { [] 0 setdash } bdef
/DO { [.5 dpi2point mul 4 dpi2point mul] 0 setdash } bdef
/DA { [6 dpi2point mul] 0 setdash } bdef
/DD { [.5 dpi2point mul 4 dpi2point mul 6 dpi2point mul 4
  dpi2point mul] 0 setdash } bdef
% macros for lines and objects
/L {lineto stroke} bdef
/MP {3 1 roll moveto 1 sub {rlineto} repeat} bdef
/AP {{rlineto} repeat} bdef
/PDlw -1 def
/W {/PDlw currentlinewidth def setlinewidth} def
/PP {closepath eofill} bdef
/DP {closepath stroke} bdef
/MR {4 -2 roll moveto dup  0 exch rlineto exch 0 rlineto
  neg 0 exch rlineto closepath} bdef
/FR {MR stroke} bdef
/PR {MR fill} bdef
/L1i {{currentfile picstr readhexstring pop} image} bdef
/tMatrix matrix def
/MakeOval {newpath tMatrix currentmatrix pop translate scale
0 0 1 0 360 arc tMatrix setmatrix} bdef
/FO {MakeOval stroke} bdef
/PO {MakeOval fill} bdef
/PD {currentlinewidth 2 div 0 360 arc fill
   PDlw -1 eq not {PDlw w /PDlw -1 def} if} def
/FA {newpath tMatrix currentmatrix pop translate scale
  0 0 1 5 -2 roll arc tMatrix setmatrix stroke} bdef
/PA {newpath tMatrix currentmatrix pop	translate 0 0 moveto scale
  0 0 1 5 -2 roll arc closepath tMatrix setmatrix fill} bdef
/FAn {newpath tMatrix currentmatrix pop translate scale
  0 0 1 5 -2 roll arcn tMatrix setmatrix stroke} bdef
/PAn {newpath tMatrix currentmatrix pop translate 0 0 moveto scale
  0 0 1 5 -2 roll arcn closepath tMatrix setmatrix fill} bdef
/vradius 0 def /hradius 0 def /lry 0 def
/lrx 0 def /uly 0 def /ulx 0 def /rad 0 def
/MRR {/vradius xdef /hradius xdef /lry xdef /lrx xdef /uly xdef
  /ulx xdef newpath tMatrix currentmatrix pop ulx hradius add uly
  vradius add translate hradius vradius scale 0 0 1 180 270 arc 
  tMatrix setmatrix lrx hradius sub uly vradius add translate
  hradius vradius scale 0 0 1 270 360 arc tMatrix setmatrix
  lrx hradius sub lry vradius sub translate hradius vradius scale
  0 0 1 0 90 arc tMatrix setmatrix ulx hradius add lry vradius sub
  translate hradius vradius scale 0 0 1 90 180 arc tMatrix setmatrix
  closepath} bdef
/FRR {MRR stroke } bdef
/PRR {MRR fill } bdef
/MlrRR {/lry xdef /lrx xdef /uly xdef /ulx xdef /rad lry uly sub 2 div def
  newpath tMatrix currentmatrix pop ulx rad add uly rad add translate
  rad rad scale 0 0 1 90 270 arc tMatrix setmatrix lrx rad sub lry rad
  sub translate rad rad scale 0 0 1 270 90 arc tMatrix setmatrix
  closepath} bdef
/FlrRR {MlrRR stroke } bdef
/PlrRR {MlrRR fill } bdef
/MtbRR {/lry xdef /lrx xdef /uly xdef /ulx xdef /rad lrx ulx sub 2 div def
  newpath tMatrix currentmatrix pop ulx rad add uly rad add translate
  rad rad scale 0 0 1 180 360 arc tMatrix setmatrix lrx rad sub lry rad
  sub translate rad rad scale 0 0 1 0 180 arc tMatrix setmatrix
  closepath} bdef
/FtbRR {MtbRR stroke } bdef
/PtbRR {MtbRR fill } bdef
/stri 6 array def /dtri 6 array def
/smat 6 array def /dmat 6 array def
/tmat1 6 array def /tmat2 6 array def /dif 3 array def
/asub {/ind2 exch def /ind1 exch def dup dup
  ind1 get exch ind2 get sub exch } bdef
/tri_to_matrix {
  2 0 asub 3 1 asub 4 0 asub 5 1 asub
  dup 0 get exch 1 get 7 -1 roll astore } bdef
/compute_transform {
  dmat dtri tri_to_matrix tmat1 invertmatrix 
  smat stri tri_to_matrix tmat2 concatmatrix } bdef
/ds {stri astore pop} bdef
/dt {dtri astore pop} bdef
/db {2 copy /cols xdef /rows xdef mul dup 3 mul string
  currentfile 
  3 index 0 eq {/ASCIIHexDecode filter}
  {/ASCII85Decode filter 3 index 2 eq {/RunLengthDecode filter} if }
  ifelse exch readstring pop
  dup 0 3 index getinterval /rbmap xdef
  dup 2 index dup getinterval /gbmap xdef
  1 index dup 2 mul exch getinterval /bbmap xdef pop pop}bdef
/it {gs np dtri aload pop moveto lineto lineto cp c
  cols rows 8 compute_transform 
  rbmap gbmap bbmap true 3 colorimage gr}bdef
/il {newpath moveto lineto stroke}bdef
currentdict end def
%%EndProlog

%%BeginSetup
MathWorks begin

0 cap

end
%%EndSetup

%%Page: 1 1
%%BeginPageSetup
%%PageBoundingBox:    41    88   564   570
MathWorks begin
bpage
%%EndPageSetup

%%BeginObject: obj1
bplot

/dpi2point 8.33333 def
portraitMode 0150 5158 csm

  194   408  4362  4011 rc
84 dict begin %Colortable dictionary
/c0 { 0.000000 0.000000 0.000000 sr} bdef
/c1 { 1.000000 1.000000 1.000000 sr} bdef
/c2 { 0.900000 0.000000 0.000000 sr} bdef
/c3 { 0.000000 0.820000 0.000000 sr} bdef
/c4 { 0.000000 0.000000 0.800000 sr} bdef
/c5 { 0.910000 0.820000 0.320000 sr} bdef
/c6 { 1.000000 0.260000 0.820000 sr} bdef
/c7 { 0.000000 0.820000 0.820000 sr} bdef
c0
1 j
1 sg
   0    0 5001 5001 rf
12.5 w
0 3500 3750 0 0 -3500 750 3999 4 MP
PP
-3750 0 0 3500 3750 0 0 -3500 750 3999 5 MP stroke
gs 750 499 3751 3502 rc
16.6667 w
0 sg
-653 -7 -336 -9 -284 -8 -244 -9 -216 -9 -186 -9 -154 -8 -127 -9 
-113 -9 -106 -9 -99 -9 -85 -8 -80 -9 -84 -9 -76 -9 -61 -9 
-68 -9 -72 -9 -55 -9 -56 -9 -66 -9 -49 -9 -52 -9 -57 -9 
-43 -9 -53 -9 -46 -9 -45 -9 -33 -9 -30 -10 -10 10 -11 9 
4 9 4 9 4 9 3 9 4 9 3 9 5 9 3 9 
3 9 4 9 4 9 3 9 3 9 4 9 4 9 4 9 
4 8 4 9 3 9 4 9 3 9 4 8 5 9 4 9 
4 9 4 8 3 9 4 9 4 8 4 9 4 8 3 9 
5 9 4 8 4 9 4 8 4 9 5 8 4 9 5 8 
4 8 4 9 4 8 4 9 5 8 5 8 4 9 4 8 
5 8 4 9 4 8 5 8 4 8 4 9 4 8 5 8 
4 8 4 8 5 9 3 8 4 8 5 8 4 8 4 8 
5 8 4 8 4 8 4 8 5 8 5 8 5 8 4 8 
4 8 5 8 4 8 4 8 5 8 4 8 4 7 4 8 
4 8 4 8 5 8 5 7 4 8 5 8 4 8 5 7 
5 8 5 8 5 7 5 8 4 8 4 7 5 8 5 8 
5 7 6 8 5 7 4 8 5 8 5 7 5 8 5 7 
5 8 5 7 4 7 5 8 6 7 5 8 4 7 4 8 
5 7 4 7 5 8 6 7 4 7 5 8 4 7 4 7 
4 7 6 8 5 7 5 7 4 7 5 8 5 7 6 7 
5 7 5 7 5 7 5 8 4 7 6 7 5 7 5 7 
4 7 5 7 4 7 5 7 6 7 6 7 6 7 6 7 
5 7 5 7 5 7 5 7 4 7 5 7 6 7 7 7 
6 7 6 6 7 7 6 7 5 7 4 7 5 7 5 6 
6 7 6 7 7 7 6 6 5 7 4 7 5 7 4 6 
6 7 6 7 6 6 6 7 6 7 7 6 7 7 7 6 
7 7 7 7 5 6 5 7 6 6 6 7 8 6 7 7 
8 6 8 7 7 6 6 7 5 6 4 7 3 6 4 7 
6 6 8 6 9 7 8 6 8 7 6 6 5 6 4 7 
5 6 7 6 5 7 5 6 5 6 6 7 4 6 7 6 
8 6 9 7 8 6 9 6 7 6 5 6 5 7 4 6 
5 6 5 6 7 6 9 6 10 7 11 6 11 6 10 6 
9 6 7 6 7 6 6 6 6 6 7 6 7 6 9 6 
10 6 12 6 12 6 13 6 12 6 12 6 11 6 11 6 
10 6 8 6 7 6 6 6 7 6 8 6 9 5 10 6 
11 6 13 6 13 6 12 6 10 5 9 6 7 6 6 6 
8 6 10 5 11 6 13 6 12 6 12 5 10 6 11 6 
11 6 9 5 8 6 2853 1749 300 MP stroke
10 6 9 5 9 6 11 6 13 5 16 6 17 6 20 5 
22 6 22 5 21 6 20 6 16 5 10 6 8 5 2 6 
-1 5 -2 6 0 11 5 5 11 6 17 5 22 6 26 5 
32 6 33 5 30 6 26 5 28 6 23 5 21 5 20 6 
22 5 22 6 22 5 21 5 19 6 18 5 18 5 19 6 
27 5 40 5 50 6 62 5 66 5 71 6 66 5 57 5 
42 6 49 5 47 5 47 5 55 6 62 5 49 5 54 5 
66 5 74 6 91 5 75 5 50 5 15 5 -21 5 -54 6 
-23 5 9 5 37 5 47 5 47 5 51 5 17 5 -2 5 
31 6 71 5 750 1346 75 MP stroke
gr

16.6667 w
0 sg
0.1 sg
%%IncludeResource: font Helvetica-Bold
/Helvetica-Bold /WindowsLatin1Encoding 183.333 FMSR

1903 4361 mt 
(Log Stress [kPa]) s
 387 2611 mt  -90 rotate
(Porosity) s
90 rotate
gs 750 499 3751 3502 rc
/c8 { 1.000000 0.000000 0.000000 sr} bdef
c8
-530 -5 -380 -9 -304 -8 -257 -9 -219 -9 -190 -9 -156 -8 -129 -9 
-116 -9 -110 -9 -100 -9 -87 -8 -83 -9 -86 -9 -78 -9 -63 -9 
-70 -9 -73 -9 -55 -9 -56 -9 -68 -9 -48 -9 -53 -9 -59 -9 
-42 -9 -55 -9 -47 -9 -47 -9 -34 -9 -32 -10 -9 10 -11 9 
3 9 4 9 4 9 3 9 4 9 4 9 3 9 4 9 
4 9 3 9 4 9 4 9 3 9 4 9 4 9 4 9 
3 8 4 9 4 9 4 9 3 9 4 8 4 9 4 9 
4 9 3 8 4 9 4 9 4 8 4 9 4 8 4 9 
4 9 3 8 4 9 4 8 4 9 4 8 4 9 4 8 
4 8 4 9 4 8 4 9 5 8 4 8 4 9 4 8 
4 8 5 9 4 8 4 8 4 8 4 9 4 8 4 8 
4 8 4 8 5 9 4 8 4 8 4 8 4 8 4 8 
5 8 4 8 5 8 4 8 4 8 4 8 5 8 5 8 
5 8 4 8 4 8 4 8 5 8 4 8 5 7 4 8 
4 8 4 8 5 8 5 7 4 8 5 8 4 8 4 7 
4 8 5 8 5 7 4 8 5 8 5 7 4 8 5 8 
5 7 5 8 5 7 5 8 4 8 4 7 5 8 5 7 
5 8 5 7 5 7 5 8 4 7 5 8 4 7 5 8 
5 7 6 7 5 8 5 7 5 7 5 8 5 7 6 7 
5 7 5 8 6 7 5 7 6 7 6 8 5 7 6 7 
5 7 5 7 6 7 6 8 5 7 6 7 5 7 5 7 
5 7 5 7 5 7 5 7 5 7 6 7 6 7 5 7 
5 7 6 7 6 7 6 7 6 7 5 7 5 7 5 7 
5 7 5 6 6 7 6 7 6 7 6 7 6 7 5 6 
6 7 5 7 6 7 6 6 6 7 6 7 6 7 6 6 
5 7 5 7 6 6 6 7 7 7 6 6 7 7 6 6 
6 7 5 7 6 6 7 7 6 6 6 7 7 6 7 7 
7 6 7 7 8 6 8 7 6 6 6 7 6 6 6 7 
6 6 7 6 6 7 7 6 7 7 7 6 6 6 7 7 
7 6 7 6 7 7 8 6 8 6 7 7 7 6 7 6 
8 6 7 7 8 6 8 6 8 6 7 6 8 7 9 6 
8 6 8 6 8 6 6 6 6 7 7 6 6 6 7 6 
7 6 7 6 7 6 8 6 7 6 8 6 8 6 9 6 
10 6 11 6 10 6 10 6 9 6 9 6 9 6 8 6 
7 6 6 6 6 6 5 6 6 6 8 6 9 5 10 6 
11 6 11 6 10 6 11 6 11 5 10 6 9 6 10 6 
10 6 9 5 9 6 9 6 9 6 7 5 9 6 10 6 
11 6 13 5 16 6 2850 1749 300 MP stroke
15 6 16 5 17 6 19 6 18 5 18 6 17 6 14 5 
9 6 9 5 11 6 11 6 12 5 15 6 16 5 17 6 
16 5 17 6 17 5 16 6 20 5 23 6 25 5 28 6 
31 5 30 6 30 5 29 6 29 5 29 6 29 5 30 5 
34 6 33 5 42 6 51 5 63 5 82 6 111 5 126 5 
137 6 146 5 121 5 72 6 51 5 46 5 39 6 36 5 
32 5 46 6 78 5 93 5 28 1 750 1464 54 MP stroke
/c9 { 0.000000 0.000000 1.000000 sr} bdef
c9
-508 -4 -381 -8 -302 -9 -243 -8 -194 -8 -166 -8 -145 -9 -128 -8 
-115 -8 -104 -9 -95 -8 -90 -8 -84 -9 -77 -8 -73 -9 -72 -8 
-67 -8 -62 -9 -62 -8 -62 -9 -56 -8 -55 -9 -57 -8 -53 -9 
-62 -9 -107 -8 -81 -9 -63 -8 -51 8 -33 9 4 8 3 9 
3 9 4 8 3 9 4 8 3 9 4 8 3 9 3 8 
4 8 3 9 4 8 3 9 4 8 3 8 3 9 4 8 
4 8 3 9 4 8 4 8 3 8 4 9 4 8 3 8 
4 8 4 8 4 9 4 8 4 8 4 8 3 8 4 8 
5 8 4 8 4 8 4 8 4 8 4 8 5 8 4 8 
5 8 4 8 4 8 4 8 4 8 5 8 4 7 5 8 
4 8 4 8 4 8 4 7 5 8 4 8 4 8 4 7 
5 8 5 8 4 7 5 8 4 8 4 7 4 8 4 8 
4 7 4 8 4 7 4 8 4 8 4 7 5 8 4 7 
5 8 5 7 4 7 5 8 5 7 4 8 4 7 6 8 
4 7 5 7 4 8 5 7 3 7 5 8 4 7 5 7 
4 7 5 8 4 7 5 7 4 7 6 8 4 7 6 7 
5 7 4 7 4 7 4 8 5 7 4 7 5 7 5 7 
4 7 5 7 5 7 5 7 5 7 5 7 5 7 5 7 
6 7 4 7 6 7 5 7 5 7 4 7 5 7 5 7 
4 7 5 6 6 7 5 7 4 7 4 7 5 7 4 6 
6 7 5 7 6 7 5 6 6 7 5 7 5 7 4 6 
5 7 5 7 5 6 5 7 5 7 5 6 5 7 5 6 
5 7 6 7 7 6 6 7 5 6 5 7 5 6 4 7 
5 6 5 7 5 6 5 7 6 6 6 7 6 6 8 7 
7 6 7 6 6 7 6 6 4 7 5 6 5 6 6 7 
6 6 7 6 7 7 7 6 6 6 6 7 6 6 6 6 
7 6 7 7 8 6 8 6 7 6 6 6 5 7 4 6 
6 6 6 6 9 6 9 6 9 7 9 6 6 6 6 6 
5 6 6 6 6 6 7 6 8 6 7 6 9 6 7 6 
7 6 7 6 7 6 7 6 9 6 8 6 9 6 7 6 
7 6 6 6 7 6 6 6 9 6 10 6 10 5 10 6 
11 6 8 6 7 6 7 6 7 5 8 6 9 6 10 6 
10 6 10 5 11 6 10 6 9 6 11 5 11 6 10 6 
10 6 9 5 7 6 7 6 7 5 7 6 9 6 11 5 
14 6 16 6 17 5 16 6 15 5 14 6 13 6 11 5 
11 6 10 5 9 6 7 5 8 6 8 5 9 6 11 5 
12 6 14 5 15 6 17 5 17 6 18 5 17 6 16 5 
16 6 15 5 14 5 2706 1572 300 MP stroke
12 6 11 5 8 6 9 5 10 5 11 6 14 5 17 5 
19 6 20 5 20 5 22 6 21 5 20 5 22 6 22 5 
22 5 21 6 20 5 19 5 18 5 16 6 18 5 22 5 
27 5 31 5 37 6 42 5 44 5 50 5 59 5 68 5 
78 6 88 5 92 5 88 5 71 5 63 5 44 5 29 5 
16 5 10 6 -1 5 8 5 10 5 23 5 36 5 61 5 
64 5 65 5 60 5 62 5 52 5 78 5 87 5 750 1286 56 MP stroke
/c10 { 1.000000 0.000000 1.000000 sr} bdef
c10
-305 -5 -320 -8 -265 -7 -220 -8 -189 -7 -164 -8 -138 -7 -113 -7 
-100 -8 -92 -7 -91 -8 -97 -7 -94 -8 -96 -8 -122 -7 -173 -8 
-215 -7 -237 -8 -242 -8 -158 -7 -106 -8 -71 8 -36 7 4 8 
4 8 3 7 3 8 4 7 4 8 4 8 4 7 4 8 
4 7 4 8 4 7 4 7 4 8 4 7 4 8 4 7 
4 8 5 7 4 7 4 8 4 7 4 7 5 8 4 7 
5 7 4 7 5 8 4 7 5 7 5 7 4 8 5 7 
4 7 5 7 4 7 5 7 5 8 5 7 4 7 5 7 
4 7 5 7 5 7 4 7 5 7 5 7 4 7 5 7 
5 7 5 7 5 7 5 7 5 7 5 7 5 7 5 7 
5 7 5 7 4 6 6 7 5 7 5 7 4 7 5 7 
5 6 5 7 4 7 6 7 5 6 5 7 5 7 4 7 
5 6 5 7 6 7 5 6 5 7 5 7 5 6 4 7 
5 6 5 7 5 7 5 6 5 7 5 6 5 7 5 6 
5 7 6 6 5 7 6 6 5 7 5 6 6 7 5 6 
6 7 5 6 6 6 5 7 5 6 4 7 5 6 5 6 
6 7 6 6 5 6 5 7 5 6 4 6 5 7 5 6 
6 6 5 6 5 7 5 6 5 6 5 6 6 6 5 7 
6 6 6 6 6 6 6 6 6 6 6 7 6 6 6 6 
7 6 6 6 6 6 5 6 6 6 5 6 5 6 6 6 
6 6 6 6 6 6 7 6 5 6 6 6 6 6 7 6 
7 6 6 6 6 6 6 6 7 6 7 6 7 6 7 5 
8 6 7 6 6 6 6 6 6 6 6 5 6 6 7 6 
7 6 7 6 7 5 6 6 7 6 7 6 7 5 7 6 
7 6 7 6 8 5 7 6 9 6 9 5 9 6 8 6 
8 5 6 6 6 6 6 5 7 6 8 5 10 6 9 6 
10 5 10 6 8 5 8 6 8 5 8 6 7 5 8 6 
8 5 8 6 10 5 9 6 9 5 8 6 7 5 7 6 
8 5 7 6 7 5 8 5 8 6 9 5 8 6 8 5 
7 5 8 6 8 5 8 5 10 6 10 5 9 5 9 6 
9 5 9 5 8 6 8 5 9 5 9 6 11 5 10 5 
11 5 10 6 9 5 9 5 9 5 8 5 9 6 10 5 
9 5 10 5 11 5 11 5 11 6 10 5 9 5 10 5 
9 5 9 5 11 5 11 5 11 5 11 6 12 5 10 5 
11 5 9 5 10 5 12 5 14 5 15 5 15 5 14 5 
11 5 11 5 12 5 13 5 13 5 14 5 12 5 11 5 
10 5 9 5 10 5 9 4 10 5 9 5 11 5 13 5 
13 5 14 5 11 5 2497 1207 300 MP stroke
10 5 10 4 8 5 7 5 9 5 9 5 11 5 11 4 
12 5 12 5 10 5 10 5 10 4 10 5 13 5 13 5 
14 4 16 5 18 5 18 5 19 4 20 5 17 5 13 4 
12 5 11 5 11 4 14 5 11 5 13 4 13 5 14 5 
13 4 16 5 15 5 15 4 14 5 14 4 14 5 17 5 
18 4 23 5 24 4 27 5 28 5 31 4 29 5 28 4 
25 5 26 4 23 5 19 4 17 5 17 4 17 5 14 4 
16 5 19 4 22 5 26 4 27 5 37 4 41 5 38 4 
33 4 35 5 27 4 29 5 33 4 50 5 55 4 48 4 
58 5 86 4 73 4 68 5 43 2 750 855 78 MP stroke
gr

c10
0 sg
%%IncludeResource: font Helvetica
/Helvetica /WindowsLatin1Encoding 83.3333 FMSR

 732 4037 mt 
( ) s
4483  535 mt 
( ) s
8.33333 w
DO
SO
12.5 w
0.1 sg
 750  499 mt 4500  499 L
 750 3999 mt 4500 3999 L
4500 3999 mt 4500  499 L
 750 3999 mt  750  499 L
 750 3999 mt 4500 3999 L
 750 3999 mt  750  499 L
 750 3999 mt  750 3971 L
 750  499 mt  750  528 L
 750 3999 mt  750 3943 L
 750  499 mt  750  556 L
%%IncludeResource: font Helvetica
/Helvetica /WindowsLatin1Encoding 133.333 FMSR

 626 4187 mt 
(10) s
%%IncludeResource: font Helvetica
/Helvetica /WindowsLatin1Encoding 88.8889 FMSR

 774 4105 mt 
(-1) s
1116 3999 mt 1116 3971 L
1116  499 mt 1116  528 L
1331 3999 mt 1331 3971 L
1331  499 mt 1331  528 L
1483 3999 mt 1483 3971 L
1483  499 mt 1483  528 L
1601 3999 mt 1601 3971 L
1601  499 mt 1601  528 L
1697 3999 mt 1697 3971 L
1697  499 mt 1697  528 L
1779 3999 mt 1779 3971 L
1779  499 mt 1779  528 L
1849 3999 mt 1849 3971 L
1849  499 mt 1849  528 L
1912 3999 mt 1912 3971 L
1912  499 mt 1912  528 L
1967 3999 mt 1967 3971 L
1967  499 mt 1967  528 L
1967 3999 mt 1967 3943 L
1967  499 mt 1967  556 L
%%IncludeResource: font Helvetica
/Helvetica /WindowsLatin1Encoding 133.333 FMSR

1869 4187 mt 
(10) s
%%IncludeResource: font Helvetica
/Helvetica /WindowsLatin1Encoding 88.8889 FMSR

2017 4105 mt 
(0) s
2334 3999 mt 2334 3971 L
2334  499 mt 2334  528 L
2548 3999 mt 2548 3971 L
2548  499 mt 2548  528 L
2701 3999 mt 2701 3971 L
2701  499 mt 2701  528 L
2819 3999 mt 2819 3971 L
2819  499 mt 2819  528 L
2915 3999 mt 2915 3971 L
2915  499 mt 2915  528 L
2997 3999 mt 2997 3971 L
2997  499 mt 2997  528 L
3067 3999 mt 3067 3971 L
3067  499 mt 3067  528 L
3129 3999 mt 3129 3971 L
3129  499 mt 3129  528 L
3185 3999 mt 3185 3971 L
3185  499 mt 3185  528 L
3185 3999 mt 3185 3943 L
3185  499 mt 3185  556 L
%%IncludeResource: font Helvetica
/Helvetica /WindowsLatin1Encoding 133.333 FMSR

3087 4187 mt 
(10) s
%%IncludeResource: font Helvetica
/Helvetica /WindowsLatin1Encoding 88.8889 FMSR

3235 4105 mt 
(1) s
3552 3999 mt 3552 3971 L
3552  499 mt 3552  528 L
3766 3999 mt 3766 3971 L
3766  499 mt 3766  528 L
3918 3999 mt 3918 3971 L
3918  499 mt 3918  528 L
4036 3999 mt 4036 3971 L
4036  499 mt 4036  528 L
4133 3999 mt 4133 3971 L
4133  499 mt 4133  528 L
4214 3999 mt 4214 3971 L
4214  499 mt 4214  528 L
4285 3999 mt 4285 3971 L
4285  499 mt 4285  528 L
4347 3999 mt 4347 3971 L
4347  499 mt 4347  528 L
4403 3999 mt 4403 3971 L
4403  499 mt 4403  528 L
4403 3999 mt 4403 3943 L
4403  499 mt 4403  556 L
%%IncludeResource: font Helvetica
/Helvetica /WindowsLatin1Encoding 133.333 FMSR

4305 4187 mt 
(10) s
%%IncludeResource: font Helvetica
/Helvetica /WindowsLatin1Encoding 88.8889 FMSR

4453 4105 mt 
(2) s
 750 3649 mt  806 3649 L
4500 3649 mt 4443 3649 L
%%IncludeResource: font Helvetica
/Helvetica /WindowsLatin1Encoding 133.333 FMSR

 467 3698 mt 
(0.35) s
 750 2949 mt  806 2949 L
4500 2949 mt 4443 2949 L
 541 2998 mt 
(0.4) s
 750 2249 mt  806 2249 L
4500 2249 mt 4443 2249 L
 467 2298 mt 
(0.45) s
 750 1549 mt  806 1549 L
4500 1549 mt 4443 1549 L
 541 1598 mt 
(0.5) s
 750  849 mt  806  849 L
4500  849 mt 4443  849 L
 467  898 mt 
(0.55) s
 750  499 mt 4500  499 L
 750 3999 mt 4500 3999 L
4500 3999 mt 4500  499 L
 750 3999 mt  750  499 L
0 sg
%%IncludeResource: font Helvetica-Bold
/Helvetica-Bold /WindowsLatin1Encoding 125 FMSR

1277 2484 mt 
(No Damping Model) s
gs 950 2340 1485 696 rc
16.6667 w
251 0 1000 2437 2 MP stroke
gr

16.6667 w
1277 2651 mt 
(GD = 0.0) s
gs 950 2340 1485 696 rc
c8
251 0 1000 2604 2 MP stroke
gr

c8
0 sg
1277 2817 mt 
(GD = 0.2) s
gs 950 2340 1485 696 rc
c9
251 0 1000 2770 2 MP stroke
gr

c9
0 sg
1277 2984 mt 
(GD = 0.75) s
gs 950 2340 1485 696 rc
c10
251 0 1000 2937 2 MP stroke
12.5 w
gr

12.5 w
c10

end %%Color Dict

eplot
%%EndObject

epage
end

showpage

%%Trailer
%%EOF
