%!PS-Adobe-3.0 EPSF-3.0
%%Creator: MATLAB, The MathWorks, Inc. Version 8.1.0.604 (R2013a). Operating System: Microsoft Windows 7.
%%Title: .\GD_ConfinedDensity_SameFill.eps
%%CreationDate: 08/17/2013  15:29:13
%%DocumentNeededFonts: Helvetica-Bold
%%+ Helvetica
%%DocumentProcessColors: Cyan Magenta Yellow Black
%%LanguageLevel: 2
%%Pages: 1
%%BoundingBox:    30    88   564   572
%%EndComments

%%BeginProlog
% MathWorks dictionary
/MathWorks 160 dict begin
% definition operators
/bdef {bind def} bind def
/ldef {load def} bind def
/xdef {exch def} bdef
/xstore {exch store} bdef
% operator abbreviations
/c  /clip ldef
/cc /concat ldef
/cp /closepath ldef
/gr /grestore ldef
/gs /gsave ldef
/mt /moveto ldef
/np /newpath ldef
/cm /currentmatrix ldef
/sm /setmatrix ldef
/rm /rmoveto ldef
/rl /rlineto ldef
/s {show newpath} bdef
/sc {setcmykcolor} bdef
/sr /setrgbcolor ldef
/sg /setgray ldef
/w /setlinewidth ldef
/j /setlinejoin ldef
/cap /setlinecap ldef
/rc {rectclip} bdef
/rf {rectfill} bdef
% page state control
/pgsv () def
/bpage {/pgsv save def} bdef
/epage {pgsv restore} bdef
/bplot /gsave ldef
/eplot {stroke grestore} bdef
% orientation switch
/portraitMode 0 def /landscapeMode 1 def /rotateMode 2 def
% coordinate system mappings
/dpi2point 0 def
% font control
/FontSize 0 def
/FMS {/FontSize xstore findfont [FontSize 0 0 FontSize neg 0 0]
  makefont setfont} bdef
/ISOLatin1Encoding where {pop /WindowsLatin1Encoding 256 array bdef
ISOLatin1Encoding WindowsLatin1Encoding copy pop
/.notdef/.notdef/quotesinglbase/florin/quotedblbase/ellipsis/dagger
/daggerdbl/circumflex/perthousand/Scaron/guilsinglleft/OE/.notdef/.notdef
/.notdef/.notdef/quoteleft/quoteright/quotedblleft/quotedblright/bullet
/endash/emdash/tilde/trademark/scaron/guilsinglright/oe/.notdef/.notdef
/Ydieresis WindowsLatin1Encoding 128 32 getinterval astore pop}
{/WindowsLatin1Encoding StandardEncoding bdef} ifelse
/reencode {exch dup where {pop load} {pop StandardEncoding} ifelse
  exch dup 3 1 roll findfont dup length dict begin
  { 1 index /FID ne {def}{pop pop} ifelse } forall
  /Encoding exch def currentdict end definefont pop} bdef
/isroman {findfont /CharStrings get /Agrave known} bdef
/FMSR {3 1 roll 1 index dup isroman {reencode} {pop pop} ifelse
  exch FMS} bdef
/csm {1 dpi2point div -1 dpi2point div scale neg translate
 dup landscapeMode eq {pop -90 rotate}
  {rotateMode eq {90 rotate} if} ifelse} bdef
% line types: solid, dotted, dashed, dotdash
/SO { [] 0 setdash } bdef
/DO { [.5 dpi2point mul 4 dpi2point mul] 0 setdash } bdef
/DA { [6 dpi2point mul] 0 setdash } bdef
/DD { [.5 dpi2point mul 4 dpi2point mul 6 dpi2point mul 4
  dpi2point mul] 0 setdash } bdef
% macros for lines and objects
/L {lineto stroke} bdef
/MP {3 1 roll moveto 1 sub {rlineto} repeat} bdef
/AP {{rlineto} repeat} bdef
/PDlw -1 def
/W {/PDlw currentlinewidth def setlinewidth} def
/PP {closepath eofill} bdef
/DP {closepath stroke} bdef
/MR {4 -2 roll moveto dup  0 exch rlineto exch 0 rlineto
  neg 0 exch rlineto closepath} bdef
/FR {MR stroke} bdef
/PR {MR fill} bdef
/L1i {{currentfile picstr readhexstring pop} image} bdef
/tMatrix matrix def
/MakeOval {newpath tMatrix currentmatrix pop translate scale
0 0 1 0 360 arc tMatrix setmatrix} bdef
/FO {MakeOval stroke} bdef
/PO {MakeOval fill} bdef
/PD {currentlinewidth 2 div 0 360 arc fill
   PDlw -1 eq not {PDlw w /PDlw -1 def} if} def
/FA {newpath tMatrix currentmatrix pop translate scale
  0 0 1 5 -2 roll arc tMatrix setmatrix stroke} bdef
/PA {newpath tMatrix currentmatrix pop	translate 0 0 moveto scale
  0 0 1 5 -2 roll arc closepath tMatrix setmatrix fill} bdef
/FAn {newpath tMatrix currentmatrix pop translate scale
  0 0 1 5 -2 roll arcn tMatrix setmatrix stroke} bdef
/PAn {newpath tMatrix currentmatrix pop translate 0 0 moveto scale
  0 0 1 5 -2 roll arcn closepath tMatrix setmatrix fill} bdef
/vradius 0 def /hradius 0 def /lry 0 def
/lrx 0 def /uly 0 def /ulx 0 def /rad 0 def
/MRR {/vradius xdef /hradius xdef /lry xdef /lrx xdef /uly xdef
  /ulx xdef newpath tMatrix currentmatrix pop ulx hradius add uly
  vradius add translate hradius vradius scale 0 0 1 180 270 arc 
  tMatrix setmatrix lrx hradius sub uly vradius add translate
  hradius vradius scale 0 0 1 270 360 arc tMatrix setmatrix
  lrx hradius sub lry vradius sub translate hradius vradius scale
  0 0 1 0 90 arc tMatrix setmatrix ulx hradius add lry vradius sub
  translate hradius vradius scale 0 0 1 90 180 arc tMatrix setmatrix
  closepath} bdef
/FRR {MRR stroke } bdef
/PRR {MRR fill } bdef
/MlrRR {/lry xdef /lrx xdef /uly xdef /ulx xdef /rad lry uly sub 2 div def
  newpath tMatrix currentmatrix pop ulx rad add uly rad add translate
  rad rad scale 0 0 1 90 270 arc tMatrix setmatrix lrx rad sub lry rad
  sub translate rad rad scale 0 0 1 270 90 arc tMatrix setmatrix
  closepath} bdef
/FlrRR {MlrRR stroke } bdef
/PlrRR {MlrRR fill } bdef
/MtbRR {/lry xdef /lrx xdef /uly xdef /ulx xdef /rad lrx ulx sub 2 div def
  newpath tMatrix currentmatrix pop ulx rad add uly rad add translate
  rad rad scale 0 0 1 180 360 arc tMatrix setmatrix lrx rad sub lry rad
  sub translate rad rad scale 0 0 1 0 180 arc tMatrix setmatrix
  closepath} bdef
/FtbRR {MtbRR stroke } bdef
/PtbRR {MtbRR fill } bdef
/stri 6 array def /dtri 6 array def
/smat 6 array def /dmat 6 array def
/tmat1 6 array def /tmat2 6 array def /dif 3 array def
/asub {/ind2 exch def /ind1 exch def dup dup
  ind1 get exch ind2 get sub exch } bdef
/tri_to_matrix {
  2 0 asub 3 1 asub 4 0 asub 5 1 asub
  dup 0 get exch 1 get 7 -1 roll astore } bdef
/compute_transform {
  dmat dtri tri_to_matrix tmat1 invertmatrix 
  smat stri tri_to_matrix tmat2 concatmatrix } bdef
/ds {stri astore pop} bdef
/dt {dtri astore pop} bdef
/db {2 copy /cols xdef /rows xdef mul dup 3 mul string
  currentfile 
  3 index 0 eq {/ASCIIHexDecode filter}
  {/ASCII85Decode filter 3 index 2 eq {/RunLengthDecode filter} if }
  ifelse exch readstring pop
  dup 0 3 index getinterval /rbmap xdef
  dup 2 index dup getinterval /gbmap xdef
  1 index dup 2 mul exch getinterval /bbmap xdef pop pop}bdef
/it {gs np dtri aload pop moveto lineto lineto cp c
  cols rows 8 compute_transform 
  rbmap gbmap bbmap true 3 colorimage gr}bdef
/il {newpath moveto lineto stroke}bdef
currentdict end def
%%EndProlog

%%BeginSetup
MathWorks begin

0 cap

end
%%EndSetup

%%Page: 1 1
%%BeginPageSetup
%%PageBoundingBox:    30    88   564   572
MathWorks begin
bpage
%%EndPageSetup

%%BeginObject: obj1
bplot

/dpi2point 8.33333 def
portraitMode 0150 5158 csm

  106   390  4450  4030 rc
84 dict begin %Colortable dictionary
/c0 { 0.000000 0.000000 0.000000 sr} bdef
/c1 { 1.000000 1.000000 1.000000 sr} bdef
/c2 { 0.900000 0.000000 0.000000 sr} bdef
/c3 { 0.000000 0.820000 0.000000 sr} bdef
/c4 { 0.000000 0.000000 0.800000 sr} bdef
/c5 { 0.910000 0.820000 0.320000 sr} bdef
/c6 { 1.000000 0.260000 0.820000 sr} bdef
/c7 { 0.000000 0.820000 0.820000 sr} bdef
c0
1 j
1 sg
   0    0 5001 5001 rf
12.5 w
0 3500 3750 0 0 -3500 750 4000 4 MP
PP
-3750 0 0 3500 3750 0 0 -3500 750 4000 5 MP stroke
gs 750 500 3751 3501 rc
16.6667 w
0 sg
-569 7 -359 12 -295 12 -257 12 -216 12 -185 12 -152 12 -129 12 
-115 12 -110 12 -102 12 -87 12 -83 12 -85 13 -77 12 -64 12 
-70 12 -73 13 -56 12 -56 12 -67 12 -49 13 -52 12 -59 13 
-42 12 -55 12 -48 13 -48 12 -34 13 -32 12 -10 -12 -11 -13 
4 -12 4 -13 4 -12 4 -12 3 -13 4 -12 3 -13 4 -12 
4 -12 3 -12 4 -13 4 -12 4 -12 3 -12 4 -13 4 -12 
4 -12 3 -12 4 -12 4 -12 4 -12 3 -12 4 -12 4 -12 
4 -12 4 -12 3 -12 4 -11 4 -12 4 -12 4 -12 4 -12 
4 -11 3 -12 4 -12 4 -11 4 -12 4 -12 4 -11 4 -12 
4 -11 3 -12 4 -11 4 -12 4 -11 4 -12 4 -11 4 -12 
3 -11 4 -11 4 -12 4 -11 3 -11 4 -12 4 -11 4 -11 
4 -11 4 -11 5 -12 4 -11 5 -11 4 -11 4 -11 5 -11 
4 -11 5 -11 4 -11 4 -11 5 -11 4 -11 4 -11 5 -11 
4 -11 5 -11 4 -10 4 -11 5 -11 4 -11 5 -11 5 -10 
4 -11 4 -11 5 -10 4 -11 5 -11 4 -10 5 -11 4 -10 
4 -11 4 -11 5 -10 5 -11 5 -10 4 -10 4 -11 4 -10 
5 -11 5 -10 5 -10 5 -11 4 -10 3 -10 5 -11 4 -10 
5 -10 5 -10 5 -11 3 -10 5 -10 5 -10 4 -10 6 -10 
5 -11 5 -10 4 -10 5 -10 5 -10 6 -10 5 -10 5 -10 
5 -10 5 -10 4 -10 5 -9 6 -10 6 -10 6 -10 5 -10 
5 -10 5 -10 5 -9 5 -10 5 -10 6 -10 5 -9 6 -10 
5 -10 5 -9 4 -10 5 -10 5 -9 5 -10 6 -9 5 -10 
6 -9 4 -10 5 -9 4 -10 5 -9 5 -10 6 -9 7 -10 
6 -9 5 -10 5 -9 5 -9 4 -10 5 -9 7 -9 6 -10 
7 -9 6 -9 5 -9 4 -10 5 -9 5 -9 5 -9 6 -9 
7 -10 7 -9 8 -9 6 -9 6 -9 6 -9 5 -9 6 -9 
7 -9 7 -9 7 -9 7 -9 5 -9 5 -9 6 -9 6 -9 
7 -9 8 -9 7 -9 8 -8 7 -9 6 -9 6 -9 5 -9 
6 -9 6 -8 7 -9 7 -9 9 -9 9 -8 8 -9 6 -9 
6 -8 6 -9 4 -9 5 -8 7 -9 7 -8 7 -9 6 -9 
7 -8 7 -9 7 -8 9 -9 10 -8 9 -9 7 -8 6 -9 
4 -8 5 -9 5 -8 6 -8 7 -9 7 -8 7 -8 8 -9 
8 -8 10 -8 8 -9 9 -8 8 -8 8 -9 8 -8 7 -8 
7 -8 6 -9 8 -8 8 -8 8 -8 8 -8 9 -8 7 -8 
9 -9 9 -8 9 -8 10 -8 9 -8 9 -8 9 -8 10 -8 
9 -8 8 -8 8 -8 7 -8 6 -8 6 -8 7 -8 8 -8 
8 -8 9 -8 10 -7 12 -8 11 -8 11 -8 11 -8 13 -8 
11 -8 14 -7 13 -8 2887 3369 300 MP stroke
13 -8 11 -8 11 -7 10 -8 11 -8 13 -8 16 -7 15 -8 
18 -8 18 -7 17 -8 12 -8 11 -7 8 -8 8 -7 10 -8 
16 -8 20 -7 20 -8 19 -7 16 -8 15 -7 14 -8 15 -7 
19 -8 24 -7 27 -8 28 -7 26 -8 26 -7 25 -8 26 -7 
34 -7 37 -8 34 -7 31 -7 28 -8 27 -7 36 -7 49 -8 
64 -7 87 -7 110 -8 131 -7 140 -7 142 -7 112 -8 76 -7 
37 -7 50 -7 51 -7 45 -8 45 -7 45 -7 73 -7 87 -7 
28 -2 750 3788 58 MP stroke
gr

16.6667 w
0 sg
0.1 sg
%%IncludeResource: font Helvetica-Bold
/Helvetica-Bold /WindowsLatin1Encoding 183.333 FMSR

1903 4362 mt 
(Log Stress [kPa]) s
 350 3181 mt  -90 rotate
(Bulk Density [kgm) s
90 rotate
%%IncludeResource: font Helvetica-Bold
/Helvetica-Bold /WindowsLatin1Encoding 141.667 FMSR

 259 1582 mt  -90 rotate
(-) s
90 rotate
 259 1500 mt  -90 rotate
(3) s
90 rotate
%%IncludeResource: font Helvetica-Bold
/Helvetica-Bold /WindowsLatin1Encoding 183.333 FMSR

 350 1422 mt  -90 rotate
( ]) s
90 rotate
gs 750 500 3751 3501 rc
/c8 { 1.000000 0.000000 0.000000 sr} bdef
c8
-676 9 -348 12 -283 12 -237 11 -203 12 -177 12 -148 12 -126 12 
-112 12 -108 12 -100 12 -85 12 -79 12 -84 12 -74 12 -61 12 
-68 13 -72 12 -53 12 -55 12 -67 13 -49 12 -51 12 -59 12 
-42 13 -54 12 -46 13 -46 12 -34 12 -31 13 -10 -13 -10 -12 
4 -12 3 -13 4 -12 3 -13 4 -12 4 -12 4 -12 3 -13 
4 -12 4 -12 4 -12 3 -13 4 -12 4 -12 3 -12 4 -12 
3 -12 4 -12 4 -12 4 -12 3 -12 4 -12 4 -12 4 -12 
4 -11 3 -12 4 -12 4 -12 4 -12 4 -11 4 -12 4 -12 
4 -11 4 -12 3 -12 4 -11 4 -12 4 -11 5 -12 4 -11 
4 -12 3 -11 4 -12 4 -11 4 -12 4 -11 4 -11 4 -12 
4 -11 5 -11 4 -12 4 -11 4 -11 4 -11 4 -11 3 -12 
4 -11 4 -11 4 -11 4 -11 4 -11 5 -11 4 -11 4 -11 
5 -11 4 -11 4 -11 5 -11 4 -11 4 -11 4 -11 5 -10 
4 -11 4 -11 5 -11 4 -11 5 -10 4 -11 5 -11 4 -10 
5 -11 5 -11 4 -10 4 -11 5 -10 5 -11 4 -11 5 -10 
5 -11 4 -10 5 -10 5 -11 5 -10 4 -11 5 -10 5 -10 
4 -11 5 -10 5 -10 5 -11 5 -10 6 -10 4 -10 5 -11 
5 -10 4 -10 5 -10 5 -10 5 -10 5 -11 5 -10 5 -10 
5 -10 4 -10 5 -10 4 -10 4 -10 4 -10 5 -10 4 -10 
5 -9 5 -10 4 -10 5 -10 5 -10 5 -10 4 -10 4 -9 
4 -10 4 -10 5 -10 5 -9 6 -10 5 -10 6 -9 5 -10 
6 -10 5 -9 5 -10 5 -9 6 -10 6 -9 5 -10 6 -9 
5 -10 5 -9 5 -10 6 -9 6 -10 6 -9 5 -10 7 -9 
5 -9 5 -10 6 -9 6 -9 7 -10 6 -9 7 -9 7 -9 
6 -10 5 -9 5 -9 5 -9 5 -9 6 -10 6 -9 7 -9 
7 -9 7 -9 6 -9 6 -9 5 -9 5 -9 5 -9 5 -9 
6 -9 7 -9 7 -9 8 -9 8 -9 8 -9 7 -9 6 -9 
6 -8 5 -9 6 -9 5 -9 5 -9 6 -9 7 -8 6 -9 
8 -9 8 -9 8 -8 9 -9 8 -9 6 -8 5 -9 6 -9 
6 -8 6 -9 8 -8 8 -9 9 -9 8 -8 9 -9 8 -8 
7 -9 7 -8 7 -9 7 -8 7 -9 8 -8 8 -9 6 -8 
7 -8 7 -9 7 -8 7 -8 8 -9 8 -8 7 -8 6 -9 
5 -8 6 -8 8 -9 8 -8 8 -8 10 -8 11 -9 10 -8 
11 -8 11 -8 9 -8 9 -8 8 -8 7 -9 6 -8 6 -8 
7 -8 8 -8 11 -8 12 -8 11 -8 13 -8 10 -8 9 -8 
8 -8 8 -8 8 -8 8 -8 9 -8 7 -8 9 -8 7 -7 
6 -8 5 -8 7 -8 8 -8 11 -8 13 -8 14 -7 14 -8 
12 -8 11 -8 12 -7 2858 3392 300 MP stroke
12 -8 13 -8 16 -8 14 -7 14 -8 12 -8 12 -7 11 -8 
14 -8 16 -7 17 -8 17 -7 18 -8 19 -8 17 -7 18 -8 
15 -7 12 -8 8 -7 10 -8 10 -7 15 -8 21 -7 28 -8 
31 -7 31 -8 34 -7 35 -8 34 -7 33 -7 32 -8 30 -7 
29 -7 30 -8 34 -7 46 -7 55 -8 63 -7 83 -7 111 -8 
127 -7 134 -7 147 -7 118 -8 73 -7 38 -7 40 -7 36 -7 
42 -8 40 -7 47 -7 77 -7 92 -7 27 -2 750 3788 55 MP stroke
/c9 { 0.000000 0.000000 1.000000 sr} bdef
c9
-567 7 -351 11 -286 11 -232 12 -193 11 -167 11 -144 12 -129 11 
-115 11 -103 12 -94 11 -89 12 -85 11 -78 12 -74 11 -72 12 
-69 11 -63 12 -61 11 -62 12 -56 12 -55 11 -57 12 -52 12 
-64 11 -105 12 -81 12 -62 12 -50 -12 -33 -12 4 -12 3 -11 
4 -12 4 -12 3 -11 4 -12 3 -12 4 -11 4 -12 3 -11 
4 -12 4 -11 3 -12 4 -11 4 -12 4 -11 4 -12 3 -11 
4 -11 4 -12 4 -11 3 -11 4 -12 4 -11 4 -11 4 -11 
4 -11 4 -12 3 -11 4 -11 4 -11 4 -11 4 -11 4 -11 
4 -11 4 -11 4 -11 4 -11 4 -11 4 -11 5 -11 4 -11 
4 -11 4 -10 4 -11 4 -11 4 -11 5 -11 4 -10 3 -11 
5 -11 4 -10 4 -11 5 -11 4 -10 4 -11 5 -10 4 -11 
4 -11 5 -10 4 -11 4 -10 5 -10 4 -11 4 -10 4 -11 
5 -10 4 -10 5 -11 5 -10 4 -10 4 -11 4 -10 5 -10 
5 -10 5 -11 4 -10 4 -10 4 -10 4 -10 5 -10 4 -11 
5 -10 5 -10 4 -10 3 -10 5 -10 5 -10 5 -10 5 -10 
5 -10 4 -10 3 -9 5 -10 4 -10 5 -10 5 -10 5 -10 
4 -10 5 -9 5 -10 5 -10 5 -10 5 -9 5 -10 5 -10 
4 -9 5 -10 5 -10 5 -9 5 -10 5 -9 5 -10 5 -9 
6 -10 5 -9 5 -10 5 -9 6 -10 6 -9 5 -10 6 -9 
5 -10 6 -9 5 -9 6 -10 5 -9 6 -9 6 -10 6 -9 
6 -9 5 -9 6 -10 5 -9 6 -9 6 -9 6 -9 6 -10 
6 -9 6 -9 6 -9 7 -9 6 -9 7 -9 6 -9 6 -9 
5 -9 7 -9 6 -9 7 -9 7 -9 7 -9 6 -9 6 -9 
6 -9 6 -9 5 -8 6 -9 6 -9 6 -9 7 -9 7 -9 
7 -8 6 -9 6 -9 6 -9 5 -8 5 -9 5 -9 7 -8 
7 -9 8 -9 10 -8 8 -9 6 -8 6 -9 4 -9 4 -8 
5 -9 5 -8 7 -9 7 -8 7 -9 7 -8 8 -9 8 -8 
6 -9 6 -8 6 -8 7 -9 6 -8 8 -8 9 -9 8 -8 
9 -8 8 -9 7 -8 6 -8 6 -9 6 -8 6 -8 8 -8 
9 -9 10 -8 10 -8 10 -8 10 -8 9 -8 9 -8 7 -9 
7 -8 5 -8 5 -8 5 -8 6 -8 6 -8 9 -8 10 -8 
11 -8 12 -8 11 -8 10 -8 9 -8 8 -8 8 -8 9 -8 
8 -8 8 -7 7 -8 8 -8 8 -8 9 -8 10 -8 12 -8 
13 -7 14 -8 14 -8 15 -8 15 -7 13 -8 14 -8 12 -8 
10 -7 9 -8 8 -8 8 -7 10 -8 13 -8 15 -7 17 -8 
20 -7 22 -8 22 -8 21 -7 20 -8 17 -7 15 -8 14 -7 
13 -8 13 -7 16 -8 17 -7 22 -8 24 -7 27 -8 28 -7 
30 -8 30 -7 32 -7 2486 3619 300 MP stroke
35 -8 39 -7 37 -7 44 -8 47 -7 46 -7 52 -8 66 -7 
77 -7 93 -8 124 -7 137 -7 141 -7 121 -8 83 -7 59 -7 
47 -7 38 -7 36 -8 42 -7 37 -7 75 -7 98 -7 143 -7 
19 -1 750 3794 26 MP stroke
/c10 { 1.000000 0.000000 1.000000 sr} bdef
c10
-491 8 -325 10 -262 11 -213 11 -178 10 -154 11 -133 10 -120 11 
-111 11 -105 10 -97 11 -88 11 -82 10 -80 11 -78 11 -71 11 
-69 11 -73 10 -73 11 -81 11 -114 11 -151 11 -179 11 -127 11 
-94 11 -64 -11 -34 -11 4 -11 4 -11 4 -11 4 -11 4 -11 
4 -10 4 -11 4 -11 4 -11 4 -11 4 -10 4 -11 4 -11 
4 -10 4 -11 4 -11 5 -10 4 -11 4 -10 5 -11 4 -11 
4 -10 4 -11 4 -10 5 -10 4 -11 4 -10 5 -11 4 -10 
4 -10 5 -11 4 -10 4 -10 4 -11 5 -10 4 -10 4 -10 
5 -11 5 -10 4 -10 5 -10 4 -10 5 -10 5 -11 4 -10 
5 -10 5 -10 5 -10 5 -10 4 -10 5 -10 4 -10 4 -10 
4 -10 5 -9 4 -10 5 -10 5 -10 4 -10 5 -10 5 -10 
5 -9 5 -10 5 -10 5 -10 5 -9 5 -10 5 -10 5 -9 
5 -10 5 -10 5 -9 4 -10 6 -9 5 -10 5 -9 5 -10 
5 -9 5 -10 6 -9 5 -10 5 -9 5 -10 5 -9 5 -10 
5 -9 5 -9 6 -10 5 -9 5 -9 5 -10 5 -9 6 -9 
5 -9 6 -10 5 -9 5 -9 5 -9 6 -9 5 -10 6 -9 
5 -9 6 -9 5 -9 6 -9 6 -9 5 -9 6 -9 6 -9 
6 -9 5 -9 6 -9 6 -9 5 -9 6 -9 6 -9 6 -9 
6 -9 7 -8 6 -9 6 -9 6 -9 6 -9 6 -9 6 -8 
6 -9 7 -9 6 -9 5 -8 6 -9 6 -9 5 -8 6 -9 
6 -9 6 -8 7 -9 7 -8 6 -9 6 -9 6 -8 6 -9 
6 -8 7 -9 7 -8 7 -9 7 -8 6 -9 5 -8 6 -9 
6 -8 8 -8 8 -9 8 -8 8 -8 7 -9 7 -8 6 -8 
6 -9 7 -8 8 -8 9 -9 9 -8 10 -8 9 -8 8 -9 
7 -8 6 -8 5 -8 5 -8 7 -8 7 -8 9 -9 8 -8 
8 -8 8 -8 8 -8 8 -8 8 -8 7 -8 8 -8 8 -8 
8 -8 8 -8 8 -8 9 -8 9 -8 10 -8 10 -8 11 -8 
11 -7 11 -8 10 -8 9 -8 8 -8 8 -8 8 -8 9 -7 
11 -8 12 -8 15 -8 15 -7 16 -8 15 -8 13 -8 11 -7 
9 -8 7 -8 9 -7 10 -8 14 -8 16 -7 19 -8 20 -7 
19 -8 18 -8 16 -7 14 -8 12 -7 12 -8 14 -7 15 -8 
18 -7 21 -8 23 -7 22 -8 23 -7 25 -8 27 -7 28 -8 
31 -7 31 -7 31 -8 30 -7 34 -7 40 -8 48 -7 50 -7 
58 -8 65 -7 77 -7 91 -8 106 -7 114 -7 116 -7 101 -8 
77 -7 68 -7 67 -7 62 -7 62 -8 62 -7 71 -7 86 -7 
108 -7 145 -7 150 -5 750 3798 284 MP stroke
/c11 { 0.000000 1.000000 0.000000 sr} bdef
c11
-184 5 -309 10 -257 11 -220 10 -194 10 -177 10 -156 11 -133 10 
-112 10 -98 11 -95 10 -102 10 -106 11 -107 10 -111 11 -133 10 
-168 10 -197 11 -216 10 -223 11 -147 11 -101 10 -66 -10 -35 -11 
4 -11 5 -10 3 -11 4 -10 4 -10 4 -11 4 -10 4 -11 
4 -10 5 -10 4 -11 4 -10 4 -10 5 -11 4 -10 4 -10 
5 -10 4 -11 4 -10 5 -10 4 -10 4 -10 5 -10 4 -11 
5 -10 4 -10 5 -10 4 -10 4 -10 4 -10 5 -10 5 -10 
4 -10 5 -10 4 -9 4 -10 4 -10 5 -10 5 -10 5 -10 
4 -10 5 -9 4 -10 4 -10 5 -10 4 -9 5 -10 4 -10 
5 -9 4 -10 5 -10 5 -9 4 -10 5 -9 5 -10 5 -9 
5 -10 5 -9 5 -10 5 -9 5 -10 5 -9 5 -10 5 -9 
4 -10 5 -9 5 -9 5 -10 5 -9 5 -9 6 -10 5 -9 
5 -9 5 -9 6 -10 5 -9 5 -9 5 -9 5 -9 5 -10 
6 -9 6 -9 5 -9 6 -9 5 -9 5 -9 6 -9 5 -9 
6 -9 6 -9 6 -9 5 -9 6 -9 6 -9 5 -9 6 -9 
5 -9 6 -9 5 -8 6 -9 6 -9 5 -9 6 -9 6 -9 
6 -8 5 -9 6 -9 6 -9 6 -8 6 -9 5 -9 5 -8 
6 -9 5 -9 7 -8 6 -9 6 -8 5 -9 6 -9 6 -8 
6 -9 7 -8 6 -9 6 -8 7 -9 6 -8 6 -9 7 -8 
7 -9 7 -8 8 -8 7 -9 7 -8 7 -8 7 -9 7 -8 
8 -8 8 -9 8 -8 7 -8 8 -9 7 -8 7 -8 7 -8 
7 -9 6 -8 6 -8 6 -8 6 -8 7 -8 7 -8 8 -9 
8 -8 8 -8 7 -8 7 -8 8 -8 7 -8 8 -8 9 -8 
10 -8 9 -8 9 -8 9 -8 9 -8 9 -8 9 -8 9 -8 
9 -8 9 -7 9 -8 8 -8 10 -8 9 -8 10 -8 10 -8 
9 -7 10 -8 11 -8 11 -8 12 -7 11 -8 11 -8 11 -8 
11 -7 11 -8 12 -8 13 -7 13 -8 13 -8 13 -7 14 -8 
14 -7 14 -8 13 -8 14 -7 16 -8 16 -7 16 -8 18 -7 
17 -8 16 -7 17 -8 18 -7 19 -8 22 -7 24 -8 26 -7 
28 -8 28 -7 29 -7 31 -8 34 -7 38 -7 43 -8 47 -7 
52 -7 62 -8 70 -7 83 -7 99 -8 113 -7 122 -7 124 -7 
113 -8 95 -7 76 -7 55 -7 50 -7 49 -8 50 -7 61 -7 
88 -7 112 -7 149 -7 229 -8 27 0 750 3801 262 MP stroke
gr

c11
0 sg
%%IncludeResource: font Helvetica
/Helvetica /WindowsLatin1Encoding 83.3333 FMSR

 732 4037 mt 
( ) s
4483  536 mt 
( ) s
8.33333 w
DO
SO
12.5 w
0.1 sg
 750  500 mt 4500  500 L
 750 4000 mt 4500 4000 L
4500 4000 mt 4500  500 L
 750 4000 mt  750  500 L
 750 4000 mt 4500 4000 L
 750 4000 mt  750  500 L
 750 4000 mt  750 3971 L
 750  500 mt  750  528 L
 750 4000 mt  750 3943 L
 750  500 mt  750  556 L
%%IncludeResource: font Helvetica
/Helvetica /WindowsLatin1Encoding 133.333 FMSR

 626 4188 mt 
(10) s
%%IncludeResource: font Helvetica
/Helvetica /WindowsLatin1Encoding 88.8889 FMSR

 774 4106 mt 
(-1) s
1116 4000 mt 1116 3971 L
1116  500 mt 1116  528 L
1331 4000 mt 1331 3971 L
1331  500 mt 1331  528 L
1483 4000 mt 1483 3971 L
1483  500 mt 1483  528 L
1601 4000 mt 1601 3971 L
1601  500 mt 1601  528 L
1697 4000 mt 1697 3971 L
1697  500 mt 1697  528 L
1779 4000 mt 1779 3971 L
1779  500 mt 1779  528 L
1849 4000 mt 1849 3971 L
1849  500 mt 1849  528 L
1912 4000 mt 1912 3971 L
1912  500 mt 1912  528 L
1967 4000 mt 1967 3971 L
1967  500 mt 1967  528 L
1967 4000 mt 1967 3943 L
1967  500 mt 1967  556 L
%%IncludeResource: font Helvetica
/Helvetica /WindowsLatin1Encoding 133.333 FMSR

1869 4188 mt 
(10) s
%%IncludeResource: font Helvetica
/Helvetica /WindowsLatin1Encoding 88.8889 FMSR

2017 4106 mt 
(0) s
2334 4000 mt 2334 3971 L
2334  500 mt 2334  528 L
2548 4000 mt 2548 3971 L
2548  500 mt 2548  528 L
2701 4000 mt 2701 3971 L
2701  500 mt 2701  528 L
2819 4000 mt 2819 3971 L
2819  500 mt 2819  528 L
2915 4000 mt 2915 3971 L
2915  500 mt 2915  528 L
2997 4000 mt 2997 3971 L
2997  500 mt 2997  528 L
3067 4000 mt 3067 3971 L
3067  500 mt 3067  528 L
3129 4000 mt 3129 3971 L
3129  500 mt 3129  528 L
3185 4000 mt 3185 3971 L
3185  500 mt 3185  528 L
3185 4000 mt 3185 3943 L
3185  500 mt 3185  556 L
%%IncludeResource: font Helvetica
/Helvetica /WindowsLatin1Encoding 133.333 FMSR

3087 4188 mt 
(10) s
%%IncludeResource: font Helvetica
/Helvetica /WindowsLatin1Encoding 88.8889 FMSR

3235 4106 mt 
(1) s
3552 4000 mt 3552 3971 L
3552  500 mt 3552  528 L
3766 4000 mt 3766 3971 L
3766  500 mt 3766  528 L
3918 4000 mt 3918 3971 L
3918  500 mt 3918  528 L
4036 4000 mt 4036 3971 L
4036  500 mt 4036  528 L
4133 4000 mt 4133 3971 L
4133  500 mt 4133  528 L
4214 4000 mt 4214 3971 L
4214  500 mt 4214  528 L
4285 4000 mt 4285 3971 L
4285  500 mt 4285  528 L
4347 4000 mt 4347 3971 L
4347  500 mt 4347  528 L
4403 4000 mt 4403 3971 L
4403  500 mt 4403  528 L
4403 4000 mt 4403 3943 L
4403  500 mt 4403  556 L
%%IncludeResource: font Helvetica
/Helvetica /WindowsLatin1Encoding 133.333 FMSR

4305 4188 mt 
(10) s
%%IncludeResource: font Helvetica
/Helvetica /WindowsLatin1Encoding 88.8889 FMSR

4453 4106 mt 
(2) s
 750 4000 mt  806 4000 L
4500 4000 mt 4443 4000 L
%%IncludeResource: font Helvetica
/Helvetica /WindowsLatin1Encoding 133.333 FMSR

 430 4049 mt 
(2100) s
 750 3562 mt  806 3562 L
4500 3562 mt 4443 3562 L
 430 3611 mt 
(2200) s
 750 3125 mt  806 3125 L
4500 3125 mt 4443 3125 L
 430 3174 mt 
(2300) s
 750 2687 mt  806 2687 L
4500 2687 mt 4443 2687 L
 430 2736 mt 
(2400) s
 750 2250 mt  806 2250 L
4500 2250 mt 4443 2250 L
 430 2299 mt 
(2500) s
 750 1812 mt  806 1812 L
4500 1812 mt 4443 1812 L
 430 1861 mt 
(2600) s
 750 1375 mt  806 1375 L
4500 1375 mt 4443 1375 L
 430 1424 mt 
(2700) s
 750  937 mt  806  937 L
4500  937 mt 4443  937 L
 430  986 mt 
(2800) s
 750  500 mt  806  500 L
4500  500 mt 4443  500 L
 430  549 mt 
(2900) s
 750  500 mt 4500  500 L
 750 4000 mt 4500 4000 L
4500 4000 mt 4500  500 L
 750 4000 mt  750  500 L
0 sg
%%IncludeResource: font Helvetica-Bold
/Helvetica-Bold /WindowsLatin1Encoding 125 FMSR

1277  796 mt 
(No Damping Model) s
gs 950 652 1485 864 rc
16.6667 w
251 0 1000 749 2 MP stroke
gr

16.6667 w
1277  963 mt 
(GD = 0.0) s
gs 950 652 1485 864 rc
c8
251 0 1000 916 2 MP stroke
gr

c8
0 sg
1277 1130 mt 
(GD = 0.2) s
gs 950 652 1485 864 rc
c9
251 0 1000 1083 2 MP stroke
gr

c9
0 sg
1277 1297 mt 
(GD = 0.5) s
gs 950 652 1485 864 rc
c10
251 0 1000 1250 2 MP stroke
gr

c10
0 sg
1277 1464 mt 
(GD = 0.75) s
gs 950 652 1485 864 rc
c11
251 0 1000 1417 2 MP stroke
12.5 w
gr

12.5 w
c11

end %%Color Dict

eplot
%%EndObject

epage
end

showpage

%%Trailer
%%EOF
