%!PS-Adobe-3.0 EPSF-3.0
%%Creator: MATLAB, The MathWorks, Inc. Version 8.1.0.604 (R2013a). Operating System: Microsoft Windows 7.
%%Title: .\Particleforce.eps
%%CreationDate: 08/17/2013  20:50:44
%%DocumentNeededFonts: Helvetica-Bold
%%+ Helvetica
%%DocumentProcessColors: Cyan Magenta Yellow Black
%%LanguageLevel: 2
%%Pages: 1
%%BoundingBox:    45    88   567   575
%%EndComments

%%BeginProlog
% MathWorks dictionary
/MathWorks 160 dict begin
% definition operators
/bdef {bind def} bind def
/ldef {load def} bind def
/xdef {exch def} bdef
/xstore {exch store} bdef
% operator abbreviations
/c  /clip ldef
/cc /concat ldef
/cp /closepath ldef
/gr /grestore ldef
/gs /gsave ldef
/mt /moveto ldef
/np /newpath ldef
/cm /currentmatrix ldef
/sm /setmatrix ldef
/rm /rmoveto ldef
/rl /rlineto ldef
/s {show newpath} bdef
/sc {setcmykcolor} bdef
/sr /setrgbcolor ldef
/sg /setgray ldef
/w /setlinewidth ldef
/j /setlinejoin ldef
/cap /setlinecap ldef
/rc {rectclip} bdef
/rf {rectfill} bdef
% page state control
/pgsv () def
/bpage {/pgsv save def} bdef
/epage {pgsv restore} bdef
/bplot /gsave ldef
/eplot {stroke grestore} bdef
% orientation switch
/portraitMode 0 def /landscapeMode 1 def /rotateMode 2 def
% coordinate system mappings
/dpi2point 0 def
% font control
/FontSize 0 def
/FMS {/FontSize xstore findfont [FontSize 0 0 FontSize neg 0 0]
  makefont setfont} bdef
/ISOLatin1Encoding where {pop /WindowsLatin1Encoding 256 array bdef
ISOLatin1Encoding WindowsLatin1Encoding copy pop
/.notdef/.notdef/quotesinglbase/florin/quotedblbase/ellipsis/dagger
/daggerdbl/circumflex/perthousand/Scaron/guilsinglleft/OE/.notdef/.notdef
/.notdef/.notdef/quoteleft/quoteright/quotedblleft/quotedblright/bullet
/endash/emdash/tilde/trademark/scaron/guilsinglright/oe/.notdef/.notdef
/Ydieresis WindowsLatin1Encoding 128 32 getinterval astore pop}
{/WindowsLatin1Encoding StandardEncoding bdef} ifelse
/reencode {exch dup where {pop load} {pop StandardEncoding} ifelse
  exch dup 3 1 roll findfont dup length dict begin
  { 1 index /FID ne {def}{pop pop} ifelse } forall
  /Encoding exch def currentdict end definefont pop} bdef
/isroman {findfont /CharStrings get /Agrave known} bdef
/FMSR {3 1 roll 1 index dup isroman {reencode} {pop pop} ifelse
  exch FMS} bdef
/csm {1 dpi2point div -1 dpi2point div scale neg translate
 dup landscapeMode eq {pop -90 rotate}
  {rotateMode eq {90 rotate} if} ifelse} bdef
% line types: solid, dotted, dashed, dotdash
/SO { [] 0 setdash } bdef
/DO { [.5 dpi2point mul 4 dpi2point mul] 0 setdash } bdef
/DA { [6 dpi2point mul] 0 setdash } bdef
/DD { [.5 dpi2point mul 4 dpi2point mul 6 dpi2point mul 4
  dpi2point mul] 0 setdash } bdef
% macros for lines and objects
/L {lineto stroke} bdef
/MP {3 1 roll moveto 1 sub {rlineto} repeat} bdef
/AP {{rlineto} repeat} bdef
/PDlw -1 def
/W {/PDlw currentlinewidth def setlinewidth} def
/PP {closepath eofill} bdef
/DP {closepath stroke} bdef
/MR {4 -2 roll moveto dup  0 exch rlineto exch 0 rlineto
  neg 0 exch rlineto closepath} bdef
/FR {MR stroke} bdef
/PR {MR fill} bdef
/L1i {{currentfile picstr readhexstring pop} image} bdef
/tMatrix matrix def
/MakeOval {newpath tMatrix currentmatrix pop translate scale
0 0 1 0 360 arc tMatrix setmatrix} bdef
/FO {MakeOval stroke} bdef
/PO {MakeOval fill} bdef
/PD {currentlinewidth 2 div 0 360 arc fill
   PDlw -1 eq not {PDlw w /PDlw -1 def} if} def
/FA {newpath tMatrix currentmatrix pop translate scale
  0 0 1 5 -2 roll arc tMatrix setmatrix stroke} bdef
/PA {newpath tMatrix currentmatrix pop	translate 0 0 moveto scale
  0 0 1 5 -2 roll arc closepath tMatrix setmatrix fill} bdef
/FAn {newpath tMatrix currentmatrix pop translate scale
  0 0 1 5 -2 roll arcn tMatrix setmatrix stroke} bdef
/PAn {newpath tMatrix currentmatrix pop translate 0 0 moveto scale
  0 0 1 5 -2 roll arcn closepath tMatrix setmatrix fill} bdef
/vradius 0 def /hradius 0 def /lry 0 def
/lrx 0 def /uly 0 def /ulx 0 def /rad 0 def
/MRR {/vradius xdef /hradius xdef /lry xdef /lrx xdef /uly xdef
  /ulx xdef newpath tMatrix currentmatrix pop ulx hradius add uly
  vradius add translate hradius vradius scale 0 0 1 180 270 arc 
  tMatrix setmatrix lrx hradius sub uly vradius add translate
  hradius vradius scale 0 0 1 270 360 arc tMatrix setmatrix
  lrx hradius sub lry vradius sub translate hradius vradius scale
  0 0 1 0 90 arc tMatrix setmatrix ulx hradius add lry vradius sub
  translate hradius vradius scale 0 0 1 90 180 arc tMatrix setmatrix
  closepath} bdef
/FRR {MRR stroke } bdef
/PRR {MRR fill } bdef
/MlrRR {/lry xdef /lrx xdef /uly xdef /ulx xdef /rad lry uly sub 2 div def
  newpath tMatrix currentmatrix pop ulx rad add uly rad add translate
  rad rad scale 0 0 1 90 270 arc tMatrix setmatrix lrx rad sub lry rad
  sub translate rad rad scale 0 0 1 270 90 arc tMatrix setmatrix
  closepath} bdef
/FlrRR {MlrRR stroke } bdef
/PlrRR {MlrRR fill } bdef
/MtbRR {/lry xdef /lrx xdef /uly xdef /ulx xdef /rad lrx ulx sub 2 div def
  newpath tMatrix currentmatrix pop ulx rad add uly rad add translate
  rad rad scale 0 0 1 180 360 arc tMatrix setmatrix lrx rad sub lry rad
  sub translate rad rad scale 0 0 1 0 180 arc tMatrix setmatrix
  closepath} bdef
/FtbRR {MtbRR stroke } bdef
/PtbRR {MtbRR fill } bdef
/stri 6 array def /dtri 6 array def
/smat 6 array def /dmat 6 array def
/tmat1 6 array def /tmat2 6 array def /dif 3 array def
/asub {/ind2 exch def /ind1 exch def dup dup
  ind1 get exch ind2 get sub exch } bdef
/tri_to_matrix {
  2 0 asub 3 1 asub 4 0 asub 5 1 asub
  dup 0 get exch 1 get 7 -1 roll astore } bdef
/compute_transform {
  dmat dtri tri_to_matrix tmat1 invertmatrix 
  smat stri tri_to_matrix tmat2 concatmatrix } bdef
/ds {stri astore pop} bdef
/dt {dtri astore pop} bdef
/db {2 copy /cols xdef /rows xdef mul dup 3 mul string
  currentfile 
  3 index 0 eq {/ASCIIHexDecode filter}
  {/ASCII85Decode filter 3 index 2 eq {/RunLengthDecode filter} if }
  ifelse exch readstring pop
  dup 0 3 index getinterval /rbmap xdef
  dup 2 index dup getinterval /gbmap xdef
  1 index dup 2 mul exch getinterval /bbmap xdef pop pop}bdef
/it {gs np dtri aload pop moveto lineto lineto cp c
  cols rows 8 compute_transform 
  rbmap gbmap bbmap true 3 colorimage gr}bdef
/il {newpath moveto lineto stroke}bdef
currentdict end def
%%EndProlog

%%BeginSetup
MathWorks begin

0 cap

end
%%EndSetup

%%Page: 1 1
%%BeginPageSetup
%%PageBoundingBox:    45    88   567   575
MathWorks begin
bpage
%%EndPageSetup

%%BeginObject: obj1
bplot

/dpi2point 8.33333 def
portraitMode 0150 5158 csm

  231   365  4349  4055 rc
84 dict begin %Colortable dictionary
/c0 { 0.000000 0.000000 0.000000 sr} bdef
/c1 { 1.000000 1.000000 1.000000 sr} bdef
/c2 { 0.900000 0.000000 0.000000 sr} bdef
/c3 { 0.000000 0.820000 0.000000 sr} bdef
/c4 { 0.000000 0.000000 0.800000 sr} bdef
/c5 { 0.910000 0.820000 0.320000 sr} bdef
/c6 { 1.000000 0.260000 0.820000 sr} bdef
/c7 { 0.000000 0.820000 0.820000 sr} bdef
c0
1 j
1 sg
   0    0 5001 5001 rf
12.5 w
0 3500 3750 0 0 -3500 750 4000 4 MP
PP
-3750 0 0 3500 3750 0 0 -3500 750 4000 5 MP stroke
gs 750 500 3751 3501 rc
16.6667 w
0 sg
3 0 3 0 3 0 2 -1 3 0 3 0 3 0 3 0 
2 0 3 0 3 0 3 0 3 0 3 0 3 0 2 0 
3 0 3 0 3 0 3 0 3 0 3 0 3 0 3 0 
3 0 3 0 3 0 3 0 3 -1 3 0 3 0 4 0 
3 0 3 0 3 0 3 0 3 0 3 0 4 0 3 0 
3 0 3 0 4 0 3 0 3 0 4 0 3 0 3 0 
4 0 3 -1 3 0 4 0 3 0 4 0 3 0 4 -1 
3 0 4 0 3 0 4 0 3 -1 4 0 4 0 3 0 
4 0 4 0 3 0 4 0 4 -1 4 0 3 0 4 -1 
4 0 4 0 4 0 4 -1 4 0 3 0 4 0 4 -1 
4 0 4 -1 5 0 4 0 4 0 4 -1 4 0 4 0 
4 0 5 -1 4 0 4 -1 4 0 5 -1 4 -1 5 0 
4 -1 4 -1 5 -1 4 0 5 -1 5 -1 4 -1 5 0 
4 0 5 -1 5 -1 5 0 4 -2 5 -1 5 -1 5 -1 
5 -2 5 -1 5 -1 5 -1 5 0 5 -1 5 -1 6 -2 
5 0 5 -1 5 -2 6 -3 5 -1 6 -2 5 -2 6 -2 
5 -2 6 -3 6 -1 5 -2 6 -2 6 -1 6 -2 6 -1 
6 -3 6 -2 6 -3 6 -1 6 -2 7 -3 6 -2 6 -2 
7 -4 6 -3 7 -3 6 -3 7 -5 7 -3 7 -2 7 -2 
7 -6 7 -3 7 -4 7 -4 7 -3 7 -5 8 -5 7 -5 
8 -6 8 -6 7 -5 8 -5 8 -6 8 -5 8 -5 9 -6 
8 -7 8 -7 9 -6 9 -7 8 -8 9 -7 9 -5 9 -7 
10 -10 9 -10 9 -12 10 -9 10 -12 10 -10 10 -14 10 -9 
10 -12 11 -14 11 -10 10 -12 12 -14 11 -13 11 -12 12 -13 
12 -14 12 -19 12 -18 12 -16 13 -18 13 -19 13 -17 14 -20 
13 -24 14 -23 15 -22 14 -22 15 -27 15 -21 16 -24 16 -26 
16 -28 17 -23 17 -27 18 -30 18 -32 19 -36 19 -34 20 -39 
20 -37 21 -43 21 -38 23 -39 23 -47 23 -46 25 -48 26 -47 
26 -51 28 -46 29 -58 30 -53 32 -55 33 -60 35 -58 36 -65 
39 -62 41 -77 44 -71 47 -84 50 -77 55 -70 59 -79 65 -78 
71 -87 80 -86 91 -91 105 -90 123 -100 152 -95 195 -103 276 -101 
470 -109 750 3756 250 MP stroke
gr

16.6667 w
0 sg
0 j
41 54 -41 54 -41 -54 41 -54 750 3810 5 MP
DP
41 54 -41 54 -41 -54 41 -54 1220 3701 5 MP
DP
41 54 -41 54 -41 -54 41 -54 1496 3600 5 MP
DP
41 54 -41 54 -41 -54 41 -54 1691 3497 5 MP
DP
41 54 -41 54 -41 -54 41 -54 1843 3402 5 MP
DP
41 54 -41 54 -41 -54 41 -54 1966 3302 5 MP
DP
41 54 -41 54 -41 -54 41 -54 2071 3212 5 MP
DP
41 54 -41 54 -41 -54 41 -54 2162 3121 5 MP
DP
41 54 -41 54 -41 -54 41 -54 2242 3035 5 MP
DP
41 54 -41 54 -41 -54 41 -54 2313 2948 5 MP
DP
41 54 -41 54 -41 -54 41 -54 2378 2870 5 MP
DP
41 54 -41 54 -41 -54 41 -54 2437 2791 5 MP
DP
41 54 -41 54 -41 -54 41 -54 2492 2721 5 MP
DP
41 54 -41 54 -41 -54 41 -54 2542 2644 5 MP
DP
41 54 -41 54 -41 -54 41 -54 2589 2560 5 MP
DP
41 54 -41 54 -41 -54 41 -54 2633 2489 5 MP
DP
41 54 -41 54 -41 -54 41 -54 2674 2412 5 MP
DP
41 54 -41 54 -41 -54 41 -54 2713 2350 5 MP
DP
41 54 -41 54 -41 -54 41 -54 2749 2285 5 MP
DP
41 54 -41 54 -41 -54 41 -54 2784 2227 5 MP
DP
41 54 -41 54 -41 -54 41 -54 2817 2167 5 MP
DP
41 54 -41 54 -41 -54 41 -54 2849 2112 5 MP
DP
41 54 -41 54 -41 -54 41 -54 2879 2059 5 MP
DP
41 54 -41 54 -41 -54 41 -54 2908 2001 5 MP
DP
41 54 -41 54 -41 -54 41 -54 2936 1955 5 MP
DP
41 54 -41 54 -41 -54 41 -54 2962 1904 5 MP
DP
41 54 -41 54 -41 -54 41 -54 2988 1857 5 MP
DP
41 54 -41 54 -41 -54 41 -54 3013 1809 5 MP
DP
41 54 -41 54 -41 -54 41 -54 3036 1763 5 MP
DP
41 54 -41 54 -41 -54 41 -54 3059 1716 5 MP
DP
41 54 -41 54 -41 -54 41 -54 3082 1677 5 MP
DP
41 54 -41 54 -41 -54 41 -54 3103 1639 5 MP
DP
41 54 -41 54 -41 -54 41 -54 3124 1596 5 MP
DP
41 54 -41 54 -41 -54 41 -54 3144 1559 5 MP
DP
41 54 -41 54 -41 -54 41 -54 3164 1520 5 MP
DP
41 54 -41 54 -41 -54 41 -54 3183 1486 5 MP
DP
41 54 -41 54 -41 -54 41 -54 3202 1450 5 MP
DP
41 54 -41 54 -41 -54 41 -54 3220 1418 5 MP
DP
41 54 -41 54 -41 -54 41 -54 3238 1388 5 MP
DP
41 54 -41 54 -41 -54 41 -54 3255 1361 5 MP
DP
41 54 -41 54 -41 -54 41 -54 3272 1338 5 MP
DP
41 54 -41 54 -41 -54 41 -54 3288 1310 5 MP
DP
41 54 -41 54 -41 -54 41 -54 3304 1284 5 MP
DP
41 54 -41 54 -41 -54 41 -54 3320 1260 5 MP
DP
41 54 -41 54 -41 -54 41 -54 3335 1239 5 MP
DP
41 54 -41 54 -41 -54 41 -54 3350 1212 5 MP
DP
41 54 -41 54 -41 -54 41 -54 3364 1190 5 MP
DP
41 54 -41 54 -41 -54 41 -54 3379 1168 5 MP
DP
41 54 -41 54 -41 -54 41 -54 3393 1145 5 MP
DP
41 54 -41 54 -41 -54 41 -54 3406 1121 5 MP
DP
41 54 -41 54 -41 -54 41 -54 3420 1101 5 MP
DP
41 54 -41 54 -41 -54 41 -54 3433 1084 5 MP
DP
41 54 -41 54 -41 -54 41 -54 3446 1065 5 MP
DP
41 54 -41 54 -41 -54 41 -54 3459 1047 5 MP
DP
41 54 -41 54 -41 -54 41 -54 3471 1031 5 MP
DP
41 54 -41 54 -41 -54 41 -54 3483 1013 5 MP
DP
41 54 -41 54 -41 -54 41 -54 3495 994 5 MP
DP
41 54 -41 54 -41 -54 41 -54 3507 980 5 MP
DP
41 54 -41 54 -41 -54 41 -54 3519 967 5 MP
DP
41 54 -41 54 -41 -54 41 -54 3530 955 5 MP
DP
41 54 -41 54 -41 -54 41 -54 3541 942 5 MP
DP
41 54 -41 54 -41 -54 41 -54 3553 928 5 MP
DP
41 54 -41 54 -41 -54 41 -54 3563 916 5 MP
DP
41 54 -41 54 -41 -54 41 -54 3574 906 5 MP
DP
41 54 -41 54 -41 -54 41 -54 3585 892 5 MP
DP
41 54 -41 54 -41 -54 41 -54 3595 880 5 MP
DP
41 54 -41 54 -41 -54 41 -54 3605 871 5 MP
DP
41 54 -41 54 -41 -54 41 -54 3615 857 5 MP
DP
41 54 -41 54 -41 -54 41 -54 3625 847 5 MP
DP
41 54 -41 54 -41 -54 41 -54 3635 835 5 MP
DP
41 54 -41 54 -41 -54 41 -54 3645 826 5 MP
DP
41 54 -41 54 -41 -54 41 -54 3654 814 5 MP
DP
41 54 -41 54 -41 -54 41 -54 3663 804 5 MP
DP
41 54 -41 54 -41 -54 41 -54 3673 794 5 MP
DP
41 54 -41 54 -41 -54 41 -54 3682 787 5 MP
DP
41 54 -41 54 -41 -54 41 -54 3691 782 5 MP
DP
41 54 -41 54 -41 -54 41 -54 3700 775 5 MP
DP
41 54 -41 54 -41 -54 41 -54 3708 767 5 MP
DP
41 54 -41 54 -41 -54 41 -54 3717 760 5 MP
DP
41 54 -41 54 -41 -54 41 -54 3726 754 5 MP
DP
41 54 -41 54 -41 -54 41 -54 3734 747 5 MP
DP
41 54 -41 54 -41 -54 41 -54 3742 740 5 MP
DP
41 54 -41 54 -41 -54 41 -54 3751 734 5 MP
DP
41 54 -41 54 -41 -54 41 -54 3759 729 5 MP
DP
41 54 -41 54 -41 -54 41 -54 3767 724 5 MP
DP
41 54 -41 54 -41 -54 41 -54 3775 718 5 MP
DP
41 54 -41 54 -41 -54 41 -54 3783 713 5 MP
DP
41 54 -41 54 -41 -54 41 -54 3790 708 5 MP
DP
41 54 -41 54 -41 -54 41 -54 3798 702 5 MP
DP
41 54 -41 54 -41 -54 41 -54 3806 696 5 MP
DP
41 54 -41 54 -41 -54 41 -54 3813 691 5 MP
DP
41 54 -41 54 -41 -54 41 -54 3821 686 5 MP
DP
41 54 -41 54 -41 -54 41 -54 3828 681 5 MP
DP
41 54 -41 54 -41 -54 41 -54 3835 678 5 MP
DP
41 54 -41 54 -41 -54 41 -54 3842 674 5 MP
DP
41 54 -41 54 -41 -54 41 -54 3849 670 5 MP
DP
41 54 -41 54 -41 -54 41 -54 3856 667 5 MP
DP
41 54 -41 54 -41 -54 41 -54 3863 661 5 MP
DP
41 54 -41 54 -41 -54 41 -54 3870 659 5 MP
DP
41 54 -41 54 -41 -54 41 -54 3877 657 5 MP
DP
41 54 -41 54 -41 -54 41 -54 3884 654 5 MP
DP
41 54 -41 54 -41 -54 41 -54 3891 649 5 MP
DP
41 54 -41 54 -41 -54 41 -54 3897 646 5 MP
DP
41 54 -41 54 -41 -54 41 -54 3904 643 5 MP
DP
41 54 -41 54 -41 -54 41 -54 3910 640 5 MP
DP
41 54 -41 54 -41 -54 41 -54 3917 636 5 MP
DP
41 54 -41 54 -41 -54 41 -54 3923 634 5 MP
DP
41 54 -41 54 -41 -54 41 -54 3929 632 5 MP
DP
41 54 -41 54 -41 -54 41 -54 3936 629 5 MP
DP
41 54 -41 54 -41 -54 41 -54 3942 627 5 MP
DP
41 54 -41 54 -41 -54 41 -54 3948 626 5 MP
DP
41 54 -41 54 -41 -54 41 -54 3954 623 5 MP
DP
41 54 -41 54 -41 -54 41 -54 3960 621 5 MP
DP
41 54 -41 54 -41 -54 41 -54 3966 618 5 MP
DP
41 54 -41 54 -41 -54 41 -54 3972 617 5 MP
DP
41 54 -41 54 -41 -54 41 -54 3978 615 5 MP
DP
41 54 -41 54 -41 -54 41 -54 3984 614 5 MP
DP
41 54 -41 54 -41 -54 41 -54 3990 612 5 MP
DP
41 54 -41 54 -41 -54 41 -54 3995 610 5 MP
DP
41 54 -41 54 -41 -54 41 -54 4001 609 5 MP
DP
41 54 -41 54 -41 -54 41 -54 4007 606 5 MP
DP
41 54 -41 54 -41 -54 41 -54 4012 604 5 MP
DP
41 54 -41 54 -41 -54 41 -54 4018 602 5 MP
DP
41 54 -41 54 -41 -54 41 -54 4023 600 5 MP
DP
41 54 -41 54 -41 -54 41 -54 4029 598 5 MP
DP
41 54 -41 54 -41 -54 41 -54 4034 597 5 MP
DP
41 54 -41 54 -41 -54 41 -54 4040 594 5 MP
DP
41 54 -41 54 -41 -54 41 -54 4045 592 5 MP
DP
41 54 -41 54 -41 -54 41 -54 4050 591 5 MP
DP
41 54 -41 54 -41 -54 41 -54 4055 591 5 MP
DP
41 54 -41 54 -41 -54 41 -54 4061 589 5 MP
DP
41 54 -41 54 -41 -54 41 -54 4066 588 5 MP
DP
41 54 -41 54 -41 -54 41 -54 4071 587 5 MP
DP
41 54 -41 54 -41 -54 41 -54 4076 587 5 MP
DP
41 54 -41 54 -41 -54 41 -54 4081 586 5 MP
DP
41 54 -41 54 -41 -54 41 -54 4086 585 5 MP
DP
41 54 -41 54 -41 -54 41 -54 4091 584 5 MP
DP
41 54 -41 54 -41 -54 41 -54 4096 582 5 MP
DP
41 54 -41 54 -41 -54 41 -54 4101 581 5 MP
DP
41 54 -41 54 -41 -54 41 -54 4106 580 5 MP
DP
41 54 -41 54 -41 -54 41 -54 4111 579 5 MP
DP
41 54 -41 54 -41 -54 41 -54 4115 577 5 MP
DP
41 54 -41 54 -41 -54 41 -54 4120 577 5 MP
DP
41 54 -41 54 -41 -54 41 -54 4125 576 5 MP
DP
41 54 -41 54 -41 -54 41 -54 4130 575 5 MP
DP
41 54 -41 54 -41 -54 41 -54 4134 575 5 MP
DP
41 54 -41 54 -41 -54 41 -54 4139 575 5 MP
DP
41 54 -41 54 -41 -54 41 -54 4143 574 5 MP
DP
41 54 -41 54 -41 -54 41 -54 4148 573 5 MP
DP
41 54 -41 54 -41 -54 41 -54 4153 572 5 MP
DP
41 54 -41 54 -41 -54 41 -54 4157 572 5 MP
DP
41 54 -41 54 -41 -54 41 -54 4162 571 5 MP
DP
41 54 -41 54 -41 -54 41 -54 4166 570 5 MP
DP
41 54 -41 54 -41 -54 41 -54 4170 569 5 MP
DP
41 54 -41 54 -41 -54 41 -54 4175 569 5 MP
DP
41 54 -41 54 -41 -54 41 -54 4179 568 5 MP
DP
41 54 -41 54 -41 -54 41 -54 4184 567 5 MP
DP
41 54 -41 54 -41 -54 41 -54 4188 567 5 MP
DP
41 54 -41 54 -41 -54 41 -54 4192 566 5 MP
DP
41 54 -41 54 -41 -54 41 -54 4196 566 5 MP
DP
41 54 -41 54 -41 -54 41 -54 4201 565 5 MP
DP
41 54 -41 54 -41 -54 41 -54 4205 565 5 MP
DP
41 54 -41 54 -41 -54 41 -54 4209 565 5 MP
DP
41 54 -41 54 -41 -54 41 -54 4213 565 5 MP
DP
41 54 -41 54 -41 -54 41 -54 4217 564 5 MP
DP
41 54 -41 54 -41 -54 41 -54 4221 564 5 MP
DP
41 54 -41 54 -41 -54 41 -54 4225 564 5 MP
DP
41 54 -41 54 -41 -54 41 -54 4230 564 5 MP
DP
41 54 -41 54 -41 -54 41 -54 4234 563 5 MP
DP
41 54 -41 54 -41 -54 41 -54 4238 563 5 MP
DP
41 54 -41 54 -41 -54 41 -54 4242 562 5 MP
DP
41 54 -41 54 -41 -54 41 -54 4246 562 5 MP
DP
41 54 -41 54 -41 -54 41 -54 4249 562 5 MP
DP
41 54 -41 54 -41 -54 41 -54 4253 562 5 MP
DP
41 54 -41 54 -41 -54 41 -54 4257 561 5 MP
DP
41 54 -41 54 -41 -54 41 -54 4261 561 5 MP
DP
41 54 -41 54 -41 -54 41 -54 4265 561 5 MP
DP
41 54 -41 54 -41 -54 41 -54 4269 561 5 MP
DP
41 54 -41 54 -41 -54 41 -54 4273 560 5 MP
DP
41 54 -41 54 -41 -54 41 -54 4276 560 5 MP
DP
41 54 -41 54 -41 -54 41 -54 4280 560 5 MP
DP
41 54 -41 54 -41 -54 41 -54 4284 559 5 MP
DP
41 54 -41 54 -41 -54 41 -54 4288 559 5 MP
DP
41 54 -41 54 -41 -54 41 -54 4291 559 5 MP
DP
41 54 -41 54 -41 -54 41 -54 4295 559 5 MP
DP
41 54 -41 54 -41 -54 41 -54 4299 559 5 MP
DP
41 54 -41 54 -41 -54 41 -54 4302 559 5 MP
DP
41 54 -41 54 -41 -54 41 -54 4306 559 5 MP
DP
41 54 -41 54 -41 -54 41 -54 4310 559 5 MP
DP
41 54 -41 54 -41 -54 41 -54 4313 558 5 MP
DP
41 54 -41 54 -41 -54 41 -54 4317 558 5 MP
DP
41 54 -41 54 -41 -54 41 -54 4320 558 5 MP
DP
41 54 -41 54 -41 -54 41 -54 4324 558 5 MP
DP
41 54 -41 54 -41 -54 41 -54 4327 558 5 MP
DP
41 54 -41 54 -41 -54 41 -54 4331 557 5 MP
DP
41 54 -41 54 -41 -54 41 -54 4334 557 5 MP
DP
41 54 -41 54 -41 -54 41 -54 4338 557 5 MP
DP
41 54 -41 54 -41 -54 41 -54 4341 557 5 MP
DP
41 54 -41 54 -41 -54 41 -54 4345 557 5 MP
DP
41 54 -41 54 -41 -54 41 -54 4348 557 5 MP
DP
41 54 -41 54 -41 -54 41 -54 4351 556 5 MP
DP
41 54 -41 54 -41 -54 41 -54 4355 556 5 MP
DP
41 54 -41 54 -41 -54 41 -54 4358 556 5 MP
DP
41 54 -41 54 -41 -54 41 -54 4361 556 5 MP
DP
41 54 -41 54 -41 -54 41 -54 4365 556 5 MP
DP
41 54 -41 54 -41 -54 41 -54 4368 556 5 MP
DP
41 54 -41 54 -41 -54 41 -54 4371 556 5 MP
DP
41 54 -41 54 -41 -54 41 -54 4375 556 5 MP
DP
41 54 -41 54 -41 -54 41 -54 4378 556 5 MP
DP
41 54 -41 54 -41 -54 41 -54 4381 556 5 MP
DP
41 54 -41 54 -41 -54 41 -54 4384 556 5 MP
DP
41 54 -41 54 -41 -54 41 -54 4388 556 5 MP
DP
41 54 -41 54 -41 -54 41 -54 4391 556 5 MP
DP
41 54 -41 54 -41 -54 41 -54 4394 556 5 MP
DP
41 54 -41 54 -41 -54 41 -54 4397 556 5 MP
DP
41 54 -41 54 -41 -54 41 -54 4400 556 5 MP
DP
41 54 -41 54 -41 -54 41 -54 4403 556 5 MP
DP
41 54 -41 54 -41 -54 41 -54 4406 556 5 MP
DP
41 54 -41 54 -41 -54 41 -54 4410 556 5 MP
DP
41 54 -41 54 -41 -54 41 -54 4413 556 5 MP
DP
41 54 -41 54 -41 -54 41 -54 4416 556 5 MP
DP
41 54 -41 54 -41 -54 41 -54 4419 555 5 MP
DP
41 54 -41 54 -41 -54 41 -54 4422 555 5 MP
DP
41 54 -41 54 -41 -54 41 -54 4425 555 5 MP
DP
41 54 -41 54 -41 -54 41 -54 4428 555 5 MP
DP
41 54 -41 54 -41 -54 41 -54 4431 555 5 MP
DP
41 54 -41 54 -41 -54 41 -54 4434 555 5 MP
DP
41 54 -41 54 -41 -54 41 -54 4437 555 5 MP
DP
41 54 -41 54 -41 -54 41 -54 4440 555 5 MP
DP
41 54 -41 54 -41 -54 41 -54 4443 555 5 MP
DP
41 54 -41 54 -41 -54 41 -54 4446 555 5 MP
DP
41 54 -41 54 -41 -54 41 -54 4449 555 5 MP
DP
41 54 -41 54 -41 -54 41 -54 4452 555 5 MP
DP
41 54 -41 54 -41 -54 41 -54 4455 555 5 MP
DP
41 54 -41 54 -41 -54 41 -54 4457 555 5 MP
DP
41 54 -41 54 -41 -54 41 -54 4460 555 5 MP
DP
41 54 -41 54 -41 -54 41 -54 4463 555 5 MP
DP
41 54 -41 54 -41 -54 41 -54 4466 555 5 MP
DP
41 54 -41 54 -41 -54 41 -54 4469 555 5 MP
DP
41 54 -41 54 -41 -54 41 -54 4472 555 5 MP
DP
41 54 -41 54 -41 -54 41 -54 4475 555 5 MP
DP
41 54 -41 54 -41 -54 41 -54 4477 555 5 MP
DP
41 54 -41 54 -41 -54 41 -54 4480 555 5 MP
DP
41 54 -41 54 -41 -54 41 -54 4483 555 5 MP
DP
41 54 -41 54 -41 -54 41 -54 4486 555 5 MP
DP
41 54 -41 54 -41 -54 41 -54 4489 555 5 MP
DP
41 54 -41 54 -41 -54 41 -54 4491 554 5 MP
DP
41 54 -41 54 -41 -54 41 -54 4494 554 5 MP
DP
41 54 -41 54 -41 -54 41 -54 4497 554 5 MP
DP
41 54 -41 54 -41 -54 41 -54 4500 554 5 MP
DP
gs 750 500 3751 3501 rc
gr

0.1 sg
%%IncludeResource: font Helvetica-Bold
/Helvetica-Bold /WindowsLatin1Encoding 183.333 FMSR

1857 4362 mt 
(Contact Force [N]) s
 424 3100 mt  -90 rotate
(Cumulative Percent) s
90 rotate
gs 750 500 3751 3501 rc
/c8 { 1.000000 0.000000 0.000000 sr} bdef
c8
3 0 3 0 3 0 2 0 3 0 3 0 3 0 3 0 
2 0 3 0 3 0 3 0 3 0 3 0 3 0 2 -1 
3 0 3 0 3 0 3 0 3 0 3 0 3 0 3 0 
3 0 3 0 3 0 3 0 3 0 3 0 3 -1 4 0 
3 0 3 0 3 0 3 0 3 0 3 0 4 0 3 0 
3 0 3 0 4 0 3 0 3 0 4 0 3 0 3 0 
4 0 3 0 3 0 4 0 3 0 4 0 3 0 4 0 
3 0 4 0 3 0 4 0 3 0 4 0 4 0 3 0 
4 0 4 0 3 0 4 0 4 0 4 -1 3 0 4 0 
4 0 4 0 4 -1 4 0 4 -1 3 0 4 0 4 0 
4 0 4 -1 5 0 4 -1 4 0 4 0 4 -1 4 0 
4 0 5 0 4 0 4 0 4 0 5 0 4 -1 5 0 
4 0 4 -1 5 -1 4 0 5 -1 5 -1 4 -1 5 -1 
4 0 5 -1 5 -1 5 0 4 0 5 -1 5 0 5 -1 
5 -1 5 -1 5 -1 5 -1 5 -1 5 -1 5 0 6 -2 
5 -1 5 -1 5 -1 6 0 5 -1 6 -1 5 -1 6 -2 
5 -3 6 -2 6 -1 5 -2 6 0 6 -1 6 -2 6 -1 
6 -2 6 -2 6 -2 6 -2 6 -2 7 -3 6 -2 6 -2 
7 -2 6 -3 7 -4 6 -2 7 -2 7 -1 7 -2 7 -4 
7 -5 7 -3 7 -2 7 -4 7 -3 7 -4 8 -5 7 -4 
8 -5 8 -4 7 -5 8 -4 8 -5 8 -7 8 -6 9 -3 
8 -5 8 -6 9 -11 9 -6 8 -8 9 -8 9 -8 9 -7 
10 -10 9 -7 9 -8 10 -4 10 -9 10 -9 10 -12 10 -11 
10 -8 11 -9 11 -9 10 -14 12 -9 11 -12 11 -14 12 -13 
12 -12 12 -14 12 -13 12 -19 13 -14 13 -16 13 -16 14 -19 
13 -20 14 -20 15 -23 14 -19 15 -26 15 -23 16 -26 16 -21 
16 -23 17 -25 17 -27 18 -27 18 -28 19 -38 19 -36 20 -37 
20 -38 21 -44 21 -40 23 -41 23 -40 23 -46 25 -49 26 -46 
26 -45 28 -43 29 -54 30 -57 32 -54 33 -55 35 -61 36 -63 
39 -71 41 -74 44 -73 47 -70 50 -86 55 -74 59 -70 65 -83 
71 -91 80 -88 91 -99 105 -105 123 -100 152 -109 195 -122 276 -119 
470 -117 750 3739 250 MP stroke
gr

c8
  41   41  750 3739 FO
  41   41 1220 3622 FO
  41   41 1496 3503 FO
  41   41 1691 3381 FO
  41   41 1843 3272 FO
  41   41 1966 3172 FO
  41   41 2071 3067 FO
  41   41 2162 2968 FO
  41   41 2242 2880 FO
  41   41 2313 2789 FO
  41   41 2378 2706 FO
  41   41 2437 2636 FO
  41   41 2492 2562 FO
  41   41 2542 2476 FO
  41   41 2589 2406 FO
  41   41 2633 2333 FO
  41   41 2674 2259 FO
  41   41 2713 2188 FO
  41   41 2749 2125 FO
  41   41 2784 2064 FO
  41   41 2817 2009 FO
  41   41 2849 1955 FO
  41   41 2879 1898 FO
  41   41 2908 1844 FO
  41   41 2936 1801 FO
  41   41 2962 1756 FO
  41   41 2988 1710 FO
  41   41 3013 1661 FO
  41   41 3036 1615 FO
  41   41 3059 1575 FO
  41   41 3082 1534 FO
  41   41 3103 1494 FO
  41   41 3124 1450 FO
  41   41 3144 1412 FO
  41   41 3164 1375 FO
  41   41 3183 1339 FO
  41   41 3202 1301 FO
  41   41 3220 1273 FO
  41   41 3238 1246 FO
  41   41 3255 1219 FO
  41   41 3272 1194 FO
  41   41 3288 1171 FO
  41   41 3304 1150 FO
  41   41 3320 1124 FO
  41   41 3335 1101 FO
  41   41 3350 1075 FO
  41   41 3364 1056 FO
  41   41 3379 1033 FO
  41   41 3393 1013 FO
  41   41 3406  993 FO
  41   41 3420  974 FO
  41   41 3433  958 FO
  41   41 3446  942 FO
  41   41 3459  928 FO
  41   41 3471  909 FO
  41   41 3483  896 FO
  41   41 3495  882 FO
  41   41 3507  870 FO
  41   41 3519  857 FO
  41   41 3530  843 FO
  41   41 3541  831 FO
  41   41 3553  822 FO
  41   41 3563  808 FO
  41   41 3574  799 FO
  41   41 3585  790 FO
  41   41 3595  782 FO
  41   41 3605  771 FO
  41   41 3615  759 FO
  41   41 3625  750 FO
  41   41 3635  741 FO
  41   41 3645  737 FO
  41   41 3654  729 FO
  41   41 3663  722 FO
  41   41 3673  712 FO
  41   41 3682  705 FO
  41   41 3691  697 FO
  41   41 3700  689 FO
  41   41 3708  681 FO
  41   41 3717  675 FO
  41   41 3726  664 FO
  41   41 3734  658 FO
  41   41 3742  653 FO
  41   41 3751  650 FO
  41   41 3759  644 FO
  41   41 3767  637 FO
  41   41 3775  632 FO
  41   41 3783  628 FO
  41   41 3790  623 FO
  41   41 3798  619 FO
  41   41 3806  614 FO
  41   41 3813  610 FO
  41   41 3821  605 FO
  41   41 3828  601 FO
  41   41 3835  598 FO
  41   41 3842  594 FO
  41   41 3849  592 FO
  41   41 3856  589 FO
  41   41 3863  584 FO
  41   41 3870  580 FO
  41   41 3877  578 FO
  41   41 3884  577 FO
  41   41 3891  575 FO
  41   41 3897  573 FO
  41   41 3904  569 FO
  41   41 3910  566 FO
  41   41 3917  564 FO
  41   41 3923  562 FO
  41   41 3929  560 FO
  41   41 3936  557 FO
  41   41 3942  555 FO
  41   41 3948  553 FO
  41   41 3954  551 FO
  41   41 3960  549 FO
  41   41 3966  547 FO
  41   41 3972  546 FO
  41   41 3978  544 FO
  41   41 3984  543 FO
  41   41 3990  543 FO
  41   41 3995  541 FO
  41   41 4001  540 FO
  41   41 4007  538 FO
  41   41 4012  535 FO
  41   41 4018  533 FO
  41   41 4023  532 FO
  41   41 4029  531 FO
  41   41 4034  530 FO
  41   41 4040  530 FO
  41   41 4045  529 FO
  41   41 4050  528 FO
  41   41 4055  527 FO
  41   41 4061  525 FO
  41   41 4066  525 FO
  41   41 4071  524 FO
  41   41 4076  523 FO
  41   41 4081  522 FO
  41   41 4086  521 FO
  41   41 4091  520 FO
  41   41 4096  519 FO
  41   41 4101  518 FO
  41   41 4106  518 FO
  41   41 4111  517 FO
  41   41 4115  517 FO
  41   41 4120  517 FO
  41   41 4125  516 FO
  41   41 4130  515 FO
  41   41 4134  515 FO
  41   41 4139  514 FO
  41   41 4143  513 FO
  41   41 4148  512 FO
  41   41 4153  511 FO
  41   41 4157  511 FO
  41   41 4162  510 FO
  41   41 4166  509 FO
  41   41 4170  509 FO
  41   41 4175  509 FO
  41   41 4179  508 FO
  41   41 4184  508 FO
  41   41 4188  508 FO
  41   41 4192  508 FO
  41   41 4196  508 FO
  41   41 4201  508 FO
  41   41 4205  508 FO
  41   41 4209  508 FO
  41   41 4213  507 FO
  41   41 4217  507 FO
  41   41 4221  507 FO
  41   41 4225  506 FO
  41   41 4230  506 FO
  41   41 4234  505 FO
  41   41 4238  505 FO
  41   41 4242  505 FO
  41   41 4246  505 FO
  41   41 4249  505 FO
  41   41 4253  504 FO
  41   41 4257  504 FO
  41   41 4261  503 FO
  41   41 4265  503 FO
  41   41 4269  503 FO
  41   41 4273  503 FO
  41   41 4276  503 FO
  41   41 4280  502 FO
  41   41 4284  502 FO
  41   41 4288  502 FO
  41   41 4291  502 FO
  41   41 4295  502 FO
  41   41 4299  502 FO
  41   41 4302  502 FO
  41   41 4306  502 FO
  41   41 4310  502 FO
  41   41 4313  502 FO
  41   41 4317  502 FO
  41   41 4320  502 FO
  41   41 4324  502 FO
  41   41 4327  502 FO
  41   41 4331  502 FO
  41   41 4334  502 FO
  41   41 4338  502 FO
  41   41 4341  502 FO
  41   41 4345  502 FO
  41   41 4348  502 FO
  41   41 4351  502 FO
  41   41 4355  502 FO
  41   41 4358  502 FO
  41   41 4361  502 FO
  41   41 4365  502 FO
  41   41 4368  502 FO
  41   41 4371  502 FO
  41   41 4375  502 FO
  41   41 4378  502 FO
  41   41 4381  502 FO
  41   41 4384  502 FO
  41   41 4388  502 FO
  41   41 4391  502 FO
  41   41 4394  502 FO
  41   41 4397  502 FO
  41   41 4400  502 FO
  41   41 4403  502 FO
  41   41 4406  502 FO
  41   41 4410  502 FO
  41   41 4413  501 FO
  41   41 4416  501 FO
  41   41 4419  501 FO
  41   41 4422  501 FO
  41   41 4425  501 FO
  41   41 4428  501 FO
  41   41 4431  501 FO
  41   41 4434  501 FO
  41   41 4437  501 FO
  41   41 4440  501 FO
  41   41 4443  501 FO
  41   41 4446  501 FO
  41   41 4449  501 FO
  41   41 4452  501 FO
  41   41 4455  501 FO
  41   41 4457  500 FO
  41   41 4460  500 FO
  41   41 4463  500 FO
  41   41 4466  500 FO
  41   41 4469  500 FO
  41   41 4472  500 FO
  41   41 4475  500 FO
  41   41 4477  500 FO
  41   41 4480  500 FO
  41   41 4483  500 FO
  41   41 4486  500 FO
  41   41 4489  500 FO
  41   41 4491  500 FO
  41   41 4494  500 FO
  41   41 4497  500 FO
  41   41 4500  500 FO
gs 750 500 3751 3501 rc
/c9 { 0.000000 0.000000 1.000000 sr} bdef
c9
3 0 3 0 3 0 2 0 3 0 3 0 3 0 3 0 
2 0 3 0 3 0 3 0 3 0 3 0 3 0 2 0 
3 0 3 0 3 0 3 0 3 0 3 0 3 0 3 0 
3 0 3 0 3 0 3 0 3 0 3 0 3 0 4 0 
3 0 3 0 3 0 3 0 3 0 3 0 4 0 3 0 
3 0 3 0 4 0 3 0 3 0 4 0 3 0 3 0 
4 0 3 0 3 0 4 0 3 0 4 0 3 0 4 0 
3 0 4 0 3 -1 4 0 3 0 4 0 4 0 3 -1 
4 0 4 0 3 0 4 0 4 0 4 0 3 0 4 0 
4 0 4 0 4 0 4 0 4 -1 3 0 4 0 4 0 
4 0 4 0 5 -1 4 0 4 0 4 0 4 0 4 -1 
4 0 5 0 4 0 4 0 4 0 5 0 4 0 5 0 
4 -1 4 0 5 0 4 -1 5 0 5 0 4 0 5 0 
4 0 5 -1 5 0 5 -1 4 0 5 -1 5 0 5 0 
5 -1 5 0 5 0 5 0 5 -1 5 0 5 -2 6 0 
5 -1 5 0 5 -1 6 0 5 -2 6 -1 5 0 6 0 
5 -1 6 -1 6 -1 5 -1 6 0 6 -3 6 0 6 0 
6 -2 6 -1 6 -1 6 -1 6 -1 7 -1 6 -1 6 -3 
7 -4 6 -2 7 -2 6 -4 7 -2 7 -2 7 -2 7 -2 
7 -2 7 -1 7 -3 7 -3 7 -3 7 -2 8 -4 7 -4 
8 -4 8 -4 7 -6 8 -3 8 -3 8 -3 8 -3 9 -3 
8 -5 8 -5 9 -4 9 -3 8 -8 9 -5 9 -5 9 -9 
10 -5 9 -6 9 -7 10 -9 10 -7 10 -7 10 -5 10 -6 
10 -10 11 -8 11 -9 10 -9 12 -11 11 -10 11 -11 12 -14 
12 -8 12 -12 12 -13 12 -17 13 -15 13 -16 13 -15 14 -17 
13 -15 14 -21 15 -17 14 -20 15 -19 15 -23 16 -23 16 -23 
16 -23 17 -24 17 -26 18 -23 18 -30 19 -25 19 -26 20 -30 
20 -42 21 -34 21 -36 23 -40 23 -45 23 -41 25 -53 26 -49 
26 -50 28 -53 29 -55 30 -55 32 -56 33 -58 35 -61 36 -60 
39 -71 41 -64 44 -77 47 -84 50 -81 55 -79 59 -85 65 -86 
71 -92 80 -88 91 -108 105 -110 123 -112 152 -106 195 -129 276 -131 
470 -136 750 3694 250 MP stroke
gr

c9
-47 81 -47 -81 94 0 703 3721 4 MP
DP
-47 81 -47 -81 94 0 1173 3585 4 MP
DP
-47 81 -47 -81 94 0 1449 3454 4 MP
DP
-47 81 -47 -81 94 0 1644 3325 4 MP
DP
-47 81 -47 -81 94 0 1796 3219 4 MP
DP
-47 81 -47 -81 94 0 1919 3107 4 MP
DP
-47 81 -47 -81 94 0 2024 2997 4 MP
DP
-47 81 -47 -81 94 0 2115 2889 4 MP
DP
-47 81 -47 -81 94 0 2195 2801 4 MP
DP
-47 81 -47 -81 94 0 2266 2709 4 MP
DP
-47 81 -47 -81 94 0 2331 2623 4 MP
DP
-47 81 -47 -81 94 0 2390 2538 4 MP
DP
-47 81 -47 -81 94 0 2445 2459 4 MP
DP
-47 81 -47 -81 94 0 2495 2378 4 MP
DP
-47 81 -47 -81 94 0 2542 2294 4 MP
DP
-47 81 -47 -81 94 0 2586 2217 4 MP
DP
-47 81 -47 -81 94 0 2627 2153 4 MP
DP
-47 81 -47 -81 94 0 2666 2082 4 MP
DP
-47 81 -47 -81 94 0 2702 2022 4 MP
DP
-47 81 -47 -81 94 0 2737 1961 4 MP
DP
-47 81 -47 -81 94 0 2770 1903 4 MP
DP
-47 81 -47 -81 94 0 2802 1847 4 MP
DP
-47 81 -47 -81 94 0 2832 1792 4 MP
DP
-47 81 -47 -81 94 0 2861 1737 4 MP
DP
-47 81 -47 -81 94 0 2889 1684 4 MP
DP
-47 81 -47 -81 94 0 2915 1634 4 MP
DP
-47 81 -47 -81 94 0 2941 1585 4 MP
DP
-47 81 -47 -81 94 0 2966 1532 4 MP
DP
-47 81 -47 -81 94 0 2989 1491 4 MP
DP
-47 81 -47 -81 94 0 3012 1446 4 MP
DP
-47 81 -47 -81 94 0 3035 1406 4 MP
DP
-47 81 -47 -81 94 0 3056 1370 4 MP
DP
-47 81 -47 -81 94 0 3077 1336 4 MP
DP
-47 81 -47 -81 94 0 3097 1294 4 MP
DP
-47 81 -47 -81 94 0 3117 1264 4 MP
DP
-47 81 -47 -81 94 0 3136 1238 4 MP
DP
-47 81 -47 -81 94 0 3155 1213 4 MP
DP
-47 81 -47 -81 94 0 3173 1183 4 MP
DP
-47 81 -47 -81 94 0 3191 1160 4 MP
DP
-47 81 -47 -81 94 0 3208 1134 4 MP
DP
-47 81 -47 -81 94 0 3225 1110 4 MP
DP
-47 81 -47 -81 94 0 3241 1087 4 MP
DP
-47 81 -47 -81 94 0 3257 1064 4 MP
DP
-47 81 -47 -81 94 0 3273 1041 4 MP
DP
-47 81 -47 -81 94 0 3288 1018 4 MP
DP
-47 81 -47 -81 94 0 3303 999 4 MP
DP
-47 81 -47 -81 94 0 3317 979 4 MP
DP
-47 81 -47 -81 94 0 3332 962 4 MP
DP
-47 81 -47 -81 94 0 3346 941 4 MP
DP
-47 81 -47 -81 94 0 3359 926 4 MP
DP
-47 81 -47 -81 94 0 3373 909 4 MP
DP
-47 81 -47 -81 94 0 3386 894 4 MP
DP
-47 81 -47 -81 94 0 3399 878 4 MP
DP
-47 81 -47 -81 94 0 3412 863 4 MP
DP
-47 81 -47 -81 94 0 3424 846 4 MP
DP
-47 81 -47 -81 94 0 3436 833 4 MP
DP
-47 81 -47 -81 94 0 3448 821 4 MP
DP
-47 81 -47 -81 94 0 3460 813 4 MP
DP
-47 81 -47 -81 94 0 3472 799 4 MP
DP
-47 81 -47 -81 94 0 3483 788 4 MP
DP
-47 81 -47 -81 94 0 3494 778 4 MP
DP
-47 81 -47 -81 94 0 3506 767 4 MP
DP
-47 81 -47 -81 94 0 3516 758 4 MP
DP
-47 81 -47 -81 94 0 3527 749 4 MP
DP
-47 81 -47 -81 94 0 3538 741 4 MP
DP
-47 81 -47 -81 94 0 3548 731 4 MP
DP
-47 81 -47 -81 94 0 3558 725 4 MP
DP
-47 81 -47 -81 94 0 3568 720 4 MP
DP
-47 81 -47 -81 94 0 3578 713 4 MP
DP
-47 81 -47 -81 94 0 3588 706 4 MP
DP
-47 81 -47 -81 94 0 3598 697 4 MP
DP
-47 81 -47 -81 94 0 3607 690 4 MP
DP
-47 81 -47 -81 94 0 3616 684 4 MP
DP
-47 81 -47 -81 94 0 3626 679 4 MP
DP
-47 81 -47 -81 94 0 3635 670 4 MP
DP
-47 81 -47 -81 94 0 3644 665 4 MP
DP
-47 81 -47 -81 94 0 3653 660 4 MP
DP
-47 81 -47 -81 94 0 3661 652 4 MP
DP
-47 81 -47 -81 94 0 3670 649 4 MP
DP
-47 81 -47 -81 94 0 3679 645 4 MP
DP
-47 81 -47 -81 94 0 3687 640 4 MP
DP
-47 81 -47 -81 94 0 3695 635 4 MP
DP
-47 81 -47 -81 94 0 3704 632 4 MP
DP
-47 81 -47 -81 94 0 3712 629 4 MP
DP
-47 81 -47 -81 94 0 3720 626 4 MP
DP
-47 81 -47 -81 94 0 3728 623 4 MP
DP
-47 81 -47 -81 94 0 3736 620 4 MP
DP
-47 81 -47 -81 94 0 3743 614 4 MP
DP
-47 81 -47 -81 94 0 3751 610 4 MP
DP
-47 81 -47 -81 94 0 3759 606 4 MP
DP
-47 81 -47 -81 94 0 3766 602 4 MP
DP
-47 81 -47 -81 94 0 3774 598 4 MP
DP
-47 81 -47 -81 94 0 3781 596 4 MP
DP
-47 81 -47 -81 94 0 3788 593 4 MP
DP
-47 81 -47 -81 94 0 3795 590 4 MP
DP
-47 81 -47 -81 94 0 3802 587 4 MP
DP
-47 81 -47 -81 94 0 3809 586 4 MP
DP
-47 81 -47 -81 94 0 3816 584 4 MP
DP
-47 81 -47 -81 94 0 3823 582 4 MP
DP
-47 81 -47 -81 94 0 3830 580 4 MP
DP
-47 81 -47 -81 94 0 3837 578 4 MP
DP
-47 81 -47 -81 94 0 3844 576 4 MP
DP
-47 81 -47 -81 94 0 3850 572 4 MP
DP
-47 81 -47 -81 94 0 3857 570 4 MP
DP
-47 81 -47 -81 94 0 3863 568 4 MP
DP
-47 81 -47 -81 94 0 3870 564 4 MP
DP
-47 81 -47 -81 94 0 3876 561 4 MP
DP
-47 81 -47 -81 94 0 3882 560 4 MP
DP
-47 81 -47 -81 94 0 3889 559 4 MP
DP
-47 81 -47 -81 94 0 3895 558 4 MP
DP
-47 81 -47 -81 94 0 3901 557 4 MP
DP
-47 81 -47 -81 94 0 3907 556 4 MP
DP
-47 81 -47 -81 94 0 3913 555 4 MP
DP
-47 81 -47 -81 94 0 3919 553 4 MP
DP
-47 81 -47 -81 94 0 3925 553 4 MP
DP
-47 81 -47 -81 94 0 3931 553 4 MP
DP
-47 81 -47 -81 94 0 3937 550 4 MP
DP
-47 81 -47 -81 94 0 3943 550 4 MP
DP
-47 81 -47 -81 94 0 3948 549 4 MP
DP
-47 81 -47 -81 94 0 3954 548 4 MP
DP
-47 81 -47 -81 94 0 3960 547 4 MP
DP
-47 81 -47 -81 94 0 3965 546 4 MP
DP
-47 81 -47 -81 94 0 3971 546 4 MP
DP
-47 81 -47 -81 94 0 3976 546 4 MP
DP
-47 81 -47 -81 94 0 3982 545 4 MP
DP
-47 81 -47 -81 94 0 3987 543 4 MP
DP
-47 81 -47 -81 94 0 3993 543 4 MP
DP
-47 81 -47 -81 94 0 3998 542 4 MP
DP
-47 81 -47 -81 94 0 4003 542 4 MP
DP
-47 81 -47 -81 94 0 4008 541 4 MP
DP
-47 81 -47 -81 94 0 4014 541 4 MP
DP
-47 81 -47 -81 94 0 4019 539 4 MP
DP
-47 81 -47 -81 94 0 4024 539 4 MP
DP
-47 81 -47 -81 94 0 4029 538 4 MP
DP
-47 81 -47 -81 94 0 4034 538 4 MP
DP
-47 81 -47 -81 94 0 4039 538 4 MP
DP
-47 81 -47 -81 94 0 4044 538 4 MP
DP
-47 81 -47 -81 94 0 4049 537 4 MP
DP
-47 81 -47 -81 94 0 4054 537 4 MP
DP
-47 81 -47 -81 94 0 4059 537 4 MP
DP
-47 81 -47 -81 94 0 4064 536 4 MP
DP
-47 81 -47 -81 94 0 4068 536 4 MP
DP
-47 81 -47 -81 94 0 4073 535 4 MP
DP
-47 81 -47 -81 94 0 4078 535 4 MP
DP
-47 81 -47 -81 94 0 4083 534 4 MP
DP
-47 81 -47 -81 94 0 4087 534 4 MP
DP
-47 81 -47 -81 94 0 4092 534 4 MP
DP
-47 81 -47 -81 94 0 4096 534 4 MP
DP
-47 81 -47 -81 94 0 4101 534 4 MP
DP
-47 81 -47 -81 94 0 4106 534 4 MP
DP
-47 81 -47 -81 94 0 4110 533 4 MP
DP
-47 81 -47 -81 94 0 4115 533 4 MP
DP
-47 81 -47 -81 94 0 4119 533 4 MP
DP
-47 81 -47 -81 94 0 4123 532 4 MP
DP
-47 81 -47 -81 94 0 4128 532 4 MP
DP
-47 81 -47 -81 94 0 4132 532 4 MP
DP
-47 81 -47 -81 94 0 4137 532 4 MP
DP
-47 81 -47 -81 94 0 4141 532 4 MP
DP
-47 81 -47 -81 94 0 4145 532 4 MP
DP
-47 81 -47 -81 94 0 4149 532 4 MP
DP
-47 81 -47 -81 94 0 4154 532 4 MP
DP
-47 81 -47 -81 94 0 4158 532 4 MP
DP
-47 81 -47 -81 94 0 4162 531 4 MP
DP
-47 81 -47 -81 94 0 4166 531 4 MP
DP
-47 81 -47 -81 94 0 4170 531 4 MP
DP
-47 81 -47 -81 94 0 4174 531 4 MP
DP
-47 81 -47 -81 94 0 4178 531 4 MP
DP
-47 81 -47 -81 94 0 4183 530 4 MP
DP
-47 81 -47 -81 94 0 4187 530 4 MP
DP
-47 81 -47 -81 94 0 4191 530 4 MP
DP
-47 81 -47 -81 94 0 4195 530 4 MP
DP
-47 81 -47 -81 94 0 4199 530 4 MP
DP
-47 81 -47 -81 94 0 4202 530 4 MP
DP
-47 81 -47 -81 94 0 4206 529 4 MP
DP
-47 81 -47 -81 94 0 4210 529 4 MP
DP
-47 81 -47 -81 94 0 4214 529 4 MP
DP
-47 81 -47 -81 94 0 4218 529 4 MP
DP
-47 81 -47 -81 94 0 4222 529 4 MP
DP
-47 81 -47 -81 94 0 4226 529 4 MP
DP
-47 81 -47 -81 94 0 4229 529 4 MP
DP
-47 81 -47 -81 94 0 4233 529 4 MP
DP
-47 81 -47 -81 94 0 4237 529 4 MP
DP
-47 81 -47 -81 94 0 4241 529 4 MP
DP
-47 81 -47 -81 94 0 4244 529 4 MP
DP
-47 81 -47 -81 94 0 4248 529 4 MP
DP
-47 81 -47 -81 94 0 4252 529 4 MP
DP
-47 81 -47 -81 94 0 4255 528 4 MP
DP
-47 81 -47 -81 94 0 4259 528 4 MP
DP
-47 81 -47 -81 94 0 4263 528 4 MP
DP
-47 81 -47 -81 94 0 4266 528 4 MP
DP
-47 81 -47 -81 94 0 4270 528 4 MP
DP
-47 81 -47 -81 94 0 4273 527 4 MP
DP
-47 81 -47 -81 94 0 4277 527 4 MP
DP
-47 81 -47 -81 94 0 4280 527 4 MP
DP
-47 81 -47 -81 94 0 4284 527 4 MP
DP
-47 81 -47 -81 94 0 4287 527 4 MP
DP
-47 81 -47 -81 94 0 4291 527 4 MP
DP
-47 81 -47 -81 94 0 4294 527 4 MP
DP
-47 81 -47 -81 94 0 4298 527 4 MP
DP
-47 81 -47 -81 94 0 4301 527 4 MP
DP
-47 81 -47 -81 94 0 4304 527 4 MP
DP
-47 81 -47 -81 94 0 4308 527 4 MP
DP
-47 81 -47 -81 94 0 4311 527 4 MP
DP
-47 81 -47 -81 94 0 4314 527 4 MP
DP
-47 81 -47 -81 94 0 4318 527 4 MP
DP
-47 81 -47 -81 94 0 4321 527 4 MP
DP
-47 81 -47 -81 94 0 4324 527 4 MP
DP
-47 81 -47 -81 94 0 4328 527 4 MP
DP
-47 81 -47 -81 94 0 4331 527 4 MP
DP
-47 81 -47 -81 94 0 4334 527 4 MP
DP
-47 81 -47 -81 94 0 4337 527 4 MP
DP
-47 81 -47 -81 94 0 4341 527 4 MP
DP
-47 81 -47 -81 94 0 4344 527 4 MP
DP
-47 81 -47 -81 94 0 4347 527 4 MP
DP
-47 81 -47 -81 94 0 4350 527 4 MP
DP
-47 81 -47 -81 94 0 4353 527 4 MP
DP
-47 81 -47 -81 94 0 4356 527 4 MP
DP
-47 81 -47 -81 94 0 4359 527 4 MP
DP
-47 81 -47 -81 94 0 4363 527 4 MP
DP
-47 81 -47 -81 94 0 4366 527 4 MP
DP
-47 81 -47 -81 94 0 4369 527 4 MP
DP
-47 81 -47 -81 94 0 4372 527 4 MP
DP
-47 81 -47 -81 94 0 4375 527 4 MP
DP
-47 81 -47 -81 94 0 4378 527 4 MP
DP
-47 81 -47 -81 94 0 4381 527 4 MP
DP
-47 81 -47 -81 94 0 4384 527 4 MP
DP
-47 81 -47 -81 94 0 4387 527 4 MP
DP
-47 81 -47 -81 94 0 4390 527 4 MP
DP
-47 81 -47 -81 94 0 4393 527 4 MP
DP
-47 81 -47 -81 94 0 4396 527 4 MP
DP
-47 81 -47 -81 94 0 4399 527 4 MP
DP
-47 81 -47 -81 94 0 4402 527 4 MP
DP
-47 81 -47 -81 94 0 4405 527 4 MP
DP
-47 81 -47 -81 94 0 4408 527 4 MP
DP
-47 81 -47 -81 94 0 4410 527 4 MP
DP
-47 81 -47 -81 94 0 4413 527 4 MP
DP
-47 81 -47 -81 94 0 4416 527 4 MP
DP
-47 81 -47 -81 94 0 4419 527 4 MP
DP
-47 81 -47 -81 94 0 4422 527 4 MP
DP
-47 81 -47 -81 94 0 4425 527 4 MP
DP
-47 81 -47 -81 94 0 4428 527 4 MP
DP
-47 81 -47 -81 94 0 4430 527 4 MP
DP
-47 81 -47 -81 94 0 4433 527 4 MP
DP
-47 81 -47 -81 94 0 4436 527 4 MP
DP
-47 81 -47 -81 94 0 4439 527 4 MP
DP
-47 81 -47 -81 94 0 4442 527 4 MP
DP
-47 81 -47 -81 94 0 4444 527 4 MP
DP
-47 81 -47 -81 94 0 4447 527 4 MP
DP
-47 81 -47 -81 94 0 4450 527 4 MP
DP
-47 81 -47 -81 94 0 4453 527 4 MP
DP
gs 750 500 3751 3501 rc
/c10 { 1.000000 0.000000 1.000000 sr} bdef
c10
3 0 3 0 2 0 3 0 3 0 3 0 3 0 3 0 
3 0 2 0 3 0 3 0 3 0 3 0 3 0 3 0 
3 0 3 0 3 0 3 0 3 -1 3 0 3 0 3 0 
3 0 4 0 3 0 3 0 3 0 3 0 3 0 3 0 
4 0 3 0 3 0 3 0 4 0 3 0 3 0 4 0 
3 0 3 0 4 -1 3 0 3 0 4 0 3 0 4 0 
3 0 4 0 3 0 4 0 3 0 4 0 3 0 4 0 
4 0 3 0 4 0 4 -1 3 0 4 0 4 0 4 -1 
3 0 4 0 4 0 4 0 4 -1 4 0 4 -1 3 0 
4 0 4 0 4 0 4 0 5 -1 4 0 4 0 4 -1 
4 0 4 -1 4 0 5 -1 4 -1 4 0 4 -1 5 0 
4 -1 5 0 4 -1 4 0 5 0 4 -1 5 0 5 0 
4 -1 5 0 4 0 5 0 5 0 5 0 4 -1 5 -2 
5 0 5 0 5 0 5 0 5 -1 5 -1 5 -1 5 -1 
5 0 6 -1 5 -1 5 -1 5 0 6 -1 5 0 6 -1 
5 -1 6 -2 5 -1 6 0 6 -1 5 -2 6 -1 6 -1 
6 -1 6 -2 6 -1 6 -1 6 -2 6 -1 6 -1 7 -2 
6 -3 6 -3 7 -2 6 -1 7 -2 6 -3 7 -2 7 -2 
7 -4 7 -2 7 -3 7 -4 7 -2 7 -3 7 -5 7 -3 
8 -4 7 -5 8 -3 8 -4 7 -3 8 -4 8 -3 8 -4 
8 -5 9 -6 8 -4 8 -6 9 -4 9 -5 8 -6 9 -6 
9 -5 9 -8 10 -4 9 -7 9 -10 10 -6 10 -9 10 -9 
10 -7 10 -6 10 -12 11 -12 11 -8 10 -9 12 -10 11 -8 
11 -12 12 -16 12 -14 12 -11 12 -9 12 -12 13 -10 13 -14 
13 -15 14 -14 13 -15 14 -15 15 -19 14 -20 15 -19 15 -21 
16 -20 16 -23 16 -25 17 -28 17 -23 18 -32 18 -30 19 -25 
19 -27 20 -31 20 -36 21 -35 21 -31 23 -34 23 -41 23 -39 
25 -42 26 -41 26 -46 28 -50 29 -50 30 -51 32 -55 33 -55 
35 -63 36 -63 39 -63 41 -70 44 -65 47 -78 50 -79 55 -83 
59 -91 65 -93 71 -105 80 -91 91 -95 105 -105 123 -111 152 -120 
195 -129 276 -134 470 -140 750 3678 244 MP stroke
gr

c10
41 54 -41 54 -41 -54 41 -54 750 3732 5 MP
DP
41 54 -41 54 -41 -54 41 -54 1220 3592 5 MP
DP
41 54 -41 54 -41 -54 41 -54 1496 3458 5 MP
DP
41 54 -41 54 -41 -54 41 -54 1691 3329 5 MP
DP
41 54 -41 54 -41 -54 41 -54 1843 3209 5 MP
DP
41 54 -41 54 -41 -54 41 -54 1966 3098 5 MP
DP
41 54 -41 54 -41 -54 41 -54 2071 2993 5 MP
DP
41 54 -41 54 -41 -54 41 -54 2162 2898 5 MP
DP
41 54 -41 54 -41 -54 41 -54 2242 2807 5 MP
DP
41 54 -41 54 -41 -54 41 -54 2313 2702 5 MP
DP
41 54 -41 54 -41 -54 41 -54 2378 2609 5 MP
DP
41 54 -41 54 -41 -54 41 -54 2437 2518 5 MP
DP
41 54 -41 54 -41 -54 41 -54 2492 2435 5 MP
DP
41 54 -41 54 -41 -54 41 -54 2542 2356 5 MP
DP
41 54 -41 54 -41 -54 41 -54 2589 2278 5 MP
DP
41 54 -41 54 -41 -54 41 -54 2633 2213 5 MP
DP
41 54 -41 54 -41 -54 41 -54 2674 2143 5 MP
DP
41 54 -41 54 -41 -54 41 -54 2713 2080 5 MP
DP
41 54 -41 54 -41 -54 41 -54 2749 2017 5 MP
DP
41 54 -41 54 -41 -54 41 -54 2784 1954 5 MP
DP
41 54 -41 54 -41 -54 41 -54 2817 1899 5 MP
DP
41 54 -41 54 -41 -54 41 -54 2849 1844 5 MP
DP
41 54 -41 54 -41 -54 41 -54 2879 1793 5 MP
DP
41 54 -41 54 -41 -54 41 -54 2908 1743 5 MP
DP
41 54 -41 54 -41 -54 41 -54 2936 1693 5 MP
DP
41 54 -41 54 -41 -54 41 -54 2962 1647 5 MP
DP
41 54 -41 54 -41 -54 41 -54 2988 1606 5 MP
DP
41 54 -41 54 -41 -54 41 -54 3013 1564 5 MP
DP
41 54 -41 54 -41 -54 41 -54 3036 1525 5 MP
DP
41 54 -41 54 -41 -54 41 -54 3059 1484 5 MP
DP
41 54 -41 54 -41 -54 41 -54 3082 1450 5 MP
DP
41 54 -41 54 -41 -54 41 -54 3103 1419 5 MP
DP
41 54 -41 54 -41 -54 41 -54 3124 1384 5 MP
DP
41 54 -41 54 -41 -54 41 -54 3144 1348 5 MP
DP
41 54 -41 54 -41 -54 41 -54 3164 1317 5 MP
DP
41 54 -41 54 -41 -54 41 -54 3183 1290 5 MP
DP
41 54 -41 54 -41 -54 41 -54 3202 1265 5 MP
DP
41 54 -41 54 -41 -54 41 -54 3220 1235 5 MP
DP
41 54 -41 54 -41 -54 41 -54 3238 1203 5 MP
DP
41 54 -41 54 -41 -54 41 -54 3255 1180 5 MP
DP
41 54 -41 54 -41 -54 41 -54 3272 1152 5 MP
DP
41 54 -41 54 -41 -54 41 -54 3288 1127 5 MP
DP
41 54 -41 54 -41 -54 41 -54 3304 1104 5 MP
DP
41 54 -41 54 -41 -54 41 -54 3320 1084 5 MP
DP
41 54 -41 54 -41 -54 41 -54 3335 1063 5 MP
DP
41 54 -41 54 -41 -54 41 -54 3350 1044 5 MP
DP
41 54 -41 54 -41 -54 41 -54 3364 1024 5 MP
DP
41 54 -41 54 -41 -54 41 -54 3379 1005 5 MP
DP
41 54 -41 54 -41 -54 41 -54 3393 990 5 MP
DP
41 54 -41 54 -41 -54 41 -54 3406 975 5 MP
DP
41 54 -41 54 -41 -54 41 -54 3420 961 5 MP
DP
41 54 -41 54 -41 -54 41 -54 3433 946 5 MP
DP
41 54 -41 54 -41 -54 41 -54 3446 932 5 MP
DP
41 54 -41 54 -41 -54 41 -54 3459 922 5 MP
DP
41 54 -41 54 -41 -54 41 -54 3471 910 5 MP
DP
41 54 -41 54 -41 -54 41 -54 3483 901 5 MP
DP
41 54 -41 54 -41 -54 41 -54 3495 890 5 MP
DP
41 54 -41 54 -41 -54 41 -54 3507 876 5 MP
DP
41 54 -41 54 -41 -54 41 -54 3519 860 5 MP
DP
41 54 -41 54 -41 -54 41 -54 3530 848 5 MP
DP
41 54 -41 54 -41 -54 41 -54 3541 840 5 MP
DP
41 54 -41 54 -41 -54 41 -54 3553 830 5 MP
DP
41 54 -41 54 -41 -54 41 -54 3563 821 5 MP
DP
41 54 -41 54 -41 -54 41 -54 3574 813 5 MP
DP
41 54 -41 54 -41 -54 41 -54 3585 801 5 MP
DP
41 54 -41 54 -41 -54 41 -54 3595 789 5 MP
DP
41 54 -41 54 -41 -54 41 -54 3605 783 5 MP
DP
41 54 -41 54 -41 -54 41 -54 3615 776 5 MP
DP
41 54 -41 54 -41 -54 41 -54 3625 767 5 MP
DP
41 54 -41 54 -41 -54 41 -54 3635 758 5 MP
DP
41 54 -41 54 -41 -54 41 -54 3645 752 5 MP
DP
41 54 -41 54 -41 -54 41 -54 3654 742 5 MP
DP
41 54 -41 54 -41 -54 41 -54 3663 735 5 MP
DP
41 54 -41 54 -41 -54 41 -54 3673 731 5 MP
DP
41 54 -41 54 -41 -54 41 -54 3682 723 5 MP
DP
41 54 -41 54 -41 -54 41 -54 3691 718 5 MP
DP
41 54 -41 54 -41 -54 41 -54 3700 712 5 MP
DP
41 54 -41 54 -41 -54 41 -54 3708 706 5 MP
DP
41 54 -41 54 -41 -54 41 -54 3717 701 5 MP
DP
41 54 -41 54 -41 -54 41 -54 3726 697 5 MP
DP
41 54 -41 54 -41 -54 41 -54 3734 691 5 MP
DP
41 54 -41 54 -41 -54 41 -54 3742 687 5 MP
DP
41 54 -41 54 -41 -54 41 -54 3751 681 5 MP
DP
41 54 -41 54 -41 -54 41 -54 3759 676 5 MP
DP
41 54 -41 54 -41 -54 41 -54 3767 672 5 MP
DP
41 54 -41 54 -41 -54 41 -54 3775 669 5 MP
DP
41 54 -41 54 -41 -54 41 -54 3783 665 5 MP
DP
41 54 -41 54 -41 -54 41 -54 3790 662 5 MP
DP
41 54 -41 54 -41 -54 41 -54 3798 658 5 MP
DP
41 54 -41 54 -41 -54 41 -54 3806 655 5 MP
DP
41 54 -41 54 -41 -54 41 -54 3813 650 5 MP
DP
41 54 -41 54 -41 -54 41 -54 3821 646 5 MP
DP
41 54 -41 54 -41 -54 41 -54 3828 643 5 MP
DP
41 54 -41 54 -41 -54 41 -54 3835 638 5 MP
DP
41 54 -41 54 -41 -54 41 -54 3842 635 5 MP
DP
41 54 -41 54 -41 -54 41 -54 3849 633 5 MP
DP
41 54 -41 54 -41 -54 41 -54 3856 629 5 MP
DP
41 54 -41 54 -41 -54 41 -54 3863 626 5 MP
DP
41 54 -41 54 -41 -54 41 -54 3870 624 5 MP
DP
41 54 -41 54 -41 -54 41 -54 3877 620 5 MP
DP
41 54 -41 54 -41 -54 41 -54 3884 618 5 MP
DP
41 54 -41 54 -41 -54 41 -54 3891 616 5 MP
DP
41 54 -41 54 -41 -54 41 -54 3897 613 5 MP
DP
41 54 -41 54 -41 -54 41 -54 3904 611 5 MP
DP
41 54 -41 54 -41 -54 41 -54 3910 610 5 MP
DP
41 54 -41 54 -41 -54 41 -54 3917 608 5 MP
DP
41 54 -41 54 -41 -54 41 -54 3923 605 5 MP
DP
41 54 -41 54 -41 -54 41 -54 3929 602 5 MP
DP
41 54 -41 54 -41 -54 41 -54 3936 600 5 MP
DP
41 54 -41 54 -41 -54 41 -54 3942 599 5 MP
DP
41 54 -41 54 -41 -54 41 -54 3948 598 5 MP
DP
41 54 -41 54 -41 -54 41 -54 3954 596 5 MP
DP
41 54 -41 54 -41 -54 41 -54 3960 595 5 MP
DP
41 54 -41 54 -41 -54 41 -54 3966 594 5 MP
DP
41 54 -41 54 -41 -54 41 -54 3972 592 5 MP
DP
41 54 -41 54 -41 -54 41 -54 3978 591 5 MP
DP
41 54 -41 54 -41 -54 41 -54 3984 590 5 MP
DP
41 54 -41 54 -41 -54 41 -54 3990 589 5 MP
DP
41 54 -41 54 -41 -54 41 -54 3995 587 5 MP
DP
41 54 -41 54 -41 -54 41 -54 4001 586 5 MP
DP
41 54 -41 54 -41 -54 41 -54 4007 586 5 MP
DP
41 54 -41 54 -41 -54 41 -54 4012 585 5 MP
DP
41 54 -41 54 -41 -54 41 -54 4018 583 5 MP
DP
41 54 -41 54 -41 -54 41 -54 4023 582 5 MP
DP
41 54 -41 54 -41 -54 41 -54 4029 581 5 MP
DP
41 54 -41 54 -41 -54 41 -54 4034 581 5 MP
DP
41 54 -41 54 -41 -54 41 -54 4040 580 5 MP
DP
41 54 -41 54 -41 -54 41 -54 4045 580 5 MP
DP
41 54 -41 54 -41 -54 41 -54 4050 579 5 MP
DP
41 54 -41 54 -41 -54 41 -54 4055 578 5 MP
DP
41 54 -41 54 -41 -54 41 -54 4061 577 5 MP
DP
41 54 -41 54 -41 -54 41 -54 4066 577 5 MP
DP
41 54 -41 54 -41 -54 41 -54 4071 576 5 MP
DP
41 54 -41 54 -41 -54 41 -54 4076 575 5 MP
DP
41 54 -41 54 -41 -54 41 -54 4081 574 5 MP
DP
41 54 -41 54 -41 -54 41 -54 4086 573 5 MP
DP
41 54 -41 54 -41 -54 41 -54 4091 573 5 MP
DP
41 54 -41 54 -41 -54 41 -54 4096 573 5 MP
DP
41 54 -41 54 -41 -54 41 -54 4101 573 5 MP
DP
41 54 -41 54 -41 -54 41 -54 4106 573 5 MP
DP
41 54 -41 54 -41 -54 41 -54 4111 571 5 MP
DP
41 54 -41 54 -41 -54 41 -54 4115 570 5 MP
DP
41 54 -41 54 -41 -54 41 -54 4120 570 5 MP
DP
41 54 -41 54 -41 -54 41 -54 4125 570 5 MP
DP
41 54 -41 54 -41 -54 41 -54 4130 570 5 MP
DP
41 54 -41 54 -41 -54 41 -54 4134 570 5 MP
DP
41 54 -41 54 -41 -54 41 -54 4139 570 5 MP
DP
41 54 -41 54 -41 -54 41 -54 4143 569 5 MP
DP
41 54 -41 54 -41 -54 41 -54 4148 569 5 MP
DP
41 54 -41 54 -41 -54 41 -54 4153 569 5 MP
DP
41 54 -41 54 -41 -54 41 -54 4157 568 5 MP
DP
41 54 -41 54 -41 -54 41 -54 4162 568 5 MP
DP
41 54 -41 54 -41 -54 41 -54 4166 568 5 MP
DP
41 54 -41 54 -41 -54 41 -54 4170 567 5 MP
DP
41 54 -41 54 -41 -54 41 -54 4175 567 5 MP
DP
41 54 -41 54 -41 -54 41 -54 4179 566 5 MP
DP
41 54 -41 54 -41 -54 41 -54 4184 566 5 MP
DP
41 54 -41 54 -41 -54 41 -54 4188 565 5 MP
DP
41 54 -41 54 -41 -54 41 -54 4192 565 5 MP
DP
41 54 -41 54 -41 -54 41 -54 4196 564 5 MP
DP
41 54 -41 54 -41 -54 41 -54 4201 563 5 MP
DP
41 54 -41 54 -41 -54 41 -54 4205 563 5 MP
DP
41 54 -41 54 -41 -54 41 -54 4209 562 5 MP
DP
41 54 -41 54 -41 -54 41 -54 4213 562 5 MP
DP
41 54 -41 54 -41 -54 41 -54 4217 561 5 MP
DP
41 54 -41 54 -41 -54 41 -54 4221 561 5 MP
DP
41 54 -41 54 -41 -54 41 -54 4225 561 5 MP
DP
41 54 -41 54 -41 -54 41 -54 4230 560 5 MP
DP
41 54 -41 54 -41 -54 41 -54 4234 560 5 MP
DP
41 54 -41 54 -41 -54 41 -54 4238 560 5 MP
DP
41 54 -41 54 -41 -54 41 -54 4242 560 5 MP
DP
41 54 -41 54 -41 -54 41 -54 4246 560 5 MP
DP
41 54 -41 54 -41 -54 41 -54 4249 560 5 MP
DP
41 54 -41 54 -41 -54 41 -54 4253 559 5 MP
DP
41 54 -41 54 -41 -54 41 -54 4257 559 5 MP
DP
41 54 -41 54 -41 -54 41 -54 4261 558 5 MP
DP
41 54 -41 54 -41 -54 41 -54 4265 558 5 MP
DP
41 54 -41 54 -41 -54 41 -54 4269 558 5 MP
DP
41 54 -41 54 -41 -54 41 -54 4273 558 5 MP
DP
41 54 -41 54 -41 -54 41 -54 4276 558 5 MP
DP
41 54 -41 54 -41 -54 41 -54 4280 557 5 MP
DP
41 54 -41 54 -41 -54 41 -54 4284 557 5 MP
DP
41 54 -41 54 -41 -54 41 -54 4288 557 5 MP
DP
41 54 -41 54 -41 -54 41 -54 4291 557 5 MP
DP
41 54 -41 54 -41 -54 41 -54 4295 556 5 MP
DP
41 54 -41 54 -41 -54 41 -54 4299 556 5 MP
DP
41 54 -41 54 -41 -54 41 -54 4302 556 5 MP
DP
41 54 -41 54 -41 -54 41 -54 4306 556 5 MP
DP
41 54 -41 54 -41 -54 41 -54 4310 556 5 MP
DP
41 54 -41 54 -41 -54 41 -54 4313 556 5 MP
DP
41 54 -41 54 -41 -54 41 -54 4317 556 5 MP
DP
41 54 -41 54 -41 -54 41 -54 4320 556 5 MP
DP
41 54 -41 54 -41 -54 41 -54 4324 556 5 MP
DP
41 54 -41 54 -41 -54 41 -54 4327 556 5 MP
DP
41 54 -41 54 -41 -54 41 -54 4331 556 5 MP
DP
41 54 -41 54 -41 -54 41 -54 4334 556 5 MP
DP
41 54 -41 54 -41 -54 41 -54 4338 556 5 MP
DP
41 54 -41 54 -41 -54 41 -54 4341 556 5 MP
DP
41 54 -41 54 -41 -54 41 -54 4345 556 5 MP
DP
41 54 -41 54 -41 -54 41 -54 4348 556 5 MP
DP
41 54 -41 54 -41 -54 41 -54 4351 556 5 MP
DP
41 54 -41 54 -41 -54 41 -54 4355 555 5 MP
DP
41 54 -41 54 -41 -54 41 -54 4358 555 5 MP
DP
41 54 -41 54 -41 -54 41 -54 4361 555 5 MP
DP
41 54 -41 54 -41 -54 41 -54 4365 555 5 MP
DP
41 54 -41 54 -41 -54 41 -54 4368 555 5 MP
DP
41 54 -41 54 -41 -54 41 -54 4371 555 5 MP
DP
41 54 -41 54 -41 -54 41 -54 4375 555 5 MP
DP
41 54 -41 54 -41 -54 41 -54 4378 555 5 MP
DP
41 54 -41 54 -41 -54 41 -54 4381 555 5 MP
DP
41 54 -41 54 -41 -54 41 -54 4384 555 5 MP
DP
41 54 -41 54 -41 -54 41 -54 4388 555 5 MP
DP
41 54 -41 54 -41 -54 41 -54 4391 555 5 MP
DP
41 54 -41 54 -41 -54 41 -54 4394 555 5 MP
DP
41 54 -41 54 -41 -54 41 -54 4397 555 5 MP
DP
41 54 -41 54 -41 -54 41 -54 4400 555 5 MP
DP
41 54 -41 54 -41 -54 41 -54 4403 555 5 MP
DP
41 54 -41 54 -41 -54 41 -54 4406 555 5 MP
DP
41 54 -41 54 -41 -54 41 -54 4410 555 5 MP
DP
41 54 -41 54 -41 -54 41 -54 4413 555 5 MP
DP
41 54 -41 54 -41 -54 41 -54 4416 555 5 MP
DP
41 54 -41 54 -41 -54 41 -54 4419 555 5 MP
DP
41 54 -41 54 -41 -54 41 -54 4422 555 5 MP
DP
41 54 -41 54 -41 -54 41 -54 4425 554 5 MP
DP
41 54 -41 54 -41 -54 41 -54 4428 554 5 MP
DP
41 54 -41 54 -41 -54 41 -54 4431 554 5 MP
DP
41 54 -41 54 -41 -54 41 -54 4434 554 5 MP
DP
41 54 -41 54 -41 -54 41 -54 4437 554 5 MP
DP
41 54 -41 54 -41 -54 41 -54 4440 554 5 MP
DP
41 54 -41 54 -41 -54 41 -54 4443 554 5 MP
DP
41 54 -41 54 -41 -54 41 -54 4446 554 5 MP
DP
41 54 -41 54 -41 -54 41 -54 4449 554 5 MP
DP
41 54 -41 54 -41 -54 41 -54 4452 554 5 MP
DP
41 54 -41 54 -41 -54 41 -54 4455 554 5 MP
DP
41 54 -41 54 -41 -54 41 -54 4457 554 5 MP
DP
41 54 -41 54 -41 -54 41 -54 4460 554 5 MP
DP
41 54 -41 54 -41 -54 41 -54 4463 554 5 MP
DP
41 54 -41 54 -41 -54 41 -54 4466 554 5 MP
DP
41 54 -41 54 -41 -54 41 -54 4469 554 5 MP
DP
41 54 -41 54 -41 -54 41 -54 4472 554 5 MP
DP
41 54 -41 54 -41 -54 41 -54 4475 554 5 MP
DP
41 54 -41 54 -41 -54 41 -54 4477 554 5 MP
DP
41 54 -41 54 -41 -54 41 -54 4480 554 5 MP
DP
gs 750 500 3751 3501 rc
gr

0 sg
%%IncludeResource: font Helvetica
/Helvetica /WindowsLatin1Encoding 83.3333 FMSR

 738 4031 mt 
( ) s
4489  530 mt 
( ) s
8.33333 w
DO
SO
12.5 w
0.1 sg
 750  500 mt 4500  500 L
 750 4000 mt 4500 4000 L
4500 4000 mt 4500  500 L
 750 4000 mt  750  500 L
 750 4000 mt 4500 4000 L
 750 4000 mt  750  500 L
 750 4000 mt  750 3971 L
 750  500 mt  750  528 L
 750 4000 mt  750 3943 L
 750  500 mt  750  556 L
%%IncludeResource: font Helvetica
/Helvetica /WindowsLatin1Encoding 133.333 FMSR

 626 4188 mt 
(10) s
%%IncludeResource: font Helvetica
/Helvetica /WindowsLatin1Encoding 88.8889 FMSR

 774 4106 mt 
(-3) s
1220 4000 mt 1220 3971 L
1220  500 mt 1220  528 L
1496 4000 mt 1496 3971 L
1496  500 mt 1496  528 L
1691 4000 mt 1691 3971 L
1691  500 mt 1691  528 L
1843 4000 mt 1843 3971 L
1843  500 mt 1843  528 L
1966 4000 mt 1966 3971 L
1966  500 mt 1966  528 L
2071 4000 mt 2071 3971 L
2071  500 mt 2071  528 L
2162 4000 mt 2162 3971 L
2162  500 mt 2162  528 L
2242 4000 mt 2242 3971 L
2242  500 mt 2242  528 L
2313 4000 mt 2313 3971 L
2313  500 mt 2313  528 L
2313 4000 mt 2313 3943 L
2313  500 mt 2313  556 L
%%IncludeResource: font Helvetica
/Helvetica /WindowsLatin1Encoding 133.333 FMSR

2189 4188 mt 
(10) s
%%IncludeResource: font Helvetica
/Helvetica /WindowsLatin1Encoding 88.8889 FMSR

2337 4106 mt 
(-2) s
2784 4000 mt 2784 3971 L
2784  500 mt 2784  528 L
3059 4000 mt 3059 3971 L
3059  500 mt 3059  528 L
3255 4000 mt 3255 3971 L
3255  500 mt 3255  528 L
3406 4000 mt 3406 3971 L
3406  500 mt 3406  528 L
3530 4000 mt 3530 3971 L
3530  500 mt 3530  528 L
3635 4000 mt 3635 3971 L
3635  500 mt 3635  528 L
3726 4000 mt 3726 3971 L
3726  500 mt 3726  528 L
3806 4000 mt 3806 3971 L
3806  500 mt 3806  528 L
3877 4000 mt 3877 3971 L
3877  500 mt 3877  528 L
3877 4000 mt 3877 3943 L
3877  500 mt 3877  556 L
%%IncludeResource: font Helvetica
/Helvetica /WindowsLatin1Encoding 133.333 FMSR

3753 4188 mt 
(10) s
%%IncludeResource: font Helvetica
/Helvetica /WindowsLatin1Encoding 88.8889 FMSR

3901 4106 mt 
(-1) s
4348 4000 mt 4348 3971 L
4348  500 mt 4348  528 L
 750 4000 mt  806 4000 L
4500 4000 mt 4443 4000 L
%%IncludeResource: font Helvetica
/Helvetica /WindowsLatin1Encoding 133.333 FMSR

 652 4049 mt 
(0) s
 750 3650 mt  806 3650 L
4500 3650 mt 4443 3650 L
 578 3699 mt 
(10) s
 750 3300 mt  806 3300 L
4500 3300 mt 4443 3300 L
 578 3349 mt 
(20) s
 750 2950 mt  806 2950 L
4500 2950 mt 4443 2950 L
 578 2999 mt 
(30) s
 750 2600 mt  806 2600 L
4500 2600 mt 4443 2600 L
 578 2649 mt 
(40) s
 750 2250 mt  806 2250 L
4500 2250 mt 4443 2250 L
 578 2299 mt 
(50) s
 750 1900 mt  806 1900 L
4500 1900 mt 4443 1900 L
 578 1949 mt 
(60) s
 750 1550 mt  806 1550 L
4500 1550 mt 4443 1550 L
 578 1599 mt 
(70) s
 750 1200 mt  806 1200 L
4500 1200 mt 4443 1200 L
 578 1249 mt 
(80) s
 750  850 mt  806  850 L
4500  850 mt 4443  850 L
 578  899 mt 
(90) s
 750  500 mt  806  500 L
4500  500 mt 4443  500 L
 504  549 mt 
(100) s
 750  500 mt 4500  500 L
 750 4000 mt 4500 4000 L
4500 4000 mt 4500  500 L
 750 4000 mt  750  500 L
0 sg
%%IncludeResource: font Helvetica-Bold
/Helvetica-Bold /WindowsLatin1Encoding 125 FMSR

3853 2065 mt 
(GD = 0) s
gs 3534 1928 926 647 rc
16.6667 w
245 0 3583 2018 2 MP stroke
gr

16.6667 w
gs 3603 1916 205 205 rc
41 54 -41 54 -41 -54 41 -54 3705 2072 5 MP
DP
gr

gs 3534 1928 926 647 rc
gr

3853 2220 mt 
(GD = 0.2) s
gs 3534 1928 926 647 rc
c8
245 0 3583 2173 2 MP stroke
gs 3603 2071 205 205 rc
  41   41 3705 2173 FO
gr

gr

c8
0 sg
3853 2375 mt 
(GD = 0.5) s
gs 3534 1928 926 647 rc
c9
245 0 3583 2328 2 MP stroke
gs 3603 2226 205 205 rc
-47 81 -47 -81 94 0 3658 2355 4 MP
DP
gr

gr

c9
0 sg
3853 2530 mt 
(GD = 0.75) s
gs 3534 1928 926 647 rc
c10
245 0 3583 2483 2 MP stroke
gr

c10
gs 3603 2381 205 205 rc
41 54 -41 54 -41 -54 41 -54 3705 2537 5 MP
DP
gr

gs 3534 1928 926 647 rc
12.5 w
gr

12.5 w

end %%Color Dict

eplot
%%EndObject

epage
end

showpage

%%Trailer
%%EOF
