%!PS-Adobe-3.0 EPSF-3.0
%%Creator: MATLAB, The MathWorks, Inc. Version 8.1.0.604 (R2013a). Operating System: Microsoft Windows 7.
%%Title: .\GD_UC_StressStain.eps
%%CreationDate: 08/17/2013  15:29:11
%%DocumentNeededFonts: Helvetica-Bold
%%+ Helvetica
%%DocumentProcessColors: Cyan Magenta Yellow Black
%%LanguageLevel: 2
%%Pages: 1
%%BoundingBox:    54    93   577   572
%%EndComments

%%BeginProlog
% MathWorks dictionary
/MathWorks 160 dict begin
% definition operators
/bdef {bind def} bind def
/ldef {load def} bind def
/xdef {exch def} bdef
/xstore {exch store} bdef
% operator abbreviations
/c  /clip ldef
/cc /concat ldef
/cp /closepath ldef
/gr /grestore ldef
/gs /gsave ldef
/mt /moveto ldef
/np /newpath ldef
/cm /currentmatrix ldef
/sm /setmatrix ldef
/rm /rmoveto ldef
/rl /rlineto ldef
/s {show newpath} bdef
/sc {setcmykcolor} bdef
/sr /setrgbcolor ldef
/sg /setgray ldef
/w /setlinewidth ldef
/j /setlinejoin ldef
/cap /setlinecap ldef
/rc {rectclip} bdef
/rf {rectfill} bdef
% page state control
/pgsv () def
/bpage {/pgsv save def} bdef
/epage {pgsv restore} bdef
/bplot /gsave ldef
/eplot {stroke grestore} bdef
% orientation switch
/portraitMode 0 def /landscapeMode 1 def /rotateMode 2 def
% coordinate system mappings
/dpi2point 0 def
% font control
/FontSize 0 def
/FMS {/FontSize xstore findfont [FontSize 0 0 FontSize neg 0 0]
  makefont setfont} bdef
/ISOLatin1Encoding where {pop /WindowsLatin1Encoding 256 array bdef
ISOLatin1Encoding WindowsLatin1Encoding copy pop
/.notdef/.notdef/quotesinglbase/florin/quotedblbase/ellipsis/dagger
/daggerdbl/circumflex/perthousand/Scaron/guilsinglleft/OE/.notdef/.notdef
/.notdef/.notdef/quoteleft/quoteright/quotedblleft/quotedblright/bullet
/endash/emdash/tilde/trademark/scaron/guilsinglright/oe/.notdef/.notdef
/Ydieresis WindowsLatin1Encoding 128 32 getinterval astore pop}
{/WindowsLatin1Encoding StandardEncoding bdef} ifelse
/reencode {exch dup where {pop load} {pop StandardEncoding} ifelse
  exch dup 3 1 roll findfont dup length dict begin
  { 1 index /FID ne {def}{pop pop} ifelse } forall
  /Encoding exch def currentdict end definefont pop} bdef
/isroman {findfont /CharStrings get /Agrave known} bdef
/FMSR {3 1 roll 1 index dup isroman {reencode} {pop pop} ifelse
  exch FMS} bdef
/csm {1 dpi2point div -1 dpi2point div scale neg translate
 dup landscapeMode eq {pop -90 rotate}
  {rotateMode eq {90 rotate} if} ifelse} bdef
% line types: solid, dotted, dashed, dotdash
/SO { [] 0 setdash } bdef
/DO { [.5 dpi2point mul 4 dpi2point mul] 0 setdash } bdef
/DA { [6 dpi2point mul] 0 setdash } bdef
/DD { [.5 dpi2point mul 4 dpi2point mul 6 dpi2point mul 4
  dpi2point mul] 0 setdash } bdef
% macros for lines and objects
/L {lineto stroke} bdef
/MP {3 1 roll moveto 1 sub {rlineto} repeat} bdef
/AP {{rlineto} repeat} bdef
/PDlw -1 def
/W {/PDlw currentlinewidth def setlinewidth} def
/PP {closepath eofill} bdef
/DP {closepath stroke} bdef
/MR {4 -2 roll moveto dup  0 exch rlineto exch 0 rlineto
  neg 0 exch rlineto closepath} bdef
/FR {MR stroke} bdef
/PR {MR fill} bdef
/L1i {{currentfile picstr readhexstring pop} image} bdef
/tMatrix matrix def
/MakeOval {newpath tMatrix currentmatrix pop translate scale
0 0 1 0 360 arc tMatrix setmatrix} bdef
/FO {MakeOval stroke} bdef
/PO {MakeOval fill} bdef
/PD {currentlinewidth 2 div 0 360 arc fill
   PDlw -1 eq not {PDlw w /PDlw -1 def} if} def
/FA {newpath tMatrix currentmatrix pop translate scale
  0 0 1 5 -2 roll arc tMatrix setmatrix stroke} bdef
/PA {newpath tMatrix currentmatrix pop	translate 0 0 moveto scale
  0 0 1 5 -2 roll arc closepath tMatrix setmatrix fill} bdef
/FAn {newpath tMatrix currentmatrix pop translate scale
  0 0 1 5 -2 roll arcn tMatrix setmatrix stroke} bdef
/PAn {newpath tMatrix currentmatrix pop translate 0 0 moveto scale
  0 0 1 5 -2 roll arcn closepath tMatrix setmatrix fill} bdef
/vradius 0 def /hradius 0 def /lry 0 def
/lrx 0 def /uly 0 def /ulx 0 def /rad 0 def
/MRR {/vradius xdef /hradius xdef /lry xdef /lrx xdef /uly xdef
  /ulx xdef newpath tMatrix currentmatrix pop ulx hradius add uly
  vradius add translate hradius vradius scale 0 0 1 180 270 arc 
  tMatrix setmatrix lrx hradius sub uly vradius add translate
  hradius vradius scale 0 0 1 270 360 arc tMatrix setmatrix
  lrx hradius sub lry vradius sub translate hradius vradius scale
  0 0 1 0 90 arc tMatrix setmatrix ulx hradius add lry vradius sub
  translate hradius vradius scale 0 0 1 90 180 arc tMatrix setmatrix
  closepath} bdef
/FRR {MRR stroke } bdef
/PRR {MRR fill } bdef
/MlrRR {/lry xdef /lrx xdef /uly xdef /ulx xdef /rad lry uly sub 2 div def
  newpath tMatrix currentmatrix pop ulx rad add uly rad add translate
  rad rad scale 0 0 1 90 270 arc tMatrix setmatrix lrx rad sub lry rad
  sub translate rad rad scale 0 0 1 270 90 arc tMatrix setmatrix
  closepath} bdef
/FlrRR {MlrRR stroke } bdef
/PlrRR {MlrRR fill } bdef
/MtbRR {/lry xdef /lrx xdef /uly xdef /ulx xdef /rad lrx ulx sub 2 div def
  newpath tMatrix currentmatrix pop ulx rad add uly rad add translate
  rad rad scale 0 0 1 180 360 arc tMatrix setmatrix lrx rad sub lry rad
  sub translate rad rad scale 0 0 1 0 180 arc tMatrix setmatrix
  closepath} bdef
/FtbRR {MtbRR stroke } bdef
/PtbRR {MtbRR fill } bdef
/stri 6 array def /dtri 6 array def
/smat 6 array def /dmat 6 array def
/tmat1 6 array def /tmat2 6 array def /dif 3 array def
/asub {/ind2 exch def /ind1 exch def dup dup
  ind1 get exch ind2 get sub exch } bdef
/tri_to_matrix {
  2 0 asub 3 1 asub 4 0 asub 5 1 asub
  dup 0 get exch 1 get 7 -1 roll astore } bdef
/compute_transform {
  dmat dtri tri_to_matrix tmat1 invertmatrix 
  smat stri tri_to_matrix tmat2 concatmatrix } bdef
/ds {stri astore pop} bdef
/dt {dtri astore pop} bdef
/db {2 copy /cols xdef /rows xdef mul dup 3 mul string
  currentfile 
  3 index 0 eq {/ASCIIHexDecode filter}
  {/ASCII85Decode filter 3 index 2 eq {/RunLengthDecode filter} if }
  ifelse exch readstring pop
  dup 0 3 index getinterval /rbmap xdef
  dup 2 index dup getinterval /gbmap xdef
  1 index dup 2 mul exch getinterval /bbmap xdef pop pop}bdef
/it {gs np dtri aload pop moveto lineto lineto cp c
  cols rows 8 compute_transform 
  rbmap gbmap bbmap true 3 colorimage gr}bdef
/il {newpath moveto lineto stroke}bdef
currentdict end def
%%EndProlog

%%BeginSetup
MathWorks begin

0 cap

end
%%EndSetup

%%Page: 1 1
%%BeginPageSetup
%%PageBoundingBox:    54    93   577   572
MathWorks begin
bpage
%%EndPageSetup

%%BeginObject: obj1
bplot

/dpi2point 8.33333 def
portraitMode 0150 5158 csm

  305   390  4361  3990 rc
84 dict begin %Colortable dictionary
/c0 { 0.000000 0.000000 0.000000 sr} bdef
/c1 { 1.000000 1.000000 1.000000 sr} bdef
/c2 { 0.900000 0.000000 0.000000 sr} bdef
/c3 { 0.000000 0.820000 0.000000 sr} bdef
/c4 { 0.000000 0.000000 0.800000 sr} bdef
/c5 { 0.910000 0.820000 0.320000 sr} bdef
/c6 { 1.000000 0.260000 0.820000 sr} bdef
/c7 { 0.000000 0.820000 0.820000 sr} bdef
c0
1 j
1 sg
   0    0 5001 5001 rf
12.5 w
0 3500 3751 0 0 -3500 749 4000 4 MP
PP
-3751 0 0 3500 3751 0 0 -3500 749 4000 5 MP stroke
gs 750 500 3751 3501 rc
16.6667 w
0 sg
3 2 3 1 3 -4 3 -1 3 6 3 -9 3 -1 4 4 
3 0 3 4 3 -2 3 2 3 5 3 -2 3 1 3 -8 
3 -12 3 11 3 12 3 4 3 6 3 -6 3 -8 3 -8 
3 6 3 3 3 2 3 0 3 7 4 -3 3 -4 3 6 
3 -9 3 -9 3 13 3 3 3 1 3 -6 3 -8 3 5 
3 2 3 -3 3 -16 3 0 3 27 3 4 3 0 3 -2 
3 -3 3 -1 3 -3 3 -2 4 2 3 -5 3 5 3 3 
3 1 3 -3 3 -4 3 3 3 5 3 -18 3 -3 3 24 
3 0 3 1 3 7 3 -2 3 4 3 -2 3 -6 3 -2 
3 6 3 6 4 5 3 -14 3 -10 3 16 3 10 3 0 
3 -3 3 -5 3 1 3 7 3 -1 3 -6 3 -3 3 4 
3 0 3 0 3 -1 3 -1 3 1 3 5 3 3 3 -6 
4 -3 3 4 3 8 3 -2 3 -13 3 2 3 11 3 4 
3 -7 3 -8 3 11 3 4 3 -9 3 2 3 5 3 3 
3 1 3 -11 3 13 3 8 3 -4 3 4 4 4 3 2 
3 -2 3 6 3 9 3 0 3 -2 3 -5 3 2 3 0 
3 5 3 -11 3 -10 3 3 3 11 3 -1 3 -12 3 3 
3 1 3 -8 3 4 3 17 3 -1 4 -5 3 -4 3 1 
3 -4 3 -2 3 0 3 1 3 1 3 3 3 -6 3 -9 
3 4 3 9 3 -1 3 -5 3 -5 3 -4 3 3 3 3 
3 5 3 -7 3 -2 4 7 3 5 3 1 3 -6 3 4 
3 14 3 0 3 0 3 -4 3 0 3 -2 3 -2 3 -4 
3 -7 3 14 3 -5 3 -14 3 5 3 10 3 5 3 6 
3 -4 4 -10 3 7 3 6 3 -1 3 1 3 -2 3 -7 
3 1 3 5 3 10 3 0 3 9 3 -5 3 -10 3 8 
3 8 3 3 3 -4 3 -10 3 3 3 4 3 3 3 -10 
4 0 3 7 3 0 3 -6 3 3 3 2 3 8 3 6 
3 -10 3 6 3 10 3 -5 3 -1 3 12 3 0 3 -11 
3 5 3 10 3 -3 3 -14 3 7 3 10 4 -7 3 -2 
3 17 3 2 3 -10 3 -4 3 14 3 0 3 -7 3 3 
3 2 3 2 3 1 3 -3 3 0 3 8 3 -3 3 -5 
3 -1 3 3 3 -5 3 2 4 10 3 2 3 -11 3 3 
3 4 3 -2 3 3 3 1 3 -3 3 9 3 7 3 -5 
3 -12 3 3 3 5 3 -1 3 -8 3 1 3 -2 3 11 
3 -5 3 -12 4 6 3 13 3 -4 3 -3 3 6 3 7 
3 -4 3 -10 3 8 3 7 3 -4 3 -21 3 3 3 18 
3 0 3 1 3 -1 3 -14 3 18 3 11 3 -3 3 4 
3 4 4 -1 3 -1 3590 1661 300 MP stroke
3 -4 3 -5 3 -2 3 -2 3 -3 3 -8 3 4 3 2 
3 -6 3 5 3 -3 3 3 3 2 3 -5 3 -2 3 5 
3 6 3 -5 3 3 3 4 4 3 3 -5 3 -4 3 1 
3 4 3 -12 3 -11 3 11 3 14 3 7 3 6 3 2 
3 -9 3 -1 3 10 3 -1 3 -7 3 -7 3 11 3 6 
3 -5 3 -7 4 -4 3 8 3 4 3 9 3 9 3 -3 
3 -3 3 7 3 5 3 -9 3 1 3 8 3 1 3 -9 
3 -3 3 8 3 0 3 -1 3 -8 3 5 3 13 3 -3 
4 -19 3 -2 3 18 3 1 3 -10 3 -8 3 7 3 -3 
3 4 3 -5 3 7 3 8 3 0 3 -5 3 -1 3 2 
3 -3 3 -7 3 3 3 3 3 -4 3 7 3 4 4 -2 
3 -5 3 2 3 1 3 0 3 -1 3 -4 3 1 3 -1 
3 -1 3 3 3 -1 3 0 3 3 3 -5 3 3 3 6 
3 -1 3 -6 3 -2 3 4 3 -1 4 2 3 -6 3 7 
3 7 3 0 3 -6 3 -1 3 2 3 -5 3 5 3 5 
3 -9 3 -1 3 1 3 1 3 2 3 -5 3 -6 3 7 
3 -1 3 -9 3 4 4 12 3 3 3 -4 3 3 3 3 
3 1 3 -5 3 6 3 -1 3 3 3 2 3 5 3 -7 
3 -6 3 6 3 4 3 9 3 6 3 -4 3 6 3 6 
3 -3 4 4 3 11 3 -8 3 1 3 5 3 1 3 4 
3 -8 3 6 3 8 3 -6 3 -9 3 14 3 1 3 -4 
3 1 3 3 3 3 3 -12 3 -11 3 9 3 19 3 -7 
4 -17 3 3 3 24 3 4 3 0 3 4 3 -4 3 5 
3 4 3 5 3 -8 3 -8 3 7 3 11 3 -2 3 2 
3 4 3 -1 3 -13 3 6 3 3 3 9 4 -5 3 -14 
3 -3 3 17 3 7 3 3 3 2 3 5 3 -2 3 1 
3 3 3 -6 3 -3 3 9 3 -1 3 -1 3 -1 3 -2 
3 2 3 4 3 -3 3 4 4 -1 3 -2 3 -1 3 6 
3 9 3 -4 3 -3 3 19 3 -2 3 -15 3 11 3 11 
3 4 3 -2 3 9 3 10 3 -7 3 -10 3 2 3 11 
3 0 3 -9 4 -4 3 16 3 -12 3 -3 3 -15 3 25 
3 -3 3 -3 3 8 3 -5 3 -4 3 -8 3 2 3 2 
3 0 3 -3 3 -4 3 -5 3 14 3 9 3 -1 3 0 
3 1 4 2 3 2 3 -15 3 4 3 6 3 -4 3 2 
3 -6 3 -3 3 -18 3 0 3 14 3 13 3 4 3 -6 
3 -9 3 11 3 10 3 -2 3 1 3 -1 3 -2 4 -2 
3 -3 3 -3 3 -6 3 1 3 -7 3 0 3 -6 3 14 
3 -1 3 -7 3 -1 2680 1498 300 MP stroke
3 5 3 3 3 -2 3 -8 3 -1 3 3 3 -6 3 12 
3 10 3 1 4 -4 3 -2 3 7 3 -4 3 -5 3 11 
3 -1 3 -6 3 1 3 0 3 -1 3 -3 3 -2 3 5 
3 10 3 -2 3 -1 3 -3 3 -4 3 4 3 1 3 2 
4 -16 3 15 3 5 3 1 3 -4 3 -8 3 -1 3 12 
3 3 3 -2 3 6 3 1 3 7 3 6 3 -6 3 -10 
3 -2 3 6 3 9 3 2 3 2 3 4 3 -2 4 -6 
3 -1 3 11 3 3 3 -7 3 7 3 3 3 -6 3 -9 
3 5 3 7 3 -5 3 4 3 7 3 14 3 2 3 -2 
3 4 3 3 3 5 3 -2 3 -8 4 -2 3 3 3 6 
3 -6 3 -3 3 13 3 5 3 -9 3 4 3 16 3 3 
3 -10 3 19 3 2 3 -13 3 0 3 7 3 -5 3 -8 
3 1 3 -1 3 -1 4 -6 3 1 3 1 3 1 3 9 
3 0 3 10 3 3 3 -6 3 4 3 -1 3 -4 3 3 
3 2 3 1 3 1 3 3 3 9 3 10 3 2 3 -12 
3 4 3 8 4 -4 3 -8 3 -4 3 6 3 6 3 6 
3 1 3 5 3 4 3 1 3 -6 3 4 3 2 3 0 
3 6 3 -2 3 -4 3 -2 3 4 3 6 3 10 3 -6 
4 6 3 15 3 -4 3 -10 3 4 3 5 3 -9 3 -17 
3 7 3 14 3 8 3 -11 3 -6 3 8 3 6 3 1 
3 -4 3 -1 3 -1 3 -2 3 -11 3 -1 4 1 3 3 
3 6 3 -6 3 -15 3 -2 3 12 3 -2 3 -11 3 -8 
3 9 3 -11 3 11 3 2 3 -4 3 -3 3 7 3 2 
3 -3 3 -2 3 -2 3 4 4 1 3 10 3 1 3 -11 
3 0 3 11 3 -4 3 -8 3 0 3 13 3 -6 3 19 
3 -4 3 5 3 3 3 -9 3 9 3 11 3 -6 3 3 
3 2 3 10 3 4 4 -8 3 -3 3 -1 3 23 3 -4 
3 2 3 5 3 1 3 -4 3 1 3 8 3 -10 3 -8 
3 -2 3 11 3 -10 3 -18 3 20 3 10 3 -1 3 -4 
3 -1 4 -3 3 -6 3 2 3 -1 3 6 3 -2 3 -8 
3 3 3 2 3 0 3 2 3 -4 3 1 3 8 3 5 
3 -2 3 1 3 9 3 -12 3 -13 3 -3 3 18 4 0 
3 -9 3 7 3 2 3 -3 3 1 3 5 3 -3 3 -8 
3 -6 3 3 3 8 3 8 3 4 3 -8 3 0 3 -4 
3 -4 3 -4 3 1 3 8 3 1 4 -7 3 -4 3 5 
3 3 3 -14 3 3 3 3 3 2 3 -7 3 1 3 -8 
3 13 3 0 3 8 3 -5 3 -11 3 5 3 5 3 -5 
3 -10 3 10 3 4 1770 1293 300 MP stroke
3 -13 4 -13 3 18 3 4 3 -9 3 7 3 5 3 -4 
3 -9 3 6 3 11 3 -5 3 -4 3 -2 3 6 3 -3 
3 3 3 3 3 -10 3 2 3 -3 3 5 3 -6 4 -3 
3 1 3 0 3 -10 3 -7 3 14 3 2 3 -16 3 -1 
3 3 3 -3 3 2 3 -5 3 2 3 10 3 -9 3 -4 
3 -3 3 1 3 -6 3 -4 3 2 4 5 3 -9 3 -10 
3 6 3 -7 3 -12 3 -11 3 19 3 5 3 -5 3 -2 
3 -2 3 5 3 5 3 3 3 -9 3 8 3 -6 3 -10 
3 0 3 2 3 2 4 -2 3 -8 3 -24 3 11 3 5 
3 -6 3 -17 3 -13 3 21 3 -7 3 -7 3 1 3 14 
3 1 3 -11 3 -12 3 1 3 1 3 -6 3 -8 3 -4 
3 -7 3 -8 4 -9 3 1 3 2 3 -4 3 -12 3 6 
3 -4 3 -2 3 -16 3 -6 3 -7 3 3 3 -6 3 -5 
3 9 3 -5 3 -5 3 -1 3 -2 3 6 3 -12 3 -8 
4 -3 3 4 3 -10 3 -9 3 -1 3 -1 3 -17 3 -7 
3 -1 3 4 3 -13 3 0 3 -5 3 1 3 -7 3 -10 
3 -2 3 -5 3 -7 3 -8 3 1 3 -7 4 -14 3 -6 
3 10 3 -12 3 -16 3 2 3 -2 3 -7 3 -8 3 -2 
3 -6 3 -8 3 -8 3 -8 3 -9 3 -9 3 -10 3 -13 
3 -4 3 -5 3 -13 3 -1 4 -12 3 -16 3 -4 3 -7 
3 -8 3 -12 3 -10 3 -7 3 -11 3 -15 3 -21 3 6 
3 0 3 -12 3 -14 3 -21 3 2 3 -4 3 -7 3 -12 
3 -16 3 -10 3 -2 4 -15 3 -16 3 -12 3 -6 3 -10 
3 -18 3 -13 3 -13 3 -3 3 -5 3 -14 3 -19 3 -14 
3 -2 3 -9 3 -15 3 -11 3 -17 3 -8 3 -7 3 -13 
3 -16 4 -6 3 -12 3 -18 3 -17 3 -12 3 -11 3 -16 
3 -17 3 -7 3 -11 3 -17 3 -20 3 -9 3 -7 3 -14 
3 -18 3 -18 3 -17 3 -12 3 -18 3 -17 3 -13 4 -15 
3 -13 3 -16 3 -15 3 -11 3 -15 3 -19 3 -12 3 -16 
3 -14 3 -16 3 -18 3 -15 3 -18 3 -14 3 -13 3 -15 
3 -18 3 -19 3 -17 3 -13 3 -13 4 -16 3 -19 3 -17 
3 -17 3 -16 3 -19 3 -18 3 -16 3 -16 3 -16 3 -20 
3 -18 3 -17 3 -15 3 -17 3 -17 3 -13 3 -16 3 -18 
3 -19 3 -14 3 -16 3 -14 4 -16 3 -18 3 -19 3 -15 
3 -14 3 -17 3 -15 3 -17 3 -16 3 -16 3 -16 3 -15 
3 -15 3 -16 3 -17 3 -17 3 -15 3 -14 3 -14 3 -16 
3 -17 3 -16 4 -15 3 -12 3 -13 3 -14 3 -16 3 -16 
3 -13 3 -12 3 -11 859 3743 300 MP stroke
3 -12 3 -13 3 -13 3 -13 3 -11 3 -10 3 -10 3 -10 
3 -11 3 -11 3 -10 3 -9 3 -8 4 -7 3 -7 3 -8 
3 -9 3 -8 3 -7 3 -6 3 -5 3 -5 3 -5 3 -6 
3 -5 3 -5 3 -5 3 -3 3 -4 3 -3 3 -3 3 -2 
3 -3 3 -2 3 -2 3 -2 750 3996 37 MP stroke
gr

16.6667 w
0 sg
0.1 sg
%%IncludeResource: font Helvetica-Bold
/Helvetica-Bold /WindowsLatin1Encoding 183.333 FMSR

2010 4322 mt 
(Vertical Strain) s
 498 3132 mt  -90 rotate
(Vertical Stress [kPa]) s
90 rotate
gs 750 500 3751 3501 rc
/c8 { 1.000000 0.000000 0.000000 sr} bdef
c8
1 0 3 -7 3 -8 3 7 3 -1 3 0 3 -10 3 4 
3 2 3 -11 3 11 3 7 3 -1 3 -11 3 -2 3 11 
3 6 3 6 4 -2 3 -12 3 -5 3 5 3 4 3 1 
3 3 3 -1 3 -9 3 -1 3 6 3 -1 3 -5 3 -5 
3 -6 3 4 3 2 3 19 3 1 3 -2 3 -1 3 2 
3 -2 4 -7 3 1 3 -1 3 5 3 0 3 -3 3 0 
3 -1 3 6 3 0 3 -9 3 -3 3 5 3 2 3 -2 
3 -4 3 4 3 4 3 1 3 -6 3 0 3 12 4 -2 
3 -7 3 6 3 -5 3 5 3 3 3 8 3 10 3 0 
3 0 3 1 3 5 3 -3 3 -3 3 2 3 3 3 8 
3 3 3 -5 3 -11 3 7 3 5 3 3 4 -5 3 1 
3 -2 3 -6 3 -3 3 -3 3 -2 3 -8 3 1 3 0 
3 0 3 -8 3 -10 3 11 3 -7 3 -13 3 10 3 2 
3 -23 3 1 3 14 3 22 4 2 3 -6 3 0 3 7 
3 2 3 1 3 -1 3 2 3 1 3 5 3 0 3 -2 
3 -3 3 4 3 6 3 3 3 5 3 -4 3 -6 3 1 
3 -1 3 10 3 -3 4 2 3 5 3 -5 3 -11 3 15 
3 8 3 -2 3 -9 3 -3 3 4 3 -3 3 1 3 8 
3 0 3 -10 3 -8 3 15 3 3 3 -2 3 -3 3 0 
3 6 4 -3 3 2 3 6 3 -12 3 -6 3 2 3 4 
3 6 3 -12 3 0 3 11 3 -10 3 2 3 8 3 -7 
3 10 3 6 3 -2 3 -13 3 -1 3 1 3 4 3 0 
4 3 3 6 3 -2 3 -7 3 -8 3 0 3 5 3 3 
3 -3 3 6 3 4 3 -1 3 -15 3 2 3 18 3 -1 
3 -3 3 -1 3 3 3 2 3 -9 3 0 4 6 3 0 
3 0 3 -7 3 -2 3 5 3 4 3 5 3 1 3 2 
3 -5 3 -5 3 -2 3 10 3 0 3 0 3 1 3 -5 
3 1 3 -10 3 6 3 7 3 -8 4 1 3 15 3 4 
3 -5 3 -1 3 4 3 -1 3 4 3 -2 3 -1 3 0 
3 -2 3 -6 3 -3 3 0 3 1 3 10 3 12 3 -3 
3 -1 3 -5 3 3 4 0 3 -1 3 -2 3 11 3 -1 
3 0 3 0 3 -4 3 -4 3 4 3 -1 3 -2 3 -7 
3 2 3 8 3 4 3 -11 3 0 3 15 3 -4 3 -6 
3 2 3 1 4 0 3 -5 3 1 3 7 3 -2 3 -11 
3 -7 3 -1 3 -2 3 -3 3 7 3 1 3 12 3 -2 
3 0 3 11 3 4 3 -1 3 -4 3 3 3 7 3 -1 
4 -4 3 4 3 3 3 -3 3 -8 3 -1 3 2 3 5 
3 -17 3 -2 3 12 3593 1641 300 MP stroke
3 10 3 1 3 0 3 -1 3 -3 3 1 3 5 3 -3 
3 0 3 7 3 5 3 -11 4 -12 3 12 3 16 3 2 
3 -1 3 -5 3 2 3 3 3 -3 3 -4 3 -2 3 -1 
3 4 3 1 3 5 3 -4 3 -2 3 6 3 11 3 0 
3 -16 3 0 4 9 3 3 3 -13 3 -7 3 7 3 2 
3 -2 3 -4 3 -5 3 2 3 3 3 5 3 9 3 -10 
3 -11 3 9 3 6 3 3 3 3 3 -7 3 -4 3 3 
3 11 4 -2 3 1 3 -4 3 2 3 7 3 -2 3 -2 
3 4 3 6 3 -10 3 -10 3 1 3 14 3 10 3 -8 
3 -8 3 7 3 13 3 -5 3 -4 3 3 3 10 4 -6 
3 -15 3 0 3 14 3 -1 3 -3 3 6 3 0 3 3 
3 -4 3 -7 3 7 3 7 3 -6 3 -5 3 1 3 7 
3 -3 3 -6 3 5 3 4 3 -7 3 1 4 -2 3 3 
3 -3 3 -1 3 6 3 -2 3 2 3 0 3 -3 3 5 
3 2 3 -1 3 -1 3 0 3 4 3 -1 3 -8 3 1 
3 4 3 -3 3 -5 3 -1 4 9 3 5 3 6 3 2 
3 -4 3 -7 3 -3 3 10 3 0 3 -10 3 9 3 -4 
3 4 3 12 3 -2 3 -7 3 9 3 15 3 -7 3 -4 
3 5 3 13 3 -13 4 -21 3 21 3 13 3 -9 3 -5 
3 9 3 5 3 -4 3 2 3 -1 3 1 3 0 3 -9 
3 5 3 -7 3 0 3 8 3 -2 3 3 3 -1 3 -5 
3 -5 4 8 3 8 3 -17 3 -18 3 11 3 13 3 -3 
3 -3 3 -9 3 -4 3 4 3 6 3 5 3 4 3 0 
3 9 3 -7 3 -6 3 3 3 2 3 0 3 -6 3 -7 
4 7 3 4 3 -9 3 6 3 -10 3 -2 3 -7 3 6 
3 4 3 -5 3 -4 3 -2 3 15 3 5 3 -4 3 1 
3 3 3 -5 3 -4 3 -10 3 5 3 16 4 0 3 -12 
3 -3 3 8 3 6 3 -8 3 -9 3 12 3 11 3 -9 
3 -17 3 4 3 15 3 -10 3 -21 3 7 3 23 3 -10 
3 -38 3 -8 3 44 3 34 3 10 4 7 3 -11 3 -9 
3 16 3 -3 3 -2 3 6 3 9 3 -3 3 -2 3 8 
3 0 3 -6 3 -11 3 4 3 14 3 -6 3 4 3 5 
3 -2 3 -12 3 13 4 7 3 -1 3 -3 3 -1 3 0 
3 1 3 2 3 2 3 -1 3 5 3 4 3 -7 3 -7 
3 4 3 9 3 3 3 -17 3 -17 3 17 3 16 3 -9 
3 -18 4 7 3 19 3 12 3 -3 3 -3 3 7 3 7 
3 2 3 -12 3 2 3 11 3 1 3 -10 3 -4 3 7 
3 1 3 3 3 -22 2683 1494 300 MP stroke
3 7 3 17 3 8 3 -11 3 -13 4 10 3 15 3 2 
3 -1 3 -4 3 -6 3 4 3 -1 3 -4 3 -11 3 10 
3 8 3 0 3 -1 3 -4 3 2 3 3 3 0 3 -2 
3 1 3 -10 3 7 4 6 3 1 3 -3 3 -5 3 -2 
3 0 3 -5 3 -3 3 4 3 9 3 0 3 -7 3 1 
3 12 3 4 3 13 3 1 3 -1 3 4 3 3 3 1 
3 2 3 -6 4 -4 3 12 3 11 3 -15 3 -4 3 16 
3 10 3 -10 3 -3 3 9 3 8 3 -17 3 -16 3 22 
3 6 3 -6 3 -1 3 3 3 9 3 -3 3 2 3 5 
4 2 3 -13 3 1 3 10 3 -6 3 4 3 3 3 7 
3 -1 3 -6 3 3 3 1 3 -6 3 -3 3 6 3 2 
3 1 3 18 3 -9 3 -12 3 4 3 8 3 -4 4 5 
3 9 3 -5 3 -9 3 -3 3 5 3 3 3 -9 3 5 
3 5 3 -6 3 -17 3 -3 3 13 3 23 3 -9 3 0 
3 13 3 0 3 -21 3 2 3 27 4 0 3 -11 3 0 
3 5 3 2 3 3 3 1 3 3 3 -2 3 -1 3 -4 
3 -2 3 5 3 1 3 -11 3 14 3 6 3 -8 3 3 
3 -2 3 -2 3 -1 3 4 4 -2 3 -2 3 6 3 12 
3 -2 3 -8 3 -2 3 5 3 -2 3 -4 3 -3 3 8 
3 -2 3 1 3 -2 3 5 3 -4 3 0 3 0 3 -3 
3 0 3 4 4 3 3 -3 3 -3 3 3 3 -2 3 -5 
3 -2 3 -1 3 -5 3 -5 3 4 3 2 3 -12 3 -3 
3 0 3 7 3 -3 3 -5 3 14 3 2 3 -7 3 -4 
3 8 4 3 3 -3 3 8 3 1 3 2 3 -2 3 -2 
3 -5 3 5 3 -2 3 -13 3 8 3 12 3 10 3 -4 
3 -12 3 -4 3 14 3 -3 3 -20 3 -7 3 13 4 9 
3 -4 3 -6 3 6 3 11 3 -14 3 -13 3 5 3 17 
3 -2 3 -20 3 9 3 16 3 4 3 -11 3 -3 3 14 
3 1 3 4 3 1 3 1 3 7 3 -8 4 -2 3 11 
3 4 3 1 3 -5 3 2 3 7 3 -3 3 -18 3 -3 
3 11 3 -4 3 -10 3 -2 3 7 3 -2 3 -4 3 2 
3 2 3 0 3 -6 3 -4 4 3 3 -1 3 0 3 -1 
3 1 3 6 3 -3 3 -7 3 -2 3 0 3 -2 3 -6 
3 -1 3 5 3 18 3 -4 3 -2 3 5 3 -2 3 -5 
3 -4 3 1 3 -1 4 -4 3 4 3 -10 3 0 3 6 
3 0 3 -4 3 -11 3 15 3 11 3 -3 3 1 3 5 
3 8 3 -8 3 -10 3 2 3 12 3 9 3 -9 3 -1 
3 11 4 -2 3 -7 1772 1356 300 MP stroke
3 0 3 -3 3 2 3 -5 3 -1 3 -9 3 0 3 11 
3 -2 3 -1 3 -8 3 -16 3 -5 3 9 3 6 3 -8 
3 -14 3 -5 3 11 3 7 3 -10 4 3 3 1 3 2 
3 -9 3 3 3 6 3 1 3 -6 3 -4 3 -6 3 2 
3 -10 3 -1 3 4 3 -2 3 -14 3 -12 3 11 3 7 
3 -2 3 -10 3 1 4 -13 3 0 3 10 3 2 3 2 
3 3 3 -1 3 -2 3 -7 3 5 3 1 3 -5 3 -15 
3 6 3 6 3 -5 3 -3 3 -1 3 0 3 -14 3 -8 
3 14 3 -2 4 -7 3 10 3 -9 3 2 3 -4 3 13 
3 0 3 -10 3 -3 3 7 3 -5 3 -20 3 5 3 2 
3 -1 3 -7 3 -2 3 -8 3 4 3 7 3 -9 3 -8 
4 -5 3 6 3 -15 3 -20 3 1 3 6 3 -3 3 -15 
3 -6 3 -4 3 7 3 -15 3 14 3 -1 3 -12 3 -12 
3 3 3 -7 3 -15 3 18 3 -2 3 -5 3 -6 4 -1 
3 -6 3 -1 3 1 3 -8 3 -5 3 6 3 -10 3 -13 
3 -12 3 6 3 5 3 -7 3 -12 3 6 3 -3 3 -16 
3 -11 3 -8 3 13 3 -8 3 -10 4 -9 3 -3 3 -5 
3 -6 3 -2 3 -9 3 -6 3 -2 3 -11 3 -6 3 -8 
3 -9 3 -6 3 -9 3 -12 3 -10 3 -11 3 -4 3 -2 
3 -7 3 -13 3 -11 3 0 4 -10 3 -16 3 -5 3 -8 
3 -7 3 -8 3 -16 3 -11 3 -7 3 0 3 -14 3 -12 
3 -13 3 -8 3 -7 3 -8 3 -6 3 -14 3 -4 3 -9 
3 -14 3 -10 4 -9 3 -10 3 -15 3 -16 3 -5 3 -10 
3 -13 3 -10 3 -17 3 -3 3 -7 3 -12 3 -14 3 -18 
3 -4 3 -15 3 -11 3 -11 3 -9 3 -17 3 -12 3 -9 
3 -16 4 -11 3 -15 3 -8 3 -13 3 -17 3 -12 3 -9 
3 -15 3 -18 3 -11 3 -17 3 -12 3 -13 3 -15 3 -11 
3 -13 3 -16 3 -18 3 -16 3 -9 3 -12 3 -17 4 -16 
3 -10 3 -10 3 -19 3 -22 3 -21 3 -10 3 -11 3 -16 
3 -17 3 -13 3 -17 3 -15 3 -17 3 -13 3 -18 3 -17 
3 -16 3 -12 3 -15 3 -15 3 -20 3 -18 4 -13 3 -14 
3 -14 3 -20 3 -18 3 -13 3 -12 3 -16 3 -15 3 -19 
3 -16 3 -16 3 -15 3 -13 3 -16 3 -22 3 -17 3 -14 
3 -15 3 -15 3 -18 3 -20 4 -15 3 -16 3 -15 3 -15 
3 -18 3 -15 3 -16 3 -16 3 -17 3 -14 3 -16 3 -16 
3 -18 3 -15 3 -16 3 -15 3 -15 3 -15 3 -16 3 -16 
3 -15 3 -15 3 -14 4 -14 3 -14 3 -15 3 -14 3 -13 
3 -13 3 -12 3 -13 862 3789 300 MP stroke
3 -12 3 -12 3 -12 3 -11 3 -11 3 -10 3 -10 3 -10 
3 -10 3 -10 3 -9 3 -8 3 -8 3 -7 4 -7 3 -6 
3 -6 3 -5 3 -5 3 -4 3 -4 3 -3 3 -2 3 -3 
3 -3 3 -2 3 -2 3 -3 3 -2 3 -2 3 -1 3 -2 
3 -1 3 -2 3 -1 3 -1 3 0 750 3996 38 MP stroke
/c9 { 0.000000 0.000000 1.000000 sr} bdef
c9
1 1 3 9 3 2 3 -11 3 1 3 1 3 0 3 4 
3 0 3 -2 3 -3 3 7 3 0 2 -10 3 1 3 7 
3 10 3 -1 3 0 3 4 3 9 3 0 3 -1 3 1 
3 1 3 4 3 0 3 -8 3 -5 3 5 3 0 3 -5 
3 -11 3 -1 3 7 3 8 3 2 3 -17 3 -8 2 18 
3 10 3 1 3 1 3 0 3 2 3 -7 3 -8 3 11 
3 5 3 -10 3 2 3 11 3 2 3 -8 3 -9 3 7 
3 5 3 -2 3 1 3 2 3 1 3 1 3 -4 3 -6 
3 2 3 4 2 2 3 -10 3 -7 3 12 3 6 3 -8 
3 -9 3 8 3 2 3 3 3 -9 3 -3 3 10 3 1 
3 -16 3 -9 3 17 3 5 3 -6 3 -2 3 1 3 -2 
3 -8 3 -2 3 -1 3 6 3 -2 2 -4 3 0 3 7 
3 0 3 -1 3 0 3 -6 3 -7 3 5 3 3 3 5 
3 0 3 -2 3 0 3 -1 3 4 3 -5 3 -5 3 7 
3 7 3 -2 3 -5 3 2 3 3 3 -3 3 -8 3 5 
2 9 3 5 3 -8 3 -1 3 9 3 2 3 -1 3 -4 
3 4 3 1 3 -3 3 -4 3 1 3 0 3 0 3 6 
3 6 3 3 3 -2 3 -2 3 2 3 5 3 13 3 -5 
3 -11 3 3 2 13 3 -7 3 -11 3 14 3 10 3 -13 
3 -7 3 22 3 7 3 -3 3 -5 3 3 3 3 3 -7 
3 -12 3 8 3 6 3 -5 3 -2 3 4 3 4 3 5 
3 -8 3 3 3 7 3 2 3 -6 2 2 3 2 3 3 
3 2 3 -7 3 2 3 6 3 -11 3 -10 3 8 3 15 
3 -8 3 -15 3 8 3 13 3 -2 3 0 3 -7 3 0 
3 5 3 2 3 -8 3 -7 3 9 3 13 3 5 3 -5 
2 -3 3 7 3 1 3 -10 3 -4 3 5 3 -1 3 -1 
3 -1 3 2 3 -1 3 -2 3 -4 3 -1 3 8 3 2 
3 -6 3 -10 3 17 3 3 3 -10 3 -15 3 11 3 14 
3 4 3 -5 2 3 3 0 3 -2 3 1 3 7 3 -11 
3 -4 3 8 3 -4 3 1 3 7 3 -3 3 -7 3 -7 
3 8 3 7 3 -4 3 -5 3 0 3 4 3 -5 3 -11 
3 9 3 8 3 -6 3 -6 3 7 2 5 3 0 3 -10 
3 9 3 5 3 -6 3 4 3 4 3 2 3 4 3 -5 
3 -4 3 4 3 3 3 0 3 -3 3 -1 3 3 3 1 
3 -4 3 -7 3 -2 3 5 3 5 3 0 3 4 3 -1 
2 -6 3 1 3 -1 3 -2 3 1 3 0 3 6 3 -1 
3 4 3 -5 3 -8 3 3 3 13 3 1 3 1 3 -4 
3 2 3 2 3 8 3617 1417 300 MP stroke
3 -8 3 -8 3 12 3 -1 3 -10 3 8 3 6 2 1 
3 -3 3 -6 3 2 3 3 3 -3 3 -7 3 4 3 2 
3 -11 3 -3 3 10 3 15 3 -7 3 -5 3 1 3 3 
3 0 3 -3 3 -10 3 6 3 3 3 1 3 2 3 -3 
3 2 3 4 2 -4 3 -3 3 3 3 2 3 -8 3 -3 
3 2 3 3 3 -5 3 -2 3 8 3 -1 3 -14 3 2 
3 5 3 -2 3 -11 3 -1 3 4 3 -6 3 -5 3 5 
3 3 3 -2 3 5 3 -3 3 4 2 -2 3 -1 3 -5 
3 4 3 3 3 -8 3 -4 3 10 3 -1 3 -1 3 3 
3 2 3 -4 3 -4 3 2 3 8 3 -10 3 -13 3 14 
3 8 3 -8 3 3 3 17 3 -8 3 -1 3 5 2 4 
3 -2 3 1 3 -1 3 5 3 1 3 2 3 4 3 0 
3 -2 3 4 3 1 3 -8 3 -2 3 7 3 1 3 0 
3 -4 3 -8 3 -3 3 2 3 -8 3 2 3 2 3 2 
3 2 3 5 2 -11 3 -4 3 5 3 0 3 -6 3 -15 
3 23 3 13 3 2 3 -3 3 -1 3 0 3 -5 3 2 
3 3 3 -1 3 -7 3 -3 3 7 3 1 3 -5 3 -8 
3 5 3 5 3 -6 3 -12 3 20 2 6 3 -10 3 3 
3 4 3 -8 3 0 3 4 3 5 3 3 3 -8 3 1 
3 0 3 5 3 4 3 -1 3 -3 3 5 3 -2 3 3 
3 -5 3 -5 3 3 3 0 3 -13 3 5 3 8 2 -2 
3 -1 3 8 3 -2 3 -8 3 10 3 3 3 -6 3 -4 
3 7 3 -9 3 -6 3 11 3 0 3 10 3 1 3 0 
3 -1 3 -2 3 -6 3 -6 3 7 3 6 3 -7 3 6 
3 4 3 2 2 1 3 -8 3 -6 3 9 3 -1 3 -12 
3 5 3 12 3 -1 3 -4 3 -1 3 4 3 -5 3 -10 
3 4 3 5 3 3 3 2 3 -2 3 -6 3 2 3 -1 
3 -10 3 3 3 -2 3 4 3 -4 2 -10 3 8 3 2 
3 -7 3 -5 3 10 3 -1 3 0 3 -4 3 -3 3 -4 
3 -6 3 12 3 9 3 -4 3 -11 3 -2 3 8 3 8 
3 1 3 1 3 -2 3 -1 3 -10 3 9 3 -3 2 -2 
3 0 3 7 3 -1 3 -2 3 2 3 4 3 -1 3 12 
3 -1 3 -3 3 4 3 8 3 13 3 -5 3 -2 3 7 
3 1 3 0 3 -3 3 2 3 6 3 2 3 -12 3 -1 
3 16 3 6 2 -3 3 -9 3 4 3 7 3 0 3 -15 
3 -5 3 22 3 1 3 1 3 -6 3 -4 3 2 3 1 
3 10 3 -10 3 -1 3 3 3 1 3 -8 3 -3 3 6 
3 9 3 1 3 -5 2731 1378 300 MP stroke
3 -1 3 2 2 3 3 -11 3 3 3 8 3 -2 3 -9 
3 3 3 3 3 1 3 -6 3 5 3 -8 3 -3 3 8 
3 6 3 0 3 -1 3 -1 3 6 3 1 3 -8 3 -2 
3 4 3 0 3 -3 3 2 2 4 3 -6 3 -4 3 4 
3 -3 3 -5 3 -1 3 12 3 1 3 5 3 -2 3 -7 
3 7 3 -4 3 -7 3 5 3 3 3 -4 3 -1 3 5 
3 6 3 -9 3 -3 3 8 3 8 3 -2 3 4 2 4 
3 -5 3 -9 3 6 3 4 3 -7 3 8 3 5 3 1 
3 7 3 0 3 -7 3 0 3 2 3 6 3 7 3 -4 
3 0 3 -2 3 -3 3 0 3 -5 3 8 3 0 3 -4 
3 -8 3 11 2 1 3 -7 3 3 3 -3 3 1 3 2 
3 -2 3 0 3 -3 3 -1 3 -5 3 3 3 2 3 0 
3 12 3 -6 3 -2 3 1 3 4 3 0 3 -3 3 1 
3 0 3 0 3 -4 3 9 2 -3 3 -6 3 1 3 8 
3 -2 3 -2 3 3 3 0 3 2 3 -1 3 -10 3 3 
3 8 3 -8 3 7 3 1 3 -3 3 -3 3 0 3 4 
3 1 3 -2 3 -9 3 0 3 7 3 1 3 13 2 2 
3 -11 3 -2 3 9 3 2 3 4 3 -1 3 4 3 -6 
3 7 3 6 3 0 3 -2 3 6 3 3 3 -6 3 2 
3 6 3 -5 3 -5 3 1 3 1 3 -5 3 -2 3 -5 
3 -2 3 10 2 -5 3 2 3 -1 3 -3 3 -3 3 0 
3 -4 3 -4 3 -12 3 -2 3 15 3 2 3 -2 3 9 
3 -5 3 -6 3 8 3 -6 3 6 3 1 3 -1 3 -4 
3 -11 3 6 3 7 3 -10 2 -1 3 5 3 1 3 -4 
3 -4 3 5 3 -4 3 -2 3 5 3 0 3 2 3 -3 
3 -2 3 0 3 -1 3 -2 3 -4 3 -4 3 -1 3 -1 
3 -7 3 -3 3 7 3 -1 3 5 3 7 3 1 2 4 
3 -1 3 1 3 7 3 -3 3 -3 3 0 3 -4 3 -4 
3 7 3 1 3 -4 3 -2 3 -3 3 -5 3 -3 3 10 
3 -8 3 6 3 3 3 -4 3 6 3 8 3 4 3 -11 
3 5 3 6 2 2 3 -3 3 4 3 -4 3 3 3 4 
3 -2 3 1 3 -12 3 -5 3 13 3 0 3 7 3 4 
3 -4 3 -7 3 4 3 -1 3 -3 3 7 3 3 3 -1 
3 -6 3 -1 3 0 3 -3 2 -12 3 9 3 6 3 0 
3 0 3 1 3 1 3 -4 3 -7 3 13 3 -4 3 -8 
3 -4 3 4 3 -8 3 -1 3 13 3 6 3 3 3 -2 
3 -2 3 -6 3 -4 3 -4 3 3 3 0 3 -5 2 -5 
3 2 3 -1 3 -6 1846 1363 300 MP stroke
3 -4 3 -1 3 4 3 8 3 -14 3 7 3 9 3 -9 
3 -9 3 17 3 -5 3 -12 3 5 3 17 3 2 3 -11 
3 -4 3 10 3 6 3 -10 3 4 3 -4 3 7 2 4 
3 -7 3 5 3 10 3 -9 3 -8 3 6 3 6 3 -14 
3 6 3 1 3 -4 3 -11 3 3 3 11 3 -3 3 -8 
3 -3 3 4 3 -1 3 3 3 4 3 -7 3 -5 3 3 
3 1 2 -2 3 -7 3 3 3 3 3 -10 3 -12 3 9 
3 0 3 2 3 -11 3 -2 3 6 3 2 3 -18 3 -3 
3 7 3 8 3 6 3 0 3 -7 3 3 3 3 3 -6 
3 -1 3 -3 3 0 3 -5 2 0 3 -3 3 -4 3 -8 
3 3 3 4 3 -6 3 -4 3 -2 3 -10 3 -1 3 7 
3 -11 3 -11 3 12 3 7 3 -7 3 -7 3 16 3 3 
3 -2 3 -4 3 1 3 -4 3 -5 3 -1 3 -2 2 -6 
3 -3 3 -3 3 -6 3 -7 3 6 3 -6 3 -6 3 -3 
3 3 3 4 3 -8 3 -6 3 -5 3 -3 3 -1 3 -9 
3 2 3 -3 3 -10 3 -3 3 -5 3 -6 3 -7 3 -6 
3 -6 2 -2 3 -9 3 -5 3 -7 3 -7 3 -4 3 -15 
3 0 3 -3 3 -5 3 -19 3 3 3 15 3 -7 3 -6 
3 -7 3 -2 3 -9 3 -12 3 0 3 -4 3 -4 3 -3 
3 -12 3 -7 3 -6 3 -2 2 -6 3 -20 3 1 3 -2 
3 -6 3 0 3 -9 3 -6 3 -5 3 -10 3 -6 3 -2 
3 -10 3 -13 3 0 3 -4 3 -12 3 -15 3 -4 3 7 
3 -6 3 -9 3 -3 3 -7 3 -8 3 -6 3 -3 2 -9 
3 -11 3 -10 3 -4 3 -11 3 -20 3 -15 3 8 3 -11 
3 -22 3 -1 3 10 3 -11 3 -7 3 -10 3 -6 3 -14 
3 -12 3 -12 3 -8 3 -11 3 -14 3 -5 3 -12 3 -12 
3 -9 2 -11 3 -12 3 -12 3 -15 3 -14 3 -9 3 -4 
3 -11 3 -16 3 -8 3 -6 3 -14 3 -9 3 -16 3 -15 
3 -12 3 -13 3 -5 3 -15 3 -12 3 -12 3 -14 3 -13 
3 -14 3 -14 3 -11 3 -16 2 -12 3 -12 3 -17 3 -11 
3 -14 3 -13 3 -12 3 -13 3 -10 3 -13 3 -15 3 -13 
3 -19 3 -14 3 -13 3 -12 3 -14 3 -16 3 -15 3 -14 
3 -15 3 -15 3 -19 3 -14 3 -14 3 -18 3 -17 2 -10 
3 -17 3 -20 3 -17 3 -16 3 -12 3 -17 3 -10 3 -17 
3 -16 3 -16 3 -14 3 -17 3 -18 3 -14 3 -17 3 -16 
3 -20 3 -16 3 -13 3 -16 3 -17 3 -14 3 -17 3 -16 
3 -14 2 -13 3 -16 3 -17 3 -17 3 -14 3 -16 3 -15 
3 -15 3 -14 3 -15 960 3348 300 MP stroke
3 -15 3 -15 3 -16 3 -16 3 -14 3 -15 3 -14 3 -17 
3 -15 3 -15 3 -13 3 -14 3 -14 3 -14 3 -15 3 -15 
3 -13 2 -15 3 -14 3 -13 3 -14 3 -13 3 -14 3 -13 
3 -13 3 -13 3 -13 3 -13 3 -12 3 -13 3 -11 3 -12 
3 -12 3 -10 3 -12 3 -10 3 -11 3 -10 3 -10 3 -9 
3 -10 3 -9 3 -8 3 -8 2 -8 3 -8 3 -7 3 -6 
3 -7 3 -6 3 -5 3 -6 3 -4 3 -4 3 -3 3 -2 
3 -2 3 -2 3 -1 3 -1 3 -1 3 -1 3 -2 3 -1 
3 -1 3 -1 3 -1 3 -1 3 -1 3 -1 2 0 750 3996 72 MP stroke
/c10 { 1.000000 0.000000 1.000000 sr} bdef
c10
1 1 3 0 3 0 3 0 2 2 3 -1 3 1 3 2 
3 1 2 -3 3 2 3 2 3 3 3 -1 2 0 3 -2 
3 3 3 7 3 -3 2 2 3 3 3 -1 3 -2 3 -3 
2 2 3 1 3 -4 3 -3 3 -2 2 7 3 3 3 0 
3 -2 3 1 2 3 3 -1 3 0 3 -1 3 -1 3 -1 
2 -1 3 -2 3 0 3 0 3 -1 2 0 3 2 3 4 
3 1 3 -2 2 -1 3 0 3 0 3 2 3 1 2 -1 
3 1 3 0 3 0 3 0 2 0 3 2 3 1 3 -2 
3 0 2 1 3 0 3 -3 3 0 3 3 2 -2 3 -4 
3 -2 3 3 3 0 2 -1 3 -1 3 -1 3 2 3 0 
3 -1 2 0 3 1 3 2 3 -3 3 -1 2 5 3 -3 
3 -2 3 0 3 -1 2 -2 3 4 3 0 3 -3 3 1 
2 -2 3 0 3 0 3 0 3 -1 2 -1 3 1 3 0 
3 -2 3 -4 2 1 3 4 3 -1 3 -1 3 0 2 -1 
3 -1 3 1 3 -3 3 -1 2 1 3 -2 3 1 3 1 
3 0 3 -1 2 -2 3 -2 3 -1 3 0 3 0 2 0 
3 4 3 0 3 1 3 -2 2 -3 3 0 3 4 3 1 
3 0 2 0 3 4 3 -1 3 2 3 1 2 -2 3 0 
3 3 3 4 3 0 2 0 3 2 3 1 3 -1 3 2 
2 2 3 -1 3 1 3 0 3 0 3 -1 2 1 3 0 
3 0 3 1 3 -1 2 -3 3 2 3 1 3 1 3 2 
2 -3 3 3 3 -1 3 5 3 4 2 -3 3 0 3 -1 
3 0 3 3 2 0 3 -4 3 -3 3 1 3 2 2 5 
3 -1 3 0 3 0 3 -1 2 2 3 -1 3 -1 3 -2 
3 1 2 0 3 0 3 -1 3 -2 3 -4 3 3 2 6 
3 -4 3 -1 3 4 3 1 2 1 3 -2 3 -1 3 0 
3 -1 2 -1 3 1 3 -1 3 1 3 -2 2 5 3 -3 
3 -1 3 2 3 4 2 -2 3 3 3 4 3 -1 3 4 
2 -1 3 1 3 4 3 -1 3 -3 2 2 3 0 3 0 
3 1 3 0 2 1 3 -3 3 1 3 6 3 6 3 -3 
2 -1 3 2 3 1 3 1 3 -1 2 -1 3 0 3 1 
3 2 3 1 2 -2 3 8 3 0 3 2 3 -1 2 0 
3 1 3 1 3 0 3 3 2 -3 3 -2 3 3 3 2 
3 4 2 1 3 -3 3 3 3 3 3 0 2 -3 3 -3 
3 1 3 -1 3 -3 3 -1 2 -2 3 1 3 2 3 0 
3 1 2 3 3 0 3 3 3 1 3 -1 2 -2 3 2 
3 7 3 2 3 -1 2 -1 3 0 3 1 3 1 3 -2 
2 -2 3 -2 3 3 3664 1227 300 MP stroke
3 2 3 -2 2 0 3 1 3 1 3 0 3 -2 2 1 
3 3 3 -1 3 -3 3 1 2 2 3 2 3 -1 3 2 
3 1 3 -1 2 0 3 -3 3 5 3 2 3 -1 2 -1 
3 -1 3 -2 3 4 3 0 2 -2 3 1 3 -1 3 -2 
3 -2 2 -1 3 4 3 2 3 2 3 0 2 -2 3 -3 
3 1 3 -2 3 -1 2 0 3 -2 3 0 3 -1 3 -1 
2 1 3 -1 3 4 3 2 3 0 2 3 3 2 3 -1 
3 3 3 -2 3 -1 2 2 3 1 3 0 3 -1 3 2 
2 -5 3 1 3 1 3 1 3 -1 2 -3 3 0 3 2 
3 0 3 -1 2 1 3 2 3 1 3 0 3 1 2 0 
3 1 3 2 3 4 3 -1 2 2 3 3 3 3 3 -1 
3 -3 2 -2 3 5 3 2 3 -1 3 1 3 3 2 2 
3 0 3 2 3 1 3 1 2 -1 3 -1 3 -3 3 7 
3 7 2 -2 3 0 3 1 3 1 3 -3 2 -1 3 4 
3 0 3 -1 3 1 2 -2 3 1 3 0 3 0 3 3 
2 -1 3 -1 3 1 3 -3 3 -2 2 1 3 0 3 3 
3 -3 3 -3 2 3 3 2 3 -1 3 -3 3 0 3 -1 
2 -1 3 1 3 0 3 -3 3 -1 2 -2 3 1 3 0 
3 -1 3 -4 2 0 3 2 3 -3 3 0 3 0 2 -1 
3 -3 3 2 3 0 3 -4 2 1 3 4 3 0 3 -4 
3 3 2 1 3 1 3 -1 3 1 3 -2 2 2 3 -1 
3 -3 3 -2 3 0 2 1 3 2 3 -1 3 -2 3 0 
3 0 2 0 3 -3 3 -2 3 4 3 4 2 -4 3 2 
3 -1 3 0 3 0 2 2 3 -4 3 -1 3 0 3 0 
2 2 3 0 3 3 3 2 3 0 2 -2 3 0 3 2 
3 1 3 2 2 -2 3 -1 3 -2 3 -2 3 0 2 1 
3 1 3 -2 3 0 3 4 3 0 2 0 3 -4 3 3 
3 -1 3 3 2 -1 3 -4 3 3 3 3 3 2 2 -2 
3 -1 3 -1 3 0 3 -1 2 0 3 0 3 -1 3 1 
3 0 2 -3 3 -2 3 3 3 -1 3 9 2 3 3 -4 
3 2 3 2 3 1 2 -3 3 3 3 2 3 -2 3 -1 
2 0 3 -3 3 2 3 3 3 -5 3 -4 2 3 3 5 
3 0 3 -1 3 4 2 3 3 1 3 0 3 0 3 0 
2 2 3 2 3 0 3 3 3 -1 2 1 3 -1 3 -4 
3 0 3 1 2 -4 3 -3 3 3 3 3 3 2 2 -4 
3 3 3 0 3 2 3 -7 2 9 3 14 3 5 3 5 
3 0 2 1 3 3 3 0 3 -2 3 3 3 3 2 8 
3 9 3 -2 3 0 2825 1130 300 MP stroke
3 3 2 -1 3 -4 3 1 3 4 3 -2 2 -3 3 -3 
3 2 3 0 3 3 2 -4 3 -1 3 -3 3 2 3 -1 
2 -3 3 1 3 -2 3 8 3 1 2 -2 3 -1 3 1 
3 0 3 0 2 2 3 3 3 -4 3 -3 3 3 3 4 
2 4 3 -3 3 1 3 2 3 1 2 3 3 1 3 -3 
3 0 3 2 2 0 3 2 3 3 3 -6 3 -1 2 7 
3 1 3 -7 3 1 3 3 2 -2 3 -3 3 -4 3 2 
3 -2 2 1 3 0 3 -1 3 -4 3 -2 2 -3 3 4 
3 -2 3 -3 3 4 2 0 3 0 3 3 3 -1 3 -2 
3 -1 2 2 3 2 3 -1 3 -1 3 3 2 1 3 -1 
3 0 3 -1 3 0 2 -1 3 0 3 -1 3 1 3 2 
2 1 3 1 3 2 3 1 3 2 2 0 3 2 3 1 
3 2 3 2 2 -3 3 1 3 6 3 -3 3 1 2 2 
3 0 3 -4 3 -1 3 1 2 3 3 -7 3 6 3 13 
3 9 3 -3 2 1 3 0 3 0 3 0 3 1 2 2 
3 1 3 -2 3 1 3 1 2 8 3 2 3 0 3 -1 
3 -3 2 3 3 1 3 -2 3 -1 3 -1 2 0 3 -3 
3 4 3 -3 3 8 2 3 3 -2 3 1 3 1 3 0 
2 3 3 4 3 1 3 -1 3 3 3 1 2 5 3 -2 
3 0 3 1 3 1 2 3 3 4 3 -1 3 3 3 -3 
2 1 3 4 3 2 3 0 3 4 2 7 3 3 3 -1 
3 0 3 1 2 -3 3 1 3 2 3 -2 3 -4 2 3 
3 2 3 -1 3 -9 3 5 2 13 3 6 3 3 3 1 
3 -1 2 -1 3 2 3 3 3 0 3 -4 3 4 2 4 
3 5 3 -4 3 -3 3 4 2 3 3 -1 3 0 3 0 
3 -4 2 -2 3 1 3 2 3 -4 3 -3 2 -1 3 0 
3 3 3 2 3 0 2 1 3 -2 3 4 3 0 3 -9 
2 -7 3 9 3 15 3 3 3 -2 2 -1 3 2 3 0 
3 2 3 0 2 -4 3 -4 3 3 3 10 3 5 3 2 
2 -3 3 3 3 1 3 -3 3 -6 2 1 3 9 3 0 
3 -2 3 0 2 1 3 1 3 -3 3 2 3 2 2 -1 
3 -4 3 6 3 3 3 -5 2 -3 3 4 3 -1 3 0 
3 -3 2 6 3 6 3 0 3 -1 3 2 2 0 3 0 
3 -3 3 0 3 0 3 0 2 2 3 2 3 -1 3 -1 
3 3 2 0 3 -3 3 -5 3 2 3 4 2 2 3 -2 
3 1 3 9 3 4 2 0 3 2 3 -2 3 -1 3 6 
2 -1 3 1 3 2 3 3 3 -1 2 -1 3 0 3 -1 
3 -4 3 1 2 -1 1987 953 300 MP stroke
3 -2 3 0 3 3 3 0 2 2 3 0 3 1 3 -1 
3 -2 3 7 2 3 3 -3 3 -1 3 -2 3 1 2 -1 
3 3 3 2 3 1 3 1 2 -3 3 1 3 0 3 1 
3 -1 2 -3 3 -1 3 7 3 0 3 -3 2 -5 3 5 
3 3 3 2 3 -6 2 1 3 3 3 1 3 -1 3 -4 
2 -2 3 0 3 -3 3 -1 3 0 2 5 3 6 3 -5 
3 0 3 3 3 1 2 1 3 -4 3 -2 3 4 3 0 
2 3 3 3 3 -2 3 0 3 1 2 2 3 -3 3 -6 
3 -1 3 1 2 -1 3 -4 3 -1 3 3 3 -1 2 -5 
3 -4 3 6 3 4 3 0 2 -3 3 -2 3 -3 3 -6 
3 2 2 -1 3 1 3 0 3 -1 3 3 3 1 2 -5 
3 -3 3 3 3 3 3 -3 2 -1 3 -3 3 -1 3 0 
3 3 2 2 3 1 3 -1 3 0 3 0 2 0 3 -1 
3 0 3 -4 3 1 2 6 3 7 3 -6 3 2 3 1 
2 2 3 2 3 -7 3 -5 3 3 2 5 3 -4 3 1 
3 -1 3 -3 2 4 3 -1 3 0 3 -4 3 -5 3 -7 
2 3 3 0 3 -7 3 -1 3 0 2 -1 3 -7 3 -8 
3 6 3 2 2 -6 3 1 3 1 3 -5 3 -6 2 2 
3 0 3 -5 3 -2 3 0 2 -2 3 -3 3 -3 3 -1 
3 -3 2 -2 3 -5 3 1 3 0 3 -5 2 -4 3 3 
3 2 3 -3 3 1 2 -4 3 -6 3 -1 3 3 3 -6 
3 -3 2 2 3 -3 3 -5 3 -2 3 0 2 -4 3 -7 
3 0 3 3 3 -3 2 -3 3 1 3 1 3 0 3 -1 
2 -1 3 0 3 -3 3 -2 3 -3 2 0 3 -3 3 -5 
3 -4 3 -3 2 0 3 -3 3 -4 3 -5 3 -2 2 -6 
3 -10 3 1 3 -4 3 -8 3 -7 2 -1 3 0 3 -2 
3 -5 3 -7 2 0 3 0 3 -6 3 -8 3 -5 2 -5 
3 -3 3 -8 3 0 3 -5 2 -6 3 -7 3 -10 3 -4 
3 -1 2 -11 3 -9 3 -4 3 -7 3 -5 2 -6 3 -8 
3 -8 3 -4 3 -8 2 -12 3 -5 3 -2 3 -3 3 -4 
2 -2 3 -8 3 -6 3 -6 3 -6 3 -9 2 -6 3 -7 
3 -8 3 -10 3 -6 2 -1 3 -2 3 -9 3 -10 3 -7 
2 -8 3 -9 3 -8 3 -9 3 -11 2 -13 3 -7 3 -2 
3 -10 3 -11 2 -13 3 -10 3 -10 3 -12 3 -7 2 -12 
3 -7 3 -10 3 -9 3 -10 2 -11 3 -9 3 -15 3 -12 
3 -9 2 -9 3 -12 3 -12 3 -7 3 -12 3 -14 2 -10 
3 -9 3 -11 3 -6 3 -13 2 -15 3 -13 3 -11 3 -16 
3 -15 2 -9 3 -10 1148 1871 300 MP stroke
3 -15 3 -13 3 -10 2 -10 3 -12 3 -16 3 -12 3 -13 
2 -17 3 -16 3 -10 3 -12 3 -17 2 -17 3 -12 3 -16 
3 -17 3 -12 2 -13 3 -18 3 -18 3 -15 3 -15 3 -15 
2 -15 3 -16 3 -15 3 -18 3 -22 2 -15 3 -15 3 -15 
3 -12 3 -12 2 -22 3 -18 3 -14 3 -16 3 -21 2 -22 
3 -16 3 -16 3 -19 3 -21 2 -19 3 -18 3 -19 3 -20 
3 -19 2 -15 3 -18 3 -22 3 -21 3 -14 2 -17 3 -20 
3 -19 3 -17 3 -19 2 -17 3 -17 3 -17 3 -20 3 -20 
3 -18 2 -18 3 -20 3 -20 3 -17 3 -16 2 -20 3 -22 
3 -18 3 -17 3 -19 2 -21 3 -20 3 -18 3 -19 3 -20 
2 -20 3 -18 3 -17 3 -20 3 -21 2 -17 3 -16 3 -18 
3 -19 3 -19 2 -16 3 -17 3 -18 3 -20 3 -17 2 -17 
3 -17 3 -18 3 -19 3 -16 2 -17 3 -18 3 -17 3 -19 
3 -18 3 -17 2 -18 3 -18 3 -17 3 -17 3 -17 2 -16 
3 -16 3 -15 3 -15 3 -14 2 -12 3 -12 3 -11 3 -10 
3 -10 2 -10 3 -9 3 -8 3 -7 3 -6 2 -6 3 -5 
3 -4 3 -4 3 -4 2 -4 3 -3 3 -3 3 -3 3 -3 
2 -2 3 -2 3 -2 3 -2 3 -1 2 -2 750 3997 143 MP stroke
gr

c10
0 sg
%%IncludeResource: font Helvetica
/Helvetica /WindowsLatin1Encoding 83.3333 FMSR

 732 4037 mt 
( ) s
4483  536 mt 
( ) s
8.33333 w
DO
SO
12.5 w
0.1 sg
 749  500 mt 4500  500 L
 749 4000 mt 4500 4000 L
4500 4000 mt 4500  500 L
 749 4000 mt  749  500 L
 749 4000 mt 4500 4000 L
 749 4000 mt  749  500 L
 749 4000 mt  749 3943 L
 749  500 mt  749  556 L
%%IncludeResource: font Helvetica
/Helvetica /WindowsLatin1Encoding 133.333 FMSR

 712 4148 mt 
(0) s
1375 4000 mt 1375 3943 L
1375  500 mt 1375  556 L
1246 4148 mt 
(0.01) s
2000 4000 mt 2000 3943 L
2000  500 mt 2000  556 L
1871 4148 mt 
(0.02) s
2625 4000 mt 2625 3943 L
2625  500 mt 2625  556 L
2496 4148 mt 
(0.03) s
3250 4000 mt 3250 3943 L
3250  500 mt 3250  556 L
3121 4148 mt 
(0.04) s
3875 4000 mt 3875 3943 L
3875  500 mt 3875  556 L
3746 4148 mt 
(0.05) s
4500 4000 mt 4500 3943 L
4500  500 mt 4500  556 L
4371 4148 mt 
(0.06) s
 749 4000 mt  806 4000 L
4500 4000 mt 4443 4000 L
 652 4049 mt 
(0) s
 749 3500 mt  806 3500 L
4500 3500 mt 4443 3500 L
 652 3549 mt 
(2) s
 749 3000 mt  806 3000 L
4500 3000 mt 4443 3000 L
 652 3049 mt 
(4) s
 749 2500 mt  806 2500 L
4500 2500 mt 4443 2500 L
 652 2549 mt 
(6) s
 749 2000 mt  806 2000 L
4500 2000 mt 4443 2000 L
 652 2049 mt 
(8) s
 749 1500 mt  806 1500 L
4500 1500 mt 4443 1500 L
 578 1549 mt 
(10) s
 749 1000 mt  806 1000 L
4500 1000 mt 4443 1000 L
 578 1049 mt 
(12) s
 749  500 mt  806  500 L
4500  500 mt 4443  500 L
 578  549 mt 
(14) s
 749  500 mt 4500  500 L
 749 4000 mt 4500 4000 L
4500 4000 mt 4500  500 L
 749 4000 mt  749  500 L
0 sg
%%IncludeResource: font Helvetica-Bold
/Helvetica-Bold /WindowsLatin1Encoding 125 FMSR

3152 2484 mt 
(No Damping Model) s
gs 2825 2340 1485 696 rc
16.6667 w
251 0 2875 2437 2 MP stroke
gr

16.6667 w
3152 2651 mt 
(GD = 0.0) s
gs 2825 2340 1485 696 rc
c8
251 0 2875 2604 2 MP stroke
gr

c8
0 sg
3152 2817 mt 
(GD = 0.2) s
gs 2825 2340 1485 696 rc
c9
251 0 2875 2770 2 MP stroke
gr

c9
0 sg
3152 2984 mt 
(GD = 0.75) s
gs 2825 2340 1485 696 rc
c10
251 0 2875 2937 2 MP stroke
12.5 w
gr

12.5 w
c10

end %%Color Dict

eplot
%%EndObject

epage
end

showpage

%%Trailer
%%EOF
