%!PS-Adobe-3.0 EPSF-3.0
%%Creator: MATLAB, The MathWorks, Inc. Version 8.1.0.604 (R2013a). Operating System: Microsoft Windows 7.
%%Title: .\K1_ConfinedPorosity.eps
%%CreationDate: 08/17/2013  15:45:18
%%DocumentNeededFonts: Helvetica-Bold
%%+ Helvetica
%%DocumentProcessColors: Cyan Magenta Yellow Black
%%LanguageLevel: 2
%%Pages: 1
%%BoundingBox:    41    88   564   572
%%EndComments

%%BeginProlog
% MathWorks dictionary
/MathWorks 160 dict begin
% definition operators
/bdef {bind def} bind def
/ldef {load def} bind def
/xdef {exch def} bdef
/xstore {exch store} bdef
% operator abbreviations
/c  /clip ldef
/cc /concat ldef
/cp /closepath ldef
/gr /grestore ldef
/gs /gsave ldef
/mt /moveto ldef
/np /newpath ldef
/cm /currentmatrix ldef
/sm /setmatrix ldef
/rm /rmoveto ldef
/rl /rlineto ldef
/s {show newpath} bdef
/sc {setcmykcolor} bdef
/sr /setrgbcolor ldef
/sg /setgray ldef
/w /setlinewidth ldef
/j /setlinejoin ldef
/cap /setlinecap ldef
/rc {rectclip} bdef
/rf {rectfill} bdef
% page state control
/pgsv () def
/bpage {/pgsv save def} bdef
/epage {pgsv restore} bdef
/bplot /gsave ldef
/eplot {stroke grestore} bdef
% orientation switch
/portraitMode 0 def /landscapeMode 1 def /rotateMode 2 def
% coordinate system mappings
/dpi2point 0 def
% font control
/FontSize 0 def
/FMS {/FontSize xstore findfont [FontSize 0 0 FontSize neg 0 0]
  makefont setfont} bdef
/ISOLatin1Encoding where {pop /WindowsLatin1Encoding 256 array bdef
ISOLatin1Encoding WindowsLatin1Encoding copy pop
/.notdef/.notdef/quotesinglbase/florin/quotedblbase/ellipsis/dagger
/daggerdbl/circumflex/perthousand/Scaron/guilsinglleft/OE/.notdef/.notdef
/.notdef/.notdef/quoteleft/quoteright/quotedblleft/quotedblright/bullet
/endash/emdash/tilde/trademark/scaron/guilsinglright/oe/.notdef/.notdef
/Ydieresis WindowsLatin1Encoding 128 32 getinterval astore pop}
{/WindowsLatin1Encoding StandardEncoding bdef} ifelse
/reencode {exch dup where {pop load} {pop StandardEncoding} ifelse
  exch dup 3 1 roll findfont dup length dict begin
  { 1 index /FID ne {def}{pop pop} ifelse } forall
  /Encoding exch def currentdict end definefont pop} bdef
/isroman {findfont /CharStrings get /Agrave known} bdef
/FMSR {3 1 roll 1 index dup isroman {reencode} {pop pop} ifelse
  exch FMS} bdef
/csm {1 dpi2point div -1 dpi2point div scale neg translate
 dup landscapeMode eq {pop -90 rotate}
  {rotateMode eq {90 rotate} if} ifelse} bdef
% line types: solid, dotted, dashed, dotdash
/SO { [] 0 setdash } bdef
/DO { [.5 dpi2point mul 4 dpi2point mul] 0 setdash } bdef
/DA { [6 dpi2point mul] 0 setdash } bdef
/DD { [.5 dpi2point mul 4 dpi2point mul 6 dpi2point mul 4
  dpi2point mul] 0 setdash } bdef
% macros for lines and objects
/L {lineto stroke} bdef
/MP {3 1 roll moveto 1 sub {rlineto} repeat} bdef
/AP {{rlineto} repeat} bdef
/PDlw -1 def
/W {/PDlw currentlinewidth def setlinewidth} def
/PP {closepath eofill} bdef
/DP {closepath stroke} bdef
/MR {4 -2 roll moveto dup  0 exch rlineto exch 0 rlineto
  neg 0 exch rlineto closepath} bdef
/FR {MR stroke} bdef
/PR {MR fill} bdef
/L1i {{currentfile picstr readhexstring pop} image} bdef
/tMatrix matrix def
/MakeOval {newpath tMatrix currentmatrix pop translate scale
0 0 1 0 360 arc tMatrix setmatrix} bdef
/FO {MakeOval stroke} bdef
/PO {MakeOval fill} bdef
/PD {currentlinewidth 2 div 0 360 arc fill
   PDlw -1 eq not {PDlw w /PDlw -1 def} if} def
/FA {newpath tMatrix currentmatrix pop translate scale
  0 0 1 5 -2 roll arc tMatrix setmatrix stroke} bdef
/PA {newpath tMatrix currentmatrix pop	translate 0 0 moveto scale
  0 0 1 5 -2 roll arc closepath tMatrix setmatrix fill} bdef
/FAn {newpath tMatrix currentmatrix pop translate scale
  0 0 1 5 -2 roll arcn tMatrix setmatrix stroke} bdef
/PAn {newpath tMatrix currentmatrix pop translate 0 0 moveto scale
  0 0 1 5 -2 roll arcn closepath tMatrix setmatrix fill} bdef
/vradius 0 def /hradius 0 def /lry 0 def
/lrx 0 def /uly 0 def /ulx 0 def /rad 0 def
/MRR {/vradius xdef /hradius xdef /lry xdef /lrx xdef /uly xdef
  /ulx xdef newpath tMatrix currentmatrix pop ulx hradius add uly
  vradius add translate hradius vradius scale 0 0 1 180 270 arc 
  tMatrix setmatrix lrx hradius sub uly vradius add translate
  hradius vradius scale 0 0 1 270 360 arc tMatrix setmatrix
  lrx hradius sub lry vradius sub translate hradius vradius scale
  0 0 1 0 90 arc tMatrix setmatrix ulx hradius add lry vradius sub
  translate hradius vradius scale 0 0 1 90 180 arc tMatrix setmatrix
  closepath} bdef
/FRR {MRR stroke } bdef
/PRR {MRR fill } bdef
/MlrRR {/lry xdef /lrx xdef /uly xdef /ulx xdef /rad lry uly sub 2 div def
  newpath tMatrix currentmatrix pop ulx rad add uly rad add translate
  rad rad scale 0 0 1 90 270 arc tMatrix setmatrix lrx rad sub lry rad
  sub translate rad rad scale 0 0 1 270 90 arc tMatrix setmatrix
  closepath} bdef
/FlrRR {MlrRR stroke } bdef
/PlrRR {MlrRR fill } bdef
/MtbRR {/lry xdef /lrx xdef /uly xdef /ulx xdef /rad lrx ulx sub 2 div def
  newpath tMatrix currentmatrix pop ulx rad add uly rad add translate
  rad rad scale 0 0 1 180 360 arc tMatrix setmatrix lrx rad sub lry rad
  sub translate rad rad scale 0 0 1 0 180 arc tMatrix setmatrix
  closepath} bdef
/FtbRR {MtbRR stroke } bdef
/PtbRR {MtbRR fill } bdef
/stri 6 array def /dtri 6 array def
/smat 6 array def /dmat 6 array def
/tmat1 6 array def /tmat2 6 array def /dif 3 array def
/asub {/ind2 exch def /ind1 exch def dup dup
  ind1 get exch ind2 get sub exch } bdef
/tri_to_matrix {
  2 0 asub 3 1 asub 4 0 asub 5 1 asub
  dup 0 get exch 1 get 7 -1 roll astore } bdef
/compute_transform {
  dmat dtri tri_to_matrix tmat1 invertmatrix 
  smat stri tri_to_matrix tmat2 concatmatrix } bdef
/ds {stri astore pop} bdef
/dt {dtri astore pop} bdef
/db {2 copy /cols xdef /rows xdef mul dup 3 mul string
  currentfile 
  3 index 0 eq {/ASCIIHexDecode filter}
  {/ASCII85Decode filter 3 index 2 eq {/RunLengthDecode filter} if }
  ifelse exch readstring pop
  dup 0 3 index getinterval /rbmap xdef
  dup 2 index dup getinterval /gbmap xdef
  1 index dup 2 mul exch getinterval /bbmap xdef pop pop}bdef
/it {gs np dtri aload pop moveto lineto lineto cp c
  cols rows 8 compute_transform 
  rbmap gbmap bbmap true 3 colorimage gr}bdef
/il {newpath moveto lineto stroke}bdef
currentdict end def
%%EndProlog

%%BeginSetup
MathWorks begin

0 cap

end
%%EndSetup

%%Page: 1 1
%%BeginPageSetup
%%PageBoundingBox:    41    88   564   572
MathWorks begin
bpage
%%EndPageSetup

%%BeginObject: obj1
bplot

/dpi2point 8.33333 def
portraitMode 0150 5158 csm

  194   389  4362  4030 rc
84 dict begin %Colortable dictionary
/c0 { 0.000000 0.000000 0.000000 sr} bdef
/c1 { 1.000000 1.000000 1.000000 sr} bdef
/c2 { 0.900000 0.000000 0.000000 sr} bdef
/c3 { 0.000000 0.820000 0.000000 sr} bdef
/c4 { 0.000000 0.000000 0.800000 sr} bdef
/c5 { 0.910000 0.820000 0.320000 sr} bdef
/c6 { 1.000000 0.260000 0.820000 sr} bdef
/c7 { 0.000000 0.820000 0.820000 sr} bdef
c0
1 j
1 sg
   0    0 5001 5001 rf
12.5 w
0 3500 3750 0 0 -3500 750 3999 4 MP
PP
-3750 0 0 3500 3750 0 0 -3500 750 3999 5 MP stroke
gs 750 499 3751 3502 rc
16.6667 w
0 sg
-98 -2 -135 -3 -109 -3 -102 -4 -100 -3 -92 -3 -84 -3 -70 -4 
-63 -3 -55 -3 -55 -4 -51 -3 -57 -3 -52 -3 -48 -4 -41 -3 
-43 -3 -38 -4 -37 -3 -34 -3 -35 -4 -38 -3 -38 -3 -37 -4 
-39 -3 -35 -3 -33 -4 -33 -3 -33 -3 -32 -4 -33 -3 -30 -3 
-28 -4 -29 -3 -29 -3 -29 -4 -28 -3 -29 -3 -29 -4 -29 -3 
-30 -4 -29 -3 -28 -3 -27 -4 -26 -3 -26 -3 -25 -4 -24 -3 
-24 -4 -27 -3 -26 -3 -27 -4 -28 -3 -28 -4 -25 -3 -25 -4 
-23 -3 -22 -3 -22 -4 -24 -3 -23 -4 -24 -3 -25 -4 -25 -3 
-24 -4 -23 -3 -23 -3 -22 -4 -20 -3 -21 -4 -21 -3 -23 -4 
-22 -3 -23 -4 -22 -3 -23 -4 -22 -3 -22 -4 -22 -3 -22 -4 
-21 -3 -21 -4 -20 -3 -21 -4 -21 -3 -21 -4 -21 -3 -23 -4 
-23 -3 -25 -4 -27 -3 -45 -4 -115 -4 -90 -3 -73 -4 -59 9 
-42 9 4 9 4 9 4 8 4 9 4 9 4 9 4 8 
4 9 3 9 4 8 4 9 4 9 4 8 5 9 4 8 
4 9 4 8 4 9 4 8 4 9 4 8 4 9 4 8 
5 8 4 9 4 8 5 8 4 9 4 8 4 8 4 9 
3 8 4 8 4 8 3 8 4 8 4 9 4 8 4 8 
4 8 3 8 4 8 4 8 4 8 4 8 4 8 4 8 
3 8 4 8 4 8 4 7 4 8 4 8 5 8 4 8 
4 8 4 7 4 8 4 8 4 7 4 8 5 8 4 8 
4 7 3 8 4 7 3 8 3 8 4 7 4 8 4 7 
4 8 4 7 4 8 4 7 4 8 4 7 4 8 5 7 
4 7 4 8 4 7 4 7 3 8 4 7 4 7 4 8 
4 7 5 7 4 7 4 8 5 7 4 7 4 7 4 7 
3 7 4 7 4 8 4 7 4 7 4 7 4 7 4 7 
4 7 4 7 4 7 4 7 4 7 5 7 5 7 5 7 
4 7 5 6 4 7 4 7 5 7 4 7 4 7 4 6 
4 7 4 7 5 7 4 6 4 7 4 7 4 7 5 6 
4 7 5 7 5 6 4 7 4 7 5 6 4 7 4 6 
5 7 4 6 4 7 4 7 5 6 5 7 4 6 5 7 
4 6 5 6 5 7 4 6 5 7 4 6 5 6 5 7 
3 6 4 7 4 6 4 6 4 6 5 7 5 6 4 6 
4 7 4 6 4 6 4 6 5 6 4 7 5 6 4 6 
3 6 4 6 4 6 3 7 4 6 5 6 4 6 3 6 
5 6 5 6 3 6 4 6 5 6 5 6 4 6 5 6 
5 6 4 6 3 6 4 6 5 6 4 6 5 6 5 6 
5 5 5 6 3 6 4 6 4 6 4 6 4 5 5 6 
5 6 5 6 5 6 3558 2322 300 MP stroke
3 5 5 6 5 6 4 5 5 6 5 6 4 6 4 5 
4 6 3 6 4 5 5 6 4 5 4 6 6 6 4 5 
5 6 4 5 5 6 4 6 5 5 4 6 4 5 4 6 
4 5 5 6 4 5 5 6 4 5 6 5 4 6 5 5 
5 6 3 5 3 6 4 5 4 5 5 6 5 5 4 5 
5 6 5 5 5 5 5 6 5 5 4 5 4 6 5 5 
6 5 5 5 6 6 5 5 5 5 5 5 4 5 5 6 
5 5 4 5 5 5 5 5 4 5 4 6 4 5 5 5 
4 5 5 5 4 5 3 5 3 5 5 5 6 5 5 5 
6 5 5 5 5 6 5 5 5 5 6 5 5 4 6 5 
5 5 5 5 4 5 3 5 5 5 4 5 4 5 5 5 
5 5 5 5 5 5 5 4 5 5 5 5 5 5 6 5 
6 5 6 5 5 4 5 5 5 5 6 5 5 4 5 5 
4 5 4 5 4 4 6 5 6 5 7 5 6 4 6 5 
4 5 5 4 5 5 5 5 5 4 6 5 6 5 5 4 
4 5 5 5 5 4 6 5 6 4 5 5 4 5 4 4 
4 5 4 4 6 5 8 4 7 5 6 5 6 4 5 5 
3 4 4 5 5 4 6 5 6 4 6 4 6 5 5 4 
4 5 3 4 6 5 7 4 8 5 9 4 8 4 5 5 
4 4 3 4 3 5 4 4 5 5 7 4 8 4 9 5 
7 4 7 4 5 5 4 4 4 4 5 4 6 5 6 4 
5 4 7 5 9 4 8 4 10 4 9 5 8 4 6 4 
4 4 4 4 4 5 5 4 6 4 7 4 8 4 8 5 
8 4 8 4 7 4 5 4 4 4 5 4 4 5 7 4 
9 4 10 4 12 4 11 4 9 4 6 4 4 4 4 4 
5 4 7 4 7 4 10 4 10 5 10 4 11 4 10 4 
10 4 9 4 8 4 6 4 6 4 4 3 3 4 5 4 
5 4 8 4 8 4 8 4 7 4 8 4 6 4 6 4 
6 4 10 4 11 4 10 3 11 4 9 4 7 4 8 4 
9 4 11 4 13 3 12 4 11 4 10 4 8 4 6 4 
8 3 9 4 7 4 10 4 10 4 10 3 12 4 14 4 
13 4 15 3 13 4 12 4 12 4 12 3 12 4 12 4 
12 4 11 3 11 4 12 4 13 3 15 4 14 4 17 3 
17 4 17 4 16 3 16 4 15 4 13 3 12 4 12 4 
12 3 12 4 14 3 13 4 14 4 18 3 16 4 18 3 
20 4 19 4 19 3 23 4 24 3 24 4 25 3 27 4 
24 3 21 4 20 3 17 4 17 3 16 4 16 4 19 3 
18 4 17 3 21 3 1267 984 300 MP stroke
24 4 34 3 40 4 52 3 67 4 86 3 91 4 123 3 
750 956 9 MP stroke
gr

16.6667 w
0 sg
0.1 sg
%%IncludeResource: font Helvetica-Bold
/Helvetica-Bold /WindowsLatin1Encoding 183.333 FMSR

1903 4361 mt 
(Log Stress [kPa]) s
 387 2611 mt  -90 rotate
(Porosity) s
90 rotate
gs 750 499 3751 3502 rc
/c8 { 1.000000 0.000000 0.000000 sr} bdef
c8
-85 -1 -215 -3 -163 -3 -134 -3 -116 -3 -99 -2 -91 -3 -87 -3 
-82 -3 -74 -3 -72 -3 -69 -3 -65 -3 -60 -3 -57 -3 -55 -3 
-52 -3 -54 -3 -54 -3 -54 -3 -52 -3 -53 -3 -49 -3 -48 -3 
-45 -3 -45 -3 -44 -3 -45 -3 -43 -3 -42 -3 -44 -3 -41 -3 
-39 -3 -39 -3 -38 -4 -36 -3 -34 -3 -34 -3 -34 -3 -33 -3 
-33 -3 -33 -3 -33 -3 -32 -3 -32 -3 -32 -3 -32 -3 -31 -3 
-31 -3 -30 -3 -27 -4 -27 -3 -25 -3 -25 -3 -26 -3 -26 -3 
-26 -3 -26 -3 -27 -3 -25 -3 -26 -3 -27 -4 -34 -3 -123 -3 
-95 -3 -76 -3 -63 8 -49 8 6 7 5 8 5 8 5 7 
5 8 5 8 4 8 5 7 6 8 5 7 5 8 5 8 
5 7 5 8 4 7 5 8 5 7 5 8 4 7 5 8 
5 7 5 8 5 7 4 7 5 8 5 7 5 7 4 8 
5 7 5 7 5 8 6 7 5 7 5 7 5 8 6 7 
5 7 5 7 4 7 5 7 5 7 4 8 4 7 5 7 
4 7 5 7 4 7 5 7 5 7 5 7 5 7 6 7 
5 7 4 7 5 7 5 7 5 6 4 7 5 7 5 7 
4 7 4 7 5 6 4 7 5 7 5 7 5 6 4 7 
4 7 5 7 5 6 5 7 4 7 5 6 4 7 5 7 
5 6 5 7 4 6 5 7 4 6 4 7 4 7 5 6 
5 7 4 6 5 7 6 6 4 6 5 7 6 6 5 7 
5 6 5 6 5 7 5 6 5 7 5 6 5 6 5 6 
5 7 5 6 5 6 5 7 5 6 6 6 6 6 6 6 
6 7 5 6 6 6 5 6 6 6 5 6 5 7 4 6 
5 6 4 6 5 6 5 6 5 6 6 6 6 6 6 6 
7 6 6 6 5 6 5 6 4 6 4 6 4 6 5 6 
5 6 5 6 5 6 6 5 5 6 5 6 6 6 3 6 
4 6 5 5 5 6 4 6 5 6 4 6 4 5 5 6 
5 6 5 5 6 6 6 6 5 6 4 5 5 6 5 6 
4 5 4 6 5 5 5 6 4 6 5 5 5 6 4 5 
5 6 5 6 5 5 6 6 7 5 5 6 6 5 5 6 
4 5 5 6 5 5 5 5 3 6 5 5 5 6 5 5 
5 6 5 5 4 5 5 6 4 5 5 5 5 6 5 5 
6 5 6 6 5 5 5 5 6 6 6 5 5 5 6 5 
6 6 6 5 7 5 5 5 6 5 6 6 5 5 5 5 
5 5 7 5 6 5 6 6 6 5 4 5 3 5 4 5 
5 5 5 5 7 5 4 5 6 5 4 5 4 5 4 5 
4 6 4 5 5 5 4 5 4 4 6 5 6 5 5 5 
5 5 7 5 5 5 3251 1870 300 MP stroke
5 5 5 5 5 5 4 5 5 5 6 5 6 4 7 5 
7 5 7 5 6 5 5 5 6 5 5 4 5 5 5 5 
6 5 4 4 5 5 4 5 5 5 5 4 6 5 6 5 
7 5 6 4 6 5 5 5 6 4 7 5 7 5 6 4 
6 5 5 5 4 4 5 5 6 5 6 4 5 5 6 4 
5 5 4 5 5 4 6 5 5 4 6 5 7 4 7 5 
8 5 7 4 7 5 5 4 5 5 6 4 6 5 7 4 
7 4 6 5 7 4 6 5 7 4 7 5 6 4 5 5 
6 4 4 4 6 5 9 4 8 4 6 5 7 4 6 5 
3 4 5 4 7 5 6 4 8 4 5 5 5 4 3 4 
4 4 4 5 5 4 9 4 8 5 8 4 8 4 7 4 
7 5 6 4 7 4 6 4 6 4 5 5 5 4 5 4 
7 4 7 4 7 5 7 4 8 4 8 4 8 4 10 4 
11 4 7 5 3 4 5 4 5 4 5 4 8 4 8 4 
7 4 7 4 8 4 7 4 7 4 8 4 7 4 6 5 
5 4 10 4 8 4 6 4 8 4 9 4 8 4 10 4 
12 3 11 4 10 4 9 4 10 4 8 4 7 4 5 4 
7 4 8 4 8 4 8 4 11 4 10 4 9 3 7 4 
8 4 10 4 7 4 8 4 8 4 9 3 8 4 11 4 
11 4 11 4 12 4 12 3 8 4 9 4 7 4 4 4 
3 3 7 4 7 4 8 4 10 3 9 4 7 4 7 4 
7 3 9 4 11 4 12 4 13 3 13 4 15 4 14 3 
14 4 14 4 16 3 14 4 13 4 12 3 8 4 8 4 
7 3 6 4 10 4 11 3 14 4 18 3 23 4 26 4 
24 3 23 4 19 3 14 4 12 4 11 3 11 4 12 3 
15 4 17 3 21 4 20 3 20 4 18 3 16 4 18 3 
21 4 21 4 22 3 24 4 20 3 18 3 16 4 14 3 
14 4 12 3 16 4 17 3 21 4 24 3 32 4 37 3 
38 3 47 4 51 3 54 4 55 3 74 4 72 3 62 3 
750 922 233 MP stroke
/c9 { 0.000000 0.000000 1.000000 sr} bdef
c9
-55 0 -117 -1 -111 -2 -106 -1 -92 -1 -77 -1 -69 -1 -65 -1 
-63 -1 -58 -1 -58 -1 -54 -2 -47 -1 -41 -1 -42 -1 -40 -1 
-39 -1 -41 -1 -38 -1 -36 -2 -36 -1 -34 -1 -35 -1 -36 -1 
-35 -1 -34 -1 -32 -1 -31 -2 -30 -1 -29 -1 -28 -1 -28 -1 
-27 -1 -26 -1 -27 -1 -27 -2 -26 -1 -27 -1 -26 -1 -25 -1 
-26 -1 -26 -1 -25 -1 -26 -2 -25 -1 -23 -1 -22 -1 -21 -1 
-18 -1 -17 -1 -19 -2 -18 -1 -19 -1 -20 -1 -21 -1 -20 -1 
-22 -1 -22 -2 -22 -1 -22 -1 -22 -1 -20 -1 -19 -1 -19 -1 
-18 -1 -17 -2 -16 -1 -17 -1 -18 -1 -18 -1 -18 -1 -18 -1 
-17 -2 -15 -1 -15 -1 -16 -1 -15 -1 -15 -1 -15 -1 -16 -2 
-14 -1 -15 -1 -16 -1 -15 -1 -15 -1 -16 -2 -14 -1 -14 -1 
-14 -1 -15 -1 -15 -1 -16 -1 -16 -2 -15 -1 -14 -1 -13 -1 
-13 -1 -13 -1 -12 -1 -12 -2 -12 -1 -11 -1 -12 -1 -12 -1 
-13 -1 -13 -2 -14 -1 -13 -1 -14 -1 -12 -1 -13 -1 -12 -2 
-13 -1 -12 -1 -13 -1 -13 -1 -13 -1 -11 -1 -11 -2 -11 -1 
-11 -1 -12 -1 -12 -1 -13 -1 -14 -2 -15 -1 -21 -1 -43 -1 
-102 -1 -82 -1 -68 -2 -54 6 -36 6 5 6 4 6 5 5 
4 6 5 6 5 6 5 5 4 6 5 6 5 6 4 5 
5 6 5 6 5 5 5 6 5 6 5 5 5 6 5 6 
5 5 5 6 5 6 4 5 5 6 5 5 4 6 5 5 
5 6 5 5 5 6 5 6 5 5 5 6 5 5 5 6 
4 5 5 5 5 6 5 5 5 6 5 5 5 6 5 5 
5 5 5 6 5 5 5 6 5 5 5 5 5 6 5 5 
5 5 4 6 5 5 5 5 4 6 5 5 5 5 4 5 
4 6 5 5 4 5 4 5 4 6 4 5 5 5 4 5 
4 5 5 6 5 5 5 5 5 5 5 5 5 5 4 6 
5 5 5 5 5 5 4 5 4 5 3 5 4 5 4 5 
4 5 4 5 4 5 5 6 4 5 4 5 5 5 3 5 
4 5 5 5 4 5 4 5 5 4 4 5 6 5 5 5 
5 5 5 5 5 5 4 5 4 5 5 5 5 5 5 5 
5 4 4 5 5 5 4 5 4 5 4 5 5 5 5 4 
5 5 6 5 5 5 5 5 5 4 5 5 5 5 5 5 
5 4 4 5 4 5 5 5 4 4 3 5 4 5 5 4 
4 5 4 5 5 4 5 5 4 5 5 4 4 5 5 5 
5 4 4 5 4 5 5 4 4 5 4 4 5 5 5 5 
4 4 5 5 5 4 5 5 6 4 5 5 4 5 5 4 
4 5 5 4 5 5 5 4 4 5 5 4 4 5 4 4 
5 5 5 4 4 4 3623 2221 300 MP stroke
5 5 5 4 5 5 6 4 4 5 4 4 4 4 3 5 
4 4 4 5 4 4 4 4 4 5 5 4 5 4 5 5 
5 4 5 5 5 4 4 4 6 4 5 5 4 4 4 4 
4 5 4 4 3 4 5 5 5 4 4 4 5 4 4 5 
3 4 5 4 3 4 4 4 4 5 4 4 3 4 4 4 
5 5 4 4 3 4 3 4 4 4 4 4 4 5 5 4 
5 4 4 4 6 4 5 4 4 4 6 4 5 5 4 4 
5 4 5 4 5 4 5 4 5 4 5 4 4 4 4 4 
4 4 4 4 4 4 4 4 6 4 6 4 6 5 5 4 
4 4 4 4 3 4 4 3 4 4 4 4 4 4 5 4 
5 4 6 4 6 4 7 4 5 4 5 4 5 4 6 4 
4 4 4 4 4 4 6 4 4 3 6 4 6 4 4 4 
3 4 4 4 4 4 4 4 4 3 4 4 3 4 5 4 
5 4 6 4 6 3 4 4 3 4 3 4 2 4 4 3 
6 4 5 4 7 4 6 3 6 4 4 4 4 4 4 3 
3 4 4 4 5 4 5 3 5 4 5 4 4 4 3 3 
4 4 5 4 5 3 5 4 4 4 4 3 4 4 3 4 
5 3 5 4 6 4 5 3 5 4 4 4 6 3 6 4 
5 4 5 3 5 4 5 3 5 4 5 4 6 3 4 4 
4 3 3 4 4 3 4 4 6 4 5 3 5 4 6 3 
5 4 5 3 5 4 6 3 5 4 5 3 4 4 4 3 
2 4 5 3 5 4 6 3 6 4 7 3 5 4 6 3 
6 4 3 3 3 4 3 3 1 4 2 3 4 4 6 3 
6 3 7 4 5 3 5 4 2 3 2 4 5 3 8 3 
7 4 8 3 7 4 3 3 1 3 1 4 1 3 4 3 
6 4 5 3 7 4 8 3 7 3 5 4 5 3 4 3 
5 4 4 3 6 3 8 3 8 4 6 3 5 3 6 4 
6 3 5 3 6 4 6 3 3 3 3 3 4 4 6 3 
8 3 9 3 11 4 9 3 8 3 6 3 6 4 6 3 
7 3 9 3 9 4 9 3 8 3 7 3 4 3 4 4 
6 3 8 3 7 3 8 3 6 3 6 4 3 3 3 3 
5 3 5 3 7 3 7 4 7 3 6 3 6 3 6 3 
8 3 8 3 10 4 10 3 12 3 9 3 11 3 11 3 
11 3 6 3 5 3 3 3 0 4 1 3 2 3 4 3 
5 3 7 3 6 3 4 3 5 3 4 3 5 3 7 3 
8 3 10 3 11 3 9 3 7 3 7 3 5 3 5 3 
9 3 9 3 9 3 10 3 7 3 6 3 9 3 10 3 
9 3 9 3 10 3 2050 1134 300 MP stroke
8 3 8 3 10 3 10 3 10 3 10 3 10 3 6 3 
8 3 10 3 11 3 11 3 14 3 15 2 15 3 13 3 
7 3 8 3 6 3 6 3 3 3 9 3 9 3 5 2 
4 3 8 3 8 3 7 3 9 3 12 3 11 3 11 2 
15 3 15 3 14 3 16 3 18 3 16 2 17 3 18 3 
19 3 17 3 24 3 27 2 21 3 18 3 20 3 14 3 
9 2 14 3 14 3 11 3 11 3 10 2 10 3 10 3 
10 3 14 2 16 3 26 3 36 3 48 2 57 3 60 3 
56 3 46 2 39 3 34 3 46 3 52 2 58 3 32 2 
750 930 73 MP stroke
gr

c9
0 sg
%%IncludeResource: font Helvetica
/Helvetica /WindowsLatin1Encoding 83.3333 FMSR

 732 4037 mt 
( ) s
4483  535 mt 
( ) s
8.33333 w
DO
SO
12.5 w
0.1 sg
 750  499 mt 4500  499 L
 750 3999 mt 4500 3999 L
4500 3999 mt 4500  499 L
 750 3999 mt  750  499 L
 750 3999 mt 4500 3999 L
 750 3999 mt  750  499 L
 750 3999 mt  750 3971 L
 750  499 mt  750  528 L
 750 3999 mt  750 3943 L
 750  499 mt  750  556 L
%%IncludeResource: font Helvetica
/Helvetica /WindowsLatin1Encoding 133.333 FMSR

 626 4187 mt 
(10) s
%%IncludeResource: font Helvetica
/Helvetica /WindowsLatin1Encoding 88.8889 FMSR

 774 4105 mt 
(-1) s
1116 3999 mt 1116 3971 L
1116  499 mt 1116  528 L
1331 3999 mt 1331 3971 L
1331  499 mt 1331  528 L
1483 3999 mt 1483 3971 L
1483  499 mt 1483  528 L
1601 3999 mt 1601 3971 L
1601  499 mt 1601  528 L
1697 3999 mt 1697 3971 L
1697  499 mt 1697  528 L
1779 3999 mt 1779 3971 L
1779  499 mt 1779  528 L
1849 3999 mt 1849 3971 L
1849  499 mt 1849  528 L
1912 3999 mt 1912 3971 L
1912  499 mt 1912  528 L
1967 3999 mt 1967 3971 L
1967  499 mt 1967  528 L
1967 3999 mt 1967 3943 L
1967  499 mt 1967  556 L
%%IncludeResource: font Helvetica
/Helvetica /WindowsLatin1Encoding 133.333 FMSR

1869 4187 mt 
(10) s
%%IncludeResource: font Helvetica
/Helvetica /WindowsLatin1Encoding 88.8889 FMSR

2017 4105 mt 
(0) s
2334 3999 mt 2334 3971 L
2334  499 mt 2334  528 L
2548 3999 mt 2548 3971 L
2548  499 mt 2548  528 L
2701 3999 mt 2701 3971 L
2701  499 mt 2701  528 L
2819 3999 mt 2819 3971 L
2819  499 mt 2819  528 L
2915 3999 mt 2915 3971 L
2915  499 mt 2915  528 L
2997 3999 mt 2997 3971 L
2997  499 mt 2997  528 L
3067 3999 mt 3067 3971 L
3067  499 mt 3067  528 L
3129 3999 mt 3129 3971 L
3129  499 mt 3129  528 L
3185 3999 mt 3185 3971 L
3185  499 mt 3185  528 L
3185 3999 mt 3185 3943 L
3185  499 mt 3185  556 L
%%IncludeResource: font Helvetica
/Helvetica /WindowsLatin1Encoding 133.333 FMSR

3087 4187 mt 
(10) s
%%IncludeResource: font Helvetica
/Helvetica /WindowsLatin1Encoding 88.8889 FMSR

3235 4105 mt 
(1) s
3552 3999 mt 3552 3971 L
3552  499 mt 3552  528 L
3766 3999 mt 3766 3971 L
3766  499 mt 3766  528 L
3918 3999 mt 3918 3971 L
3918  499 mt 3918  528 L
4036 3999 mt 4036 3971 L
4036  499 mt 4036  528 L
4133 3999 mt 4133 3971 L
4133  499 mt 4133  528 L
4214 3999 mt 4214 3971 L
4214  499 mt 4214  528 L
4285 3999 mt 4285 3971 L
4285  499 mt 4285  528 L
4347 3999 mt 4347 3971 L
4347  499 mt 4347  528 L
4403 3999 mt 4403 3971 L
4403  499 mt 4403  528 L
4403 3999 mt 4403 3943 L
4403  499 mt 4403  556 L
%%IncludeResource: font Helvetica
/Helvetica /WindowsLatin1Encoding 133.333 FMSR

4305 4187 mt 
(10) s
%%IncludeResource: font Helvetica
/Helvetica /WindowsLatin1Encoding 88.8889 FMSR

4453 4105 mt 
(2) s
 750 3999 mt  806 3999 L
4500 3999 mt 4443 3999 L
%%IncludeResource: font Helvetica
/Helvetica /WindowsLatin1Encoding 133.333 FMSR

 467 4048 mt 
(0.45) s
 750 3299 mt  806 3299 L
4500 3299 mt 4443 3299 L
 541 3348 mt 
(0.5) s
 750 2599 mt  806 2599 L
4500 2599 mt 4443 2599 L
 467 2648 mt 
(0.55) s
 750 1899 mt  806 1899 L
4500 1899 mt 4443 1899 L
 541 1948 mt 
(0.6) s
 750 1200 mt  806 1200 L
4500 1200 mt 4443 1200 L
 467 1249 mt 
(0.65) s
 750  499 mt  806  499 L
4500  499 mt 4443  499 L
 541  548 mt 
(0.7) s
 750  499 mt 4500  499 L
 750 3999 mt 4500 3999 L
4500 3999 mt 4500  499 L
 750 3999 mt  750  499 L
0 sg
%%IncludeResource: font Helvetica-Bold
/Helvetica-Bold /WindowsLatin1Encoding 125 FMSR

3175  733 mt 
(G\(K) s
%%IncludeResource: font Helvetica-Bold
/Helvetica-Bold /WindowsLatin1Encoding 100 FMSR

3404  795 mt 
(1) s
%%IncludeResource: font Helvetica-Bold
/Helvetica-Bold /WindowsLatin1Encoding 125 FMSR

3459  733 mt 
(\) = 2.5E06 Pa) s
gs 2850 589 1426 698 rc
16.6667 w
250 0 2900 714 2 MP stroke
gr

16.6667 w
3175  956 mt 
(G\(K) s
%%IncludeResource: font Helvetica-Bold
/Helvetica-Bold /WindowsLatin1Encoding 100 FMSR

3404 1018 mt 
(1) s
%%IncludeResource: font Helvetica-Bold
/Helvetica-Bold /WindowsLatin1Encoding 125 FMSR

3459  956 mt 
(\) = 5E06 Pa) s
gs 2850 589 1426 698 rc
c8
250 0 2900 937 2 MP stroke
gr

c8
0 sg
3175 1179 mt 
(G\(K) s
%%IncludeResource: font Helvetica-Bold
/Helvetica-Bold /WindowsLatin1Encoding 100 FMSR

3404 1241 mt 
(1) s
%%IncludeResource: font Helvetica-Bold
/Helvetica-Bold /WindowsLatin1Encoding 125 FMSR

3459 1179 mt 
(\) = 7.5E06 Pa) s
gs 2850 589 1426 698 rc
c9
250 0 2900 1160 2 MP stroke
12.5 w
gr

12.5 w
c9

end %%Color Dict

eplot
%%EndObject

epage
end

showpage

%%Trailer
%%EOF
