%!PS-Adobe-3.0 EPSF-3.0
%%Creator: MATLAB, The MathWorks, Inc. Version 8.1.0.604 (R2013a). Operating System: Microsoft Windows 7.
%%Title: .\K1_ConfinedDensity.eps
%%CreationDate: 08/17/2013  15:45:18
%%DocumentNeededFonts: Helvetica-Bold
%%+ Helvetica
%%DocumentProcessColors: Cyan Magenta Yellow Black
%%LanguageLevel: 2
%%Pages: 1
%%BoundingBox:    30    88   564   572
%%EndComments

%%BeginProlog
% MathWorks dictionary
/MathWorks 160 dict begin
% definition operators
/bdef {bind def} bind def
/ldef {load def} bind def
/xdef {exch def} bdef
/xstore {exch store} bdef
% operator abbreviations
/c  /clip ldef
/cc /concat ldef
/cp /closepath ldef
/gr /grestore ldef
/gs /gsave ldef
/mt /moveto ldef
/np /newpath ldef
/cm /currentmatrix ldef
/sm /setmatrix ldef
/rm /rmoveto ldef
/rl /rlineto ldef
/s {show newpath} bdef
/sc {setcmykcolor} bdef
/sr /setrgbcolor ldef
/sg /setgray ldef
/w /setlinewidth ldef
/j /setlinejoin ldef
/cap /setlinecap ldef
/rc {rectclip} bdef
/rf {rectfill} bdef
% page state control
/pgsv () def
/bpage {/pgsv save def} bdef
/epage {pgsv restore} bdef
/bplot /gsave ldef
/eplot {stroke grestore} bdef
% orientation switch
/portraitMode 0 def /landscapeMode 1 def /rotateMode 2 def
% coordinate system mappings
/dpi2point 0 def
% font control
/FontSize 0 def
/FMS {/FontSize xstore findfont [FontSize 0 0 FontSize neg 0 0]
  makefont setfont} bdef
/ISOLatin1Encoding where {pop /WindowsLatin1Encoding 256 array bdef
ISOLatin1Encoding WindowsLatin1Encoding copy pop
/.notdef/.notdef/quotesinglbase/florin/quotedblbase/ellipsis/dagger
/daggerdbl/circumflex/perthousand/Scaron/guilsinglleft/OE/.notdef/.notdef
/.notdef/.notdef/quoteleft/quoteright/quotedblleft/quotedblright/bullet
/endash/emdash/tilde/trademark/scaron/guilsinglright/oe/.notdef/.notdef
/Ydieresis WindowsLatin1Encoding 128 32 getinterval astore pop}
{/WindowsLatin1Encoding StandardEncoding bdef} ifelse
/reencode {exch dup where {pop load} {pop StandardEncoding} ifelse
  exch dup 3 1 roll findfont dup length dict begin
  { 1 index /FID ne {def}{pop pop} ifelse } forall
  /Encoding exch def currentdict end definefont pop} bdef
/isroman {findfont /CharStrings get /Agrave known} bdef
/FMSR {3 1 roll 1 index dup isroman {reencode} {pop pop} ifelse
  exch FMS} bdef
/csm {1 dpi2point div -1 dpi2point div scale neg translate
 dup landscapeMode eq {pop -90 rotate}
  {rotateMode eq {90 rotate} if} ifelse} bdef
% line types: solid, dotted, dashed, dotdash
/SO { [] 0 setdash } bdef
/DO { [.5 dpi2point mul 4 dpi2point mul] 0 setdash } bdef
/DA { [6 dpi2point mul] 0 setdash } bdef
/DD { [.5 dpi2point mul 4 dpi2point mul 6 dpi2point mul 4
  dpi2point mul] 0 setdash } bdef
% macros for lines and objects
/L {lineto stroke} bdef
/MP {3 1 roll moveto 1 sub {rlineto} repeat} bdef
/AP {{rlineto} repeat} bdef
/PDlw -1 def
/W {/PDlw currentlinewidth def setlinewidth} def
/PP {closepath eofill} bdef
/DP {closepath stroke} bdef
/MR {4 -2 roll moveto dup  0 exch rlineto exch 0 rlineto
  neg 0 exch rlineto closepath} bdef
/FR {MR stroke} bdef
/PR {MR fill} bdef
/L1i {{currentfile picstr readhexstring pop} image} bdef
/tMatrix matrix def
/MakeOval {newpath tMatrix currentmatrix pop translate scale
0 0 1 0 360 arc tMatrix setmatrix} bdef
/FO {MakeOval stroke} bdef
/PO {MakeOval fill} bdef
/PD {currentlinewidth 2 div 0 360 arc fill
   PDlw -1 eq not {PDlw w /PDlw -1 def} if} def
/FA {newpath tMatrix currentmatrix pop translate scale
  0 0 1 5 -2 roll arc tMatrix setmatrix stroke} bdef
/PA {newpath tMatrix currentmatrix pop	translate 0 0 moveto scale
  0 0 1 5 -2 roll arc closepath tMatrix setmatrix fill} bdef
/FAn {newpath tMatrix currentmatrix pop translate scale
  0 0 1 5 -2 roll arcn tMatrix setmatrix stroke} bdef
/PAn {newpath tMatrix currentmatrix pop translate 0 0 moveto scale
  0 0 1 5 -2 roll arcn closepath tMatrix setmatrix fill} bdef
/vradius 0 def /hradius 0 def /lry 0 def
/lrx 0 def /uly 0 def /ulx 0 def /rad 0 def
/MRR {/vradius xdef /hradius xdef /lry xdef /lrx xdef /uly xdef
  /ulx xdef newpath tMatrix currentmatrix pop ulx hradius add uly
  vradius add translate hradius vradius scale 0 0 1 180 270 arc 
  tMatrix setmatrix lrx hradius sub uly vradius add translate
  hradius vradius scale 0 0 1 270 360 arc tMatrix setmatrix
  lrx hradius sub lry vradius sub translate hradius vradius scale
  0 0 1 0 90 arc tMatrix setmatrix ulx hradius add lry vradius sub
  translate hradius vradius scale 0 0 1 90 180 arc tMatrix setmatrix
  closepath} bdef
/FRR {MRR stroke } bdef
/PRR {MRR fill } bdef
/MlrRR {/lry xdef /lrx xdef /uly xdef /ulx xdef /rad lry uly sub 2 div def
  newpath tMatrix currentmatrix pop ulx rad add uly rad add translate
  rad rad scale 0 0 1 90 270 arc tMatrix setmatrix lrx rad sub lry rad
  sub translate rad rad scale 0 0 1 270 90 arc tMatrix setmatrix
  closepath} bdef
/FlrRR {MlrRR stroke } bdef
/PlrRR {MlrRR fill } bdef
/MtbRR {/lry xdef /lrx xdef /uly xdef /ulx xdef /rad lrx ulx sub 2 div def
  newpath tMatrix currentmatrix pop ulx rad add uly rad add translate
  rad rad scale 0 0 1 180 360 arc tMatrix setmatrix lrx rad sub lry rad
  sub translate rad rad scale 0 0 1 0 180 arc tMatrix setmatrix
  closepath} bdef
/FtbRR {MtbRR stroke } bdef
/PtbRR {MtbRR fill } bdef
/stri 6 array def /dtri 6 array def
/smat 6 array def /dmat 6 array def
/tmat1 6 array def /tmat2 6 array def /dif 3 array def
/asub {/ind2 exch def /ind1 exch def dup dup
  ind1 get exch ind2 get sub exch } bdef
/tri_to_matrix {
  2 0 asub 3 1 asub 4 0 asub 5 1 asub
  dup 0 get exch 1 get 7 -1 roll astore } bdef
/compute_transform {
  dmat dtri tri_to_matrix tmat1 invertmatrix 
  smat stri tri_to_matrix tmat2 concatmatrix } bdef
/ds {stri astore pop} bdef
/dt {dtri astore pop} bdef
/db {2 copy /cols xdef /rows xdef mul dup 3 mul string
  currentfile 
  3 index 0 eq {/ASCIIHexDecode filter}
  {/ASCII85Decode filter 3 index 2 eq {/RunLengthDecode filter} if }
  ifelse exch readstring pop
  dup 0 3 index getinterval /rbmap xdef
  dup 2 index dup getinterval /gbmap xdef
  1 index dup 2 mul exch getinterval /bbmap xdef pop pop}bdef
/it {gs np dtri aload pop moveto lineto lineto cp c
  cols rows 8 compute_transform 
  rbmap gbmap bbmap true 3 colorimage gr}bdef
/il {newpath moveto lineto stroke}bdef
currentdict end def
%%EndProlog

%%BeginSetup
MathWorks begin

0 cap

end
%%EndSetup

%%Page: 1 1
%%BeginPageSetup
%%PageBoundingBox:    30    88   564   572
MathWorks begin
bpage
%%EndPageSetup

%%BeginObject: obj1
bplot

/dpi2point 8.33333 def
portraitMode 0150 5158 csm

  106   390  4450  4030 rc
84 dict begin %Colortable dictionary
/c0 { 0.000000 0.000000 0.000000 sr} bdef
/c1 { 1.000000 1.000000 1.000000 sr} bdef
/c2 { 0.900000 0.000000 0.000000 sr} bdef
/c3 { 0.000000 0.820000 0.000000 sr} bdef
/c4 { 0.000000 0.000000 0.800000 sr} bdef
/c5 { 0.910000 0.820000 0.320000 sr} bdef
/c6 { 1.000000 0.260000 0.820000 sr} bdef
/c7 { 0.000000 0.820000 0.820000 sr} bdef
c0
1 j
1 sg
   0    0 5001 5001 rf
12.5 w
0 3500 3750 0 0 -3500 750 4000 4 MP
PP
-3750 0 0 3500 3750 0 0 -3500 750 4000 5 MP stroke
gs 750 500 3751 3501 rc
16.6667 w
0 sg
-98 2 -135 3 -109 4 -102 3 -100 4 -92 3 -84 4 -70 4 
-63 3 -55 4 -55 3 -51 4 -57 3 -52 4 -48 3 -41 4 
-43 4 -38 3 -37 4 -34 3 -35 4 -38 3 -38 4 -37 4 
-39 3 -35 4 -33 3 -33 4 -33 4 -32 3 -33 4 -30 3 
-28 4 -29 4 -29 3 -29 4 -28 4 -29 3 -29 4 -29 3 
-30 4 -29 4 -28 3 -27 4 -26 4 -26 3 -25 4 -24 4 
-24 3 -27 4 -26 4 -27 3 -28 4 -28 4 -25 4 -25 3 
-23 4 -22 4 -22 3 -24 4 -23 4 -24 3 -25 4 -25 4 
-24 4 -23 3 -23 4 -22 4 -20 4 -21 3 -21 4 -23 4 
-22 4 -23 3 -22 4 -23 4 -22 4 -22 3 -22 4 -22 4 
-21 4 -21 4 -20 3 -21 4 -21 4 -21 4 -21 4 -23 3 
-23 4 -25 4 -27 4 -45 4 -115 3 -90 4 -73 4 -59 -9 
-42 -10 4 -10 4 -9 4 -10 4 -9 4 -9 4 -10 4 -9 
4 -10 3 -9 4 -9 4 -10 4 -9 4 -9 5 -9 4 -10 
4 -9 4 -9 4 -9 4 -9 4 -10 4 -9 4 -9 4 -9 
5 -9 4 -9 4 -9 5 -9 4 -9 4 -9 4 -9 4 -9 
3 -8 4 -9 4 -9 3 -9 4 -9 4 -8 4 -9 4 -9 
4 -9 3 -8 4 -9 4 -9 4 -8 4 -9 4 -9 4 -8 
3 -9 4 -8 4 -9 4 -8 4 -9 4 -8 5 -9 4 -8 
4 -8 4 -9 4 -8 4 -9 4 -8 4 -8 5 -8 4 -9 
4 -8 3 -8 4 -8 3 -9 3 -8 4 -8 4 -8 4 -8 
4 -8 4 -9 4 -8 4 -8 4 -8 4 -8 4 -8 5 -8 
4 -8 4 -8 4 -8 4 -8 3 -7 4 -8 4 -8 4 -8 
4 -8 5 -8 4 -7 4 -8 5 -8 4 -8 4 -8 4 -7 
3 -8 4 -8 4 -7 4 -8 4 -8 4 -7 4 -8 4 -7 
4 -8 4 -8 4 -7 4 -8 4 -7 5 -8 5 -7 5 -8 
4 -7 5 -7 4 -8 4 -7 5 -8 4 -7 4 -7 4 -8 
4 -7 4 -7 5 -8 4 -7 4 -7 4 -8 4 -7 5 -7 
4 -7 5 -7 5 -8 4 -7 4 -7 5 -7 4 -7 4 -7 
5 -7 4 -7 4 -7 4 -7 5 -7 5 -8 4 -7 5 -7 
4 -6 5 -7 5 -7 4 -7 5 -7 4 -7 5 -7 5 -7 
3 -7 4 -7 4 -6 4 -7 4 -7 5 -7 5 -7 4 -6 
4 -7 4 -7 4 -7 4 -6 5 -7 4 -7 5 -6 4 -7 
3 -7 4 -6 4 -7 3 -7 4 -6 5 -7 4 -6 3 -7 
5 -6 5 -7 3 -6 4 -7 5 -6 5 -7 4 -6 5 -7 
5 -6 4 -7 3 -6 4 -7 5 -6 4 -6 5 -7 5 -6 
5 -6 5 -7 3 -6 4 -6 4 -7 4 -6 4 -6 5 -6 
5 -7 5 -6 5 -6 3558 2270 300 MP stroke
3 -6 5 -7 5 -6 4 -6 5 -6 5 -6 4 -6 4 -7 
4 -6 3 -6 4 -6 5 -6 4 -6 4 -6 6 -6 4 -6 
5 -6 4 -6 5 -6 4 -6 5 -6 4 -6 4 -6 4 -6 
4 -6 5 -6 4 -6 5 -6 4 -6 6 -5 4 -6 5 -6 
5 -6 3 -6 3 -6 4 -6 4 -5 5 -6 5 -6 4 -6 
5 -5 5 -6 5 -6 5 -6 5 -5 4 -6 4 -6 5 -5 
6 -6 5 -6 6 -5 5 -6 5 -6 5 -5 4 -6 5 -6 
5 -5 4 -6 5 -5 5 -6 4 -5 4 -6 4 -6 5 -5 
4 -6 5 -5 4 -6 3 -5 3 -6 5 -5 6 -5 5 -6 
6 -5 5 -6 5 -5 5 -6 5 -5 6 -5 5 -6 6 -5 
5 -5 5 -6 4 -5 3 -6 5 -5 4 -5 4 -5 5 -6 
5 -5 5 -5 5 -6 5 -5 5 -5 5 -5 5 -6 6 -5 
6 -5 6 -5 5 -5 5 -6 5 -5 6 -5 5 -5 5 -5 
4 -5 4 -5 4 -6 6 -5 6 -5 7 -5 6 -5 6 -5 
4 -5 5 -5 5 -5 5 -5 5 -5 6 -5 6 -5 5 -5 
4 -5 5 -5 5 -5 6 -5 6 -5 5 -5 4 -5 4 -5 
4 -5 4 -5 6 -5 8 -5 7 -5 6 -5 6 -4 5 -5 
3 -5 4 -5 5 -5 6 -5 6 -5 6 -4 6 -5 5 -5 
4 -5 3 -5 6 -4 7 -5 8 -5 9 -5 8 -4 5 -5 
4 -5 3 -5 3 -4 4 -5 5 -5 7 -4 8 -5 9 -5 
7 -4 7 -5 5 -5 4 -4 4 -5 5 -5 6 -4 6 -5 
5 -5 7 -4 9 -5 8 -4 10 -5 9 -5 8 -4 6 -5 
4 -4 4 -5 4 -4 5 -5 6 -4 7 -5 8 -4 8 -5 
8 -4 8 -5 7 -4 5 -5 4 -4 5 -5 4 -4 7 -5 
9 -4 10 -4 12 -5 11 -4 9 -5 6 -4 4 -4 4 -5 
5 -4 7 -5 7 -4 10 -4 10 -5 10 -4 11 -4 10 -5 
10 -4 9 -4 8 -5 6 -4 6 -4 4 -4 3 -5 5 -4 
5 -4 8 -5 8 -4 8 -4 7 -4 8 -5 6 -4 6 -4 
6 -4 10 -4 11 -5 10 -4 11 -4 9 -4 7 -4 8 -5 
9 -4 11 -4 13 -4 12 -4 11 -4 10 -4 8 -5 6 -4 
8 -4 9 -4 7 -4 10 -4 10 -4 10 -4 12 -4 14 -4 
13 -4 15 -4 13 -4 12 -5 12 -4 12 -4 12 -4 12 -4 
12 -4 11 -4 11 -4 12 -4 13 -4 15 -4 14 -4 17 -4 
17 -3 17 -4 16 -4 16 -4 15 -4 13 -4 12 -4 12 -4 
12 -4 12 -4 14 -4 13 -4 14 -4 18 -3 16 -4 18 -4 
20 -4 19 -4 19 -4 23 -4 24 -3 24 -4 25 -4 27 -4 
24 -4 21 -4 20 -3 17 -4 17 -4 16 -4 16 -4 19 -3 
18 -4 17 -4 21 -4 1267 3716 300 MP stroke
24 -3 34 -4 40 -4 52 -4 67 -3 86 -4 91 -4 123 -4 
750 3746 9 MP stroke
gr

16.6667 w
0 sg
0.1 sg
%%IncludeResource: font Helvetica-Bold
/Helvetica-Bold /WindowsLatin1Encoding 183.333 FMSR

1903 4362 mt 
(Log Stress [kPa]) s
 350 3181 mt  -90 rotate
(Bulk Density [kgm) s
90 rotate
%%IncludeResource: font Helvetica-Bold
/Helvetica-Bold /WindowsLatin1Encoding 141.667 FMSR

 259 1582 mt  -90 rotate
(-) s
90 rotate
 259 1500 mt  -90 rotate
(3) s
90 rotate
%%IncludeResource: font Helvetica-Bold
/Helvetica-Bold /WindowsLatin1Encoding 183.333 FMSR

 350 1422 mt  -90 rotate
( ]) s
90 rotate
gs 750 500 3751 3501 rc
/c8 { 1.000000 0.000000 0.000000 sr} bdef
c8
-85 1 -215 3 -163 4 -134 3 -116 3 -99 3 -91 3 -87 4 
-82 3 -74 3 -72 3 -69 4 -65 3 -60 3 -57 3 -55 3 
-52 4 -54 3 -54 3 -54 3 -52 4 -53 3 -49 3 -48 3 
-45 4 -45 3 -44 3 -45 3 -43 4 -42 3 -44 3 -41 3 
-39 4 -39 3 -38 3 -36 4 -34 3 -34 3 -34 3 -33 4 
-33 3 -33 3 -33 4 -32 3 -32 3 -32 4 -32 3 -31 3 
-31 3 -30 4 -27 3 -27 3 -25 4 -25 3 -26 3 -26 4 
-26 3 -26 4 -27 3 -25 3 -26 4 -27 3 -34 3 -123 4 
-95 3 -76 3 -63 -8 -49 -8 6 -9 5 -8 5 -9 5 -8 
5 -8 5 -8 4 -9 5 -8 6 -8 5 -8 5 -9 5 -8 
5 -8 5 -8 4 -8 5 -8 5 -9 5 -8 4 -8 5 -8 
5 -8 5 -8 5 -8 4 -8 5 -8 5 -8 5 -8 4 -7 
5 -8 5 -8 5 -8 6 -8 5 -8 5 -8 5 -7 6 -8 
5 -8 5 -8 4 -7 5 -8 5 -8 4 -7 4 -8 5 -8 
4 -7 5 -8 4 -7 5 -8 5 -8 5 -7 5 -8 6 -7 
5 -8 4 -7 5 -8 5 -7 5 -7 4 -8 5 -7 5 -8 
4 -7 4 -7 5 -8 4 -7 5 -7 5 -8 5 -7 4 -7 
4 -8 5 -7 5 -7 5 -7 4 -7 5 -8 4 -7 5 -7 
5 -7 5 -7 4 -7 5 -7 4 -7 4 -7 4 -7 5 -7 
5 -8 4 -7 5 -7 6 -6 4 -7 5 -7 6 -7 5 -7 
5 -7 5 -7 5 -7 5 -7 5 -7 5 -6 5 -7 5 -7 
5 -7 5 -7 5 -6 5 -7 5 -7 6 -7 6 -6 6 -7 
6 -7 5 -6 6 -7 5 -7 6 -6 5 -7 5 -7 4 -6 
5 -7 4 -6 5 -7 5 -6 5 -7 6 -6 6 -7 6 -6 
7 -7 6 -6 5 -7 5 -6 4 -7 4 -6 4 -7 5 -6 
5 -6 5 -7 5 -6 6 -6 5 -7 5 -6 6 -6 3 -7 
4 -6 5 -6 5 -6 4 -7 5 -6 4 -6 4 -6 5 -7 
5 -6 5 -6 6 -6 6 -6 5 -6 4 -7 5 -6 5 -6 
4 -6 4 -6 5 -6 5 -6 4 -6 5 -6 5 -6 4 -6 
5 -6 5 -6 5 -6 6 -6 7 -6 5 -6 6 -6 5 -6 
4 -6 5 -6 5 -6 5 -5 3 -6 5 -6 5 -6 5 -6 
5 -6 5 -6 4 -5 5 -6 4 -6 5 -6 5 -5 5 -6 
6 -6 6 -6 5 -5 5 -6 6 -6 6 -5 5 -6 6 -6 
6 -5 6 -6 7 -6 5 -5 6 -6 6 -6 5 -5 5 -6 
5 -5 7 -6 6 -5 6 -6 6 -6 4 -5 3 -6 4 -5 
5 -6 5 -5 7 -6 4 -5 6 -5 4 -6 4 -5 4 -6 
4 -5 4 -6 5 -5 4 -5 4 -6 6 -5 6 -5 5 -6 
5 -5 7 -6 5 -5 3251 2759 300 MP stroke
5 -5 5 -5 5 -6 4 -5 5 -5 6 -6 6 -5 7 -5 
7 -5 7 -6 6 -5 5 -5 6 -5 5 -5 5 -6 5 -5 
6 -5 4 -5 5 -5 4 -5 5 -5 5 -6 6 -5 6 -5 
7 -5 6 -5 6 -5 5 -5 6 -5 7 -5 7 -5 6 -5 
6 -5 5 -5 4 -5 5 -5 6 -5 6 -5 5 -5 6 -5 
5 -5 4 -5 5 -5 6 -5 5 -5 6 -5 7 -5 7 -5 
8 -5 7 -4 7 -5 5 -5 5 -5 6 -5 6 -5 7 -5 
7 -4 6 -5 7 -5 6 -5 7 -5 7 -4 6 -5 5 -5 
6 -5 4 -4 6 -5 9 -5 8 -5 6 -4 7 -5 6 -5 
3 -4 5 -5 7 -5 6 -4 8 -5 5 -5 5 -4 3 -5 
4 -5 4 -4 5 -5 9 -5 8 -4 8 -5 8 -4 7 -5 
7 -5 6 -4 7 -5 6 -4 6 -5 5 -4 5 -5 5 -4 
7 -5 7 -4 7 -5 7 -4 8 -5 8 -4 8 -5 10 -4 
11 -5 7 -4 3 -5 5 -4 5 -4 5 -5 8 -4 8 -5 
7 -4 7 -4 8 -5 7 -4 7 -5 8 -4 7 -4 6 -5 
5 -4 10 -4 8 -5 6 -4 8 -4 9 -5 8 -4 10 -4 
12 -4 11 -5 10 -4 9 -4 10 -5 8 -4 7 -4 5 -4 
7 -5 8 -4 8 -4 8 -4 11 -4 10 -5 9 -4 7 -4 
8 -4 10 -4 7 -5 8 -4 8 -4 9 -4 8 -4 11 -4 
11 -4 11 -5 12 -4 12 -4 8 -4 9 -4 7 -4 4 -4 
3 -4 7 -4 7 -4 8 -4 10 -4 9 -4 7 -5 7 -4 
7 -4 9 -4 11 -4 12 -4 13 -4 13 -4 15 -4 14 -4 
14 -4 14 -4 16 -4 14 -3 13 -4 12 -4 8 -4 8 -4 
7 -4 6 -4 10 -4 11 -4 14 -4 18 -4 23 -4 26 -4 
24 -3 23 -4 19 -4 14 -4 12 -4 11 -4 11 -4 12 -3 
15 -4 17 -4 21 -4 20 -4 20 -4 18 -3 16 -4 18 -4 
21 -4 21 -4 22 -3 24 -4 20 -4 18 -4 16 -3 14 -4 
14 -4 12 -4 16 -3 17 -4 21 -4 24 -4 32 -3 37 -4 
38 -4 47 -3 51 -4 54 -4 55 -3 74 -4 72 -4 62 -3 
750 3782 233 MP stroke
/c9 { 0.000000 0.000000 1.000000 sr} bdef
c9
-55 1 -117 1 -111 1 -106 1 -92 2 -77 1 -69 1 -65 1 
-63 1 -58 2 -58 1 -54 1 -47 1 -41 2 -42 1 -40 1 
-39 1 -41 1 -38 2 -36 1 -36 1 -34 1 -35 1 -36 2 
-35 1 -34 1 -32 1 -31 2 -30 1 -29 1 -28 1 -28 1 
-27 2 -26 1 -27 1 -27 1 -26 1 -27 2 -26 1 -25 1 
-26 1 -26 2 -25 1 -26 1 -25 1 -23 1 -22 2 -21 1 
-18 1 -17 1 -19 2 -18 1 -19 1 -20 1 -21 1 -20 2 
-22 1 -22 1 -22 1 -22 2 -22 1 -20 1 -19 1 -19 2 
-18 1 -17 1 -16 1 -17 1 -18 2 -18 1 -18 1 -18 1 
-17 2 -15 1 -15 1 -16 1 -15 2 -15 1 -15 1 -16 1 
-14 2 -15 1 -16 1 -15 1 -15 1 -16 2 -14 1 -14 1 
-14 1 -15 2 -15 1 -16 1 -16 1 -15 2 -14 1 -13 1 
-13 1 -13 2 -12 1 -12 1 -12 1 -11 2 -12 1 -12 1 
-13 1 -13 2 -14 1 -13 1 -14 1 -12 2 -13 1 -12 1 
-13 1 -12 2 -13 1 -13 1 -13 1 -11 2 -11 1 -11 1 
-11 1 -12 2 -12 1 -13 1 -14 1 -15 2 -21 1 -43 1 
-102 1 -82 2 -68 1 -54 -6 -36 -7 5 -6 4 -6 5 -6 
4 -7 5 -6 5 -6 5 -6 4 -6 5 -7 5 -6 4 -6 
5 -6 5 -6 5 -6 5 -7 5 -6 5 -6 5 -6 5 -6 
5 -6 5 -6 5 -6 4 -6 5 -6 5 -6 4 -6 5 -6 
5 -6 5 -6 5 -6 5 -6 5 -6 5 -6 5 -6 5 -6 
4 -6 5 -6 5 -5 5 -6 5 -6 5 -6 5 -6 5 -6 
5 -6 5 -5 5 -6 5 -6 5 -6 5 -6 5 -5 5 -6 
5 -6 4 -6 5 -5 5 -6 4 -6 5 -6 5 -5 4 -6 
4 -6 5 -5 4 -6 4 -6 4 -5 4 -6 5 -5 4 -6 
4 -6 5 -5 5 -6 5 -5 5 -6 5 -6 5 -5 4 -6 
5 -5 5 -6 5 -5 4 -6 4 -5 3 -6 4 -5 4 -6 
4 -5 4 -6 4 -5 5 -6 4 -5 4 -5 5 -6 3 -5 
4 -6 5 -5 4 -5 4 -6 5 -5 4 -5 6 -6 5 -5 
5 -5 5 -6 5 -5 4 -5 4 -6 5 -5 5 -5 5 -5 
5 -6 4 -5 5 -5 4 -5 4 -6 4 -5 5 -5 5 -5 
5 -5 6 -6 5 -5 5 -5 5 -5 5 -5 5 -5 5 -6 
5 -5 4 -5 4 -5 5 -5 4 -5 3 -5 4 -5 5 -5 
4 -5 4 -6 5 -5 5 -5 4 -5 5 -5 4 -5 5 -5 
5 -5 4 -5 4 -5 5 -5 4 -5 4 -5 5 -5 5 -5 
4 -4 5 -5 5 -5 5 -5 6 -5 5 -5 4 -5 5 -5 
4 -5 5 -5 5 -4 5 -5 4 -5 5 -5 4 -5 4 -5 
5 -5 5 -4 4 -5 3623 2380 300 MP stroke
5 -5 5 -5 5 -5 6 -4 4 -5 4 -5 4 -5 3 -4 
4 -5 4 -5 4 -5 4 -4 4 -5 5 -5 5 -4 5 -5 
5 -5 5 -5 5 -4 4 -5 6 -5 5 -4 4 -5 4 -4 
4 -5 4 -5 3 -4 5 -5 5 -5 4 -4 5 -5 4 -4 
3 -5 5 -5 3 -4 4 -5 4 -4 4 -5 3 -4 4 -5 
5 -4 4 -5 3 -4 3 -5 4 -4 4 -5 4 -4 5 -5 
5 -4 4 -5 6 -4 5 -5 4 -4 6 -5 5 -4 4 -4 
5 -5 5 -4 5 -5 5 -4 5 -4 5 -5 4 -4 4 -5 
4 -4 4 -4 4 -5 4 -4 6 -4 6 -5 6 -4 5 -4 
4 -5 4 -4 3 -4 4 -5 4 -4 4 -4 4 -5 5 -4 
5 -4 6 -4 6 -5 7 -4 5 -4 5 -4 5 -5 6 -4 
4 -4 4 -4 4 -5 6 -4 4 -4 6 -4 6 -4 4 -4 
3 -5 4 -4 4 -4 4 -4 4 -4 4 -4 3 -5 5 -4 
5 -4 6 -4 6 -4 4 -4 3 -4 3 -4 2 -5 4 -4 
6 -4 5 -4 7 -4 6 -4 6 -4 4 -4 4 -4 4 -4 
3 -4 4 -4 5 -4 5 -4 5 -4 5 -4 4 -4 3 -4 
4 -4 5 -4 5 -4 5 -4 4 -4 4 -4 4 -4 3 -4 
5 -4 5 -4 6 -4 5 -4 5 -4 4 -4 6 -4 6 -4 
5 -4 5 -3 5 -4 5 -4 5 -4 5 -4 6 -4 4 -4 
4 -4 3 -4 4 -3 4 -4 6 -4 5 -4 5 -4 6 -4 
5 -3 5 -4 5 -4 6 -4 5 -4 5 -3 4 -4 4 -4 
2 -4 5 -4 5 -3 6 -4 6 -4 7 -4 5 -3 6 -4 
6 -4 3 -4 3 -3 3 -4 1 -4 2 -4 4 -3 6 -4 
6 -4 7 -3 5 -4 5 -4 2 -4 2 -3 5 -4 8 -4 
7 -3 8 -4 7 -4 3 -3 1 -4 1 -3 1 -4 4 -4 
6 -3 5 -4 7 -4 8 -3 7 -4 5 -3 5 -4 4 -4 
5 -3 4 -4 6 -3 8 -4 8 -4 6 -3 5 -4 6 -3 
6 -4 5 -3 6 -4 6 -3 3 -4 3 -4 4 -3 6 -4 
8 -3 9 -4 11 -3 9 -4 8 -3 6 -4 6 -3 6 -4 
7 -3 9 -4 9 -3 9 -3 8 -4 7 -3 4 -4 4 -3 
6 -4 8 -3 7 -4 8 -3 6 -3 6 -4 3 -3 3 -4 
5 -3 5 -4 7 -3 7 -3 7 -4 6 -3 6 -4 6 -3 
8 -3 8 -4 10 -3 10 -3 12 -4 9 -3 11 -3 11 -4 
11 -3 6 -4 5 -3 3 -3 0 -4 1 -3 2 -3 4 -3 
5 -4 7 -3 6 -3 4 -4 5 -3 4 -3 5 -4 7 -3 
8 -3 10 -3 11 -4 9 -3 7 -3 7 -3 5 -4 5 -3 
9 -3 9 -3 9 -4 10 -3 7 -3 6 -3 9 -4 10 -3 
9 -3 9 -3 10 -3 2050 3553 300 MP stroke
8 -4 8 -3 10 -3 10 -3 10 -3 10 -4 10 -3 6 -3 
8 -3 10 -3 11 -3 11 -4 14 -3 15 -3 15 -3 13 -3 
7 -3 8 -3 6 -4 6 -3 3 -3 9 -3 9 -3 5 -3 
4 -3 8 -3 8 -4 7 -3 9 -3 12 -3 11 -3 11 -3 
15 -3 15 -3 14 -3 16 -3 18 -3 16 -3 17 -3 18 -4 
19 -3 17 -3 24 -3 27 -3 21 -3 18 -3 20 -3 14 -3 
9 -3 14 -3 14 -3 11 -3 11 -3 10 -3 10 -3 10 -3 
10 -3 14 -3 16 -3 26 -3 36 -3 48 -3 57 -3 60 -3 
56 -3 46 -3 39 -3 34 -3 46 -3 52 -2 58 -3 32 -2 
750 3773 73 MP stroke
gr

c9
0 sg
%%IncludeResource: font Helvetica
/Helvetica /WindowsLatin1Encoding 83.3333 FMSR

 732 4037 mt 
( ) s
4483  536 mt 
( ) s
8.33333 w
DO
SO
12.5 w
0.1 sg
 750  500 mt 4500  500 L
 750 4000 mt 4500 4000 L
4500 4000 mt 4500  500 L
 750 4000 mt  750  500 L
 750 4000 mt 4500 4000 L
 750 4000 mt  750  500 L
 750 4000 mt  750 3971 L
 750  500 mt  750  528 L
 750 4000 mt  750 3943 L
 750  500 mt  750  556 L
%%IncludeResource: font Helvetica
/Helvetica /WindowsLatin1Encoding 133.333 FMSR

 626 4188 mt 
(10) s
%%IncludeResource: font Helvetica
/Helvetica /WindowsLatin1Encoding 88.8889 FMSR

 774 4106 mt 
(-1) s
1116 4000 mt 1116 3971 L
1116  500 mt 1116  528 L
1331 4000 mt 1331 3971 L
1331  500 mt 1331  528 L
1483 4000 mt 1483 3971 L
1483  500 mt 1483  528 L
1601 4000 mt 1601 3971 L
1601  500 mt 1601  528 L
1697 4000 mt 1697 3971 L
1697  500 mt 1697  528 L
1779 4000 mt 1779 3971 L
1779  500 mt 1779  528 L
1849 4000 mt 1849 3971 L
1849  500 mt 1849  528 L
1912 4000 mt 1912 3971 L
1912  500 mt 1912  528 L
1967 4000 mt 1967 3971 L
1967  500 mt 1967  528 L
1967 4000 mt 1967 3943 L
1967  500 mt 1967  556 L
%%IncludeResource: font Helvetica
/Helvetica /WindowsLatin1Encoding 133.333 FMSR

1869 4188 mt 
(10) s
%%IncludeResource: font Helvetica
/Helvetica /WindowsLatin1Encoding 88.8889 FMSR

2017 4106 mt 
(0) s
2334 4000 mt 2334 3971 L
2334  500 mt 2334  528 L
2548 4000 mt 2548 3971 L
2548  500 mt 2548  528 L
2701 4000 mt 2701 3971 L
2701  500 mt 2701  528 L
2819 4000 mt 2819 3971 L
2819  500 mt 2819  528 L
2915 4000 mt 2915 3971 L
2915  500 mt 2915  528 L
2997 4000 mt 2997 3971 L
2997  500 mt 2997  528 L
3067 4000 mt 3067 3971 L
3067  500 mt 3067  528 L
3129 4000 mt 3129 3971 L
3129  500 mt 3129  528 L
3185 4000 mt 3185 3971 L
3185  500 mt 3185  528 L
3185 4000 mt 3185 3943 L
3185  500 mt 3185  556 L
%%IncludeResource: font Helvetica
/Helvetica /WindowsLatin1Encoding 133.333 FMSR

3087 4188 mt 
(10) s
%%IncludeResource: font Helvetica
/Helvetica /WindowsLatin1Encoding 88.8889 FMSR

3235 4106 mt 
(1) s
3552 4000 mt 3552 3971 L
3552  500 mt 3552  528 L
3766 4000 mt 3766 3971 L
3766  500 mt 3766  528 L
3918 4000 mt 3918 3971 L
3918  500 mt 3918  528 L
4036 4000 mt 4036 3971 L
4036  500 mt 4036  528 L
4133 4000 mt 4133 3971 L
4133  500 mt 4133  528 L
4214 4000 mt 4214 3971 L
4214  500 mt 4214  528 L
4285 4000 mt 4285 3971 L
4285  500 mt 4285  528 L
4347 4000 mt 4347 3971 L
4347  500 mt 4347  528 L
4403 4000 mt 4403 3971 L
4403  500 mt 4403  528 L
4403 4000 mt 4403 3943 L
4403  500 mt 4403  556 L
%%IncludeResource: font Helvetica
/Helvetica /WindowsLatin1Encoding 133.333 FMSR

4305 4188 mt 
(10) s
%%IncludeResource: font Helvetica
/Helvetica /WindowsLatin1Encoding 88.8889 FMSR

4453 4106 mt 
(2) s
 750 4000 mt  806 4000 L
4500 4000 mt 4443 4000 L
%%IncludeResource: font Helvetica
/Helvetica /WindowsLatin1Encoding 133.333 FMSR

 430 4049 mt 
(1500) s
 750 3681 mt  806 3681 L
4500 3681 mt 4443 3681 L
 430 3730 mt 
(1600) s
 750 3363 mt  806 3363 L
4500 3363 mt 4443 3363 L
 430 3412 mt 
(1700) s
 750 3045 mt  806 3045 L
4500 3045 mt 4443 3045 L
 430 3094 mt 
(1800) s
 750 2727 mt  806 2727 L
4500 2727 mt 4443 2727 L
 430 2776 mt 
(1900) s
 750 2409 mt  806 2409 L
4500 2409 mt 4443 2409 L
 430 2458 mt 
(2000) s
 750 2090 mt  806 2090 L
4500 2090 mt 4443 2090 L
 430 2139 mt 
(2100) s
 750 1772 mt  806 1772 L
4500 1772 mt 4443 1772 L
 430 1821 mt 
(2200) s
 750 1454 mt  806 1454 L
4500 1454 mt 4443 1454 L
 430 1503 mt 
(2300) s
 750 1136 mt  806 1136 L
4500 1136 mt 4443 1136 L
 430 1185 mt 
(2400) s
 750  818 mt  806  818 L
4500  818 mt 4443  818 L
 430  867 mt 
(2500) s
 750  500 mt  806  500 L
4500  500 mt 4443  500 L
 430  549 mt 
(2600) s
 750  500 mt 4500  500 L
 750 4000 mt 4500 4000 L
4500 4000 mt 4500  500 L
 750 4000 mt  750  500 L
0 sg
%%IncludeResource: font Helvetica-Bold
/Helvetica-Bold /WindowsLatin1Encoding 125 FMSR

1300 2483 mt 
(G\(K) s
%%IncludeResource: font Helvetica-Bold
/Helvetica-Bold /WindowsLatin1Encoding 100 FMSR

1529 2545 mt 
(1) s
%%IncludeResource: font Helvetica-Bold
/Helvetica-Bold /WindowsLatin1Encoding 125 FMSR

1584 2483 mt 
(\) = 2.5E06 Pa) s
gs 975 2339 1426 698 rc
16.6667 w
250 0 1025 2464 2 MP stroke
gr

16.6667 w
1300 2706 mt 
(G\(K) s
%%IncludeResource: font Helvetica-Bold
/Helvetica-Bold /WindowsLatin1Encoding 100 FMSR

1529 2768 mt 
(1) s
%%IncludeResource: font Helvetica-Bold
/Helvetica-Bold /WindowsLatin1Encoding 125 FMSR

1584 2706 mt 
(\) = 5E06 Pa) s
gs 975 2339 1426 698 rc
c8
250 0 1025 2687 2 MP stroke
gr

c8
0 sg
1300 2929 mt 
(G\(K) s
%%IncludeResource: font Helvetica-Bold
/Helvetica-Bold /WindowsLatin1Encoding 100 FMSR

1529 2991 mt 
(1) s
%%IncludeResource: font Helvetica-Bold
/Helvetica-Bold /WindowsLatin1Encoding 125 FMSR

1584 2929 mt 
(\) = 7.5E06 Pa) s
gs 975 2339 1426 698 rc
c9
250 0 1025 2910 2 MP stroke
12.5 w
gr

12.5 w
c9

end %%Color Dict

eplot
%%EndObject

epage
end

showpage

%%Trailer
%%EOF
