%!PS-Adobe-3.0 EPSF-3.0
%%Creator: MATLAB, The MathWorks, Inc. Version 8.1.0.604 (R2013a). Operating System: Microsoft Windows 7.
%%Title: .\K1_Confined_StressStain.eps
%%CreationDate: 08/17/2013  15:45:17
%%DocumentNeededFonts: Helvetica-Bold
%%+ Helvetica
%%DocumentProcessColors: Cyan Magenta Yellow Black
%%LanguageLevel: 2
%%Pages: 1
%%BoundingBox:    45    93   564   572
%%EndComments

%%BeginProlog
% MathWorks dictionary
/MathWorks 160 dict begin
% definition operators
/bdef {bind def} bind def
/ldef {load def} bind def
/xdef {exch def} bdef
/xstore {exch store} bdef
% operator abbreviations
/c  /clip ldef
/cc /concat ldef
/cp /closepath ldef
/gr /grestore ldef
/gs /gsave ldef
/mt /moveto ldef
/np /newpath ldef
/cm /currentmatrix ldef
/sm /setmatrix ldef
/rm /rmoveto ldef
/rl /rlineto ldef
/s {show newpath} bdef
/sc {setcmykcolor} bdef
/sr /setrgbcolor ldef
/sg /setgray ldef
/w /setlinewidth ldef
/j /setlinejoin ldef
/cap /setlinecap ldef
/rc {rectclip} bdef
/rf {rectfill} bdef
% page state control
/pgsv () def
/bpage {/pgsv save def} bdef
/epage {pgsv restore} bdef
/bplot /gsave ldef
/eplot {stroke grestore} bdef
% orientation switch
/portraitMode 0 def /landscapeMode 1 def /rotateMode 2 def
% coordinate system mappings
/dpi2point 0 def
% font control
/FontSize 0 def
/FMS {/FontSize xstore findfont [FontSize 0 0 FontSize neg 0 0]
  makefont setfont} bdef
/ISOLatin1Encoding where {pop /WindowsLatin1Encoding 256 array bdef
ISOLatin1Encoding WindowsLatin1Encoding copy pop
/.notdef/.notdef/quotesinglbase/florin/quotedblbase/ellipsis/dagger
/daggerdbl/circumflex/perthousand/Scaron/guilsinglleft/OE/.notdef/.notdef
/.notdef/.notdef/quoteleft/quoteright/quotedblleft/quotedblright/bullet
/endash/emdash/tilde/trademark/scaron/guilsinglright/oe/.notdef/.notdef
/Ydieresis WindowsLatin1Encoding 128 32 getinterval astore pop}
{/WindowsLatin1Encoding StandardEncoding bdef} ifelse
/reencode {exch dup where {pop load} {pop StandardEncoding} ifelse
  exch dup 3 1 roll findfont dup length dict begin
  { 1 index /FID ne {def}{pop pop} ifelse } forall
  /Encoding exch def currentdict end definefont pop} bdef
/isroman {findfont /CharStrings get /Agrave known} bdef
/FMSR {3 1 roll 1 index dup isroman {reencode} {pop pop} ifelse
  exch FMS} bdef
/csm {1 dpi2point div -1 dpi2point div scale neg translate
 dup landscapeMode eq {pop -90 rotate}
  {rotateMode eq {90 rotate} if} ifelse} bdef
% line types: solid, dotted, dashed, dotdash
/SO { [] 0 setdash } bdef
/DO { [.5 dpi2point mul 4 dpi2point mul] 0 setdash } bdef
/DA { [6 dpi2point mul] 0 setdash } bdef
/DD { [.5 dpi2point mul 4 dpi2point mul 6 dpi2point mul 4
  dpi2point mul] 0 setdash } bdef
% macros for lines and objects
/L {lineto stroke} bdef
/MP {3 1 roll moveto 1 sub {rlineto} repeat} bdef
/AP {{rlineto} repeat} bdef
/PDlw -1 def
/W {/PDlw currentlinewidth def setlinewidth} def
/PP {closepath eofill} bdef
/DP {closepath stroke} bdef
/MR {4 -2 roll moveto dup  0 exch rlineto exch 0 rlineto
  neg 0 exch rlineto closepath} bdef
/FR {MR stroke} bdef
/PR {MR fill} bdef
/L1i {{currentfile picstr readhexstring pop} image} bdef
/tMatrix matrix def
/MakeOval {newpath tMatrix currentmatrix pop translate scale
0 0 1 0 360 arc tMatrix setmatrix} bdef
/FO {MakeOval stroke} bdef
/PO {MakeOval fill} bdef
/PD {currentlinewidth 2 div 0 360 arc fill
   PDlw -1 eq not {PDlw w /PDlw -1 def} if} def
/FA {newpath tMatrix currentmatrix pop translate scale
  0 0 1 5 -2 roll arc tMatrix setmatrix stroke} bdef
/PA {newpath tMatrix currentmatrix pop	translate 0 0 moveto scale
  0 0 1 5 -2 roll arc closepath tMatrix setmatrix fill} bdef
/FAn {newpath tMatrix currentmatrix pop translate scale
  0 0 1 5 -2 roll arcn tMatrix setmatrix stroke} bdef
/PAn {newpath tMatrix currentmatrix pop translate 0 0 moveto scale
  0 0 1 5 -2 roll arcn closepath tMatrix setmatrix fill} bdef
/vradius 0 def /hradius 0 def /lry 0 def
/lrx 0 def /uly 0 def /ulx 0 def /rad 0 def
/MRR {/vradius xdef /hradius xdef /lry xdef /lrx xdef /uly xdef
  /ulx xdef newpath tMatrix currentmatrix pop ulx hradius add uly
  vradius add translate hradius vradius scale 0 0 1 180 270 arc 
  tMatrix setmatrix lrx hradius sub uly vradius add translate
  hradius vradius scale 0 0 1 270 360 arc tMatrix setmatrix
  lrx hradius sub lry vradius sub translate hradius vradius scale
  0 0 1 0 90 arc tMatrix setmatrix ulx hradius add lry vradius sub
  translate hradius vradius scale 0 0 1 90 180 arc tMatrix setmatrix
  closepath} bdef
/FRR {MRR stroke } bdef
/PRR {MRR fill } bdef
/MlrRR {/lry xdef /lrx xdef /uly xdef /ulx xdef /rad lry uly sub 2 div def
  newpath tMatrix currentmatrix pop ulx rad add uly rad add translate
  rad rad scale 0 0 1 90 270 arc tMatrix setmatrix lrx rad sub lry rad
  sub translate rad rad scale 0 0 1 270 90 arc tMatrix setmatrix
  closepath} bdef
/FlrRR {MlrRR stroke } bdef
/PlrRR {MlrRR fill } bdef
/MtbRR {/lry xdef /lrx xdef /uly xdef /ulx xdef /rad lrx ulx sub 2 div def
  newpath tMatrix currentmatrix pop ulx rad add uly rad add translate
  rad rad scale 0 0 1 180 360 arc tMatrix setmatrix lrx rad sub lry rad
  sub translate rad rad scale 0 0 1 0 180 arc tMatrix setmatrix
  closepath} bdef
/FtbRR {MtbRR stroke } bdef
/PtbRR {MtbRR fill } bdef
/stri 6 array def /dtri 6 array def
/smat 6 array def /dmat 6 array def
/tmat1 6 array def /tmat2 6 array def /dif 3 array def
/asub {/ind2 exch def /ind1 exch def dup dup
  ind1 get exch ind2 get sub exch } bdef
/tri_to_matrix {
  2 0 asub 3 1 asub 4 0 asub 5 1 asub
  dup 0 get exch 1 get 7 -1 roll astore } bdef
/compute_transform {
  dmat dtri tri_to_matrix tmat1 invertmatrix 
  smat stri tri_to_matrix tmat2 concatmatrix } bdef
/ds {stri astore pop} bdef
/dt {dtri astore pop} bdef
/db {2 copy /cols xdef /rows xdef mul dup 3 mul string
  currentfile 
  3 index 0 eq {/ASCIIHexDecode filter}
  {/ASCII85Decode filter 3 index 2 eq {/RunLengthDecode filter} if }
  ifelse exch readstring pop
  dup 0 3 index getinterval /rbmap xdef
  dup 2 index dup getinterval /gbmap xdef
  1 index dup 2 mul exch getinterval /bbmap xdef pop pop}bdef
/it {gs np dtri aload pop moveto lineto lineto cp c
  cols rows 8 compute_transform 
  rbmap gbmap bbmap true 3 colorimage gr}bdef
/il {newpath moveto lineto stroke}bdef
currentdict end def
%%EndProlog

%%BeginSetup
MathWorks begin

0 cap

end
%%EndSetup

%%Page: 1 1
%%BeginPageSetup
%%PageBoundingBox:    45    93   564   572
MathWorks begin
bpage
%%EndPageSetup

%%BeginObject: obj1
bplot

/dpi2point 8.33333 def
portraitMode 0150 5158 csm

  231   390  4325  3990 rc
84 dict begin %Colortable dictionary
/c0 { 0.000000 0.000000 0.000000 sr} bdef
/c1 { 1.000000 1.000000 1.000000 sr} bdef
/c2 { 0.900000 0.000000 0.000000 sr} bdef
/c3 { 0.000000 0.820000 0.000000 sr} bdef
/c4 { 0.000000 0.000000 0.800000 sr} bdef
/c5 { 0.910000 0.820000 0.320000 sr} bdef
/c6 { 1.000000 0.260000 0.820000 sr} bdef
/c7 { 0.000000 0.820000 0.820000 sr} bdef
c0
1 j
1 sg
   0    0 5001 5001 rf
12.5 w
0 3500 3750 0 0 -3500 750 4000 4 MP
PP
-3750 0 0 3500 3750 0 0 -3500 750 4000 5 MP stroke
0.1 sg
%%IncludeResource: font Helvetica-Bold
/Helvetica-Bold /WindowsLatin1Encoding 183.333 FMSR

2010 4322 mt 
(Vertical Strain) s
 424 3132 mt  -90 rotate
(Vertical Stress [kPa]) s
90 rotate
gs 750 500 3751 3501 rc
16.6667 w
0 sg
-2 1 -3 0 -2 0 -2 0 -3 0 -2 0 -3 1 -2 0 
-3 1 -2 1 -3 1 -2 2 -2 1 -3 1 -2 2 -3 2 
-2 2 -3 2 -2 1 -3 2 -2 2 -3 3 -2 2 -2 3 
-3 2 -2 2 -3 3 -2 3 -3 3 -2 2 -3 2 -2 4 
-2 6 -3 4 -2 3 -3 5 -2 3 -3 5 -2 6 -3 5 
-2 5 -3 5 -2 5 -2 5 -3 7 -2 6 -3 7 -2 6 
-3 8 -2 9 -3 10 -2 7 -3 9 -2 9 -2 9 -3 9 
-2 11 -3 9 -2 10 -3 12 -2 15 -3 13 -2 16 -2 15 
-3 13 -2 15 -3 13 -2 14 -3 16 -2 18 -3 20 -2 18 
-3 20 -2 21 -2 25 -3 23 -2 19 -3 20 -2 22 -3 23 
-2 26 -3 30 -2 31 -2 28 -3 31 -2 30 -3 38 -2 34 
-3 33 -2 38 -3 37 -2 37 -3 38 -2 40 -2 47 -3 46 
-2 51 -3 50 -2 59 -3 69 -2 78 -3 100 -2 316 -3 1295 
7 -21 6 -24 6 -24 6 -27 6 -21 6 -26 6 -22 7 -25 
6 -22 6 -18 6 -14 6 -30 6 -18 6 -23 6 -26 7 -18 
6 -22 6 -26 6 -17 6 -19 6 -27 6 -16 6 -24 7 -22 
6 -16 6 -21 6 -24 6 -17 6 -26 6 -27 6 -19 7 -9 
6 -18 6 -21 6 -11 6 -24 6 -14 6 -15 6 -23 7 -13 
6 -16 6 -18 6 -18 6 -21 6 -10 6 -18 6 -18 7 -20 
6 -11 6 -15 6 -17 6 -13 6 -19 6 -17 6 -16 7 -17 
6 -17 6 -20 6 -9 6 -22 6 -9 6 -17 7 -16 6 -14 
6 -19 6 -18 6 -11 6 -7 6 -8 6 -20 7 -9 6 -16 
6 -12 6 -21 6 -13 6 -11 6 -12 6 -13 7 -15 6 -15 
6 -18 6 -3 6 -33 6 6 6 -20 6 -7 7 -14 6 -13 
6 -13 6 -11 6 -11 6 -15 6 -14 6 -15 7 -13 6 -12 
6 -8 6 -10 6 -12 6 -9 6 -14 6 -11 7 -7 6 -13 
6 -14 6 -6 6 -16 6 -10 6 -8 6 -10 7 -16 6 -12 
6 -13 6 -11 6 -9 6 -13 6 -13 7 -5 6 -18 6 -7 
6 -4 6 -13 6 -10 6 -10 6 -12 7 -9 6 -7 6 -10 
6 -11 6 -11 6 -12 6 -10 6 -11 7 -2 6 -13 6 -10 
6 -10 6 -11 6 -2 6 -12 6 -13 7 -6 6 -8 6 -7 
6 -14 6 -10 6 -6 6 -7 6 -9 7 -12 6 -11 6 -2 
6 -8 6 -14 6 -7 6 0 6 -7 7 -12 6 -5 6 -11 
6 -12 6 0 6 -6 6 -10 7 -8 6 -4 6 -11 6 -10 
6 0 6 -8 6 -4 6 -7 7 -9 6 -7 6 0 6 -4 
6 -16 6 -5 6 -1 6 -12 7 -3 6 -1 6 -12 6 -10 
6 -7 6 -1 6 -8 6 -8 7 -1 6 -6 6 -7 6 -9 
6 -8 6 -2 6 -9 2729 3307 300 MP stroke
6 -4 7 -7 6 -1 6 -7 6 -4 6 -6 6 -10 6 -2 
6 -8 7 -5 6 -3 6 -5 6 -9 6 -6 6 -4 6 -4 
6 -4 7 -6 6 -3 6 -5 6 -1 6 -8 6 -8 6 -4 
7 0 6 -9 6 -5 6 -5 6 -5 6 0 6 -8 6 -6 
7 1 6 -7 6 -5 6 -3 6 -7 6 -2 6 -4 6 -7 
7 -8 6 3 6 -7 6 -2 6 -2 6 -3 6 -6 6 -5 
7 -5 6 -2 6 -2 6 -8 6 -4 6 -4 6 -3 6 -3 
7 -2 6 -8 6 -4 6 -5 6 -2 6 -4 6 -4 6 -6 
7 -3 6 -1 6 -3 6 -5 6 -5 6 -2 6 -2 7 -1 
6 -5 6 -6 6 -2 6 -2 6 -1 6 -3 6 -2 7 -5 
6 -4 6 -5 6 -1 6 -4 6 -3 6 -3 6 -3 7 -4 
6 -4 6 -5 6 -1 6 -2 6 -2 6 -2 6 -3 7 -4 
6 -2 6 0 6 -6 6 -2 6 -3 6 -2 6 -3 7 -2 
6 -4 6 -3 6 -4 6 -2 6 -2 6 -3 6 -2 7 -3 
6 -4 6 -2 6 1 6 -2 6 -4 6 -4 6 -3 7 -2 
6 -2 6 -3 6 -2 6 -2 6 -2 6 -3 7 -2 6 -2 
6 -3 6 -1 6 -2 6 0 6 -5 6 -2 7 -3 6 -2 
6 1 6 -2 6 -2 6 -2 6 -3 6 -2 7 -5 6 -2 
6 1 6 -2 6 -2 6 -1 6 -2 6 -1 7 -4 6 -2 
6 -1 6 -1 6 0 6 -2 6 -3 6 -3 7 -3 6 -2 
6 -3 6 0 6 0 6 0 6 -2 6 -2 7 -1 6 -2 
6 -4 6 -2 6 -2 6 -1 6 0 7 -2 6 -1 6 -1 
6 -2 6 -2 6 -1 6 -2 6 -2 7 -3 6 -2 6 -3 
6 0 6 -1 6 0 6 -1 6 -2 7 -1 6 -1 6 -1 
6 -3 6 -2 6 -2 6 0 6 -2 7 0 6 -1 6 0 
6 -2 6 -1 6 -2 6 -3 6 -2 7 -2 6 -1 6 0 
6 0 6 -1 6 -2 6 -1 6 -1 7 -1 6 -3 6 -1 
6 -2 6 -1 6 -1 6 -2 6 -1 7 -1 6 1 6 -1 
6 0 6 -1 6 -2 6 0 7 -2 6 0 6 -2 6 0 
6 -1 6 -1 6 0 6 -1 7 -3 6 -1 6 0 6 -1 
6 0 6 -1 6 -2 6 -1 7 -1 6 -2 6 0 6 -1 
6 -1 6 0 6 -1 6 -1 7 -1 6 0 6 -1 6 -1 
6 -1 6 -1 6 -1 6 -1 7 -1 6 -1 6 0 6 -1 
6 -1 6 -1 6 0 6 -1 7 -1 6 0 6 -1 6 -1 
6 -1 6 -1 6 -1 7 -1 6 0 6 -1 6 -1 6 0 
6 0 6 -1 6 -1 7 0 6 -1 6 0 6 -1 6 0 
6 -1 6 -1 6 0 7 -1 6 0 6 -1 6 -1 6 -1 
6 0 6 -1 6 0 897 3988 300 MP stroke
7 -1 6 0 6 0 6 0 6 -1 6 0 6 0 6 -1 
7 0 6 0 6 -1 6 0 6 -1 6 -1 6 -1 6 -1 
7 0 6 -1 6 -1 6 0 6 0 6 -1 6 0 6 0 
750 3999 25 MP stroke
/c8 { 1.000000 0.000000 0.000000 sr} bdef
c8
-2 1 -3 0 -2 1 -3 2 -2 2 -2 2 -3 3 -2 1 
-3 3 -2 3 -3 3 -2 3 -2 4 -3 4 -2 4 -3 5 
-2 6 -3 5 -2 5 -2 5 -3 7 -2 7 -3 9 -2 9 
-3 9 -2 11 -2 12 -3 10 -2 11 -3 12 -2 15 -3 16 
-2 17 -2 14 -3 18 -2 23 -3 19 -2 18 -3 21 -2 24 
-2 23 -3 21 -2 24 -3 29 -2 29 -3 30 -2 31 -2 35 
-3 30 -2 39 -3 43 -2 39 -3 38 -2 49 -2 37 -3 40 
-2 39 -3 44 -2 50 -3 59 -2 51 -3 53 -2 61 -2 66 
-3 62 -2 68 -3 87 -2 171 -3 1523 7 -36 6 -27 6 -35 
6 -32 6 -24 6 -32 6 -27 6 -25 6 -36 6 -18 6 -28 
6 -30 6 -33 7 -24 6 -24 6 -24 6 -29 6 -24 6 -23 
6 -22 6 -22 6 -29 6 -19 6 -25 6 -28 6 -23 6 -19 
7 -18 6 -29 6 -18 6 -24 6 -23 6 -20 6 -24 6 -24 
6 -24 6 -23 6 -23 6 -18 6 -22 7 -24 6 -18 6 -11 
6 -28 6 -14 6 -13 6 -21 6 -18 6 -18 6 -17 6 -18 
6 -22 6 -16 6 -28 7 -8 6 -21 6 -18 6 -15 6 -18 
6 -20 6 -9 6 -20 6 -21 6 -3 6 -15 6 -19 6 -14 
7 -26 6 -8 6 -12 6 -17 6 -14 6 -12 6 -16 6 -21 
6 -9 6 -13 6 -12 6 -13 6 -24 6 -5 7 -19 6 -8 
6 -13 6 -11 6 -9 6 -13 6 -22 6 -8 6 -13 6 -11 
6 -17 6 -15 6 -8 6 -20 7 -6 6 -17 6 -12 6 -17 
6 -8 6 -10 6 -14 6 -11 6 -12 6 -10 6 -14 6 -11 
6 -15 7 -12 6 -13 6 -14 6 -12 6 -13 6 -10 6 -8 
6 -15 6 -20 6 6 6 -10 6 -11 6 -13 6 -8 7 -8 
6 -11 6 -13 6 -13 6 -14 6 -10 6 -10 6 -12 6 -1 
6 -8 6 -9 6 -7 6 -9 7 -7 6 -11 6 -9 6 -12 
6 -6 6 -5 6 -9 6 -14 6 3 6 -7 6 -13 6 -4 
6 -10 6 -6 7 -3 6 -7 6 -13 6 -7 6 -6 6 -9 
6 -7 6 -8 6 -2 6 -8 6 -10 6 0 6 -8 7 -10 
6 -5 6 -4 6 -6 6 -9 6 -2 6 -9 6 -7 6 -9 
6 -10 6 -5 6 -4 6 -6 6 -7 7 -3 6 -7 6 -7 
6 -2 6 -4 6 -8 6 -7 6 -4 6 -5 6 -7 6 0 
6 -7 6 -7 7 -5 6 -7 6 -1 6 -9 6 -7 6 -5 
6 -2 6 -6 6 -8 6 -7 6 -4 6 -5 6 -5 6 -8 
7 -4 6 -5 6 -3 6 -2 6 -6 6 -9 6 -10 6 2 
6 -3 6 -5 6 -1 6 -6 6 -3 7 -5 6 -4 6 -7 
6 1 6 -6 6 0 6 -5 6 -3 6 -2 6 -4 6 -4 
6 -3 6 -3 6 -8 2232 3630 300 MP stroke
7 -2 6 -3 6 -3 6 -7 6 -2 6 -2 6 -2 6 -4 
6 -3 6 -4 6 -5 6 -6 6 -4 7 -1 6 -5 6 -3 
6 -3 6 -5 6 -1 6 -3 6 -3 6 -3 6 -1 6 -4 
6 -1 6 -5 6 -2 7 -4 6 -4 6 -4 6 -3 6 0 
6 -3 6 -5 6 -6 6 -2 6 0 6 -1 6 -3 6 -2 
6 -5 7 -2 6 -2 6 -1 6 -3 6 -3 6 -2 6 -2 
6 -2 6 -2 6 -4 6 -5 6 -3 6 -1 7 -2 6 -2 
6 -2 6 -3 6 -1 6 -4 6 -4 6 -1 6 -1 6 -3 
6 -3 6 -3 6 -1 6 -1 7 -1 6 -3 6 -2 6 -2 
6 -6 6 0 6 0 6 -2 6 -2 6 -2 6 -1 6 -4 
6 0 7 -3 6 0 6 1 6 -2 6 -2 6 -3 6 -2 
6 -3 6 -2 6 -1 6 -1 6 -2 6 -2 6 -1 7 -2 
6 -1 6 -1 6 -1 6 -1 6 -2 6 -4 6 -1 6 0 
6 -1 6 -2 6 -4 6 -1 7 -3 6 -1 6 1 6 1 
6 -3 6 -3 6 -1 6 -1 6 0 6 -2 6 -2 6 -2 
6 -1 6 1 7 -2 6 -2 6 -1 6 -1 6 -2 6 -1 
6 0 6 -2 6 -2 6 -1 6 -2 6 -2 6 -2 7 0 
6 -1 6 -2 6 -1 6 0 6 0 6 -2 6 -1 6 -2 
6 0 6 -1 6 -2 6 -1 6 0 7 -1 6 -1 6 -1 
6 -1 6 -1 6 -1 6 -1 6 -2 6 0 6 -1 6 -2 
6 0 6 -1 7 0 6 0 6 0 6 -1 6 -1 6 -1 
6 -1 6 0 6 -1 6 0 6 -1 6 -1 6 -1 6 -1 
7 -1 6 -1 6 0 6 -2 6 -1 6 0 6 -1 6 -1 
6 -1 6 -1 6 1 6 0 6 -1 7 -1 6 0 6 -1 
6 0 6 -2 6 -1 6 -2 6 -1 6 0 6 0 6 -1 
6 0 6 -1 6 0 7 0 6 -1 6 -1 6 -1 6 0 
6 0 6 -1 6 -1 6 0 6 -1 6 0 6 -1 6 0 
7 0 6 -1 6 0 6 0 6 -1 6 0 6 0 6 0 
6 -1 6 0 6 -1 6 -1 6 0 6 0 7 -1 6 -1 
6 0 6 -1 6 -1 6 0 6 0 6 -1 6 0 6 -1 
6 0 6 0 6 0 6 0 750 3999 245 MP stroke
/c9 { 0.000000 0.000000 1.000000 sr} bdef
c9
-1 1 -1 0 -1 0 -1 0 -1 0 -1 1 -1 1 -1 0 
-1 1 -1 1 -1 1 -1 1 -1 1 -1 2 -1 1 -1 1 
-1 1 -1 2 -1 2 -1 2 -1 2 -1 1 -1 2 -1 1 
-1 3 -1 2 -1 2 -1 2 -1 2 -1 3 -1 3 -1 2 
-1 3 -1 4 -1 3 -1 3 -1 3 0 3 -1 5 -1 3 
-1 3 -1 4 -1 4 -1 4 -1 5 -1 5 -1 4 -1 5 
-1 5 -1 6 -1 6 -1 6 -1 5 -1 8 -1 6 -1 5 
-1 5 -1 5 -1 5 -1 6 -1 7 -1 7 -1 8 -1 7 
-1 8 -1 8 -1 12 -1 9 -1 10 -1 9 -1 10 -1 10 
-1 10 -1 9 -1 8 -1 9 -1 11 -1 13 -1 12 -1 12 
0 11 -1 12 -1 11 -1 10 -1 12 -1 14 -1 10 -1 14 
-1 14 -1 13 -1 12 -1 17 -1 16 -1 14 -1 15 -1 17 
-1 12 -1 16 -1 16 -1 26 -1 17 -1 17 -1 20 -1 19 
-1 17 -1 16 -1 17 -1 18 -1 19 -1 16 -1 20 -1 17 
-1 20 -1 24 -1 23 -1 27 -1 24 -1 23 -1 23 -1 24 
-1 24 -1 26 0 28 -1 30 -1 27 -1 27 -1 24 -1 20 
-1 27 -1 31 -1 34 -1 32 -1 29 -1 39 -1 48 -1 57 
-1 115 -1 382 -1 1141 5 -31 5 -21 5 -37 4 -20 5 -33 
5 -19 5 -35 5 -18 5 -29 5 -26 5 -30 4 -20 5 -26 
5 -29 5 -22 5 -26 5 -30 5 -19 5 -36 5 -18 4 -26 
5 -32 5 -17 5 -22 5 -22 5 -26 5 -22 5 -23 4 -16 
5 -26 5 -23 5 -19 5 -28 5 -21 5 -22 5 -19 5 -29 
4 -12 5 -21 5 -22 5 -23 5 -20 5 -17 5 -21 5 -21 
4 -17 5 -25 5 -19 5 -15 5 -24 5 -14 5 -28 5 -15 
4 -11 5 -21 5 -12 5 -18 5 -23 5 -11 5 -17 5 -24 
5 -3 4 -18 5 -14 5 -12 5 -21 5 -6 5 -18 5 -10 
5 -18 4 -15 5 -16 5 -16 5 -11 5 -20 5 -21 5 -1 
5 -20 5 -8 4 -24 5 -11 5 -10 5 -6 5 -11 5 -11 
5 -12 5 -13 4 -10 5 -12 5 -18 5 -7 5 -7 5 -15 
5 -16 5 -2 5 -14 4 -12 5 -11 5 -12 5 -12 5 -11 
5 -19 5 -11 5 -5 4 -16 5 -11 5 -6 5 -14 5 -10 
5 -14 5 -12 5 -8 5 -8 4 -9 5 -9 5 -11 5 -11 
5 -12 5 -10 5 -12 5 -11 4 -13 5 -8 5 -4 5 -16 
5 -8 5 -11 5 -12 5 3 5 -7 4 -21 5 -2 5 -3 
5 -7 5 -8 5 -20 5 -2 5 -4 4 -10 5 -7 5 -16 
5 -2 5 -8 5 -8 5 -4 5 -12 5 -5 4 -9 5 -6 
5 -8 5 -7 5 -8 5 -7 5 -12 5 -8 4 -5 5 -7 
5 -4 5 -11 5 -8 2629 3222 300 MP stroke
5 -6 5 -4 5 -6 5 -8 4 -12 5 0 5 -5 5 -9 
5 -5 5 -12 5 -3 5 -6 4 -7 5 -8 5 -2 5 -4 
5 -5 5 -3 5 -8 5 -4 4 -6 5 -4 5 -8 5 -9 
5 -4 5 -4 5 -6 5 -4 5 -10 4 -2 5 -9 5 -5 
5 0 5 -4 5 -6 5 -5 5 -4 4 -7 5 -4 5 -5 
5 -3 5 -1 5 -5 5 -11 5 2 5 -2 4 -5 5 -5 
5 -6 5 -1 5 -7 5 -3 5 2 5 -4 4 -8 5 -3 
5 -6 5 -6 5 -1 5 -3 5 -9 5 -3 5 -4 4 -5 
5 -3 5 -1 5 -8 5 -6 5 -2 5 -3 5 -4 4 -6 
5 -2 5 0 5 -4 5 -4 5 -5 5 -5 5 -3 5 -7 
4 -2 5 0 5 -4 5 -3 5 -3 5 -3 5 -2 5 -4 
4 -2 5 -6 5 -5 5 -3 5 -3 5 -6 5 -1 5 -3 
5 -5 4 -5 5 3 5 -2 5 -6 5 -8 5 0 5 -2 
5 -2 4 -2 5 -3 5 -3 5 -2 5 -2 5 -2 5 -2 
5 -2 5 -5 4 -3 5 -4 5 -2 5 2 5 -1 5 -2 
5 -4 5 -5 4 -4 5 0 5 -5 5 -2 5 -2 5 -1 
5 -2 5 -1 4 -2 5 -4 5 -3 5 -2 5 -1 5 -2 
5 -1 5 -2 5 -2 4 -4 5 -2 5 -2 5 0 5 0 
5 -4 5 -1 5 -5 4 -1 5 0 5 -4 5 -1 5 -3 
5 -3 5 -2 5 -1 5 -1 4 -3 5 -3 5 -2 5 0 
5 -3 5 0 5 -2 5 0 4 -2 5 -4 5 -3 5 1 
5 -2 5 -2 5 -2 5 -3 5 0 4 -3 5 0 5 -3 
5 0 5 -1 5 0 5 -4 5 -2 4 -2 5 -1 5 -2 
5 0 5 -4 5 -2 5 2 5 0 5 -1 4 -1 5 -2 
5 -2 5 -3 5 -1 5 -2 5 1 5 0 4 -1 5 -1 
5 -5 5 -3 5 0 5 -1 5 0 5 0 5 0 4 0 
5 -1 5 -3 5 -3 5 0 5 -2 5 -2 5 -1 4 0 
5 0 5 -2 5 -2 5 -1 5 -2 5 -1 5 -2 5 -1 
4 1 5 -3 5 -2 5 0 5 -2 5 0 5 1 5 -1 
4 -3 5 -2 5 -2 5 -1 5 -2 5 -1 5 -1 5 0 
5 -1 4 -2 5 -2 5 -2 5 -1 5 0 5 -1 5 -2 
5 1 4 -1 5 -2 5 -2 5 -1 5 1 5 -1 5 -1 
5 0 4 -1 5 -1 5 -1 5 -1 5 -1 5 -1 5 0 
5 -1 5 -1 4 -2 5 -1 5 -1 5 0 5 -3 5 -1 
5 -1 5 -1 4 0 5 0 5 0 5 0 5 0 5 -1 
5 0 5 -1 5 -1 4 -1 5 0 5 1 5 -2 5 0 
5 -1 5 -1 5 0 4 -2 5 -1 5 0 5 0 5 -1 
5 0 5 -1 5 -2 1169 3958 300 MP stroke
5 0 4 0 5 -1 5 0 5 -1 5 -1 5 -1 5 0 
5 -1 4 0 5 -1 5 -1 5 -1 5 0 5 0 5 -1 
5 -1 5 0 4 0 5 -1 5 -2 5 0 5 -1 5 -1 
5 0 5 -1 4 1 5 0 5 -1 5 -1 5 0 5 0 
5 0 5 0 5 -1 4 -1 5 0 5 0 5 0 5 -1 
5 -1 5 0 5 -1 4 0 5 -1 5 -1 5 0 5 -1 
5 0 5 -1 5 -1 5 0 4 -1 5 -1 5 0 5 0 
5 0 5 -1 5 0 5 0 4 0 5 -1 5 0 5 0 
5 0 5 0 5 -1 5 0 5 0 4 -2 5 -1 5 0 
5 -1 5 0 5 -1 5 0 5 0 4 -1 5 0 5 -1 
5 0 5 0 5 0 5 -1 5 0 4 -1 750 3999 87 MP stroke
gr

16.6667 w
c9
0 sg
%%IncludeResource: font Helvetica
/Helvetica /WindowsLatin1Encoding 83.3333 FMSR

 732 4037 mt 
( ) s
4483  536 mt 
( ) s
8.33333 w
DO
SO
12.5 w
0.1 sg
 750  500 mt 4500  500 L
 750 4000 mt 4500 4000 L
4500 4000 mt 4500  500 L
 750 4000 mt  750  500 L
 750 4000 mt 4500 4000 L
 750 4000 mt  750  500 L
 750 4000 mt  750 3943 L
 750  500 mt  750  556 L
%%IncludeResource: font Helvetica
/Helvetica /WindowsLatin1Encoding 133.333 FMSR

 713 4148 mt 
(0) s
1166 4000 mt 1166 3943 L
1166  500 mt 1166  556 L
1037 4148 mt 
(0.05) s
1583 4000 mt 1583 3943 L
1583  500 mt 1583  556 L
1491 4148 mt 
(0.1) s
2000 4000 mt 2000 3943 L
2000  500 mt 2000  556 L
1871 4148 mt 
(0.15) s
2416 4000 mt 2416 3943 L
2416  500 mt 2416  556 L
2324 4148 mt 
(0.2) s
2833 4000 mt 2833 3943 L
2833  500 mt 2833  556 L
2704 4148 mt 
(0.25) s
3250 4000 mt 3250 3943 L
3250  500 mt 3250  556 L
3158 4148 mt 
(0.3) s
3666 4000 mt 3666 3943 L
3666  500 mt 3666  556 L
3537 4148 mt 
(0.35) s
4083 4000 mt 4083 3943 L
4083  500 mt 4083  556 L
3991 4148 mt 
(0.4) s
 750 4000 mt  806 4000 L
4500 4000 mt 4443 4000 L
 652 4049 mt 
(0) s
 750 3681 mt  806 3681 L
4500 3681 mt 4443 3681 L
 578 3730 mt 
(10) s
 750 3363 mt  806 3363 L
4500 3363 mt 4443 3363 L
 578 3412 mt 
(20) s
 750 3045 mt  806 3045 L
4500 3045 mt 4443 3045 L
 578 3094 mt 
(30) s
 750 2727 mt  806 2727 L
4500 2727 mt 4443 2727 L
 578 2776 mt 
(40) s
 750 2409 mt  806 2409 L
4500 2409 mt 4443 2409 L
 578 2458 mt 
(50) s
 750 2090 mt  806 2090 L
4500 2090 mt 4443 2090 L
 578 2139 mt 
(60) s
 750 1772 mt  806 1772 L
4500 1772 mt 4443 1772 L
 578 1821 mt 
(70) s
 750 1454 mt  806 1454 L
4500 1454 mt 4443 1454 L
 578 1503 mt 
(80) s
 750 1136 mt  806 1136 L
4500 1136 mt 4443 1136 L
 578 1185 mt 
(90) s
 750  818 mt  806  818 L
4500  818 mt 4443  818 L
 504  867 mt 
(100) s
 750  500 mt  806  500 L
4500  500 mt 4443  500 L
 504  549 mt 
(110) s
 750  500 mt 4500  500 L
 750 4000 mt 4500 4000 L
4500 4000 mt 4500  500 L
 750 4000 mt  750  500 L
0 sg
%%IncludeResource: font Helvetica-Bold
/Helvetica-Bold /WindowsLatin1Encoding 125 FMSR

1300  733 mt 
(G\(K) s
%%IncludeResource: font Helvetica-Bold
/Helvetica-Bold /WindowsLatin1Encoding 100 FMSR

1529  795 mt 
(1) s
%%IncludeResource: font Helvetica-Bold
/Helvetica-Bold /WindowsLatin1Encoding 125 FMSR

1584  733 mt 
(\) = 2.5E06 Pa) s
gs 975 589 1426 698 rc
16.6667 w
250 0 1025 714 2 MP stroke
gr

16.6667 w
1300  956 mt 
(G\(K) s
%%IncludeResource: font Helvetica-Bold
/Helvetica-Bold /WindowsLatin1Encoding 100 FMSR

1529 1018 mt 
(1) s
%%IncludeResource: font Helvetica-Bold
/Helvetica-Bold /WindowsLatin1Encoding 125 FMSR

1584  956 mt 
(\) = 5E06 Pa) s
gs 975 589 1426 698 rc
c8
250 0 1025 937 2 MP stroke
gr

c8
0 sg
1300 1179 mt 
(G\(K) s
%%IncludeResource: font Helvetica-Bold
/Helvetica-Bold /WindowsLatin1Encoding 100 FMSR

1529 1241 mt 
(1) s
%%IncludeResource: font Helvetica-Bold
/Helvetica-Bold /WindowsLatin1Encoding 125 FMSR

1584 1179 mt 
(\) = 7.5E06 Pa) s
gs 975 589 1426 698 rc
c9
250 0 1025 1160 2 MP stroke
12.5 w
gr

12.5 w
c9

end %%Color Dict

eplot
%%EndObject

epage
end

showpage

%%Trailer
%%EOF
