%!PS-Adobe-3.0 EPSF-3.0
%%Creator: MATLAB, The MathWorks, Inc. Version 8.1.0.604 (R2013a). Operating System: Microsoft Windows 7.
%%Title: .\K1_UC_StressStain.eps
%%CreationDate: 08/17/2013  15:45:18
%%DocumentNeededFonts: Helvetica-Bold
%%+ Helvetica
%%DocumentProcessColors: Cyan Magenta Yellow Black
%%LanguageLevel: 2
%%Pages: 1
%%BoundingBox:    54    93   564   569
%%EndComments

%%BeginProlog
% MathWorks dictionary
/MathWorks 160 dict begin
% definition operators
/bdef {bind def} bind def
/ldef {load def} bind def
/xdef {exch def} bdef
/xstore {exch store} bdef
% operator abbreviations
/c  /clip ldef
/cc /concat ldef
/cp /closepath ldef
/gr /grestore ldef
/gs /gsave ldef
/mt /moveto ldef
/np /newpath ldef
/cm /currentmatrix ldef
/sm /setmatrix ldef
/rm /rmoveto ldef
/rl /rlineto ldef
/s {show newpath} bdef
/sc {setcmykcolor} bdef
/sr /setrgbcolor ldef
/sg /setgray ldef
/w /setlinewidth ldef
/j /setlinejoin ldef
/cap /setlinecap ldef
/rc {rectclip} bdef
/rf {rectfill} bdef
% page state control
/pgsv () def
/bpage {/pgsv save def} bdef
/epage {pgsv restore} bdef
/bplot /gsave ldef
/eplot {stroke grestore} bdef
% orientation switch
/portraitMode 0 def /landscapeMode 1 def /rotateMode 2 def
% coordinate system mappings
/dpi2point 0 def
% font control
/FontSize 0 def
/FMS {/FontSize xstore findfont [FontSize 0 0 FontSize neg 0 0]
  makefont setfont} bdef
/ISOLatin1Encoding where {pop /WindowsLatin1Encoding 256 array bdef
ISOLatin1Encoding WindowsLatin1Encoding copy pop
/.notdef/.notdef/quotesinglbase/florin/quotedblbase/ellipsis/dagger
/daggerdbl/circumflex/perthousand/Scaron/guilsinglleft/OE/.notdef/.notdef
/.notdef/.notdef/quoteleft/quoteright/quotedblleft/quotedblright/bullet
/endash/emdash/tilde/trademark/scaron/guilsinglright/oe/.notdef/.notdef
/Ydieresis WindowsLatin1Encoding 128 32 getinterval astore pop}
{/WindowsLatin1Encoding StandardEncoding bdef} ifelse
/reencode {exch dup where {pop load} {pop StandardEncoding} ifelse
  exch dup 3 1 roll findfont dup length dict begin
  { 1 index /FID ne {def}{pop pop} ifelse } forall
  /Encoding exch def currentdict end definefont pop} bdef
/isroman {findfont /CharStrings get /Agrave known} bdef
/FMSR {3 1 roll 1 index dup isroman {reencode} {pop pop} ifelse
  exch FMS} bdef
/csm {1 dpi2point div -1 dpi2point div scale neg translate
 dup landscapeMode eq {pop -90 rotate}
  {rotateMode eq {90 rotate} if} ifelse} bdef
% line types: solid, dotted, dashed, dotdash
/SO { [] 0 setdash } bdef
/DO { [.5 dpi2point mul 4 dpi2point mul] 0 setdash } bdef
/DA { [6 dpi2point mul] 0 setdash } bdef
/DD { [.5 dpi2point mul 4 dpi2point mul 6 dpi2point mul 4
  dpi2point mul] 0 setdash } bdef
% macros for lines and objects
/L {lineto stroke} bdef
/MP {3 1 roll moveto 1 sub {rlineto} repeat} bdef
/AP {{rlineto} repeat} bdef
/PDlw -1 def
/W {/PDlw currentlinewidth def setlinewidth} def
/PP {closepath eofill} bdef
/DP {closepath stroke} bdef
/MR {4 -2 roll moveto dup  0 exch rlineto exch 0 rlineto
  neg 0 exch rlineto closepath} bdef
/FR {MR stroke} bdef
/PR {MR fill} bdef
/L1i {{currentfile picstr readhexstring pop} image} bdef
/tMatrix matrix def
/MakeOval {newpath tMatrix currentmatrix pop translate scale
0 0 1 0 360 arc tMatrix setmatrix} bdef
/FO {MakeOval stroke} bdef
/PO {MakeOval fill} bdef
/PD {currentlinewidth 2 div 0 360 arc fill
   PDlw -1 eq not {PDlw w /PDlw -1 def} if} def
/FA {newpath tMatrix currentmatrix pop translate scale
  0 0 1 5 -2 roll arc tMatrix setmatrix stroke} bdef
/PA {newpath tMatrix currentmatrix pop	translate 0 0 moveto scale
  0 0 1 5 -2 roll arc closepath tMatrix setmatrix fill} bdef
/FAn {newpath tMatrix currentmatrix pop translate scale
  0 0 1 5 -2 roll arcn tMatrix setmatrix stroke} bdef
/PAn {newpath tMatrix currentmatrix pop translate 0 0 moveto scale
  0 0 1 5 -2 roll arcn closepath tMatrix setmatrix fill} bdef
/vradius 0 def /hradius 0 def /lry 0 def
/lrx 0 def /uly 0 def /ulx 0 def /rad 0 def
/MRR {/vradius xdef /hradius xdef /lry xdef /lrx xdef /uly xdef
  /ulx xdef newpath tMatrix currentmatrix pop ulx hradius add uly
  vradius add translate hradius vradius scale 0 0 1 180 270 arc 
  tMatrix setmatrix lrx hradius sub uly vradius add translate
  hradius vradius scale 0 0 1 270 360 arc tMatrix setmatrix
  lrx hradius sub lry vradius sub translate hradius vradius scale
  0 0 1 0 90 arc tMatrix setmatrix ulx hradius add lry vradius sub
  translate hradius vradius scale 0 0 1 90 180 arc tMatrix setmatrix
  closepath} bdef
/FRR {MRR stroke } bdef
/PRR {MRR fill } bdef
/MlrRR {/lry xdef /lrx xdef /uly xdef /ulx xdef /rad lry uly sub 2 div def
  newpath tMatrix currentmatrix pop ulx rad add uly rad add translate
  rad rad scale 0 0 1 90 270 arc tMatrix setmatrix lrx rad sub lry rad
  sub translate rad rad scale 0 0 1 270 90 arc tMatrix setmatrix
  closepath} bdef
/FlrRR {MlrRR stroke } bdef
/PlrRR {MlrRR fill } bdef
/MtbRR {/lry xdef /lrx xdef /uly xdef /ulx xdef /rad lrx ulx sub 2 div def
  newpath tMatrix currentmatrix pop ulx rad add uly rad add translate
  rad rad scale 0 0 1 180 360 arc tMatrix setmatrix lrx rad sub lry rad
  sub translate rad rad scale 0 0 1 0 180 arc tMatrix setmatrix
  closepath} bdef
/FtbRR {MtbRR stroke } bdef
/PtbRR {MtbRR fill } bdef
/stri 6 array def /dtri 6 array def
/smat 6 array def /dmat 6 array def
/tmat1 6 array def /tmat2 6 array def /dif 3 array def
/asub {/ind2 exch def /ind1 exch def dup dup
  ind1 get exch ind2 get sub exch } bdef
/tri_to_matrix {
  2 0 asub 3 1 asub 4 0 asub 5 1 asub
  dup 0 get exch 1 get 7 -1 roll astore } bdef
/compute_transform {
  dmat dtri tri_to_matrix tmat1 invertmatrix 
  smat stri tri_to_matrix tmat2 concatmatrix } bdef
/ds {stri astore pop} bdef
/dt {dtri astore pop} bdef
/db {2 copy /cols xdef /rows xdef mul dup 3 mul string
  currentfile 
  3 index 0 eq {/ASCIIHexDecode filter}
  {/ASCII85Decode filter 3 index 2 eq {/RunLengthDecode filter} if }
  ifelse exch readstring pop
  dup 0 3 index getinterval /rbmap xdef
  dup 2 index dup getinterval /gbmap xdef
  1 index dup 2 mul exch getinterval /bbmap xdef pop pop}bdef
/it {gs np dtri aload pop moveto lineto lineto cp c
  cols rows 8 compute_transform 
  rbmap gbmap bbmap true 3 colorimage gr}bdef
/il {newpath moveto lineto stroke}bdef
currentdict end def
%%EndProlog

%%BeginSetup
MathWorks begin

0 cap

end
%%EndSetup

%%Page: 1 1
%%BeginPageSetup
%%PageBoundingBox:    54    93   564   569
MathWorks begin
bpage
%%EndPageSetup

%%BeginObject: obj1
bplot

/dpi2point 8.33333 def
portraitMode 0150 5158 csm

  305   409  4251  3971 rc
84 dict begin %Colortable dictionary
/c0 { 0.000000 0.000000 0.000000 sr} bdef
/c1 { 1.000000 1.000000 1.000000 sr} bdef
/c2 { 0.900000 0.000000 0.000000 sr} bdef
/c3 { 0.000000 0.820000 0.000000 sr} bdef
/c4 { 0.000000 0.000000 0.800000 sr} bdef
/c5 { 0.910000 0.820000 0.320000 sr} bdef
/c6 { 1.000000 0.260000 0.820000 sr} bdef
/c7 { 0.000000 0.820000 0.820000 sr} bdef
c0
1 j
1 sg
   0    0 5001 5001 rf
12.5 w
0 3500 3751 0 0 -3500 749 4000 4 MP
PP
-3751 0 0 3500 3751 0 0 -3500 749 4000 5 MP stroke
0.1 sg
%%IncludeResource: font Helvetica-Bold
/Helvetica-Bold /WindowsLatin1Encoding 183.333 FMSR

2010 4322 mt 
(Vertical Strain) s
 498 3132 mt  -90 rotate
(Vertical Stress [kPa]) s
90 rotate
gs 750 500 3751 3501 rc
16.6667 w
0 sg
9 -13 9 3 9 -13 9 -10 9 -9 9 -15 9 9 9 8 
9 -4 9 -1 9 14 9 17 9 -3 9 4 9 -5 9 -14 
9 -1 10 1 9 -1 9 -7 9 -3 9 -7 9 4 9 -12 
9 -1 9 -8 9 -7 9 12 9 17 9 18 9 -3 9 0 
9 -14 9 -1 9 -9 10 5 9 -11 9 -2 9 2 9 -6 
9 -11 9 7 9 13 9 -15 9 -23 9 26 9 -1 9 -5 
9 -1 9 -9 9 5 9 -4 9 -1 10 -9 9 -3 9 5 
9 1 9 -7 9 -5 9 -6 9 -1 9 -12 9 -6 9 -5 
9 7 9 1 9 -6 9 -2 9 14 9 2 9 -12 10 -4 
9 -9 9 -9 9 -4 9 10 9 -10 9 -2 9 -9 9 -5 
9 -7 9 -9 9 5 9 -16 9 11 9 1 9 10 9 -16 
9 27 10 -12 9 -5 9 4 9 3 9 -2 9 -2 9 -15 
9 12 9 -6 9 -7 9 -10 9 -11 9 -5 9 -7 9 6 
9 -15 9 11 9 -17 10 -9 9 -2 9 -2 9 -4 9 -13 
9 11 9 -9 9 4 9 -25 9 -11 9 16 9 -4 9 -7 
9 -8 9 2 9 -12 9 -17 9 -3 10 13 9 -13 9 9 
9 -6 9 -2 9 0 9 -14 9 -13 9 -12 9 -9 9 -13 
9 6 9 -2 9 -6 9 -7 9 -8 9 -19 9 -4 10 2 
9 2 9 2 9 -3 9 -5 9 -16 9 0 9 -5 9 -8 
9 -16 9 -7 9 4 9 -1 9 -17 9 15 9 -13 9 -8 
9 -6 10 -14 9 -3 9 -16 9 -9 9 3 9 -12 9 -13 
9 -14 9 -9 9 -13 9 -1 9 -8 9 -5 9 -11 9 -2 
9 -11 9 -6 9 -2 10 -15 9 -10 9 -10 9 -11 9 -9 
9 -14 9 -17 9 4 9 -3 9 -4 9 -16 9 -1 9 -17 
9 -8 9 -16 9 -25 9 -6 9 -1 10 -12 9 -16 9 -13 
9 6 9 -17 9 3 9 -15 9 -13 9 -7 9 -7 9 -5 
9 -16 9 -20 9 -22 9 -9 9 -5 9 -12 9 -11 10 -16 
9 -15 9 -21 9 -8 9 -18 9 -16 9 -2 9 -10 9 -11 
9 -17 9 -10 9 -22 9 -16 9 -7 9 -17 9 -18 9 -10 
9 -16 10 -13 9 -7 9 -19 9 -15 9 -14 9 -15 9 -11 
9 -12 9 -17 9 -21 9 -16 9 -18 9 -7 9 -21 9 -12 
9 -18 9 -11 9 -22 10 -16 9 -22 9 -21 9 -10 9 -22 
9 -22 9 -20 9 -19 9 -20 9 -21 9 -16 9 -22 9 -22 
9 -17 9 -24 9 -16 9 -17 9 -23 10 -17 9 -18 9 -19 
9 -26 9 -22 9 -22 9 -26 9 -18 9 -22 9 -23 9 -26 
9 -26 9 -26 9 -23 9 -27 9 -25 9 -25 9 -23 10 -22 
9 -29 9 -24 9 -26 9 -22 9 -31 9 -29 9 -28 9 -37 
9 -26 9 -35 9 -44 976 3505 300 MP stroke
9 -40 9 -47 9 -47 9 -49 9 -51 9 -45 10 -43 9 -40 
9 -31 9 -24 9 -18 9 -14 9 -9 9 -7 9 -6 9 -5 
9 -4 9 -3 9 -2 9 -2 9 -1 9 -1 9 -1 9 -1 
9 -2 750 3998 26 MP stroke
/c8 { 1.000000 0.000000 0.000000 sr} bdef
c8
9 -2 8 5 9 1 9 -16 8 -2 9 -7 9 -11 8 7 
9 2 8 0 9 11 9 8 8 8 9 1 9 1 8 -5 
9 -4 9 7 8 5 9 -3 9 -19 8 -2 9 -5 8 6 
9 3 9 3 8 -2 9 -5 9 -3 8 -2 9 6 9 10 
8 -6 9 -3 9 11 8 -8 9 -15 9 27 8 5 9 -6 
8 -3 9 -1 9 -7 8 -7 9 -5 9 -14 8 14 9 -16 
9 -1 8 -2 9 14 9 0 8 -2 9 8 8 4 9 -6 
9 7 8 1 9 12 9 4 8 16 9 -10 9 0 8 -9 
9 2 9 -1 8 -7 9 -7 9 9 8 -13 9 14 8 -12 
9 -4 9 -2 8 4 9 0 9 -5 8 -7 9 -2 9 5 
8 -1 9 1 9 -9 8 -6 9 -14 8 -3 9 1 9 -5 
8 -12 9 6 9 0 8 0 9 -8 9 -16 8 -2 9 9 
9 -4 8 -7 9 -3 9 -8 8 -6 9 0 8 -7 9 -2 
9 8 8 -2 9 -6 9 -26 8 3 9 -1 9 -5 8 -7 
9 -1 9 2 8 -5 9 -4 8 -6 9 -7 9 -2 8 -4 
9 -8 9 -4 8 -10 9 -1 9 -14 8 3 9 -8 9 -8 
8 -7 9 8 9 -10 8 -13 9 2 8 0 9 -11 9 -6 
8 -16 9 -14 9 4 8 -10 9 -3 9 -8 8 -3 9 -6 
9 -12 8 -13 9 -11 8 -20 9 0 9 -9 8 -3 9 -6 
9 -16 8 -14 9 -9 9 -19 8 -6 9 -5 9 -14 8 -13 
9 -22 9 -10 8 -4 9 -17 8 -9 9 -13 9 -12 8 -16 
9 -2 9 -21 8 -6 9 -13 9 -14 8 -16 9 -21 9 -11 
8 -13 9 -12 8 -19 9 -2 9 -21 8 -6 9 -11 9 -23 
8 -7 9 -26 9 -18 8 -15 9 -15 9 -21 8 -18 9 -22 
9 -19 8 -16 9 -24 8 -24 9 -22 9 -24 8 -20 9 -25 
9 -20 8 -20 9 -16 9 -24 8 -21 9 -24 9 -21 8 -24 
9 -26 8 -27 9 -23 9 -25 8 -26 9 -27 9 -26 8 -28 
9 -24 9 -26 8 -26 9 -33 9 -30 8 -27 9 -32 9 -29 
8 -29 9 -31 8 -31 9 -34 9 -33 8 -34 9 -40 9 -43 
8 -50 9 -52 9 -51 8 -49 9 -45 9 -31 8 -21 9 -13 
8 -8 750 3994 242 MP stroke
/c9 { 0.000000 0.000000 1.000000 sr} bdef
c9
5 -5 4 -3 4 -6 4 -6 4 4 5 -2 4 0 4 2 
4 3 4 -2 5 -6 4 -3 4 -5 4 -3 4 -5 5 2 
4 -1 4 3 4 5 4 -3 5 -6 4 -5 4 -2 4 1 
4 6 5 5 4 5 4 1 4 -5 4 5 5 7 4 -3 
4 6 4 -1 5 0 4 4 4 8 4 -1 4 2 5 -2 
4 5 4 0 4 0 4 0 5 -3 4 0 4 -4 4 0 
4 8 5 7 4 0 4 -1 4 -3 4 4 5 9 4 2 
4 -1 4 -1 4 -4 5 7 4 0 4 -4 4 -4 4 -5 
5 -4 4 2 4 -6 4 2 4 -1 5 2 4 1 4 -3 
4 3 4 4 5 4 4 3 4 9 4 -3 4 -2 5 -6 
4 1 4 3 4 3 4 1 5 3 4 0 4 1 4 3 
4 -2 5 3 4 4 4 1 4 0 4 -1 5 -2 4 -1 
4 0 4 5 5 -6 4 -1 4 2 4 -6 4 -7 5 8 
4 6 4 -1 4 1 4 -4 5 9 4 2 4 0 4 4 
4 0 5 -2 4 -2 4 6 4 -8 4 -4 5 0 4 4 
4 11 4 7 4 2 5 -2 4 0 4 -3 4 -5 4 -6 
5 -1 4 -7 4 3 4 3 4 6 5 0 4 3 4 -2 
4 -3 4 0 5 -2 4 10 4 0 4 3 4 2 5 -5 
4 -5 4 -6 4 -7 4 6 5 7 4 2 4 4 4 0 
4 2 5 4 4 3 4 0 4 7 4 4 5 5 4 9 
4 9 4 0 5 -4 4 -3 4 -2 4 0 4 -3 5 0 
4 1 4 -6 4 -7 4 7 5 0 4 9 4 6 4 -7 
4 1 5 4 4 1 4 -4 4 -7 4 -7 5 0 4 0 
4 12 4 0 4 2 5 5 4 -5 4 4 4 0 4 -2 
5 3 4 -2 4 -2 4 0 4 -3 5 -4 4 3 4 -3 
4 -1 4 -1 5 -2 4 1 4 4 4 2 4 -6 5 7 
4 6 4 15 4 6 4 -1 5 4 4 -6 4 -4 4 -1 
4 2 5 5 4 1 4 -1 4 0 4 -1 5 2 4 -5 
4 -4 4 5 5 0 4 6 4 -7 4 2 4 -1 5 1 
4 1 4 -4 4 1 4 -2 5 0 4 5 4 0 4 4 
4 2 5 0 4 -3 4 -2 4 -3 4 -3 5 -3 4 -2 
4 -3 4 -3 4 -5 5 -2 4 -3 4 7 4 2 4 3 
5 5 4 -1 4 6 4 12 4 1 5 1 4 -2 4 7 
4 4 4 0 5 -3 4 2 4 1 4 -5 4 -6 5 -1 
4 1 4 -3 4 2 4 8 5 -6 4 -1 4 -1 4 3 
4 2 5 8 4 2 4 -1 4 3 4 -1 5 0 4 4 
4 -8 4 9 5 7 4 -2 4 4 4 -7 4 -1 5 4 
4 -5 4 6 4 -2 2889 2092 300 MP stroke
4 -5 5 -2 4 -2 4 -1 4 0 4 -2 5 -2 4 7 
4 9 4 6 4 1 5 -3 4 -4 4 -4 4 -4 4 -4 
5 -1 4 3 4 0 4 -2 4 2 5 -1 4 5 4 3 
4 3 4 5 5 3 4 6 4 3 4 -2 4 4 5 -1 
4 2 4 -4 4 2 4 1 5 0 4 -3 4 3 4 -1 
4 -6 5 11 4 -4 4 1 4 3 4 1 5 2 4 -2 
4 -5 4 1 4 -8 5 -2 4 2 4 -4 4 5 4 6 
5 0 4 -4 4 -1 4 -5 5 1 4 -4 4 1 4 -4 
4 -7 5 0 4 -1 4 15 4 0 4 4 5 3 4 4 
4 10 4 -3 4 -2 5 0 4 2 4 3 4 -4 4 -1 
5 -9 4 -5 4 0 4 6 4 4 5 3 4 5 4 -2 
4 5 4 2 5 2 4 -1 4 -4 4 1 4 4 5 3 
4 1 4 2 4 -2 4 -3 5 -5 4 -8 4 4 4 7 
4 -4 5 -6 4 -1 4 -4 4 -4 4 -10 5 -6 4 0 
4 12 4 -2 4 -3 5 0 4 10 4 5 4 3 4 -6 
5 3 4 3 4 3 4 -2 5 -3 4 -4 4 -1 4 2 
4 -3 5 2 4 1 4 -4 4 -3 4 5 5 2 4 -5 
4 -5 4 -7 4 -10 5 0 4 3 4 1 4 3 4 1 
5 0 4 -1 4 7 4 7 4 3 5 -5 4 -11 4 1 
4 3 4 5 5 -1 4 -6 4 -4 4 -3 4 -1 5 4 
4 4 4 5 4 -2 4 1 5 1 4 -1 4 -12 4 -2 
4 -2 5 3 4 -5 4 -5 4 -4 4 4 5 2 4 2 
4 4 4 3 4 3 5 7 4 -1 4 6 4 -3 4 -7 
5 -8 4 -8 4 4 4 0 5 5 4 10 4 10 4 7 
4 0 5 -2 4 -6 4 3 4 1 4 -5 5 -5 4 -1 
4 2 4 -1 4 -7 5 3 4 3 4 -3 4 -3 4 -2 
5 7 4 -4 4 -4 4 -2 4 -5 5 -3 4 2 4 -5 
4 -2 4 -2 5 1 4 1 4 4 4 -7 4 1 5 -2 
4 -5 4 2 4 0 4 6 5 0 4 -2 4 -2 4 -4 
4 0 5 0 4 -1 4 -6 4 0 4 1 5 -2 4 1 
4 -2 4 -1 4 1 5 5 4 -1 4 3 4 2 4 4 
5 -6 4 -7 4 9 4 -3 5 -2 4 6 4 -2 4 -10 
4 3 5 4 4 1 4 -2 4 0 4 4 5 -4 4 6 
4 -1 4 -3 4 -6 5 -3 4 -1 4 0 4 0 4 -2 
5 -6 4 0 4 -3 4 1 4 -9 5 0 4 6 4 -1 
4 -3 4 1 5 -5 4 1 4 -7 4 -7 4 -6 5 1 
4 -7 4 -4 4 -5 4 3 5 4 4 -3 4 3 4 -6 
4 -5 5 -6 4 0 1632 2195 300 MP stroke
4 1 4 -8 4 -2 5 5 4 4 4 1 4 -6 4 5 
5 -2 4 -3 4 -1 4 -7 4 -4 5 -6 4 -8 4 -4 
4 -3 5 -4 4 1 4 -10 4 -1 4 -7 5 0 4 -4 
4 -4 4 -2 4 1 5 0 4 0 4 -9 4 -4 4 -5 
5 2 4 -3 4 -5 4 -4 4 -1 5 -3 4 -1 4 -3 
4 -2 4 -3 5 -1 4 1 4 -2 4 2 4 -7 5 -3 
4 -4 4 -8 4 -7 4 5 5 -4 4 -7 4 -6 4 -6 
4 -4 5 -8 4 -3 4 -2 4 -8 4 -1 5 -3 4 -4 
4 4 4 -1 4 -7 5 -7 4 -5 4 -5 4 -4 4 -5 
5 -15 4 -6 4 -2 4 -10 4 -4 5 3 4 -15 4 -3 
4 -6 5 -4 4 0 4 -11 4 -6 4 -9 5 -6 4 -5 
4 -1 4 -4 4 -9 5 -9 4 -5 4 2 4 -6 4 -8 
5 -11 4 -12 4 -7 4 -11 4 -6 5 -3 4 5 4 -7 
4 -7 4 -9 5 -9 4 -10 4 -2 4 -11 4 -13 5 -7 
4 -8 4 -6 4 -10 4 -4 5 -9 4 -14 4 -7 4 -7 
4 -15 5 -12 4 -5 4 -10 4 -9 4 -8 5 -9 4 -3 
4 -13 4 -8 4 -12 5 -16 4 -7 4 -3 4 -11 4 -11 
5 -12 4 -11 4 -16 4 -10 4 -7 5 -15 4 -13 4 -12 
4 -14 5 -10 4 -13 4 -13 4 -11 4 -10 5 -11 4 -15 
4 -13 4 -13 4 -9 5 -15 4 -18 4 -10 4 -10 4 -12 
5 -20 4 -11 4 -12 4 -17 4 -14 5 -13 4 -16 4 -14 
4 -15 4 -15 5 -15 4 -15 4 -15 4 -18 4 -18 5 -11 
4 -13 4 -19 4 -18 4 -14 5 -16 4 -15 4 -17 4 -17 
4 -15 5 -18 4 -19 4 -15 4 -17 4 -17 5 -20 4 -19 
4 -22 4 -27 4 -20 5 -21 4 -27 4 -27 4 -28 4 -27 
5 -24 4 -19 4 -15 4 -13 4 -11 5 -9 4 -5 4 -4 
4 -4 4 -3 750 3997 211 MP stroke
gr

16.6667 w
c9
0 sg
%%IncludeResource: font Helvetica
/Helvetica /WindowsLatin1Encoding 83.3333 FMSR

 732 4037 mt 
( ) s
4483  536 mt 
( ) s
8.33333 w
DO
SO
12.5 w
0.1 sg
 749  500 mt 4500  500 L
 749 4000 mt 4500 4000 L
4500 4000 mt 4500  500 L
 749 4000 mt  749  500 L
 749 4000 mt 4500 4000 L
 749 4000 mt  749  500 L
 749 4000 mt  749 3943 L
 749  500 mt  749  556 L
%%IncludeResource: font Helvetica
/Helvetica /WindowsLatin1Encoding 133.333 FMSR

 712 4148 mt 
(0) s
1249 4000 mt 1249 3943 L
1249  500 mt 1249  556 L
1120 4148 mt 
(0.01) s
1750 4000 mt 1750 3943 L
1750  500 mt 1750  556 L
1621 4148 mt 
(0.02) s
2250 4000 mt 2250 3943 L
2250  500 mt 2250  556 L
2121 4148 mt 
(0.03) s
2750 4000 mt 2750 3943 L
2750  500 mt 2750  556 L
2621 4148 mt 
(0.04) s
3250 4000 mt 3250 3943 L
3250  500 mt 3250  556 L
3121 4148 mt 
(0.05) s
3750 4000 mt 3750 3943 L
3750  500 mt 3750  556 L
3621 4148 mt 
(0.06) s
4250 4000 mt 4250 3943 L
4250  500 mt 4250  556 L
4121 4148 mt 
(0.07) s
 749 4000 mt  806 4000 L
4500 4000 mt 4443 4000 L
 652 4049 mt 
(0) s
 749 3375 mt  806 3375 L
4500 3375 mt 4443 3375 L
 652 3424 mt 
(5) s
 749 2750 mt  806 2750 L
4500 2750 mt 4443 2750 L
 578 2799 mt 
(10) s
 749 2125 mt  806 2125 L
4500 2125 mt 4443 2125 L
 578 2174 mt 
(15) s
 749 1500 mt  806 1500 L
4500 1500 mt 4443 1500 L
 578 1549 mt 
(20) s
 749  875 mt  806  875 L
4500  875 mt 4443  875 L
 578  924 mt 
(25) s
 749  500 mt 4500  500 L
 749 4000 mt 4500 4000 L
4500 4000 mt 4500  500 L
 749 4000 mt  749  500 L
0 sg
%%IncludeResource: font Helvetica-Bold
/Helvetica-Bold /WindowsLatin1Encoding 125 FMSR

3175 3358 mt 
(G\(K) s
%%IncludeResource: font Helvetica-Bold
/Helvetica-Bold /WindowsLatin1Encoding 100 FMSR

3404 3420 mt 
(1) s
%%IncludeResource: font Helvetica-Bold
/Helvetica-Bold /WindowsLatin1Encoding 125 FMSR

3459 3358 mt 
(\) = 2.5E06 Pa) s
gs 2850 3214 1426 698 rc
16.6667 w
250 0 2900 3339 2 MP stroke
gr

16.6667 w
3175 3581 mt 
(G\(K) s
%%IncludeResource: font Helvetica-Bold
/Helvetica-Bold /WindowsLatin1Encoding 100 FMSR

3404 3643 mt 
(1) s
%%IncludeResource: font Helvetica-Bold
/Helvetica-Bold /WindowsLatin1Encoding 125 FMSR

3459 3581 mt 
(\) = 5E06 Pa) s
gs 2850 3214 1426 698 rc
c8
250 0 2900 3562 2 MP stroke
gr

c8
0 sg
3175 3804 mt 
(G\(K) s
%%IncludeResource: font Helvetica-Bold
/Helvetica-Bold /WindowsLatin1Encoding 100 FMSR

3404 3866 mt 
(1) s
%%IncludeResource: font Helvetica-Bold
/Helvetica-Bold /WindowsLatin1Encoding 125 FMSR

3459 3804 mt 
(\) = 7.5E06 Pa) s
gs 2850 3214 1426 698 rc
c9
250 0 2900 3785 2 MP stroke
12.5 w
gr

12.5 w
c9

end %%Color Dict

eplot
%%EndObject

epage
end

showpage

%%Trailer
%%EOF
