%!PS-Adobe-3.0 EPSF-3.0
%%Creator: MATLAB, The MathWorks, Inc. Version 8.1.0.604 (R2013a). Operating System: Microsoft Windows 7.
%%Title: .\K1_Unconfined_Contacts.eps
%%CreationDate: 08/17/2013  15:45:19
%%DocumentNeededFonts: Helvetica-Bold
%%+ Helvetica
%%DocumentProcessColors: Cyan Magenta Yellow Black
%%LanguageLevel: 2
%%Pages: 1
%%BoundingBox:    50    93   564   587
%%EndComments

%%BeginProlog
% MathWorks dictionary
/MathWorks 160 dict begin
% definition operators
/bdef {bind def} bind def
/ldef {load def} bind def
/xdef {exch def} bdef
/xstore {exch store} bdef
% operator abbreviations
/c  /clip ldef
/cc /concat ldef
/cp /closepath ldef
/gr /grestore ldef
/gs /gsave ldef
/mt /moveto ldef
/np /newpath ldef
/cm /currentmatrix ldef
/sm /setmatrix ldef
/rm /rmoveto ldef
/rl /rlineto ldef
/s {show newpath} bdef
/sc {setcmykcolor} bdef
/sr /setrgbcolor ldef
/sg /setgray ldef
/w /setlinewidth ldef
/j /setlinejoin ldef
/cap /setlinecap ldef
/rc {rectclip} bdef
/rf {rectfill} bdef
% page state control
/pgsv () def
/bpage {/pgsv save def} bdef
/epage {pgsv restore} bdef
/bplot /gsave ldef
/eplot {stroke grestore} bdef
% orientation switch
/portraitMode 0 def /landscapeMode 1 def /rotateMode 2 def
% coordinate system mappings
/dpi2point 0 def
% font control
/FontSize 0 def
/FMS {/FontSize xstore findfont [FontSize 0 0 FontSize neg 0 0]
  makefont setfont} bdef
/ISOLatin1Encoding where {pop /WindowsLatin1Encoding 256 array bdef
ISOLatin1Encoding WindowsLatin1Encoding copy pop
/.notdef/.notdef/quotesinglbase/florin/quotedblbase/ellipsis/dagger
/daggerdbl/circumflex/perthousand/Scaron/guilsinglleft/OE/.notdef/.notdef
/.notdef/.notdef/quoteleft/quoteright/quotedblleft/quotedblright/bullet
/endash/emdash/tilde/trademark/scaron/guilsinglright/oe/.notdef/.notdef
/Ydieresis WindowsLatin1Encoding 128 32 getinterval astore pop}
{/WindowsLatin1Encoding StandardEncoding bdef} ifelse
/reencode {exch dup where {pop load} {pop StandardEncoding} ifelse
  exch dup 3 1 roll findfont dup length dict begin
  { 1 index /FID ne {def}{pop pop} ifelse } forall
  /Encoding exch def currentdict end definefont pop} bdef
/isroman {findfont /CharStrings get /Agrave known} bdef
/FMSR {3 1 roll 1 index dup isroman {reencode} {pop pop} ifelse
  exch FMS} bdef
/csm {1 dpi2point div -1 dpi2point div scale neg translate
 dup landscapeMode eq {pop -90 rotate}
  {rotateMode eq {90 rotate} if} ifelse} bdef
% line types: solid, dotted, dashed, dotdash
/SO { [] 0 setdash } bdef
/DO { [.5 dpi2point mul 4 dpi2point mul] 0 setdash } bdef
/DA { [6 dpi2point mul] 0 setdash } bdef
/DD { [.5 dpi2point mul 4 dpi2point mul 6 dpi2point mul 4
  dpi2point mul] 0 setdash } bdef
% macros for lines and objects
/L {lineto stroke} bdef
/MP {3 1 roll moveto 1 sub {rlineto} repeat} bdef
/AP {{rlineto} repeat} bdef
/PDlw -1 def
/W {/PDlw currentlinewidth def setlinewidth} def
/PP {closepath eofill} bdef
/DP {closepath stroke} bdef
/MR {4 -2 roll moveto dup  0 exch rlineto exch 0 rlineto
  neg 0 exch rlineto closepath} bdef
/FR {MR stroke} bdef
/PR {MR fill} bdef
/L1i {{currentfile picstr readhexstring pop} image} bdef
/tMatrix matrix def
/MakeOval {newpath tMatrix currentmatrix pop translate scale
0 0 1 0 360 arc tMatrix setmatrix} bdef
/FO {MakeOval stroke} bdef
/PO {MakeOval fill} bdef
/PD {currentlinewidth 2 div 0 360 arc fill
   PDlw -1 eq not {PDlw w /PDlw -1 def} if} def
/FA {newpath tMatrix currentmatrix pop translate scale
  0 0 1 5 -2 roll arc tMatrix setmatrix stroke} bdef
/PA {newpath tMatrix currentmatrix pop	translate 0 0 moveto scale
  0 0 1 5 -2 roll arc closepath tMatrix setmatrix fill} bdef
/FAn {newpath tMatrix currentmatrix pop translate scale
  0 0 1 5 -2 roll arcn tMatrix setmatrix stroke} bdef
/PAn {newpath tMatrix currentmatrix pop translate 0 0 moveto scale
  0 0 1 5 -2 roll arcn closepath tMatrix setmatrix fill} bdef
/vradius 0 def /hradius 0 def /lry 0 def
/lrx 0 def /uly 0 def /ulx 0 def /rad 0 def
/MRR {/vradius xdef /hradius xdef /lry xdef /lrx xdef /uly xdef
  /ulx xdef newpath tMatrix currentmatrix pop ulx hradius add uly
  vradius add translate hradius vradius scale 0 0 1 180 270 arc 
  tMatrix setmatrix lrx hradius sub uly vradius add translate
  hradius vradius scale 0 0 1 270 360 arc tMatrix setmatrix
  lrx hradius sub lry vradius sub translate hradius vradius scale
  0 0 1 0 90 arc tMatrix setmatrix ulx hradius add lry vradius sub
  translate hradius vradius scale 0 0 1 90 180 arc tMatrix setmatrix
  closepath} bdef
/FRR {MRR stroke } bdef
/PRR {MRR fill } bdef
/MlrRR {/lry xdef /lrx xdef /uly xdef /ulx xdef /rad lry uly sub 2 div def
  newpath tMatrix currentmatrix pop ulx rad add uly rad add translate
  rad rad scale 0 0 1 90 270 arc tMatrix setmatrix lrx rad sub lry rad
  sub translate rad rad scale 0 0 1 270 90 arc tMatrix setmatrix
  closepath} bdef
/FlrRR {MlrRR stroke } bdef
/PlrRR {MlrRR fill } bdef
/MtbRR {/lry xdef /lrx xdef /uly xdef /ulx xdef /rad lrx ulx sub 2 div def
  newpath tMatrix currentmatrix pop ulx rad add uly rad add translate
  rad rad scale 0 0 1 180 360 arc tMatrix setmatrix lrx rad sub lry rad
  sub translate rad rad scale 0 0 1 0 180 arc tMatrix setmatrix
  closepath} bdef
/FtbRR {MtbRR stroke } bdef
/PtbRR {MtbRR fill } bdef
/stri 6 array def /dtri 6 array def
/smat 6 array def /dmat 6 array def
/tmat1 6 array def /tmat2 6 array def /dif 3 array def
/asub {/ind2 exch def /ind1 exch def dup dup
  ind1 get exch ind2 get sub exch } bdef
/tri_to_matrix {
  2 0 asub 3 1 asub 4 0 asub 5 1 asub
  dup 0 get exch 1 get 7 -1 roll astore } bdef
/compute_transform {
  dmat dtri tri_to_matrix tmat1 invertmatrix 
  smat stri tri_to_matrix tmat2 concatmatrix } bdef
/ds {stri astore pop} bdef
/dt {dtri astore pop} bdef
/db {2 copy /cols xdef /rows xdef mul dup 3 mul string
  currentfile 
  3 index 0 eq {/ASCIIHexDecode filter}
  {/ASCII85Decode filter 3 index 2 eq {/RunLengthDecode filter} if }
  ifelse exch readstring pop
  dup 0 3 index getinterval /rbmap xdef
  dup 2 index dup getinterval /gbmap xdef
  1 index dup 2 mul exch getinterval /bbmap xdef pop pop}bdef
/it {gs np dtri aload pop moveto lineto lineto cp c
  cols rows 8 compute_transform 
  rbmap gbmap bbmap true 3 colorimage gr}bdef
/il {newpath moveto lineto stroke}bdef
currentdict end def
%%EndProlog

%%BeginSetup
MathWorks begin

0 cap

end
%%EndSetup

%%Page: 1 1
%%BeginPageSetup
%%PageBoundingBox:    50    93   564   587
MathWorks begin
bpage
%%EndPageSetup

%%BeginObject: obj1
bplot

/dpi2point 8.33333 def
portraitMode 0150 5158 csm

  268   264  4288  4116 rc
84 dict begin %Colortable dictionary
/c0 { 0.000000 0.000000 0.000000 sr} bdef
/c1 { 1.000000 1.000000 1.000000 sr} bdef
/c2 { 0.900000 0.000000 0.000000 sr} bdef
/c3 { 0.000000 0.820000 0.000000 sr} bdef
/c4 { 0.000000 0.000000 0.800000 sr} bdef
/c5 { 0.910000 0.820000 0.320000 sr} bdef
/c6 { 1.000000 0.260000 0.820000 sr} bdef
/c7 { 0.000000 0.820000 0.820000 sr} bdef
c0
1 j
1 sg
   0    0 5001 5001 rf
12.5 w
0 3500 3751 0 0 -3500 749 4000 4 MP
PP
-3751 0 0 3500 3751 0 0 -3500 749 4000 5 MP stroke
gs 750 500 3751 3501 rc
16.6667 w
0 sg
9 0 9 1 9 -1 9 2 9 0 9 2 9 8 9 1 
9 1 9 2 9 5 9 5 9 1 9 1 9 -2 9 1 
9 3 10 4 9 1 9 3 9 6 9 3 9 0 9 0 
9 -1 9 3 9 5 9 6 9 6 9 5 9 1 9 2 
9 -2 9 2 9 2 10 1 9 1 9 3 9 2 9 1 
9 2 9 5 9 2 9 -2 9 2 9 6 9 1 9 1 
9 4 9 1 9 -1 9 4 9 4 10 1 9 1 9 -1 
9 0 9 -1 9 2 9 -1 9 2 9 3 9 3 9 2 
9 5 9 2 9 4 9 2 9 1 9 2 9 -1 10 0 
9 -2 9 1 9 4 9 2 9 -3 9 1 9 1 9 5 
9 1 9 2 9 4 9 1 9 4 9 3 9 4 9 3 
9 4 10 6 9 3 9 3 9 1 9 2 9 1 9 1 
9 4 9 5 9 1 9 0 9 4 9 2 9 3 9 1 
9 5 9 2 9 1 10 2 9 4 9 0 9 0 9 3 
9 5 9 0 9 1 9 2 9 1 9 -2 9 1 9 3 
9 3 9 1 9 0 9 -1 9 3 10 1 9 3 9 0 
9 3 9 4 9 -1 9 -2 9 0 9 3 9 2 9 2 
9 4 9 3 9 2 9 2 9 0 9 2 9 5 10 4 
9 3 9 4 9 3 9 0 9 0 9 3 9 5 9 0 
9 2 9 2 9 7 9 2 9 2 9 2 9 0 9 5 
9 -1 10 3 9 4 9 1 9 2 9 3 9 3 9 1 
9 -1 9 1 9 3 9 2 9 1 9 4 9 0 9 4 
9 1 9 2 9 4 10 2 9 4 9 -1 9 1 9 1 
9 -1 9 1 9 0 9 4 9 3 9 1 9 0 9 2 
9 2 9 -3 9 2 9 2 9 4 10 3 9 -1 9 4 
9 6 9 1 9 2 9 2 9 -3 9 0 9 0 9 -3 
9 1 9 1 9 0 9 4 9 4 9 5 9 3 10 3 
9 2 9 -2 9 4 9 0 9 2 9 -1 9 3 9 4 
9 2 9 3 9 -3 9 3 9 2 9 0 9 1 9 2 
9 1 10 2 9 3 9 2 9 0 9 1 9 1 9 2 
9 1 9 2 9 1 9 4 9 1 9 2 9 -3 9 -1 
9 0 9 1 9 2 10 0 9 3 9 -2 9 2 9 1 
9 3 9 -1 9 2 9 -3 9 0 9 3 9 -1 9 2 
9 2 9 -2 9 -4 9 -1 9 -2 10 2 9 -1 9 -1 
9 -1 9 0 9 1 9 1 9 3 9 0 9 -1 9 -1 
9 -1 9 -3 9 1 9 1 9 0 9 -1 9 3 10 0 
9 1 9 3 9 -1 9 0 9 1 9 -2 9 0 9 1 
9 1 9 0 9 0 976 728 300 MP stroke
9 -1 9 -2 9 0 9 0 9 0 9 0 10 0 9 0 
9 0 9 0 9 0 9 0 9 0 9 0 9 0 9 0 
9 0 9 -1 9 0 9 0 9 0 9 0 9 0 9 0 
9 0 750 732 26 MP stroke
gr

16.6667 w
0 sg
0.1 sg
%%IncludeResource: font Helvetica-Bold
/Helvetica-Bold /WindowsLatin1Encoding 183.333 FMSR

2010 4322 mt 
(Vertical Strain) s
 461 3127 mt  -90 rotate
(Number of Contacts) s
90 rotate
gs 750 500 3751 3501 rc
/c8 { 1.000000 0.000000 0.000000 sr} bdef
c8
9 3 8 3 9 4 9 1 8 1 9 4 9 4 8 2 
9 2 8 3 9 2 9 0 8 3 9 2 9 0 8 3 
9 6 9 5 8 7 9 3 9 2 8 -1 9 4 8 1 
9 0 9 2 8 3 9 3 9 5 8 2 9 2 9 0 
8 2 9 1 9 6 8 2 9 2 9 6 8 3 9 1 
8 5 9 1 9 4 8 0 9 4 9 5 8 3 9 3 
9 1 8 7 9 1 9 5 8 3 9 3 8 9 9 2 
9 7 8 4 9 5 9 5 8 6 9 2 9 1 8 1 
9 2 9 3 8 4 9 3 9 3 8 0 9 2 8 0 
9 4 9 3 8 5 9 3 9 2 8 1 9 4 9 5 
8 0 9 1 9 1 8 4 9 1 8 2 9 10 9 4 
8 7 9 1 9 2 8 2 9 0 9 2 8 2 9 1 
9 6 8 3 9 6 9 2 8 4 9 2 8 0 9 3 
9 5 8 -1 9 2 9 4 8 6 9 2 9 2 8 6 
9 4 9 2 8 2 9 3 8 3 9 3 9 2 8 7 
9 3 9 5 8 1 9 7 9 3 8 4 9 3 9 7 
8 1 9 2 9 4 8 5 9 3 8 2 9 4 9 3 
8 4 9 4 9 6 8 1 9 2 9 6 8 5 9 4 
9 4 8 4 9 0 8 4 9 6 9 3 8 1 9 3 
9 3 8 0 9 5 9 3 8 6 9 4 9 1 8 -1 
9 2 9 3 8 1 9 1 8 2 9 6 9 1 8 4 
9 2 9 2 8 6 9 -1 9 4 8 -1 9 2 9 5 
8 3 9 2 8 0 9 5 9 1 8 0 9 1 9 3 
8 5 9 3 9 4 8 3 9 1 9 3 8 4 9 0 
9 0 8 0 9 4 8 -1 9 0 9 -1 8 2 9 -1 
9 5 8 0 9 2 9 2 8 2 9 -1 9 0 8 5 
9 -1 8 -2 9 2 9 2 8 1 9 1 9 3 8 -1 
9 2 9 -1 8 1 9 1 9 2 8 2 9 2 9 -1 
8 1 9 0 8 -1 9 0 9 1 8 1 9 -1 9 1 
8 -1 9 -1 9 1 8 0 9 -1 9 0 8 0 9 1 
8 0 750 1848 242 MP stroke
/c9 { 0.000000 0.000000 1.000000 sr} bdef
c9
5 -1 4 -1 4 0 4 -1 4 0 5 1 4 -1 4 1 
4 0 4 0 5 0 4 -1 4 1 4 -1 4 1 5 0 
4 1 4 3 4 3 4 -1 5 -3 4 1 4 3 4 1 
4 1 5 1 4 5 4 2 4 -2 4 3 5 -1 4 4 
4 0 4 1 5 3 4 -3 4 2 4 0 4 1 5 1 
4 -1 4 1 4 0 4 -1 5 0 4 0 4 1 4 1 
4 2 5 2 4 0 4 -2 4 -1 4 2 5 3 4 3 
4 0 4 0 4 0 5 1 4 3 4 0 4 1 4 1 
5 -1 4 -2 4 1 4 2 4 0 5 1 4 4 4 0 
4 1 4 -1 5 3 4 -1 4 0 4 2 4 -1 5 0 
4 1 4 0 4 0 4 2 5 1 4 0 4 3 4 2 
4 0 5 2 4 2 4 0 4 0 4 0 5 -1 4 1 
4 0 4 1 5 1 4 -1 4 1 4 -1 4 -1 5 1 
4 2 4 0 4 -3 4 0 5 2 4 2 4 2 4 1 
4 -1 5 2 4 1 4 1 4 0 4 1 5 1 4 2 
4 -1 4 1 4 3 5 -1 4 1 4 0 4 0 4 0 
5 0 4 -2 4 2 4 2 4 -2 5 1 4 -1 4 -1 
4 2 4 0 5 1 4 1 4 0 4 0 4 1 5 0 
4 1 4 -1 4 1 4 1 5 1 4 2 4 0 4 1 
4 -1 5 1 4 0 4 1 4 3 4 2 5 0 4 0 
4 2 4 0 5 1 4 0 4 -2 4 1 4 1 5 1 
4 0 4 0 4 -1 4 3 5 1 4 2 4 -1 4 3 
4 1 5 -1 4 2 4 0 4 0 4 1 5 1 4 0 
4 4 4 0 4 -1 5 2 4 -1 4 0 4 1 4 0 
5 -2 4 -1 4 0 4 0 4 3 5 0 4 -1 4 1 
4 0 4 0 5 3 4 1 4 2 4 1 4 2 5 3 
4 2 4 2 4 0 4 1 5 1 4 0 4 2 4 -1 
4 3 5 1 4 0 4 0 4 1 4 0 5 1 4 2 
4 0 4 -1 5 2 4 1 4 1 4 0 4 0 5 1 
4 1 4 -1 4 4 4 0 5 3 4 -1 4 1 4 1 
4 0 5 -1 4 2 4 0 4 2 4 0 5 0 4 0 
4 0 4 1 4 -1 5 0 4 0 4 2 4 3 4 1 
5 1 4 2 4 1 4 3 4 3 5 0 4 -4 4 1 
4 3 4 2 5 0 4 0 4 2 4 -2 4 1 5 -1 
4 2 4 1 4 1 4 -1 5 1 4 1 4 -1 4 2 
4 2 5 3 4 -1 4 0 4 0 4 -1 5 -2 4 1 
4 0 4 2 5 0 4 -1 4 1 4 2 4 -1 5 3 
4 -2 4 1 4 0 2889 3196 300 MP stroke
4 0 5 2 4 1 4 1 4 1 4 1 5 1 4 1 
4 2 4 3 4 2 5 2 4 0 4 3 4 2 4 2 
5 0 4 1 4 1 4 3 4 1 5 3 4 0 4 3 
4 1 4 -1 5 0 4 2 4 1 4 2 4 2 5 1 
4 -1 4 2 4 0 4 -1 5 1 4 0 4 1 4 0 
4 2 5 2 4 1 4 1 4 0 4 3 5 3 4 -1 
4 -1 4 2 4 1 5 4 4 1 4 2 4 1 4 1 
5 1 4 2 4 1 4 1 5 0 4 -2 4 1 4 1 
4 4 5 0 4 1 4 5 4 1 4 3 5 3 4 2 
4 0 4 2 4 3 5 1 4 0 4 -1 4 1 4 1 
5 1 4 3 4 0 4 3 4 2 5 2 4 3 4 1 
4 -1 4 4 5 1 4 0 4 3 4 1 4 3 5 -1 
4 2 4 2 4 -2 4 2 5 1 4 1 4 2 4 1 
4 2 5 1 4 0 4 -1 4 -2 4 0 5 -1 4 0 
4 5 4 0 4 2 5 1 4 3 4 2 4 3 4 1 
5 0 4 0 4 0 4 2 5 0 4 0 4 2 4 1 
4 1 5 1 4 0 4 1 4 1 4 2 5 1 4 2 
4 0 4 -1 4 2 5 1 4 3 4 2 4 4 4 2 
5 1 4 2 4 3 4 2 4 4 5 0 4 2 4 1 
4 1 4 1 5 2 4 2 4 0 4 0 4 1 5 1 
4 2 4 -1 4 3 4 0 5 3 4 2 4 2 4 2 
4 1 5 2 4 0 4 1 4 2 4 0 5 5 4 1 
4 2 4 1 4 3 5 0 4 5 4 1 4 0 4 0 
5 1 4 1 4 2 4 1 5 0 4 2 4 5 4 2 
4 2 5 0 4 2 4 1 4 1 4 0 5 2 4 0 
4 1 4 1 4 0 5 1 4 0 4 1 4 0 4 -2 
5 3 4 1 4 2 4 1 4 2 5 -2 4 1 4 2 
4 2 4 3 5 2 4 1 4 -2 4 5 4 1 5 2 
4 2 4 0 4 1 4 4 5 3 4 -1 4 2 4 1 
4 0 5 3 4 0 4 2 4 1 4 0 5 5 4 3 
4 2 4 3 4 5 5 3 4 4 4 -1 4 2 4 2 
5 2 4 1 4 2 4 2 5 2 4 2 4 1 4 2 
4 2 5 3 4 1 4 0 4 2 4 -1 5 2 4 0 
4 1 4 -3 4 1 5 2 4 0 4 2 4 2 4 2 
5 3 4 -1 4 3 4 5 4 2 5 2 4 3 4 1 
4 3 4 0 5 2 4 1 4 1 4 0 4 1 5 0 
4 3 4 2 4 1 4 3 5 1 4 4 4 4 4 2 
4 0 5 4 4 2 1632 2784 300 MP stroke
4 -1 4 2 4 3 5 4 4 3 4 -1 4 3 4 0 
5 -3 4 2 4 1 4 0 4 3 5 2 4 0 4 1 
4 3 5 3 4 3 4 3 4 0 4 0 5 3 4 0 
4 0 4 0 4 4 5 2 4 1 4 3 4 3 4 2 
5 1 4 0 4 1 4 3 4 1 5 2 4 4 4 0 
4 5 4 4 5 0 4 2 4 0 4 4 4 3 5 3 
4 2 4 1 4 4 4 2 5 2 4 4 4 4 4 2 
4 3 5 4 4 2 4 1 4 3 4 3 5 1 4 4 
4 2 4 4 4 7 5 0 4 1 4 2 4 2 4 3 
5 0 4 4 4 2 4 -2 4 2 5 2 4 1 4 2 
4 3 5 2 4 1 4 2 4 1 4 2 5 0 4 2 
4 1 4 1 4 1 5 3 4 1 4 3 4 3 4 1 
5 3 4 3 4 1 4 3 4 1 5 3 4 2 4 2 
4 5 4 3 5 1 4 1 4 1 4 3 4 0 5 0 
4 1 4 1 4 1 4 1 5 3 4 3 4 1 4 3 
4 0 5 2 4 2 4 1 4 5 4 -2 5 2 4 1 
4 0 4 0 4 3 5 0 4 1 4 1 4 -1 4 4 
5 -1 4 1 4 4 4 0 4 0 5 0 4 2 4 0 
4 3 5 1 4 3 4 2 4 1 4 2 5 0 4 2 
4 2 4 2 4 3 5 3 4 2 4 0 4 -2 4 2 
5 3 4 1 4 0 4 0 4 1 5 0 4 0 4 1 
4 2 4 2 5 2 4 -2 4 0 4 -1 4 2 5 -1 
4 5 4 -2 4 2 4 1 5 -1 4 0 4 1 4 1 
4 0 5 -2 4 1 4 0 4 0 4 0 5 0 4 -1 
4 0 4 0 4 0 5 0 4 0 4 0 4 -1 4 0 
5 0 4 0 4 0 4 0 4 0 5 1 4 0 4 0 
4 0 4 0 750 2489 211 MP stroke
gr

c9
0 sg
%%IncludeResource: font Helvetica
/Helvetica /WindowsLatin1Encoding 83.3333 FMSR

 732 4037 mt 
( ) s
4483  536 mt 
( ) s
8.33333 w
DO
SO
12.5 w
0.1 sg
 749  500 mt 4500  500 L
 749 4000 mt 4500 4000 L
4500 4000 mt 4500  500 L
 749 4000 mt  749  500 L
 749 4000 mt 4500 4000 L
 749 4000 mt  749  500 L
 749 4000 mt  749 3943 L
 749  500 mt  749  556 L
%%IncludeResource: font Helvetica
/Helvetica /WindowsLatin1Encoding 133.333 FMSR

 712 4148 mt 
(0) s
1249 4000 mt 1249 3943 L
1249  500 mt 1249  556 L
1120 4148 mt 
(0.01) s
1750 4000 mt 1750 3943 L
1750  500 mt 1750  556 L
1621 4148 mt 
(0.02) s
2250 4000 mt 2250 3943 L
2250  500 mt 2250  556 L
2121 4148 mt 
(0.03) s
2750 4000 mt 2750 3943 L
2750  500 mt 2750  556 L
2621 4148 mt 
(0.04) s
3250 4000 mt 3250 3943 L
3250  500 mt 3250  556 L
3121 4148 mt 
(0.05) s
3750 4000 mt 3750 3943 L
3750  500 mt 3750  556 L
3621 4148 mt 
(0.06) s
4250 4000 mt 4250 3943 L
4250  500 mt 4250  556 L
4121 4148 mt 
(0.07) s
 749 4000 mt  806 4000 L
4500 4000 mt 4443 4000 L
 541 4049 mt 
(3.2) s
 749 3461 mt  806 3461 L
4500 3461 mt 4443 3461 L
 541 3510 mt 
(3.4) s
 749 2923 mt  806 2923 L
4500 2923 mt 4443 2923 L
 541 2972 mt 
(3.6) s
 749 2384 mt  806 2384 L
4500 2384 mt 4443 2384 L
 541 2433 mt 
(3.8) s
 749 1846 mt  806 1846 L
4500 1846 mt 4443 1846 L
 652 1895 mt 
(4) s
 749 1307 mt  806 1307 L
4500 1307 mt 4443 1307 L
 541 1356 mt 
(4.2) s
 749  769 mt  806  769 L
4500  769 mt 4443  769 L
 541  818 mt 
(4.4) s
 749  463 mt 
(x 10) s
%%IncludeResource: font Helvetica
/Helvetica /WindowsLatin1Encoding 88.8889 FMSR

1001  381 mt 
(4) s
 749  500 mt 4500  500 L
 749 4000 mt 4500 4000 L
4500 4000 mt 4500  500 L
 749 4000 mt  749  500 L
0 sg
%%IncludeResource: font Helvetica-Bold
/Helvetica-Bold /WindowsLatin1Encoding 125 FMSR

3175 1608 mt 
(G\(K) s
%%IncludeResource: font Helvetica-Bold
/Helvetica-Bold /WindowsLatin1Encoding 100 FMSR

3404 1670 mt 
(1) s
%%IncludeResource: font Helvetica-Bold
/Helvetica-Bold /WindowsLatin1Encoding 125 FMSR

3459 1608 mt 
(\) = 2.5E06 Pa) s
gs 2850 1464 1426 698 rc
16.6667 w
250 0 2900 1589 2 MP stroke
gr

16.6667 w
3175 1831 mt 
(G\(K) s
%%IncludeResource: font Helvetica-Bold
/Helvetica-Bold /WindowsLatin1Encoding 100 FMSR

3404 1893 mt 
(1) s
%%IncludeResource: font Helvetica-Bold
/Helvetica-Bold /WindowsLatin1Encoding 125 FMSR

3459 1831 mt 
(\) = 5E06 Pa) s
gs 2850 1464 1426 698 rc
c8
250 0 2900 1812 2 MP stroke
gr

c8
0 sg
3175 2054 mt 
(G\(K) s
%%IncludeResource: font Helvetica-Bold
/Helvetica-Bold /WindowsLatin1Encoding 100 FMSR

3404 2116 mt 
(1) s
%%IncludeResource: font Helvetica-Bold
/Helvetica-Bold /WindowsLatin1Encoding 125 FMSR

3459 2054 mt 
(\) = 7.5E06 Pa) s
gs 2850 1464 1426 698 rc
c9
250 0 2900 2035 2 MP stroke
12.5 w
gr

12.5 w
c9

end %%Color Dict

eplot
%%EndObject

epage
end

showpage

%%Trailer
%%EOF
