%!PS-Adobe-3.0 EPSF-3.0
%%Creator: MATLAB, The MathWorks, Inc. Version 8.1.0.604 (R2013a). Operating System: Microsoft Windows 7.
%%Title: .\K1_Unconfined_Aspect_ratio.eps
%%CreationDate: 08/17/2013  15:45:17
%%DocumentNeededFonts: Helvetica
%%DocumentProcessColors: Cyan Magenta Yellow Black
%%LanguageLevel: 2
%%Pages: 1
%%BoundingBox:    61    56   568   596
%%EndComments

%%BeginProlog
% MathWorks dictionary
/MathWorks 160 dict begin
% definition operators
/bdef {bind def} bind def
/ldef {load def} bind def
/xdef {exch def} bdef
/xstore {exch store} bdef
% operator abbreviations
/c  /clip ldef
/cc /concat ldef
/cp /closepath ldef
/gr /grestore ldef
/gs /gsave ldef
/mt /moveto ldef
/np /newpath ldef
/cm /currentmatrix ldef
/sm /setmatrix ldef
/rm /rmoveto ldef
/rl /rlineto ldef
/s {show newpath} bdef
/sc {setcmykcolor} bdef
/sr /setrgbcolor ldef
/sg /setgray ldef
/w /setlinewidth ldef
/j /setlinejoin ldef
/cap /setlinecap ldef
/rc {rectclip} bdef
/rf {rectfill} bdef
% page state control
/pgsv () def
/bpage {/pgsv save def} bdef
/epage {pgsv restore} bdef
/bplot /gsave ldef
/eplot {stroke grestore} bdef
% orientation switch
/portraitMode 0 def /landscapeMode 1 def /rotateMode 2 def
% coordinate system mappings
/dpi2point 0 def
% font control
/FontSize 0 def
/FMS {/FontSize xstore findfont [FontSize 0 0 FontSize neg 0 0]
  makefont setfont} bdef
/ISOLatin1Encoding where {pop /WindowsLatin1Encoding 256 array bdef
ISOLatin1Encoding WindowsLatin1Encoding copy pop
/.notdef/.notdef/quotesinglbase/florin/quotedblbase/ellipsis/dagger
/daggerdbl/circumflex/perthousand/Scaron/guilsinglleft/OE/.notdef/.notdef
/.notdef/.notdef/quoteleft/quoteright/quotedblleft/quotedblright/bullet
/endash/emdash/tilde/trademark/scaron/guilsinglright/oe/.notdef/.notdef
/Ydieresis WindowsLatin1Encoding 128 32 getinterval astore pop}
{/WindowsLatin1Encoding StandardEncoding bdef} ifelse
/reencode {exch dup where {pop load} {pop StandardEncoding} ifelse
  exch dup 3 1 roll findfont dup length dict begin
  { 1 index /FID ne {def}{pop pop} ifelse } forall
  /Encoding exch def currentdict end definefont pop} bdef
/isroman {findfont /CharStrings get /Agrave known} bdef
/FMSR {3 1 roll 1 index dup isroman {reencode} {pop pop} ifelse
  exch FMS} bdef
/csm {1 dpi2point div -1 dpi2point div scale neg translate
 dup landscapeMode eq {pop -90 rotate}
  {rotateMode eq {90 rotate} if} ifelse} bdef
% line types: solid, dotted, dashed, dotdash
/SO { [] 0 setdash } bdef
/DO { [.5 dpi2point mul 4 dpi2point mul] 0 setdash } bdef
/DA { [6 dpi2point mul] 0 setdash } bdef
/DD { [.5 dpi2point mul 4 dpi2point mul 6 dpi2point mul 4
  dpi2point mul] 0 setdash } bdef
% macros for lines and objects
/L {lineto stroke} bdef
/MP {3 1 roll moveto 1 sub {rlineto} repeat} bdef
/AP {{rlineto} repeat} bdef
/PDlw -1 def
/W {/PDlw currentlinewidth def setlinewidth} def
/PP {closepath eofill} bdef
/DP {closepath stroke} bdef
/MR {4 -2 roll moveto dup  0 exch rlineto exch 0 rlineto
  neg 0 exch rlineto closepath} bdef
/FR {MR stroke} bdef
/PR {MR fill} bdef
/L1i {{currentfile picstr readhexstring pop} image} bdef
/tMatrix matrix def
/MakeOval {newpath tMatrix currentmatrix pop translate scale
0 0 1 0 360 arc tMatrix setmatrix} bdef
/FO {MakeOval stroke} bdef
/PO {MakeOval fill} bdef
/PD {currentlinewidth 2 div 0 360 arc fill
   PDlw -1 eq not {PDlw w /PDlw -1 def} if} def
/FA {newpath tMatrix currentmatrix pop translate scale
  0 0 1 5 -2 roll arc tMatrix setmatrix stroke} bdef
/PA {newpath tMatrix currentmatrix pop	translate 0 0 moveto scale
  0 0 1 5 -2 roll arc closepath tMatrix setmatrix fill} bdef
/FAn {newpath tMatrix currentmatrix pop translate scale
  0 0 1 5 -2 roll arcn tMatrix setmatrix stroke} bdef
/PAn {newpath tMatrix currentmatrix pop translate 0 0 moveto scale
  0 0 1 5 -2 roll arcn closepath tMatrix setmatrix fill} bdef
/vradius 0 def /hradius 0 def /lry 0 def
/lrx 0 def /uly 0 def /ulx 0 def /rad 0 def
/MRR {/vradius xdef /hradius xdef /lry xdef /lrx xdef /uly xdef
  /ulx xdef newpath tMatrix currentmatrix pop ulx hradius add uly
  vradius add translate hradius vradius scale 0 0 1 180 270 arc 
  tMatrix setmatrix lrx hradius sub uly vradius add translate
  hradius vradius scale 0 0 1 270 360 arc tMatrix setmatrix
  lrx hradius sub lry vradius sub translate hradius vradius scale
  0 0 1 0 90 arc tMatrix setmatrix ulx hradius add lry vradius sub
  translate hradius vradius scale 0 0 1 90 180 arc tMatrix setmatrix
  closepath} bdef
/FRR {MRR stroke } bdef
/PRR {MRR fill } bdef
/MlrRR {/lry xdef /lrx xdef /uly xdef /ulx xdef /rad lry uly sub 2 div def
  newpath tMatrix currentmatrix pop ulx rad add uly rad add translate
  rad rad scale 0 0 1 90 270 arc tMatrix setmatrix lrx rad sub lry rad
  sub translate rad rad scale 0 0 1 270 90 arc tMatrix setmatrix
  closepath} bdef
/FlrRR {MlrRR stroke } bdef
/PlrRR {MlrRR fill } bdef
/MtbRR {/lry xdef /lrx xdef /uly xdef /ulx xdef /rad lrx ulx sub 2 div def
  newpath tMatrix currentmatrix pop ulx rad add uly rad add translate
  rad rad scale 0 0 1 180 360 arc tMatrix setmatrix lrx rad sub lry rad
  sub translate rad rad scale 0 0 1 0 180 arc tMatrix setmatrix
  closepath} bdef
/FtbRR {MtbRR stroke } bdef
/PtbRR {MtbRR fill } bdef
/stri 6 array def /dtri 6 array def
/smat 6 array def /dmat 6 array def
/tmat1 6 array def /tmat2 6 array def /dif 3 array def
/asub {/ind2 exch def /ind1 exch def dup dup
  ind1 get exch ind2 get sub exch } bdef
/tri_to_matrix {
  2 0 asub 3 1 asub 4 0 asub 5 1 asub
  dup 0 get exch 1 get 7 -1 roll astore } bdef
/compute_transform {
  dmat dtri tri_to_matrix tmat1 invertmatrix 
  smat stri tri_to_matrix tmat2 concatmatrix } bdef
/ds {stri astore pop} bdef
/dt {dtri astore pop} bdef
/db {2 copy /cols xdef /rows xdef mul dup 3 mul string
  currentfile 
  3 index 0 eq {/ASCIIHexDecode filter}
  {/ASCII85Decode filter 3 index 2 eq {/RunLengthDecode filter} if }
  ifelse exch readstring pop
  dup 0 3 index getinterval /rbmap xdef
  dup 2 index dup getinterval /gbmap xdef
  1 index dup 2 mul exch getinterval /bbmap xdef pop pop}bdef
/it {gs np dtri aload pop moveto lineto lineto cp c
  cols rows 8 compute_transform 
  rbmap gbmap bbmap true 3 colorimage gr}bdef
/il {newpath moveto lineto stroke}bdef
currentdict end def
%%EndProlog

%%BeginSetup
MathWorks begin

0 cap

end
%%EndSetup

%%Page: 1 1
%%BeginPageSetup
%%PageBoundingBox:    61    56   568   596
MathWorks begin
bpage
%%EndPageSetup

%%BeginObject: obj1
bplot

/dpi2point 8.33333 def
portraitMode 0150 5158 csm

  360   184  4227  4502 rc
83 dict begin %Colortable dictionary
/c0 { 0.000000 0.000000 0.000000 sr} bdef
/c1 { 1.000000 1.000000 1.000000 sr} bdef
/c2 { 0.900000 0.000000 0.000000 sr} bdef
/c3 { 0.000000 0.820000 0.000000 sr} bdef
/c4 { 0.000000 0.000000 0.800000 sr} bdef
/c5 { 0.910000 0.820000 0.320000 sr} bdef
/c6 { 1.000000 0.260000 0.820000 sr} bdef
/c7 { 0.000000 0.820000 0.820000 sr} bdef
c0
1 j
1 sg
   0    0 5001 5001 rf
4.16667 w
0 4075 3875 0 0 -4075 650 4450 4 MP
PP
-3875 0 0 4075 3875 0 0 -4075 650 4450 5 MP stroke
2.77778 w
DO
SO
4.16667 w
0 sg
 650  375 mt 4525  375 L
 650 4450 mt 4525 4450 L
4525 4450 mt 4525  375 L
 650 4450 mt  650  375 L
 650 4450 mt 4525 4450 L
 650 4450 mt  650  375 L
1425 4450 mt 1425 4409 L
1425  375 mt 1425  415 L
%%IncludeResource: font Helvetica
/Helvetica /WindowsLatin1Encoding 83.3333 FMSR

1269 4551 mt 
(Us = 0.2) s
2200 4450 mt 2200 4409 L
2200  375 mt 2200  415 L
2044 4551 mt 
(Us = 0.5) s
2975 4450 mt 2975 4409 L
2975  375 mt 2975  415 L
2819 4551 mt 
(Us = 0.8) s
 650 4450 mt  690 4450 L
4525 4450 mt 4484 4450 L
 580 4480 mt 
(0) s
 650 3940 mt  690 3940 L
4525 3940 mt 4484 3940 L
 511 3970 mt 
(0.2) s
 650 3431 mt  690 3431 L
4525 3431 mt 4484 3431 L
 511 3461 mt 
(0.4) s
 650 2921 mt  690 2921 L
4525 2921 mt 4484 2921 L
 511 2951 mt 
(0.6) s
 650 2412 mt  690 2412 L
4525 2412 mt 4484 2412 L
 511 2442 mt 
(0.8) s
 650 1903 mt  690 1903 L
4525 1903 mt 4484 1903 L
 580 1933 mt 
(1) s
 650 1393 mt  690 1393 L
4525 1393 mt 4484 1393 L
 511 1423 mt 
(1.2) s
 650  884 mt  690  884 L
4525  884 mt 4484  884 L
 511  914 mt 
(1.4) s
 650  375 mt  690  375 L
4525  375 mt 4484  375 L
 511  405 mt 
(1.6) s
 650  375 mt 4525  375 L
 650 4450 mt 4525 4450 L
4525 4450 mt 4525  375 L
 650 4450 mt  650  375 L
gs 650 375 3876 4076 rc
/c8 { 0.000000 0.000000 0.562500 sr} bdef
c8
0 3516 332 0 0 -3516 1148 4450 4 MP
PP
0 sg
-332 0 0 3516 332 0 0 -3516 1148 4450 5 MP stroke
c8
0 3683 332 0 0 -3683 1923 4450 4 MP
PP
0 sg
-332 0 0 3683 332 0 0 -3683 1923 4450 5 MP stroke
c8
0 3788 332 0 0 -3788 2698 4450 4 MP
PP
0 sg
-332 0 0 3788 332 0 0 -3788 2698 4450 5 MP stroke
16.6667 w
3875 0 650 4450 2 MP stroke
/c9 { 0.500000 0.000000 0.000000 sr} bdef
c9
0 3310 332 0 0 -3310 1369 4450 4 MP
PP
4.16667 w
0 sg
-332 0 0 3310 332 0 0 -3310 1369 4450 5 MP stroke
c9
0 3530 332 0 0 -3530 2144 4450 4 MP
PP
0 sg
-332 0 0 3530 332 0 0 -3530 2144 4450 5 MP stroke
c9
0 3530 332 0 0 -3530 2919 4450 4 MP
PP
0 sg
-332 0 0 3530 332 0 0 -3530 2919 4450 5 MP stroke
gr

2392 4651 mt 
(Simulation) s
 454 2649 mt  -90 rotate
(Aspect Ratio) s
90 rotate
1594  311 mt 
(Aspect Ratio Comparison for 5000 Spherical Particles) s
 638 4481 mt 
( ) s
4514  405 mt 
( ) s
1 sg
0 232 1333 0 0 -232 691 649 4 MP
PP
-1333 0 0 232 1333 0 0 -232 691 649 5 MP stroke
2.77778 w
DO
SO
4.16667 w
0 sg
 691  417 mt 2024  417 L
 691  649 mt 2024  649 L
2024  649 mt 2024  417 L
 691  649 mt  691  417 L
 691  649 mt 2024  649 L
 691  649 mt  691  417 L
 691  417 mt 2024  417 L
 691  649 mt 2024  649 L
2024  649 mt 2024  417 L
 691  649 mt  691  417 L
1018  512 mt 
(Consolidated Aspect Ratio) s
gs 691 417 1334 233 rc
c8
-251 0 0 76 251 0 0 -76 741 519 5 MP
PP
0 sg
0 0 -251 0 0 76 251 0 0 -76 741 519 6 MP stroke
gr

1018  615 mt 
(Failed Aspect Ratio) s
gs 691 417 1334 233 rc
c9
-251 0 0 76 251 0 0 -76 741 622 5 MP
PP
0 sg
0 0 -251 0 0 76 251 0 0 -76 741 622 6 MP stroke
gr


end %%Color Dict

eplot
%%EndObject

epage
end

showpage

%%Trailer
%%EOF
