%!PS-Adobe-3.0 EPSF-3.0
%%Creator: MATLAB, The MathWorks, Inc. Version 8.1.0.604 (R2013a). Operating System: Microsoft Windows 7.
%%Title: .\K2_ConfinedPorosity_SameFill.eps
%%CreationDate: 08/17/2013  16:01:38
%%DocumentNeededFonts: Helvetica-Bold
%%+ Helvetica
%%DocumentProcessColors: Cyan Magenta Yellow Black
%%LanguageLevel: 2
%%Pages: 1
%%BoundingBox:    41    88   564   569
%%EndComments

%%BeginProlog
% MathWorks dictionary
/MathWorks 160 dict begin
% definition operators
/bdef {bind def} bind def
/ldef {load def} bind def
/xdef {exch def} bdef
/xstore {exch store} bdef
% operator abbreviations
/c  /clip ldef
/cc /concat ldef
/cp /closepath ldef
/gr /grestore ldef
/gs /gsave ldef
/mt /moveto ldef
/np /newpath ldef
/cm /currentmatrix ldef
/sm /setmatrix ldef
/rm /rmoveto ldef
/rl /rlineto ldef
/s {show newpath} bdef
/sc {setcmykcolor} bdef
/sr /setrgbcolor ldef
/sg /setgray ldef
/w /setlinewidth ldef
/j /setlinejoin ldef
/cap /setlinecap ldef
/rc {rectclip} bdef
/rf {rectfill} bdef
% page state control
/pgsv () def
/bpage {/pgsv save def} bdef
/epage {pgsv restore} bdef
/bplot /gsave ldef
/eplot {stroke grestore} bdef
% orientation switch
/portraitMode 0 def /landscapeMode 1 def /rotateMode 2 def
% coordinate system mappings
/dpi2point 0 def
% font control
/FontSize 0 def
/FMS {/FontSize xstore findfont [FontSize 0 0 FontSize neg 0 0]
  makefont setfont} bdef
/ISOLatin1Encoding where {pop /WindowsLatin1Encoding 256 array bdef
ISOLatin1Encoding WindowsLatin1Encoding copy pop
/.notdef/.notdef/quotesinglbase/florin/quotedblbase/ellipsis/dagger
/daggerdbl/circumflex/perthousand/Scaron/guilsinglleft/OE/.notdef/.notdef
/.notdef/.notdef/quoteleft/quoteright/quotedblleft/quotedblright/bullet
/endash/emdash/tilde/trademark/scaron/guilsinglright/oe/.notdef/.notdef
/Ydieresis WindowsLatin1Encoding 128 32 getinterval astore pop}
{/WindowsLatin1Encoding StandardEncoding bdef} ifelse
/reencode {exch dup where {pop load} {pop StandardEncoding} ifelse
  exch dup 3 1 roll findfont dup length dict begin
  { 1 index /FID ne {def}{pop pop} ifelse } forall
  /Encoding exch def currentdict end definefont pop} bdef
/isroman {findfont /CharStrings get /Agrave known} bdef
/FMSR {3 1 roll 1 index dup isroman {reencode} {pop pop} ifelse
  exch FMS} bdef
/csm {1 dpi2point div -1 dpi2point div scale neg translate
 dup landscapeMode eq {pop -90 rotate}
  {rotateMode eq {90 rotate} if} ifelse} bdef
% line types: solid, dotted, dashed, dotdash
/SO { [] 0 setdash } bdef
/DO { [.5 dpi2point mul 4 dpi2point mul] 0 setdash } bdef
/DA { [6 dpi2point mul] 0 setdash } bdef
/DD { [.5 dpi2point mul 4 dpi2point mul 6 dpi2point mul 4
  dpi2point mul] 0 setdash } bdef
% macros for lines and objects
/L {lineto stroke} bdef
/MP {3 1 roll moveto 1 sub {rlineto} repeat} bdef
/AP {{rlineto} repeat} bdef
/PDlw -1 def
/W {/PDlw currentlinewidth def setlinewidth} def
/PP {closepath eofill} bdef
/DP {closepath stroke} bdef
/MR {4 -2 roll moveto dup  0 exch rlineto exch 0 rlineto
  neg 0 exch rlineto closepath} bdef
/FR {MR stroke} bdef
/PR {MR fill} bdef
/L1i {{currentfile picstr readhexstring pop} image} bdef
/tMatrix matrix def
/MakeOval {newpath tMatrix currentmatrix pop translate scale
0 0 1 0 360 arc tMatrix setmatrix} bdef
/FO {MakeOval stroke} bdef
/PO {MakeOval fill} bdef
/PD {currentlinewidth 2 div 0 360 arc fill
   PDlw -1 eq not {PDlw w /PDlw -1 def} if} def
/FA {newpath tMatrix currentmatrix pop translate scale
  0 0 1 5 -2 roll arc tMatrix setmatrix stroke} bdef
/PA {newpath tMatrix currentmatrix pop	translate 0 0 moveto scale
  0 0 1 5 -2 roll arc closepath tMatrix setmatrix fill} bdef
/FAn {newpath tMatrix currentmatrix pop translate scale
  0 0 1 5 -2 roll arcn tMatrix setmatrix stroke} bdef
/PAn {newpath tMatrix currentmatrix pop translate 0 0 moveto scale
  0 0 1 5 -2 roll arcn closepath tMatrix setmatrix fill} bdef
/vradius 0 def /hradius 0 def /lry 0 def
/lrx 0 def /uly 0 def /ulx 0 def /rad 0 def
/MRR {/vradius xdef /hradius xdef /lry xdef /lrx xdef /uly xdef
  /ulx xdef newpath tMatrix currentmatrix pop ulx hradius add uly
  vradius add translate hradius vradius scale 0 0 1 180 270 arc 
  tMatrix setmatrix lrx hradius sub uly vradius add translate
  hradius vradius scale 0 0 1 270 360 arc tMatrix setmatrix
  lrx hradius sub lry vradius sub translate hradius vradius scale
  0 0 1 0 90 arc tMatrix setmatrix ulx hradius add lry vradius sub
  translate hradius vradius scale 0 0 1 90 180 arc tMatrix setmatrix
  closepath} bdef
/FRR {MRR stroke } bdef
/PRR {MRR fill } bdef
/MlrRR {/lry xdef /lrx xdef /uly xdef /ulx xdef /rad lry uly sub 2 div def
  newpath tMatrix currentmatrix pop ulx rad add uly rad add translate
  rad rad scale 0 0 1 90 270 arc tMatrix setmatrix lrx rad sub lry rad
  sub translate rad rad scale 0 0 1 270 90 arc tMatrix setmatrix
  closepath} bdef
/FlrRR {MlrRR stroke } bdef
/PlrRR {MlrRR fill } bdef
/MtbRR {/lry xdef /lrx xdef /uly xdef /ulx xdef /rad lrx ulx sub 2 div def
  newpath tMatrix currentmatrix pop ulx rad add uly rad add translate
  rad rad scale 0 0 1 180 360 arc tMatrix setmatrix lrx rad sub lry rad
  sub translate rad rad scale 0 0 1 0 180 arc tMatrix setmatrix
  closepath} bdef
/FtbRR {MtbRR stroke } bdef
/PtbRR {MtbRR fill } bdef
/stri 6 array def /dtri 6 array def
/smat 6 array def /dmat 6 array def
/tmat1 6 array def /tmat2 6 array def /dif 3 array def
/asub {/ind2 exch def /ind1 exch def dup dup
  ind1 get exch ind2 get sub exch } bdef
/tri_to_matrix {
  2 0 asub 3 1 asub 4 0 asub 5 1 asub
  dup 0 get exch 1 get 7 -1 roll astore } bdef
/compute_transform {
  dmat dtri tri_to_matrix tmat1 invertmatrix 
  smat stri tri_to_matrix tmat2 concatmatrix } bdef
/ds {stri astore pop} bdef
/dt {dtri astore pop} bdef
/db {2 copy /cols xdef /rows xdef mul dup 3 mul string
  currentfile 
  3 index 0 eq {/ASCIIHexDecode filter}
  {/ASCII85Decode filter 3 index 2 eq {/RunLengthDecode filter} if }
  ifelse exch readstring pop
  dup 0 3 index getinterval /rbmap xdef
  dup 2 index dup getinterval /gbmap xdef
  1 index dup 2 mul exch getinterval /bbmap xdef pop pop}bdef
/it {gs np dtri aload pop moveto lineto lineto cp c
  cols rows 8 compute_transform 
  rbmap gbmap bbmap true 3 colorimage gr}bdef
/il {newpath moveto lineto stroke}bdef
currentdict end def
%%EndProlog

%%BeginSetup
MathWorks begin

0 cap

end
%%EndSetup

%%Page: 1 1
%%BeginPageSetup
%%PageBoundingBox:    41    88   564   569
MathWorks begin
bpage
%%EndPageSetup

%%BeginObject: obj1
bplot

/dpi2point 8.33333 def
portraitMode 0150 5158 csm

  194   409  4362  4011 rc
84 dict begin %Colortable dictionary
/c0 { 0.000000 0.000000 0.000000 sr} bdef
/c1 { 1.000000 1.000000 1.000000 sr} bdef
/c2 { 0.900000 0.000000 0.000000 sr} bdef
/c3 { 0.000000 0.820000 0.000000 sr} bdef
/c4 { 0.000000 0.000000 0.800000 sr} bdef
/c5 { 0.910000 0.820000 0.320000 sr} bdef
/c6 { 1.000000 0.260000 0.820000 sr} bdef
/c7 { 0.000000 0.820000 0.820000 sr} bdef
c0
1 j
1 sg
   0    0 5001 5001 rf
12.5 w
0 3500 3750 0 0 -3500 750 4000 4 MP
PP
-3750 0 0 3500 3750 0 0 -3500 750 4000 5 MP stroke
gs 750 500 3751 3501 rc
16.6667 w
0 sg
-107 -1 -164 -2 -137 -2 -128 -1 -114 -2 -98 -2 -91 -2 -84 -2 
-75 -2 -65 -2 -62 -2 -58 -1 -59 -2 -63 -2 -66 -2 -70 -2 
-72 -2 -68 -2 -66 -2 -66 -1 -65 -2 -65 -2 -58 -2 -52 -2 
-47 -2 -43 -2 -46 -2 -49 -2 -48 -1 -44 -2 -40 -2 -33 -2 
-32 -2 -37 -2 -37 -2 -35 -2 -34 -1 -35 -2 -34 -2 -36 -2 
-36 -2 -36 -2 -37 -2 -38 -2 -37 -2 -37 -2 -43 -1 -52 -2 
-48 -2 -47 -2 -50 -2 -52 -2 -45 -2 -40 -2 -39 -2 -36 -2 
-119 -1 -89 -2 -73 -2 -61 5 -48 4 7 5 6 5 8 5 
5 4 0 5 -1 5 -2 4 -4 5 -1 5 3 5 4 4 
4 5 2 5 2 4 1 5 0 5 1 5 1 4 2 5 
2 5 1 4 -1 5 0 5 2 4 2 5 3 5 6 4 
6 5 5 4 5 5 5 5 5 4 5 5 6 5 7 4 
8 5 6 4 7 5 8 5 6 4 7 5 8 4 8 5 
8 5 7 4 9 5 9 4 8 5 7 4 7 5 6 5 
6 4 6 5 8 4 7 5 8 4 9 5 8 4 7 5 
9 4 9 5 9 4 9 5 8 4 9 5 10 4 9 5 
9 4 9 5 9 4 9 5 8 4 9 5 10 4 9 5 
9 4 10 5 9 4 10 5 10 4 11 4 10 5 11 4 
11 5 12 4 12 5 12 4 12 4 12 5 13 4 13 5 
13 4 14 5 14 4 14 4 15 5 15 4 15 4 16 5 
17 4 20 5 17 4 15 4 14 2 12 3 11 4 11 4 
9 5 7 4 3 4 -3 5 -4 4 -2 4 1 5 3 4 
7 4 9 5 8 4 5 4 5 5 3 4 2 4 5 5 
4 4 5 4 3 4 -1 5 -1 4 1 4 0 9 3 4 
2 4 3 5 5 4 5 4 7 4 8 5 6 4 5 4 
5 4 5 5 3 4 4 4 6 4 8 4 6 5 5 4 
4 4 4 4 2 4 4 5 6 4 4 4 4 4 6 4 
5 5 6 4 7 4 8 4 8 4 6 4 5 5 6 4 
6 4 6 4 10 4 10 4 9 5 8 4 7 4 5 4 
5 4 4 4 2 4 1 4 2 5 4 4 6 4 9 4 
9 4 5 4 2 4 0 4 -1 4 0 4 3 5 2 4 
4 4 4 4 4 4 5 4 5 4 6 4 5 4 3 4 
4 4 6 4 5 4 6 4 5 4 3 4 3 4 7 4 
11 4 15 5 12 4 5 4 -1 4 -7 4 -11 4 -7 4 
0 4 2 4 4 4 6 4 6 4 7 4 7 4 8 4 
8 3 8 4 7 4 8 4 7 4 5 4 7 4 6 4 
5 4 7 4 7 4 7 4 5 4 3 4 3 4 3 4 
2 4 6 4 7 4 2970 1892 300 MP stroke
7 3 5 4 4 4 2 4 2 4 2 4 5 4 6 4 
9 4 9 4 9 3 11 4 10 4 10 4 13 4 12 4 
11 4 8 4 3 3 1 4 1 4 0 8 2 4 3 4 
3 3 4 4 3 4 1 4 1 4 2 4 2 3 6 4 
8 4 7 4 7 4 10 3 11 4 12 4 13 4 14 4 
10 4 4 3 -1 4 -4 4 -6 4 -4 3 0 4 6 4 
6 4 6 4 4 3 0 4 -1 4 -1 4 0 3 2 4 
7 4 6 4 8 3 7 4 8 4 8 4 10 3 10 4 
9 4 10 3 8 4 4 4 2 4 2 3 -1 4 -2 4 
-3 3 -2 4 1 4 4 4 4 3 9 4 7 4 5 3 
3 4 3 4 3 3 6 4 9 4 12 3 12 4 11 4 
10 3 8 4 6 4 6 3 8 4 8 4 7 3 7 4 
7 4 8 3 5 4 3 4 5 3 4 4 4 3 6 4 
8 4 7 3 7 4 6 3 8 4 8 4 9 3 9 4 
9 3 8 4 11 4 8 3 9 4 7 3 7 4 4 4 
3 3 5 4 3 3 6 4 6 3 10 4 10 4 11 3 
6 4 1 3 -1 4 -3 3 0 4 5 3 8 4 11 3 
13 4 11 4 8 3 5 4 0 3 1 4 0 3 1 4 
5 3 7 4 3 3 5 4 6 3 5 4 6 3 8 4 
8 3 11 4 11 3 13 4 13 3 9 4 8 3 5 4 
4 3 7 4 10 3 6 3 5 4 4 3 4 4 4 3 
8 4 11 3 12 4 12 3 12 4 10 3 12 3 5 4 
4 3 7 4 7 3 7 4 23 3 35 3 32 4 33 3 
33 4 22 3 6 3 3 4 2 3 -4 4 -7 3 -3 3 
5 4 10 3 12 4 11 3 11 3 8 4 5 3 5 4 
12 3 16 3 21 4 31 3 40 3 39 4 34 3 39 3 
25 4 12 3 14 4 14 3 8 3 17 4 26 3 29 3 
32 4 36 3 25 3 47 4 54 3 53 3 34 4 28 3 
-4 3 -8 3 12 4 26 3 27 3 18 4 17 3 25 3 
39 4 60 3 9 1 750 1047 236 MP stroke
gr

16.6667 w
0 sg
0.1 sg
%%IncludeResource: font Helvetica-Bold
/Helvetica-Bold /WindowsLatin1Encoding 183.333 FMSR

1903 4362 mt 
(Log Stress [kPa]) s
 387 2612 mt  -90 rotate
(Porosity) s
90 rotate
gs 750 500 3751 3501 rc
/c8 { 1.000000 0.000000 0.000000 sr} bdef
c8
-34 0 -210 -2 -185 -2 -166 -2 -140 -2 -132 -2 -120 -2 -110 -2 
-99 -2 -98 -2 -93 -2 -90 -2 -83 -2 -81 -2 -77 -2 -77 -3 
-79 -2 -77 -2 -70 -2 -67 -2 -62 -2 -59 -2 -56 -2 -57 -2 
-53 -2 -50 -2 -47 -2 -44 -2 -42 -2 -38 -2 -35 -2 -35 -2 
-32 -2 -31 -2 -30 -2 -30 -2 -31 -3 -31 -2 -29 -2 -30 -2 
-28 -2 -26 -2 -24 -2 -23 -2 -24 -2 -25 -2 -24 -2 -24 -2 
-24 -2 -22 -2 -21 -2 -20 -2 -19 -2 -17 -3 -22 -2 -116 -2 
-90 -2 -74 -2 -63 5 -50 6 5 5 4 5 4 5 3 5 
3 5 4 5 4 6 3 5 5 5 5 5 4 5 5 5 
4 5 5 5 3 6 5 5 4 5 5 5 5 5 5 5 
3 5 5 5 4 5 5 5 4 5 6 5 5 5 6 5 
6 5 6 5 6 6 6 5 5 5 6 5 6 5 6 5 
6 5 5 5 6 5 4 5 5 5 5 5 5 5 5 5 
6 4 5 5 8 5 6 5 4 5 4 5 4 5 2 5 
4 5 5 5 6 5 6 5 5 5 6 5 6 5 4 4 
4 5 5 5 4 5 3 5 5 5 6 5 6 5 6 5 
7 4 7 5 6 5 6 5 7 5 7 5 6 5 7 4 
6 5 7 5 6 5 8 5 7 5 7 4 5 5 5 5 
5 5 6 5 5 4 6 5 5 5 6 5 5 4 5 5 
5 5 6 5 6 5 6 4 7 5 6 5 5 5 6 4 
5 5 5 5 6 4 7 5 7 5 6 5 6 4 5 5 
5 5 4 4 4 5 5 5 7 5 5 4 6 5 7 5 
7 4 7 5 6 5 5 4 4 5 4 5 2 4 4 5 
5 4 6 5 6 5 8 4 8 5 7 5 7 4 6 5 
5 4 4 5 3 5 3 4 3 5 4 4 6 5 7 5 
6 4 5 5 5 4 4 5 3 4 4 5 6 5 5 4 
6 5 7 4 5 5 5 4 4 5 4 4 5 5 5 4 
6 5 5 4 6 5 4 4 5 5 4 4 6 5 7 4 
5 5 6 4 5 5 3 4 4 5 5 4 6 5 5 4 
6 5 5 4 5 5 4 4 6 4 6 5 6 4 5 5 
6 4 5 5 5 4 6 4 6 5 5 4 6 5 7 4 
5 5 5 4 6 4 5 5 4 4 6 4 5 5 5 4 
5 5 3 4 2 4 3 5 2 4 2 4 2 5 4 4 
4 4 5 5 6 4 7 4 5 5 4 4 3 4 2 5 
2 4 3 4 3 5 3 4 4 4 3 5 3 4 1 4 
3 4 2 5 3 4 4 4 6 5 6 4 5 4 5 4 
7 5 7 4 4 4 3 4 4 5 1 4 1 4 4 4 
4 5 5 4 5 4 3203 2279 300 MP stroke
6 4 2 4 3 5 3 4 2 4 3 4 7 4 6 5 
4 4 6 4 6 4 5 4 6 5 8 4 6 4 6 4 
5 4 6 4 4 5 6 4 4 4 4 4 4 4 5 4 
5 5 5 4 8 4 8 4 5 4 6 4 7 4 4 4 
4 5 4 4 2 4 3 4 1 4 2 4 2 4 2 4 
2 4 5 4 5 5 7 4 5 4 5 4 6 4 4 4 
4 4 7 4 7 4 6 4 6 4 6 4 5 4 4 4 
4 4 4 4 5 4 5 4 7 4 5 5 4 4 5 4 
6 4 5 4 5 4 8 4 5 4 6 4 6 4 6 4 
5 4 5 4 4 4 4 4 6 3 6 4 6 4 6 4 
5 4 5 4 6 4 6 4 7 4 7 4 7 4 8 4 
5 4 7 4 7 4 6 4 5 4 6 4 2 4 4 3 
4 4 5 4 6 4 4 4 3 4 3 4 2 4 2 4 
3 4 4 3 5 4 4 4 4 4 4 4 -1 4 -2 4 
0 7 2 4 5 4 5 4 4 4 3 4 1 4 0 7 
1 4 1 4 3 4 3 4 5 3 5 4 6 4 5 4 
5 4 5 3 3 4 2 4 4 4 2 4 1 4 1 3 
2 4 2 4 5 4 5 3 4 4 4 4 3 4 4 4 
6 3 10 4 8 4 7 4 7 3 6 4 4 4 7 4 
7 3 4 4 2 4 0 7 1 4 4 4 5 3 5 4 
7 4 6 4 5 3 6 4 6 4 4 3 4 4 3 4 
3 4 3 3 3 4 4 4 4 3 4 4 2 4 4 3 
4 4 3 4 4 3 4 4 5 4 4 3 5 4 6 4 
5 3 4 4 5 4 4 3 3 4 1 4 1 3 2 4 
3 4 5 3 6 4 7 3 6 4 6 4 4 3 5 4 
8 3 4 4 5 4 8 3 8 4 8 3 12 4 10 4 
8 3 7 4 8 3 4 4 5 4 7 3 6 4 4 3 
4 4 4 3 3 4 4 4 5 3 7 4 7 3 3 4 
3 3 0 4 -1 3 -2 4 1 3 7 4 12 4 16 3 
16 4 15 3 12 4 12 3 10 4 11 3 11 4 8 3 
5 4 5 3 4 4 4 3 4 4 6 3 6 4 7 3 
7 4 9 3 8 4 5 3 3 4 4 3 4 4 4 3 
7 3 10 4 11 3 11 4 8 3 5 4 5 3 4 4 
3 3 4 4 7 3 10 3 12 4 14 3 17 4 14 3 
10 4 12 3 11 3 7 4 11 3 15 4 15 3 17 3 
16 4 18 3 10 4 4 3 3 3 13 4 12 3 9 4 
11 3 10 3 2 4 2 3 6 4 15 3 14 3 16 4 
21 3 23 3 18 4 1481 1141 300 MP stroke
18 3 17 3 14 4 16 3 12 4 15 3 13 3 27 4 
28 3 39 3 44 4 62 3 44 3 38 4 26 3 13 3 
-4 4 0 3 13 3 15 3 40 4 47 3 57 3 45 4 
51 3 40 3 1 0 750 1055 28 MP stroke
/c9 { 0.000000 0.000000 1.000000 sr} bdef
c9
-249 -2 -240 -2 -197 -2 -175 -2 -150 -2 -126 -2 -114 -2 -101 -2 
-87 -2 -79 -2 -73 -2 -76 -2 -79 -2 -81 -2 -81 -2 -80 -2 
-72 -2 -68 -2 -63 -2 -61 -2 -58 -3 -57 -2 -54 -2 -50 -2 
-50 -2 -47 -2 -46 -2 -46 -2 -45 -2 -41 -2 -42 -2 -40 -2 
-39 -2 -40 -2 -40 -2 -39 -2 -38 -3 -35 -2 -35 -2 -34 -2 
-42 -2 -149 -2 -112 -2 -86 -2 -70 5 -55 5 6 6 6 5 
6 5 4 5 6 5 5 5 5 5 4 6 5 5 4 5 
4 5 3 5 3 5 4 5 4 5 4 6 5 5 5 5 
5 5 4 5 5 5 4 5 4 5 6 5 5 5 6 5 
6 5 7 5 6 5 6 5 5 5 6 6 5 5 6 5 
6 5 6 5 7 5 6 5 7 5 7 5 7 5 7 5 
7 5 5 5 6 5 5 4 6 5 5 5 6 5 6 5 
7 5 6 5 6 5 7 5 7 5 6 5 7 5 6 5 
6 5 5 5 6 4 4 5 4 5 5 5 5 5 5 5 
6 5 6 5 6 5 4 4 5 5 4 5 5 5 4 5 
6 5 6 5 6 4 7 5 6 5 7 5 7 5 6 5 
7 4 7 5 5 5 6 5 7 5 7 4 7 5 7 5 
5 5 2 4 1 5 1 5 2 5 3 5 7 4 6 5 
4 5 6 5 4 4 3 5 4 5 5 4 6 5 6 5 
5 5 6 4 5 5 5 5 6 4 5 5 5 5 5 5 
6 4 6 5 6 5 6 4 5 5 4 5 5 4 5 5 
6 5 7 4 7 5 7 4 6 5 5 5 6 4 4 5 
3 5 3 4 4 5 4 4 5 5 6 5 6 4 6 5 
6 4 6 5 6 5 6 4 6 5 5 4 6 5 5 4 
6 5 4 5 5 4 5 5 6 4 6 5 5 4 5 5 
5 4 1 5 0 4 3 5 5 4 5 5 7 4 6 5 
3 4 1 5 3 4 3 5 4 4 6 5 6 4 5 5 
7 4 8 5 8 4 7 5 5 4 2 5 1 4 0 4 
1 5 2 4 4 5 5 4 6 5 8 4 7 4 6 5 
5 4 7 5 6 4 5 5 5 4 5 4 3 5 5 4 
6 4 7 5 8 4 8 5 8 4 9 4 9 5 9 4 
7 4 6 5 4 4 6 4 3 5 2 4 1 4 2 5 
1 4 3 4 5 5 6 4 6 4 5 5 7 4 8 4 
5 5 6 4 4 4 3 4 0 5 1 4 2 4 2 5 
2 4 4 4 4 4 4 5 3 4 2 4 2 4 4 5 
5 4 5 4 6 4 6 5 4 4 2 4 2 4 4 4 
4 5 5 4 4 4 4 4 4 4 4 5 5 4 6 4 
7 4 6 4 6 5 3111 2224 300 MP stroke
5 4 7 4 6 4 7 4 6 4 6 5 4 4 5 4 
4 4 5 4 6 4 6 5 8 4 9 4 9 4 8 4 
8 4 6 4 6 4 3 5 1 4 2 4 1 4 1 4 
3 4 4 4 5 4 5 4 5 4 6 5 6 4 5 4 
5 4 3 4 2 4 0 4 1 4 2 4 0 4 2 4 
3 4 3 4 3 4 5 4 4 4 5 4 4 4 3 4 
4 5 6 4 5 4 5 4 6 4 5 4 4 4 3 4 
3 4 4 4 3 4 3 4 4 4 3 4 4 4 3 3 
4 4 4 4 6 4 7 4 8 4 9 4 8 4 8 4 
7 4 4 4 4 4 6 4 5 4 6 4 8 4 10 4 
7 4 7 4 6 3 5 4 5 4 5 4 6 4 7 4 
6 4 5 4 3 4 2 4 0 3 1 4 1 4 1 4 
2 4 3 4 5 4 4 4 3 3 4 4 4 4 5 4 
5 4 8 4 7 4 8 3 6 4 5 4 4 4 5 4 
5 4 6 3 7 4 6 4 5 4 6 4 5 3 4 4 
6 4 5 4 5 4 4 4 3 3 2 4 2 4 4 4 
5 3 6 4 5 4 6 4 6 4 5 3 3 4 5 4 
2 4 1 3 1 4 3 4 3 4 5 3 6 4 6 4 
4 4 3 3 0 8 -1 3 1 4 1 4 3 4 4 3 
4 4 4 4 3 3 5 4 2 4 2 4 2 3 3 4 
3 4 7 3 7 4 7 4 6 3 7 4 7 4 8 3 
7 4 5 4 4 3 2 4 2 4 3 3 4 4 4 4 
5 3 5 4 6 4 6 3 7 4 6 4 4 3 5 4 
2 3 3 4 5 4 6 3 6 4 8 3 12 4 10 4 
9 3 10 4 8 3 5 4 5 4 4 3 5 4 6 3 
6 4 5 4 7 3 6 4 4 3 5 4 8 3 7 4 
7 4 6 3 5 4 0 3 2 4 2 3 4 4 5 3 
6 4 5 3 4 4 1 4 3 3 3 4 3 3 2 4 
3 3 4 4 9 3 10 4 13 3 16 4 13 3 9 4 
11 3 5 4 8 3 8 4 7 3 6 4 12 3 9 4 
6 3 4 4 2 3 1 4 0 3 2 3 5 4 8 3 
7 4 9 3 10 4 9 3 11 4 12 3 12 4 13 3 
8 3 3 4 3 3 5 4 3 3 10 4 15 3 19 3 
16 4 18 3 18 4 14 3 8 3 11 4 12 3 8 4 
14 3 18 3 17 4 12 3 14 4 9 3 13 3 12 4 
18 3 18 4 14 3 7 3 9 4 8 3 9 3 23 4 
22 3 25 3 24 4 20 3 6 4 13 3 8 3 20 4 
27 3 52 3 43 4 1164 1104 300 MP stroke
48 3 42 3 40 4 1 3 2 3 -6 4 -13 3 -6 3 
28 3 41 4 52 3 61 3 62 4 32 3 30 2 750 1056 16 MP stroke
gr

c9
0 sg
%%IncludeResource: font Helvetica
/Helvetica /WindowsLatin1Encoding 83.3333 FMSR

 732 4037 mt 
( ) s
4483  536 mt 
( ) s
8.33333 w
DO
SO
12.5 w
0.1 sg
 750  500 mt 4500  500 L
 750 4000 mt 4500 4000 L
4500 4000 mt 4500  500 L
 750 4000 mt  750  500 L
 750 4000 mt 4500 4000 L
 750 4000 mt  750  500 L
 750 4000 mt  750 3971 L
 750  500 mt  750  528 L
 750 4000 mt  750 3943 L
 750  500 mt  750  556 L
%%IncludeResource: font Helvetica
/Helvetica /WindowsLatin1Encoding 133.333 FMSR

 626 4188 mt 
(10) s
%%IncludeResource: font Helvetica
/Helvetica /WindowsLatin1Encoding 88.8889 FMSR

 774 4106 mt 
(-1) s
1116 4000 mt 1116 3971 L
1116  500 mt 1116  528 L
1331 4000 mt 1331 3971 L
1331  500 mt 1331  528 L
1483 4000 mt 1483 3971 L
1483  500 mt 1483  528 L
1601 4000 mt 1601 3971 L
1601  500 mt 1601  528 L
1697 4000 mt 1697 3971 L
1697  500 mt 1697  528 L
1779 4000 mt 1779 3971 L
1779  500 mt 1779  528 L
1849 4000 mt 1849 3971 L
1849  500 mt 1849  528 L
1912 4000 mt 1912 3971 L
1912  500 mt 1912  528 L
1967 4000 mt 1967 3971 L
1967  500 mt 1967  528 L
1967 4000 mt 1967 3943 L
1967  500 mt 1967  556 L
%%IncludeResource: font Helvetica
/Helvetica /WindowsLatin1Encoding 133.333 FMSR

1869 4188 mt 
(10) s
%%IncludeResource: font Helvetica
/Helvetica /WindowsLatin1Encoding 88.8889 FMSR

2017 4106 mt 
(0) s
2334 4000 mt 2334 3971 L
2334  500 mt 2334  528 L
2548 4000 mt 2548 3971 L
2548  500 mt 2548  528 L
2701 4000 mt 2701 3971 L
2701  500 mt 2701  528 L
2819 4000 mt 2819 3971 L
2819  500 mt 2819  528 L
2915 4000 mt 2915 3971 L
2915  500 mt 2915  528 L
2997 4000 mt 2997 3971 L
2997  500 mt 2997  528 L
3067 4000 mt 3067 3971 L
3067  500 mt 3067  528 L
3129 4000 mt 3129 3971 L
3129  500 mt 3129  528 L
3185 4000 mt 3185 3971 L
3185  500 mt 3185  528 L
3185 4000 mt 3185 3943 L
3185  500 mt 3185  556 L
%%IncludeResource: font Helvetica
/Helvetica /WindowsLatin1Encoding 133.333 FMSR

3087 4188 mt 
(10) s
%%IncludeResource: font Helvetica
/Helvetica /WindowsLatin1Encoding 88.8889 FMSR

3235 4106 mt 
(1) s
3552 4000 mt 3552 3971 L
3552  500 mt 3552  528 L
3766 4000 mt 3766 3971 L
3766  500 mt 3766  528 L
3918 4000 mt 3918 3971 L
3918  500 mt 3918  528 L
4036 4000 mt 4036 3971 L
4036  500 mt 4036  528 L
4133 4000 mt 4133 3971 L
4133  500 mt 4133  528 L
4214 4000 mt 4214 3971 L
4214  500 mt 4214  528 L
4285 4000 mt 4285 3971 L
4285  500 mt 4285  528 L
4347 4000 mt 4347 3971 L
4347  500 mt 4347  528 L
4403 4000 mt 4403 3971 L
4403  500 mt 4403  528 L
4403 4000 mt 4403 3943 L
4403  500 mt 4403  556 L
%%IncludeResource: font Helvetica
/Helvetica /WindowsLatin1Encoding 133.333 FMSR

4305 4188 mt 
(10) s
%%IncludeResource: font Helvetica
/Helvetica /WindowsLatin1Encoding 88.8889 FMSR

4453 4106 mt 
(2) s
 750 3883 mt  806 3883 L
4500 3883 mt 4443 3883 L
%%IncludeResource: font Helvetica
/Helvetica /WindowsLatin1Encoding 133.333 FMSR

 467 3932 mt 
(0.48) s
 750 3416 mt  806 3416 L
4500 3416 mt 4443 3416 L
 541 3465 mt 
(0.5) s
 750 2950 mt  806 2950 L
4500 2950 mt 4443 2950 L
 467 2999 mt 
(0.52) s
 750 2483 mt  806 2483 L
4500 2483 mt 4443 2483 L
 467 2532 mt 
(0.54) s
 750 2016 mt  806 2016 L
4500 2016 mt 4443 2016 L
 467 2065 mt 
(0.56) s
 750 1550 mt  806 1550 L
4500 1550 mt 4443 1550 L
 467 1599 mt 
(0.58) s
 750 1083 mt  806 1083 L
4500 1083 mt 4443 1083 L
 541 1132 mt 
(0.6) s
 750  616 mt  806  616 L
4500  616 mt 4443  616 L
 467  665 mt 
(0.62) s
 750  500 mt 4500  500 L
 750 4000 mt 4500 4000 L
4500 4000 mt 4500  500 L
 750 4000 mt  750  500 L
0 sg
%%IncludeResource: font Helvetica-Bold
/Helvetica-Bold /WindowsLatin1Encoding 125 FMSR

3098  733 mt 
(K) s
%%IncludeResource: font Helvetica-Bold
/Helvetica-Bold /WindowsLatin1Encoding 100 FMSR

3188  795 mt 
(2) s
%%IncludeResource: font Helvetica-Bold
/Helvetica-Bold /WindowsLatin1Encoding 125 FMSR

3243  733 mt 
( = 5K) s
%%IncludeResource: font Helvetica-Bold
/Helvetica-Bold /WindowsLatin1Encoding 100 FMSR

3545  795 mt 
(1) s
%%IncludeResource: font Helvetica-Bold
/Helvetica-Bold /WindowsLatin1Encoding 125 FMSR

3600  733 mt 
( - Same Fill) s
gs 2769 589 1607 698 rc
16.6667 w
253 0 2819 714 2 MP stroke
gr

16.6667 w
3098  956 mt 
(K) s
%%IncludeResource: font Helvetica-Bold
/Helvetica-Bold /WindowsLatin1Encoding 100 FMSR

3188 1018 mt 
(2) s
%%IncludeResource: font Helvetica-Bold
/Helvetica-Bold /WindowsLatin1Encoding 125 FMSR

3243  956 mt 
( = 10K) s
%%IncludeResource: font Helvetica-Bold
/Helvetica-Bold /WindowsLatin1Encoding 100 FMSR

3614 1018 mt 
(1) s
%%IncludeResource: font Helvetica-Bold
/Helvetica-Bold /WindowsLatin1Encoding 125 FMSR

3669  956 mt 
( - Same Fill) s
gs 2769 589 1607 698 rc
c8
253 0 2819 937 2 MP stroke
gr

c8
0 sg
3098 1179 mt 
(K) s
%%IncludeResource: font Helvetica-Bold
/Helvetica-Bold /WindowsLatin1Encoding 100 FMSR

3188 1241 mt 
(2) s
%%IncludeResource: font Helvetica-Bold
/Helvetica-Bold /WindowsLatin1Encoding 125 FMSR

3243 1179 mt 
( = 25K) s
%%IncludeResource: font Helvetica-Bold
/Helvetica-Bold /WindowsLatin1Encoding 100 FMSR

3614 1241 mt 
(1) s
%%IncludeResource: font Helvetica-Bold
/Helvetica-Bold /WindowsLatin1Encoding 125 FMSR

3669 1179 mt 
( - Same Fill) s
gs 2769 589 1607 698 rc
c9
253 0 2819 1160 2 MP stroke
12.5 w
gr

12.5 w
c9

end %%Color Dict

eplot
%%EndObject

epage
end

showpage

%%Trailer
%%EOF
