%!PS-Adobe-3.0 EPSF-3.0
%%Creator: MATLAB, The MathWorks, Inc. Version 8.1.0.604 (R2013a). Operating System: Microsoft Windows 7.
%%Title: .\K2_Confined_Contacts_SameFill.eps
%%CreationDate: 08/17/2013  16:01:39
%%DocumentNeededFonts: Helvetica-Bold
%%+ Helvetica
%%DocumentProcessColors: Cyan Magenta Yellow Black
%%LanguageLevel: 2
%%Pages: 1
%%BoundingBox:    50    93   577   587
%%EndComments

%%BeginProlog
% MathWorks dictionary
/MathWorks 160 dict begin
% definition operators
/bdef {bind def} bind def
/ldef {load def} bind def
/xdef {exch def} bdef
/xstore {exch store} bdef
% operator abbreviations
/c  /clip ldef
/cc /concat ldef
/cp /closepath ldef
/gr /grestore ldef
/gs /gsave ldef
/mt /moveto ldef
/np /newpath ldef
/cm /currentmatrix ldef
/sm /setmatrix ldef
/rm /rmoveto ldef
/rl /rlineto ldef
/s {show newpath} bdef
/sc {setcmykcolor} bdef
/sr /setrgbcolor ldef
/sg /setgray ldef
/w /setlinewidth ldef
/j /setlinejoin ldef
/cap /setlinecap ldef
/rc {rectclip} bdef
/rf {rectfill} bdef
% page state control
/pgsv () def
/bpage {/pgsv save def} bdef
/epage {pgsv restore} bdef
/bplot /gsave ldef
/eplot {stroke grestore} bdef
% orientation switch
/portraitMode 0 def /landscapeMode 1 def /rotateMode 2 def
% coordinate system mappings
/dpi2point 0 def
% font control
/FontSize 0 def
/FMS {/FontSize xstore findfont [FontSize 0 0 FontSize neg 0 0]
  makefont setfont} bdef
/ISOLatin1Encoding where {pop /WindowsLatin1Encoding 256 array bdef
ISOLatin1Encoding WindowsLatin1Encoding copy pop
/.notdef/.notdef/quotesinglbase/florin/quotedblbase/ellipsis/dagger
/daggerdbl/circumflex/perthousand/Scaron/guilsinglleft/OE/.notdef/.notdef
/.notdef/.notdef/quoteleft/quoteright/quotedblleft/quotedblright/bullet
/endash/emdash/tilde/trademark/scaron/guilsinglright/oe/.notdef/.notdef
/Ydieresis WindowsLatin1Encoding 128 32 getinterval astore pop}
{/WindowsLatin1Encoding StandardEncoding bdef} ifelse
/reencode {exch dup where {pop load} {pop StandardEncoding} ifelse
  exch dup 3 1 roll findfont dup length dict begin
  { 1 index /FID ne {def}{pop pop} ifelse } forall
  /Encoding exch def currentdict end definefont pop} bdef
/isroman {findfont /CharStrings get /Agrave known} bdef
/FMSR {3 1 roll 1 index dup isroman {reencode} {pop pop} ifelse
  exch FMS} bdef
/csm {1 dpi2point div -1 dpi2point div scale neg translate
 dup landscapeMode eq {pop -90 rotate}
  {rotateMode eq {90 rotate} if} ifelse} bdef
% line types: solid, dotted, dashed, dotdash
/SO { [] 0 setdash } bdef
/DO { [.5 dpi2point mul 4 dpi2point mul] 0 setdash } bdef
/DA { [6 dpi2point mul] 0 setdash } bdef
/DD { [.5 dpi2point mul 4 dpi2point mul 6 dpi2point mul 4
  dpi2point mul] 0 setdash } bdef
% macros for lines and objects
/L {lineto stroke} bdef
/MP {3 1 roll moveto 1 sub {rlineto} repeat} bdef
/AP {{rlineto} repeat} bdef
/PDlw -1 def
/W {/PDlw currentlinewidth def setlinewidth} def
/PP {closepath eofill} bdef
/DP {closepath stroke} bdef
/MR {4 -2 roll moveto dup  0 exch rlineto exch 0 rlineto
  neg 0 exch rlineto closepath} bdef
/FR {MR stroke} bdef
/PR {MR fill} bdef
/L1i {{currentfile picstr readhexstring pop} image} bdef
/tMatrix matrix def
/MakeOval {newpath tMatrix currentmatrix pop translate scale
0 0 1 0 360 arc tMatrix setmatrix} bdef
/FO {MakeOval stroke} bdef
/PO {MakeOval fill} bdef
/PD {currentlinewidth 2 div 0 360 arc fill
   PDlw -1 eq not {PDlw w /PDlw -1 def} if} def
/FA {newpath tMatrix currentmatrix pop translate scale
  0 0 1 5 -2 roll arc tMatrix setmatrix stroke} bdef
/PA {newpath tMatrix currentmatrix pop	translate 0 0 moveto scale
  0 0 1 5 -2 roll arc closepath tMatrix setmatrix fill} bdef
/FAn {newpath tMatrix currentmatrix pop translate scale
  0 0 1 5 -2 roll arcn tMatrix setmatrix stroke} bdef
/PAn {newpath tMatrix currentmatrix pop translate 0 0 moveto scale
  0 0 1 5 -2 roll arcn closepath tMatrix setmatrix fill} bdef
/vradius 0 def /hradius 0 def /lry 0 def
/lrx 0 def /uly 0 def /ulx 0 def /rad 0 def
/MRR {/vradius xdef /hradius xdef /lry xdef /lrx xdef /uly xdef
  /ulx xdef newpath tMatrix currentmatrix pop ulx hradius add uly
  vradius add translate hradius vradius scale 0 0 1 180 270 arc 
  tMatrix setmatrix lrx hradius sub uly vradius add translate
  hradius vradius scale 0 0 1 270 360 arc tMatrix setmatrix
  lrx hradius sub lry vradius sub translate hradius vradius scale
  0 0 1 0 90 arc tMatrix setmatrix ulx hradius add lry vradius sub
  translate hradius vradius scale 0 0 1 90 180 arc tMatrix setmatrix
  closepath} bdef
/FRR {MRR stroke } bdef
/PRR {MRR fill } bdef
/MlrRR {/lry xdef /lrx xdef /uly xdef /ulx xdef /rad lry uly sub 2 div def
  newpath tMatrix currentmatrix pop ulx rad add uly rad add translate
  rad rad scale 0 0 1 90 270 arc tMatrix setmatrix lrx rad sub lry rad
  sub translate rad rad scale 0 0 1 270 90 arc tMatrix setmatrix
  closepath} bdef
/FlrRR {MlrRR stroke } bdef
/PlrRR {MlrRR fill } bdef
/MtbRR {/lry xdef /lrx xdef /uly xdef /ulx xdef /rad lrx ulx sub 2 div def
  newpath tMatrix currentmatrix pop ulx rad add uly rad add translate
  rad rad scale 0 0 1 180 360 arc tMatrix setmatrix lrx rad sub lry rad
  sub translate rad rad scale 0 0 1 0 180 arc tMatrix setmatrix
  closepath} bdef
/FtbRR {MtbRR stroke } bdef
/PtbRR {MtbRR fill } bdef
/stri 6 array def /dtri 6 array def
/smat 6 array def /dmat 6 array def
/tmat1 6 array def /tmat2 6 array def /dif 3 array def
/asub {/ind2 exch def /ind1 exch def dup dup
  ind1 get exch ind2 get sub exch } bdef
/tri_to_matrix {
  2 0 asub 3 1 asub 4 0 asub 5 1 asub
  dup 0 get exch 1 get 7 -1 roll astore } bdef
/compute_transform {
  dmat dtri tri_to_matrix tmat1 invertmatrix 
  smat stri tri_to_matrix tmat2 concatmatrix } bdef
/ds {stri astore pop} bdef
/dt {dtri astore pop} bdef
/db {2 copy /cols xdef /rows xdef mul dup 3 mul string
  currentfile 
  3 index 0 eq {/ASCIIHexDecode filter}
  {/ASCII85Decode filter 3 index 2 eq {/RunLengthDecode filter} if }
  ifelse exch readstring pop
  dup 0 3 index getinterval /rbmap xdef
  dup 2 index dup getinterval /gbmap xdef
  1 index dup 2 mul exch getinterval /bbmap xdef pop pop}bdef
/it {gs np dtri aload pop moveto lineto lineto cp c
  cols rows 8 compute_transform 
  rbmap gbmap bbmap true 3 colorimage gr}bdef
/il {newpath moveto lineto stroke}bdef
currentdict end def
%%EndProlog

%%BeginSetup
MathWorks begin

0 cap

end
%%EndSetup

%%Page: 1 1
%%BeginPageSetup
%%PageBoundingBox:    50    93   577   587
MathWorks begin
bpage
%%EndPageSetup

%%BeginObject: obj1
bplot

/dpi2point 8.33333 def
portraitMode 0150 5158 csm

  268   264  4398  4116 rc
84 dict begin %Colortable dictionary
/c0 { 0.000000 0.000000 0.000000 sr} bdef
/c1 { 1.000000 1.000000 1.000000 sr} bdef
/c2 { 0.900000 0.000000 0.000000 sr} bdef
/c3 { 0.000000 0.820000 0.000000 sr} bdef
/c4 { 0.000000 0.000000 0.800000 sr} bdef
/c5 { 0.910000 0.820000 0.320000 sr} bdef
/c6 { 1.000000 0.260000 0.820000 sr} bdef
/c7 { 0.000000 0.820000 0.820000 sr} bdef
c0
1 j
1 sg
   0    0 5001 5001 rf
12.5 w
0 3500 3750 0 0 -3500 750 4000 4 MP
PP
-3750 0 0 3500 3750 0 0 -3500 750 4000 5 MP stroke
gs 750 500 3751 3501 rc
16.6667 w
0 sg
-2 0 -2 -1 -2 1 -2 0 -2 4 -2 3 -3 10 -2 13 
-2 5 -2 -1 -2 5 -2 10 -2 9 -2 3 -2 7 -3 8 
-2 12 -2 6 -2 11 -2 8 -2 8 -2 7 -2 10 -2 6 
-3 8 -2 17 -2 19 -2 6 -2 7 -2 11 -2 5 -2 9 
-2 7 -3 4 -2 8 -2 4 -2 10 -2 6 -2 8 -2 9 
-2 10 -2 9 -3 8 -2 0 -2 2 -2 10 -2 12 -2 9 
-2 -2 -2 17 -2 15 -3 8 -2 16 -2 18 -2 18 -2 16 
-2 24 -2 24 -2 27 -2 19 -3 7 -2 26 -2 3 -2 6 
5 -16 6 -14 5 -10 5 -9 6 -13 5 -11 5 -9 5 -7 
6 -3 5 -11 5 -2 5 -9 6 -8 5 -8 5 -12 6 -3 
5 2 5 -9 5 -8 6 -2 5 -9 5 -6 6 -2 5 -3 
5 11 5 -2 6 7 5 -1 5 -7 6 -10 5 -6 5 -2 
5 -12 6 -3 5 -8 5 -14 5 -3 6 -9 5 -5 5 -11 
6 -12 5 -11 5 -6 5 -16 6 -6 5 -10 5 -9 6 -9 
5 -9 5 -7 5 -14 6 -7 5 -3 5 -8 5 -7 6 -7 
5 -9 5 -13 6 -6 5 -9 5 -13 5 -6 6 -17 5 -6 
5 -7 6 -9 5 -9 5 -12 5 -7 6 3 5 -5 5 -13 
5 -9 6 -7 5 -2 5 -10 6 -8 5 0 5 -5 5 -11 
6 -6 5 -9 5 -8 6 -8 5 -7 5 0 5 -10 6 -11 
5 -9 5 -8 5 -8 6 -7 5 -8 5 -8 6 -6 5 -8 
5 -16 5 -11 6 -14 5 -3 5 -13 6 -11 5 -15 5 -12 
5 -6 2 0 4 -9 5 -9 5 -5 5 -3 6 -17 5 -9 
5 -2 6 2 5 -3 5 0 5 -5 6 -3 5 -5 5 -6 
6 5 5 -4 5 4 5 -6 6 -8 5 -4 5 -6 5 -7 
6 -15 5 1 5 2 6 -1 5 -6 5 -8 5 5 6 -11 
5 -6 5 -12 6 -12 5 -13 5 -6 5 -6 6 -3 5 -3 
5 6 5 -13 6 -8 5 -12 5 -4 6 -10 5 -1 5 -9 
5 -1 6 -1 5 0 5 -2 6 -8 5 1 5 2 5 -4 
6 -3 5 -2 5 -8 5 -9 6 2 5 -7 5 -8 6 -9 
5 -4 5 -6 5 -6 6 -10 5 -4 5 -1 6 -5 5 -9 
5 -9 5 -2 6 -3 5 0 5 -3 5 -13 6 -11 5 3 
5 0 6 -3 5 -2 5 -5 5 5 6 -9 5 -6 5 -3 
6 1 5 -2 5 -9 5 0 6 -5 5 -3 5 1 5 -2 
6 -9 5 -7 5 3 6 -11 5 4 5 -2 5 -6 6 -5 
5 1 5 -1 6 -8 5 6 5 0 5 2 6 -3 5 -3 
5 -7 5 0 6 -10 5 -1 5 -9 6 -2 5 -10 5 -5 
5 -2 6 -8 5 -3 5 -7 6 0 5 -1 5 1 5 1 
6 -10 5 -9 5 -10 2122 2962 300 MP stroke
5 3 6 3 5 -5 5 -5 6 -1 5 -7 5 -7 5 -4 
6 -2 5 -6 5 -2 6 5 5 -6 5 -10 5 -6 6 -2 
5 -3 5 -6 5 -7 6 -4 5 -3 5 -9 6 -1 5 -6 
5 -8 5 -1 6 -7 5 -1 5 -5 6 -5 5 -5 5 -3 
5 -1 6 -8 5 1 5 5 5 5 6 -5 5 3 5 -6 
6 -5 5 -4 5 -2 5 -2 6 -8 5 -8 5 -7 6 -8 
5 -1 5 -3 5 0 6 12 5 -3 5 -1 5 -1 6 -1 
5 -4 5 -5 6 -3 5 -10 5 2 5 -8 6 -2 5 1 
5 -7 6 -8 5 -4 5 -7 5 -4 6 -5 5 -6 5 -7 
5 -1 6 -6 5 -5 5 0 6 -11 5 1 5 -1 5 6 
6 2 5 -7 5 2 6 4 5 0 5 -3 5 -1 6 1 
5 -3 5 -7 6 1 5 -2 5 -1 5 5 6 -13 5 -3 
5 0 5 -7 6 -2 5 6 5 -7 6 0 5 -4 5 -4 
5 -3 6 2 5 5 5 -3 6 0 5 0 5 -5 5 1 
6 0 5 -6 5 -1 5 -1 6 -2 5 -9 5 -3 6 -2 
5 0 5 -8 5 2 6 -6 5 4 5 -5 6 -1 5 -4 
5 -4 5 5 6 -7 5 -7 5 -2 5 -6 6 -6 5 6 
5 0 6 -12 5 8 5 1 5 0 6 -6 5 -2 5 -1 
6 -1 5 -9 5 0 5 0 6 0 5 -6 5 0 5 2 
6 2 5 6 5 -1 6 -5 5 -8 5 4 5 7 6 4 
5 0 5 3 6 11 5 -5 5 -2 5 0 6 -3 5 -3 
5 -2 5 -3 6 -3 5 2 5 5 6 -5 5 7 5 -5 
5 -8 6 7 5 -4 5 -6 6 2 5 -3 5 -1 5 4 
6 6 5 -4 5 -2 5 -2 6 -5 5 -4 5 -3 6 -3 
5 1 5 0 5 1 6 0 5 -1 5 -3 6 -4 5 2 
5 2 5 0 6 -2 5 1 5 -3 5 -4 6 -5 5 0 
5 0 6 -1 5 -1 5 -5 5 1 6 -2 5 -5 5 5 
6 -4 5 -3 5 1 5 7 6 0 5 -1 5 -2 5 -4 
6 1 5 -1 5 -1 6 0 5 -1 5 1 5 0 6 -2 
5 0 5 -2 6 -3 5 -2 5 1 5 4 6 3 5 1 
5 1 5 -2 6 -1 5 -1 5 0 6 1 5 0 5 -1 
5 -2 6 -1 5 0 5 -2 6 0 5 -2 5 0 5 -2 
6 0 5 -1 5 0 5 -1 750 3429 261 MP stroke
gr

16.6667 w
0 sg
0.1 sg
%%IncludeResource: font Helvetica-Bold
/Helvetica-Bold /WindowsLatin1Encoding 183.333 FMSR

2010 4322 mt 
(Vertical Strain) s
 461 3127 mt  -90 rotate
(Number of Contacts) s
90 rotate
gs 750 500 3751 3501 rc
/c8 { 1.000000 0.000000 0.000000 sr} bdef
c8
-3 0 -2 1 -2 2 -2 3 -2 7 -2 9 -2 10 -2 9 
-2 8 -3 11 -2 15 -2 5 -2 6 -2 13 -2 17 -2 10 
-2 6 -2 3 -3 12 -2 18 -2 11 -2 17 -2 18 -2 13 
-2 9 -2 13 -2 9 -3 11 -2 17 -2 8 -2 18 -2 14 
-2 9 -2 11 -2 10 -2 17 -3 3 -2 22 -2 13 -2 21 
-2 14 -2 10 -2 13 -2 16 -2 9 -3 11 -2 14 -2 15 
-2 11 -2 8 -2 18 -2 8 -2 10 -2 11 -3 14 -2 16 
-2 13 -2 3 -2 16 -2 16 -2 6 -2 11 5 -11 5 -8 
5 -9 6 -8 5 -11 5 -15 6 -3 5 -6 5 -6 5 -12 
6 -10 5 1 5 -16 6 -12 5 -6 5 -1 5 -13 6 -7 
5 -10 5 -12 6 -6 5 -9 5 -16 5 -4 6 -10 5 -11 
5 -15 5 -7 6 -13 5 -13 5 -10 6 -2 5 -16 5 -18 
5 -17 6 2 5 -14 5 -8 6 -10 5 -2 5 -11 5 -3 
6 -4 5 -4 5 -6 6 -8 5 -8 5 -16 5 -7 6 -7 
5 -9 5 4 5 -12 6 -10 5 -9 5 -15 6 -7 5 -9 
5 -5 5 -5 6 -9 5 -11 5 -6 6 1 5 -8 5 -6 
5 -4 6 -9 5 -11 5 -9 6 -12 5 -12 5 -13 5 -12 
6 -6 5 -5 5 -9 5 -10 6 -5 5 -18 5 -12 6 0 
5 -7 5 -8 5 -12 6 -3 5 -6 5 -10 6 -11 5 -8 
5 -13 5 -5 6 -11 5 -5 5 -10 6 -13 5 -15 5 -16 
5 -3 6 -9 5 -8 5 -11 5 0 6 0 5 -4 5 -15 
6 1 5 -16 5 -11 5 -12 6 -5 5 -10 5 -6 6 0 
5 -8 5 -11 5 -1 6 -5 5 -2 5 -7 6 -4 5 -9 
5 -12 5 -11 6 -8 5 -5 5 -9 5 2 6 -9 5 -6 
5 -6 6 -12 5 -4 5 -3 5 -9 6 -2 5 -3 5 -9 
6 -9 5 2 5 -1 5 -8 6 -8 5 -12 5 -6 6 -3 
5 1 5 -9 5 -14 6 -5 5 -14 5 -7 5 -10 6 -6 
5 -7 5 -13 6 -4 5 -8 5 -5 5 -6 6 -17 5 -8 
5 -9 6 -4 5 -11 5 -5 5 -5 6 -13 5 3 5 -3 
6 -10 5 -15 5 -9 5 -5 6 -8 5 1 5 -1 5 -3 
6 -12 5 -4 5 -19 6 -1 5 -9 5 -18 5 -8 6 -9 
5 1 5 -7 6 -11 5 -4 5 -1 5 -5 6 -3 5 -8 
5 -8 6 -4 5 -2 5 -5 5 -7 6 -2 5 -3 5 -4 
5 -11 6 -1 5 -1 5 -7 6 -3 5 -9 5 -8 5 -9 
6 -2 5 -11 5 -10 6 -3 5 -2 5 -7 5 -2 6 -4 
5 -1 5 -6 6 -3 5 0 5 -2 5 -6 6 -7 5 -5 
5 -6 5 3 6 2 5 -11 5 -3 6 -4 5 -4 5 -3 
5 -1 6 7 5 -2 2608 2350 300 MP stroke
5 -2 6 3 5 0 5 -10 5 2 6 -9 5 -9 5 0 
5 -12 6 -9 5 -4 5 -1 6 -5 5 -9 5 5 5 -3 
6 0 5 -4 5 -11 6 -4 5 -7 5 -8 5 -2 6 -3 
5 -5 5 -7 6 -8 5 -4 5 -9 5 -8 6 -7 5 -5 
5 -4 5 -12 6 0 5 -9 5 -1 6 -5 5 -1 5 -5 
5 -4 6 4 5 -7 5 4 6 0 5 -8 5 -8 5 -3 
6 -13 5 -7 5 -4 6 -3 5 -5 5 -3 5 -5 6 -24 
5 -7 5 -4 5 -4 6 -2 5 -7 5 -12 6 -8 5 -6 
5 -8 5 -9 6 -1 5 0 5 2 6 2 5 -1 5 -3 
5 -5 6 -3 5 -8 5 -12 6 -5 5 2 5 3 5 -6 
6 -13 5 -2 5 -6 5 5 6 -14 5 -7 5 -4 6 -5 
5 -6 5 -1 5 0 6 -7 5 -7 5 -8 6 -3 5 -1 
5 -1 5 -1 6 -5 5 -2 5 -1 6 -6 5 0 5 -7 
5 -8 6 -7 5 0 5 1 5 -6 6 3 5 -3 5 -3 
6 -3 5 -8 5 -13 5 4 6 -1 5 3 5 -3 6 -6 
5 0 5 2 5 -6 6 -3 5 -4 5 5 6 -9 5 2 
5 8 5 0 6 -3 5 -1 5 -6 5 0 6 -2 5 -9 
5 -6 6 -11 5 2 5 -2 5 -4 6 -2 5 1 5 -7 
6 0 5 -4 5 -3 5 3 6 4 5 -7 5 -5 6 -7 
5 -6 5 -3 5 -5 6 -1 5 1 5 -6 5 -3 6 -9 
5 -8 5 3 6 -8 5 0 5 -7 5 13 6 -5 5 -3 
5 -3 6 -9 5 -11 5 -7 5 -6 6 -10 5 -4 5 -7 
6 -5 5 2 5 -3 5 -2 6 -4 5 -11 5 -7 5 -2 
6 5 5 4 5 -2 6 -1 5 -2 5 1 5 -3 6 -3 
5 -6 5 -3 6 1 5 -7 5 -5 5 3 6 -2 5 -4 
5 -5 6 0 5 -2 5 -5 5 -8 6 0 5 -4 5 -5 
5 -4 6 -1 5 1 5 -3 6 -3 5 -1 5 -5 5 -7 
6 -5 5 -5 5 3 6 -6 5 5 5 1 5 -6 6 3 
5 -2 5 2 6 -1 5 -3 5 -9 5 -12 6 2 5 -3 
5 4 5 1 6 0 5 3 5 -5 6 -7 5 -1 5 2 
5 -7 6 -1 5 -7 5 -5 6 -5 5 -5 5 -7 5 -4 
6 -2 5 1 5 5 6 -1 5 -1 5 -1 5 -2 6 -1 
5 -8 5 -6 5 2 6 -5 5 -5 5 -3 6 -3 5 -7 
5 -9 5 -1 6 0 5 -4 5 -1 6 -1 5 -5 5 4 
5 -6 6 0 5 -3 5 2 6 -8 5 0 5 -3 5 -2 
6 -1 5 5 5 -3 5 2 6 -6 5 0 5 -5 6 -7 
5 -3 5 -4 5 -7 6 -5 5 -6 5 0 6 2 5 -4 
5 2 5 -4 6 -7 1029 3373 300 MP stroke
5 -4 5 1 6 0 5 -3 5 1 5 -2 6 -1 5 2 
5 2 5 -1 6 2 5 -1 5 -2 6 2 5 -3 5 -2 
5 -1 6 -2 5 0 5 -4 6 -1 5 -2 5 -3 5 0 
6 -3 5 0 5 -2 6 0 5 -1 5 1 5 1 6 -2 
5 0 5 0 5 -2 6 -1 5 1 5 -1 6 0 5 -2 
5 0 5 1 6 -2 5 -2 5 -1 6 -2 5 -1 5 -1 
5 -2 6 0 5 -1 5 -1 5 -1 750 3419 54 MP stroke
/c9 { 0.000000 0.000000 1.000000 sr} bdef
c9
-2 0 -2 1 -3 0 -2 4 -2 2 -2 10 -2 11 -2 5 
-2 19 -2 7 -2 13 -3 9 -2 10 -2 2 -2 16 -2 10 
-2 13 -2 10 -2 7 -2 8 -3 6 -2 12 -2 20 -2 16 
-2 13 -2 12 -2 13 -2 13 -2 10 -3 14 -2 16 -2 18 
-2 7 -2 6 -2 8 -2 16 -2 11 -3 17 -2 5 -2 15 
-2 13 -2 17 -2 6 -2 19 -2 11 -2 16 -3 13 -2 5 
6 -10 5 -7 5 -14 5 -12 6 -4 5 -12 5 -4 6 -5 
5 -8 5 -5 5 -10 6 -4 5 -8 5 -8 6 -10 5 -5 
5 -16 5 -11 6 -5 5 -7 5 -8 6 -5 5 -9 5 -7 
5 -9 6 -8 5 -7 5 -2 5 -14 6 -9 5 -10 5 -10 
6 -10 5 -6 5 -13 5 -13 6 -13 5 -7 5 -10 6 -17 
5 -9 5 -15 5 -19 6 -19 5 -7 5 -12 6 -16 5 0 
5 -11 5 -8 6 -12 5 -12 5 -12 5 0 6 -19 5 -10 
5 -12 6 -12 5 -5 5 -8 5 -14 6 -11 5 -7 5 -9 
6 -5 5 -13 5 -10 5 -2 6 -8 5 -7 5 -5 6 -9 
5 -10 5 -9 5 -7 6 -3 5 -13 5 -13 5 -9 6 -8 
5 -8 5 -7 6 -11 5 -10 5 -13 5 -16 6 -9 5 -10 
5 -17 6 -11 5 -8 5 -14 5 -8 6 4 5 0 5 4 
6 -4 5 -5 5 -10 5 -12 6 -3 5 -1 5 -2 5 -6 
6 0 5 -15 5 -15 6 -10 5 0 5 -9 5 -8 6 -6 
5 -11 5 -7 6 -14 5 -7 5 -4 5 -15 6 -8 5 -13 
5 0 6 -7 5 -7 5 -4 5 -5 6 -1 5 -4 5 -8 
5 -7 6 -12 5 -13 5 -4 6 -17 5 -1 5 -5 5 -13 
6 -8 5 -4 5 -11 6 -7 5 0 5 -6 5 -6 6 -6 
5 -11 5 -5 6 -6 5 -2 5 -4 5 -11 6 2 5 -2 
5 -2 5 -7 6 -6 5 -11 5 -9 6 -2 5 1 5 -7 
5 -8 6 -11 5 -7 5 4 6 -6 5 4 5 -8 5 -10 
6 -7 5 0 5 -4 6 -5 5 -2 5 -5 5 -12 6 -11 
5 -10 5 -7 5 -5 6 3 5 -10 5 -4 6 -8 5 -3 
5 -10 5 -8 6 -9 5 -10 5 8 6 1 5 -11 5 -9 
5 -7 6 -5 5 1 5 1 6 -2 5 -10 5 -8 5 -6 
6 -7 5 -7 5 -14 5 -5 6 -7 5 -14 5 0 6 -3 
5 -5 5 -3 5 2 6 4 5 -5 5 2 6 -1 5 -4 
5 -11 5 -1 6 -7 5 -14 5 -1 6 -17 5 -1 5 -3 
5 -5 6 -3 5 4 5 3 5 -9 6 1 5 -3 5 -1 
6 -9 5 -2 5 -5 5 -8 6 9 5 -5 5 -9 6 -2 
5 -10 5 -7 5 -1 6 0 5 -7 5 -4 5 -12 6 -8 
5 -14 5 -3 6 -6 2539 2348 300 MP stroke
5 -2 5 -6 5 -7 6 1 5 -8 5 -12 6 -5 5 -5 
5 -3 5 0 6 -9 5 -12 5 -10 6 -8 5 -4 5 -8 
5 -7 6 -2 5 -7 5 -1 5 -6 6 -1 5 -11 5 -3 
6 -5 5 -1 5 4 5 -6 6 -6 5 -8 5 -5 6 -4 
5 -10 5 -15 5 -3 6 -4 5 -5 5 -3 6 3 5 5 
5 -7 5 3 6 2 5 4 5 -6 5 -4 6 1 5 -3 
5 -4 6 -5 5 -4 5 -8 5 -7 6 3 5 -8 5 0 
6 -8 5 2 5 -17 5 -5 6 -8 5 3 5 -6 6 0 
5 -8 5 -3 5 -12 6 -1 5 -3 5 -8 5 -1 6 -5 
5 -5 5 1 6 -4 5 -7 5 -2 5 -5 6 -4 5 -10 
5 -1 6 -1 5 -4 5 -6 5 -12 6 -2 5 -9 5 -6 
6 -5 5 -2 5 -1 5 -4 6 -3 5 -4 5 -9 5 2 
6 0 5 -2 5 -2 6 -3 5 -11 5 -4 5 -2 6 0 
5 -8 5 0 6 -5 5 -3 5 -1 5 1 6 -8 5 -6 
5 -2 6 -4 5 0 5 -5 5 -8 6 -8 5 -4 5 -9 
5 -8 6 -9 5 0 5 -7 6 -3 5 -2 5 -12 5 -6 
6 0 5 2 5 -6 6 0 5 2 5 -2 5 -3 6 -5 
5 -6 5 0 6 -7 5 0 5 -8 5 -7 6 2 5 0 
5 3 5 -6 6 -6 5 -8 5 -1 6 -7 5 1 5 0 
5 -3 6 -2 5 -6 5 -2 6 1 5 0 5 4 5 -3 
6 -1 5 0 5 -3 6 -3 5 -3 5 0 5 1 6 -3 
5 -8 5 -8 5 -2 6 -2 5 -2 5 -3 6 -9 5 -10 
5 0 5 5 6 -4 5 2 5 -3 6 -2 5 -4 5 -7 
5 -5 6 1 5 0 5 0 6 -5 5 -8 5 1 5 -4 
6 -3 5 -3 5 -2 5 -5 6 -4 5 0 5 0 6 -9 
5 -2 5 -9 5 -10 6 -3 5 -3 5 -3 6 -5 5 -2 
5 -2 5 -4 6 -7 5 -3 5 -1 6 -3 5 -2 5 0 
5 -1 6 -3 5 -4 5 -2 5 -2 6 -2 5 -10 5 -8 
6 -7 5 3 5 -5 5 3 6 -4 5 2 5 2 6 -3 
5 -9 5 -3 5 -8 6 1 5 -10 5 -1 6 -5 5 -5 
5 1 5 -2 6 -1 5 -4 5 1 5 -4 6 -7 5 -6 
5 -3 6 -8 5 0 5 -3 5 -4 6 1 5 -1 5 -5 
6 2 5 -5 5 -5 5 -2 6 0 5 1 5 -3 6 2 
5 -6 5 1 5 -10 6 -4 5 -6 5 -3 5 -8 6 0 
5 1 5 -2 6 1 5 -5 5 -2 5 -1 6 4 5 0 
5 -4 6 -4 5 -3 5 -3 5 -2 6 -7 5 -1 5 -5 
6 -4 5 1 5 -4 5 -2 6 0 5 -1 5 -4 5 2 
6 -4 5 -1 5 3 961 3380 300 MP stroke
6 2 5 -4 5 -6 5 1 6 0 5 -2 5 0 6 2 
5 -1 5 -4 5 -2 6 -4 5 -4 5 1 6 1 5 -4 
5 1 5 0 6 -2 5 1 5 -1 5 0 6 -1 5 0 
5 0 6 -1 5 1 5 -1 5 0 6 -1 5 -2 5 -1 
6 -2 5 -1 5 0 5 -1 6 -1 5 -1 5 0 5 -1 
750 3418 41 MP stroke
/c10 { 1.000000 0.000000 1.000000 sr} bdef
c10
-11 -1 -10 38 -10 33 -11 38 -10 40 -10 48 -11 70 -10 58 
-11 52 -10 46 -10 57 -11 49 26 -46 26 -44 26 -50 26 -37 
26 -44 26 -61 25 -53 26 -31 26 -49 26 -41 26 -48 26 -42 
26 -32 26 -38 25 -44 26 -54 26 -30 26 -54 26 -49 26 -29 
26 -22 25 -42 26 -26 26 -25 26 -63 26 -16 26 -37 26 -33 
25 -35 26 -35 26 -30 26 -43 26 -33 26 -35 26 -30 25 -58 
26 -34 26 -43 26 -23 26 -43 26 -15 26 -3 26 -42 25 -15 
26 -38 26 -36 26 -46 26 -16 26 -18 26 -29 25 -21 26 -32 
26 -35 26 -4 26 -14 26 -35 26 -20 25 -22 26 1 26 -33 
26 -25 26 -10 26 -8 26 -24 25 -10 26 -24 26 -25 26 14 
26 -23 26 -3 26 -16 26 -22 25 -3 26 -22 26 -14 26 -13 
26 -15 26 9 26 -19 25 -17 26 -18 26 -6 26 -31 26 -3 
26 -13 26 -31 25 9 26 -10 26 -8 26 -8 26 -18 26 -19 
26 -20 26 -21 25 15 26 -23 26 -19 26 -9 26 10 26 0 
26 -8 25 -20 26 2 26 -5 26 -9 26 -5 26 0 26 -2 
25 1 26 0 26 -6 26 -5 26 -7 26 -5 26 2 25 3 
26 -2 26 0 26 1 26 -1 26 -2 26 -2 25 -2 750 3529 136 MP stroke
gr

c10
0 sg
%%IncludeResource: font Helvetica
/Helvetica /WindowsLatin1Encoding 83.3333 FMSR

 732 4037 mt 
( ) s
4483  536 mt 
( ) s
8.33333 w
DO
SO
12.5 w
0.1 sg
 750  500 mt 4500  500 L
 750 4000 mt 4500 4000 L
4500 4000 mt 4500  500 L
 750 4000 mt  750  500 L
 750 4000 mt 4500 4000 L
 750 4000 mt  750  500 L
 750 4000 mt  750 3943 L
 750  500 mt  750  556 L
%%IncludeResource: font Helvetica
/Helvetica /WindowsLatin1Encoding 133.333 FMSR

 713 4148 mt 
(0) s
1500 4000 mt 1500 3943 L
1500  500 mt 1500  556 L
1371 4148 mt 
(0.05) s
2250 4000 mt 2250 3943 L
2250  500 mt 2250  556 L
2158 4148 mt 
(0.1) s
3000 4000 mt 3000 3943 L
3000  500 mt 3000  556 L
2871 4148 mt 
(0.15) s
3750 4000 mt 3750 3943 L
3750  500 mt 3750  556 L
3658 4148 mt 
(0.2) s
4500 4000 mt 4500 3943 L
4500  500 mt 4500  556 L
4371 4148 mt 
(0.25) s
 750 4000 mt  806 4000 L
4500 4000 mt 4443 4000 L
 541 4049 mt 
(1.1) s
 750 3500 mt  806 3500 L
4500 3500 mt 4443 3500 L
 541 3549 mt 
(1.2) s
 750 3000 mt  806 3000 L
4500 3000 mt 4443 3000 L
 541 3049 mt 
(1.3) s
 750 2500 mt  806 2500 L
4500 2500 mt 4443 2500 L
 541 2549 mt 
(1.4) s
 750 2000 mt  806 2000 L
4500 2000 mt 4443 2000 L
 541 2049 mt 
(1.5) s
 750 1500 mt  806 1500 L
4500 1500 mt 4443 1500 L
 541 1549 mt 
(1.6) s
 750 1000 mt  806 1000 L
4500 1000 mt 4443 1000 L
 541 1049 mt 
(1.7) s
 750  500 mt  806  500 L
4500  500 mt 4443  500 L
 541  549 mt 
(1.8) s
 750  463 mt 
(x 10) s
%%IncludeResource: font Helvetica
/Helvetica /WindowsLatin1Encoding 88.8889 FMSR

1002  381 mt 
(4) s
 750  500 mt 4500  500 L
 750 4000 mt 4500 4000 L
4500 4000 mt 4500  500 L
 750 4000 mt  750  500 L
0 sg
%%IncludeResource: font Helvetica-Bold
/Helvetica-Bold /WindowsLatin1Encoding 125 FMSR

1223  767 mt 
(K) s
%%IncludeResource: font Helvetica-Bold
/Helvetica-Bold /WindowsLatin1Encoding 100 FMSR

1313  829 mt 
(2) s
%%IncludeResource: font Helvetica-Bold
/Helvetica-Bold /WindowsLatin1Encoding 125 FMSR

1368  767 mt 
( = 5K) s
%%IncludeResource: font Helvetica-Bold
/Helvetica-Bold /WindowsLatin1Encoding 100 FMSR

1670  829 mt 
(1) s
%%IncludeResource: font Helvetica-Bold
/Helvetica-Bold /WindowsLatin1Encoding 125 FMSR

1725  767 mt 
( - Same Fill) s
gs 894 623 1607 922 rc
16.6667 w
253 0 944 749 2 MP stroke
gr

16.6667 w
1223  990 mt 
(K) s
%%IncludeResource: font Helvetica-Bold
/Helvetica-Bold /WindowsLatin1Encoding 100 FMSR

1313 1052 mt 
(2) s
%%IncludeResource: font Helvetica-Bold
/Helvetica-Bold /WindowsLatin1Encoding 125 FMSR

1368  990 mt 
( = 10K) s
%%IncludeResource: font Helvetica-Bold
/Helvetica-Bold /WindowsLatin1Encoding 100 FMSR

1739 1052 mt 
(1) s
%%IncludeResource: font Helvetica-Bold
/Helvetica-Bold /WindowsLatin1Encoding 125 FMSR

1794  990 mt 
( - Same Fill) s
gs 894 623 1607 922 rc
c8
253 0 944 972 2 MP stroke
gr

c8
0 sg
1223 1214 mt 
(K) s
%%IncludeResource: font Helvetica-Bold
/Helvetica-Bold /WindowsLatin1Encoding 100 FMSR

1313 1276 mt 
(2) s
%%IncludeResource: font Helvetica-Bold
/Helvetica-Bold /WindowsLatin1Encoding 125 FMSR

1368 1214 mt 
( = 25K) s
%%IncludeResource: font Helvetica-Bold
/Helvetica-Bold /WindowsLatin1Encoding 100 FMSR

1739 1276 mt 
(1) s
%%IncludeResource: font Helvetica-Bold
/Helvetica-Bold /WindowsLatin1Encoding 125 FMSR

1794 1214 mt 
( - Same Fill) s
gs 894 623 1607 922 rc
c9
253 0 944 1194 2 MP stroke
gr

c9
0 sg
1223 1437 mt 
(K) s
%%IncludeResource: font Helvetica-Bold
/Helvetica-Bold /WindowsLatin1Encoding 100 FMSR

1313 1499 mt 
(2) s
%%IncludeResource: font Helvetica-Bold
/Helvetica-Bold /WindowsLatin1Encoding 125 FMSR

1368 1437 mt 
( = 50K) s
%%IncludeResource: font Helvetica-Bold
/Helvetica-Bold /WindowsLatin1Encoding 100 FMSR

1739 1499 mt 
(1) s
%%IncludeResource: font Helvetica-Bold
/Helvetica-Bold /WindowsLatin1Encoding 125 FMSR

1794 1437 mt 
( - Same Fill) s
gs 894 623 1607 922 rc
c10
253 0 944 1417 2 MP stroke
12.5 w
gr

12.5 w
c10

end %%Color Dict

eplot
%%EndObject

epage
end

showpage

%%Trailer
%%EOF
