%!PS-Adobe-3.0 EPSF-3.0
%%Creator: MATLAB, The MathWorks, Inc. Version 8.1.0.604 (R2013a). Operating System: Microsoft Windows 7.
%%Title: .\K2_ConfinedPorosity.eps
%%CreationDate: 08/17/2013  16:01:36
%%DocumentNeededFonts: Helvetica-Bold
%%+ Helvetica
%%DocumentProcessColors: Cyan Magenta Yellow Black
%%LanguageLevel: 2
%%Pages: 1
%%BoundingBox:    41    88   564   572
%%EndComments

%%BeginProlog
% MathWorks dictionary
/MathWorks 160 dict begin
% definition operators
/bdef {bind def} bind def
/ldef {load def} bind def
/xdef {exch def} bdef
/xstore {exch store} bdef
% operator abbreviations
/c  /clip ldef
/cc /concat ldef
/cp /closepath ldef
/gr /grestore ldef
/gs /gsave ldef
/mt /moveto ldef
/np /newpath ldef
/cm /currentmatrix ldef
/sm /setmatrix ldef
/rm /rmoveto ldef
/rl /rlineto ldef
/s {show newpath} bdef
/sc {setcmykcolor} bdef
/sr /setrgbcolor ldef
/sg /setgray ldef
/w /setlinewidth ldef
/j /setlinejoin ldef
/cap /setlinecap ldef
/rc {rectclip} bdef
/rf {rectfill} bdef
% page state control
/pgsv () def
/bpage {/pgsv save def} bdef
/epage {pgsv restore} bdef
/bplot /gsave ldef
/eplot {stroke grestore} bdef
% orientation switch
/portraitMode 0 def /landscapeMode 1 def /rotateMode 2 def
% coordinate system mappings
/dpi2point 0 def
% font control
/FontSize 0 def
/FMS {/FontSize xstore findfont [FontSize 0 0 FontSize neg 0 0]
  makefont setfont} bdef
/ISOLatin1Encoding where {pop /WindowsLatin1Encoding 256 array bdef
ISOLatin1Encoding WindowsLatin1Encoding copy pop
/.notdef/.notdef/quotesinglbase/florin/quotedblbase/ellipsis/dagger
/daggerdbl/circumflex/perthousand/Scaron/guilsinglleft/OE/.notdef/.notdef
/.notdef/.notdef/quoteleft/quoteright/quotedblleft/quotedblright/bullet
/endash/emdash/tilde/trademark/scaron/guilsinglright/oe/.notdef/.notdef
/Ydieresis WindowsLatin1Encoding 128 32 getinterval astore pop}
{/WindowsLatin1Encoding StandardEncoding bdef} ifelse
/reencode {exch dup where {pop load} {pop StandardEncoding} ifelse
  exch dup 3 1 roll findfont dup length dict begin
  { 1 index /FID ne {def}{pop pop} ifelse } forall
  /Encoding exch def currentdict end definefont pop} bdef
/isroman {findfont /CharStrings get /Agrave known} bdef
/FMSR {3 1 roll 1 index dup isroman {reencode} {pop pop} ifelse
  exch FMS} bdef
/csm {1 dpi2point div -1 dpi2point div scale neg translate
 dup landscapeMode eq {pop -90 rotate}
  {rotateMode eq {90 rotate} if} ifelse} bdef
% line types: solid, dotted, dashed, dotdash
/SO { [] 0 setdash } bdef
/DO { [.5 dpi2point mul 4 dpi2point mul] 0 setdash } bdef
/DA { [6 dpi2point mul] 0 setdash } bdef
/DD { [.5 dpi2point mul 4 dpi2point mul 6 dpi2point mul 4
  dpi2point mul] 0 setdash } bdef
% macros for lines and objects
/L {lineto stroke} bdef
/MP {3 1 roll moveto 1 sub {rlineto} repeat} bdef
/AP {{rlineto} repeat} bdef
/PDlw -1 def
/W {/PDlw currentlinewidth def setlinewidth} def
/PP {closepath eofill} bdef
/DP {closepath stroke} bdef
/MR {4 -2 roll moveto dup  0 exch rlineto exch 0 rlineto
  neg 0 exch rlineto closepath} bdef
/FR {MR stroke} bdef
/PR {MR fill} bdef
/L1i {{currentfile picstr readhexstring pop} image} bdef
/tMatrix matrix def
/MakeOval {newpath tMatrix currentmatrix pop translate scale
0 0 1 0 360 arc tMatrix setmatrix} bdef
/FO {MakeOval stroke} bdef
/PO {MakeOval fill} bdef
/PD {currentlinewidth 2 div 0 360 arc fill
   PDlw -1 eq not {PDlw w /PDlw -1 def} if} def
/FA {newpath tMatrix currentmatrix pop translate scale
  0 0 1 5 -2 roll arc tMatrix setmatrix stroke} bdef
/PA {newpath tMatrix currentmatrix pop	translate 0 0 moveto scale
  0 0 1 5 -2 roll arc closepath tMatrix setmatrix fill} bdef
/FAn {newpath tMatrix currentmatrix pop translate scale
  0 0 1 5 -2 roll arcn tMatrix setmatrix stroke} bdef
/PAn {newpath tMatrix currentmatrix pop translate 0 0 moveto scale
  0 0 1 5 -2 roll arcn closepath tMatrix setmatrix fill} bdef
/vradius 0 def /hradius 0 def /lry 0 def
/lrx 0 def /uly 0 def /ulx 0 def /rad 0 def
/MRR {/vradius xdef /hradius xdef /lry xdef /lrx xdef /uly xdef
  /ulx xdef newpath tMatrix currentmatrix pop ulx hradius add uly
  vradius add translate hradius vradius scale 0 0 1 180 270 arc 
  tMatrix setmatrix lrx hradius sub uly vradius add translate
  hradius vradius scale 0 0 1 270 360 arc tMatrix setmatrix
  lrx hradius sub lry vradius sub translate hradius vradius scale
  0 0 1 0 90 arc tMatrix setmatrix ulx hradius add lry vradius sub
  translate hradius vradius scale 0 0 1 90 180 arc tMatrix setmatrix
  closepath} bdef
/FRR {MRR stroke } bdef
/PRR {MRR fill } bdef
/MlrRR {/lry xdef /lrx xdef /uly xdef /ulx xdef /rad lry uly sub 2 div def
  newpath tMatrix currentmatrix pop ulx rad add uly rad add translate
  rad rad scale 0 0 1 90 270 arc tMatrix setmatrix lrx rad sub lry rad
  sub translate rad rad scale 0 0 1 270 90 arc tMatrix setmatrix
  closepath} bdef
/FlrRR {MlrRR stroke } bdef
/PlrRR {MlrRR fill } bdef
/MtbRR {/lry xdef /lrx xdef /uly xdef /ulx xdef /rad lrx ulx sub 2 div def
  newpath tMatrix currentmatrix pop ulx rad add uly rad add translate
  rad rad scale 0 0 1 180 360 arc tMatrix setmatrix lrx rad sub lry rad
  sub translate rad rad scale 0 0 1 0 180 arc tMatrix setmatrix
  closepath} bdef
/FtbRR {MtbRR stroke } bdef
/PtbRR {MtbRR fill } bdef
/stri 6 array def /dtri 6 array def
/smat 6 array def /dmat 6 array def
/tmat1 6 array def /tmat2 6 array def /dif 3 array def
/asub {/ind2 exch def /ind1 exch def dup dup
  ind1 get exch ind2 get sub exch } bdef
/tri_to_matrix {
  2 0 asub 3 1 asub 4 0 asub 5 1 asub
  dup 0 get exch 1 get 7 -1 roll astore } bdef
/compute_transform {
  dmat dtri tri_to_matrix tmat1 invertmatrix 
  smat stri tri_to_matrix tmat2 concatmatrix } bdef
/ds {stri astore pop} bdef
/dt {dtri astore pop} bdef
/db {2 copy /cols xdef /rows xdef mul dup 3 mul string
  currentfile 
  3 index 0 eq {/ASCIIHexDecode filter}
  {/ASCII85Decode filter 3 index 2 eq {/RunLengthDecode filter} if }
  ifelse exch readstring pop
  dup 0 3 index getinterval /rbmap xdef
  dup 2 index dup getinterval /gbmap xdef
  1 index dup 2 mul exch getinterval /bbmap xdef pop pop}bdef
/it {gs np dtri aload pop moveto lineto lineto cp c
  cols rows 8 compute_transform 
  rbmap gbmap bbmap true 3 colorimage gr}bdef
/il {newpath moveto lineto stroke}bdef
currentdict end def
%%EndProlog

%%BeginSetup
MathWorks begin

0 cap

end
%%EndSetup

%%Page: 1 1
%%BeginPageSetup
%%PageBoundingBox:    41    88   564   572
MathWorks begin
bpage
%%EndPageSetup

%%BeginObject: obj1
bplot

/dpi2point 8.33333 def
portraitMode 0150 5158 csm

  194   390  4362  4030 rc
84 dict begin %Colortable dictionary
/c0 { 0.000000 0.000000 0.000000 sr} bdef
/c1 { 1.000000 1.000000 1.000000 sr} bdef
/c2 { 0.900000 0.000000 0.000000 sr} bdef
/c3 { 0.000000 0.820000 0.000000 sr} bdef
/c4 { 0.000000 0.000000 0.800000 sr} bdef
/c5 { 0.910000 0.820000 0.320000 sr} bdef
/c6 { 1.000000 0.260000 0.820000 sr} bdef
/c7 { 0.000000 0.820000 0.820000 sr} bdef
c0
1 j
1 sg
   0    0 5001 5001 rf
12.5 w
0 3500 3750 0 0 -3500 750 4000 4 MP
PP
-3750 0 0 3500 3750 0 0 -3500 750 4000 5 MP stroke
gs 750 500 3751 3501 rc
16.6667 w
0 sg
-658 -5 -408 -7 -364 -7 -296 -7 -250 -7 -216 -7 -198 -7 -179 -7 
-217 -8 -356 -7 -196 -7 -126 -7 -86 18 -56 18 23 17 24 18 
24 18 24 17 32 17 38 18 37 17 27 17 17 17 13 17 
0 17 4 17 6 17 6 17 6 17 14 16 12 17 19 16 
31 17 31 16 24 16 26 17 26 16 25 16 29 16 27 16 
22 16 19 16 18 15 17 16 29 16 30 15 25 16 20 15 
24 16 20 15 27 16 38 15 31 15 24 15 25 15 24 15 
7 15 13 15 15 15 21 14 21 15 31 15 39 14 37 15 
37 14 36 15 35 14 28 14 28 15 25 14 28 14 34 14 
40 14 44 14 40 14 39 14 28 14 34 14 32 13 31 14 
33 14 37 13 30 14 33 13 36 14 36 13 36 13 36 14 
33 13 31 13 32 13 29 13 35 13 34 13 34 13 35 13 
27 13 18 13 26 13 33 12 28 13 35 13 51 12 54 13 
55 12 83 13 93 12 86 12 99 13 122 12 107 12 156 12 
193 13 139 7 750 1275 115 MP stroke
gr

16.6667 w
0 sg
0.1 sg
%%IncludeResource: font Helvetica-Bold
/Helvetica-Bold /WindowsLatin1Encoding 183.333 FMSR

1903 4362 mt 
(Log Stress [kPa]) s
 387 2612 mt  -90 rotate
(Porosity) s
90 rotate
gs 750 500 3751 3501 rc
/c8 { 1.000000 0.000000 0.000000 sr} bdef
c8
-872 -6 -448 -7 -380 -8 -330 -7 -272 -7 -233 -8 -198 -7 -173 -8 
-298 -7 -172 -8 -116 -7 -81 18 -56 19 20 19 18 18 20 19 
20 18 22 18 24 19 26 18 23 18 24 18 25 18 21 18 
22 18 23 17 24 18 26 18 24 17 25 17 29 18 23 17 
19 17 24 17 24 17 19 17 24 17 23 17 19 17 22 17 
28 16 26 17 26 16 27 17 26 16 21 16 27 17 27 16 
27 16 25 16 23 16 21 16 24 16 24 15 25 16 34 16 
31 15 30 16 27 15 22 16 16 15 16 16 17 15 20 15 
25 15 22 15 25 15 23 15 22 15 25 15 25 14 26 15 
27 15 29 14 21 15 27 14 23 15 23 14 19 14 23 15 
23 14 19 14 17 14 20 14 24 14 23 14 30 14 27 14 
27 14 26 13 26 14 30 14 38 13 40 14 38 13 34 14 
38 13 36 13 37 14 37 13 45 13 50 13 48 13 53 13 
49 13 39 13 41 13 44 13 43 13 50 13 71 12 61 13 
58 13 65 12 79 13 78 12 79 13 84 12 35 12 22 13 
30 12 15 12 46 12 77 13 81 12 108 8 750 1262 127 MP stroke
/c9 { 0.000000 0.000000 1.000000 sr} bdef
c9
-159 -1 -227 -2 -200 -1 -173 -2 -160 -1 -143 -2 -132 -1 -122 -2 
-110 -1 -102 -2 -98 -2 -93 -1 -87 -2 -86 -1 -84 -2 -78 -1 
-73 -2 -66 -1 -61 -2 -58 -1 -58 -2 -55 -2 -54 -1 -52 -2 
-48 -1 -45 -2 -47 -1 -48 -2 -47 -1 -47 -2 -46 -1 -44 -2 
-39 -2 -40 -1 -38 -2 -36 -1 -37 -2 -38 -1 -46 -2 -153 -1 
-107 -2 -79 -2 -60 20 -43 19 25 19 24 20 25 19 26 19 
24 19 24 18 24 19 24 19 21 18 26 19 25 18 27 18 
29 19 28 18 29 18 31 18 28 18 30 18 29 18 28 17 
27 18 27 18 28 17 29 17 28 18 24 17 22 17 19 17 
18 17 21 17 23 17 29 17 28 17 28 17 28 16 29 17 
26 16 28 17 25 16 23 16 19 17 17 16 17 16 19 16 
18 16 20 16 20 16 16 15 26 16 24 16 25 15 25 16 
29 15 24 16 23 15 19 16 21 15 17 15 17 15 17 15 
20 15 18 15 20 15 20 15 19 14 17 15 20 15 18 14 
18 15 23 14 24 15 22 14 23 14 26 15 29 14 29 14 
23 14 25 14 23 14 21 14 21 14 30 14 29 14 23 13 
18 14 22 14 20 13 21 14 26 13 29 14 30 13 31 13 
31 14 29 13 30 13 27 13 28 13 34 13 40 13 41 13 
37 13 41 13 37 13 37 13 40 12 47 13 55 13 53 12 
44 13 45 12 69 13 52 12 72 12 84 13 88 12 67 12 
115 12 127 13 61 3 750 1279 164 MP stroke
/c10 { 1.000000 0.000000 1.000000 sr} bdef
c10
-19 0 -287 -2 -230 -2 -196 -1 -174 -2 -153 -1 -130 -2 -122 -1 
-115 -2 -112 -1 -108 -2 -106 -2 -100 -1 -93 -2 -88 -1 -86 -2 
-83 -1 -78 -2 -75 -2 -70 -1 -67 -2 -63 -1 -61 -2 -58 -1 
-57 -2 -52 -1 -50 -2 -47 -2 -40 -1 -42 -2 -44 -1 -47 -2 
-60 -2 -180 -1 -121 -2 -86 -1 -64 19 -42 20 28 19 30 20 
29 19 31 19 30 20 29 19 30 19 30 19 31 18 31 19 
30 19 30 18 28 19 25 18 26 18 28 19 28 18 29 18 
33 18 31 18 28 18 27 18 25 17 23 18 23 18 24 17 
26 17 21 18 23 17 23 17 23 17 25 17 28 17 27 17 
30 17 27 17 22 17 23 16 25 17 21 16 26 17 26 16 
26 16 24 17 23 16 21 16 23 16 21 16 22 16 23 16 
25 15 25 16 25 16 24 15 23 16 21 15 19 16 21 15 
18 16 18 15 19 15 20 15 17 15 19 15 25 15 23 15 
24 15 22 14 23 15 18 15 22 14 21 15 24 14 22 15 
22 14 20 14 17 15 20 14 19 14 18 14 18 14 23 14 
21 14 24 14 28 14 29 14 26 13 28 14 30 14 26 13 
29 14 32 13 29 14 19 13 20 13 19 14 20 13 23 13 
30 13 36 13 48 13 44 13 55 13 51 13 56 13 31 13 
45 13 44 12 64 13 71 13 109 12 88 13 129 12 137 13 
129 12 45 5 750 1351 155 MP stroke
gr

c10
0 sg
%%IncludeResource: font Helvetica
/Helvetica /WindowsLatin1Encoding 83.3333 FMSR

 732 4037 mt 
( ) s
4483  536 mt 
( ) s
8.33333 w
DO
SO
12.5 w
0.1 sg
 750  500 mt 4500  500 L
 750 4000 mt 4500 4000 L
4500 4000 mt 4500  500 L
 750 4000 mt  750  500 L
 750 4000 mt 4500 4000 L
 750 4000 mt  750  500 L
 750 4000 mt  750 3971 L
 750  500 mt  750  528 L
 750 4000 mt  750 3943 L
 750  500 mt  750  556 L
%%IncludeResource: font Helvetica
/Helvetica /WindowsLatin1Encoding 133.333 FMSR

 626 4188 mt 
(10) s
%%IncludeResource: font Helvetica
/Helvetica /WindowsLatin1Encoding 88.8889 FMSR

 774 4106 mt 
(-1) s
1116 4000 mt 1116 3971 L
1116  500 mt 1116  528 L
1331 4000 mt 1331 3971 L
1331  500 mt 1331  528 L
1483 4000 mt 1483 3971 L
1483  500 mt 1483  528 L
1601 4000 mt 1601 3971 L
1601  500 mt 1601  528 L
1697 4000 mt 1697 3971 L
1697  500 mt 1697  528 L
1779 4000 mt 1779 3971 L
1779  500 mt 1779  528 L
1849 4000 mt 1849 3971 L
1849  500 mt 1849  528 L
1912 4000 mt 1912 3971 L
1912  500 mt 1912  528 L
1967 4000 mt 1967 3971 L
1967  500 mt 1967  528 L
1967 4000 mt 1967 3943 L
1967  500 mt 1967  556 L
%%IncludeResource: font Helvetica
/Helvetica /WindowsLatin1Encoding 133.333 FMSR

1869 4188 mt 
(10) s
%%IncludeResource: font Helvetica
/Helvetica /WindowsLatin1Encoding 88.8889 FMSR

2017 4106 mt 
(0) s
2334 4000 mt 2334 3971 L
2334  500 mt 2334  528 L
2548 4000 mt 2548 3971 L
2548  500 mt 2548  528 L
2701 4000 mt 2701 3971 L
2701  500 mt 2701  528 L
2819 4000 mt 2819 3971 L
2819  500 mt 2819  528 L
2915 4000 mt 2915 3971 L
2915  500 mt 2915  528 L
2997 4000 mt 2997 3971 L
2997  500 mt 2997  528 L
3067 4000 mt 3067 3971 L
3067  500 mt 3067  528 L
3129 4000 mt 3129 3971 L
3129  500 mt 3129  528 L
3185 4000 mt 3185 3971 L
3185  500 mt 3185  528 L
3185 4000 mt 3185 3943 L
3185  500 mt 3185  556 L
%%IncludeResource: font Helvetica
/Helvetica /WindowsLatin1Encoding 133.333 FMSR

3087 4188 mt 
(10) s
%%IncludeResource: font Helvetica
/Helvetica /WindowsLatin1Encoding 88.8889 FMSR

3235 4106 mt 
(1) s
3552 4000 mt 3552 3971 L
3552  500 mt 3552  528 L
3766 4000 mt 3766 3971 L
3766  500 mt 3766  528 L
3918 4000 mt 3918 3971 L
3918  500 mt 3918  528 L
4036 4000 mt 4036 3971 L
4036  500 mt 4036  528 L
4133 4000 mt 4133 3971 L
4133  500 mt 4133  528 L
4214 4000 mt 4214 3971 L
4214  500 mt 4214  528 L
4285 4000 mt 4285 3971 L
4285  500 mt 4285  528 L
4347 4000 mt 4347 3971 L
4347  500 mt 4347  528 L
4403 4000 mt 4403 3971 L
4403  500 mt 4403  528 L
4403 4000 mt 4403 3943 L
4403  500 mt 4403  556 L
%%IncludeResource: font Helvetica
/Helvetica /WindowsLatin1Encoding 133.333 FMSR

4305 4188 mt 
(10) s
%%IncludeResource: font Helvetica
/Helvetica /WindowsLatin1Encoding 88.8889 FMSR

4453 4106 mt 
(2) s
 750 4000 mt  806 4000 L
4500 4000 mt 4443 4000 L
%%IncludeResource: font Helvetica
/Helvetica /WindowsLatin1Encoding 133.333 FMSR

 467 4049 mt 
(0.45) s
 750 3125 mt  806 3125 L
4500 3125 mt 4443 3125 L
 541 3174 mt 
(0.5) s
 750 2250 mt  806 2250 L
4500 2250 mt 4443 2250 L
 467 2299 mt 
(0.55) s
 750 1374 mt  806 1374 L
4500 1374 mt 4443 1374 L
 541 1423 mt 
(0.6) s
 750  500 mt  806  500 L
4500  500 mt 4443  500 L
 467  549 mt 
(0.65) s
 750  500 mt 4500  500 L
 750 4000 mt 4500 4000 L
4500 4000 mt 4500  500 L
 750 4000 mt  750  500 L
0 sg
%%IncludeResource: font Helvetica-Bold
/Helvetica-Bold /WindowsLatin1Encoding 125 FMSR

3732  767 mt 
(K) s
%%IncludeResource: font Helvetica-Bold
/Helvetica-Bold /WindowsLatin1Encoding 100 FMSR

3822  829 mt 
(2) s
%%IncludeResource: font Helvetica-Bold
/Helvetica-Bold /WindowsLatin1Encoding 125 FMSR

3877  767 mt 
( = 5K) s
%%IncludeResource: font Helvetica-Bold
/Helvetica-Bold /WindowsLatin1Encoding 100 FMSR

4179  829 mt 
(1) s
gs 3406 623 939 922 rc
16.6667 w
250 0 3456 749 2 MP stroke
gr

16.6667 w
%%IncludeResource: font Helvetica-Bold
/Helvetica-Bold /WindowsLatin1Encoding 125 FMSR

3732  990 mt 
(K) s
%%IncludeResource: font Helvetica-Bold
/Helvetica-Bold /WindowsLatin1Encoding 100 FMSR

3822 1052 mt 
(2) s
%%IncludeResource: font Helvetica-Bold
/Helvetica-Bold /WindowsLatin1Encoding 125 FMSR

3877  990 mt 
( = 10K) s
%%IncludeResource: font Helvetica-Bold
/Helvetica-Bold /WindowsLatin1Encoding 100 FMSR

4248 1052 mt 
(1) s
gs 3406 623 939 922 rc
c8
250 0 3456 972 2 MP stroke
gr

c8
0 sg
%%IncludeResource: font Helvetica-Bold
/Helvetica-Bold /WindowsLatin1Encoding 125 FMSR

3732 1214 mt 
(K) s
%%IncludeResource: font Helvetica-Bold
/Helvetica-Bold /WindowsLatin1Encoding 100 FMSR

3822 1276 mt 
(2) s
%%IncludeResource: font Helvetica-Bold
/Helvetica-Bold /WindowsLatin1Encoding 125 FMSR

3877 1214 mt 
( = 25K) s
%%IncludeResource: font Helvetica-Bold
/Helvetica-Bold /WindowsLatin1Encoding 100 FMSR

4248 1276 mt 
(1) s
gs 3406 623 939 922 rc
c9
250 0 3456 1194 2 MP stroke
gr

c9
0 sg
%%IncludeResource: font Helvetica-Bold
/Helvetica-Bold /WindowsLatin1Encoding 125 FMSR

3732 1437 mt 
(K) s
%%IncludeResource: font Helvetica-Bold
/Helvetica-Bold /WindowsLatin1Encoding 100 FMSR

3822 1499 mt 
(2) s
%%IncludeResource: font Helvetica-Bold
/Helvetica-Bold /WindowsLatin1Encoding 125 FMSR

3877 1437 mt 
( = 50K) s
%%IncludeResource: font Helvetica-Bold
/Helvetica-Bold /WindowsLatin1Encoding 100 FMSR

4248 1499 mt 
(1) s
gs 3406 623 939 922 rc
c10
250 0 3456 1417 2 MP stroke
12.5 w
gr

12.5 w
c10

end %%Color Dict

eplot
%%EndObject

epage
end

showpage

%%Trailer
%%EOF
