%!PS-Adobe-3.0 EPSF-3.0
%%Creator: MATLAB, The MathWorks, Inc. Version 8.1.0.604 (R2013a). Operating System: Microsoft Windows 7.
%%Title: .\K2_Confined_StressStain_SameFill.eps
%%CreationDate: 08/17/2013  16:01:37
%%DocumentNeededFonts: Helvetica-Bold
%%+ Helvetica
%%DocumentProcessColors: Cyan Magenta Yellow Black
%%LanguageLevel: 2
%%Pages: 1
%%BoundingBox:    45    93   577   572
%%EndComments

%%BeginProlog
% MathWorks dictionary
/MathWorks 160 dict begin
% definition operators
/bdef {bind def} bind def
/ldef {load def} bind def
/xdef {exch def} bdef
/xstore {exch store} bdef
% operator abbreviations
/c  /clip ldef
/cc /concat ldef
/cp /closepath ldef
/gr /grestore ldef
/gs /gsave ldef
/mt /moveto ldef
/np /newpath ldef
/cm /currentmatrix ldef
/sm /setmatrix ldef
/rm /rmoveto ldef
/rl /rlineto ldef
/s {show newpath} bdef
/sc {setcmykcolor} bdef
/sr /setrgbcolor ldef
/sg /setgray ldef
/w /setlinewidth ldef
/j /setlinejoin ldef
/cap /setlinecap ldef
/rc {rectclip} bdef
/rf {rectfill} bdef
% page state control
/pgsv () def
/bpage {/pgsv save def} bdef
/epage {pgsv restore} bdef
/bplot /gsave ldef
/eplot {stroke grestore} bdef
% orientation switch
/portraitMode 0 def /landscapeMode 1 def /rotateMode 2 def
% coordinate system mappings
/dpi2point 0 def
% font control
/FontSize 0 def
/FMS {/FontSize xstore findfont [FontSize 0 0 FontSize neg 0 0]
  makefont setfont} bdef
/ISOLatin1Encoding where {pop /WindowsLatin1Encoding 256 array bdef
ISOLatin1Encoding WindowsLatin1Encoding copy pop
/.notdef/.notdef/quotesinglbase/florin/quotedblbase/ellipsis/dagger
/daggerdbl/circumflex/perthousand/Scaron/guilsinglleft/OE/.notdef/.notdef
/.notdef/.notdef/quoteleft/quoteright/quotedblleft/quotedblright/bullet
/endash/emdash/tilde/trademark/scaron/guilsinglright/oe/.notdef/.notdef
/Ydieresis WindowsLatin1Encoding 128 32 getinterval astore pop}
{/WindowsLatin1Encoding StandardEncoding bdef} ifelse
/reencode {exch dup where {pop load} {pop StandardEncoding} ifelse
  exch dup 3 1 roll findfont dup length dict begin
  { 1 index /FID ne {def}{pop pop} ifelse } forall
  /Encoding exch def currentdict end definefont pop} bdef
/isroman {findfont /CharStrings get /Agrave known} bdef
/FMSR {3 1 roll 1 index dup isroman {reencode} {pop pop} ifelse
  exch FMS} bdef
/csm {1 dpi2point div -1 dpi2point div scale neg translate
 dup landscapeMode eq {pop -90 rotate}
  {rotateMode eq {90 rotate} if} ifelse} bdef
% line types: solid, dotted, dashed, dotdash
/SO { [] 0 setdash } bdef
/DO { [.5 dpi2point mul 4 dpi2point mul] 0 setdash } bdef
/DA { [6 dpi2point mul] 0 setdash } bdef
/DD { [.5 dpi2point mul 4 dpi2point mul 6 dpi2point mul 4
  dpi2point mul] 0 setdash } bdef
% macros for lines and objects
/L {lineto stroke} bdef
/MP {3 1 roll moveto 1 sub {rlineto} repeat} bdef
/AP {{rlineto} repeat} bdef
/PDlw -1 def
/W {/PDlw currentlinewidth def setlinewidth} def
/PP {closepath eofill} bdef
/DP {closepath stroke} bdef
/MR {4 -2 roll moveto dup  0 exch rlineto exch 0 rlineto
  neg 0 exch rlineto closepath} bdef
/FR {MR stroke} bdef
/PR {MR fill} bdef
/L1i {{currentfile picstr readhexstring pop} image} bdef
/tMatrix matrix def
/MakeOval {newpath tMatrix currentmatrix pop translate scale
0 0 1 0 360 arc tMatrix setmatrix} bdef
/FO {MakeOval stroke} bdef
/PO {MakeOval fill} bdef
/PD {currentlinewidth 2 div 0 360 arc fill
   PDlw -1 eq not {PDlw w /PDlw -1 def} if} def
/FA {newpath tMatrix currentmatrix pop translate scale
  0 0 1 5 -2 roll arc tMatrix setmatrix stroke} bdef
/PA {newpath tMatrix currentmatrix pop	translate 0 0 moveto scale
  0 0 1 5 -2 roll arc closepath tMatrix setmatrix fill} bdef
/FAn {newpath tMatrix currentmatrix pop translate scale
  0 0 1 5 -2 roll arcn tMatrix setmatrix stroke} bdef
/PAn {newpath tMatrix currentmatrix pop translate 0 0 moveto scale
  0 0 1 5 -2 roll arcn closepath tMatrix setmatrix fill} bdef
/vradius 0 def /hradius 0 def /lry 0 def
/lrx 0 def /uly 0 def /ulx 0 def /rad 0 def
/MRR {/vradius xdef /hradius xdef /lry xdef /lrx xdef /uly xdef
  /ulx xdef newpath tMatrix currentmatrix pop ulx hradius add uly
  vradius add translate hradius vradius scale 0 0 1 180 270 arc 
  tMatrix setmatrix lrx hradius sub uly vradius add translate
  hradius vradius scale 0 0 1 270 360 arc tMatrix setmatrix
  lrx hradius sub lry vradius sub translate hradius vradius scale
  0 0 1 0 90 arc tMatrix setmatrix ulx hradius add lry vradius sub
  translate hradius vradius scale 0 0 1 90 180 arc tMatrix setmatrix
  closepath} bdef
/FRR {MRR stroke } bdef
/PRR {MRR fill } bdef
/MlrRR {/lry xdef /lrx xdef /uly xdef /ulx xdef /rad lry uly sub 2 div def
  newpath tMatrix currentmatrix pop ulx rad add uly rad add translate
  rad rad scale 0 0 1 90 270 arc tMatrix setmatrix lrx rad sub lry rad
  sub translate rad rad scale 0 0 1 270 90 arc tMatrix setmatrix
  closepath} bdef
/FlrRR {MlrRR stroke } bdef
/PlrRR {MlrRR fill } bdef
/MtbRR {/lry xdef /lrx xdef /uly xdef /ulx xdef /rad lrx ulx sub 2 div def
  newpath tMatrix currentmatrix pop ulx rad add uly rad add translate
  rad rad scale 0 0 1 180 360 arc tMatrix setmatrix lrx rad sub lry rad
  sub translate rad rad scale 0 0 1 0 180 arc tMatrix setmatrix
  closepath} bdef
/FtbRR {MtbRR stroke } bdef
/PtbRR {MtbRR fill } bdef
/stri 6 array def /dtri 6 array def
/smat 6 array def /dmat 6 array def
/tmat1 6 array def /tmat2 6 array def /dif 3 array def
/asub {/ind2 exch def /ind1 exch def dup dup
  ind1 get exch ind2 get sub exch } bdef
/tri_to_matrix {
  2 0 asub 3 1 asub 4 0 asub 5 1 asub
  dup 0 get exch 1 get 7 -1 roll astore } bdef
/compute_transform {
  dmat dtri tri_to_matrix tmat1 invertmatrix 
  smat stri tri_to_matrix tmat2 concatmatrix } bdef
/ds {stri astore pop} bdef
/dt {dtri astore pop} bdef
/db {2 copy /cols xdef /rows xdef mul dup 3 mul string
  currentfile 
  3 index 0 eq {/ASCIIHexDecode filter}
  {/ASCII85Decode filter 3 index 2 eq {/RunLengthDecode filter} if }
  ifelse exch readstring pop
  dup 0 3 index getinterval /rbmap xdef
  dup 2 index dup getinterval /gbmap xdef
  1 index dup 2 mul exch getinterval /bbmap xdef pop pop}bdef
/it {gs np dtri aload pop moveto lineto lineto cp c
  cols rows 8 compute_transform 
  rbmap gbmap bbmap true 3 colorimage gr}bdef
/il {newpath moveto lineto stroke}bdef
currentdict end def
%%EndProlog

%%BeginSetup
MathWorks begin

0 cap

end
%%EndSetup

%%Page: 1 1
%%BeginPageSetup
%%PageBoundingBox:    45    93   577   572
MathWorks begin
bpage
%%EndPageSetup

%%BeginObject: obj1
bplot

/dpi2point 8.33333 def
portraitMode 0150 5158 csm

  231   390  4435  3990 rc
84 dict begin %Colortable dictionary
/c0 { 0.000000 0.000000 0.000000 sr} bdef
/c1 { 1.000000 1.000000 1.000000 sr} bdef
/c2 { 0.900000 0.000000 0.000000 sr} bdef
/c3 { 0.000000 0.820000 0.000000 sr} bdef
/c4 { 0.000000 0.000000 0.800000 sr} bdef
/c5 { 0.910000 0.820000 0.320000 sr} bdef
/c6 { 1.000000 0.260000 0.820000 sr} bdef
/c7 { 0.000000 0.820000 0.820000 sr} bdef
c0
1 j
1 sg
   0    0 5001 5001 rf
12.5 w
0 3500 3750 0 0 -3500 750 4000 4 MP
PP
-3750 0 0 3500 3750 0 0 -3500 750 4000 5 MP stroke
gs 750 500 3751 3501 rc
16.6667 w
0 sg
-3 1 -2 0 -2 0 -2 1 -2 1 -2 2 -2 2 -2 3 
-2 3 -3 4 -2 3 -2 5 -2 6 -2 6 -2 6 -2 8 
-2 10 -2 10 -3 10 -2 12 -2 13 -2 20 -2 21 -2 19 
-2 18 -2 20 -2 25 -3 27 -2 27 -2 30 -2 29 -2 28 
-2 29 -2 32 -2 35 -2 26 -3 28 -2 33 -2 34 -2 36 
-2 33 -2 35 -2 50 -2 41 -2 42 -3 42 -2 39 -2 41 
-2 42 -2 39 -2 55 -2 59 -2 47 -2 51 -3 57 -2 39 
-2 49 -2 53 -2 45 -2 48 -2 107 -2 1579 5 -55 5 -22 
5 -19 6 -51 5 0 5 -18 6 -35 5 10 5 -36 5 -33 
6 -14 5 -25 5 -23 6 -38 5 -23 5 -20 5 -16 6 -20 
5 -25 5 -47 6 6 5 -41 5 -12 5 -27 6 -16 5 -18 
5 -24 5 -36 6 -22 5 -28 5 -26 6 -29 5 -36 5 -18 
5 -21 6 -26 5 -26 5 -38 6 -17 5 -26 5 -13 5 -26 
6 -30 5 -1 5 -26 6 -20 5 -20 5 -29 5 -22 6 -19 
5 -54 5 -3 5 26 6 -26 5 -20 5 -16 6 -23 5 -20 
5 -23 5 -21 6 -7 5 -33 5 -21 6 12 5 -21 5 -15 
5 -19 6 -11 5 -21 5 -24 6 -21 5 -22 5 -23 5 -17 
6 -11 5 -24 5 -24 5 -25 6 -9 5 -17 5 -16 6 -24 
5 -28 5 -12 5 -15 6 -16 5 -5 5 -17 6 -12 5 -16 
5 -20 5 -6 6 -11 5 -18 5 -13 6 -7 5 -16 5 -20 
5 -14 6 -14 5 -13 5 -5 5 -14 6 -15 5 -11 5 -11 
6 -13 5 -19 5 -19 5 -3 6 -2 5 -8 5 -18 6 -8 
5 -5 5 -15 5 -14 6 -9 5 -17 5 -10 6 -12 5 -17 
5 -1 5 2 6 -9 5 -10 5 -4 5 -12 6 -11 5 -13 
5 -10 6 -15 5 -14 5 -6 5 -9 6 -9 5 1 5 -3 
6 -4 5 -8 5 -9 5 -9 6 -13 5 -11 5 -1 6 -2 
5 -12 5 1 5 -8 6 -10 5 -11 5 -8 5 -4 6 -8 
5 -5 5 -6 6 -4 5 -4 5 -12 5 -7 6 -9 5 -1 
5 -3 6 -7 5 -7 5 -10 5 -10 6 -4 5 -1 5 -7 
6 -4 5 -3 5 -6 5 -10 6 -8 5 -3 5 -2 5 -5 
6 -6 5 -8 5 -7 6 -7 5 -1 5 -4 5 -9 6 -5 
5 -3 5 -8 6 -3 5 -6 5 -6 5 -7 6 -1 5 -4 
5 -7 6 -4 5 -4 5 -4 5 -3 6 -6 5 -3 5 2 
5 -1 6 -4 5 -3 5 2 6 -5 5 -4 5 -7 5 -6 
6 -4 5 -2 5 -1 6 -3 5 1 5 -3 5 -4 6 -1 
5 -5 5 1 6 -4 5 -3 5 0 5 2 6 -4 5 -5 
5 -3 5 -3 6 -5 5 -5 5 -2 6 -2 5 -10 5 -3 
5 4 6 0 5 -4 2608 3660 300 MP stroke
5 -1 6 -2 5 -4 5 -3 5 -4 6 -4 5 -2 5 4 
5 -1 6 -5 5 -4 5 -4 6 -5 5 1 5 -2 5 -5 
6 -6 5 -3 5 -2 6 -5 5 -2 5 -3 5 -3 6 -1 
5 -3 5 -3 6 -2 5 -1 5 -2 5 -5 6 -2 5 -2 
5 -7 5 -3 6 1 5 -3 5 -4 6 -1 5 -1 5 1 
5 -1 6 -3 5 0 5 0 6 -1 5 -2 5 -1 5 -5 
6 -4 5 -2 5 1 6 0 5 -6 5 -2 5 -2 6 -3 
5 -3 5 -2 5 -1 6 -2 5 -1 5 -1 6 -2 5 -2 
5 -3 5 -2 6 -2 5 -1 5 1 6 -4 5 -4 5 -1 
5 -1 6 -3 5 -1 5 -3 6 -2 5 0 5 -1 5 -2 
6 -1 5 -3 5 -2 5 -1 6 -2 5 -1 5 -1 6 -2 
5 -2 5 -2 5 -3 6 -1 5 -3 5 -1 6 0 5 -4 
5 0 5 -2 6 -1 5 1 5 -1 6 -2 5 -3 5 0 
5 -2 6 2 5 -1 5 -2 5 0 6 0 5 -1 5 -2 
6 -2 5 0 5 0 5 0 6 3 5 0 5 -3 6 -1 
5 -1 5 -1 5 0 6 0 5 -1 5 1 6 0 5 -1 
5 0 5 -1 6 -1 5 -1 5 -1 5 -2 6 -1 5 0 
5 -1 6 -1 5 0 5 -1 5 0 6 0 5 0 5 -1 
6 0 5 -1 5 -2 5 -1 6 0 5 0 5 0 6 -3 
5 -3 5 -2 5 1 6 0 5 -2 5 -1 5 -2 6 -1 
5 0 5 1 6 0 5 0 5 -1 5 -1 6 -1 5 0 
5 -2 6 -1 5 -1 5 0 5 -1 6 -1 5 -1 5 1 
6 0 5 -1 5 -2 5 0 6 0 5 0 5 -1 5 0 
6 -1 5 -1 5 0 6 0 5 -1 5 -1 5 -1 6 0 
5 -1 5 -1 6 0 5 0 5 -1 5 0 6 1 5 0 
5 -2 6 0 5 -2 5 0 5 -1 6 0 5 -1 5 0 
5 -1 6 -2 5 1 5 -1 6 -2 5 -1 5 -1 5 -1 
6 0 5 -1 5 0 6 -1 5 0 5 -1 5 -1 6 0 
5 0 5 0 6 0 5 -1 5 -1 5 0 6 -1 5 0 
5 0 5 0 6 1 5 -1 5 0 6 0 5 -3 5 -2 
5 -1 6 0 5 0 5 -1 6 -2 5 -1 5 0 5 0 
6 0 5 -1 5 0 6 0 5 0 5 -1 5 0 6 -1 
5 0 5 0 5 -1 6 -1 5 0 5 1 6 -1 5 0 
5 -1 5 -1 6 0 5 -1 5 0 6 0 5 0 5 -1 
5 0 6 0 5 0 5 -1 6 -1 5 -1 5 0 5 -1 
6 0 5 0 5 -1 5 -1 6 0 5 0 5 -1 6 -1 
5 -1 5 1 5 -1 6 0 5 0 5 0 6 -2 5 0 
5 1 5 0 6 -1 1029 3984 300 MP stroke
5 0 5 0 6 0 5 -2 5 0 5 0 6 -1 5 0 
5 -1 5 0 6 0 5 0 5 -1 6 0 5 -1 5 0 
5 -1 6 -1 5 0 5 -1 6 -1 5 0 5 0 5 0 
6 0 5 0 5 0 6 0 5 -1 5 -1 5 0 6 0 
5 0 5 0 5 -1 6 0 5 0 5 0 6 0 5 0 
5 0 5 0 6 0 5 0 5 0 6 -1 5 0 5 0 
5 0 6 0 5 0 5 0 5 0 750 3998 54 MP stroke
gr

16.6667 w
0 sg
0.1 sg
%%IncludeResource: font Helvetica-Bold
/Helvetica-Bold /WindowsLatin1Encoding 183.333 FMSR

2010 4322 mt 
(Vertical Strain) s
 424 3132 mt  -90 rotate
(Vertical Stress [kPa]) s
90 rotate
gs 750 500 3751 3501 rc
/c8 { 1.000000 0.000000 0.000000 sr} bdef
c8
-2 1 -2 0 -3 0 -2 1 -2 2 -2 4 -2 4 -2 4 
-2 4 -2 7 -2 7 -3 7 -2 8 -2 7 -2 8 -2 9 
-2 10 -2 15 -2 18 -2 20 -3 21 -2 22 -2 18 -2 27 
-2 25 -2 30 -2 29 -2 34 -2 30 -3 32 -2 43 -2 34 
-2 47 -2 46 -2 47 -2 43 -2 50 -3 57 -2 63 -2 67 
-2 67 -2 69 -2 64 -2 65 -2 93 -2 75 -3 187 -2 1664 
6 -26 5 -49 5 -35 5 -28 6 -34 5 -18 5 -54 6 7 
5 -57 5 -18 5 -25 6 -20 5 -6 5 -41 6 -14 5 -5 
5 -16 5 -25 6 -32 5 -28 5 -36 6 -7 5 -16 5 -22 
5 -28 6 -21 5 -27 5 -31 5 -24 6 -39 5 -23 5 -24 
6 -29 5 -19 5 -28 5 -22 6 -25 5 -30 5 -28 6 -22 
5 -28 5 -28 5 -30 6 -30 5 -26 5 -23 6 -13 5 -18 
5 -21 5 -21 6 -29 5 -17 5 -17 5 -22 6 -28 5 -20 
5 -25 6 -29 5 -12 5 -17 5 -28 6 -13 5 -17 5 -13 
6 -14 5 -10 5 -15 5 -14 6 -21 5 -25 5 -11 6 -16 
5 -8 5 -10 5 -19 6 -10 5 -12 5 -17 5 -19 6 -20 
5 -18 5 -11 6 -14 5 -35 5 -9 5 -8 6 -17 5 -18 
5 -9 6 -15 5 -26 5 -20 5 -2 6 -18 5 9 5 10 
6 -10 5 -12 5 -10 5 -13 6 -33 5 6 5 -2 5 -13 
6 -6 5 -15 5 -7 6 -15 5 -11 5 -11 5 -11 6 -9 
5 -9 5 -9 6 -18 5 -2 5 -6 5 -18 6 -12 5 -12 
5 -6 6 -4 5 -12 5 -5 5 -10 6 -16 5 -10 5 -12 
5 -14 6 -5 5 -5 5 -8 6 -11 5 -3 5 5 5 -9 
6 -14 5 -10 5 -6 6 -8 5 -7 5 -12 5 -9 6 -8 
5 -7 5 -6 6 -10 5 -9 5 -3 5 -7 6 -8 5 -4 
5 -11 5 -2 6 -10 5 -13 5 3 6 -8 5 1 5 8 
5 -5 6 -13 5 -20 5 -1 6 -5 5 6 5 1 5 -7 
6 -12 5 -3 5 -4 6 -4 5 -11 5 -7 5 -12 6 -9 
5 -5 5 0 5 1 6 3 5 -4 5 -1 6 -2 5 -7 
5 -8 5 -8 6 -7 5 -8 5 -2 6 -3 5 -5 5 -15 
5 0 6 -1 5 -2 5 -2 6 -10 5 -6 5 -6 5 -5 
6 -7 5 -9 5 -9 5 -5 6 -6 5 -8 5 0 6 -2 
5 -1 5 -9 5 0 6 5 5 2 5 -6 6 -5 5 -6 
5 -2 5 -5 6 -1 5 -6 5 -8 6 -6 5 2 5 0 
5 -3 6 -1 5 0 5 1 5 -3 6 -3 5 -4 5 -1 
6 -3 5 -1 5 -1 5 1 6 -3 5 -9 5 -3 6 -2 
5 -2 5 -1 5 -1 6 -1 5 -3 5 -3 5 -6 6 0 
5 -1 5 -1 6 -4 2539 3709 300 MP stroke
5 -4 5 -4 5 -3 6 -4 5 -1 5 -3 6 -4 5 -5 
5 -3 5 -1 6 -2 5 -3 5 -3 6 -1 5 -1 5 -4 
5 -5 6 -3 5 -5 5 -4 5 -3 6 -3 5 -1 5 -4 
6 0 5 2 5 0 5 -1 6 -2 5 -2 5 -1 6 -1 
5 -5 5 -1 5 -2 6 -2 5 -2 5 -2 6 -1 5 0 
5 1 5 1 6 -3 5 -1 5 1 5 -1 6 -2 5 -2 
5 -1 6 -3 5 0 5 -2 5 -1 6 0 5 -4 5 -3 
6 -1 5 -1 5 -1 5 -2 6 -1 5 -1 5 0 6 -1 
5 -2 5 -1 5 -1 6 -1 5 -1 5 -1 5 -2 6 -1 
5 -5 5 -1 6 -3 5 -2 5 -2 5 -2 6 -1 5 1 
5 -1 6 -4 5 -3 5 -1 5 -2 6 -2 5 -2 5 -1 
6 0 5 -1 5 -2 5 -1 6 -3 5 -2 5 1 5 0 
6 0 5 -1 5 0 6 0 5 0 5 -1 5 -1 6 -1 
5 -2 5 0 6 0 5 -1 5 -1 5 -3 6 -1 5 -2 
5 -1 6 -1 5 0 5 -1 5 -1 6 -2 5 0 5 -2 
5 -1 6 -1 5 -1 5 -1 6 0 5 -1 5 -2 5 -1 
6 1 5 -1 5 0 6 -1 5 0 5 -1 5 -2 6 -1 
5 0 5 -1 6 -1 5 -1 5 0 5 -1 6 1 5 0 
5 -1 5 -1 6 -1 5 -1 5 0 6 -1 5 0 5 0 
5 1 6 0 5 -1 5 0 6 -1 5 0 5 -1 5 -1 
6 0 5 0 5 -1 6 1 5 -1 5 0 5 -2 6 -1 
5 -1 5 0 5 -1 6 -1 5 -1 5 -1 6 -1 5 0 
5 0 5 0 6 -1 5 0 5 -1 6 0 5 -1 5 0 
5 -1 6 -1 5 -1 5 0 6 -1 5 0 5 0 5 0 
6 -1 5 -1 5 -1 5 0 6 -1 5 -3 5 0 6 -1 
5 0 5 0 5 -1 6 -1 5 1 5 -1 6 -1 5 -1 
5 0 5 0 6 -1 5 0 5 -1 6 -1 5 0 5 0 
5 0 6 0 5 0 5 -1 5 0 6 -1 5 0 5 0 
6 -1 5 0 5 0 5 0 6 0 5 -1 5 0 6 0 
5 -1 5 -2 5 0 6 -1 5 -1 5 0 6 -1 5 0 
5 0 5 -1 6 0 5 -1 5 0 5 -1 6 0 5 0 
5 0 6 0 5 0 5 0 5 0 6 -1 5 -1 5 0 
6 -1 5 0 5 0 5 -2 6 0 5 0 5 -1 6 1 
5 0 5 -1 5 -1 6 0 5 0 5 -1 5 -2 6 0 
5 0 5 -1 6 0 5 0 5 -1 5 0 6 0 5 -1 
5 -1 6 0 5 0 5 0 5 0 6 -2 5 0 5 0 
6 0 5 0 5 0 5 -1 6 0 5 0 5 -2 5 0 
6 0 5 0 5 0 961 3990 300 MP stroke
6 0 5 -1 5 0 5 -1 6 0 5 -2 5 0 6 0 
5 0 5 0 5 0 6 0 5 0 5 0 6 0 5 -2 
5 0 5 0 6 0 5 0 5 -1 5 0 6 0 5 0 
5 0 6 0 5 0 5 0 5 0 6 0 5 0 5 0 
6 -1 5 0 5 0 5 0 6 0 5 0 5 0 5 -1 
750 3999 41 MP stroke
/c9 { 0.000000 0.000000 1.000000 sr} bdef
c9
-2 1 -2 0 -2 2 -2 2 -2 4 -2 3 -2 5 -3 6 
-2 7 -2 8 -2 7 -2 11 -2 13 -2 16 -2 20 -2 19 
-3 23 -2 24 -2 29 -2 36 -2 36 -2 38 -2 41 -2 44 
-2 49 -3 55 -2 52 -2 62 -2 65 -2 55 -2 72 -2 54 
-2 51 -2 97 -3 99 -2 136 -2 228 -2 1762 26 -164 27 -161 
26 -144 27 -163 26 -139 27 -136 26 -129 26 -137 27 -90 26 -104 
27 -106 26 -116 26 -100 27 -83 26 -54 27 -72 26 -75 26 -41 
27 -73 26 -68 27 -54 26 -74 26 -50 27 -44 26 -26 27 -38 
26 -42 26 -25 27 -33 26 -34 27 -34 26 -12 27 -27 26 -27 
26 -29 27 -39 26 -18 27 -20 26 -33 26 -5 27 -16 26 -16 
27 -24 26 -16 26 -19 27 -11 26 -12 27 -15 26 -10 26 -9 
27 -14 26 -6 27 -16 26 -8 27 -13 26 -8 26 -7 27 -10 
26 -5 27 -6 26 -6 26 -7 27 -5 26 -3 27 -7 26 -6 
26 -4 27 -5 26 -11 27 -1 26 -7 26 0 27 -6 26 -5 
27 -4 26 -5 27 -2 26 -4 26 -3 27 -3 26 -1 27 -4 
26 -3 26 -1 27 -3 26 -4 27 -2 26 -4 26 -4 27 -2 
26 -1 27 -3 26 -4 26 -1 27 -3 26 -2 27 0 26 -1 
27 0 26 -3 26 -2 27 -1 26 -3 27 -1 26 -5 26 0 
27 -3 26 0 27 -2 26 0 26 -2 27 -2 26 -2 27 -2 
26 -2 26 1 27 -3 26 0 27 0 26 -1 26 0 750 3998 160 MP stroke
gr

c9
0 sg
%%IncludeResource: font Helvetica
/Helvetica /WindowsLatin1Encoding 83.3333 FMSR

 732 4037 mt 
( ) s
4483  536 mt 
( ) s
8.33333 w
DO
SO
12.5 w
0.1 sg
 750  500 mt 4500  500 L
 750 4000 mt 4500 4000 L
4500 4000 mt 4500  500 L
 750 4000 mt  750  500 L
 750 4000 mt 4500 4000 L
 750 4000 mt  750  500 L
 750 4000 mt  750 3943 L
 750  500 mt  750  556 L
%%IncludeResource: font Helvetica
/Helvetica /WindowsLatin1Encoding 133.333 FMSR

 713 4148 mt 
(0) s
1500 4000 mt 1500 3943 L
1500  500 mt 1500  556 L
1371 4148 mt 
(0.05) s
2250 4000 mt 2250 3943 L
2250  500 mt 2250  556 L
2158 4148 mt 
(0.1) s
3000 4000 mt 3000 3943 L
3000  500 mt 3000  556 L
2871 4148 mt 
(0.15) s
3750 4000 mt 3750 3943 L
3750  500 mt 3750  556 L
3658 4148 mt 
(0.2) s
4500 4000 mt 4500 3943 L
4500  500 mt 4500  556 L
4371 4148 mt 
(0.25) s
 750 4000 mt  806 4000 L
4500 4000 mt 4443 4000 L
 652 4049 mt 
(0) s
 750 3681 mt  806 3681 L
4500 3681 mt 4443 3681 L
 578 3730 mt 
(10) s
 750 3363 mt  806 3363 L
4500 3363 mt 4443 3363 L
 578 3412 mt 
(20) s
 750 3045 mt  806 3045 L
4500 3045 mt 4443 3045 L
 578 3094 mt 
(30) s
 750 2727 mt  806 2727 L
4500 2727 mt 4443 2727 L
 578 2776 mt 
(40) s
 750 2409 mt  806 2409 L
4500 2409 mt 4443 2409 L
 578 2458 mt 
(50) s
 750 2090 mt  806 2090 L
4500 2090 mt 4443 2090 L
 578 2139 mt 
(60) s
 750 1772 mt  806 1772 L
4500 1772 mt 4443 1772 L
 578 1821 mt 
(70) s
 750 1454 mt  806 1454 L
4500 1454 mt 4443 1454 L
 578 1503 mt 
(80) s
 750 1136 mt  806 1136 L
4500 1136 mt 4443 1136 L
 578 1185 mt 
(90) s
 750  818 mt  806  818 L
4500  818 mt 4443  818 L
 504  867 mt 
(100) s
 750  500 mt  806  500 L
4500  500 mt 4443  500 L
 504  549 mt 
(110) s
 750  500 mt 4500  500 L
 750 4000 mt 4500 4000 L
4500 4000 mt 4500  500 L
 750 4000 mt  750  500 L
0 sg
%%IncludeResource: font Helvetica-Bold
/Helvetica-Bold /WindowsLatin1Encoding 125 FMSR

1232  733 mt 
(K) s
%%IncludeResource: font Helvetica-Bold
/Helvetica-Bold /WindowsLatin1Encoding 100 FMSR

1322  795 mt 
(2) s
%%IncludeResource: font Helvetica-Bold
/Helvetica-Bold /WindowsLatin1Encoding 125 FMSR

1377  733 mt 
( = 10K) s
%%IncludeResource: font Helvetica-Bold
/Helvetica-Bold /WindowsLatin1Encoding 100 FMSR

1748  795 mt 
(1) s
gs 906 589 939 698 rc
16.6667 w
250 0 956 714 2 MP stroke
gr

16.6667 w
%%IncludeResource: font Helvetica-Bold
/Helvetica-Bold /WindowsLatin1Encoding 125 FMSR

1232  956 mt 
(K) s
%%IncludeResource: font Helvetica-Bold
/Helvetica-Bold /WindowsLatin1Encoding 100 FMSR

1322 1018 mt 
(2) s
%%IncludeResource: font Helvetica-Bold
/Helvetica-Bold /WindowsLatin1Encoding 125 FMSR

1377  956 mt 
( = 25K) s
%%IncludeResource: font Helvetica-Bold
/Helvetica-Bold /WindowsLatin1Encoding 100 FMSR

1748 1018 mt 
(1) s
gs 906 589 939 698 rc
c8
250 0 956 937 2 MP stroke
gr

c8
0 sg
%%IncludeResource: font Helvetica-Bold
/Helvetica-Bold /WindowsLatin1Encoding 125 FMSR

1232 1179 mt 
(K) s
%%IncludeResource: font Helvetica-Bold
/Helvetica-Bold /WindowsLatin1Encoding 100 FMSR

1322 1241 mt 
(2) s
%%IncludeResource: font Helvetica-Bold
/Helvetica-Bold /WindowsLatin1Encoding 125 FMSR

1377 1179 mt 
( = 50K) s
%%IncludeResource: font Helvetica-Bold
/Helvetica-Bold /WindowsLatin1Encoding 100 FMSR

1748 1241 mt 
(1) s
gs 906 589 939 698 rc
c9
250 0 956 1160 2 MP stroke
12.5 w
gr

12.5 w
c9

end %%Color Dict

eplot
%%EndObject

epage
end

showpage

%%Trailer
%%EOF
