%!PS-Adobe-3.0 EPSF-3.0
%%Creator: MATLAB, The MathWorks, Inc. Version 8.1.0.604 (R2013a). Operating System: Microsoft Windows 7.
%%Title: .\K2_UC_StressStain_SameFill.eps
%%CreationDate: 08/17/2013  16:01:39
%%DocumentNeededFonts: Helvetica-Bold
%%+ Helvetica
%%DocumentProcessColors: Cyan Magenta Yellow Black
%%LanguageLevel: 2
%%Pages: 1
%%BoundingBox:    63    93   577   572
%%EndComments

%%BeginProlog
% MathWorks dictionary
/MathWorks 160 dict begin
% definition operators
/bdef {bind def} bind def
/ldef {load def} bind def
/xdef {exch def} bdef
/xstore {exch store} bdef
% operator abbreviations
/c  /clip ldef
/cc /concat ldef
/cp /closepath ldef
/gr /grestore ldef
/gs /gsave ldef
/mt /moveto ldef
/np /newpath ldef
/cm /currentmatrix ldef
/sm /setmatrix ldef
/rm /rmoveto ldef
/rl /rlineto ldef
/s {show newpath} bdef
/sc {setcmykcolor} bdef
/sr /setrgbcolor ldef
/sg /setgray ldef
/w /setlinewidth ldef
/j /setlinejoin ldef
/cap /setlinecap ldef
/rc {rectclip} bdef
/rf {rectfill} bdef
% page state control
/pgsv () def
/bpage {/pgsv save def} bdef
/epage {pgsv restore} bdef
/bplot /gsave ldef
/eplot {stroke grestore} bdef
% orientation switch
/portraitMode 0 def /landscapeMode 1 def /rotateMode 2 def
% coordinate system mappings
/dpi2point 0 def
% font control
/FontSize 0 def
/FMS {/FontSize xstore findfont [FontSize 0 0 FontSize neg 0 0]
  makefont setfont} bdef
/ISOLatin1Encoding where {pop /WindowsLatin1Encoding 256 array bdef
ISOLatin1Encoding WindowsLatin1Encoding copy pop
/.notdef/.notdef/quotesinglbase/florin/quotedblbase/ellipsis/dagger
/daggerdbl/circumflex/perthousand/Scaron/guilsinglleft/OE/.notdef/.notdef
/.notdef/.notdef/quoteleft/quoteright/quotedblleft/quotedblright/bullet
/endash/emdash/tilde/trademark/scaron/guilsinglright/oe/.notdef/.notdef
/Ydieresis WindowsLatin1Encoding 128 32 getinterval astore pop}
{/WindowsLatin1Encoding StandardEncoding bdef} ifelse
/reencode {exch dup where {pop load} {pop StandardEncoding} ifelse
  exch dup 3 1 roll findfont dup length dict begin
  { 1 index /FID ne {def}{pop pop} ifelse } forall
  /Encoding exch def currentdict end definefont pop} bdef
/isroman {findfont /CharStrings get /Agrave known} bdef
/FMSR {3 1 roll 1 index dup isroman {reencode} {pop pop} ifelse
  exch FMS} bdef
/csm {1 dpi2point div -1 dpi2point div scale neg translate
 dup landscapeMode eq {pop -90 rotate}
  {rotateMode eq {90 rotate} if} ifelse} bdef
% line types: solid, dotted, dashed, dotdash
/SO { [] 0 setdash } bdef
/DO { [.5 dpi2point mul 4 dpi2point mul] 0 setdash } bdef
/DA { [6 dpi2point mul] 0 setdash } bdef
/DD { [.5 dpi2point mul 4 dpi2point mul 6 dpi2point mul 4
  dpi2point mul] 0 setdash } bdef
% macros for lines and objects
/L {lineto stroke} bdef
/MP {3 1 roll moveto 1 sub {rlineto} repeat} bdef
/AP {{rlineto} repeat} bdef
/PDlw -1 def
/W {/PDlw currentlinewidth def setlinewidth} def
/PP {closepath eofill} bdef
/DP {closepath stroke} bdef
/MR {4 -2 roll moveto dup  0 exch rlineto exch 0 rlineto
  neg 0 exch rlineto closepath} bdef
/FR {MR stroke} bdef
/PR {MR fill} bdef
/L1i {{currentfile picstr readhexstring pop} image} bdef
/tMatrix matrix def
/MakeOval {newpath tMatrix currentmatrix pop translate scale
0 0 1 0 360 arc tMatrix setmatrix} bdef
/FO {MakeOval stroke} bdef
/PO {MakeOval fill} bdef
/PD {currentlinewidth 2 div 0 360 arc fill
   PDlw -1 eq not {PDlw w /PDlw -1 def} if} def
/FA {newpath tMatrix currentmatrix pop translate scale
  0 0 1 5 -2 roll arc tMatrix setmatrix stroke} bdef
/PA {newpath tMatrix currentmatrix pop	translate 0 0 moveto scale
  0 0 1 5 -2 roll arc closepath tMatrix setmatrix fill} bdef
/FAn {newpath tMatrix currentmatrix pop translate scale
  0 0 1 5 -2 roll arcn tMatrix setmatrix stroke} bdef
/PAn {newpath tMatrix currentmatrix pop translate 0 0 moveto scale
  0 0 1 5 -2 roll arcn closepath tMatrix setmatrix fill} bdef
/vradius 0 def /hradius 0 def /lry 0 def
/lrx 0 def /uly 0 def /ulx 0 def /rad 0 def
/MRR {/vradius xdef /hradius xdef /lry xdef /lrx xdef /uly xdef
  /ulx xdef newpath tMatrix currentmatrix pop ulx hradius add uly
  vradius add translate hradius vradius scale 0 0 1 180 270 arc 
  tMatrix setmatrix lrx hradius sub uly vradius add translate
  hradius vradius scale 0 0 1 270 360 arc tMatrix setmatrix
  lrx hradius sub lry vradius sub translate hradius vradius scale
  0 0 1 0 90 arc tMatrix setmatrix ulx hradius add lry vradius sub
  translate hradius vradius scale 0 0 1 90 180 arc tMatrix setmatrix
  closepath} bdef
/FRR {MRR stroke } bdef
/PRR {MRR fill } bdef
/MlrRR {/lry xdef /lrx xdef /uly xdef /ulx xdef /rad lry uly sub 2 div def
  newpath tMatrix currentmatrix pop ulx rad add uly rad add translate
  rad rad scale 0 0 1 90 270 arc tMatrix setmatrix lrx rad sub lry rad
  sub translate rad rad scale 0 0 1 270 90 arc tMatrix setmatrix
  closepath} bdef
/FlrRR {MlrRR stroke } bdef
/PlrRR {MlrRR fill } bdef
/MtbRR {/lry xdef /lrx xdef /uly xdef /ulx xdef /rad lrx ulx sub 2 div def
  newpath tMatrix currentmatrix pop ulx rad add uly rad add translate
  rad rad scale 0 0 1 180 360 arc tMatrix setmatrix lrx rad sub lry rad
  sub translate rad rad scale 0 0 1 0 180 arc tMatrix setmatrix
  closepath} bdef
/FtbRR {MtbRR stroke } bdef
/PtbRR {MtbRR fill } bdef
/stri 6 array def /dtri 6 array def
/smat 6 array def /dmat 6 array def
/tmat1 6 array def /tmat2 6 array def /dif 3 array def
/asub {/ind2 exch def /ind1 exch def dup dup
  ind1 get exch ind2 get sub exch } bdef
/tri_to_matrix {
  2 0 asub 3 1 asub 4 0 asub 5 1 asub
  dup 0 get exch 1 get 7 -1 roll astore } bdef
/compute_transform {
  dmat dtri tri_to_matrix tmat1 invertmatrix 
  smat stri tri_to_matrix tmat2 concatmatrix } bdef
/ds {stri astore pop} bdef
/dt {dtri astore pop} bdef
/db {2 copy /cols xdef /rows xdef mul dup 3 mul string
  currentfile 
  3 index 0 eq {/ASCIIHexDecode filter}
  {/ASCII85Decode filter 3 index 2 eq {/RunLengthDecode filter} if }
  ifelse exch readstring pop
  dup 0 3 index getinterval /rbmap xdef
  dup 2 index dup getinterval /gbmap xdef
  1 index dup 2 mul exch getinterval /bbmap xdef pop pop}bdef
/it {gs np dtri aload pop moveto lineto lineto cp c
  cols rows 8 compute_transform 
  rbmap gbmap bbmap true 3 colorimage gr}bdef
/il {newpath moveto lineto stroke}bdef
currentdict end def
%%EndProlog

%%BeginSetup
MathWorks begin

0 cap

end
%%EndSetup

%%Page: 1 1
%%BeginPageSetup
%%PageBoundingBox:    63    93   577   572
MathWorks begin
bpage
%%EndPageSetup

%%BeginObject: obj1
bplot

/dpi2point 8.33333 def
portraitMode 0150 5158 csm

  379   390  4287  3990 rc
84 dict begin %Colortable dictionary
/c0 { 0.000000 0.000000 0.000000 sr} bdef
/c1 { 1.000000 1.000000 1.000000 sr} bdef
/c2 { 0.900000 0.000000 0.000000 sr} bdef
/c3 { 0.000000 0.820000 0.000000 sr} bdef
/c4 { 0.000000 0.000000 0.800000 sr} bdef
/c5 { 0.910000 0.820000 0.320000 sr} bdef
/c6 { 1.000000 0.260000 0.820000 sr} bdef
/c7 { 0.000000 0.820000 0.820000 sr} bdef
c0
1 j
1 sg
   0    0 5001 5001 rf
12.5 w
0 3500 3750 0 0 -3500 750 4000 4 MP
PP
-3750 0 0 3500 3750 0 0 -3500 750 4000 5 MP stroke
gs 750 500 3751 3501 rc
16.6667 w
0 sg
6 -6 11 0 12 11 11 6 11 -7 11 1 11 -8 11 -11 
11 15 11 -4 12 3 11 6 11 5 11 10 11 -7 11 5 
11 17 11 -15 11 -1 12 -3 11 1 11 1 11 6 11 1 
11 -2 11 2 11 2 11 11 12 -2 11 2 11 -2 11 0 
11 -1 11 -7 11 -5 11 6 11 -3 12 -9 11 -11 11 3 
11 -3 11 -2 11 3 11 5 11 -3 11 -6 12 4 11 -2 
11 2 11 8 11 4 11 -5 11 1 11 -11 11 -4 12 6 
11 7 11 -2 11 -5 11 7 11 -5 11 -3 11 11 12 13 
11 -18 11 -7 11 3 11 6 11 13 11 -8 11 8 11 17 
12 -6 11 3 11 7 11 -8 11 0 11 3 11 -1 11 6 
11 0 12 -12 11 6 11 -1 11 -1 11 -8 11 20 11 6 
11 -7 11 7 12 -12 11 9 11 5 11 7 11 -2 11 3 
11 -2 11 11 11 -1 12 11 11 11 11 -2 11 6 11 2 
11 12 11 -1 11 26 11 -7 12 -16 11 13 11 -1 11 7 
11 -5 11 -15 11 -18 11 0 12 5 11 9 11 -3 11 9 
11 9 11 4 11 -8 11 6 11 4 12 1 11 1 11 10 
11 4 11 14 11 2 11 -9 11 24 11 5 12 6 11 -3 
11 -7 11 -9 11 5 11 18 11 -4 11 -3 11 19 12 -11 
11 21 11 1 11 11 11 6 11 -7 11 7 11 5 11 -9 
12 1 11 5 11 -2 11 -7 11 -6 11 9 11 -1 11 9 
11 6 12 10 11 12 11 12 11 -4 11 -6 11 0 11 -3 
11 4 11 10 12 -15 11 12 11 -7 11 6 11 -4 11 3 
11 -6 11 -5 12 -11 11 4 11 -6 11 26 11 22 11 4 
11 -15 11 -4 11 1 12 -8 11 -8 11 0 11 7 11 1 
11 -9 11 11 11 15 11 -1 12 4 11 -3 11 18 11 -15 
11 10 11 -2 11 9 11 9 11 14 12 5 11 -4 11 -4 
11 -16 11 3 11 11 11 1 11 -13 11 13 12 -2 11 4 
11 -5 11 -1 11 23 11 14 11 -1 11 13 11 -2 12 3 
11 1 11 0 11 6 11 6 11 10 11 1 11 -1 12 18 
11 1 11 9 11 -3 11 -1 11 6 11 -5 11 1 11 3 
12 5 11 -1 11 -12 11 3 11 4 11 -9 11 -2 11 4 
11 13 12 21 11 1 11 -12 11 2 11 -2 11 4 11 8 
11 -16 11 4 12 -4 11 -11 11 14 11 -1 11 6 11 -12 
11 -15 11 -13 11 -3 12 -13 11 -13 11 -4 11 -9 11 -6 
11 9 11 -4 11 12 11 -2 12 14 11 -4 11 -14 11 -10 
11 -13 11 10 11 -13 11 0 12 -35 11 -2 11 3 11 -11 
11 -26 11 -18 11 -26 11 -17 11 1 12 17 11 -12 11 10 
11 -14 11 -17 11 -28 1183 1524 300 MP stroke
11 -7 11 -27 11 -44 12 -25 11 -30 11 -20 11 -33 11 -27 
11 -59 11 -16 11 -25 11 -44 12 -43 11 -32 11 -46 11 -61 
11 -65 11 -52 11 -54 11 -62 11 -59 12 -67 11 -76 11 -80 
11 -78 11 -84 11 -88 11 -91 11 -94 11 -103 12 -82 11 -107 
11 -127 11 -98 11 -76 11 -125 11 -164 11 -73 11 -24 750 3992 40 MP stroke
gr

16.6667 w
0 sg
0.1 sg
%%IncludeResource: font Helvetica-Bold
/Helvetica-Bold /WindowsLatin1Encoding 183.333 FMSR

2010 4322 mt 
(Vertical Strain) s
 572 3132 mt  -90 rotate
(Vertical Stress [kPa]) s
90 rotate
gs 750 500 3751 3501 rc
/c8 { 1.000000 0.000000 0.000000 sr} bdef
c8
6 6 11 13 12 10 11 -14 11 18 11 14 11 -7 11 -6 
11 -7 11 12 12 -8 11 2 11 4 11 3 11 0 11 -4 
11 -3 11 -12 11 10 12 2 11 -10 11 0 11 8 11 15 
11 4 11 -8 11 5 11 13 12 9 11 31 11 3 11 2 
11 -7 11 -2 11 1 11 -5 11 -23 12 11 11 -2 11 -9 
11 9 11 14 11 -6 11 9 11 10 11 -4 12 8 11 -5 
11 -2 11 -2 11 -11 11 22 11 12 11 11 11 1 12 6 
11 5 11 2 11 10 11 1 11 15 11 16 11 -2 12 -13 
11 -4 11 1 11 -1 11 12 11 5 11 7 11 -6 11 -1 
12 -8 11 5 11 4 11 7 11 -10 11 -3 11 -1 11 3 
11 -1 12 15 11 -6 11 1 11 -1 11 0 11 8 11 -8 
11 -11 11 -5 12 2 11 6 11 8 11 9 11 -15 11 16 
11 14 11 0 11 15 12 -2 11 20 11 10 11 -13 11 4 
11 -9 11 16 11 1 11 5 12 1 11 -4 11 -10 11 -6 
11 5 11 -11 11 -9 11 -13 12 2 11 1 11 11 11 14 
11 14 11 -8 11 1 11 -17 11 20 12 20 11 13 11 -20 
11 -8 11 -2 11 0 11 6 11 4 11 8 12 -10 11 3 
11 -12 11 5 11 11 11 0 11 8 11 8 11 -20 12 3 
11 18 11 10 11 14 11 -4 11 1 11 1 11 -6 11 5 
12 8 11 -4 11 5 11 5 11 -4 11 -8 11 -5 11 7 
11 -11 12 0 11 -10 11 -2 11 24 11 12 11 19 11 17 
11 14 11 4 12 8 11 -26 11 3 11 -4 11 -5 11 5 
11 9 11 1 12 4 11 2 11 -4 11 23 11 10 11 6 
11 -18 11 5 11 -4 12 -9 11 0 11 -13 11 0 11 -2 
11 -2 11 6 11 2 11 10 12 29 11 7 11 10 11 1 
11 -2 11 19 11 -2 11 -9 11 8 12 0 11 15 11 3 
11 -6 11 8 11 3 11 6 11 1 11 2 12 -11 11 -3 
11 -3 11 11 11 13 11 0 11 7 11 -11 11 12 12 0 
11 7 11 -7 11 10 11 -9 11 3 11 5 11 -13 12 -3 
11 -2 11 13 11 14 11 4 11 -15 11 -6 11 -6 11 17 
12 -14 11 -1 11 -2 11 -5 11 8 11 -8 11 -3 11 -3 
11 21 12 7 11 -12 11 -8 11 0 11 6 11 9 11 -17 
11 -7 11 -14 12 -3 11 5 11 8 11 -5 11 -9 11 -3 
11 -6 11 0 11 -15 12 3 11 -11 11 8 11 -18 11 6 
11 11 11 11 11 -5 11 -17 12 -37 11 -20 11 19 11 2 
11 17 11 -18 11 3 11 -9 12 -9 11 -4 11 -16 11 0 
11 -19 11 -3 11 -20 11 -22 11 -8 12 -3 11 -21 11 8 
11 -19 11 -1 11 5 1183 1553 300 MP stroke
11 -11 11 -32 11 -20 12 -25 11 -5 11 -17 11 -34 11 -32 
11 -38 11 -20 11 -12 11 -40 12 -48 11 -34 11 -40 11 -41 
11 -49 11 -64 11 -57 11 -64 11 -72 12 -72 11 -59 11 -66 
11 -75 11 -75 11 -85 11 -101 11 -99 11 -80 12 -100 11 -89 
11 -115 11 -122 11 -89 11 -98 11 -169 11 -135 11 -41 750 3978 40 MP stroke
/c9 { 0.000000 0.000000 1.000000 sr} bdef
c9
7 -2 11 -7 11 5 11 -5 11 -1 11 6 11 5 12 -11 
11 -2 11 21 11 -2 11 3 11 14 11 1 11 -3 11 -3 
12 -9 11 3 11 4 11 9 11 0 11 -7 11 3 11 2 
11 6 12 5 11 8 11 -4 11 -5 11 -13 11 -1 11 9 
11 12 11 11 12 -2 11 -4 11 -4 11 0 11 4 11 -5 
11 5 11 -3 11 4 12 -3 11 -9 11 4 11 -4 11 -2 
11 -2 11 14 11 5 11 -8 12 -5 11 -5 11 5 11 5 
11 1 11 21 11 0 11 -9 11 9 12 0 11 -2 11 4 
11 -1 11 3 11 0 11 17 11 4 11 4 12 13 11 -9 
11 9 11 -1 11 7 11 -8 11 5 11 -3 11 6 12 -6 
11 -5 11 -4 11 1 11 12 11 -3 11 -3 11 0 11 0 
12 -2 11 -4 11 -8 11 20 11 11 11 -10 11 -8 11 7 
11 3 12 11 11 0 11 -3 11 2 11 3 11 4 11 -1 
11 -6 11 -5 12 10 11 7 11 1 11 4 11 -3 11 -3 
11 1 11 -1 11 -15 12 0 11 11 11 8 11 0 11 -7 
11 3 11 -1 11 9 12 3 11 3 11 -13 11 -8 11 14 
11 -11 11 -4 11 7 11 7 12 5 11 8 11 7 11 -5 
11 -4 11 9 11 -10 11 26 11 -1 12 -2 11 -7 11 15 
11 18 11 5 11 -1 11 9 11 0 11 -7 12 -6 11 6 
11 -5 11 10 11 3 11 4 11 3 11 -10 11 -13 12 -2 
11 -15 11 9 11 4 11 11 11 3 11 -16 11 7 11 -11 
12 9 11 6 11 13 11 -1 11 -7 11 7 11 0 11 4 
11 -4 12 -1 11 -12 11 3 11 12 11 3 11 6 11 -7 
11 -9 11 -12 12 4 11 11 11 5 11 1 11 13 11 4 
11 8 11 -3 11 -5 12 1 11 -13 11 5 11 7 11 0 
11 -2 11 -8 11 3 11 1 12 22 11 0 11 -6 11 5 
11 2 11 6 11 4 11 -2 11 -10 12 12 11 2 11 0 
11 -9 11 5 11 15 11 7 11 3 11 -12 12 -1 11 1 
11 2 11 -14 11 -14 11 -2 11 5 11 4 12 5 11 -1 
11 6 11 -16 11 13 11 10 11 16 11 5 11 0 12 -4 
11 19 11 12 11 -9 11 -8 11 7 11 -12 11 21 11 -3 
12 -3 11 -6 11 -9 11 -10 11 -6 11 0 11 22 11 -8 
11 -12 12 -9 11 -11 11 -6 11 -1 11 -5 11 -7 11 -6 
11 2 11 7 12 -3 11 8 11 14 11 -5 11 -18 11 -5 
11 5 11 13 11 -4 12 -8 11 1 11 -13 11 5 11 4 
11 -15 11 -9 11 -6 11 -7 12 -15 11 3 11 9 11 0 
11 -5 11 -12 11 -26 11 -12 11 -3 12 12 11 -9 11 -25 
11 -20 11 6 11 -14 1183 1739 300 MP stroke
11 -18 11 -24 11 -23 12 -19 11 6 11 -30 11 -13 11 8 
11 -28 11 -41 11 -31 11 -1 12 -37 11 -30 11 -44 11 -38 
11 -42 11 -48 11 -51 11 -61 11 -57 12 -59 11 -58 11 -60 
11 -70 11 -79 11 -70 11 -95 11 -101 11 -101 12 -102 11 -98 
11 -121 11 -107 11 -90 11 -138 11 -181 11 -75 11 -23 750 3989 40 MP stroke
/c10 { 1.000000 0.000000 1.000000 sr} bdef
c10
7 6 11 10 11 0 11 -9 11 2 11 7 11 -2 12 -9 
11 2 11 8 11 2 11 1 11 -13 11 -3 11 5 11 -1 
12 18 11 -1 11 -1 11 -1 11 -1 11 0 11 3 11 -4 
11 6 12 0 11 -3 11 0 11 10 11 12 11 -5 11 7 
11 3 11 -5 12 7 11 2 11 -14 11 -6 11 6 11 -3 
11 -1 11 -4 11 6 12 3 11 -3 11 1 11 6 11 -5 
11 -5 11 20 11 3 11 -3 12 0 11 -1 11 2 11 5 
11 3 11 5 11 13 11 -9 11 -3 12 -1 11 10 11 12 
11 -9 11 -1 11 -9 11 -1 11 2 11 24 12 11 11 6 
11 0 11 -3 11 -3 11 5 11 1 11 -1 11 -13 12 20 
11 -4 11 11 11 6 11 4 11 -7 11 -3 11 -3 11 -9 
12 6 11 -3 11 1 11 -1 11 8 11 2 11 12 11 12 
11 3 12 8 11 6 11 -6 11 15 11 5 11 -4 11 2 
11 -17 11 21 12 2 11 -3 11 -4 11 11 11 1 11 6 
11 -1 11 -6 11 2 12 4 11 6 11 5 11 -5 11 3 
11 -8 11 -17 11 10 12 14 11 -5 11 -3 11 5 11 2 
11 -7 11 3 11 0 11 -7 12 7 11 7 11 -5 11 -7 
11 -6 11 -3 11 8 11 4 11 3 12 -3 11 11 11 3 
11 11 11 -9 11 -7 11 -7 11 -1 11 11 12 6 11 -6 
11 21 11 -6 11 -1 11 2 11 -8 11 2 11 -6 12 6 
11 6 11 11 11 7 11 15 11 -2 11 0 11 6 11 -1 
12 -8 11 -9 11 -10 11 -1 11 15 11 -8 11 -10 11 -11 
11 14 12 13 11 8 11 -5 11 -4 11 -3 11 2 11 -9 
11 16 11 -2 12 -1 11 -7 11 -14 11 11 11 14 11 2 
11 -7 11 6 11 1 12 -5 11 -9 11 -1 11 7 11 -6 
11 2 11 -3 11 -1 11 8 12 -15 11 17 11 -11 11 2 
11 8 11 -12 11 11 11 12 11 8 12 -19 11 8 11 23 
11 -16 11 10 11 0 11 -2 11 -12 11 8 12 9 11 -5 
11 -11 11 -7 11 8 11 19 11 -4 11 2 12 -6 11 1 
11 -9 11 2 11 -3 11 -6 11 10 11 -12 11 19 12 -5 
11 -2 11 -5 11 9 11 -2 11 10 11 -2 11 -14 11 -13 
12 -11 11 9 11 -3 11 -12 11 -3 11 38 11 -8 11 -8 
11 -12 12 4 11 12 11 20 11 10 11 0 11 -8 11 13 
11 6 11 3 12 -8 11 -5 11 -7 11 9 11 -7 11 12 
11 -15 11 -7 11 5 12 -17 11 -9 11 1 11 29 11 3 
11 -16 11 -13 11 11 11 6 12 -12 11 -9 11 -17 11 -10 
11 -6 11 -21 11 4 11 -16 11 -10 12 -2 11 -18 11 -7 
11 3 11 -7 11 -9 1183 1800 300 MP stroke
11 -17 11 -13 11 -9 12 -16 11 -15 11 -15 11 -6 11 -12 
11 -35 11 -19 11 -30 11 -7 12 -28 11 -35 11 -25 11 -35 
11 -48 11 -33 11 -53 11 -51 11 -61 12 -44 11 -61 11 -82 
11 -64 11 -82 11 -68 11 -87 11 -84 11 -92 12 -99 11 -104 
11 -117 11 -107 11 -90 11 -135 11 -186 11 -94 11 -28 750 3987 40 MP stroke
gr

c10
0 sg
%%IncludeResource: font Helvetica
/Helvetica /WindowsLatin1Encoding 83.3333 FMSR

 732 4037 mt 
( ) s
4483  536 mt 
( ) s
8.33333 w
DO
SO
12.5 w
0.1 sg
 750  500 mt 4500  500 L
 750 4000 mt 4500 4000 L
4500 4000 mt 4500  500 L
 750 4000 mt  750  500 L
 750 4000 mt 4500 4000 L
 750 4000 mt  750  500 L
 750 4000 mt  750 3943 L
 750  500 mt  750  556 L
%%IncludeResource: font Helvetica
/Helvetica /WindowsLatin1Encoding 133.333 FMSR

 713 4148 mt 
(0) s
1375 4000 mt 1375 3943 L
1375  500 mt 1375  556 L
1209 4148 mt 
(0.005) s
2000 4000 mt 2000 3943 L
2000  500 mt 2000  556 L
1871 4148 mt 
(0.01) s
2625 4000 mt 2625 3943 L
2625  500 mt 2625  556 L
2459 4148 mt 
(0.015) s
3250 4000 mt 3250 3943 L
3250  500 mt 3250  556 L
3121 4148 mt 
(0.02) s
3875 4000 mt 3875 3943 L
3875  500 mt 3875  556 L
3709 4148 mt 
(0.025) s
4500 4000 mt 4500 3943 L
4500  500 mt 4500  556 L
4371 4148 mt 
(0.03) s
 750 4000 mt  806 4000 L
4500 4000 mt 4443 4000 L
 652 4049 mt 
(0) s
 750 3562 mt  806 3562 L
4500 3562 mt 4443 3562 L
 652 3611 mt 
(1) s
 750 3125 mt  806 3125 L
4500 3125 mt 4443 3125 L
 652 3174 mt 
(2) s
 750 2687 mt  806 2687 L
4500 2687 mt 4443 2687 L
 652 2736 mt 
(3) s
 750 2250 mt  806 2250 L
4500 2250 mt 4443 2250 L
 652 2299 mt 
(4) s
 750 1812 mt  806 1812 L
4500 1812 mt 4443 1812 L
 652 1861 mt 
(5) s
 750 1375 mt  806 1375 L
4500 1375 mt 4443 1375 L
 652 1424 mt 
(6) s
 750  937 mt  806  937 L
4500  937 mt 4443  937 L
 652  986 mt 
(7) s
 750  500 mt  806  500 L
4500  500 mt 4443  500 L
 652  549 mt 
(8) s
 750  500 mt 4500  500 L
 750 4000 mt 4500 4000 L
4500 4000 mt 4500  500 L
 750 4000 mt  750  500 L
0 sg
%%IncludeResource: font Helvetica-Bold
/Helvetica-Bold /WindowsLatin1Encoding 125 FMSR

3098 3100 mt 
(K) s
%%IncludeResource: font Helvetica-Bold
/Helvetica-Bold /WindowsLatin1Encoding 100 FMSR

3188 3162 mt 
(2) s
%%IncludeResource: font Helvetica-Bold
/Helvetica-Bold /WindowsLatin1Encoding 125 FMSR

3243 3100 mt 
( = 5K) s
%%IncludeResource: font Helvetica-Bold
/Helvetica-Bold /WindowsLatin1Encoding 100 FMSR

3545 3162 mt 
(1) s
%%IncludeResource: font Helvetica-Bold
/Helvetica-Bold /WindowsLatin1Encoding 125 FMSR

3600 3100 mt 
( - Same Fill) s
gs 2769 2956 1607 922 rc
16.6667 w
253 0 2819 3082 2 MP stroke
gr

16.6667 w
3098 3323 mt 
(K) s
%%IncludeResource: font Helvetica-Bold
/Helvetica-Bold /WindowsLatin1Encoding 100 FMSR

3188 3385 mt 
(2) s
%%IncludeResource: font Helvetica-Bold
/Helvetica-Bold /WindowsLatin1Encoding 125 FMSR

3243 3323 mt 
( = 10K) s
%%IncludeResource: font Helvetica-Bold
/Helvetica-Bold /WindowsLatin1Encoding 100 FMSR

3614 3385 mt 
(1) s
%%IncludeResource: font Helvetica-Bold
/Helvetica-Bold /WindowsLatin1Encoding 125 FMSR

3669 3323 mt 
( - Same Fill) s
gs 2769 2956 1607 922 rc
c8
253 0 2819 3305 2 MP stroke
gr

c8
0 sg
3098 3547 mt 
(K) s
%%IncludeResource: font Helvetica-Bold
/Helvetica-Bold /WindowsLatin1Encoding 100 FMSR

3188 3609 mt 
(2) s
%%IncludeResource: font Helvetica-Bold
/Helvetica-Bold /WindowsLatin1Encoding 125 FMSR

3243 3547 mt 
( = 25K) s
%%IncludeResource: font Helvetica-Bold
/Helvetica-Bold /WindowsLatin1Encoding 100 FMSR

3614 3609 mt 
(1) s
%%IncludeResource: font Helvetica-Bold
/Helvetica-Bold /WindowsLatin1Encoding 125 FMSR

3669 3547 mt 
( - Same Fill) s
gs 2769 2956 1607 922 rc
c9
253 0 2819 3527 2 MP stroke
gr

c9
0 sg
3098 3770 mt 
(K) s
%%IncludeResource: font Helvetica-Bold
/Helvetica-Bold /WindowsLatin1Encoding 100 FMSR

3188 3832 mt 
(2) s
%%IncludeResource: font Helvetica-Bold
/Helvetica-Bold /WindowsLatin1Encoding 125 FMSR

3243 3770 mt 
( = 50K) s
%%IncludeResource: font Helvetica-Bold
/Helvetica-Bold /WindowsLatin1Encoding 100 FMSR

3614 3832 mt 
(1) s
%%IncludeResource: font Helvetica-Bold
/Helvetica-Bold /WindowsLatin1Encoding 125 FMSR

3669 3770 mt 
( - Same Fill) s
gs 2769 2956 1607 922 rc
c10
253 0 2819 3750 2 MP stroke
12.5 w
gr

12.5 w
c10

end %%Color Dict

eplot
%%EndObject

epage
end

showpage

%%Trailer
%%EOF
