%!PS-Adobe-3.0 EPSF-3.0
%%Creator: MATLAB, The MathWorks, Inc. Version 8.1.0.604 (R2013a). Operating System: Microsoft Windows 7.
%%Title: .\K2_UC_StressStain.eps
%%CreationDate: 08/17/2013  16:01:36
%%DocumentNeededFonts: Helvetica-Bold
%%+ Helvetica
%%DocumentProcessColors: Cyan Magenta Yellow Black
%%LanguageLevel: 2
%%Pages: 1
%%BoundingBox:    63    93   577   572
%%EndComments

%%BeginProlog
% MathWorks dictionary
/MathWorks 160 dict begin
% definition operators
/bdef {bind def} bind def
/ldef {load def} bind def
/xdef {exch def} bdef
/xstore {exch store} bdef
% operator abbreviations
/c  /clip ldef
/cc /concat ldef
/cp /closepath ldef
/gr /grestore ldef
/gs /gsave ldef
/mt /moveto ldef
/np /newpath ldef
/cm /currentmatrix ldef
/sm /setmatrix ldef
/rm /rmoveto ldef
/rl /rlineto ldef
/s {show newpath} bdef
/sc {setcmykcolor} bdef
/sr /setrgbcolor ldef
/sg /setgray ldef
/w /setlinewidth ldef
/j /setlinejoin ldef
/cap /setlinecap ldef
/rc {rectclip} bdef
/rf {rectfill} bdef
% page state control
/pgsv () def
/bpage {/pgsv save def} bdef
/epage {pgsv restore} bdef
/bplot /gsave ldef
/eplot {stroke grestore} bdef
% orientation switch
/portraitMode 0 def /landscapeMode 1 def /rotateMode 2 def
% coordinate system mappings
/dpi2point 0 def
% font control
/FontSize 0 def
/FMS {/FontSize xstore findfont [FontSize 0 0 FontSize neg 0 0]
  makefont setfont} bdef
/ISOLatin1Encoding where {pop /WindowsLatin1Encoding 256 array bdef
ISOLatin1Encoding WindowsLatin1Encoding copy pop
/.notdef/.notdef/quotesinglbase/florin/quotedblbase/ellipsis/dagger
/daggerdbl/circumflex/perthousand/Scaron/guilsinglleft/OE/.notdef/.notdef
/.notdef/.notdef/quoteleft/quoteright/quotedblleft/quotedblright/bullet
/endash/emdash/tilde/trademark/scaron/guilsinglright/oe/.notdef/.notdef
/Ydieresis WindowsLatin1Encoding 128 32 getinterval astore pop}
{/WindowsLatin1Encoding StandardEncoding bdef} ifelse
/reencode {exch dup where {pop load} {pop StandardEncoding} ifelse
  exch dup 3 1 roll findfont dup length dict begin
  { 1 index /FID ne {def}{pop pop} ifelse } forall
  /Encoding exch def currentdict end definefont pop} bdef
/isroman {findfont /CharStrings get /Agrave known} bdef
/FMSR {3 1 roll 1 index dup isroman {reencode} {pop pop} ifelse
  exch FMS} bdef
/csm {1 dpi2point div -1 dpi2point div scale neg translate
 dup landscapeMode eq {pop -90 rotate}
  {rotateMode eq {90 rotate} if} ifelse} bdef
% line types: solid, dotted, dashed, dotdash
/SO { [] 0 setdash } bdef
/DO { [.5 dpi2point mul 4 dpi2point mul] 0 setdash } bdef
/DA { [6 dpi2point mul] 0 setdash } bdef
/DD { [.5 dpi2point mul 4 dpi2point mul 6 dpi2point mul 4
  dpi2point mul] 0 setdash } bdef
% macros for lines and objects
/L {lineto stroke} bdef
/MP {3 1 roll moveto 1 sub {rlineto} repeat} bdef
/AP {{rlineto} repeat} bdef
/PDlw -1 def
/W {/PDlw currentlinewidth def setlinewidth} def
/PP {closepath eofill} bdef
/DP {closepath stroke} bdef
/MR {4 -2 roll moveto dup  0 exch rlineto exch 0 rlineto
  neg 0 exch rlineto closepath} bdef
/FR {MR stroke} bdef
/PR {MR fill} bdef
/L1i {{currentfile picstr readhexstring pop} image} bdef
/tMatrix matrix def
/MakeOval {newpath tMatrix currentmatrix pop translate scale
0 0 1 0 360 arc tMatrix setmatrix} bdef
/FO {MakeOval stroke} bdef
/PO {MakeOval fill} bdef
/PD {currentlinewidth 2 div 0 360 arc fill
   PDlw -1 eq not {PDlw w /PDlw -1 def} if} def
/FA {newpath tMatrix currentmatrix pop translate scale
  0 0 1 5 -2 roll arc tMatrix setmatrix stroke} bdef
/PA {newpath tMatrix currentmatrix pop	translate 0 0 moveto scale
  0 0 1 5 -2 roll arc closepath tMatrix setmatrix fill} bdef
/FAn {newpath tMatrix currentmatrix pop translate scale
  0 0 1 5 -2 roll arcn tMatrix setmatrix stroke} bdef
/PAn {newpath tMatrix currentmatrix pop translate 0 0 moveto scale
  0 0 1 5 -2 roll arcn closepath tMatrix setmatrix fill} bdef
/vradius 0 def /hradius 0 def /lry 0 def
/lrx 0 def /uly 0 def /ulx 0 def /rad 0 def
/MRR {/vradius xdef /hradius xdef /lry xdef /lrx xdef /uly xdef
  /ulx xdef newpath tMatrix currentmatrix pop ulx hradius add uly
  vradius add translate hradius vradius scale 0 0 1 180 270 arc 
  tMatrix setmatrix lrx hradius sub uly vradius add translate
  hradius vradius scale 0 0 1 270 360 arc tMatrix setmatrix
  lrx hradius sub lry vradius sub translate hradius vradius scale
  0 0 1 0 90 arc tMatrix setmatrix ulx hradius add lry vradius sub
  translate hradius vradius scale 0 0 1 90 180 arc tMatrix setmatrix
  closepath} bdef
/FRR {MRR stroke } bdef
/PRR {MRR fill } bdef
/MlrRR {/lry xdef /lrx xdef /uly xdef /ulx xdef /rad lry uly sub 2 div def
  newpath tMatrix currentmatrix pop ulx rad add uly rad add translate
  rad rad scale 0 0 1 90 270 arc tMatrix setmatrix lrx rad sub lry rad
  sub translate rad rad scale 0 0 1 270 90 arc tMatrix setmatrix
  closepath} bdef
/FlrRR {MlrRR stroke } bdef
/PlrRR {MlrRR fill } bdef
/MtbRR {/lry xdef /lrx xdef /uly xdef /ulx xdef /rad lrx ulx sub 2 div def
  newpath tMatrix currentmatrix pop ulx rad add uly rad add translate
  rad rad scale 0 0 1 180 360 arc tMatrix setmatrix lrx rad sub lry rad
  sub translate rad rad scale 0 0 1 0 180 arc tMatrix setmatrix
  closepath} bdef
/FtbRR {MtbRR stroke } bdef
/PtbRR {MtbRR fill } bdef
/stri 6 array def /dtri 6 array def
/smat 6 array def /dmat 6 array def
/tmat1 6 array def /tmat2 6 array def /dif 3 array def
/asub {/ind2 exch def /ind1 exch def dup dup
  ind1 get exch ind2 get sub exch } bdef
/tri_to_matrix {
  2 0 asub 3 1 asub 4 0 asub 5 1 asub
  dup 0 get exch 1 get 7 -1 roll astore } bdef
/compute_transform {
  dmat dtri tri_to_matrix tmat1 invertmatrix 
  smat stri tri_to_matrix tmat2 concatmatrix } bdef
/ds {stri astore pop} bdef
/dt {dtri astore pop} bdef
/db {2 copy /cols xdef /rows xdef mul dup 3 mul string
  currentfile 
  3 index 0 eq {/ASCIIHexDecode filter}
  {/ASCII85Decode filter 3 index 2 eq {/RunLengthDecode filter} if }
  ifelse exch readstring pop
  dup 0 3 index getinterval /rbmap xdef
  dup 2 index dup getinterval /gbmap xdef
  1 index dup 2 mul exch getinterval /bbmap xdef pop pop}bdef
/it {gs np dtri aload pop moveto lineto lineto cp c
  cols rows 8 compute_transform 
  rbmap gbmap bbmap true 3 colorimage gr}bdef
/il {newpath moveto lineto stroke}bdef
currentdict end def
%%EndProlog

%%BeginSetup
MathWorks begin

0 cap

end
%%EndSetup

%%Page: 1 1
%%BeginPageSetup
%%PageBoundingBox:    63    93   577   572
MathWorks begin
bpage
%%EndPageSetup

%%BeginObject: obj1
bplot

/dpi2point 8.33333 def
portraitMode 0150 5158 csm

  379   390  4287  3990 rc
84 dict begin %Colortable dictionary
/c0 { 0.000000 0.000000 0.000000 sr} bdef
/c1 { 1.000000 1.000000 1.000000 sr} bdef
/c2 { 0.900000 0.000000 0.000000 sr} bdef
/c3 { 0.000000 0.820000 0.000000 sr} bdef
/c4 { 0.000000 0.000000 0.800000 sr} bdef
/c5 { 0.910000 0.820000 0.320000 sr} bdef
/c6 { 1.000000 0.260000 0.820000 sr} bdef
/c7 { 0.000000 0.820000 0.820000 sr} bdef
c0
1 j
1 sg
   0    0 5001 5001 rf
12.5 w
0 3500 3750 0 0 -3500 750 4000 4 MP
PP
-3750 0 0 3500 3750 0 0 -3500 750 4000 5 MP stroke
gs 750 500 3751 3501 rc
16.6667 w
0 sg
4 8 6 -1 7 21 6 -19 6 -1 7 -24 6 -9 6 -6 
7 -3 6 -3 6 -10 7 9 6 9 6 -15 7 -7 6 22 
6 26 7 -15 6 2 6 29 7 -3 6 -25 6 -8 7 3 
6 -7 6 -3 7 27 6 18 6 6 7 0 6 -15 6 27 
7 22 6 0 6 8 7 -8 6 -10 6 37 7 -11 6 -8 
6 -6 7 6 6 17 6 -5 7 2 6 -1 6 15 7 -6 
6 -5 6 -6 7 5 6 -12 6 6 7 -5 6 12 6 6 
7 8 6 -3 6 2 7 6 6 3 6 -21 6 -8 7 3 
6 -25 6 2 7 16 6 0 6 -16 7 -1 6 -4 6 16 
7 -5 6 -8 6 2 7 6 6 -8 6 -17 7 -12 6 2 
6 10 7 2 6 -20 6 39 7 33 6 8 6 3 7 2 
6 -2 6 -12 7 8 6 2 6 -1 7 -3 6 29 6 -11 
7 -8 6 8 6 -5 7 19 6 -10 6 0 7 6 6 -10 
6 -5 7 2 6 -5 6 11 7 21 6 25 6 2 7 5 
6 15 6 11 7 11 6 -9 6 0 7 0 6 6 6 17 
7 -2 6 -1 6 23 7 0 6 0 6 8 7 -7 6 -3 
6 -4 7 2 6 6 6 -12 7 11 6 -18 6 -4 7 3 
6 -15 6 7 7 21 6 2 6 4 7 0 6 -24 6 3 
7 5 6 5 6 -4 7 -3 6 12 6 -13 7 1 6 -15 
6 7 7 -3 6 0 6 -7 7 -3 6 4 6 -7 7 -16 
6 1 6 11 7 -2 6 -2 6 -1 7 -5 6 -6 6 7 
6 -12 7 2 6 7 6 -17 7 -12 6 -20 6 1 7 -1 
6 15 6 11 7 1 6 14 6 -5 7 -3 6 -3 6 -10 
7 -12 6 4 6 7 7 -8 6 7 6 -14 7 -1 6 -6 
6 18 7 10 6 -4 6 -3 7 3 6 -10 6 -4 7 -4 
6 -19 6 7 7 -10 6 8 6 -2 7 2 6 -11 6 -3 
7 -7 6 -19 6 0 7 7 6 2 6 0 7 15 6 -9 
6 21 7 17 6 5 6 1 7 17 6 7 6 -3 7 0 
6 9 6 1 7 18 6 -15 6 11 7 -3 6 -5 6 -10 
7 -18 6 -1 6 -6 7 0 6 15 6 3 7 14 6 -1 
6 -7 7 5 6 6 6 -7 7 -15 6 21 6 11 7 -1 
6 -20 6 12 7 34 6 4 6 -9 7 -4 6 -3 6 -4 
7 1 6 -21 6 -9 7 -8 6 10 6 5 7 -15 6 8 
6 -3 7 0 6 3 6 -14 7 -18 6 -18 6 22 7 7 
6 29 6 27 6 26 7 4 6 -7 6 -11 7 0 6 5 
6 1 7 2 6 7 6 -8 7 -13 6 6 6 16 7 -14 
6 -5 6 4 7 11 6 -9 6 10 7 17 6 -15 6 -4 
7 2 6 -12 6 8 2611 1738 300 MP stroke
7 -4 6 5 6 20 7 1 6 -6 6 3 7 2 6 -8 
6 -15 7 3 6 -12 6 23 7 9 6 -8 6 -10 7 -6 
6 -6 6 -1 7 -13 6 -3 6 -5 7 -8 6 -11 6 -2 
7 -9 6 -5 6 32 7 22 6 -9 6 -6 7 19 6 15 
6 11 7 -27 6 11 6 6 7 -6 6 20 6 -2 7 4 
6 -12 6 -6 7 2 6 -3 6 4 7 20 6 -3 6 -19 
7 11 6 -6 6 8 7 -8 6 23 6 0 7 5 6 -3 
6 -1 7 -5 6 17 6 -5 7 -11 6 -12 6 0 7 -17 
6 -7 6 2 7 0 6 3 6 -10 7 -8 6 -8 6 -11 
7 4 6 1 6 8 7 1 6 -27 6 20 7 4 6 5 
6 0 6 3 7 8 6 5 6 -20 7 22 6 -4 6 20 
7 5 6 21 6 -7 7 -9 6 4 6 1 7 4 6 -18 
6 -2 7 -7 6 9 6 -13 7 14 6 3 6 -3 7 -5 
6 -22 6 1 7 -9 6 -23 6 12 7 -1 6 -9 6 -1 
7 -7 6 4 6 -5 7 2 6 -5 6 -15 7 -6 6 21 
6 14 7 16 6 0 6 1 7 -19 6 -2 6 11 7 -6 
6 -22 6 23 7 9 6 -6 6 -11 7 -4 6 -9 6 9 
7 -2 6 0 6 -13 7 -5 6 -4 6 8 7 -13 6 -19 
6 -5 7 7 6 9 6 3 7 1 6 -6 6 13 7 6 
6 11 6 6 7 -15 6 -12 6 -14 7 -10 6 8 6 -1 
7 3 6 -4 6 -5 7 7 6 -9 6 9 7 10 6 10 
6 5 7 6 6 -1 6 -5 7 -6 6 -11 6 -27 7 11 
6 3 6 12 7 -4 6 -9 6 -4 7 8 6 -6 6 6 
7 -4 6 9 6 5 6 -12 7 11 6 9 6 -4 7 6 
6 -13 6 -13 7 6 6 11 6 -12 7 -14 6 -13 6 5 
7 -3 6 -3 6 28 7 8 6 -6 6 0 7 7 6 -2 
6 -10 7 -7 6 -10 6 1 7 -4 6 -5 6 -8 7 -14 
6 -11 6 -10 7 -18 6 -16 6 -5 7 6 6 -5 6 -6 
7 -2 6 -3 6 -9 7 4 6 -9 6 -7 7 -13 6 -20 
6 -2 7 -11 6 -15 6 -12 7 -4 6 -2 6 -10 7 -18 
6 -18 6 -5 7 -22 6 -23 6 -24 7 -14 6 -26 6 -27 
7 -13 6 -6 6 -21 7 -42 6 -31 6 -23 7 -21 6 -32 
6 -30 7 -16 6 -40 6 -17 7 -35 6 -38 6 -42 7 -36 
6 -45 6 -41 7 -34 6 -40 6 -40 7 -45 6 -53 6 -62 
7 -33 6 -51 6 -56 7 -55 6 -51 6 -43 7 -41 6 -58 
6 -55 7 -56 6 -49 6 -38 7 -50 6 -45 6 -50 7 -48 
6 -39 6 -39 7 -30 6 -23 6 -24 6 -13 750 3992 295 MP stroke
gr

16.6667 w
0 sg
0.1 sg
%%IncludeResource: font Helvetica-Bold
/Helvetica-Bold /WindowsLatin1Encoding 183.333 FMSR

2010 4322 mt 
(Vertical Strain) s
 572 3132 mt  -90 rotate
(Vertical Stress [kPa]) s
90 rotate
gs 750 500 3751 3501 rc
/c8 { 1.000000 0.000000 0.000000 sr} bdef
c8
6 1 6 8 7 -17 6 -1 7 -2 6 0 7 4 6 6 
7 1 6 12 7 14 6 28 7 8 6 6 7 -9 6 -7 
7 -4 6 -2 7 6 6 21 7 -6 6 1 7 1 6 5 
7 -7 6 -5 7 23 6 0 7 -4 6 -13 7 -16 6 5 
7 13 6 23 7 10 6 14 7 0 6 -14 7 -12 6 2 
7 11 6 9 7 -5 6 -16 7 6 6 -2 7 15 6 7 
7 -16 6 -11 7 -11 6 -8 7 13 6 -3 7 5 6 -13 
7 -23 6 6 7 4 6 -1 7 -5 6 -5 7 -9 6 -14 
7 11 6 7 7 24 6 5 7 -5 6 -6 7 -3 6 3 
7 -8 6 3 7 0 6 -4 7 -3 6 4 7 -10 6 13 
7 -5 6 -23 7 3 6 13 7 3 6 -7 7 -4 6 -5 
7 -1 6 10 7 -11 7 -2 6 13 7 -5 6 2 7 -12 
6 4 7 -10 6 -22 7 -13 6 -2 7 27 6 2 7 39 
6 10 7 -8 6 29 7 8 6 -5 7 -6 6 -9 7 8 
6 6 7 -5 6 -11 7 -8 6 -5 7 -7 6 -19 7 -8 
6 1 7 10 6 13 7 -1 6 12 7 8 6 4 7 -4 
6 7 7 -13 6 14 7 2 6 -7 7 -12 6 -11 7 16 
6 -2 7 -15 6 -7 7 3 6 -10 7 36 6 10 7 2 
6 -4 7 -5 6 3 7 -4 6 14 7 -6 6 -8 7 3 
6 -1 7 -17 6 -1 7 6 6 39 7 20 6 -18 7 2 
6 -16 7 -7 6 20 7 -9 6 8 7 -6 6 9 7 2 
6 -6 7 -12 6 9 7 -4 6 4 7 11 6 18 7 5 
6 -15 7 -8 6 -7 7 -4 6 -12 7 2 6 -1 7 1 
6 1 7 1 6 9 7 -9 6 3 7 2 6 4 7 -4 
6 7 7 5 6 7 7 -13 6 12 7 -6 6 16 7 -4 
6 9 7 -14 6 10 7 -16 6 18 7 -13 6 17 7 -9 
6 8 7 4 6 2 7 7 6 -2 7 4 6 16 7 -8 
6 -2 7 4 6 1 7 -4 6 4 7 -1 6 4 7 -23 
6 7 7 10 6 -2 7 2 6 26 7 7 6 25 7 4 
6 -17 7 22 6 -2 7 -12 6 0 7 14 6 5 7 -11 
6 -6 7 -20 6 8 7 -10 6 20 7 18 6 8 7 4 
6 17 7 7 6 6 7 -24 7 -20 6 -4 7 3 6 23 
7 7 6 1 7 3 6 -5 7 6 6 7 7 0 6 -6 
7 16 6 -23 7 -3 6 -9 7 -16 6 -1 7 4 6 0 
7 5 6 2 7 10 6 8 7 6 6 -11 7 7 6 14 
7 -3 6 -8 7 -15 6 -1 7 14 6 16 7 -1 6 -10 
7 -12 6 12 7 4 6 -10 7 11 6 -6 7 25 6 2 
7 -5 6 -1 7 -13 2557 1360 300 MP stroke
6 -11 7 -15 6 -1 7 -9 6 1 7 -14 6 7 7 8 
6 2 7 -24 6 15 7 -18 6 -10 7 -13 6 18 7 37 
6 16 7 3 6 -5 7 4 6 -1 7 -2 6 5 7 -1 
6 -3 7 2 6 -4 7 1 6 -17 7 -9 6 2 7 4 
6 -7 7 -3 6 6 7 2 6 5 7 -3 6 5 7 2 
6 10 7 12 6 -7 7 8 6 -29 7 -3 6 -3 7 -20 
6 12 7 11 6 15 7 5 6 -13 7 -10 6 6 7 2 
6 -11 7 -4 6 -8 7 -1 6 22 7 4 6 -16 7 -5 
6 6 7 15 6 -3 7 6 6 5 7 0 6 -8 7 0 
6 -16 7 26 6 5 7 5 6 -7 7 -4 6 -16 7 -16 
6 33 7 26 6 12 7 5 6 11 7 -5 6 6 7 11 
6 -5 7 12 6 -1 7 1 6 5 7 -2 6 -14 7 0 
6 3 7 15 6 11 7 -16 6 -16 7 -10 6 0 7 38 
6 22 7 6 6 9 7 0 6 -5 7 7 6 3 7 18 
6 -6 7 -7 6 1 7 6 7 4 6 16 7 -18 6 -4 
7 15 6 7 7 21 6 -11 7 -2 6 9 7 14 6 -22 
7 5 6 15 7 -6 6 -1 7 -5 6 -2 7 -5 6 11 
7 -1 6 -2 7 -5 6 12 7 2 6 -12 7 -1 6 -2 
7 25 6 4 7 -2 6 -3 7 9 6 7 7 1 6 -8 
7 -13 6 -5 7 -11 6 18 7 9 6 -3 7 17 6 10 
7 7 6 -4 7 -3 6 -18 7 -15 6 -8 7 7 6 -1 
7 -3 6 -4 7 13 6 -5 7 -7 6 -12 7 27 6 -2 
7 17 6 -3 7 3 6 8 7 6 6 4 7 -3 6 -12 
7 1 6 -11 7 13 6 2 7 10 6 3 7 -9 6 -21 
7 -3 6 -9 7 10 6 28 7 -15 6 -13 7 -5 6 11 
7 -3 6 -5 7 -10 6 -21 7 3 6 13 7 -8 6 -6 
7 -19 6 11 7 -1 6 11 7 -1 6 -21 7 7 6 -11 
7 11 6 -26 7 24 6 -9 7 -18 6 -10 7 13 6 11 
7 -21 6 -12 7 -12 6 -13 7 -31 6 12 7 -15 6 1 
7 -9 6 -9 7 -23 6 -13 7 -20 6 -28 7 -29 6 -17 
7 -5 6 -40 7 -57 6 -41 7 -24 6 -19 7 -18 6 -29 
7 -37 6 -36 7 -44 6 -41 7 -50 6 -30 7 -35 6 -67 
7 -64 6 -54 7 -63 6 -62 7 -79 6 -62 7 -72 6 -66 
7 -85 6 -83 7 -95 6 -85 7 -94 6 -95 7 -126 6 -116 
7 -88 6 -93 7 -143 6 -148 7 -116 6 -44 750 3975 279 MP stroke
/c9 { 0.000000 0.000000 1.000000 sr} bdef
c9
1 -1 6 20 7 7 7 -5 6 -1 7 11 7 3 6 -17 
7 -5 6 10 7 -5 7 10 6 17 7 -2 6 19 7 15 
7 -6 6 -4 7 -12 7 -8 6 17 7 7 6 32 7 5 
7 -12 6 -8 7 5 6 -6 7 -1 7 3 6 -3 7 6 
7 -7 6 12 7 1 6 0 7 3 7 -11 6 -12 7 -8 
6 17 7 5 7 1 6 18 7 -6 7 15 6 -21 7 -8 
6 -5 7 9 7 0 6 -9 7 9 6 -9 7 10 7 7 
6 2 7 -14 7 16 6 -6 7 1 6 -9 7 24 7 5 
6 1 7 -5 6 -7 7 -11 7 -9 6 0 7 2 6 6 
7 10 7 5 6 -6 7 0 7 -3 6 -1 7 -1 6 1 
7 -18 7 4 6 -6 7 -1 6 7 7 16 7 -6 6 12 
7 -6 7 -13 6 9 7 10 6 -15 7 5 7 20 6 9 
7 16 6 -7 7 -5 7 -16 6 0 7 -4 7 1 6 9 
7 4 6 -11 7 -6 7 -10 6 -11 7 -2 6 26 7 24 
7 -8 6 6 7 1 7 10 6 8 7 -1 6 0 7 4 
7 -1 6 -4 7 -1 6 -2 7 1 7 0 6 11 7 1 
7 5 6 -4 7 -33 6 15 7 18 7 15 6 1 7 5 
6 -5 7 -3 7 -5 6 -12 7 17 7 12 6 7 7 -19 
6 6 7 16 7 7 6 -6 7 5 6 -1 7 -1 7 8 
6 10 7 1 7 5 6 8 7 4 6 10 7 -1 7 1 
6 -1 7 21 6 15 7 -10 7 3 6 -8 7 7 7 7 
6 -7 7 5 6 9 7 2 7 -17 6 4 7 7 6 -21 
7 22 7 7 6 5 7 2 7 -5 6 1 7 -16 6 1 
7 -6 7 13 6 3 7 -8 6 -8 7 -14 7 2 6 -11 
7 48 7 17 6 -7 7 -15 6 4 7 5 7 -10 6 -5 
7 4 6 18 7 -3 7 -6 6 -3 7 -12 7 10 6 1 
7 9 6 -2 7 -5 7 0 6 -4 7 -8 6 7 7 0 
7 -1 6 -21 7 3 7 -5 6 16 7 -10 6 14 7 5 
7 4 6 6 7 24 6 20 7 -10 7 -12 6 -10 7 1 
6 0 7 -3 7 -3 6 4 7 -6 7 2 6 -3 7 22 
6 -10 7 15 7 -11 6 20 7 3 6 0 7 -8 7 -1 
6 6 7 -11 7 21 6 -22 7 0 6 -1 7 -8 7 16 
6 -14 7 26 6 8 7 6 7 17 6 -7 7 2 7 -4 
6 -18 7 -7 6 2 7 -1 7 3 6 9 7 4 6 -11 
7 -12 7 26 6 -2 7 6 7 -9 6 -8 7 -9 6 -17 
7 5 7 6 6 21 7 -2 6 2 7 -6 7 0 6 -11 
7 -16 7 0 6 6 7 -2 6 33 7 -1 7 -11 6 -7 
7 -6 6 21 7 15 2529 942 300 MP stroke
7 10 6 17 7 3 7 -2 6 -17 7 19 6 14 7 18 
7 11 6 -17 7 12 6 6 7 6 7 6 6 -1 7 -7 
7 -1 6 8 7 1 6 10 7 -11 7 14 6 -8 7 -5 
6 5 7 -7 7 -6 6 3 7 3 7 -7 6 -14 7 0 
6 -4 7 9 7 5 6 7 7 4 6 23 7 1 7 10 
6 5 7 -8 7 -15 6 -8 7 -3 6 2 7 6 7 -26 
6 -4 7 5 6 2 7 26 7 -13 6 23 7 -5 7 -7 
6 -3 7 -2 6 14 7 -16 7 3 6 -9 7 -11 6 -2 
7 5 7 2 6 9 7 2 7 -13 6 6 7 -22 6 12 
7 11 7 -2 6 9 7 0 6 -16 7 -9 7 -2 6 -2 
7 27 7 -5 6 14 7 -8 6 9 7 4 7 -14 6 -10 
7 4 6 -3 7 -6 7 7 6 4 7 -1 7 -6 6 -2 
7 15 6 -3 7 -2 7 -1 6 -7 7 4 6 5 7 -29 
7 17 6 12 7 5 6 7 7 6 7 -1 6 4 7 -1 
7 -4 6 10 7 -23 6 -13 7 -9 7 40 6 -13 7 12 
6 -1 7 18 7 10 6 -1 7 12 7 -16 6 13 7 13 
6 -9 7 17 7 7 6 -14 7 8 6 5 7 0 7 -7 
6 -7 7 13 7 -25 6 9 7 9 6 13 7 -3 7 10 
6 -7 7 -8 6 -4 7 -6 7 4 6 -17 7 3 7 10 
6 -3 7 -15 6 -2 7 15 7 6 6 -6 7 -3 6 -7 
7 -13 7 2 6 -3 7 -4 7 0 6 -30 7 6 6 19 
7 1 7 -6 6 -21 7 11 6 3 7 -7 7 -5 6 6 
7 -9 7 -15 6 -8 7 -1 6 20 7 -12 7 13 6 4 
7 -7 6 -6 7 12 7 -4 6 -19 7 5 7 -1 6 6 
7 1 6 -14 7 8 7 -7 6 -6 7 -15 6 21 7 -10 
7 6 6 -26 7 33 7 6 6 10 7 -8 6 8 7 -12 
7 -4 6 -16 7 -11 6 -19 7 12 7 14 6 -18 7 -20 
7 -11 6 -26 7 13 6 3 7 -13 7 0 6 -9 7 -12 
6 -29 7 -38 7 -3 6 -23 7 -44 7 -34 6 -4 7 -27 
6 -7 7 -20 7 -11 6 -28 7 -14 6 -22 7 -47 7 -53 
6 -42 7 -46 7 -41 6 -55 7 -78 6 -34 7 -75 7 -71 
6 -58 7 -89 6 -76 7 -61 7 -82 6 -102 7 -105 7 -101 
6 -101 7 -110 6 -115 7 -139 7 -145 6 -127 7 -114 6 -155 
7 -130 7 -107 6 -73 7 -78 6 -63 750 3963 270 MP stroke
/c10 { 1.000000 0.000000 1.000000 sr} bdef
c10
4 -5 7 9 7 -1 6 -13 7 -18 7 3 6 -3 7 -2 
7 3 7 -3 6 -9 7 1 7 -17 6 18 7 34 7 1 
6 12 7 3 7 11 6 -6 7 -15 7 4 6 9 7 8 
7 -4 6 11 7 5 7 -5 6 -1 7 3 7 3 6 -10 
7 1 7 6 6 2 7 -7 7 -4 6 4 7 1 7 -1 
6 -1 7 -16 7 4 6 -3 7 -11 7 0 6 32 7 4 
7 15 6 -5 7 7 7 1 6 8 7 -15 7 6 6 11 
7 -2 7 -10 6 -6 7 10 7 3 6 15 7 13 7 -1 
6 -4 7 -16 7 0 6 9 7 -3 7 -16 6 15 7 4 
7 -2 6 -8 7 -13 7 9 6 10 7 0 7 -16 6 7 
7 4 7 -1 6 7 7 -15 7 -9 6 6 7 0 7 0 
6 -6 7 -4 7 -10 6 2 7 20 7 7 6 -3 7 13 
7 -2 6 -1 7 15 7 -10 6 1 7 10 7 -3 6 -14 
7 4 7 8 6 0 7 -7 7 5 6 8 7 -9 7 1 
6 -10 7 1 7 2 6 -2 7 6 7 6 6 4 7 7 
7 -2 6 -7 7 0 7 0 6 2 7 1 7 -6 6 -2 
7 11 7 -5 6 -4 7 20 7 -1 6 11 7 -4 7 -1 
6 9 7 5 7 -7 6 1 7 10 7 -1 6 7 7 -12 
7 -3 6 3 7 0 7 -6 6 -5 7 8 7 12 6 7 
7 -12 7 -7 6 -2 7 0 7 14 6 12 7 -3 7 -4 
6 6 7 2 7 12 6 1 7 -20 7 -8 6 2 7 2 
7 -2 6 11 7 -3 7 -3 6 -4 7 29 7 -8 6 7 
7 -4 7 -1 6 -4 7 -12 7 -4 6 0 7 -3 7 -8 
6 26 7 5 7 5 6 5 7 -5 7 7 6 2 7 -2 
7 -3 6 0 7 -5 7 4 6 1 7 5 7 1 6 -25 
7 21 7 3 6 6 7 -2 7 13 6 -1 7 -9 7 2 
6 1 7 -3 7 -7 6 4 7 10 7 -7 6 0 7 -5 
7 -3 6 3 7 10 7 -6 6 2 7 0 7 -3 6 -3 
7 13 7 15 6 13 7 1 7 -13 6 3 7 10 7 -3 
6 -11 7 1 7 12 6 2 7 1 7 -16 6 -4 7 5 
7 0 6 23 7 -1 7 -1 6 -1 7 -2 7 0 6 5 
7 -6 7 8 6 0 7 -4 7 0 6 13 7 17 7 -7 
6 9 7 4 7 -7 6 10 7 2 7 -19 6 -7 7 8 
7 -5 6 -1 7 -5 7 7 6 5 7 -4 7 1 6 8 
7 -6 7 -7 6 27 7 4 7 -5 6 0 7 -1 7 3 
6 6 7 5 7 7 6 16 7 -11 7 -4 6 -1 7 13 
7 16 6 -13 7 -1 7 -12 6 -1 7 2 7 32 6 16 
7 7 7 0 6 -4 2510 1099 300 MP stroke
7 -4 7 7 6 1 7 -1 7 -17 6 26 7 -5 7 15 
6 7 7 5 7 -8 6 -4 7 -4 7 -12 6 7 7 -3 
7 1 6 -1 7 10 7 3 6 16 7 16 7 3 6 12 
7 7 7 -8 6 21 7 6 7 -6 6 4 7 -23 7 28 
6 3 7 -5 7 -5 6 15 7 1 7 8 6 -1 7 -8 
7 2 6 6 7 8 7 7 6 -7 7 3 7 -10 6 -22 
7 13 7 18 6 -6 7 -5 7 7 6 4 7 -10 7 4 
6 -1 7 -9 7 10 6 9 7 -7 7 -9 6 -8 7 -3 
7 10 6 5 7 4 7 -4 6 15 7 4 7 14 6 -11 
7 -10 7 -9 6 -2 7 16 7 7 6 -7 7 27 7 -8 
6 -1 7 3 7 -11 6 3 7 -9 7 9 6 8 7 14 
7 9 6 20 7 -2 7 -1 6 9 7 -2 7 -11 6 -12 
7 -13 7 0 6 19 7 -11 7 -13 6 -15 7 19 7 17 
6 11 7 -7 7 -5 6 -3 7 2 7 -13 6 22 7 -2 
7 -2 6 -9 7 -19 7 15 6 19 7 2 7 -10 6 9 
7 1 7 -7 6 -11 7 -1 7 9 6 -8 7 2 7 -3 
6 -3 7 12 7 -21 6 23 7 -14 7 2 6 11 7 -16 
7 14 6 17 7 10 7 -26 6 11 7 31 7 -21 6 13 
7 0 7 -2 6 -17 7 11 7 12 6 -7 7 -14 7 -10 
6 11 7 26 7 -6 6 3 7 -8 7 1 6 -12 7 3 
7 -4 6 -8 7 13 7 -15 6 24 7 -7 7 -2 6 -7 
7 13 7 -4 6 14 7 -2 7 -19 6 -18 7 -14 7 12 
6 -4 7 -16 7 -5 6 51 7 -10 7 -10 6 -16 7 4 
7 16 6 28 7 12 7 0 6 -10 7 18 7 7 6 4 
7 -10 7 -7 6 -10 7 12 7 -9 6 16 7 -20 7 -9 
6 6 7 -22 7 -12 6 1 7 38 7 4 6 -21 7 -17 
7 15 6 8 7 -16 7 -12 6 -23 7 -13 7 -8 6 -28 
7 6 7 -22 6 -14 7 -3 7 -23 6 -9 7 4 7 -10 
6 -12 7 -22 7 -17 6 -13 7 -21 7 -20 6 -20 7 -8 
7 -16 6 -46 7 -26 7 -40 6 -9 7 -37 7 -48 6 -33 
7 -46 7 -65 6 -44 7 -70 7 -68 6 -82 7 -59 7 -81 
6 -109 7 -86 7 -109 6 -90 7 -116 7 -112 6 -122 7 -133 
7 -139 6 -155 7 -143 7 -120 6 -180 7 -248 7 -126 6 -37 
750 3983 265 MP stroke
gr

c10
0 sg
%%IncludeResource: font Helvetica
/Helvetica /WindowsLatin1Encoding 83.3333 FMSR

 732 4037 mt 
( ) s
4483  536 mt 
( ) s
8.33333 w
DO
SO
12.5 w
0.1 sg
 750  500 mt 4500  500 L
 750 4000 mt 4500 4000 L
4500 4000 mt 4500  500 L
 750 4000 mt  750  500 L
 750 4000 mt 4500 4000 L
 750 4000 mt  750  500 L
 750 4000 mt  750 3943 L
 750  500 mt  750  556 L
%%IncludeResource: font Helvetica
/Helvetica /WindowsLatin1Encoding 133.333 FMSR

 713 4148 mt 
(0) s
1500 4000 mt 1500 3943 L
1500  500 mt 1500  556 L
1371 4148 mt 
(0.01) s
2250 4000 mt 2250 3943 L
2250  500 mt 2250  556 L
2121 4148 mt 
(0.02) s
3000 4000 mt 3000 3943 L
3000  500 mt 3000  556 L
2871 4148 mt 
(0.03) s
3749 4000 mt 3749 3943 L
3749  500 mt 3749  556 L
3620 4148 mt 
(0.04) s
4500 4000 mt 4500 3943 L
4500  500 mt 4500  556 L
4371 4148 mt 
(0.05) s
 750 4000 mt  806 4000 L
4500 4000 mt 4443 4000 L
 652 4049 mt 
(0) s
 750 3416 mt  806 3416 L
4500 3416 mt 4443 3416 L
 652 3465 mt 
(1) s
 750 2833 mt  806 2833 L
4500 2833 mt 4443 2833 L
 652 2882 mt 
(2) s
 750 2250 mt  806 2250 L
4500 2250 mt 4443 2250 L
 652 2299 mt 
(3) s
 750 1666 mt  806 1666 L
4500 1666 mt 4443 1666 L
 652 1715 mt 
(4) s
 750 1083 mt  806 1083 L
4500 1083 mt 4443 1083 L
 652 1132 mt 
(5) s
 750  500 mt  806  500 L
4500  500 mt 4443  500 L
 652  549 mt 
(6) s
 750  500 mt 4500  500 L
 750 4000 mt 4500 4000 L
4500 4000 mt 4500  500 L
 750 4000 mt  750  500 L
0 sg
%%IncludeResource: font Helvetica-Bold
/Helvetica-Bold /WindowsLatin1Encoding 125 FMSR

2482 3100 mt 
(K) s
%%IncludeResource: font Helvetica-Bold
/Helvetica-Bold /WindowsLatin1Encoding 100 FMSR

2572 3162 mt 
(2) s
%%IncludeResource: font Helvetica-Bold
/Helvetica-Bold /WindowsLatin1Encoding 125 FMSR

2627 3100 mt 
( = 5K) s
%%IncludeResource: font Helvetica-Bold
/Helvetica-Bold /WindowsLatin1Encoding 100 FMSR

2929 3162 mt 
(1) s
gs 2156 2956 939 922 rc
16.6667 w
250 0 2206 3082 2 MP stroke
gr

16.6667 w
%%IncludeResource: font Helvetica-Bold
/Helvetica-Bold /WindowsLatin1Encoding 125 FMSR

2482 3323 mt 
(K) s
%%IncludeResource: font Helvetica-Bold
/Helvetica-Bold /WindowsLatin1Encoding 100 FMSR

2572 3385 mt 
(2) s
%%IncludeResource: font Helvetica-Bold
/Helvetica-Bold /WindowsLatin1Encoding 125 FMSR

2627 3323 mt 
( = 10K) s
%%IncludeResource: font Helvetica-Bold
/Helvetica-Bold /WindowsLatin1Encoding 100 FMSR

2998 3385 mt 
(1) s
gs 2156 2956 939 922 rc
c8
250 0 2206 3305 2 MP stroke
gr

c8
0 sg
%%IncludeResource: font Helvetica-Bold
/Helvetica-Bold /WindowsLatin1Encoding 125 FMSR

2482 3547 mt 
(K) s
%%IncludeResource: font Helvetica-Bold
/Helvetica-Bold /WindowsLatin1Encoding 100 FMSR

2572 3609 mt 
(2) s
%%IncludeResource: font Helvetica-Bold
/Helvetica-Bold /WindowsLatin1Encoding 125 FMSR

2627 3547 mt 
( = 25K) s
%%IncludeResource: font Helvetica-Bold
/Helvetica-Bold /WindowsLatin1Encoding 100 FMSR

2998 3609 mt 
(1) s
gs 2156 2956 939 922 rc
c9
250 0 2206 3527 2 MP stroke
gr

c9
0 sg
%%IncludeResource: font Helvetica-Bold
/Helvetica-Bold /WindowsLatin1Encoding 125 FMSR

2482 3770 mt 
(K) s
%%IncludeResource: font Helvetica-Bold
/Helvetica-Bold /WindowsLatin1Encoding 100 FMSR

2572 3832 mt 
(2) s
%%IncludeResource: font Helvetica-Bold
/Helvetica-Bold /WindowsLatin1Encoding 125 FMSR

2627 3770 mt 
( = 50K) s
%%IncludeResource: font Helvetica-Bold
/Helvetica-Bold /WindowsLatin1Encoding 100 FMSR

2998 3832 mt 
(1) s
gs 2156 2956 939 922 rc
c10
250 0 2206 3750 2 MP stroke
12.5 w
gr

12.5 w
c10

end %%Color Dict

eplot
%%EndObject

epage
end

showpage

%%Trailer
%%EOF
