%!PS-Adobe-3.0 EPSF-3.0
%%Creator: MATLAB, The MathWorks, Inc. Version 8.1.0.604 (R2013a). Operating System: Microsoft Windows 7.
%%Title: .\Rolling_Confined_StressStain_Spherical.eps
%%CreationDate: 08/17/2013  16:57:49
%%DocumentNeededFonts: Helvetica-Bold
%%+ Helvetica
%%DocumentProcessColors: Cyan Magenta Yellow Black
%%LanguageLevel: 2
%%Pages: 1
%%BoundingBox:    45    93   573   572
%%EndComments

%%BeginProlog
% MathWorks dictionary
/MathWorks 160 dict begin
% definition operators
/bdef {bind def} bind def
/ldef {load def} bind def
/xdef {exch def} bdef
/xstore {exch store} bdef
% operator abbreviations
/c  /clip ldef
/cc /concat ldef
/cp /closepath ldef
/gr /grestore ldef
/gs /gsave ldef
/mt /moveto ldef
/np /newpath ldef
/cm /currentmatrix ldef
/sm /setmatrix ldef
/rm /rmoveto ldef
/rl /rlineto ldef
/s {show newpath} bdef
/sc {setcmykcolor} bdef
/sr /setrgbcolor ldef
/sg /setgray ldef
/w /setlinewidth ldef
/j /setlinejoin ldef
/cap /setlinecap ldef
/rc {rectclip} bdef
/rf {rectfill} bdef
% page state control
/pgsv () def
/bpage {/pgsv save def} bdef
/epage {pgsv restore} bdef
/bplot /gsave ldef
/eplot {stroke grestore} bdef
% orientation switch
/portraitMode 0 def /landscapeMode 1 def /rotateMode 2 def
% coordinate system mappings
/dpi2point 0 def
% font control
/FontSize 0 def
/FMS {/FontSize xstore findfont [FontSize 0 0 FontSize neg 0 0]
  makefont setfont} bdef
/ISOLatin1Encoding where {pop /WindowsLatin1Encoding 256 array bdef
ISOLatin1Encoding WindowsLatin1Encoding copy pop
/.notdef/.notdef/quotesinglbase/florin/quotedblbase/ellipsis/dagger
/daggerdbl/circumflex/perthousand/Scaron/guilsinglleft/OE/.notdef/.notdef
/.notdef/.notdef/quoteleft/quoteright/quotedblleft/quotedblright/bullet
/endash/emdash/tilde/trademark/scaron/guilsinglright/oe/.notdef/.notdef
/Ydieresis WindowsLatin1Encoding 128 32 getinterval astore pop}
{/WindowsLatin1Encoding StandardEncoding bdef} ifelse
/reencode {exch dup where {pop load} {pop StandardEncoding} ifelse
  exch dup 3 1 roll findfont dup length dict begin
  { 1 index /FID ne {def}{pop pop} ifelse } forall
  /Encoding exch def currentdict end definefont pop} bdef
/isroman {findfont /CharStrings get /Agrave known} bdef
/FMSR {3 1 roll 1 index dup isroman {reencode} {pop pop} ifelse
  exch FMS} bdef
/csm {1 dpi2point div -1 dpi2point div scale neg translate
 dup landscapeMode eq {pop -90 rotate}
  {rotateMode eq {90 rotate} if} ifelse} bdef
% line types: solid, dotted, dashed, dotdash
/SO { [] 0 setdash } bdef
/DO { [.5 dpi2point mul 4 dpi2point mul] 0 setdash } bdef
/DA { [6 dpi2point mul] 0 setdash } bdef
/DD { [.5 dpi2point mul 4 dpi2point mul 6 dpi2point mul 4
  dpi2point mul] 0 setdash } bdef
% macros for lines and objects
/L {lineto stroke} bdef
/MP {3 1 roll moveto 1 sub {rlineto} repeat} bdef
/AP {{rlineto} repeat} bdef
/PDlw -1 def
/W {/PDlw currentlinewidth def setlinewidth} def
/PP {closepath eofill} bdef
/DP {closepath stroke} bdef
/MR {4 -2 roll moveto dup  0 exch rlineto exch 0 rlineto
  neg 0 exch rlineto closepath} bdef
/FR {MR stroke} bdef
/PR {MR fill} bdef
/L1i {{currentfile picstr readhexstring pop} image} bdef
/tMatrix matrix def
/MakeOval {newpath tMatrix currentmatrix pop translate scale
0 0 1 0 360 arc tMatrix setmatrix} bdef
/FO {MakeOval stroke} bdef
/PO {MakeOval fill} bdef
/PD {currentlinewidth 2 div 0 360 arc fill
   PDlw -1 eq not {PDlw w /PDlw -1 def} if} def
/FA {newpath tMatrix currentmatrix pop translate scale
  0 0 1 5 -2 roll arc tMatrix setmatrix stroke} bdef
/PA {newpath tMatrix currentmatrix pop	translate 0 0 moveto scale
  0 0 1 5 -2 roll arc closepath tMatrix setmatrix fill} bdef
/FAn {newpath tMatrix currentmatrix pop translate scale
  0 0 1 5 -2 roll arcn tMatrix setmatrix stroke} bdef
/PAn {newpath tMatrix currentmatrix pop translate 0 0 moveto scale
  0 0 1 5 -2 roll arcn closepath tMatrix setmatrix fill} bdef
/vradius 0 def /hradius 0 def /lry 0 def
/lrx 0 def /uly 0 def /ulx 0 def /rad 0 def
/MRR {/vradius xdef /hradius xdef /lry xdef /lrx xdef /uly xdef
  /ulx xdef newpath tMatrix currentmatrix pop ulx hradius add uly
  vradius add translate hradius vradius scale 0 0 1 180 270 arc 
  tMatrix setmatrix lrx hradius sub uly vradius add translate
  hradius vradius scale 0 0 1 270 360 arc tMatrix setmatrix
  lrx hradius sub lry vradius sub translate hradius vradius scale
  0 0 1 0 90 arc tMatrix setmatrix ulx hradius add lry vradius sub
  translate hradius vradius scale 0 0 1 90 180 arc tMatrix setmatrix
  closepath} bdef
/FRR {MRR stroke } bdef
/PRR {MRR fill } bdef
/MlrRR {/lry xdef /lrx xdef /uly xdef /ulx xdef /rad lry uly sub 2 div def
  newpath tMatrix currentmatrix pop ulx rad add uly rad add translate
  rad rad scale 0 0 1 90 270 arc tMatrix setmatrix lrx rad sub lry rad
  sub translate rad rad scale 0 0 1 270 90 arc tMatrix setmatrix
  closepath} bdef
/FlrRR {MlrRR stroke } bdef
/PlrRR {MlrRR fill } bdef
/MtbRR {/lry xdef /lrx xdef /uly xdef /ulx xdef /rad lrx ulx sub 2 div def
  newpath tMatrix currentmatrix pop ulx rad add uly rad add translate
  rad rad scale 0 0 1 180 360 arc tMatrix setmatrix lrx rad sub lry rad
  sub translate rad rad scale 0 0 1 0 180 arc tMatrix setmatrix
  closepath} bdef
/FtbRR {MtbRR stroke } bdef
/PtbRR {MtbRR fill } bdef
/stri 6 array def /dtri 6 array def
/smat 6 array def /dmat 6 array def
/tmat1 6 array def /tmat2 6 array def /dif 3 array def
/asub {/ind2 exch def /ind1 exch def dup dup
  ind1 get exch ind2 get sub exch } bdef
/tri_to_matrix {
  2 0 asub 3 1 asub 4 0 asub 5 1 asub
  dup 0 get exch 1 get 7 -1 roll astore } bdef
/compute_transform {
  dmat dtri tri_to_matrix tmat1 invertmatrix 
  smat stri tri_to_matrix tmat2 concatmatrix } bdef
/ds {stri astore pop} bdef
/dt {dtri astore pop} bdef
/db {2 copy /cols xdef /rows xdef mul dup 3 mul string
  currentfile 
  3 index 0 eq {/ASCIIHexDecode filter}
  {/ASCII85Decode filter 3 index 2 eq {/RunLengthDecode filter} if }
  ifelse exch readstring pop
  dup 0 3 index getinterval /rbmap xdef
  dup 2 index dup getinterval /gbmap xdef
  1 index dup 2 mul exch getinterval /bbmap xdef pop pop}bdef
/it {gs np dtri aload pop moveto lineto lineto cp c
  cols rows 8 compute_transform 
  rbmap gbmap bbmap true 3 colorimage gr}bdef
/il {newpath moveto lineto stroke}bdef
currentdict end def
%%EndProlog

%%BeginSetup
MathWorks begin

0 cap

end
%%EndSetup

%%Page: 1 1
%%BeginPageSetup
%%PageBoundingBox:    45    93   573   572
MathWorks begin
bpage
%%EndPageSetup

%%BeginObject: obj1
bplot

/dpi2point 8.33333 def
portraitMode 0150 5158 csm

  231   390  4398  3990 rc
84 dict begin %Colortable dictionary
/c0 { 0.000000 0.000000 0.000000 sr} bdef
/c1 { 1.000000 1.000000 1.000000 sr} bdef
/c2 { 0.900000 0.000000 0.000000 sr} bdef
/c3 { 0.000000 0.820000 0.000000 sr} bdef
/c4 { 0.000000 0.000000 0.800000 sr} bdef
/c5 { 0.910000 0.820000 0.320000 sr} bdef
/c6 { 1.000000 0.260000 0.820000 sr} bdef
/c7 { 0.000000 0.820000 0.820000 sr} bdef
c0
1 j
1 sg
   0    0 5001 5001 rf
12.5 w
0 3500 3750 0 0 -3500 750 4000 4 MP
PP
-3750 0 0 3500 3750 0 0 -3500 750 4000 5 MP stroke
gs 750 500 3751 3501 rc
16.6667 w
0 sg
-5 2 -6 2 -6 1 -6 2 -5 5 -6 5 -6 7 -6 7 
-6 6 -5 10 -6 5 -6 15 -6 12 -5 13 -6 12 -6 25 
-6 5 -6 13 -5 23 -6 18 -6 27 -6 15 -5 20 -6 20 
-6 26 -6 24 -6 18 -5 19 -6 31 -6 24 -6 27 -5 25 
-6 35 -6 33 -6 35 -6 42 -5 41 -6 39 -6 50 -6 37 
-5 57 -6 53 -6 58 -6 67 -6 60 -5 69 -6 75 -6 92 
-6 85 -5 86 -6 118 -6 88 -6 208 -6 34 -5 343 -6 23 
-6 369 -6 93 -5 440 11 -27 12 -32 11 -29 12 -22 11 -22 
12 -22 11 -24 12 -27 12 -46 11 -11 12 -27 11 -22 12 -18 
11 -24 12 -24 11 -22 12 -25 12 -27 11 -24 12 -20 11 -23 
12 -22 11 -19 12 -24 11 -23 12 -24 12 -24 11 -25 12 -22 
11 -21 12 -15 11 -21 12 -25 11 -22 12 -21 12 -24 11 -22 
12 -15 11 -17 12 -19 11 -23 12 -20 11 -22 12 -27 12 -24 
11 -18 12 -13 11 -16 12 -17 11 -19 12 -23 11 -21 12 -20 
12 -19 11 -21 12 -16 11 -16 12 -13 11 -18 12 -19 11 -17 
12 -21 12 -24 11 -17 12 -15 11 -13 12 -17 11 -15 12 -16 
11 -18 12 -22 12 -18 11 -15 12 -17 11 -16 12 -16 11 -18 
12 -14 11 -7 12 -13 12 -20 11 -17 12 -17 11 -20 12 -20 
11 -17 12 -15 11 -11 12 -9 12 -13 11 -11 12 -12 11 -14 
12 -16 11 -20 12 -20 11 -20 12 -22 12 -11 11 -5 12 -7 
11 -9 12 -12 11 -15 12 -16 12 -12 11 -18 12 -15 11 -17 
12 -12 11 -9 12 -10 11 -8 12 -14 12 -11 11 -14 12 -15 
11 -17 12 -19 11 -17 12 -10 11 -10 12 -10 12 -9 11 -9 
12 -8 11 -8 12 -13 11 -12 12 -14 11 -14 12 -15 12 -15 
11 -14 12 -10 11 -7 12 -5 11 -10 12 -9 11 -9 12 -10 
12 -13 11 -13 12 -12 11 -15 12 -14 11 -11 12 -4 11 -3 
12 -8 12 -8 11 -8 12 -8 11 -7 12 -9 11 -13 12 -13 
11 -14 12 -13 12 -10 11 -11 12 -10 11 -5 12 -3 11 -7 
12 -8 11 -7 12 -10 12 -12 11 -11 12 -11 11 -8 12 -5 
11 -8 12 -6 11 -9 12 -6 12 -9 11 -8 12 -8 11 -11 
12 -11 11 -10 12 -7 11 -7 12 -5 12 -6 11 -6 12 -7 
11 -10 12 -8 11 -5 12 -7 11 -6 12 -8 12 -9 11 -10 
12 -6 11 -5 12 -7 11 -7 12 -7 11 -4 12 -3 12 -7 
11 -4 12 -8 11 -8 12 -6 11 -2 12 -6 11 -6 12 -12 
12 -11 11 -13 12 -5 11 -5 12 -5 11 -4 12 -2 11 -3 
12 -2 12 -3 11 -4 12 -4 11 -3 12 -3 11 -6 12 -3 
11 -4 12 -9 12 -10 11 -8 12 -10 11 -7 12 -7 11 -6 
12 -2 11 -3 12 -4 842 3976 300 MP stroke
12 -3 11 -1 12 -2 11 -2 12 -2 11 -4 12 -3 11 -4 
750 3997 9 MP stroke
gr

16.6667 w
0 sg
0.1 sg
%%IncludeResource: font Helvetica-Bold
/Helvetica-Bold /WindowsLatin1Encoding 183.333 FMSR

2010 4322 mt 
(Vertical Strain) s
 424 3132 mt  -90 rotate
(Vertical Stress [kPa]) s
90 rotate
gs 750 500 3751 3501 rc
/c8 { 1.000000 0.000000 0.000000 sr} bdef
c8
-6 1 -6 0 -5 0 -6 3 -6 2 -5 4 -6 5 -6 5 
-5 8 -6 11 -6 11 -5 11 -6 10 -6 9 -5 16 -6 15 
-6 15 -5 15 -6 15 -6 16 -5 17 -6 19 -6 20 -5 26 
-6 16 -6 24 -5 16 -6 15 -6 24 -5 27 -6 35 -6 29 
-5 26 -6 34 -6 34 -5 30 -6 34 -6 34 -5 37 -6 37 
-6 54 -5 37 -6 61 -6 49 -5 46 -6 57 -6 63 -5 77 
-6 80 -6 69 -5 89 -6 110 -6 102 -6 113 -5 198 -6 36 
-6 337 -5 10 -6 364 -6 96 -5 443 11 -26 11 -26 12 -24 
11 -22 12 -27 11 -28 11 -24 12 -26 11 -24 11 -27 12 -17 
11 -22 11 -29 12 -25 11 -27 11 -23 12 -23 11 -38 11 -2 
12 -18 11 -21 11 -25 12 -28 11 -28 11 -24 12 -22 11 -18 
11 -18 12 -15 11 -22 12 -24 11 -30 11 -23 12 -21 11 -23 
11 -21 12 -16 11 -10 11 -18 12 -18 11 -19 11 -31 12 -25 
11 -18 11 -18 12 -17 11 -17 11 -11 12 -17 11 -24 11 -23 
12 -21 11 -22 11 -19 12 -16 11 -17 12 -15 11 -17 11 -19 
12 -19 11 -17 11 -19 12 -23 11 -17 11 -15 12 -14 11 -15 
11 -16 12 -18 11 -19 11 -20 12 -20 11 -18 11 -17 12 -16 
11 -13 11 -15 12 -13 11 -14 11 -13 12 -19 11 -21 12 -18 
11 -20 11 -17 12 -13 11 -12 11 -11 12 -10 11 -12 11 -14 
12 -19 11 -19 11 -20 12 -19 11 -16 11 -11 12 -10 11 -8 
11 -10 12 -14 11 -14 11 -15 12 -17 11 -20 11 -12 12 -11 
11 -13 12 -15 11 -9 11 -9 12 -13 11 -11 11 -15 12 -16 
11 -16 11 -14 12 -13 11 -14 11 -11 12 -11 11 -9 11 -11 
12 -13 11 -14 11 -11 12 -11 11 -11 11 -13 12 -14 11 -15 
11 -15 12 -10 11 -10 12 -12 11 -14 11 -8 12 -8 11 -6 
11 -8 12 -12 11 -12 11 -13 12 -11 11 -10 11 -11 12 -12 
11 -11 11 -10 12 -10 11 -11 11 -14 12 -13 11 -12 11 -10 
12 3 11 -7 11 -11 12 -6 11 -5 12 -7 11 -13 11 -13 
12 -17 11 -17 11 -14 12 -12 11 -2 11 -2 12 0 11 -3 
11 -7 12 -8 11 -9 11 -10 12 -7 11 -12 11 -13 12 -9 
11 -9 11 -7 12 -10 11 -9 12 -9 11 -9 11 -4 12 -2 
11 -2 11 -7 12 -7 11 -6 11 -14 12 -11 11 -7 11 -8 
12 -7 11 -9 11 -10 12 -11 11 -9 11 -7 12 -2 11 -2 
11 -2 12 -4 11 -8 11 -4 12 -5 11 -3 12 -2 11 -5 
11 -3 12 -7 11 -11 11 -11 12 -4 11 -8 11 -4 12 -9 
11 -4 11 -4 12 -4 11 -6 11 -5 12 -7 11 -3 11 -5 
12 -2 11 -2 11 -4 12 -5 11 -5 11 -3 12 -4 11 -4 
12 -6 11 -2 11 -5 988 3939 300 MP stroke
12 -7 11 -5 11 -5 12 -1 11 -3 11 -5 12 -4 11 -5 
11 -6 12 -3 11 -4 11 -3 12 -1 11 -1 11 -1 12 -1 
11 -1 11 -1 12 -1 11 -1 11 0 750 3998 22 MP stroke
/c9 { 0.000000 0.000000 1.000000 sr} bdef
c9
-6 2 -5 2 -6 3 -6 3 -5 3 -6 5 -6 1 -5 6 
-6 9 -6 12 -5 19 -6 27 -6 26 -5 31 -6 32 -6 37 
-5 142 -6 172 -6 -392 -5 6 -6 16 -5 15 -6 15 -6 18 
-5 22 -6 17 -6 19 -5 19 -6 21 -6 21 -5 23 -6 17 
-6 28 -5 34 -6 21 -6 33 -5 28 -6 32 -6 32 -5 34 
-6 39 -6 42 -5 37 -6 50 -6 46 -5 52 -6 48 -6 70 
-5 68 -6 63 -5 77 -6 81 -6 91 -5 100 -6 109 -6 104 
-5 203 -6 45 -6 327 -5 44 -6 363 -6 98 -5 424 11 -28 
11 -31 12 -33 11 -10 11 -20 12 -25 11 -27 11 -25 11 -26 
12 -28 11 -21 11 -22 12 -20 11 -23 11 -24 12 -44 11 -8 
11 -24 12 -23 11 -23 11 -19 11 -22 12 -23 11 -24 11 -25 
12 -26 11 -23 11 -22 12 -24 11 -13 11 -21 12 -22 11 -25 
11 -26 12 -25 11 -23 11 -19 11 -17 12 -17 11 -20 11 -20 
12 -22 11 -26 11 -22 12 -24 11 -13 11 -16 12 -18 11 -20 
11 -18 12 -21 11 -21 11 -19 11 -17 12 -19 11 -17 11 -18 
12 -12 11 -15 11 -18 12 -16 11 -18 11 -24 12 -18 11 -16 
11 -15 12 -15 11 -17 11 -16 11 -13 12 -15 11 -19 11 -23 
12 -18 11 -15 11 -13 12 -17 11 -17 11 -16 12 -16 11 -13 
11 -15 12 -19 11 -19 11 -14 11 -13 12 -16 11 -15 11 -15 
12 -15 11 -16 11 -16 12 -13 11 -14 11 -16 12 -14 11 -14 
11 -14 12 -15 11 -16 11 -10 11 -12 12 -14 11 -15 11 -16 
12 -15 11 -10 11 -12 12 -13 11 -13 11 -11 12 -16 11 -15 
11 -11 12 -9 11 -12 11 -13 11 -12 12 -10 11 -13 11 -11 
12 -13 11 -15 11 -12 12 -15 11 -12 11 -13 12 -8 11 -10 
11 -10 12 -11 11 -9 11 -11 11 -13 12 -11 11 -12 11 -12 
12 -14 11 -14 11 -14 12 -8 11 -8 11 -8 12 -8 11 -9 
11 -11 12 -12 11 -9 11 -11 11 -9 12 -13 11 -13 11 -10 
12 -10 11 -10 11 -9 12 -10 11 -9 11 -8 12 -10 11 -10 
11 -10 12 -10 11 -9 11 -8 11 -11 12 -6 11 -7 11 -7 
12 -6 11 -5 11 -4 12 -5 11 -10 11 -11 12 -10 11 -10 
11 -13 12 -10 11 -10 11 -10 11 -8 12 -5 11 -4 11 -6 
12 -7 11 -8 11 -6 12 -6 11 -7 11 -6 12 -6 11 -10 
11 -7 12 -8 11 -6 11 -7 11 -9 12 -9 11 -10 11 -9 
12 -7 11 -5 11 -6 12 -5 11 -6 11 -5 12 -5 11 -4 
11 -5 12 -5 11 -5 11 -6 11 -6 12 -7 11 -6 11 -6 
12 -5 11 -4 11 -4 12 -7 11 -7 11 -8 12 -7 11 -8 
11 -8 11 -3 12 -1 11 -4 11 -5 12 -3 11 -3 11 -1 
12 0 11 -2 11 -3 1010 3929 300 MP stroke
12 -6 11 -6 11 -4 12 -8 11 -8 11 -5 11 -7 12 -1 
11 -1 11 -7 12 -2 11 -4 11 -2 12 -1 11 -3 11 -2 
12 0 11 0 11 1 12 -1 11 -1 11 -1 11 0 750 3998 24 MP stroke
/c10 { 1.000000 0.000000 1.000000 sr} bdef
c10
-6 1 -5 1 -6 3 -6 2 -5 1 -6 4 -6 4 -5 3 
-6 7 -5 6 -6 7 -6 7 -5 4 -6 8 -6 10 -5 8 
-6 10 -5 18 -6 14 -6 16 -5 15 -6 16 -6 14 -5 13 
-6 12 -5 11 -6 16 -6 19 -5 19 -6 21 -5 20 -6 19 
-6 24 -5 21 -6 25 -6 21 -5 32 -6 27 -5 20 -6 33 
-6 30 -5 31 -6 31 -6 33 -5 28 -6 44 -5 48 -6 40 
-6 45 -5 50 -6 50 -6 54 -5 69 -6 62 -5 65 -6 77 
-6 80 -5 99 -6 99 -6 82 -5 133 -6 197 -5 -1 -6 400 
-6 -66 -5 452 -6 5 -6 412 12 -7 11 -22 11 -20 11 -22 
12 -24 11 -27 11 -30 11 -23 12 -20 11 -22 11 -24 11 -21 
12 -22 11 -27 11 -25 11 -26 12 -21 11 -21 11 -21 11 -21 
12 -22 11 -22 11 -23 11 -22 12 -36 11 -7 11 -22 11 -21 
12 -21 11 -22 11 -20 11 -22 12 -21 11 -19 11 -21 11 -21 
12 -20 11 -20 11 -22 11 -18 11 -17 12 -19 11 -19 11 -18 
11 -21 12 -21 11 -18 11 -17 11 -17 12 -18 11 -18 11 -18 
11 -18 12 -18 11 -18 11 -21 11 -19 12 -18 11 -18 11 -16 
11 -18 12 -18 11 -15 11 -15 11 -16 12 -18 11 -19 11 -20 
11 -18 12 -16 11 -18 11 -15 11 -14 12 -15 11 -15 11 -19 
11 -18 12 -16 11 -16 11 -17 11 -17 12 -15 11 -15 11 -15 
11 -12 11 -15 12 -17 11 -16 11 -17 11 -17 12 -18 11 -16 
11 -13 11 -13 12 -10 11 -11 11 -13 11 -16 12 -17 11 -18 
11 -16 11 -14 12 -16 11 -14 11 -14 11 -9 12 -9 11 -10 
11 -15 11 -16 12 -13 11 -14 11 -16 11 -17 12 -14 11 -11 
11 -12 11 -10 12 -6 11 -9 11 -11 11 -15 12 -15 11 -17 
11 -14 11 -14 11 -15 12 -15 11 -6 11 -8 11 -7 12 -8 
11 -8 11 -16 11 -14 12 -12 11 -16 11 -15 11 -14 12 -13 
11 -10 11 -8 11 -9 12 -8 11 -7 11 -7 11 -9 12 -13 
11 -16 11 -15 11 -12 12 -11 11 -10 11 -10 11 -9 12 -9 
11 -8 11 -6 11 -6 12 -10 11 -9 11 -11 11 -12 12 -13 
11 -12 11 -17 11 -6 12 -3 11 -9 11 -5 11 -3 11 -5 
12 -9 11 -10 11 -11 11 -11 12 -10 11 -10 11 -9 11 -6 
12 -8 11 -7 11 -8 11 -7 12 -6 11 -3 11 -5 11 -8 
12 -9 11 -3 11 -8 11 -9 12 -8 11 -10 11 -9 11 -10 
12 -8 11 -6 11 -6 11 -7 12 -7 11 -7 11 -7 11 -3 
12 -6 11 -5 11 -6 11 -4 12 -3 11 -6 11 -6 11 -8 
12 -6 11 -7 11 -5 11 -7 11 -9 12 -10 11 -7 11 -5 
11 -5 12 -5 11 -6 11 -5 11 -6 12 -8 11 -6 11 -5 
11 -7 12 -5 11 -3 1098 3903 300 MP stroke
11 -4 11 -4 12 -3 11 -3 11 -6 11 -6 12 -6 11 -6 
11 -5 11 -8 12 -6 11 -4 11 -3 11 -3 12 -5 11 -7 
11 -6 11 -2 12 -1 11 1 11 -1 11 -1 12 -1 11 -2 
11 -3 11 -1 12 0 11 1 11 0 11 0 11 0 750 3998 32 MP stroke
/c11 { 0.000000 1.000000 0.000000 sr} bdef
c11
-5 1 -6 0 -5 4 -6 5 -6 5 -5 6 -6 6 -6 4 
-5 8 -6 8 -5 9 -6 7 -6 6 -5 8 -6 8 -6 6 
-5 13 -6 10 -5 11 -6 13 -6 10 -5 15 -6 11 -6 18 
-5 15 -6 13 -6 15 -5 15 -6 17 -5 13 -6 16 -6 11 
-5 19 -6 22 -6 19 -5 21 -6 23 -5 18 -6 21 -6 27 
-5 27 -6 25 -6 26 -5 32 -6 33 -6 37 -5 32 -6 32 
-5 39 -6 42 -6 42 -5 41 -6 45 -6 48 -5 55 -6 56 
-5 54 -6 61 -6 79 -5 67 -6 70 -6 83 -5 102 -6 84 
-5 116 -6 204 -6 -15 -5 430 -6 -110 -6 515 -5 -53 -6 426 
11 -23 12 -24 11 -26 11 -24 11 -23 12 -23 11 -23 11 -22 
11 -22 12 -23 11 -22 11 -22 11 -24 12 -22 11 -24 11 -23 
12 -20 11 -22 11 -23 11 -22 12 -19 11 -37 11 -6 11 -25 
12 -22 11 -22 11 -20 11 -18 12 -18 11 -20 11 -21 11 -23 
12 -23 11 -23 11 -20 11 -18 12 -17 11 -18 11 -18 12 -17 
11 -21 11 -25 11 -25 12 -17 11 -16 11 -17 11 -16 12 -17 
11 -17 11 -19 11 -19 12 -19 11 -18 11 -18 11 -17 12 -17 
11 -17 11 -16 11 -17 12 -16 11 -18 11 -20 12 -15 11 -17 
11 -16 11 -18 12 -16 11 -15 11 -15 11 -14 12 -17 11 -17 
11 -18 11 -16 12 -14 11 -15 11 -15 11 -16 12 -14 11 -13 
11 -16 12 -18 11 -15 11 -16 11 -14 12 -12 11 -13 11 -15 
11 -15 12 -14 11 -15 11 -13 11 -16 12 -17 11 -16 11 -9 
11 -10 12 -13 11 -17 11 -13 11 -10 12 -13 11 -16 11 -17 
12 -16 11 -14 11 -13 11 -11 12 -8 11 -11 11 -12 11 -11 
12 -13 11 -14 11 -17 11 -15 12 -17 11 -13 11 -11 11 -10 
12 -9 11 -9 11 -10 11 -11 12 -12 11 -15 11 -15 12 -15 
11 -15 11 -16 11 -9 12 -9 11 -9 11 -9 11 -9 12 -9 
11 -11 11 -13 11 -15 12 -13 11 -13 11 -12 11 -11 12 -11 
11 -10 11 -9 11 -8 12 -8 11 -8 11 -11 12 -11 11 -12 
11 -12 11 -11 12 -11 11 -11 11 -12 11 -12 12 -10 11 -6 
11 -7 11 -6 12 -8 11 -10 11 -12 11 -11 12 -11 11 -9 
11 -11 11 -12 12 -13 11 -10 11 -8 12 -8 11 -6 11 -6 
11 -7 12 -6 11 -10 11 -10 11 -10 12 -10 11 -13 11 -11 
11 -11 12 -8 11 -7 11 -5 11 -5 12 -5 11 -6 11 -6 
12 -7 11 -8 11 -8 11 -8 12 -10 11 -15 11 -12 11 -7 
12 -5 11 -8 11 -7 11 -7 12 -6 11 -4 11 -4 11 -4 
12 -6 11 -5 11 -5 11 -8 12 -8 11 -9 11 -9 12 -8 
11 -9 11 -9 11 -9 12 -6 11 -7 11 -6 11 -5 12 -4 
11 -4 11 -3 11 -3 1099 3855 300 MP stroke
12 -5 11 -6 11 -6 11 -6 12 -7 11 -4 11 -6 11 -5 
12 -8 11 -10 11 -6 12 -4 11 -4 11 -5 11 -5 12 -3 
11 -4 11 -3 11 -4 12 -5 11 -5 11 -4 11 -3 12 -1 
11 -3 11 -4 11 -4 12 -3 11 -2 11 -3 11 -5 750 3998 32 MP stroke
/c12 { 0.000000 1.000000 1.000000 sr} bdef
c12
-5 1 -6 1 -5 2 -6 2 -6 3 -5 2 -6 3 -5 5 
-6 6 -5 5 -6 3 -5 7 -6 6 -6 7 -5 6 -6 8 
-5 9 -6 10 -5 5 -6 7 -5 6 -6 9 -6 10 -5 9 
-6 9 -5 6 -6 5 -5 10 -6 19 -5 12 -6 12 -6 13 
-5 16 -6 9 -5 17 -6 18 -5 11 -6 14 -5 18 -6 20 
-6 15 -5 19 -6 17 -5 18 -6 21 -5 16 -6 22 -5 21 
-6 23 -6 20 -5 22 -6 24 -5 27 -6 28 -5 34 -6 24 
-5 34 -6 32 -6 27 -5 38 -6 35 -5 35 -6 40 -5 47 
-6 44 -5 43 -6 46 -6 46 -5 54 -6 65 -5 56 -6 60 
-5 69 -6 75 -5 79 -6 85 -6 85 -5 119 -6 135 -5 19 
-6 395 -5 -151 -6 565 -5 -111 -6 425 11 -23 11 -24 11 -24 
11 -22 12 -23 11 -22 11 -21 11 -23 11 -19 11 -22 11 -23 
11 -22 11 -24 12 -20 11 -21 11 -21 11 -21 11 -18 11 -21 
11 -22 11 -23 11 -22 12 -18 11 -21 11 -19 11 -18 11 -20 
11 -20 11 -21 11 -21 11 -20 12 -19 11 -19 11 -17 11 -19 
11 -16 11 -20 11 -20 11 -20 11 -21 12 -18 11 -17 11 -17 
11 -16 11 -16 11 -18 11 -18 11 -19 11 -20 12 -19 11 -18 
11 -14 11 -16 11 -16 11 -17 11 -16 11 -17 11 -18 12 -19 
11 -19 11 -16 11 -13 11 -13 11 -15 11 -17 11 -14 11 -16 
12 -18 11 -18 11 -18 11 -15 11 -13 11 -13 11 -15 11 -13 
11 -15 12 -15 11 -16 11 -18 11 -19 11 -15 11 -12 11 -11 
11 -13 11 -13 12 -14 11 -13 11 -14 11 -17 11 -17 11 -14 
11 -11 11 -14 11 -12 12 -14 11 -15 11 -12 11 -14 11 -13 
11 -13 11 -11 11 -12 11 -13 12 -15 11 -14 11 -14 11 -14 
11 -14 11 -12 11 -11 11 -12 11 -11 12 -12 11 -12 11 -12 
11 -14 11 -13 11 -14 11 -14 11 -12 11 -10 12 -12 11 -11 
11 -11 11 -11 11 -11 11 -12 11 -13 11 -12 11 -12 12 -13 
11 -14 11 -10 11 -9 11 -9 11 -8 11 -11 11 -11 11 -11 
12 -9 11 -13 11 -12 11 -13 11 -12 11 -11 11 -9 11 -9 
11 -9 12 -8 11 -8 11 -10 11 -11 11 -11 11 -11 11 -12 
11 -12 11 -11 12 -10 11 -11 11 -8 11 -9 11 -5 11 -6 
11 -9 11 -11 11 -9 12 -9 11 -12 11 -12 11 -12 11 -11 
11 -9 11 -7 11 -6 11 -5 12 -6 11 -7 11 -8 11 -11 
11 -9 11 -10 11 -12 11 -12 11 -12 12 -11 11 -8 11 -7 
11 -5 11 -5 11 -5 11 -4 11 -6 11 -8 12 -9 11 -10 
11 -13 11 -12 11 -10 11 -10 11 -9 11 -8 11 -6 12 -4 
11 -6 11 -3 11 -2 11 -5 11 -6 11 -8 11 -8 11 -10 
12 -10 11 -11 11 -10 1316 3711 300 MP stroke
11 -10 11 -10 11 -5 11 -3 11 -3 11 -5 12 -3 11 -2 
11 -4 11 -5 11 -5 11 -6 11 -7 11 -10 11 -9 12 -9 
11 -7 11 -5 11 -8 11 -8 11 -9 11 -6 11 -6 11 -5 
12 -4 11 -4 11 -5 11 -5 11 -3 11 -5 11 -5 11 -6 
11 -7 12 -8 11 -8 11 -8 11 -7 11 -5 11 -6 11 -5 
11 -6 12 -6 11 -8 11 -6 11 -4 11 -4 11 -4 11 -3 
11 -2 11 -2 11 -1 750 3998 52 MP stroke
DA
0 sg
-6 1 -5 1 -5 3 -5 3 -6 3 -5 3 -5 4 -5 1 
-5 3 -6 4 -5 6 -5 4 -5 6 -5 11 -6 9 -5 7 
-5 5 -5 11 -6 10 -5 6 -5 4 -5 9 -5 7 -6 7 
-5 10 -5 9 -5 7 -5 13 -6 10 -5 8 -5 9 -5 12 
-6 10 -5 12 -5 16 -5 15 -5 12 -6 12 -5 17 -5 10 
-5 12 -6 13 -5 19 -5 14 -5 13 -5 19 -6 15 -5 20 
-5 19 -5 15 -5 16 -6 20 -5 24 -5 17 -5 23 -6 19 
-5 25 -5 25 -5 23 -5 22 -6 23 -5 34 -5 28 -5 29 
-5 31 -6 30 -5 31 -5 36 -5 25 -6 47 -5 33 -5 29 
-5 48 -5 42 -6 42 -5 42 -5 38 -5 55 -5 57 -6 59 
-5 59 -5 69 -5 70 -6 76 -5 78 -5 81 -5 117 -5 100 
-6 59 -5 321 -5 -125 -5 534 -5 -95 -6 412 11 -22 10 -21 
11 -25 10 -23 10 -21 11 -22 10 -22 11 -22 10 -21 11 -20 
10 -23 10 -22 11 -19 10 -21 11 -22 10 -19 11 -21 10 -20 
10 -20 11 -37 10 -4 11 -20 10 -19 11 -19 10 -18 10 -19 
11 -20 10 -20 11 -19 10 -19 11 -17 10 -19 11 -18 10 -18 
10 -17 11 -20 10 -18 11 -17 10 -19 11 -17 10 -20 10 -18 
11 -16 10 -16 11 -32 10 -2 11 -18 10 -18 10 -19 11 -16 
10 -17 11 -17 10 -16 11 -14 10 -16 10 -17 11 -18 10 -16 
11 -17 10 -15 11 -15 10 -15 10 -15 11 -14 10 -15 11 -15 
10 -18 11 -16 10 -16 10 -13 11 -15 10 -15 11 -15 10 -12 
11 -14 10 -16 10 -15 11 -16 10 -14 11 -14 10 -13 11 -15 
10 -12 10 -13 11 -14 10 -14 11 -14 10 -15 11 -14 10 -13 
10 -14 11 -14 10 -13 11 -12 10 -12 11 -12 10 -13 11 -13 
10 -15 10 -13 11 -14 10 -13 11 -12 10 -12 11 -12 10 -12 
10 -11 11 -12 10 -13 11 -12 10 -13 11 -12 10 -11 10 -12 
11 -13 10 -11 11 -10 10 -10 11 -11 10 -12 10 -11 11 -12 
10 -12 11 -11 10 -11 11 -11 10 -13 10 -10 11 -9 10 -10 
11 -10 10 -11 11 -11 10 -11 10 -12 11 -10 10 -10 11 -11 
10 -11 11 -10 10 -9 10 -8 11 -10 10 -11 11 -9 10 -10 
11 -11 10 -10 11 -9 10 -13 10 -10 11 -9 10 -8 11 -8 
10 -9 11 -10 10 -7 10 -8 11 -10 10 -9 11 -9 10 -11 
11 -9 10 -10 10 -9 11 -10 10 -7 11 -8 10 -8 11 -7 
10 -9 10 -9 11 -9 10 -8 11 -8 10 -10 11 -9 10 -9 
10 -8 11 -9 10 -6 11 -8 10 -7 11 -7 10 -6 10 -6 
11 -7 10 -9 11 -10 10 -10 11 -10 10 -8 10 -8 11 -8 
10 -7 11 -8 10 -6 11 -5 10 -6 10 -5 11 -6 10 -7 
11 -6 10 -9 11 -8 1834 3508 300 MP stroke
10 -10 11 -8 10 -9 10 -8 11 -8 10 -7 11 -5 10 -4 
11 -5 10 -4 10 -4 11 -5 10 -7 11 -6 10 -9 11 -9 
10 -9 10 -9 11 -8 10 -7 11 -6 10 -6 11 -6 10 -5 
10 -3 11 -4 10 -3 11 -4 10 -4 11 -5 10 -6 10 -7 
11 -9 10 -9 11 -8 10 -7 11 -7 10 -7 10 -7 11 -5 
10 -4 11 -4 10 -3 11 -3 10 -2 10 -2 11 -3 10 -4 
11 -6 10 -6 11 -6 10 -8 11 -7 10 -8 10 -8 11 -9 
10 -6 11 -6 10 -5 11 -4 10 -4 10 -3 11 -3 10 -2 
11 -3 10 -4 11 -4 10 -5 10 -5 11 -6 10 -4 11 -5 
10 -6 11 -6 10 -6 10 -4 11 -4 10 -4 11 -3 10 -2 
11 -4 10 -2 10 -3 11 -3 10 -3 11 -2 10 -3 11 -2 
10 -3 10 -3 11 -3 10 -2 11 -1 10 -2 11 -1 10 -2 
10 -2 11 0 10 -1 11 0 10 -1 11 0 10 -1 10 0 
750 3998 105 MP stroke
c8
-5 1 -5 0 -5 1 -5 2 -5 1 -5 2 -5 2 -5 4 
-5 3 -5 1 -5 1 -5 2 -5 5 -5 3 -5 3 -5 4 
-5 1 -5 6 -5 8 -5 6 -5 8 -5 7 -6 8 -5 10 
-5 5 -5 7 -5 8 -5 12 -5 6 -5 12 -5 8 -5 11 
-5 7 -5 10 -5 8 -5 14 -5 7 -5 12 -5 12 -5 11 
-5 9 -5 17 -5 10 -5 15 -5 12 -5 13 -5 18 -5 12 
-5 18 -5 9 -5 20 -5 14 -5 12 -5 23 -5 12 -5 16 
-5 26 -5 19 -5 17 -5 22 -5 20 -5 15 -5 21 -5 21 
-5 32 -5 13 -5 24 -5 33 -5 25 -5 28 -5 22 -5 24 
-5 30 -5 31 -5 34 -5 33 -5 30 -5 35 -5 41 -5 43 
-5 41 -5 49 -5 42 -5 47 -5 47 -5 61 -5 48 -5 61 
-5 67 -5 73 -5 69 -5 74 -5 90 -5 108 -5 99 -5 61 
-5 324 -5 -105 -6 509 -5 -79 -5 403 10 -22 11 -22 10 -21 
10 -20 10 -22 10 -26 10 -22 10 -22 10 -21 10 -19 10 -20 
10 -18 10 -20 10 -23 10 -22 10 -20 10 -19 10 -20 10 -19 
10 -19 10 -17 10 -19 10 -22 10 -20 10 -19 10 -18 10 -19 
10 -18 10 -17 10 -19 10 -17 10 -19 10 -19 10 -18 10 -19 
10 -17 10 -17 10 -18 11 -16 10 -16 10 -18 10 -16 10 -19 
10 -16 10 -18 10 -16 10 -16 10 -17 10 -15 10 -17 10 -15 
10 -16 10 -16 10 -15 10 -16 10 -15 10 -17 10 -15 10 -16 
10 -16 10 -14 10 -14 10 -15 10 -14 10 -14 10 -14 10 -15 
10 -15 10 -14 10 -14 10 -16 10 -13 10 -14 10 -15 10 -26 
10 -2 11 -13 10 -13 10 -14 10 -13 10 -15 10 -16 10 -12 
10 -15 10 -12 10 -13 10 -13 10 -13 10 -13 10 -13 10 -12 
10 -12 10 -16 10 -14 10 -11 10 -13 10 -11 10 -13 10 -12 
10 -13 10 -13 10 -11 10 -12 10 -14 10 -14 10 -11 10 -10 
10 -11 10 -11 10 -12 10 -12 10 -13 10 -10 11 -11 10 -12 
10 -12 10 -10 10 -10 10 -11 10 -10 10 -12 10 -13 10 -11 
10 -11 10 -13 10 -10 10 -10 10 -9 10 -7 10 -8 10 -10 
10 -12 10 -12 10 -12 10 -11 10 -11 10 -10 10 -10 10 -9 
10 -8 10 -9 10 -8 10 -10 10 -10 10 -12 10 -14 10 -10 
10 -10 10 -10 10 -9 10 -9 11 -8 10 -7 10 -8 10 -10 
10 -9 10 -9 10 -13 10 -11 10 -11 10 -10 10 -9 10 -9 
10 -8 10 -6 10 -7 10 -7 10 -8 10 -8 10 -10 10 -10 
10 -11 10 -10 10 -11 10 -9 10 -7 10 -7 10 -6 10 -6 
10 -7 10 -7 10 -7 10 -8 10 -9 10 -9 10 -10 10 -11 
10 -10 11 -7 10 -7 10 -6 10 -4 10 -6 10 -5 10 -5 
10 -6 10 -7 10 -8 2153 3387 300 MP stroke
10 -8 10 -8 10 -10 10 -10 10 -9 10 -6 10 -6 10 -4 
10 -5 10 -4 10 -5 10 -6 10 -5 10 -5 10 -5 10 -8 
10 -9 10 -10 10 -9 10 -11 10 -4 10 -6 10 -6 10 -4 
10 -4 10 -4 10 -3 10 -4 11 -4 10 -5 10 -7 10 -7 
10 -10 10 -7 10 -9 10 -8 10 -7 10 -6 10 -5 10 -4 
10 -4 10 -3 10 -3 10 -4 10 -3 10 -4 10 -5 10 -4 
10 -6 10 -7 10 -6 10 -8 10 -8 10 -7 10 -7 10 -6 
10 -4 10 -3 10 -4 10 -3 10 -2 10 -3 10 -2 10 -2 
10 -3 11 -4 10 -4 10 -6 10 -6 10 -6 10 -7 10 -8 
10 -7 10 -7 10 -5 10 -4 10 -4 10 -4 10 -3 10 -2 
10 -2 10 -1 10 -1 10 -2 10 -1 10 -3 10 -3 10 -4 
10 -5 10 -6 10 -7 10 -6 10 -8 10 -6 10 -6 10 -5 
10 -5 10 -4 10 -3 10 -3 10 -2 10 -1 11 -2 10 -1 
10 -2 10 -2 10 -1 10 -2 10 -2 10 -3 10 -3 10 -3 
10 -5 10 -3 10 -4 10 -4 10 -4 10 -5 10 -2 10 -5 
10 -3 10 -2 10 -2 10 -2 10 -1 10 -1 10 -1 10 -1 
10 -2 10 -1 10 -1 10 -1 10 -1 10 -1 10 -1 10 -1 
10 -2 10 -1 10 -2 10 -2 750 3998 141 MP stroke
gr

c8
DA
0 sg
%%IncludeResource: font Helvetica
/Helvetica /WindowsLatin1Encoding 83.3333 FMSR

 732 4037 mt 
( ) s
4483  536 mt 
( ) s
8.33333 w
DO
SO
12.5 w
0.1 sg
 750  500 mt 4500  500 L
 750 4000 mt 4500 4000 L
4500 4000 mt 4500  500 L
 750 4000 mt  750  500 L
 750 4000 mt 4500 4000 L
 750 4000 mt  750  500 L
 750 4000 mt  750 3943 L
 750  500 mt  750  556 L
%%IncludeResource: font Helvetica
/Helvetica /WindowsLatin1Encoding 133.333 FMSR

 713 4148 mt 
(0) s
1500 4000 mt 1500 3943 L
1500  500 mt 1500  556 L
1408 4148 mt 
(0.1) s
2250 4000 mt 2250 3943 L
2250  500 mt 2250  556 L
2158 4148 mt 
(0.2) s
3000 4000 mt 3000 3943 L
3000  500 mt 3000  556 L
2908 4148 mt 
(0.3) s
3750 4000 mt 3750 3943 L
3750  500 mt 3750  556 L
3658 4148 mt 
(0.4) s
4500 4000 mt 4500 3943 L
4500  500 mt 4500  556 L
4408 4148 mt 
(0.5) s
 750 4000 mt  806 4000 L
4500 4000 mt 4443 4000 L
 652 4049 mt 
(0) s
 750 3681 mt  806 3681 L
4500 3681 mt 4443 3681 L
 578 3730 mt 
(10) s
 750 3363 mt  806 3363 L
4500 3363 mt 4443 3363 L
 578 3412 mt 
(20) s
 750 3045 mt  806 3045 L
4500 3045 mt 4443 3045 L
 578 3094 mt 
(30) s
 750 2727 mt  806 2727 L
4500 2727 mt 4443 2727 L
 578 2776 mt 
(40) s
 750 2409 mt  806 2409 L
4500 2409 mt 4443 2409 L
 578 2458 mt 
(50) s
 750 2090 mt  806 2090 L
4500 2090 mt 4443 2090 L
 578 2139 mt 
(60) s
 750 1772 mt  806 1772 L
4500 1772 mt 4443 1772 L
 578 1821 mt 
(70) s
 750 1454 mt  806 1454 L
4500 1454 mt 4443 1454 L
 578 1503 mt 
(80) s
 750 1136 mt  806 1136 L
4500 1136 mt 4443 1136 L
 578 1185 mt 
(90) s
 750  818 mt  806  818 L
4500  818 mt 4443  818 L
 504  867 mt 
(100) s
 750  500 mt  806  500 L
4500  500 mt 4443  500 L
 504  549 mt 
(110) s
 750  500 mt 4500  500 L
 750 4000 mt 4500 4000 L
4500 4000 mt 4500  500 L
 750 4000 mt  750  500 L
0 sg
%%IncludeResource: font Symbol
/Symbol /WindowsLatin1Encoding 125 FMSR

1197  700 mt 
(m) s
%%IncludeResource: font Helvetica-Bold
/Helvetica-Bold /WindowsLatin1Encoding 100 FMSR

1269  762 mt 
(r) s
%%IncludeResource: font Helvetica-Bold
/Helvetica-Bold /WindowsLatin1Encoding 125 FMSR

1307  700 mt 
(  =  0.001) s
gs 872 553 1007 1813 rc
16.6667 w
250 0 921 679 2 MP stroke
gr

16.6667 w
%%IncludeResource: font Symbol
/Symbol /WindowsLatin1Encoding 125 FMSR

1197  923 mt 
(m) s
%%IncludeResource: font Helvetica-Bold
/Helvetica-Bold /WindowsLatin1Encoding 100 FMSR

1269  985 mt 
(r) s
%%IncludeResource: font Helvetica-Bold
/Helvetica-Bold /WindowsLatin1Encoding 125 FMSR

1307  923 mt 
(  =  0.005) s
gs 872 553 1007 1813 rc
c8
250 0 921 901 2 MP stroke
gr

c8
0 sg
%%IncludeResource: font Symbol
/Symbol /WindowsLatin1Encoding 125 FMSR

1197 1146 mt 
(m) s
%%IncludeResource: font Helvetica-Bold
/Helvetica-Bold /WindowsLatin1Encoding 100 FMSR

1269 1208 mt 
(r) s
%%IncludeResource: font Helvetica-Bold
/Helvetica-Bold /WindowsLatin1Encoding 125 FMSR

1307 1146 mt 
(  =  0.01) s
gs 872 553 1007 1813 rc
c9
250 0 921 1124 2 MP stroke
gr

c9
0 sg
%%IncludeResource: font Symbol
/Symbol /WindowsLatin1Encoding 125 FMSR

1197 1369 mt 
(m) s
%%IncludeResource: font Helvetica-Bold
/Helvetica-Bold /WindowsLatin1Encoding 100 FMSR

1269 1431 mt 
(r) s
%%IncludeResource: font Helvetica-Bold
/Helvetica-Bold /WindowsLatin1Encoding 125 FMSR

1307 1369 mt 
(  =  0.025) s
gs 872 553 1007 1813 rc
c10
250 0 921 1347 2 MP stroke
gr

c10
0 sg
%%IncludeResource: font Symbol
/Symbol /WindowsLatin1Encoding 125 FMSR

1197 1592 mt 
(m) s
%%IncludeResource: font Helvetica-Bold
/Helvetica-Bold /WindowsLatin1Encoding 100 FMSR

1269 1654 mt 
(r) s
%%IncludeResource: font Helvetica-Bold
/Helvetica-Bold /WindowsLatin1Encoding 125 FMSR

1307 1592 mt 
(  =  0.05) s
gs 872 553 1007 1813 rc
c11
250 0 921 1570 2 MP stroke
gr

c11
0 sg
%%IncludeResource: font Symbol
/Symbol /WindowsLatin1Encoding 125 FMSR

1197 1815 mt 
(m) s
%%IncludeResource: font Helvetica-Bold
/Helvetica-Bold /WindowsLatin1Encoding 100 FMSR

1269 1877 mt 
(r) s
%%IncludeResource: font Helvetica-Bold
/Helvetica-Bold /WindowsLatin1Encoding 125 FMSR

1307 1815 mt 
(  =  0.1) s
gs 872 553 1007 1813 rc
c12
250 0 921 1793 2 MP stroke
gr

c12
0 sg
%%IncludeResource: font Symbol
/Symbol /WindowsLatin1Encoding 125 FMSR

1197 2038 mt 
(m) s
%%IncludeResource: font Helvetica-Bold
/Helvetica-Bold /WindowsLatin1Encoding 100 FMSR

1269 2100 mt 
(r) s
%%IncludeResource: font Helvetica-Bold
/Helvetica-Bold /WindowsLatin1Encoding 125 FMSR

1307 2038 mt 
(  =  0.3) s
gs 872 553 1007 1813 rc
DA
250 0 921 2016 2 MP stroke
SO
gr

%%IncludeResource: font Symbol
/Symbol /WindowsLatin1Encoding 125 FMSR

1197 2261 mt 
(m) s
%%IncludeResource: font Helvetica-Bold
/Helvetica-Bold /WindowsLatin1Encoding 100 FMSR

1269 2323 mt 
(r) s
%%IncludeResource: font Helvetica-Bold
/Helvetica-Bold /WindowsLatin1Encoding 125 FMSR

1307 2261 mt 
(  =  0.5) s
gs 872 553 1007 1813 rc
DA
c8
250 0 921 2238 2 MP stroke
SO
12.5 w
gr

12.5 w
c8

end %%Color Dict

eplot
%%EndObject

epage
end

showpage

%%Trailer
%%EOF
