%!PS-Adobe-3.0 EPSF-3.0
%%Creator: MATLAB, The MathWorks, Inc. Version 8.1.0.604 (R2013a). Operating System: Microsoft Windows 7.
%%Title: .\Rolling_Confined_StressStain_Paired.eps
%%CreationDate: 08/17/2013  16:57:52
%%DocumentNeededFonts: Helvetica-Bold
%%+ Helvetica
%%DocumentProcessColors: Cyan Magenta Yellow Black
%%LanguageLevel: 2
%%Pages: 1
%%BoundingBox:    45    93   564   572
%%EndComments

%%BeginProlog
% MathWorks dictionary
/MathWorks 160 dict begin
% definition operators
/bdef {bind def} bind def
/ldef {load def} bind def
/xdef {exch def} bdef
/xstore {exch store} bdef
% operator abbreviations
/c  /clip ldef
/cc /concat ldef
/cp /closepath ldef
/gr /grestore ldef
/gs /gsave ldef
/mt /moveto ldef
/np /newpath ldef
/cm /currentmatrix ldef
/sm /setmatrix ldef
/rm /rmoveto ldef
/rl /rlineto ldef
/s {show newpath} bdef
/sc {setcmykcolor} bdef
/sr /setrgbcolor ldef
/sg /setgray ldef
/w /setlinewidth ldef
/j /setlinejoin ldef
/cap /setlinecap ldef
/rc {rectclip} bdef
/rf {rectfill} bdef
% page state control
/pgsv () def
/bpage {/pgsv save def} bdef
/epage {pgsv restore} bdef
/bplot /gsave ldef
/eplot {stroke grestore} bdef
% orientation switch
/portraitMode 0 def /landscapeMode 1 def /rotateMode 2 def
% coordinate system mappings
/dpi2point 0 def
% font control
/FontSize 0 def
/FMS {/FontSize xstore findfont [FontSize 0 0 FontSize neg 0 0]
  makefont setfont} bdef
/ISOLatin1Encoding where {pop /WindowsLatin1Encoding 256 array bdef
ISOLatin1Encoding WindowsLatin1Encoding copy pop
/.notdef/.notdef/quotesinglbase/florin/quotedblbase/ellipsis/dagger
/daggerdbl/circumflex/perthousand/Scaron/guilsinglleft/OE/.notdef/.notdef
/.notdef/.notdef/quoteleft/quoteright/quotedblleft/quotedblright/bullet
/endash/emdash/tilde/trademark/scaron/guilsinglright/oe/.notdef/.notdef
/Ydieresis WindowsLatin1Encoding 128 32 getinterval astore pop}
{/WindowsLatin1Encoding StandardEncoding bdef} ifelse
/reencode {exch dup where {pop load} {pop StandardEncoding} ifelse
  exch dup 3 1 roll findfont dup length dict begin
  { 1 index /FID ne {def}{pop pop} ifelse } forall
  /Encoding exch def currentdict end definefont pop} bdef
/isroman {findfont /CharStrings get /Agrave known} bdef
/FMSR {3 1 roll 1 index dup isroman {reencode} {pop pop} ifelse
  exch FMS} bdef
/csm {1 dpi2point div -1 dpi2point div scale neg translate
 dup landscapeMode eq {pop -90 rotate}
  {rotateMode eq {90 rotate} if} ifelse} bdef
% line types: solid, dotted, dashed, dotdash
/SO { [] 0 setdash } bdef
/DO { [.5 dpi2point mul 4 dpi2point mul] 0 setdash } bdef
/DA { [6 dpi2point mul] 0 setdash } bdef
/DD { [.5 dpi2point mul 4 dpi2point mul 6 dpi2point mul 4
  dpi2point mul] 0 setdash } bdef
% macros for lines and objects
/L {lineto stroke} bdef
/MP {3 1 roll moveto 1 sub {rlineto} repeat} bdef
/AP {{rlineto} repeat} bdef
/PDlw -1 def
/W {/PDlw currentlinewidth def setlinewidth} def
/PP {closepath eofill} bdef
/DP {closepath stroke} bdef
/MR {4 -2 roll moveto dup  0 exch rlineto exch 0 rlineto
  neg 0 exch rlineto closepath} bdef
/FR {MR stroke} bdef
/PR {MR fill} bdef
/L1i {{currentfile picstr readhexstring pop} image} bdef
/tMatrix matrix def
/MakeOval {newpath tMatrix currentmatrix pop translate scale
0 0 1 0 360 arc tMatrix setmatrix} bdef
/FO {MakeOval stroke} bdef
/PO {MakeOval fill} bdef
/PD {currentlinewidth 2 div 0 360 arc fill
   PDlw -1 eq not {PDlw w /PDlw -1 def} if} def
/FA {newpath tMatrix currentmatrix pop translate scale
  0 0 1 5 -2 roll arc tMatrix setmatrix stroke} bdef
/PA {newpath tMatrix currentmatrix pop	translate 0 0 moveto scale
  0 0 1 5 -2 roll arc closepath tMatrix setmatrix fill} bdef
/FAn {newpath tMatrix currentmatrix pop translate scale
  0 0 1 5 -2 roll arcn tMatrix setmatrix stroke} bdef
/PAn {newpath tMatrix currentmatrix pop translate 0 0 moveto scale
  0 0 1 5 -2 roll arcn closepath tMatrix setmatrix fill} bdef
/vradius 0 def /hradius 0 def /lry 0 def
/lrx 0 def /uly 0 def /ulx 0 def /rad 0 def
/MRR {/vradius xdef /hradius xdef /lry xdef /lrx xdef /uly xdef
  /ulx xdef newpath tMatrix currentmatrix pop ulx hradius add uly
  vradius add translate hradius vradius scale 0 0 1 180 270 arc 
  tMatrix setmatrix lrx hradius sub uly vradius add translate
  hradius vradius scale 0 0 1 270 360 arc tMatrix setmatrix
  lrx hradius sub lry vradius sub translate hradius vradius scale
  0 0 1 0 90 arc tMatrix setmatrix ulx hradius add lry vradius sub
  translate hradius vradius scale 0 0 1 90 180 arc tMatrix setmatrix
  closepath} bdef
/FRR {MRR stroke } bdef
/PRR {MRR fill } bdef
/MlrRR {/lry xdef /lrx xdef /uly xdef /ulx xdef /rad lry uly sub 2 div def
  newpath tMatrix currentmatrix pop ulx rad add uly rad add translate
  rad rad scale 0 0 1 90 270 arc tMatrix setmatrix lrx rad sub lry rad
  sub translate rad rad scale 0 0 1 270 90 arc tMatrix setmatrix
  closepath} bdef
/FlrRR {MlrRR stroke } bdef
/PlrRR {MlrRR fill } bdef
/MtbRR {/lry xdef /lrx xdef /uly xdef /ulx xdef /rad lrx ulx sub 2 div def
  newpath tMatrix currentmatrix pop ulx rad add uly rad add translate
  rad rad scale 0 0 1 180 360 arc tMatrix setmatrix lrx rad sub lry rad
  sub translate rad rad scale 0 0 1 0 180 arc tMatrix setmatrix
  closepath} bdef
/FtbRR {MtbRR stroke } bdef
/PtbRR {MtbRR fill } bdef
/stri 6 array def /dtri 6 array def
/smat 6 array def /dmat 6 array def
/tmat1 6 array def /tmat2 6 array def /dif 3 array def
/asub {/ind2 exch def /ind1 exch def dup dup
  ind1 get exch ind2 get sub exch } bdef
/tri_to_matrix {
  2 0 asub 3 1 asub 4 0 asub 5 1 asub
  dup 0 get exch 1 get 7 -1 roll astore } bdef
/compute_transform {
  dmat dtri tri_to_matrix tmat1 invertmatrix 
  smat stri tri_to_matrix tmat2 concatmatrix } bdef
/ds {stri astore pop} bdef
/dt {dtri astore pop} bdef
/db {2 copy /cols xdef /rows xdef mul dup 3 mul string
  currentfile 
  3 index 0 eq {/ASCIIHexDecode filter}
  {/ASCII85Decode filter 3 index 2 eq {/RunLengthDecode filter} if }
  ifelse exch readstring pop
  dup 0 3 index getinterval /rbmap xdef
  dup 2 index dup getinterval /gbmap xdef
  1 index dup 2 mul exch getinterval /bbmap xdef pop pop}bdef
/it {gs np dtri aload pop moveto lineto lineto cp c
  cols rows 8 compute_transform 
  rbmap gbmap bbmap true 3 colorimage gr}bdef
/il {newpath moveto lineto stroke}bdef
currentdict end def
%%EndProlog

%%BeginSetup
MathWorks begin

0 cap

end
%%EndSetup

%%Page: 1 1
%%BeginPageSetup
%%PageBoundingBox:    45    93   564   572
MathWorks begin
bpage
%%EndPageSetup

%%BeginObject: obj1
bplot

/dpi2point 8.33333 def
portraitMode 0150 5158 csm

  231   390  4325  3990 rc
84 dict begin %Colortable dictionary
/c0 { 0.000000 0.000000 0.000000 sr} bdef
/c1 { 1.000000 1.000000 1.000000 sr} bdef
/c2 { 0.900000 0.000000 0.000000 sr} bdef
/c3 { 0.000000 0.820000 0.000000 sr} bdef
/c4 { 0.000000 0.000000 0.800000 sr} bdef
/c5 { 0.910000 0.820000 0.320000 sr} bdef
/c6 { 1.000000 0.260000 0.820000 sr} bdef
/c7 { 0.000000 0.820000 0.820000 sr} bdef
c0
1 j
1 sg
   0    0 5001 5001 rf
12.5 w
0 3500 3750 0 0 -3500 750 4000 4 MP
PP
-3750 0 0 3500 3750 0 0 -3500 750 4000 5 MP stroke
gs 750 500 3751 3501 rc
16.6667 w
0 sg
-6 1 -5 1 -6 0 -6 3 -6 5 -6 6 -6 8 -6 8 
-6 8 -5 9 -6 5 -6 9 -6 10 -6 12 -6 8 -6 7 
-5 11 -6 14 -6 13 -6 15 -6 8 -6 13 -6 18 -6 19 
-5 21 -6 18 -6 13 -6 18 -6 18 -6 22 -6 22 -5 21 
-6 13 -6 20 -6 20 -6 29 -6 24 -6 30 -6 20 -5 28 
-6 30 -6 30 -6 29 -6 35 -6 29 -6 33 -6 31 -5 32 
-6 45 -6 49 -6 42 -6 39 -6 57 -6 60 -5 54 -6 56 
-6 62 -6 78 -6 67 -6 80 -6 87 -6 99 -5 86 -6 114 
-6 127 -6 75 -6 276 -6 -10 -6 390 -5 57 -6 414 11 -29 
12 -33 12 -27 12 -25 11 -27 12 -26 12 -28 12 -30 11 -29 
12 -28 12 -25 11 -25 12 -26 12 -26 12 -28 11 -26 12 -24 
12 -15 12 -36 11 -27 12 -24 12 -27 12 -25 11 -23 12 -24 
12 -24 12 -23 11 -26 12 -26 12 -24 11 -25 12 -22 12 -22 
12 -22 11 -22 12 -21 12 -23 12 -22 11 -23 12 -25 12 -20 
12 -33 11 -7 12 -22 12 -21 12 -19 11 -21 12 -22 12 -23 
11 -24 12 -18 12 -13 12 -19 11 -16 12 -16 12 -23 12 -21 
11 -22 12 -20 12 -21 12 -20 11 -16 12 -12 12 -13 12 -19 
11 -19 12 -25 12 -13 11 -26 12 -23 12 -2 12 -19 11 -5 
12 -20 12 -11 12 -29 11 -18 12 -16 12 -14 12 -18 11 -13 
12 -13 12 -14 12 -16 11 -13 12 -13 12 -14 11 -23 12 -13 
12 -11 12 -15 11 -12 12 -22 12 -15 12 -15 11 -15 12 -14 
12 -12 12 -11 11 -11 12 -13 12 -15 12 -16 11 -16 12 -16 
12 -19 11 -15 12 -12 12 -10 12 -8 11 -8 12 -9 12 -12 
12 -16 11 -18 12 -16 12 -12 12 -14 11 -14 12 -10 12 -9 
12 -8 11 -8 12 -10 12 -10 12 -11 11 -9 12 -11 12 -14 
11 -13 12 -13 12 -11 12 -7 11 -9 12 -13 12 -12 12 -8 
11 -8 12 -5 12 -8 12 -12 11 -14 12 -13 12 -13 12 -10 
11 -6 12 -9 12 -10 11 -9 12 -8 12 -7 12 -8 11 -6 
12 -8 12 -9 12 -12 11 -11 12 -11 12 -10 12 -9 11 -11 
12 -6 12 -9 12 -9 11 -8 12 -2 12 -5 11 -6 12 -6 
12 -7 12 -11 11 -11 12 -12 12 -12 12 -12 11 -11 12 -8 
12 -7 12 -6 11 -5 12 -3 12 -4 12 -3 11 -1 12 -4 
12 -5 11 -6 12 -11 12 -6 12 -7 11 -12 12 -10 12 -8 
12 -11 11 -3 12 -3 12 -3 12 -7 11 -5 12 -5 12 -6 
12 -8 11 -4 12 -3 12 -6 11 -5 12 -4 12 -5 12 -3 
11 -4 12 -4 12 -5 12 -2 11 -5 12 -2 12 -4 12 -4 
11 -6 12 -7 12 -8 12 -5 11 -1 12 -3 12 0 11 -4 
12 -2 12 -4 12 -4 1383 3896 300 MP stroke
11 -2 12 -2 12 2 12 -1 11 -4 12 -2 12 -2 12 -3 
11 -2 12 -3 12 -4 12 -3 11 -4 12 -2 12 -3 11 -3 
12 -3 12 -4 12 -3 11 -2 12 -3 12 -2 12 -3 11 -3 
12 -3 12 -3 12 -3 11 -2 12 -2 12 -1 12 -2 11 0 
12 -1 12 -1 11 -1 12 -1 12 -2 12 -2 11 -1 12 -2 
12 -2 12 -3 11 -1 12 -2 12 -3 12 -2 11 0 12 0 
12 0 12 0 11 0 12 -1 12 0 11 -1 750 3999 55 MP stroke
gr

16.6667 w
0 sg
0.1 sg
%%IncludeResource: font Helvetica-Bold
/Helvetica-Bold /WindowsLatin1Encoding 183.333 FMSR

2010 4322 mt 
(Vertical Strain) s
 424 3132 mt  -90 rotate
(Vertical Stress [kPa]) s
90 rotate
gs 750 500 3751 3501 rc
/c8 { 1.000000 0.000000 0.000000 sr} bdef
c8
-6 1 -6 1 -6 2 -6 4 -7 6 -6 5 -6 10 -6 6 
-6 9 -6 10 -6 5 -6 6 -6 9 -6 8 -6 9 -6 8 
-6 9 -6 14 -6 12 -6 11 -6 15 -6 17 -7 13 -6 10 
-6 12 -6 17 -6 19 -6 15 -6 20 -6 15 -6 19 -6 18 
-6 19 -6 18 -6 23 -6 25 -6 25 -6 17 -6 21 -6 28 
-7 27 -6 27 -6 29 -6 30 -6 29 -6 33 -6 33 -6 33 
-6 37 -6 39 -6 41 -6 38 -6 39 -6 48 -6 48 -6 52 
-6 55 -6 55 -7 52 -6 63 -6 69 -6 61 -6 70 -6 81 
-6 80 -6 84 -6 115 -6 109 -6 91 -6 226 -6 34 -6 344 
-6 86 -6 427 12 -30 12 -26 12 -29 12 -29 12 -29 12 -28 
12 -26 13 -25 12 -24 12 -26 12 -27 12 -27 12 -28 12 -27 
12 -25 12 -24 13 -24 12 -20 12 -20 12 -22 12 -24 12 -27 
12 -29 12 -24 12 -24 13 -21 12 -20 12 -22 12 -21 12 -19 
12 -24 12 -30 12 -24 12 -23 13 -22 12 -21 12 -19 12 -19 
12 -17 12 -20 12 -26 12 -25 12 -25 13 -24 12 -22 12 -18 
12 -16 12 -18 12 -15 12 -19 12 -20 12 -27 13 -27 12 -18 
12 -19 12 -15 12 -16 12 -16 12 -14 12 -18 12 -20 13 -22 
12 -25 12 -22 12 -13 12 -16 12 -14 12 -16 12 -16 12 -15 
13 -14 12 -15 12 -17 12 -26 12 -21 12 -13 12 -15 12 -23 
12 -19 13 -3 12 -13 12 -15 12 -18 12 -19 12 -21 12 -18 
12 -14 12 -14 13 -15 12 -10 12 -13 12 -13 12 -16 12 -16 
12 -20 12 -20 13 -20 12 -17 12 -13 12 -4 12 -11 12 -13 
12 -13 12 -15 12 -15 13 -14 12 -16 12 -16 12 -13 12 -10 
12 -10 12 -12 12 -11 12 -15 13 -16 12 -15 12 -15 12 -14 
12 -14 12 -11 12 -12 12 -11 12 -12 13 -9 12 -11 12 -10 
12 -11 12 -15 12 -15 12 -14 12 -12 12 -14 13 -14 12 -12 
12 -10 12 -7 12 -5 12 -7 12 -9 12 -10 12 -9 13 -11 
12 -14 12 -12 12 -15 12 -14 12 -10 12 -10 12 -10 12 -9 
13 -7 12 -3 12 -1 12 -6 12 -9 12 -13 12 -12 12 -7 
12 -9 13 -13 12 -8 12 -6 12 -9 12 -8 12 -9 12 -7 
12 -6 12 -6 13 -7 12 -9 12 -7 12 -5 12 -8 12 -9 
12 -10 12 -9 12 -6 13 -9 12 -9 12 -6 12 -7 12 -6 
12 -7 12 -5 12 -8 13 -5 12 -7 12 -7 12 -6 12 -6 
12 -6 12 -6 12 -8 12 -7 13 -6 12 -5 12 -3 12 -5 
12 -7 12 -8 12 -8 12 -5 12 -1 13 -4 12 -6 12 -6 
12 -5 12 -4 12 -4 12 -5 12 -5 12 -4 13 -2 12 -1 
12 -4 12 -4 12 -6 12 -4 12 -3 12 -5 12 -6 13 -4 
12 -4 12 -7 12 -7 1137 3897 300 MP stroke
12 -7 12 -7 12 -4 12 -4 12 -4 13 -3 12 -3 12 -3 
12 -2 12 -3 12 -1 12 -2 12 -1 12 -1 13 -2 12 -3 
12 -4 12 -4 12 -5 12 -4 12 -6 12 -5 12 -4 13 -4 
12 -2 12 -2 12 -2 12 -1 12 -3 12 -3 12 -2 12 0 
750 3998 33 MP stroke
/c9 { 0.000000 0.000000 1.000000 sr} bdef
c9
-6 1 -6 0 -5 1 -6 0 -6 2 -6 1 -5 2 -6 3 
-6 2 -6 4 -5 5 -6 5 -6 7 -6 5 -5 8 -6 9 
-6 7 -6 5 -5 9 -6 10 -6 8 -6 13 -5 6 -6 12 
-6 8 -6 9 -5 10 -6 11 -6 9 -6 9 -5 14 -6 12 
-6 12 -6 12 -5 12 -6 14 -6 13 -6 13 -5 17 -6 13 
-6 14 -6 18 -5 19 -6 17 -6 18 -6 18 -5 19 -6 18 
-6 23 -6 23 -5 23 -6 26 -6 25 -6 27 -6 29 -5 28 
-6 32 -6 32 -6 32 -5 38 -6 35 -6 41 -6 41 -5 45 
-6 51 -6 48 -6 53 -5 75 -6 69 -6 65 -6 100 -5 109 
-6 66 -6 198 -6 55 -5 256 -6 153 -6 260 -6 228 -5 453 
11 -24 12 -26 11 -25 12 -26 11 -25 12 -27 11 -24 12 -27 
11 -23 12 -25 11 -23 12 -25 11 -23 12 -24 11 -24 12 -23 
11 -24 12 -23 11 -24 12 -21 11 -25 12 -20 11 -24 12 -21 
11 -24 12 -23 11 -21 12 -22 11 -20 12 -21 11 -23 12 -21 
11 -22 12 -24 11 -20 12 -16 11 -19 12 -20 12 -23 11 -21 
12 -19 11 -18 12 -20 11 -16 12 -20 11 -21 12 -21 11 -19 
12 -18 11 -16 12 -17 11 -17 12 -16 11 -20 12 -22 11 -18 
12 -17 11 -18 12 -16 11 -16 12 -16 11 -17 12 -15 11 -16 
12 -19 11 -19 12 -19 11 -17 12 -16 11 -14 12 -13 11 -14 
12 -17 11 -16 12 -17 11 -17 12 -19 11 -20 12 -9 11 -12 
12 -13 11 -14 12 -16 11 -15 12 -15 11 -17 12 -17 12 -15 
11 -14 12 -12 11 -11 12 -12 11 -16 12 -15 11 -13 12 -17 
11 -17 12 -17 11 -15 12 -11 11 -11 12 -12 11 -12 12 -9 
11 -16 12 -16 11 -14 12 -15 11 -20 12 -10 11 -13 12 -11 
11 -9 12 -10 11 -11 12 -10 11 -14 12 -15 11 -15 12 -16 
11 -14 12 -14 11 -11 12 -9 11 -9 12 -7 11 -11 12 -12 
11 -14 12 -13 11 -14 12 -15 11 -15 12 -13 11 -7 12 -7 
12 -7 11 -6 12 -10 11 -12 12 -11 11 -12 12 -15 11 -14 
12 -16 11 -13 12 -6 11 -6 12 -6 11 -7 12 -9 11 -10 
12 -11 11 -10 12 -8 11 -8 12 -8 11 -7 12 -6 11 -8 
12 -9 11 -10 12 -11 11 -10 12 -11 11 -11 12 -9 11 -10 
12 -9 11 -6 12 -7 11 -6 12 -6 11 -7 12 -8 11 -7 
12 -8 11 -9 12 -10 11 -11 12 -9 11 -8 12 -9 11 -9 
12 -5 11 -6 12 -4 12 -6 11 -6 12 -6 11 -6 12 -6 
11 -7 12 -7 11 -8 12 -10 11 -11 12 -10 11 -8 12 -5 
11 -5 12 -6 11 -4 12 -5 11 -4 12 -5 11 -4 12 -4 
11 -4 12 -6 11 -7 12 -8 11 -9 12 -8 11 -7 12 -6 
11 -8 12 -6 11 -7 1498 3806 300 MP stroke
12 -5 11 -6 12 -4 11 -3 12 -2 11 -1 12 0 11 -1 
12 -2 11 -2 12 -4 11 -4 12 -7 11 -4 12 -3 11 -6 
12 -6 12 -7 11 -9 12 -6 11 -8 12 -6 11 -5 12 -3 
11 -3 12 -2 11 -2 12 -3 11 -2 12 -3 11 -2 12 -3 
11 -3 12 -3 11 -1 12 -2 11 -1 12 -3 11 -2 12 -3 
11 -6 12 -5 11 -6 12 -6 11 -5 12 -3 11 -3 12 -2 
11 -1 12 -2 11 0 12 0 11 -1 12 -1 11 -1 12 -1 
11 -1 12 0 11 -3 12 0 11 -1 12 0 11 -1 12 0 
11 -1 750 3998 66 MP stroke
/c10 { 1.000000 0.000000 1.000000 sr} bdef
c10
-5 1 -6 0 -5 0 -6 1 -5 0 -5 1 -6 -1 -5 1 
-6 2 -5 2 -5 4 -6 3 -5 5 -6 4 -5 4 -5 4 
-6 5 -5 5 -5 6 -6 7 -5 6 -6 7 -5 7 -5 7 
-6 8 -5 8 -6 9 -5 10 -5 12 -6 10 -5 11 -6 12 
-5 13 -5 13 -6 11 -5 13 -6 13 -5 14 -5 15 -6 15 
-5 18 -5 15 -6 19 -5 17 -6 19 -5 20 -5 21 -6 22 
-5 21 -6 23 -5 26 -5 27 -6 26 -5 30 -6 30 -5 34 
-5 35 -6 33 -5 41 -5 44 -6 44 -5 44 -6 57 -5 60 
-5 52 -6 78 -5 87 -6 58 -5 115 -5 120 -6 52 -5 235 
-6 39 -5 291 -5 126 -6 284 -5 201 -6 466 11 -24 11 -26 
11 -26 11 -25 10 -24 11 -24 11 -24 11 -24 11 -25 10 -23 
11 -23 11 -22 11 -24 10 -36 11 -8 11 -23 11 -24 11 -22 
10 -22 11 -22 11 -21 11 -22 10 -21 11 -21 11 -21 11 -21 
11 -20 10 -20 11 -21 11 -22 11 -21 10 -20 11 -20 11 -20 
11 -18 11 -18 10 -20 11 -20 11 -19 11 -19 10 -17 11 -18 
11 -17 11 -18 11 -20 10 -19 11 -18 11 -19 11 -16 10 -17 
11 -17 11 -18 11 -17 11 -18 10 -18 11 -17 11 -17 11 -16 
11 -15 10 -16 11 -18 11 -17 11 -16 10 -17 11 -20 11 -12 
11 -16 11 -14 10 -15 11 -16 11 -15 11 -16 10 -16 11 -15 
11 -15 11 -14 11 -14 10 -14 11 -13 11 -15 11 -15 10 -14 
11 -14 11 -14 11 -14 11 -13 10 -14 11 -12 11 -13 11 -13 
10 -13 11 -14 11 -12 11 -14 11 -13 10 -13 11 -12 11 -12 
11 -11 11 -12 10 -12 11 -12 11 -12 11 -13 10 -13 11 -12 
11 -11 11 -10 11 -10 10 -13 11 -11 11 -11 11 -11 10 -12 
11 -11 11 -11 11 -10 11 -12 10 -10 11 -10 11 -10 11 -11 
10 -10 11 -10 11 -10 11 -9 11 -11 10 -11 11 -10 11 -10 
11 -10 10 -9 11 -10 11 -9 11 -9 11 -10 10 -10 11 -10 
11 -10 11 -9 11 -10 10 -11 11 -8 11 -8 11 -8 10 -10 
11 -9 11 -9 11 -9 11 -9 10 -9 11 -9 11 -9 11 -8 
10 -8 11 -8 11 -8 11 -8 11 -7 10 -8 11 -8 11 -9 
11 -10 10 -10 11 -7 11 -9 11 -8 11 -7 10 -7 11 -7 
11 -6 11 -8 10 -8 11 -7 11 -9 11 -9 11 -8 10 -9 
11 -8 11 -7 11 -7 11 -6 10 -6 11 -7 11 -6 11 -6 
10 -7 11 -7 11 -8 11 -7 11 -7 10 -9 11 -6 11 -7 
11 -6 10 -6 11 -6 11 -5 11 -4 11 -6 10 -6 11 -6 
11 -6 11 -7 10 -7 11 -8 11 -8 11 -6 11 -5 10 -5 
11 -4 11 -4 11 -5 10 -5 11 -6 11 -5 11 -4 11 -6 
10 -6 11 -5 11 -6 2000 3604 300 MP stroke
11 -6 11 -6 10 -5 11 -3 11 -3 11 -4 10 -5 11 -6 
11 -5 11 -4 11 -4 10 -3 11 -4 11 -5 11 -7 10 -5 
11 -7 11 -6 11 -4 11 -4 10 -4 11 -3 11 -3 11 -4 
10 -3 11 -3 11 -4 11 -4 11 -4 10 -4 11 -5 11 -6 
11 -6 10 -7 11 -6 11 -6 11 -4 11 -3 10 -3 11 -3 
11 -3 11 -3 11 -2 10 -3 11 -2 11 -3 11 -2 10 -4 
11 -4 11 -5 11 -6 11 -6 10 -5 11 -4 11 -5 11 -4 
10 -4 11 -4 11 -4 11 -3 11 -3 10 -2 11 -1 11 -2 
11 -1 10 -2 11 -1 11 -2 11 -3 11 -3 10 -4 11 -4 
11 -6 11 -3 10 -3 11 -4 11 -3 11 -4 11 -4 10 -5 
11 -4 11 -4 11 -4 11 -3 10 -3 11 -3 11 -2 11 -1 
10 -1 11 -1 11 -1 11 -1 11 -1 10 -1 11 -2 11 -2 
11 -3 10 -2 11 -3 11 -4 11 -4 11 -1 10 -6 11 -3 
11 -2 11 -3 10 -2 11 -2 11 -1 11 -2 11 -1 10 -2 
11 0 11 -1 11 -1 10 -1 750 3999 117 MP stroke
gr

c10
0 sg
%%IncludeResource: font Helvetica
/Helvetica /WindowsLatin1Encoding 83.3333 FMSR

 732 4037 mt 
( ) s
4483  536 mt 
( ) s
8.33333 w
DO
SO
12.5 w
0.1 sg
 750  500 mt 4500  500 L
 750 4000 mt 4500 4000 L
4500 4000 mt 4500  500 L
 750 4000 mt  750  500 L
 750 4000 mt 4500 4000 L
 750 4000 mt  750  500 L
 750 4000 mt  750 3943 L
 750  500 mt  750  556 L
%%IncludeResource: font Helvetica
/Helvetica /WindowsLatin1Encoding 133.333 FMSR

 713 4148 mt 
(0) s
1166 4000 mt 1166 3943 L
1166  500 mt 1166  556 L
1037 4148 mt 
(0.05) s
1583 4000 mt 1583 3943 L
1583  500 mt 1583  556 L
1491 4148 mt 
(0.1) s
2000 4000 mt 2000 3943 L
2000  500 mt 2000  556 L
1871 4148 mt 
(0.15) s
2416 4000 mt 2416 3943 L
2416  500 mt 2416  556 L
2324 4148 mt 
(0.2) s
2833 4000 mt 2833 3943 L
2833  500 mt 2833  556 L
2704 4148 mt 
(0.25) s
3250 4000 mt 3250 3943 L
3250  500 mt 3250  556 L
3158 4148 mt 
(0.3) s
3666 4000 mt 3666 3943 L
3666  500 mt 3666  556 L
3537 4148 mt 
(0.35) s
4083 4000 mt 4083 3943 L
4083  500 mt 4083  556 L
3991 4148 mt 
(0.4) s
 750 4000 mt  806 4000 L
4500 4000 mt 4443 4000 L
 652 4049 mt 
(0) s
 750 3681 mt  806 3681 L
4500 3681 mt 4443 3681 L
 578 3730 mt 
(10) s
 750 3363 mt  806 3363 L
4500 3363 mt 4443 3363 L
 578 3412 mt 
(20) s
 750 3045 mt  806 3045 L
4500 3045 mt 4443 3045 L
 578 3094 mt 
(30) s
 750 2727 mt  806 2727 L
4500 2727 mt 4443 2727 L
 578 2776 mt 
(40) s
 750 2409 mt  806 2409 L
4500 2409 mt 4443 2409 L
 578 2458 mt 
(50) s
 750 2090 mt  806 2090 L
4500 2090 mt 4443 2090 L
 578 2139 mt 
(60) s
 750 1772 mt  806 1772 L
4500 1772 mt 4443 1772 L
 578 1821 mt 
(70) s
 750 1454 mt  806 1454 L
4500 1454 mt 4443 1454 L
 578 1503 mt 
(80) s
 750 1136 mt  806 1136 L
4500 1136 mt 4443 1136 L
 578 1185 mt 
(90) s
 750  818 mt  806  818 L
4500  818 mt 4443  818 L
 504  867 mt 
(100) s
 750  500 mt  806  500 L
4500  500 mt 4443  500 L
 504  549 mt 
(110) s
 750  500 mt 4500  500 L
 750 4000 mt 4500 4000 L
4500 4000 mt 4500  500 L
 750 4000 mt  750  500 L
0 sg
%%IncludeResource: font Symbol
/Symbol /WindowsLatin1Encoding 125 FMSR

2447  770 mt 
(m) s
%%IncludeResource: font Helvetica-Bold
/Helvetica-Bold /WindowsLatin1Encoding 100 FMSR

2519  832 mt 
(r) s
%%IncludeResource: font Helvetica-Bold
/Helvetica-Bold /WindowsLatin1Encoding 125 FMSR

2557  770 mt 
(  =  0.0) s
gs 2122 623 1007 922 rc
16.6667 w
250 0 2171 749 2 MP stroke
gr

16.6667 w
%%IncludeResource: font Symbol
/Symbol /WindowsLatin1Encoding 125 FMSR

2447  993 mt 
(m) s
%%IncludeResource: font Helvetica-Bold
/Helvetica-Bold /WindowsLatin1Encoding 100 FMSR

2519 1055 mt 
(r) s
%%IncludeResource: font Helvetica-Bold
/Helvetica-Bold /WindowsLatin1Encoding 125 FMSR

2557  993 mt 
(  =  0.025) s
gs 2122 623 1007 922 rc
c8
250 0 2171 972 2 MP stroke
gr

c8
0 sg
%%IncludeResource: font Symbol
/Symbol /WindowsLatin1Encoding 125 FMSR

2447 1217 mt 
(m) s
%%IncludeResource: font Helvetica-Bold
/Helvetica-Bold /WindowsLatin1Encoding 100 FMSR

2519 1279 mt 
(r) s
%%IncludeResource: font Helvetica-Bold
/Helvetica-Bold /WindowsLatin1Encoding 125 FMSR

2557 1217 mt 
(  =  0.1) s
gs 2122 623 1007 922 rc
c9
250 0 2171 1194 2 MP stroke
gr

c9
0 sg
%%IncludeResource: font Symbol
/Symbol /WindowsLatin1Encoding 125 FMSR

2447 1440 mt 
(m) s
%%IncludeResource: font Helvetica-Bold
/Helvetica-Bold /WindowsLatin1Encoding 100 FMSR

2519 1502 mt 
(r) s
%%IncludeResource: font Helvetica-Bold
/Helvetica-Bold /WindowsLatin1Encoding 125 FMSR

2557 1440 mt 
(  =  0.5) s
gs 2122 623 1007 922 rc
c10
250 0 2171 1417 2 MP stroke
12.5 w
gr

12.5 w
c10

end %%Color Dict

eplot
%%EndObject

epage
end

showpage

%%Trailer
%%EOF
