%!PS-Adobe-3.0 EPSF-3.0
%%Creator: MATLAB, The MathWorks, Inc. Version 8.1.0.604 (R2013a). Operating System: Microsoft Windows 7.
%%Title: .\Rolling_UC_StressStain_Spherical.eps
%%CreationDate: 08/17/2013  16:57:50
%%DocumentNeededFonts: Helvetica-Bold
%%+ Helvetica
%%DocumentProcessColors: Cyan Magenta Yellow Black
%%LanguageLevel: 2
%%Pages: 1
%%BoundingBox:    54    93   564   572
%%EndComments

%%BeginProlog
% MathWorks dictionary
/MathWorks 160 dict begin
% definition operators
/bdef {bind def} bind def
/ldef {load def} bind def
/xdef {exch def} bdef
/xstore {exch store} bdef
% operator abbreviations
/c  /clip ldef
/cc /concat ldef
/cp /closepath ldef
/gr /grestore ldef
/gs /gsave ldef
/mt /moveto ldef
/np /newpath ldef
/cm /currentmatrix ldef
/sm /setmatrix ldef
/rm /rmoveto ldef
/rl /rlineto ldef
/s {show newpath} bdef
/sc {setcmykcolor} bdef
/sr /setrgbcolor ldef
/sg /setgray ldef
/w /setlinewidth ldef
/j /setlinejoin ldef
/cap /setlinecap ldef
/rc {rectclip} bdef
/rf {rectfill} bdef
% page state control
/pgsv () def
/bpage {/pgsv save def} bdef
/epage {pgsv restore} bdef
/bplot /gsave ldef
/eplot {stroke grestore} bdef
% orientation switch
/portraitMode 0 def /landscapeMode 1 def /rotateMode 2 def
% coordinate system mappings
/dpi2point 0 def
% font control
/FontSize 0 def
/FMS {/FontSize xstore findfont [FontSize 0 0 FontSize neg 0 0]
  makefont setfont} bdef
/ISOLatin1Encoding where {pop /WindowsLatin1Encoding 256 array bdef
ISOLatin1Encoding WindowsLatin1Encoding copy pop
/.notdef/.notdef/quotesinglbase/florin/quotedblbase/ellipsis/dagger
/daggerdbl/circumflex/perthousand/Scaron/guilsinglleft/OE/.notdef/.notdef
/.notdef/.notdef/quoteleft/quoteright/quotedblleft/quotedblright/bullet
/endash/emdash/tilde/trademark/scaron/guilsinglright/oe/.notdef/.notdef
/Ydieresis WindowsLatin1Encoding 128 32 getinterval astore pop}
{/WindowsLatin1Encoding StandardEncoding bdef} ifelse
/reencode {exch dup where {pop load} {pop StandardEncoding} ifelse
  exch dup 3 1 roll findfont dup length dict begin
  { 1 index /FID ne {def}{pop pop} ifelse } forall
  /Encoding exch def currentdict end definefont pop} bdef
/isroman {findfont /CharStrings get /Agrave known} bdef
/FMSR {3 1 roll 1 index dup isroman {reencode} {pop pop} ifelse
  exch FMS} bdef
/csm {1 dpi2point div -1 dpi2point div scale neg translate
 dup landscapeMode eq {pop -90 rotate}
  {rotateMode eq {90 rotate} if} ifelse} bdef
% line types: solid, dotted, dashed, dotdash
/SO { [] 0 setdash } bdef
/DO { [.5 dpi2point mul 4 dpi2point mul] 0 setdash } bdef
/DA { [6 dpi2point mul] 0 setdash } bdef
/DD { [.5 dpi2point mul 4 dpi2point mul 6 dpi2point mul 4
  dpi2point mul] 0 setdash } bdef
% macros for lines and objects
/L {lineto stroke} bdef
/MP {3 1 roll moveto 1 sub {rlineto} repeat} bdef
/AP {{rlineto} repeat} bdef
/PDlw -1 def
/W {/PDlw currentlinewidth def setlinewidth} def
/PP {closepath eofill} bdef
/DP {closepath stroke} bdef
/MR {4 -2 roll moveto dup  0 exch rlineto exch 0 rlineto
  neg 0 exch rlineto closepath} bdef
/FR {MR stroke} bdef
/PR {MR fill} bdef
/L1i {{currentfile picstr readhexstring pop} image} bdef
/tMatrix matrix def
/MakeOval {newpath tMatrix currentmatrix pop translate scale
0 0 1 0 360 arc tMatrix setmatrix} bdef
/FO {MakeOval stroke} bdef
/PO {MakeOval fill} bdef
/PD {currentlinewidth 2 div 0 360 arc fill
   PDlw -1 eq not {PDlw w /PDlw -1 def} if} def
/FA {newpath tMatrix currentmatrix pop translate scale
  0 0 1 5 -2 roll arc tMatrix setmatrix stroke} bdef
/PA {newpath tMatrix currentmatrix pop	translate 0 0 moveto scale
  0 0 1 5 -2 roll arc closepath tMatrix setmatrix fill} bdef
/FAn {newpath tMatrix currentmatrix pop translate scale
  0 0 1 5 -2 roll arcn tMatrix setmatrix stroke} bdef
/PAn {newpath tMatrix currentmatrix pop translate 0 0 moveto scale
  0 0 1 5 -2 roll arcn closepath tMatrix setmatrix fill} bdef
/vradius 0 def /hradius 0 def /lry 0 def
/lrx 0 def /uly 0 def /ulx 0 def /rad 0 def
/MRR {/vradius xdef /hradius xdef /lry xdef /lrx xdef /uly xdef
  /ulx xdef newpath tMatrix currentmatrix pop ulx hradius add uly
  vradius add translate hradius vradius scale 0 0 1 180 270 arc 
  tMatrix setmatrix lrx hradius sub uly vradius add translate
  hradius vradius scale 0 0 1 270 360 arc tMatrix setmatrix
  lrx hradius sub lry vradius sub translate hradius vradius scale
  0 0 1 0 90 arc tMatrix setmatrix ulx hradius add lry vradius sub
  translate hradius vradius scale 0 0 1 90 180 arc tMatrix setmatrix
  closepath} bdef
/FRR {MRR stroke } bdef
/PRR {MRR fill } bdef
/MlrRR {/lry xdef /lrx xdef /uly xdef /ulx xdef /rad lry uly sub 2 div def
  newpath tMatrix currentmatrix pop ulx rad add uly rad add translate
  rad rad scale 0 0 1 90 270 arc tMatrix setmatrix lrx rad sub lry rad
  sub translate rad rad scale 0 0 1 270 90 arc tMatrix setmatrix
  closepath} bdef
/FlrRR {MlrRR stroke } bdef
/PlrRR {MlrRR fill } bdef
/MtbRR {/lry xdef /lrx xdef /uly xdef /ulx xdef /rad lrx ulx sub 2 div def
  newpath tMatrix currentmatrix pop ulx rad add uly rad add translate
  rad rad scale 0 0 1 180 360 arc tMatrix setmatrix lrx rad sub lry rad
  sub translate rad rad scale 0 0 1 0 180 arc tMatrix setmatrix
  closepath} bdef
/FtbRR {MtbRR stroke } bdef
/PtbRR {MtbRR fill } bdef
/stri 6 array def /dtri 6 array def
/smat 6 array def /dmat 6 array def
/tmat1 6 array def /tmat2 6 array def /dif 3 array def
/asub {/ind2 exch def /ind1 exch def dup dup
  ind1 get exch ind2 get sub exch } bdef
/tri_to_matrix {
  2 0 asub 3 1 asub 4 0 asub 5 1 asub
  dup 0 get exch 1 get 7 -1 roll astore } bdef
/compute_transform {
  dmat dtri tri_to_matrix tmat1 invertmatrix 
  smat stri tri_to_matrix tmat2 concatmatrix } bdef
/ds {stri astore pop} bdef
/dt {dtri astore pop} bdef
/db {2 copy /cols xdef /rows xdef mul dup 3 mul string
  currentfile 
  3 index 0 eq {/ASCIIHexDecode filter}
  {/ASCII85Decode filter 3 index 2 eq {/RunLengthDecode filter} if }
  ifelse exch readstring pop
  dup 0 3 index getinterval /rbmap xdef
  dup 2 index dup getinterval /gbmap xdef
  1 index dup 2 mul exch getinterval /bbmap xdef pop pop}bdef
/it {gs np dtri aload pop moveto lineto lineto cp c
  cols rows 8 compute_transform 
  rbmap gbmap bbmap true 3 colorimage gr}bdef
/il {newpath moveto lineto stroke}bdef
currentdict end def
%%EndProlog

%%BeginSetup
MathWorks begin

0 cap

end
%%EndSetup

%%Page: 1 1
%%BeginPageSetup
%%PageBoundingBox:    54    93   564   572
MathWorks begin
bpage
%%EndPageSetup

%%BeginObject: obj1
bplot

/dpi2point 8.33333 def
portraitMode 0150 5158 csm

  305   390  4251  3990 rc
84 dict begin %Colortable dictionary
/c0 { 0.000000 0.000000 0.000000 sr} bdef
/c1 { 1.000000 1.000000 1.000000 sr} bdef
/c2 { 0.900000 0.000000 0.000000 sr} bdef
/c3 { 0.000000 0.820000 0.000000 sr} bdef
/c4 { 0.000000 0.000000 0.800000 sr} bdef
/c5 { 0.910000 0.820000 0.320000 sr} bdef
/c6 { 1.000000 0.260000 0.820000 sr} bdef
/c7 { 0.000000 0.820000 0.820000 sr} bdef
c0
1 j
1 sg
   0    0 5001 5001 rf
12.5 w
0 3500 3750 0 0 -3500 750 4000 4 MP
PP
-3750 0 0 3500 3750 0 0 -3500 750 4000 5 MP stroke
gs 750 500 3751 3501 rc
16.6667 w
0 sg
2 27 1 8 2 -3 2 -10 2 -2 1 6 2 1 2 -9 
2 -10 1 -7 2 -3 2 -8 1 -10 2 -13 2 0 2 -5 
1 -15 2 12 2 16 2 53 1 34 2 13 2 22 2 3 
1 23 2 25 2 15 2 -12 1 17 2 -2 2 0 2 1 
1 -15 2 -3 2 -6 2 10 1 17 2 24 2 2 2 2 
1 0 2 -5 2 -3 2 1 1 -16 2 -7 2 7 2 -9 
1 -5 2 10 2 -4 2 -4 1 -6 2 0 2 -6 1 -10 
2 2 2 0 2 -19 1 -1 2 8 2 -9 2 -15 1 -9 
2 6 2 0 2 5 1 6 2 6 2 13 2 26 1 13 
2 -2 2 -11 2 -2 1 9 2 6 2 0 2 -5 1 -5 
2 -1 2 -8 2 -10 1 -2 2 -2 2 -9 2 -6 1 -11 
2 -11 2 -9 2 11 1 0 2 -18 2 7 2 -19 1 3 
2 0 2 3 1 3 2 -2 2 -14 2 12 1 12 2 -7 
2 8 2 4 1 -13 2 -7 2 7 2 -1 1 -12 2 11 
2 12 2 8 1 -2 2 12 2 6 2 18 1 9 2 -3 
2 21 2 -5 1 -3 2 -5 2 -4 2 -9 1 -11 2 2 
2 22 2 6 1 -5 2 0 2 1 2 -5 1 -3 2 9 
2 6 2 -9 1 -1 2 6 2 -2 1 13 2 7 2 -6 
2 -2 1 -3 2 -9 2 1 2 -9 1 2 2 -4 2 1 
2 -1 1 -6 2 -9 2 -9 2 2 1 -6 2 -12 2 4 
2 -6 1 -11 2 0 2 -12 2 -5 1 6 2 -1 2 -7 
2 0 1 -4 2 -4 2 5 2 0 1 -12 2 -10 2 -4 
2 -15 1 25 2 -7 2 19 2 39 1 8 2 33 2 17 
1 24 2 9 2 4 2 3 1 -11 2 -1 2 3 2 2 
1 -7 2 -2 2 -3 2 -10 1 -6 2 -11 2 -13 2 -1 
1 -3 2 -8 2 -15 2 -6 1 21 2 27 2 17 2 -4 
1 4 2 -6 2 -1 2 7 1 -2 2 5 2 -1 2 -19 
1 6 2 12 2 -5 2 19 1 11 2 3 2 15 2 6 
1 -6 2 23 2 6 1 12 2 -1 2 0 2 2 1 4 
2 -1 2 7 2 0 1 -1 2 -8 2 -7 2 -3 1 5 
2 -11 2 -12 2 8 1 -5 2 2 2 -1 2 0 1 -6 
2 -6 2 -6 2 -13 1 -1 2 -1 2 5 2 5 1 -7 
2 -9 2 -4 2 -22 1 -5 2 -3 2 -3 2 -7 1 -3 
2 -2 2 -10 2 14 1 23 2 12 2 16 1 2 2 14 
2 -1 2 0 1 -2 2 -10 2 -3 2 11 1 -5 2 -7 
2 -14 2 -8 1 -4 2 1 2 -1 2 -8 1 -16 2 -10 
2 2 2 12 1 10 2 12 2 2 2 1 1 -9 2 -2 
2 -1 2 -16 1 10 3176 1014 300 MP stroke
2 1 2 -15 2 21 1 2 2 8 2 5 2 0 1 -5 
2 -4 2 -11 2 -4 1 7 2 -14 2 4 1 14 2 17 
2 2 2 -5 1 -3 2 -8 2 -2 2 -5 1 1 2 19 
2 10 2 6 1 -16 2 -2 2 -2 2 -8 1 11 2 -8 
2 -6 2 -2 1 -10 2 -10 2 0 2 1 1 1 2 13 
2 24 2 8 1 6 2 -10 2 8 2 1 1 4 2 -19 
2 5 2 5 1 -3 2 15 2 -3 2 6 1 -5 2 -16 
2 8 1 -12 2 -3 2 -1 2 -13 1 -21 2 19 2 -2 
2 -21 1 1 2 11 2 -1 2 3 1 -6 2 7 2 2 
2 2 1 15 2 -6 2 -5 2 -5 1 -3 2 -6 2 4 
2 -6 1 -6 2 -11 2 2 2 -16 1 -4 2 -2 2 -7 
2 5 1 4 2 -3 2 3 2 0 1 -2 2 -14 2 7 
2 17 1 5 2 -3 2 -7 1 2 2 -16 2 -13 2 -6 
1 0 2 -3 2 5 2 20 1 36 2 24 2 -6 2 5 
1 11 2 2 2 4 2 0 1 -6 2 -8 2 -7 2 -2 
1 -1 2 3 2 -3 2 4 1 9 2 -9 2 0 2 3 
1 -10 2 -4 2 1 2 -6 1 0 2 0 2 -7 2 0 
1 1 2 -6 2 -3 2 -10 1 -9 2 -7 2 -16 1 -12 
2 -6 2 -12 2 -17 1 16 2 -4 2 19 2 5 1 5 
2 35 2 2 2 7 1 4 2 -3 2 -15 2 -4 1 -6 
2 -5 2 -7 2 2 1 -17 2 -2 2 41 2 5 1 6 
2 15 2 -8 2 3 1 -3 2 2 2 14 2 2 1 -18 
2 -4 2 19 2 17 1 13 2 7 2 5 2 -3 1 -1 
2 5 2 -10 1 -6 2 1 2 4 2 -9 1 4 2 1 
2 -7 2 -9 1 -4 2 -17 2 4 2 -13 1 -5 2 -9 
2 -21 2 1 1 -22 2 8 2 -6 2 10 1 21 2 10 
2 4 2 4 1 14 2 7 2 5 2 6 1 6 2 2 
2 -8 2 4 1 -8 2 -10 2 8 2 -3 1 1 2 0 
2 0 2 0 1 -6 2 -8 2 -10 1 3 2 -9 2 -4 
2 4 1 -10 2 -13 2 -5 2 -15 1 -11 2 -6 2 -15 
2 40 1 27 2 14 2 26 2 1 1 -7 2 3 2 2 
2 -8 1 -6 2 -6 2 -10 2 -8 1 -13 2 1 2 2 
2 2 1 -4 2 9 2 8 2 -6 1 -3 2 -11 2 3 
2 3 1 -4 2 -13 2 -9 2 -15 1 -9 2 -11 2 -5 
1 -12 2 -8 2 -12 2 16 1 14 2 10 2 19 2 5 
1 1 2 16 2 1 2 3 1 18 2 4 2 -8 2 -3 
1 -13 2 -15 2 -1 2 -7 1 -15 2 6 2 -1 2 14 
1 7 2 -4 2 -3 2654 1104 300 MP stroke
2 1 1 1 2 -10 2 -3 2 -3 1 -9 2 3 2 -5 
2 -11 1 9 2 -11 2 -13 2 0 1 -7 2 -14 2 15 
1 -8 2 0 2 -2 2 1 1 -3 2 13 2 3 2 3 
1 -3 2 -20 2 -5 2 15 1 -14 2 39 2 23 2 10 
1 19 2 38 2 2 2 -1 1 -9 2 -9 2 -6 2 0 
1 -3 2 -7 2 -4 2 5 1 0 2 10 2 -3 2 9 
1 -2 2 2 2 -8 2 -6 1 -4 2 -13 2 -14 2 0 
1 -7 2 -6 2 -22 1 -5 2 13 2 -5 2 -8 1 8 
2 8 2 -11 2 -4 1 16 2 5 2 -15 2 12 1 9 
2 5 2 -19 2 -5 1 -4 2 7 2 -1 2 5 1 4 
2 4 2 -3 2 -9 1 -9 2 -7 2 -12 2 -14 1 -14 
2 1 2 -7 2 -16 1 4 2 16 2 -4 2 23 1 29 
2 7 2 17 2 13 1 1 2 -12 2 15 1 -7 2 -4 
2 -12 2 -12 1 -6 2 -7 2 -9 2 -14 1 5 2 -7 
2 0 2 -8 1 -7 2 4 2 19 2 9 1 -2 2 13 
2 2 2 -2 1 0 2 -11 2 1 2 -5 1 -3 2 8 
2 10 2 -6 1 -8 2 0 2 -12 2 -1 1 3 2 -1 
2 -6 2 2 1 -10 2 -10 2 -2 2 11 1 -14 2 -14 
2 22 1 12 2 -3 2 -1 2 5 1 13 2 14 2 -5 
2 -3 1 8 2 5 2 -8 2 -1 1 5 2 8 2 -6 
2 -8 1 13 2 -4 2 -10 2 -4 1 -9 2 -18 2 0 
2 -7 1 -12 2 -6 2 -5 2 4 1 19 2 4 2 -5 
2 -11 1 5 2 4 2 9 2 6 1 1 2 -2 2 -15 
2 6 1 -6 2 -6 2 0 1 -1 2 -4 2 0 2 10 
1 -4 2 -10 2 -6 2 -12 1 1 2 1 2 14 2 1 
1 8 2 4 2 2 2 -9 1 -7 2 -15 2 7 2 0 
1 -19 2 18 2 -2 2 -8 1 -7 2 -4 2 -1 2 -1 
1 -9 2 6 2 -1 2 3 1 -21 2 -9 2 6 2 -5 
1 -5 2 -11 2 3 2 7 1 -4 2 6 2 13 1 -8 
2 0 2 7 2 6 1 0 2 -18 2 -14 2 -11 1 0 
2 -16 2 -23 2 15 1 -4 2 -1 2 27 2 -5 1 13 
2 28 2 29 2 -4 1 2 2 -6 2 -15 2 -3 1 -5 
2 -12 2 -15 2 -3 1 -19 2 3 2 3 2 -13 1 18 
2 -11 2 20 2 33 1 7 2 -1 2 -5 2 -1 1 -4 
2 -2 2 -4 1 0 2 -8 2 -6 2 -11 1 9 2 -15 
2 20 2 14 1 25 2 11 2 5 2 2 1 -13 2 -6 
2 -8 2 -5 1 -14 2 -6 2 1 2 1 1 -7 2 -9 
2 -6 2 -4 1 -6 2133 1328 300 MP stroke
2 -12 2 2 2 -6 1 -15 2 2 2 -12 2 3 1 -4 
2 -3 2 5 2 5 1 24 2 23 2 11 2 0 1 8 
2 -11 2 3 1 2 2 -9 2 -8 2 -9 1 -8 2 -5 
2 -26 2 -3 1 3 2 -13 2 17 2 1 1 4 2 -5 
2 -10 2 7 1 -9 2 -4 2 -4 2 -2 1 -1 2 -6 
2 -11 2 -2 1 -9 2 -11 2 -8 2 4 1 -5 2 19 
2 23 2 0 1 3 2 5 2 1 2 -14 1 11 2 0 
2 11 2 0 1 -8 2 -12 2 -14 1 -1 2 -2 2 0 
2 2 1 -3 2 12 2 13 2 -1 1 7 2 -11 2 -3 
2 -5 1 -10 2 -15 2 -10 2 -12 1 -13 2 -2 2 2 
2 -18 1 12 2 19 2 31 2 19 1 0 2 1 2 -8 
2 -3 1 -7 2 -6 2 15 2 8 1 -12 2 -6 2 2 
2 -8 1 -17 2 -2 2 -14 2 0 1 2 2 -1 2 12 
1 -2 2 -12 2 -11 2 -1 1 17 2 -20 2 15 2 17 
1 -10 2 -7 2 -1 2 -8 1 -10 2 -12 2 -6 2 -2 
1 -17 2 -14 2 11 2 8 1 20 2 -3 2 9 2 12 
1 1 2 -9 2 7 2 -6 1 -11 2 -6 2 -1 2 -7 
1 1 2 -8 2 -7 2 -12 1 -9 2 -11 2 3 2 -13 
1 -12 2 1 2 5 1 -10 2 -3 2 12 2 16 1 -9 
2 6 2 11 2 -2 1 -2 2 3 2 -4 2 -22 1 1 
2 8 2 1 2 4 1 -1 2 4 2 -6 2 -5 1 13 
2 -1 2 -5 2 -9 1 -6 2 -2 2 -7 2 -12 1 -16 
2 -5 2 -5 2 6 1 -18 2 11 2 4 2 1 1 18 
2 3 2 2 2 -13 1 -5 2 1 2 -7 1 6 2 3 
2 -13 2 -16 1 -5 2 7 2 -5 2 -17 1 0 2 -7 
2 0 2 14 1 3 2 -1 2 12 2 2 1 2 2 -3 
2 1 2 -3 1 -3 2 -10 2 1 2 2 1 -7 2 4 
2 -6 2 2 1 -5 2 -11 2 -8 2 -6 1 2 2 -9 
2 -6 2 -1 1 -6 2 -4 2 4 2 -13 1 -3 2 -1 
2 -4 1 -3 2 16 2 -3 2 4 1 -2 2 -7 2 -2 
2 0 1 3 2 6 2 -10 2 -11 1 -15 2 -3 2 -1 
2 -2 1 0 2 2 2 -5 2 -10 1 2 2 -2 2 -1 
2 -5 1 -7 2 -5 2 -1 2 5 1 1 2 0 2 19 
2 1 1 -8 2 -7 2 -4 2 -10 1 -12 2 -13 2 -6 
2 -11 1 5 2 11 2 -2 1 1 2 -13 2 -1 2 4 
1 -2 2 -14 2 -3 2 29 1 13 2 8 2 -9 2 -13 
1 0 2 -12 2 -21 2 0 1 3 2 -17 2 -18 2 4 
1 16 2 1 2 4 1611 1855 300 MP stroke
2 -11 1 -8 2 3 2 -7 2 6 1 -9 2 -11 2 -3 
2 9 1 -7 2 -3 2 11 2 -1 1 -4 2 -3 2 -4 
2 -7 1 -6 2 1 2 0 1 -2 2 -8 2 -9 2 5 
1 -17 2 -11 2 2 2 -9 1 11 2 7 2 -3 2 1 
1 -4 2 -12 2 -12 2 0 1 -4 2 5 2 -2 2 -5 
1 -11 2 2 2 -5 2 4 1 -5 2 -4 2 -5 2 -13 
1 -7 2 -9 2 -14 2 -28 1 22 2 5 2 -4 2 6 
1 25 2 -7 2 4 2 11 1 -11 2 -6 2 0 1 -10 
2 -5 2 4 2 -8 1 -8 2 -2 2 -4 2 -12 1 -9 
2 -1 2 -6 2 -2 1 15 2 8 2 1 2 -4 1 3 
2 -7 2 -10 2 -10 1 -7 2 -11 2 7 2 -9 1 -6 
2 -13 2 -7 2 6 1 1 2 3 2 8 2 -4 1 -3 
2 2 2 -1 2 -8 1 -4 2 -9 2 -5 2 -9 1 -3 
2 -10 2 -14 1 -11 2 -6 2 -22 2 1 1 -2 2 -5 
2 -4 2 12 1 16 2 15 2 -1 2 8 1 1 2 -17 
2 1 2 -2 1 4 2 4 2 -7 2 -5 1 -6 2 -10 
2 0 2 -5 1 -5 2 -12 2 -10 2 6 1 -8 2 -6 
2 -1 2 -7 1 3 2 -2 2 -1 2 18 1 -2 2 -7 
2 -1 2 -7 1 -5 2 -12 2 -10 1 0 2 -7 2 -8 
2 16 1 -4 2 -12 2 -3 2 -7 1 -23 2 5 2 8 
2 -4 1 16 2 -4 2 -6 2 5 1 -9 2 -7 2 -6 
2 -9 1 -1 2 -3 2 -6 2 -14 1 0 2 -1 2 -7 
2 0 1 0 2 -8 2 -3 2 -4 1 -10 2 -15 2 0 
2 0 1 6 2 -7 2 -12 2 -2 1 3 2 -8 2 -9 
1 -12 2 -7 2 -12 2 1 1 -5 2 7 2 -9 2 -18 
1 4 2 7 2 -5 2 0 1 1 2 1 2 -8 2 0 
1 -9 2 1 2 0 2 -6 1 -17 2 -7 2 -1 2 3 
1 -12 2 -10 2 -7 2 -5 1 -1 2 -11 2 -5 2 7 
1 -5 2 -5 2 -10 2 -9 1 -5 2 -5 2 -12 2 10 
1 -5 2 -8 2 -9 1 -3 2 -5 2 -9 2 -6 1 -18 
2 -8 2 8 2 4 1 -6 2 -6 2 0 2 -16 1 -9 
2 1 2 1 2 -8 1 -12 2 -9 2 -16 2 -4 1 -2 
2 5 2 0 2 -6 1 2 2 -5 2 -7 2 0 1 -1 
2 -12 2 1 2 4 1 -10 2 -8 2 -9 2 -8 1 -7 
2 -2 2 -16 2 -6 1 -1 2 -8 2 1 1 -9 2 -13 
2 1 2 -14 1 -5 2 -3 2 -5 2 4 1 -16 2 0 
2 3 2 -6 1 -19 2 -15 2 2 2 6 1 0 2 -2 
2 -4 2 -6 1 -11 1090 2985 300 MP stroke
2 -8 2 -9 2 -7 1 -2 2 -8 2 -12 2 2 1 -5 
2 -9 2 -6 2 -9 1 -10 2 -9 2 -11 2 -11 1 -7 
2 -14 2 3 2 0 1 -9 2 -8 2 5 1 -5 2 -4 
2 -10 2 -8 1 -2 2 -9 2 -13 2 -5 1 -4 2 -6 
2 -9 2 -4 1 -14 2 -12 2 -6 2 1 1 -4 2 -12 
2 -3 2 4 1 -6 2 -18 2 -4 2 0 1 -5 2 -7 
2 -8 2 -6 1 -9 2 -5 2 -4 2 -5 1 -4 2 -7 
2 -8 2 -10 1 -8 2 -10 2 -8 2 -10 1 -6 2 0 
2 -7 1 -2 2 -12 2 -9 2 -1 1 -8 2 -10 2 -8 
2 -9 1 -4 2 -8 2 -9 2 -11 1 -4 2 -9 2 -4 
2 -8 1 -10 2 -6 2 -3 2 -9 1 -12 2 -11 2 -3 
2 -5 1 -3 2 -9 2 -10 2 -7 1 -6 2 -8 2 -11 
2 -11 1 -9 2 -6 2 -5 2 -3 1 -9 2 -13 2 -10 
2 -2 1 -1 2 -4 2 -7 1 -10 2 -8 2 -7 2 -5 
1 -6 2 -1 2 -5 2 -7 1 -10 2 -5 2 -2 2 -5 
1 -5 2 -4 2 -7 2 -6 1 -8 2 -4 2 -5 2 -5 
1 -3 2 -3 2 -5 2 -6 1 -5 2 -6 2 -3 2 -1 
1 -5 2 -4 2 -4 2 -4 1 -4 2 -4 2 -4 2 -3 
1 -2 2 -2 2 -3 2 -4 1 -3 2 0 2 -2 1 -2 
2 -2 2 -4 2 2 1 -3 2 -3 2 -2 2 -2 1 -2 
2 -3 2 -3 2 -3 1 0 2 -3 2 0 2 -3 1 -2 
2 -2 2 -2 2 -2 1 -3 2 -3 2 -3 2 -2 1 1 
2 -1 2 -3 2 -2 1 -3 2 -1 2 -2 2 -2 1 -2 
2 -1 2 -2 2 -2 1 -2 2 -2 2 -2 2 -1 1 -1 
2 -1 2 -2 1 -1 750 3997 196 MP stroke
gr

16.6667 w
0 sg
0.1 sg
%%IncludeResource: font Helvetica-Bold
/Helvetica-Bold /WindowsLatin1Encoding 183.333 FMSR

2010 4322 mt 
(Vertical Strain) s
 498 3132 mt  -90 rotate
(Vertical Stress [kPa]) s
90 rotate
gs 750 500 3751 3501 rc
/c8 { 1.000000 0.000000 0.000000 sr} bdef
c8
2 -6 2 -11 1 -12 2 -6 2 -7 2 -7 1 -13 2 8 
2 7 2 1 1 4 2 3 2 -6 2 -14 1 -3 2 -5 
2 -5 1 -7 2 -14 2 11 2 8 1 -4 2 -19 2 12 
2 -5 1 -3 2 2 2 0 2 0 1 -6 2 9 2 -5 
2 -6 1 -1 2 17 2 17 1 -5 2 -11 2 10 2 -7 
1 -7 2 1 2 13 2 12 1 7 2 -4 2 -1 2 -5 
1 -5 2 -7 2 -7 1 -3 2 -4 2 1 2 -6 1 11 
2 -13 2 -9 2 6 1 12 2 -5 2 2 2 43 1 28 
2 -3 2 -4 2 -1 1 1 2 4 2 -2 1 -2 2 -1 
2 -11 2 3 1 -9 2 -18 2 -6 2 -3 1 -12 2 -11 
2 16 2 29 1 10 2 0 2 -4 1 -2 2 -2 2 -11 
2 -3 1 -6 2 -10 2 -5 2 -7 1 -5 2 -4 2 -10 
2 -9 1 -4 2 -8 2 -2 2 -10 1 14 2 27 2 15 
1 8 2 -7 2 2 2 2 1 -2 2 -13 2 -5 2 2 
1 -11 2 -16 2 15 2 -3 1 -1 2 -13 2 -3 1 20 
2 0 2 17 2 16 1 18 2 12 2 0 2 6 1 13 
2 0 2 -4 2 -11 1 -8 2 -2 2 -1 2 -7 1 -12 
2 -3 2 -8 1 -13 2 -12 2 -7 2 4 1 -9 2 -10 
2 10 2 15 1 20 2 10 2 -4 2 10 1 -2 2 9 
2 12 1 -16 2 12 2 1 2 -4 1 3 2 -4 2 -4 
2 6 1 0 2 -8 2 1 2 -1 1 -9 2 -9 2 -17 
2 -8 1 -6 2 -3 2 -7 1 0 2 -30 2 -13 2 4 
1 30 2 28 2 31 2 22 1 10 2 1 2 10 2 13 
1 -3 2 0 2 -6 1 -8 2 -9 2 -9 2 -14 1 1 
2 -8 2 -9 2 -9 1 -4 2 -15 2 -14 2 16 1 -3 
2 -8 2 24 2 17 1 12 2 14 2 -8 1 -8 2 -11 
2 27 2 2 1 -2 2 4 2 1 2 0 1 -8 2 -9 
2 5 2 3 1 -15 2 5 2 6 1 -5 2 -10 2 -1 
2 -11 1 -2 2 10 2 5 2 -7 1 19 2 5 2 4 
2 12 1 -6 2 9 2 -6 2 0 1 0 2 6 2 -4 
1 8 2 -6 2 -8 2 -5 1 -11 2 -10 2 -7 2 -12 
1 -2 2 13 2 -15 2 -10 1 0 2 -2 2 24 1 10 
2 2 2 9 2 -10 1 -4 2 -9 2 0 2 13 1 -18 
2 -5 2 10 2 5 1 -4 2 2 2 5 2 7 1 15 
2 4 2 -13 1 -8 2 -6 2 -3 2 -4 1 -18 2 3 
2 -15 2 -11 1 17 2 2 2 -4 2 0 1 26 2 8 
2 21 1 -1 2 -15 2 23 2 -7 1 -8 2 18 2 -11 
2 -6 1 3 2 25 3212 962 300 MP stroke
2 -2 2 -1 1 -8 2 -12 2 1 2 -6 1 0 2 -11 
2 13 1 0 2 -13 2 -6 2 -1 1 -8 2 12 2 4 
2 -2 1 4 2 -7 2 0 2 -5 1 -18 2 -4 2 -7 
1 1 2 8 2 1 2 5 1 -5 2 -11 2 -6 2 -2 
1 3 2 -7 2 -1 2 -8 1 -10 2 4 2 -18 2 1 
1 4 2 -10 2 33 1 27 2 17 2 6 2 3 1 -11 
2 10 2 10 2 -1 1 7 2 -3 2 0 2 -2 1 -8 
2 -5 2 2 1 3 2 -9 2 6 2 -1 1 -8 2 4 
2 6 2 -7 1 -11 2 -5 2 9 2 -5 1 24 2 7 
2 6 2 -10 1 2 2 -12 2 -6 1 -10 2 -12 2 3 
2 -24 1 -1 2 2 2 -20 2 3 1 -3 2 4 2 8 
2 -2 1 8 2 19 2 22 1 9 2 15 2 -1 2 17 
1 -8 2 -7 2 -10 2 -16 1 5 2 0 2 11 2 4 
1 11 2 -5 2 1 2 -3 1 -8 2 3 2 2 1 -5 
2 -18 2 1 2 4 1 0 2 -7 2 1 2 -11 1 2 
2 0 2 -6 2 -7 1 -4 2 1 2 2 1 6 2 -7 
2 -11 2 -12 1 -8 2 -23 2 -4 2 6 1 -14 2 -13 
2 28 2 6 1 13 2 34 2 23 2 21 1 27 2 16 
2 14 1 8 2 8 2 -2 2 7 1 -10 2 6 2 -5 
2 -3 1 -1 2 -14 2 7 2 -10 1 13 2 12 2 -2 
1 -4 2 -11 2 -4 2 -15 1 -10 2 3 2 16 2 -13 
1 2 2 -7 2 -3 2 -11 1 10 2 -3 2 -6 2 11 
1 15 2 0 2 4 1 -13 2 2 2 -5 2 -8 1 6 
2 -9 2 -13 2 -7 1 -4 2 -7 2 -14 2 -12 1 3 
2 0 2 -5 1 -12 2 25 2 20 2 6 1 -1 2 9 
2 -5 2 23 1 -6 2 -12 2 19 2 6 1 4 2 0 
2 -5 2 -9 1 -8 2 1 2 0 1 -3 2 -11 2 -12 
2 -2 1 -8 2 1 2 15 2 4 1 -1 2 -3 2 3 
2 -5 1 8 2 -9 2 0 1 8 2 -12 2 -3 2 4 
1 7 2 -6 2 3 2 0 1 -17 2 -2 2 -4 2 -23 
1 16 2 6 2 14 2 2 1 0 2 -3 2 4 1 -7 
2 -5 2 -14 2 -8 1 -4 2 -1 2 -4 2 15 1 8 
2 7 2 11 2 4 1 -4 2 -1 2 -7 1 -11 2 -6 
2 -7 2 -11 1 9 2 4 2 -15 2 -16 1 16 2 2 
2 1 2 17 1 0 2 3 2 -7 2 -2 1 7 2 -8 
2 -12 1 -8 2 -1 2 -4 2 -9 1 -7 2 -9 2 -1 
2 5 1 -11 2 -2 2 -2 2 -22 1 4 2 17 2 5 
1 8 2 -3 2 3 2693 1095 300 MP stroke
2 -1 1 -21 2 -9 2 13 2 -10 1 -6 2 -4 2 -2 
2 -3 1 -4 2 3 2 -20 2 -19 1 1 2 12 2 -4 
1 25 2 16 2 38 2 25 1 10 2 13 2 -8 2 -10 
1 15 2 1 2 12 2 4 1 -8 2 -7 2 -3 1 -3 
2 -5 2 -14 2 -1 1 -4 2 -8 2 -13 2 -3 1 0 
2 2 2 -1 2 2 1 -3 2 -5 2 -7 2 0 1 -6 
2 -10 2 -6 1 -5 2 -1 2 3 2 -3 1 24 2 5 
2 -1 2 -16 1 5 2 1 2 -18 2 2 1 13 2 -4 
2 -16 1 25 2 5 2 -3 2 -7 1 -4 2 -6 2 -14 
2 -2 1 -12 2 -3 2 0 2 -15 1 -1 2 -4 2 -1 
2 -9 1 22 2 -2 2 -3 1 9 2 0 2 -17 2 0 
1 10 2 -3 2 6 2 -5 1 7 2 -19 2 -13 2 31 
1 24 2 -1 2 12 1 16 2 -11 2 2 2 2 1 4 
2 -7 2 0 2 -13 1 -1 2 6 2 -9 2 -10 1 -10 
2 -3 2 -2 2 -15 1 4 2 0 2 -9 1 -7 2 -10 
2 18 2 -13 1 -10 2 8 2 10 2 18 1 1 2 -4 
2 16 2 2 1 -4 2 -1 2 9 1 -4 2 -9 2 -4 
2 -2 1 -7 2 -7 2 -8 2 0 1 -17 2 -9 2 -7 
2 -4 1 -8 2 -14 2 -14 2 9 1 20 2 6 2 4 
1 10 2 13 2 -6 2 0 1 9 2 1 2 0 2 6 
1 10 2 -20 2 1 2 9 1 2 2 -4 2 -4 1 -22 
2 2 2 -27 2 16 1 1 2 -8 2 13 2 -4 1 -4 
2 6 2 1 2 -3 1 1 2 11 2 4 2 0 1 0 
2 -3 2 -1 1 -5 2 -9 2 -10 2 0 1 -19 2 -13 
2 10 2 -8 1 -5 2 18 2 17 2 0 1 -1 2 3 
2 0 1 -11 2 -4 2 2 2 -6 1 -15 2 1 2 -3 
2 -11 1 2 2 -4 2 0 2 -4 1 -11 2 1 2 -1 
2 1 1 5 2 1 2 23 1 18 2 6 2 -3 2 -11 
1 -13 2 -3 2 -14 2 -17 1 -7 2 11 2 1 2 -9 
1 5 2 -7 2 -21 1 6 2 16 2 5 2 10 1 15 
2 7 2 10 2 -5 1 -4 2 -7 2 -5 2 -8 1 -14 
2 -8 2 -4 2 -15 1 0 2 8 2 6 1 0 2 13 
2 10 2 -10 1 -7 2 -4 2 -2 2 -1 1 -19 2 -8 
2 15 2 -7 1 -6 2 5 2 7 1 -4 2 19 2 13 
2 1 1 -2 2 -8 2 -10 2 -4 1 -6 2 -14 2 -17 
2 8 1 21 2 -3 2 5 2 4 1 4 2 -16 2 4 
1 0 2 3 2 -9 2 -4 1 -6 2 -6 2 -6 2 2 
1 0 2 11 2 0 2174 1364 300 MP stroke
2 -1 1 -11 2 3 2 -8 1 -4 2 6 2 -13 2 6 
1 3 2 -1 2 -6 2 36 1 -10 2 9 2 3 2 7 
1 -22 2 -7 2 4 2 -12 1 -10 2 -7 2 -15 1 -14 
2 3 2 -10 2 10 1 -14 2 -11 2 3 2 8 1 -11 
2 6 2 24 2 17 1 22 2 1 2 -1 1 -11 2 8 
2 -3 2 -7 1 1 2 -1 2 9 2 3 1 7 2 -3 
2 -13 2 -14 1 -7 2 -2 2 -5 2 -5 1 -3 2 -17 
2 6 1 -3 2 -10 2 -10 2 -9 1 -10 2 -9 2 -18 
2 10 1 21 2 -5 2 21 2 -5 1 -1 2 -9 2 -9 
1 -12 2 -10 2 -1 2 11 1 -3 2 22 2 4 2 -8 
1 -2 2 -15 2 4 2 -15 1 -5 2 11 2 -19 2 22 
1 8 2 -6 2 -7 1 8 2 -3 2 -7 2 -6 1 -4 
2 -10 2 -2 2 4 1 -8 2 -11 2 3 2 -13 1 -14 
2 4 2 -11 1 -13 2 -4 2 -4 2 -25 1 -17 2 12 
2 15 2 -1 1 -2 2 -4 2 -1 2 -9 1 6 2 17 
2 23 2 4 1 13 2 -5 2 -10 1 32 2 6 2 11 
2 -7 1 -10 2 9 2 1 2 6 1 -8 2 -11 2 -8 
2 -9 1 -6 2 -5 2 -1 1 -1 2 -7 2 2 2 -14 
1 -2 2 1 2 3 2 -1 1 6 2 0 2 -5 2 -8 
1 -10 2 -6 2 -9 2 -14 1 -6 2 7 2 -10 1 1 
2 6 2 15 2 -2 1 28 2 -7 2 -13 2 1 1 -5 
2 -18 2 -7 2 11 1 -16 2 3 2 -6 1 3 2 -6 
2 5 2 0 1 -1 2 -11 2 -6 2 -11 1 -1 2 -3 
2 -8 2 -20 1 -6 2 0 2 -3 2 -5 1 3 2 19 
2 25 1 6 2 4 2 5 2 -1 1 -4 2 -5 2 -10 
2 -12 1 -3 2 -15 2 -11 2 -12 1 5 2 18 2 9 
1 4 2 4 2 -5 2 -19 1 2 2 7 2 -17 2 -18 
1 11 2 -4 2 15 2 15 1 14 2 3 2 -3 2 1 
1 -1 2 9 2 -5 1 -7 2 -4 2 -3 2 -10 1 -7 
2 -6 2 -10 2 -8 1 -11 2 -2 2 -4 2 -12 1 -11 
2 -6 2 -20 1 6 2 -5 2 -1 2 -2 1 6 2 2 
2 3 2 18 1 4 2 1 2 -4 2 1 1 -4 2 -13 
2 -12 2 -2 1 -21 2 9 2 13 1 9 2 6 2 1 
2 8 1 0 2 8 2 -3 2 -6 1 -3 2 -4 2 5 
2 2 1 -7 2 -6 2 -5 1 -9 2 -18 2 -4 2 0 
1 -12 2 -2 2 -8 2 -4 1 -6 2 -17 2 -8 2 9 
1 9 2 2 2 1 2 4 1 5 2 1 2 0 1 -9 
2 -19 2 4 2 -6 1655 1906 300 MP stroke
1 -2 2 8 2 -1 2 -6 1 -8 2 -4 2 4 2 5 
1 -11 2 -15 2 -2 1 -2 2 -10 2 3 2 2 1 -5 
2 -1 2 -6 2 -5 1 -8 2 13 2 -4 2 12 1 5 
2 2 2 -6 2 -5 1 -8 2 1 2 3 1 -5 2 -4 
2 -9 2 -4 1 -7 2 -16 2 -8 2 0 1 -3 2 11 
2 2 2 -14 1 -6 2 -11 2 2 1 11 2 -5 2 8 
2 -16 1 8 2 5 2 -9 2 -4 1 -12 2 -4 2 -8 
2 -13 1 -3 2 -12 2 -7 2 10 1 4 2 -3 2 18 
1 -6 2 9 2 0 2 -1 1 0 2 -1 2 -11 2 -1 
1 6 2 -12 2 -6 2 -11 1 0 2 -1 2 -16 1 -9 
2 -8 2 17 2 8 1 -3 2 -2 2 5 2 -5 1 -10 
2 5 2 -12 2 7 1 -4 2 -2 2 -6 2 -6 1 -6 
2 -17 2 -3 1 1 2 0 2 -2 2 -4 1 -6 2 -10 
2 -9 2 -11 1 3 2 -14 2 -1 2 5 1 -4 2 -7 
2 -17 1 19 2 10 2 -10 2 -11 1 -4 2 1 2 -13 
2 -7 1 1 2 -6 2 -15 2 14 1 10 2 -12 2 -11 
2 8 1 4 2 1 2 -15 1 -1 2 -10 2 -6 2 7 
1 4 2 -1 2 -2 2 12 1 -8 2 -8 2 -7 2 -7 
1 -12 2 -10 2 -11 1 8 2 -11 2 7 2 -5 1 -13 
2 19 2 -2 2 -8 1 2 2 1 2 3 2 -3 1 -3 
2 -9 2 -6 2 -21 1 -8 2 1 2 -10 1 -1 2 4 
2 -6 2 11 1 1 2 -4 2 -8 2 -5 1 -3 2 4 
2 -7 2 -2 1 -9 2 -3 2 -13 1 -5 2 -6 2 -7 
2 -14 1 0 2 -5 2 -1 2 -9 1 2 2 -18 2 2 
2 9 1 -1 2 0 2 -5 2 -1 1 -12 2 -11 2 -1 
1 -15 2 -7 2 -16 2 -3 1 9 2 -5 2 0 2 -3 
1 -10 2 -5 2 5 2 -4 1 -16 2 -8 2 -12 1 -16 
2 9 2 1 2 -9 1 -1 2 6 2 -5 2 9 1 2 
2 -11 2 -17 2 3 1 -14 2 9 2 -10 2 7 1 10 
2 -2 2 -12 1 2 2 -1 2 -4 2 0 1 -8 2 -14 
2 2 2 -12 1 -8 2 -6 2 -13 2 -6 1 2 2 1 
2 -3 1 -8 2 -1 2 -2 2 1 1 -3 2 -6 2 -9 
2 -16 1 -8 2 -8 2 -4 2 -16 1 3 2 6 2 2 
2 -6 1 -10 2 -6 2 -4 1 -8 2 -13 2 -2 2 6 
1 -5 2 -9 2 -10 2 -6 1 -12 2 -5 2 -5 2 -1 
1 2 2 -1 2 -16 1 -10 2 7 2 -10 2 -4 1 0 
2 -3 2 -8 2 -10 1 -14 2 -1 2 3 2 -14 1 -4 
2 -4 2 -12 2 -1 1136 2981 300 MP stroke
1 -16 2 -12 2 -4 1 -6 2 -6 2 -6 2 -5 1 3 
2 1 2 0 2 -8 1 -7 2 -6 2 -4 2 -9 1 -11 
2 -1 2 -4 1 -10 2 -12 2 -3 2 -3 1 -8 2 -12 
2 -2 2 -6 1 -5 2 -13 2 2 2 -4 1 -10 2 -7 
2 -7 2 -10 1 -15 2 -3 2 -6 1 -1 2 -1 2 -3 
2 -11 1 -7 2 -3 2 -6 2 -7 1 -5 2 -8 2 -6 
2 -7 1 -12 2 -10 2 -5 1 -3 2 -6 2 -6 2 -6 
1 -12 2 -10 2 -9 2 -1 1 -9 2 -8 2 -14 2 -13 
1 -2 2 8 2 -13 2 -17 1 -4 2 3 2 -6 1 -12 
2 -11 2 -4 2 -4 1 -4 2 -11 2 -10 2 -4 1 -7 
2 -5 2 -2 2 -6 1 -7 2 -8 2 -10 1 -7 2 -6 
2 -7 2 -4 1 -7 2 -7 2 -7 2 -3 1 -5 2 -7 
2 -6 2 -10 1 -6 2 -8 2 -5 2 -3 1 -5 2 -11 
2 -11 1 -3 2 0 2 -6 2 -8 1 -6 2 -5 2 -3 
2 -7 1 -9 2 -6 2 -5 2 0 1 -6 2 -8 2 -6 
1 -8 2 -5 2 -3 2 -5 1 -5 2 -10 2 -6 2 -5 
1 1 2 -3 2 -5 2 -6 1 -7 2 -3 2 -6 2 -4 
1 -4 2 -3 2 -6 1 -6 2 -1 2 -5 2 -5 1 -6 
2 -3 2 -2 2 -4 1 -6 2 -4 2 -5 2 -4 1 -5 
2 -4 2 -3 1 -3 2 -2 2 -3 2 -2 1 -3 2 -1 
2 -2 2 -2 1 -3 2 -4 2 -2 2 -3 1 -1 2 -2 
2 -1 2 -2 1 -2 2 -3 2 -2 1 -2 2 -2 2 -2 
2 0 1 -2 2 -2 2 -3 2 -3 1 -2 2 -2 2 -1 
2 -2 1 -1 2 -2 2 -2 1 -2 2 -2 2 -1 2 0 
1 -1 2 -1 2 -2 2 -1 1 -2 2 3 2 3 2 3 
1 -2 2 -1 2 -2 2 0 1 0 2 -1 2 -1 1 -1 
2 -1 2 -1 2 -1 1 -1 2 -1 2 -1 2 -1 1 -1 
2 -1 2 -1 2 -1 1 -1 2 -1 2 -1 1 -1 750 3997 224 MP stroke
/c9 { 0.000000 0.000000 1.000000 sr} bdef
c9
2 -22 1 4 2 25 2 7 1 -1 2 1 2 -1 2 -11 
1 -5 2 -3 2 -12 1 -6 2 -11 2 -21 2 -6 1 5 
2 -7 2 6 2 29 1 8 2 -15 2 -17 1 16 2 23 
2 -29 2 11 1 41 2 24 2 -12 1 8 2 18 2 7 
2 -11 1 -4 2 -6 2 1 2 -8 1 -13 2 4 2 -14 
1 -15 2 3 2 1 2 7 1 -14 2 12 2 26 2 15 
1 6 2 -2 2 3 1 14 2 14 2 4 2 -2 1 -12 
2 0 2 4 1 8 2 -3 2 -7 2 2 1 -8 2 -5 
2 5 2 -7 1 -2 2 1 2 1 1 -5 2 -3 2 3 
2 0 1 -7 2 -11 2 -14 1 12 2 2 2 -11 2 -7 
1 26 2 -8 2 11 2 16 1 8 2 7 2 -4 1 10 
2 7 2 -7 2 -6 1 -5 2 -4 2 -8 1 -4 2 -6 
2 -3 2 -10 1 0 2 -5 2 -6 2 9 1 -1 2 -12 
2 3 1 -3 2 -17 2 2 2 -14 1 -2 2 4 2 -4 
1 5 2 -14 2 4 2 14 1 3 2 -10 2 -9 2 -8 
1 -5 2 -17 2 0 1 17 2 21 2 28 2 5 1 1 
2 16 2 6 2 16 1 13 2 4 2 -3 1 -3 2 -7 
2 -11 2 -9 1 -8 2 -3 2 7 1 -4 2 -2 2 5 
2 4 1 34 2 1 2 -3 2 8 1 -6 2 -12 2 0 
1 -7 2 0 2 1 2 -16 1 -5 2 5 2 -22 1 10 
2 -1 2 6 2 6 1 1 2 5 2 15 2 2 1 -1 
2 -10 2 -6 1 -4 2 -11 2 -12 2 -11 1 -7 2 -13 
2 10 1 -16 2 -3 2 7 2 11 1 16 2 -8 2 -18 
2 -3 1 12 2 -13 2 1 1 41 2 16 2 -15 2 3 
1 11 2 -8 2 -15 2 -1 1 -1 2 1 2 -8 1 -5 
2 1 2 8 2 -10 1 5 2 17 2 20 1 -2 2 -4 
2 11 2 -3 1 8 2 6 2 4 2 -11 1 7 2 13 
2 -4 1 8 2 0 2 12 2 -11 1 2 2 3 2 -3 
1 0 2 -10 2 -10 2 -8 1 -10 2 9 2 -4 2 10 
1 -1 2 10 2 6 1 -6 2 -11 2 -8 2 -4 1 -11 
2 -10 2 -5 1 3 2 -22 2 1 2 25 1 14 2 7 
2 0 2 1 1 -11 2 19 2 4 1 -4 2 -8 2 7 
2 -6 1 -13 2 9 2 -4 1 -9 2 -2 2 -2 2 -8 
1 -7 2 -5 2 -8 2 0 1 -3 2 0 2 4 1 -1 
2 -13 2 -7 2 3 1 -16 2 -8 2 -3 2 -18 1 -7 
2 0 2 -6 1 -8 2 31 2 47 2 25 1 15 2 4 
2 -10 1 -4 2 -4 2 -12 2 -14 1 13 2 -5 2 -2 
2 -6 1 23 2 -3 3184 916 300 MP stroke
2 -10 1 6 2 1 2 12 2 -4 1 10 2 -4 2 -9 
1 -4 2 2 2 -12 2 -2 1 0 2 1 2 2 2 -6 
1 -8 2 3 2 -10 1 -8 2 -3 2 -16 2 1 1 -14 
2 12 2 25 1 -6 2 8 2 28 2 -7 1 2 2 18 
2 11 2 6 1 6 2 4 2 -14 1 10 2 9 2 -2 
2 -8 1 -5 2 -4 2 -6 2 -9 1 -8 2 -3 2 -6 
1 -6 2 -6 2 -8 2 -5 1 1 2 -9 2 -3 1 4 
2 -5 2 -8 2 3 1 -3 2 -7 2 -2 2 -13 1 -1 
2 -9 2 -23 1 2 2 -7 2 0 2 -8 1 -3 2 -12 
2 -10 1 4 2 11 2 23 2 7 1 37 2 32 2 23 
2 15 1 -2 2 -7 2 16 1 2 2 -1 2 0 2 18 
1 -5 2 -1 2 15 1 -1 2 -11 2 12 2 1 1 17 
2 2 2 -4 2 -14 1 -7 2 -1 2 -4 1 -12 2 2 
2 -8 2 -10 1 -8 2 -9 2 -11 1 -16 2 9 2 -5 
2 -5 1 -13 2 8 2 3 2 10 1 20 2 28 2 4 
1 12 2 5 2 -4 2 -12 1 -7 2 -9 2 -3 2 -15 
1 3 2 13 2 1 1 16 2 -1 2 -6 2 3 1 7 
2 13 2 13 1 -6 2 0 2 5 2 1 1 -5 2 -11 
2 -9 2 -7 1 -10 2 -26 2 8 1 -1 2 -20 2 23 
2 19 1 20 2 -9 2 9 1 18 2 -28 2 16 2 11 
1 4 2 -2 2 -15 2 -3 1 10 2 -10 2 4 1 -5 
2 -6 2 4 2 -12 1 -1 2 -7 2 -9 1 -7 2 -18 
2 2 2 -7 1 -11 2 11 2 -4 2 -17 1 41 2 32 
2 2 1 21 2 7 2 6 2 -8 1 -7 2 2 2 -3 
1 -7 2 -3 2 1 2 -14 1 -1 2 -12 2 -9 2 1 
1 -1 2 -8 2 3 1 -3 2 7 2 -13 2 -5 1 14 
2 -22 2 10 2 14 1 12 2 2 2 -7 1 1 2 0 
2 4 2 -7 1 -12 2 -1 2 -11 1 3 2 0 2 0 
2 -15 1 -18 2 34 2 13 2 12 1 16 2 8 2 -1 
1 2 2 -2 2 -3 2 -5 1 -18 2 -3 2 4 1 -9 
2 -9 2 5 2 -1 1 -14 2 -4 2 0 2 -9 1 -4 
2 -1 2 -10 1 0 2 3 2 -20 2 15 1 4 2 -2 
2 16 1 4 2 1 2 6 2 -5 1 -4 2 -3 2 -5 
2 -2 1 -13 2 12 2 -7 1 -3 2 7 2 2 2 -9 
1 -4 2 0 2 -1 2 -9 1 6 2 -1 2 -3 1 -1 
2 -12 2 -8 2 -3 1 -4 2 -11 2 3 1 -20 2 -2 
2 22 2 10 1 10 2 7 2 0 2 3 1 -6 2 -8 
2 7 1 -3 2 -6 2669 1013 300 MP stroke
2 4 2 -7 1 7 2 13 2 17 1 8 2 -2 2 -1 
2 1 1 -4 2 -15 2 1 2 1 1 5 2 -17 2 -3 
1 8 2 -10 2 -2 2 -6 1 -6 2 -10 2 -3 1 -9 
2 -2 2 -17 2 5 1 15 2 5 2 2 2 33 1 4 
2 6 2 11 1 -1 2 -10 2 2 2 6 1 7 2 20 
2 -7 1 -3 2 -4 2 -15 2 -2 1 -11 2 -4 2 2 
2 8 1 3 2 0 2 -13 1 0 2 -7 2 -2 2 3 
1 4 2 -5 2 -10 2 2 1 -12 2 -8 2 7 1 7 
2 16 2 19 2 5 1 -1 2 0 2 -9 1 5 2 -2 
2 -6 2 -4 1 6 2 -6 2 -1 2 2 1 -8 2 -5 
2 -6 1 2 2 -18 2 -3 2 2 1 -7 2 -2 2 -3 
1 -3 2 0 2 18 2 0 1 15 2 3 2 -1 2 -5 
1 6 2 -10 2 -6 1 9 2 -1 2 12 2 8 1 5 
2 -12 2 -4 1 8 2 -3 2 -13 2 14 1 0 2 -8 
2 -1 2 4 1 -12 2 -8 2 5 1 4 2 -4 2 0 
2 -10 1 2 2 6 2 -5 2 10 1 -10 2 -7 2 -8 
1 -3 2 -4 2 2 2 -6 1 3 2 -1 2 -13 1 -12 
2 2 2 -17 2 -9 1 -7 2 -7 2 -17 2 -7 1 0 
2 -12 2 5 1 15 2 23 2 6 2 -9 1 2 2 1 
2 11 1 -3 2 7 2 15 2 -3 1 0 2 -5 2 -2 
2 -4 1 -9 2 24 2 -11 1 -6 2 5 2 -1 2 -6 
1 0 2 -1 2 -29 1 12 2 20 2 -6 2 6 1 2 
2 -13 2 5 2 0 1 2 2 -1 2 -7 1 0 2 -3 
2 -9 2 1 1 -7 2 -9 2 -13 1 -3 2 -3 2 11 
2 -1 1 3 2 -12 2 -3 2 -1 1 5 2 8 2 25 
1 -3 2 14 2 -5 2 -7 1 5 2 5 2 -8 2 -6 
1 -11 2 -5 2 -7 1 -12 2 -11 2 -6 2 4 1 -10 
2 3 2 -5 1 -5 2 -11 2 6 2 -7 1 -4 2 17 
2 19 2 4 1 -7 2 13 2 7 1 18 2 9 2 0 
2 -2 1 -5 2 -7 2 -5 1 -7 2 -11 2 1 2 -3 
1 4 2 1 2 -4 2 1 1 14 2 -20 2 5 1 12 
2 -6 2 -4 2 -2 1 6 2 -9 2 -18 1 2 2 -5 
2 -10 2 17 1 18 2 -1 2 -6 2 15 1 7 2 0 
2 -10 1 -10 2 0 2 -10 2 -9 1 11 2 -4 2 0 
1 2 2 -14 2 2 2 9 1 -8 2 0 2 2 2 -2 
1 -1 2 -7 2 -12 1 2 2 -2 2 -2 2 -3 1 -2 
2 9 2 1 2 6 1 3 2 -9 2 -4 1 -9 2 -8 
2 -12 2 -1 1 11 2154 1233 300 MP stroke
2 -12 2 5 1 0 2 -15 2 12 2 0 1 -23 2 -5 
2 3 2 -5 1 -7 2 -10 2 -17 1 13 2 -7 2 5 
2 2 1 12 2 15 2 12 1 -2 2 -2 2 -4 2 -7 
1 0 2 -5 2 2 2 1 1 -14 2 -8 2 -2 1 -3 
2 -5 2 8 2 -2 1 0 2 11 2 -5 1 -5 2 5 
2 -11 2 4 1 -6 2 11 2 1 2 13 1 2 2 -3 
2 -5 1 1 2 6 2 11 2 -5 1 -8 2 3 2 -10 
2 -7 1 1 2 -4 2 1 1 6 2 1 2 -9 2 -6 
1 -7 2 -8 2 -6 1 -16 2 -5 2 -4 2 3 1 11 
2 2 2 -10 2 -16 1 3 2 17 2 -3 1 12 2 3 
2 -14 2 16 1 19 2 -7 2 -13 1 -5 2 -1 2 -5 
2 9 1 -10 2 -7 2 2 2 -7 1 -12 2 2 2 -4 
1 -20 2 19 2 6 2 1 1 1 2 -2 2 -5 1 -3 
2 -7 2 4 2 -3 1 -12 2 3 2 3 2 10 1 -6 
2 -10 2 -8 1 -5 2 -9 2 -6 2 0 1 -4 2 2 
2 -8 1 3 2 2 2 9 2 -2 1 -6 2 -2 2 -17 
2 -2 1 -5 2 -9 2 6 1 3 2 -10 2 13 2 5 
1 -8 2 4 2 20 2 -4 1 13 2 0 2 0 1 -9 
2 -1 2 -12 2 -3 1 4 2 -15 2 1 1 7 2 -16 
2 1 2 5 1 -17 2 -9 2 16 2 -3 1 -4 2 -7 
2 8 1 -22 2 -2 2 1 2 -8 1 -10 2 8 2 -10 
1 -6 2 21 2 -6 2 -3 1 10 2 -3 2 -12 2 -4 
1 2 2 -13 2 -1 1 3 2 12 2 6 2 -11 1 7 
2 7 2 -1 1 -11 2 -6 2 0 2 -14 1 1 2 -6 
2 -11 2 -5 1 -11 2 -3 2 -9 1 10 2 5 2 7 
2 2 1 -5 2 0 2 -3 1 -1 2 -2 2 -4 2 -3 
1 -1 2 2 2 -10 2 1 1 1 2 -10 2 -16 1 12 
2 -5 2 -3 2 -7 1 -16 2 -4 2 2 2 4 1 -7 
2 23 2 15 1 -10 2 -7 2 -1 2 -12 1 3 2 14 
2 -7 1 -4 2 1 2 3 2 -14 1 8 2 3 2 -7 
2 -8 1 -2 2 -6 2 -8 1 -5 2 -5 2 4 2 -7 
1 -13 2 -2 2 0 1 -8 2 9 2 -12 2 -14 1 0 
2 11 2 -17 2 -3 1 -12 2 -7 2 6 1 -13 2 12 
2 6 2 6 1 -5 2 8 2 -2 1 2 2 3 2 11 
2 -5 1 -5 2 -8 2 -4 2 -10 1 -12 2 2 2 -3 
1 -14 2 -5 2 -2 2 2 1 -15 2 -17 2 -6 2 1 
1 -2 2 16 2 11 1 4 2 -8 2 3 2 -6 1 -10 
2 -8 2 6 1 -10 1639 1795 300 MP stroke
2 8 2 6 2 -9 1 5 2 7 2 -6 2 -20 1 6 
2 9 2 -1 1 -9 2 -5 2 7 2 -8 1 -9 2 4 
2 -22 1 -3 2 -5 2 -12 2 -8 1 -5 2 -1 2 7 
2 -1 1 -10 2 17 2 -8 1 -11 2 -4 2 -27 2 -9 
1 11 2 -8 2 16 1 2 2 3 2 15 2 3 1 10 
2 0 2 10 2 -3 1 1 2 -10 2 -7 1 -8 2 -3 
2 -18 2 -14 1 -1 2 -9 2 -6 1 5 2 10 2 11 
2 5 1 -4 2 -13 2 0 2 -18 1 0 2 0 2 -5 
1 4 2 -13 2 0 2 -6 1 5 2 3 2 7 2 -1 
1 -13 2 -10 2 -3 1 -6 2 -15 2 -15 2 1 1 -6 
2 4 2 15 1 1 2 0 2 -7 2 -10 1 -3 2 -7 
2 -10 2 -16 1 13 2 0 2 6 1 -11 2 -1 2 -9 
2 -7 1 -10 2 -9 2 -8 1 -10 2 6 2 -12 2 -4 
1 9 2 -2 2 2 2 -8 1 -4 2 -5 2 -17 1 4 
2 -1 2 5 2 -4 1 7 2 2 2 -5 1 -13 2 0 
2 -15 2 -3 1 -9 2 -10 2 0 2 4 1 2 2 -3 
2 6 1 4 2 0 2 -10 2 0 1 6 2 -10 2 -10 
2 -8 1 -9 2 -6 2 -12 1 -15 2 -1 2 -4 2 -1 
1 -1 2 -7 2 -5 1 -1 2 -6 2 -2 2 -9 1 -15 
2 6 2 -2 2 -12 1 -14 2 -6 2 -5 1 -14 2 -13 
2 6 2 -1 1 1 2 0 2 -6 1 -14 2 -4 2 -14 
2 -2 1 1 2 4 2 7 2 2 1 -10 2 0 2 -5 
1 -9 2 -4 2 -16 2 -4 1 -10 2 -12 2 -3 1 9 
2 2 2 -11 2 -4 1 6 2 2 2 -8 2 -13 1 0 
2 -9 2 -6 1 -2 2 -20 2 -1 2 -5 1 -11 2 -4 
2 -11 1 -2 2 -4 2 1 2 -2 1 -10 2 -4 2 7 
2 -10 1 -15 2 -10 2 -4 1 -9 2 -5 2 -17 2 7 
1 10 2 15 2 -5 2 -5 1 -4 2 -12 2 -9 1 0 
2 -13 2 -8 2 -9 1 -13 2 -10 2 1 1 4 2 -11 
2 0 2 -6 1 -6 2 -4 2 -7 2 -5 1 -9 2 -12 
2 -9 1 -9 2 -7 2 -4 2 8 1 -7 2 -15 2 -2 
1 -1 2 -6 2 -8 2 7 1 -4 2 -6 2 -17 2 -11 
1 7 2 -5 2 -10 1 -6 2 -7 2 -9 2 -8 1 -2 
2 -4 2 -5 1 -17 2 -3 2 -3 2 -14 1 -2 2 -9 
2 -1 2 -6 1 -6 2 -13 2 -9 1 -5 2 0 2 -7 
2 -8 1 -11 2 -18 2 -8 1 8 2 -7 2 -10 2 -10 
1 -8 2 -9 2 -11 2 -3 1 -3 2 -10 2 -3 1 -8 
2 -5 2 -8 2 -2 1123 3077 300 MP stroke
1 -7 2 -11 2 -10 2 -8 1 -1 2 -10 2 -6 1 -13 
2 -3 2 -11 2 -2 1 -9 2 -3 2 -9 1 -8 2 -6 
2 -10 2 -5 1 -10 2 -10 2 -5 2 -8 1 -11 2 -5 
2 -5 1 -4 2 -6 2 -5 2 -9 1 -12 2 -5 2 -7 
1 -10 2 -7 2 -7 2 -5 1 -11 2 -9 2 -11 2 -4 
1 -9 2 -9 2 -10 1 -6 2 -3 2 -9 2 -9 1 -12 
2 -10 2 -7 1 -5 2 -10 2 -13 2 -2 1 -6 2 -3 
2 -4 2 -4 1 -5 2 -9 2 -9 1 -11 2 1 2 -8 
2 -7 1 -5 2 -7 2 -6 2 -6 1 -8 2 -7 2 -5 
1 -1 2 -7 2 -4 2 -6 1 -8 2 -6 2 -6 1 -6 
2 -5 2 -8 2 -8 1 -2 2 -5 2 -5 2 -8 1 -7 
2 -8 2 -6 1 -3 2 -3 2 -5 2 -7 1 -10 2 -2 
2 2 1 -4 2 -5 2 -5 2 -1 1 -6 2 -6 2 -7 
2 -4 1 -4 2 -4 2 -4 1 -5 2 -6 2 -5 2 -2 
1 -3 2 -3 2 -3 1 -4 2 -5 2 -4 2 -3 1 0 
2 -3 2 -4 2 -4 1 -3 2 -3 2 -3 1 -3 2 -4 
2 -3 2 -2 1 -4 2 -3 2 -2 1 -4 2 -3 2 -2 
2 -3 1 -2 2 -4 2 -1 2 -3 1 -2 2 -2 2 -2 
1 -2 2 -3 2 -2 2 -2 1 -2 2 -2 2 -2 2 -3 
1 -2 2 -2 2 -2 1 -2 2 -2 2 -2 2 -2 1 -3 
2 -3 2 -2 1 -3 2 0 2 -1 2 -3 1 -3 2 -2 
2 -3 2 -2 1 -3 2 -3 2 -3 1 -2 2 -2 2 -2 
2 -2 1 -2 2 -3 2 -2 1 -1 2 -1 2 -1 2 0 
1 -1 2 -1 2 -1 2 0 1 -1 2 -1 2 0 1 -1 
2 0 2 -1 2 0 1 -1 2 0 2 0 1 -1 2 0 
2 -1 2 0 1 -1 2 0 2 -1 2 0 1 -1 2 0 
2 -1 1 0 2 -1 2 -1 2 0 1 -1 2 0 2 -1 
1 -1 750 3997 218 MP stroke
/c10 { 1.000000 0.000000 1.000000 sr} bdef
c10
2 -8 1 2 2 -7 2 2 2 -8 1 -11 2 3 2 -4 
1 7 2 -7 2 -10 2 5 1 -2 2 6 2 3 1 -6 
2 20 2 3 2 21 1 20 2 5 2 1 1 -4 2 -8 
2 -4 2 -6 1 -7 2 1 2 8 1 0 2 -15 2 4 
1 7 2 -6 2 -12 2 -2 1 -2 2 -7 2 -5 1 2 
2 -7 2 -3 2 -8 1 9 2 -8 2 -9 1 34 2 12 
2 14 2 13 1 13 2 4 2 -8 1 -10 2 -1 2 -6 
2 -1 1 1 2 12 2 7 1 6 2 9 2 2 2 2 
1 9 2 -2 2 5 1 -4 2 -12 2 -1 1 -1 2 -7 
2 3 2 0 1 3 2 -3 2 -4 1 7 2 0 2 -4 
2 -6 1 -13 2 -1 2 5 1 4 2 1 2 0 2 -3 
1 -5 2 -11 2 4 1 -9 2 3 2 6 2 0 1 15 
2 17 2 3 1 6 2 -3 2 -5 1 -6 2 4 2 -4 
2 5 1 -1 2 -14 2 -2 1 -1 2 -3 2 7 2 9 
1 2 2 -2 2 -1 1 -6 2 -4 2 0 2 -8 1 7 
2 -2 2 5 1 -3 2 -1 2 -5 2 -4 1 0 2 -2 
2 -7 1 5 2 -5 2 -4 1 14 2 -14 2 -14 2 6 
1 3 2 -14 2 -4 1 19 2 -14 2 -7 2 4 1 12 
2 -6 2 13 1 3 2 -4 2 -9 2 -7 1 1 2 -2 
2 -13 1 7 2 3 2 -11 2 -2 1 0 2 -8 2 3 
1 -2 2 -6 2 0 2 2 1 7 2 1 2 0 1 -2 
2 -3 2 -11 1 -5 2 5 2 -6 2 -5 1 19 2 19 
2 3 1 17 2 7 2 -5 2 -12 1 2 2 -3 2 -10 
1 3 2 -7 2 -8 2 -2 1 -2 2 -4 2 -2 1 -9 
2 -5 2 13 2 -2 1 1 2 2 2 -5 1 -3 2 -13 
2 5 1 -5 2 -4 2 -7 2 7 1 3 2 -16 2 -2 
1 2 2 -13 2 -5 2 8 1 -6 2 5 2 3 1 10 
2 10 2 11 2 7 1 16 2 4 2 5 1 -10 2 -4 
2 0 2 4 1 -4 2 -12 2 -3 1 -3 2 -5 2 -8 
2 -3 1 4 2 -11 2 -9 1 -1 2 1 2 5 1 -5 
2 2 2 5 2 2 1 -4 2 3 2 0 1 -2 2 2 
2 -6 2 2 1 -11 2 4 2 0 1 4 2 -4 2 5 
2 0 1 1 2 -8 2 -4 1 23 2 -6 2 5 2 -11 
1 -3 2 4 2 4 1 -10 2 5 2 8 1 -7 2 3 
2 2 2 1 1 -1 2 4 2 -5 1 -4 2 -7 2 -2 
2 -3 1 2 2 13 2 8 1 -6 2 9 2 -10 2 -8 
1 -2 2 -1 2 0 1 6 2 -8 2 6 2 17 1 -1 
2 4 2 2 1 -4 3604 792 300 MP stroke
2 -5 2 -6 2 7 1 -5 2 -8 2 1 1 2 2 -2 
2 2 1 -6 2 -12 2 4 2 3 1 0 2 6 2 11 
1 -4 2 5 2 5 2 2 1 -4 2 -4 2 -10 1 -12 
2 2 2 -15 2 -6 1 9 2 18 2 2 1 -4 2 6 
2 -2 2 -4 1 -12 2 -3 2 -12 1 -6 2 2 2 -8 
1 -6 2 -3 2 4 2 -10 1 -7 2 13 2 5 1 -4 
2 20 2 7 2 8 1 13 2 -1 2 24 1 8 2 5 
2 10 2 8 1 1 2 -6 2 1 1 5 2 2 2 1 
2 1 1 1 2 -5 2 -7 1 -5 2 1 2 -6 1 2 
2 -3 2 0 2 -5 1 -8 2 -9 2 -6 1 -1 2 -17 
2 -1 2 15 1 -27 2 2 2 23 1 12 2 -4 2 35 
2 4 1 7 2 -4 2 4 1 5 2 -19 2 -1 2 8 
1 -4 2 -6 2 -3 1 2 2 7 2 -2 2 -4 1 -2 
2 -3 2 -8 1 -8 2 6 2 -4 1 0 2 -2 2 -3 
2 -5 1 3 2 -2 2 -8 1 2 2 11 2 -12 2 0 
1 7 2 1 2 -8 1 4 2 -3 2 -3 2 4 1 -4 
2 -5 2 -7 1 8 2 -8 2 0 2 -5 1 0 2 -7 
2 -15 1 3 2 -8 2 -13 1 0 2 8 2 6 2 -7 
1 0 2 5 2 17 1 12 2 3 2 4 2 -1 1 -5 
2 8 2 0 1 13 2 -3 2 -5 2 -1 1 2 2 -6 
2 -1 1 -6 2 -11 2 4 2 -1 1 -2 2 -9 2 0 
1 11 2 2 2 -2 2 -5 1 -7 2 -2 2 8 1 0 
2 -7 2 -8 1 -3 2 4 2 -12 2 9 1 4 2 10 
2 -13 1 2 2 4 2 -7 2 -15 1 0 2 7 2 -7 
1 1 2 3 2 3 2 -10 1 -4 2 4 2 -5 1 -8 
2 -1 2 -2 2 -11 1 -7 2 2 2 -1 1 14 2 6 
2 6 1 -7 2 -5 2 -4 2 -7 1 -8 2 -5 2 -15 
1 5 2 -8 2 15 2 5 1 31 2 29 2 13 1 32 
2 -3 2 8 2 -7 1 -6 2 -7 2 -1 1 -6 2 -3 
2 15 2 -11 1 -12 2 14 2 -4 1 -12 2 28 2 12 
2 -6 1 -2 2 12 2 -4 1 -2 2 -9 2 0 1 -9 
2 3 2 5 2 -2 1 -4 2 1 2 3 1 -3 2 -10 
2 -4 2 -3 1 -6 2 -3 2 -6 1 -21 2 4 2 9 
2 4 1 -8 2 0 2 5 1 -6 2 -4 2 9 2 -11 
1 -6 2 14 2 -2 1 1 2 -8 2 -5 1 -9 2 2 
2 -10 2 9 1 -7 2 -9 2 1 1 -15 2 -9 2 -2 
2 -8 1 8 2 -2 2 -4 1 32 2 10 2 -5 2 21 
1 18 2 8 2 5 3092 846 300 MP stroke
1 -3 2 4 2 -3 2 -2 1 -4 2 -12 2 -2 1 -10 
2 -8 2 5 1 -7 2 -7 2 -2 2 17 1 5 2 9 
2 14 1 -2 2 -6 2 1 2 -6 1 -8 2 -15 2 9 
1 20 2 -14 2 -4 2 19 1 16 2 8 2 -2 1 9 
2 -9 2 -4 2 8 1 -5 2 -5 2 -1 1 5 2 -10 
2 3 2 5 1 2 2 -2 2 0 1 -3 2 -6 2 2 
1 6 2 -10 2 -7 2 1 1 -2 2 -3 2 -3 1 -12 
2 -4 2 -4 2 -4 1 -1 2 -6 2 -9 1 11 2 6 
2 -3 2 -4 1 1 2 -9 2 1 1 -6 2 -9 2 -8 
2 -3 1 -6 2 -12 2 -2 1 -4 2 -18 2 -4 1 13 
2 -4 2 24 2 17 1 16 2 7 2 2 1 -8 2 -3 
2 2 2 13 1 -6 2 -1 2 -2 1 -1 2 -4 2 -12 
2 -7 1 -5 2 -14 2 -9 1 9 2 -11 2 28 2 8 
1 8 2 21 2 -4 1 -7 2 3 2 -5 2 -5 1 -1 
2 2 2 6 1 -10 2 -11 2 8 1 6 2 -9 2 9 
2 -7 1 2 2 -1 2 -12 1 -12 2 8 2 -8 2 -3 
1 -4 2 8 2 -4 1 -1 2 -4 2 -9 2 -5 1 1 
2 -5 2 -16 1 9 2 -1 2 21 2 17 1 24 2 2 
2 1 1 -4 2 -3 2 3 1 -4 2 -7 2 -8 2 -1 
1 -10 2 -5 2 -9 1 -3 2 -1 2 -6 2 -5 1 -17 
2 17 2 3 1 1 2 30 2 18 2 8 1 0 2 -5 
2 4 1 12 2 -5 2 -3 2 -5 1 -6 2 3 2 1 
1 8 2 -7 2 -6 2 3 1 -8 2 2 2 -4 1 -1 
2 -1 2 -13 1 4 2 5 2 -4 2 -8 1 -8 2 -11 
2 21 1 5 2 -10 2 15 2 6 1 -6 2 0 2 1 
1 -13 2 -1 2 -12 2 -11 1 -2 2 17 2 21 1 -15 
2 8 2 -6 2 -5 1 5 2 0 2 -3 1 2 2 -8 
2 3 1 -6 2 -5 2 19 2 -3 1 -5 2 17 2 -4 
1 0 2 10 2 -10 2 4 1 -5 2 0 2 -1 1 5 
2 2 2 -2 2 5 1 8 2 1 2 3 1 -8 2 15 
2 -10 2 -3 1 4 2 6 2 -7 1 -9 2 -1 2 -7 
1 -1 2 -11 2 -2 2 2 1 -7 2 -10 2 7 1 -8 
2 10 2 4 2 -2 1 -7 2 2 2 -8 1 -3 2 -5 
2 -17 2 -8 1 7 2 -1 2 -8 1 19 2 6 2 7 
2 -13 1 -4 2 -2 2 -13 1 -2 2 1 2 2 2 1 
1 2 2 9 2 1 1 -3 2 -2 2 -9 1 -5 2 -3 
2 -13 2 1 1 14 2 -2 2 -16 1 2 2 8 2 -11 
2 -4 1 4 2 -6 2581 1038 300 MP stroke
2 7 1 5 2 -2 2 -5 2 -5 1 10 2 10 2 -9 
1 8 2 1 2 -8 2 -7 1 -6 2 -3 2 -9 1 -9 
2 7 2 0 1 -2 2 14 2 2 2 -2 1 1 2 -4 
2 -11 1 8 2 0 2 -8 2 5 1 2 2 -2 2 0 
1 -10 2 0 2 -14 2 -9 1 5 2 -19 2 -3 1 14 
2 10 2 -6 2 1 1 -9 2 1 2 -3 1 4 2 -5 
2 -9 2 3 1 13 2 7 2 4 1 -4 2 12 2 3 
1 -7 2 -11 2 6 2 -10 1 -7 2 3 2 -10 1 -7 
2 -5 2 -6 2 -2 1 4 2 7 2 15 1 -3 2 7 
2 -1 2 -2 1 -3 2 0 2 -2 1 -9 2 -9 2 -7 
2 1 1 -2 2 -7 2 5 1 4 2 3 2 -11 1 -4 
2 4 2 -1 2 -5 1 -2 2 -14 2 -9 1 8 2 5 
2 5 2 -7 1 -3 2 -2 2 -3 1 2 2 -6 2 1 
2 -5 1 -2 2 7 2 18 1 -4 2 -1 2 12 2 -6 
1 -1 2 -5 2 8 1 2 2 -7 2 1 2 3 1 -13 
2 9 2 2 1 -9 2 5 2 -1 1 -4 2 -7 2 2 
2 -12 1 -10 2 14 2 -8 1 -7 2 -3 2 -2 2 -5 
1 8 2 6 2 -5 1 -5 2 -2 2 0 2 -19 1 -12 
2 22 2 -5 1 10 2 -12 2 -4 2 -7 1 -1 2 12 
2 -11 1 7 2 -3 2 -15 1 2 2 -1 2 5 2 -6 
1 2 2 7 2 -11 1 3 2 -5 2 1 2 4 1 5 
2 -6 2 -8 1 -4 2 -4 2 -13 2 -7 1 -3 2 -7 
2 1 1 -5 2 -8 2 2 2 -2 1 -10 2 -5 2 8 
1 13 2 9 2 -5 1 -14 2 -6 2 2 2 -16 1 -8 
2 23 2 -6 1 6 2 3 2 -8 2 5 1 1 2 -8 
2 4 1 21 2 -4 2 4 2 22 1 -12 2 -2 2 7 
1 -16 2 3 2 1 2 -15 1 -1 2 -4 2 -2 1 -5 
2 -6 2 11 2 3 1 -1 2 -5 2 2 1 -3 2 3 
2 6 1 -3 2 -8 2 8 2 -6 1 -13 2 -9 2 1 
1 -1 2 -13 2 4 2 0 1 -15 2 -8 2 11 1 -4 
2 -2 2 4 2 0 1 8 2 -5 2 -15 1 -3 2 -3 
2 -2 2 -2 1 13 2 11 2 1 1 6 2 2 2 0 
1 -4 2 -2 2 -2 2 -3 1 -11 2 -9 2 -2 1 -2 
2 -19 2 8 2 -2 1 -11 2 -2 2 5 1 -4 2 -6 
2 -7 2 -10 1 -4 2 -7 2 -5 1 7 2 -9 2 7 
2 2 1 -3 2 6 2 -7 1 -4 2 5 2 -7 2 -10 
1 -6 2 -1 2 2 1 1 2 6 2 3 1 4 2 -5 
2 -9 2 0 1 7 2070 1442 300 MP stroke
2 3 2 0 1 9 2 6 2 1 2 -1 1 -9 2 1 
2 -6 1 -4 2 -7 2 -3 2 -12 1 -7 2 -5 2 -8 
1 -4 2 -4 2 -1 2 -11 1 15 2 -6 2 -17 1 9 
2 9 2 2 1 3 2 31 2 3 2 -4 1 -1 2 -4 
2 -6 1 8 2 -17 2 2 2 6 1 -13 2 -5 2 6 
1 -6 2 -8 2 -2 2 -8 1 13 2 -3 2 13 1 -4 
2 -2 2 -5 2 -9 1 -2 2 0 2 -15 1 -7 2 3 
2 -12 2 4 1 19 2 -4 2 -4 1 -6 2 6 2 -7 
1 -8 2 -3 2 -7 2 -10 1 10 2 -4 2 -2 1 4 
2 -6 2 -7 2 2 1 -6 2 -8 2 -1 1 4 2 -6 
2 1 2 4 1 -6 2 4 2 1 1 -2 2 -3 2 -7 
2 -8 1 0 2 -16 2 -16 1 22 2 5 2 -22 1 -2 
2 18 2 -6 2 -2 1 2 2 7 2 -3 1 -4 2 -6 
2 -9 2 -4 1 -1 2 3 2 -4 1 -11 2 11 2 -6 
2 -17 1 -4 2 16 2 -13 1 -11 2 15 2 7 2 -10 
1 -13 2 3 2 1 1 -14 2 1 2 6 1 -1 2 6 
2 -11 2 2 1 7 2 -14 2 -5 1 3 2 -9 2 -9 
2 -4 1 -3 2 -5 2 -9 1 -1 2 4 2 2 2 -3 
1 -4 2 -1 2 -1 1 3 2 1 2 4 2 -3 1 -12 
2 2 2 -1 1 -15 2 5 2 2 2 -5 1 6 2 -7 
2 1 1 5 2 -4 2 -10 1 -7 2 -8 2 5 2 -4 
1 5 2 1 2 0 1 -2 2 -2 2 -11 2 -7 1 -9 
2 1 2 -12 1 -9 2 7 2 -4 2 -7 1 -5 2 5 
2 -10 1 4 2 -1 2 -5 2 -4 1 4 2 -1 2 -10 
1 3 2 0 2 -6 1 -14 2 6 2 10 2 4 1 -6 
2 -5 2 1 1 -9 2 0 2 1 2 -8 1 -11 2 20 
2 -16 1 3 2 5 2 -5 2 -5 1 -6 2 -3 2 -5 
1 -6 2 -5 2 5 2 -6 1 -10 2 -5 2 6 1 -10 
2 3 2 -1 2 1 1 -4 2 -13 2 -15 1 -4 2 -1 
2 -15 1 7 2 23 2 1 2 4 1 2 2 2 2 0 
1 -14 2 10 2 -5 2 -15 1 -15 2 11 2 -7 1 -14 
2 4 2 7 2 -2 1 -1 2 8 2 -4 1 -13 2 1 
2 -5 2 -1 1 -13 2 2 2 -5 1 -5 2 0 2 0 
1 -6 2 6 2 -5 2 -4 1 -7 2 6 2 -11 1 -1 
2 -4 2 -1 2 0 1 -6 2 0 2 -11 1 -4 2 0 
2 -12 2 0 1 10 2 -4 2 3 1 -4 2 6 2 -7 
2 -1 1 -3 2 -6 2 -6 1 -6 2 0 2 -9 2 -4 
1 -2 2 -19 2 -1 1558 2116 300 MP stroke
1 -9 2 -11 2 5 1 -1 2 1 2 1 2 1 1 -14 
2 5 2 11 1 -7 2 -6 2 1 2 -4 1 -8 2 -11 
2 4 1 -6 2 -9 2 9 2 -7 1 -6 2 0 2 2 
1 -5 2 -8 2 -13 2 -5 1 1 2 6 2 -13 1 -11 
2 -1 2 6 1 -2 2 -7 2 -1 2 -2 1 6 2 -3 
2 -5 1 -7 2 -9 2 -6 2 -6 1 -1 2 1 2 -6 
1 -12 2 -10 2 8 2 -9 1 -9 2 -12 2 4 1 3 
2 -6 2 -1 2 -8 1 -3 2 -5 2 -9 1 -6 2 -1 
2 7 1 -8 2 -17 2 8 2 11 1 0 2 -2 2 -5 
1 -12 2 -6 2 -2 2 -5 1 -10 2 -4 2 -1 1 11 
2 -5 2 3 2 -6 1 -10 2 4 2 8 1 -10 2 -9 
2 -4 2 1 1 -4 2 -8 2 -5 1 -3 2 -11 2 -6 
2 -1 1 -5 2 -6 2 -3 1 -3 2 -9 2 6 1 -6 
2 0 2 -7 2 -5 1 -2 2 -8 2 0 1 -9 2 -1 
2 -5 2 -3 1 -2 2 -6 2 -11 1 0 2 -4 2 -10 
2 -17 1 1 2 0 2 1 1 -5 2 1 2 -11 2 -9 
1 -7 2 -11 2 3 1 -14 2 -1 2 8 1 3 2 -4 
2 -1 2 -1 1 -8 2 -9 2 -2 1 -4 2 -2 2 -10 
2 -10 1 -3 2 -5 2 -8 1 -11 2 0 2 0 2 -5 
1 -9 2 -11 2 3 1 -6 2 -2 2 -13 2 -12 1 1 
2 0 2 -8 1 3 2 -2 2 -8 2 -3 1 -2 2 -2 
2 -6 1 -5 2 -9 2 -4 1 -5 2 -7 2 -6 2 -3 
1 -7 2 -3 2 -7 1 -3 2 -9 2 -2 2 -3 1 -7 
2 -6 2 -10 1 -6 2 2 2 -5 2 -4 1 -7 2 -6 
2 -9 1 -7 2 -12 2 -5 2 -11 1 -1 2 -8 2 -5 
1 3 2 -1 2 -12 1 -9 2 2 2 0 2 -5 1 -10 
2 -2 2 -7 1 -9 2 -12 2 -2 2 -3 1 -4 2 -5 
2 -7 1 -4 2 -11 2 -4 2 -9 1 -7 2 -5 2 -3 
1 0 2 -6 2 -7 2 -9 1 -1 2 -2 2 -5 1 -11 
2 -13 2 -2 2 -8 1 -7 2 -6 2 -5 1 -5 2 -7 
2 -6 1 -5 2 -2 2 -9 2 -3 1 -11 2 -5 2 -6 
1 -5 2 -8 2 -9 2 0 1 -5 2 -8 2 -5 1 5 
2 -2 2 -10 2 -4 1 -4 2 -3 2 -4 1 -7 2 -9 
2 -6 2 -8 1 -6 2 0 2 -7 1 3 2 -8 2 -6 
1 -1 2 -2 2 -6 2 -7 1 -4 2 -3 2 -7 1 -6 
2 -5 2 -8 2 -3 1 -7 2 -4 2 -3 1 -5 2 -6 
2 -8 2 -7 1 -6 2 -3 2 -3 1 -4 2 -1 2 -5 
2 -6 1 -7 2 -6 1047 3456 300 MP stroke
2 -2 1 -4 2 -6 2 -7 1 -5 2 -3 2 -2 2 -9 
1 -6 2 0 2 -6 1 -4 2 -5 2 -6 2 -6 1 -6 
2 -4 2 -5 1 -7 2 -9 2 -5 2 -4 1 -2 2 -5 
2 -6 1 -7 2 -2 2 -6 2 -6 1 -6 2 -7 2 -6 
1 -4 2 -1 2 -4 2 -7 1 -9 2 -2 2 0 1 -2 
2 -4 2 -4 1 -4 2 -4 2 -3 2 -4 1 -5 2 -6 
2 -5 1 -5 2 -3 2 -4 2 -4 1 -3 2 -6 2 -4 
1 -5 2 -3 2 -4 2 -4 1 -4 2 -3 2 -3 1 -5 
2 -6 2 -5 2 -5 1 -3 2 -2 2 -5 1 -6 2 -6 
2 -6 1 4 2 -3 2 -2 2 -3 1 -4 2 -2 2 -3 
1 -3 2 -3 2 -2 2 -3 1 -3 2 -4 2 -4 1 -3 
2 -2 2 -3 2 -2 1 -3 2 -4 2 -3 1 -1 2 0 
2 -2 2 -1 1 -3 2 -4 2 -3 1 -3 2 0 2 -2 
2 -3 1 -2 2 -1 2 -2 1 -1 2 -2 2 -4 1 -2 
2 -3 2 -2 2 -3 1 -3 2 -3 2 -3 1 2 2 -3 
2 -3 2 -1 1 -2 2 -2 2 -3 1 -1 2 -2 2 -2 
2 -2 1 -2 2 -1 2 -1 1 -2 2 -2 2 -3 2 -2 
1 1 2 -2 2 -2 1 -1 2 -2 2 -2 1 -1 2 -2 
2 -2 2 -2 1 -1 2 -2 2 -2 1 -2 2 -3 2 -2 
2 -2 1 -2 2 -2 2 -2 1 -2 2 -3 2 -1 2 -1 
1 -2 2 -3 2 -2 1 -2 2 -2 2 -2 2 -2 1 -1 
2 -1 2 -2 1 -1 2 -1 2 -1 1 -2 750 3998 175 MP stroke
/c11 { 0.000000 1.000000 0.000000 sr} bdef
c11
2 1 2 -8 2 -7 1 6 2 -4 2 1 1 -1 2 -1 
2 -6 1 -6 2 -5 2 4 1 -6 2 3 2 2 1 18 
2 -1 2 6 2 2 1 7 2 -8 2 0 1 3 2 -2 
2 -8 1 1 2 1 2 -7 1 -14 2 2 2 3 1 -7 
2 -2 2 0 2 0 1 -3 2 -5 2 -2 1 1 2 10 
2 -7 1 -4 2 7 2 9 1 0 2 -7 2 -3 1 6 
2 -4 2 -3 1 4 2 5 2 -7 2 -2 1 11 2 -6 
2 -7 1 4 2 1 2 -8 1 -8 2 -3 2 5 1 11 
2 -2 2 -4 1 6 2 8 2 -7 2 -3 1 6 2 2 
2 -4 1 4 2 -4 2 -5 1 -2 2 -5 2 -7 1 0 
2 -3 2 -10 1 -8 2 5 2 1 2 1 1 10 2 5 
2 -12 1 8 2 13 2 3 1 1 2 6 2 -5 1 -5 
2 1 2 -1 1 -8 2 -2 2 -7 2 -5 1 8 2 1 
2 -3 1 6 2 -8 2 -4 1 -2 2 6 2 -8 1 -12 
2 5 2 4 1 -18 2 2 2 15 1 -3 2 -5 2 6 
2 1 1 4 2 -1 2 -5 1 0 2 -3 2 -1 1 -10 
2 -1 2 -3 1 0 2 9 2 0 1 -3 2 7 2 3 
2 3 1 3 2 3 2 -1 1 -9 2 -8 2 -1 1 -3 
2 -12 2 -7 1 9 2 5 2 -20 1 31 2 27 2 30 
2 -14 1 6 2 9 2 10 1 5 2 4 2 -3 1 -10 
2 4 2 1 1 -8 2 -2 2 10 1 -3 2 -3 2 -4 
1 -5 2 -9 2 1 2 -9 1 4 2 2 2 1 1 -8 
2 2 2 -2 1 -5 2 2 2 6 1 6 2 -2 2 7 
1 7 2 0 2 -1 2 11 1 7 2 -10 2 -1 1 7 
2 -3 2 -14 1 3 2 3 2 -10 1 -5 2 4 2 11 
1 -6 2 2 2 16 2 -6 1 -1 2 4 2 1 1 -4 
2 -1 2 -5 1 -2 2 -4 2 -1 1 0 2 -5 2 0 
1 0 2 6 2 3 2 -4 1 -2 2 4 2 -5 1 -14 
2 -1 2 8 1 5 2 -2 2 -5 1 5 2 -1 2 10 
1 2 2 -5 2 -3 1 -7 2 1 2 3 2 -8 1 -13 
2 6 2 -5 1 -9 2 -5 2 0 1 0 2 18 2 27 
1 -3 2 2 2 -2 1 -10 2 -5 2 8 2 -5 1 -14 
2 4 2 6 1 -5 2 3 2 -11 1 9 2 8 2 10 
1 12 2 0 2 6 1 -2 2 -2 2 -1 2 0 1 -1 
2 -10 2 -5 1 2 2 3 2 -9 1 4 2 13 2 -5 
1 2 2 -3 2 2 1 -7 2 -8 2 9 1 7 2 -6 
2 -4 2 5 1 3 2 -9 2 -2 1 2 2 2 2 -12 
1 -6 2 12 2 -13 3515 852 300 MP stroke
1 -16 2 16 2 -8 1 -13 2 4 2 2 2 -4 1 6 
2 0 2 3 1 -12 2 -4 2 10 1 -9 2 -15 2 5 
1 5 2 1 2 4 1 -3 2 4 2 4 2 8 1 10 
2 12 2 -2 1 9 2 -11 2 4 1 4 2 0 2 2 
1 -8 2 -4 2 4 1 4 2 -4 2 -4 2 2 1 0 
2 -2 2 -13 1 3 2 2 2 -8 1 -2 2 8 2 8 
1 -7 2 -9 2 0 1 -3 2 2 2 -8 1 -2 2 -4 
2 -5 2 7 1 16 2 13 2 -9 1 5 2 9 2 -11 
1 -2 2 -3 2 -14 1 -7 2 22 2 -3 1 -9 2 14 
2 -5 2 0 1 -5 2 -1 2 -2 1 -3 2 -2 2 5 
1 -2 2 -5 2 -10 1 9 2 -1 2 -8 1 -5 2 -5 
2 2 2 4 1 0 2 5 2 -2 1 -6 2 9 2 1 
1 -1 2 -1 2 0 1 5 2 9 2 5 1 12 2 -5 
2 -2 1 -6 2 -14 2 -3 2 -1 1 0 2 -6 2 3 
1 9 2 6 2 3 1 -10 2 3 2 3 1 -8 2 5 
2 -1 1 1 2 -4 2 -8 2 1 1 -1 2 -7 2 -6 
1 7 2 -3 2 -10 1 -1 2 1 2 -14 1 11 2 -4 
2 6 1 5 2 -2 2 10 2 8 1 -10 2 -7 2 17 
1 -10 2 -14 2 20 1 17 2 -5 2 6 1 0 2 -3 
2 -9 1 -4 2 1 2 14 2 10 1 -8 2 0 2 2 
1 -11 2 -6 2 4 1 -8 2 6 2 1 1 1 2 4 
2 0 1 -2 2 -9 2 -11 1 14 2 8 2 -5 2 2 
1 0 2 8 2 -3 1 -2 2 3 2 -8 1 -4 2 3 
2 -6 1 -3 2 -10 2 -3 1 -1 2 -8 2 5 2 2 
1 -1 2 -19 2 0 1 15 2 -7 2 -1 1 9 2 -1 
2 2 1 -1 2 0 2 -4 1 0 2 1 2 -14 2 -2 
1 3 2 -4 2 -6 1 11 2 9 2 8 1 1 2 13 
2 4 1 -4 2 -7 2 1 1 -1 2 -9 2 7 1 5 
2 -5 2 -1 2 5 1 3 2 1 2 -5 1 -2 2 -2 
2 -4 1 5 2 1 2 -13 1 -4 2 6 2 -7 1 -12 
2 4 2 -3 2 -13 1 3 2 -4 2 0 1 -1 2 19 
2 5 1 2 2 -10 2 4 1 10 2 4 2 -2 1 16 
2 0 2 5 2 2 1 -4 2 1 2 0 1 -11 2 -10 
2 3 1 4 2 0 2 -1 1 -1 2 8 2 -1 1 -6 
2 -4 2 -2 2 -9 1 -13 2 5 2 2 1 -6 2 1 
2 -6 1 -10 2 9 2 9 1 12 2 7 2 6 1 6 
2 -2 2 -9 1 -12 2 6 2 -10 2 6 1 -1 2 1 
2 4 1 -2 2 4 3011 923 300 MP stroke
2 13 1 -2 2 4 2 2 1 -3 2 -15 2 -1 1 8 
2 0 2 -4 2 5 1 4 2 -5 2 -2 1 -3 2 -4 
2 1 1 -1 2 -7 2 -9 1 -2 2 2 2 -9 1 -3 
2 11 2 -1 2 0 1 -5 2 -3 2 -2 1 -12 2 2 
2 -5 1 -5 2 -3 2 4 1 -2 2 -8 2 9 1 -1 
2 -1 2 1 1 2 2 -1 2 1 2 -4 1 0 2 12 
2 0 1 0 2 14 2 -3 1 -1 2 -9 2 3 1 -5 
2 -9 2 -2 1 3 2 -7 2 -10 2 -8 1 2 2 1 
2 4 1 4 2 2 2 -10 1 0 2 -2 2 2 1 -10 
2 -10 2 3 1 11 2 -4 2 -1 2 8 1 15 2 -5 
2 -8 1 4 2 -8 2 3 1 -5 2 2 2 -1 1 -4 
2 -4 2 5 1 4 2 10 2 -6 2 15 1 3 2 -3 
2 -4 1 3 2 -8 2 -9 1 1 2 7 2 4 1 -6 
2 3 2 1 1 -9 2 -8 2 -3 1 -2 2 -14 2 17 
2 5 1 -8 2 -1 2 3 1 -7 2 -3 2 -11 1 4 
2 5 2 4 1 0 2 -11 2 0 1 8 2 -7 2 1 
2 0 1 -5 2 -3 2 -5 1 -3 2 2 2 -6 1 -3 
2 5 2 0 1 -6 2 3 2 8 1 -14 2 2 2 5 
2 -9 1 1 2 -3 2 -3 1 -11 2 -1 2 4 1 -8 
2 0 2 1 1 1 2 0 2 -10 1 15 2 11 2 -11 
1 8 2 1 2 -11 2 1 1 5 2 -16 2 -4 1 13 
2 11 2 -10 1 -2 2 3 2 -7 1 -15 2 1 2 -1 
1 -11 2 1 2 6 2 5 1 5 2 -10 2 2 1 4 
2 5 2 -9 1 -11 2 12 2 -8 1 -10 2 2 2 7 
1 -13 2 -12 2 5 2 8 1 2 2 5 2 0 1 4 
2 -11 2 0 1 14 2 1 2 0 1 0 2 -3 2 -4 
1 -9 2 -7 2 5 2 -10 1 7 2 -11 2 -4 1 5 
2 13 2 -8 1 -6 2 9 2 -7 1 -2 2 -4 2 -4 
1 -4 2 1 2 -12 1 3 2 1 2 1 2 -8 1 -1 
2 0 2 -7 1 -4 2 -6 2 -2 1 -2 2 1 2 7 
1 14 2 0 2 18 1 8 2 -1 2 -12 2 10 1 -2 
2 -5 2 5 1 -8 2 4 2 -2 1 -10 2 -4 2 -5 
1 -4 2 -3 2 -2 1 -2 2 -6 2 -2 2 10 1 -6 
2 7 2 -8 1 -1 2 -5 2 -3 1 -8 2 16 2 -8 
1 6 2 -6 2 -6 1 7 2 -11 2 14 1 7 2 2 
2 -6 2 -7 1 -5 2 3 2 1 1 -8 2 -3 2 0 
1 -6 2 0 2 -2 1 1 2 -1 2 -2 1 -6 2 -6 
2 4 2 6 1 -16 2507 1227 300 MP stroke
2 3 2 2 1 -1 2 5 2 4 1 10 2 0 2 -7 
1 2 2 8 2 -7 1 -6 2 2 2 -1 2 5 1 3 
2 2 2 1 1 -4 2 -8 2 -6 1 5 2 -8 2 0 
1 -4 2 -3 2 4 1 -8 2 4 2 -3 2 -5 1 2 
2 -8 2 0 1 -8 2 -1 2 -4 1 -8 2 2 2 0 
1 -2 2 -9 2 -2 1 8 2 -6 2 -1 1 3 2 -5 
2 -1 2 7 1 -2 2 16 2 -1 1 -1 2 -8 2 -2 
1 -1 2 -4 2 -12 1 5 2 0 2 -4 1 -12 2 -3 
2 -2 2 3 1 -6 2 0 2 5 1 2 2 -17 2 2 
1 -5 2 -9 2 6 1 -9 2 8 2 -7 1 1 2 -5 
2 -1 2 -10 1 8 2 5 2 11 1 11 2 11 2 2 
1 -1 2 -7 2 7 1 -8 2 -5 2 -3 1 1 2 -5 
2 -6 1 -8 2 6 2 -6 2 1 1 9 2 -12 2 -3 
1 6 2 -8 2 9 1 -4 2 -4 2 0 1 -13 2 -4 
2 5 1 -5 2 2 2 1 2 -4 1 12 2 12 2 0 
1 -3 2 -5 2 0 1 -6 2 -10 2 -3 1 -7 2 7 
2 -7 1 -15 2 1 2 9 2 3 1 -2 2 3 2 6 
1 -10 2 -9 2 -1 1 2 2 -12 2 11 1 -4 2 8 
2 -4 1 -2 2 3 2 -2 2 -3 1 1 2 -2 2 2 
1 -1 2 1 2 -2 1 -6 2 0 2 -3 1 -2 2 -5 
2 -5 1 0 2 -7 2 -2 1 -5 2 2 2 3 2 -3 
1 -4 2 -4 2 4 1 -4 2 5 2 -8 1 7 2 3 
2 -4 1 1 2 1 2 -6 1 -6 2 -1 2 -4 2 -1 
1 -11 2 -1 2 -5 1 -4 2 -2 2 -6 1 -8 2 -1 
2 4 1 3 2 -2 2 -2 1 -5 2 -2 2 -1 2 -12 
1 -14 2 -1 2 2 1 -29 2 18 2 6 1 1 2 -3 
2 16 1 11 2 10 2 6 1 9 2 -1 2 -3 1 -5 
2 -6 2 -2 2 -3 1 -11 2 -4 2 6 1 -5 2 3 
2 -4 1 1 2 4 2 -11 1 5 2 -8 2 -2 1 -9 
2 -2 2 6 2 -8 1 -11 2 -6 2 11 1 3 2 -8 
2 2 1 -1 2 4 2 -9 1 -10 2 2 2 1 1 0 
2 0 2 2 2 -2 1 -4 2 -1 2 6 1 -9 2 -7 
2 -10 1 19 2 -9 2 0 1 12 2 10 2 4 1 -13 
2 -4 2 -5 2 -8 1 10 2 -9 2 7 1 -3 2 -1 
2 -8 1 3 2 0 2 4 1 1 2 -6 2 -5 1 -5 
2 10 2 -3 1 -6 2 4 2 7 2 -6 1 -4 2 3 
2 -2 1 -3 2 -9 2 2 1 -2 2 1 2 -5 1 -3 
2 2 2 -6 1 -1 2003 1594 300 MP stroke
2 -13 2 0 2 -9 1 2 2 -15 2 -10 1 8 2 13 
2 -2 1 0 2 -2 2 4 1 -10 2 3 2 -6 1 -11 
2 -7 2 11 2 -16 1 10 2 9 2 -12 1 -4 2 5 
2 10 1 5 2 -4 2 1 1 1 2 -6 2 -10 1 -1 
2 3 2 -7 1 2 2 -2 2 -5 2 -6 1 -10 2 -8 
2 -1 1 11 2 -5 2 -10 1 1 2 -2 2 -10 1 -6 
2 6 2 15 1 -6 2 -5 2 -3 2 0 1 -4 2 6 
2 -11 1 -3 2 12 2 2 1 -8 2 -11 2 4 1 -4 
2 -7 2 -1 1 12 2 -1 2 -9 2 7 1 -7 2 -2 
2 -2 1 -7 2 -2 2 -7 1 4 2 -4 2 -6 1 -3 
2 1 2 2 1 -3 2 -5 2 -4 2 -7 1 -5 2 0 
2 -25 1 12 2 1 2 2 1 -10 2 -7 2 -8 1 4 
2 14 2 6 1 6 2 9 2 -1 1 3 2 -3 2 -9 
2 3 1 -6 2 4 2 -2 1 -5 2 -14 2 -4 1 -6 
2 -7 2 3 1 6 2 -5 2 7 1 3 2 3 2 -7 
2 -1 1 3 2 -19 2 -8 1 6 2 9 2 -10 1 -11 
2 -6 2 2 1 -9 2 -5 2 13 1 -6 2 6 2 5 
2 3 1 -8 2 5 2 0 1 -5 2 1 2 -10 1 0 
2 -7 2 -8 1 5 2 -5 2 -5 1 2 2 -6 2 4 
1 3 2 -3 2 -5 2 -2 1 -11 2 -3 2 -5 1 -6 
2 3 2 0 1 -6 2 -2 2 -4 1 5 2 -1 2 -10 
1 0 2 -5 2 0 2 -5 1 1 2 4 2 2 1 -5 
2 -4 2 -11 1 4 2 0 2 -10 1 2 2 -6 2 -6 
1 -9 2 -1 2 -6 2 4 1 0 2 -10 2 7 1 -9 
2 -6 2 -6 1 6 2 8 2 -2 1 3 2 -4 2 -9 
1 -5 2 -8 2 -5 2 -5 1 -17 2 2 2 -4 1 -11 
2 7 2 -15 1 5 2 13 2 2 1 10 2 -4 2 -8 
1 5 2 -4 2 -6 1 -4 2 3 2 -3 2 2 1 4 
2 -3 2 -11 1 -1 2 -9 2 -4 1 -8 2 -4 2 -4 
1 -10 2 0 2 -5 1 -5 2 0 2 7 2 -1 1 -2 
2 -5 2 -7 1 -10 2 -8 2 -2 1 1 2 -5 2 -5 
1 3 2 6 2 -8 1 3 2 5 2 -2 2 -1 1 -3 
2 -8 2 -3 1 -7 2 -6 2 -3 1 2 2 -8 2 -5 
1 2 2 -4 2 -6 1 -5 2 -7 2 1 1 0 2 -2 
2 -2 2 -5 1 -4 2 -7 2 -5 1 -2 2 -5 2 -3 
1 -2 2 -6 2 2 1 3 2 5 2 -1 1 -10 2 14 
2 2 2 -3 1 -9 2 -11 2 7 1 2 2 -14 2 -9 
1 -3 2 2 2 -2 1498 2258 300 MP stroke
1 -14 2 -3 2 6 1 -1 2 -12 2 4 2 -1 1 -12 
2 0 2 -4 1 -15 2 13 2 -9 1 -7 2 0 2 2 
1 -13 2 -4 2 -6 1 -2 2 -4 2 -13 2 7 1 2 
2 -1 2 -3 1 -4 2 -10 2 -6 1 -2 2 4 2 -1 
1 -1 2 0 2 -13 1 -3 2 -1 2 -7 1 0 2 -4 
2 0 2 -6 1 -12 2 4 2 13 1 -6 2 -5 2 0 
1 -1 2 -6 2 -10 1 3 2 -6 2 -4 1 -4 2 -3 
2 -4 2 2 1 -4 2 -3 2 -5 1 -10 2 -3 2 0 
1 -9 2 -9 2 8 1 -5 2 -4 2 -3 1 -4 2 -4 
2 2 2 -12 1 2 2 -6 2 -5 1 -4 2 -2 2 -11 
1 -7 2 3 2 -2 1 -9 2 -6 2 -2 1 -4 2 -5 
2 -5 1 0 2 2 2 -3 2 0 1 -1 2 -4 2 -4 
1 -1 2 -4 2 -7 1 -10 2 -5 2 -7 1 -10 2 -3 
2 -5 1 -4 2 -4 2 1 2 -3 1 -6 2 -9 2 -2 
1 1 2 -4 2 -19 1 -11 2 19 2 6 1 -8 2 -7 
2 -2 1 4 2 -5 2 -6 2 -6 1 -4 2 -6 2 -8 
1 -5 2 -3 2 -6 1 -2 2 -12 2 -10 1 0 2 2 
2 -3 1 -3 2 -11 2 -7 2 1 1 0 2 -4 2 -6 
1 -6 2 -1 2 -10 1 -11 2 0 2 1 1 -5 2 -14 
2 -2 1 2 2 -2 2 -9 1 -4 2 -7 2 -5 2 1 
1 -8 2 -8 2 -10 1 1 2 2 2 -9 1 -2 2 -3 
2 -6 1 -14 2 -4 2 -2 1 -2 2 -7 2 -7 2 -6 
1 -1 2 -6 2 -10 1 -3 2 5 2 -2 1 -10 2 -10 
2 -7 1 -1 2 -1 2 -6 1 -2 2 -4 2 -8 2 -3 
1 -2 2 -5 2 -8 1 -8 2 -9 2 -2 1 -1 2 -8 
2 -15 1 -3 2 1 2 -5 1 -7 2 -9 2 -5 1 -7 
2 -8 2 1 2 -4 1 0 2 -8 2 -8 1 -7 2 -6 
2 -3 1 -4 2 -7 2 -9 1 -11 2 -8 2 5 1 -3 
2 -12 2 -10 2 -2 1 -4 2 -8 2 -7 1 -9 2 0 
2 -7 1 -7 2 -4 2 -6 1 -4 2 -10 2 -10 1 -3 
2 -4 2 -5 2 -6 1 -2 2 -2 2 -10 1 -10 2 0 
2 -5 1 -4 2 -8 2 -6 1 -6 2 -3 2 -5 1 -8 
2 -7 2 -9 2 1 1 -2 2 -6 2 -3 1 -5 2 -5 
2 -8 1 -7 2 -6 2 -5 1 -5 2 -6 2 -4 1 -10 
2 -9 2 0 1 -2 2 -3 2 -7 2 -7 1 -3 2 -5 
2 -6 1 -7 2 -5 2 -6 1 -7 2 -6 2 -7 1 -1 
2 -3 2 -8 1 -7 2 -4 2 -3 2 -4 1 -6 2 -8 
2 -7 1 -4 2 -4 994 3595 300 MP stroke
2 -4 1 -9 2 -5 2 -7 1 -4 2 -5 2 -6 1 -6 
2 -8 2 -8 2 -5 1 -3 2 -4 2 -7 1 -8 2 -9 
2 -4 1 -3 2 -4 2 -7 1 -5 2 -6 2 -5 1 -7 
2 -6 2 -4 1 -5 2 -6 2 -7 2 -7 1 -6 2 -5 
2 -3 1 -4 2 -6 2 -5 1 -6 2 -5 2 -6 1 -4 
2 -4 2 -4 1 -4 2 -5 2 -5 2 -5 1 -4 2 -4 
2 -3 1 -4 2 -5 2 -5 1 -3 2 -3 2 -3 1 -3 
2 -3 2 -3 1 -4 2 -3 2 -2 2 -4 1 -3 2 -3 
2 -3 1 -3 2 -2 2 -3 1 -1 2 -3 2 -2 1 -2 
2 -2 2 -1 1 -2 2 -2 2 -1 2 -2 1 -2 2 -2 
2 -1 1 -2 2 -1 2 -1 1 -1 2 -2 2 -1 1 -1 
2 -1 2 -1 1 -1 2 -2 2 -1 1 -1 2 -1 2 -2 
2 -1 1 -1 2 -2 2 -2 1 -2 2 -2 2 -1 1 -2 
2 -1 2 -1 1 -2 2 -1 2 -2 1 -1 2 -2 2 0 
2 -1 1 0 2 0 2 -1 1 0 2 0 2 -1 1 0 
2 -1 2 0 1 0 2 -1 2 0 1 -1 2 0 2 0 
2 -1 1 0 2 -1 2 0 1 -1 2 0 2 0 1 -1 
2 0 2 -1 1 0 2 -1 2 0 1 -1 2 0 2 0 
1 -1 750 3998 146 MP stroke
/c12 { 0.000000 1.000000 1.000000 sr} bdef
c12
2 9 1 -6 2 -6 2 4 1 -2 2 2 2 -7 1 1 
2 -1 2 -4 1 2 2 -4 2 1 1 3 2 14 2 0 
1 -2 2 -9 1 1 2 1 2 -3 1 -6 2 -8 2 1 
1 7 2 -4 2 12 1 -4 2 -6 2 4 1 -2 2 -2 
2 2 1 1 2 0 2 -11 1 2 2 6 2 -6 1 -11 
2 28 2 6 1 4 2 -8 1 -3 2 16 2 0 1 -12 
2 7 2 5 1 0 2 0 2 -3 1 -5 2 -5 2 -1 
1 -3 2 0 2 4 1 -1 2 0 2 -3 1 2 2 -3 
2 2 1 7 2 1 2 -1 1 1 2 -3 2 -4 1 -13 
2 7 1 6 2 -1 2 -3 1 -8 2 -1 2 -8 1 -1 
2 7 2 -10 1 -3 2 3 2 3 1 -7 2 -3 2 9 
1 2 2 7 2 12 1 -1 2 -9 2 1 1 4 2 -7 
2 -9 1 8 2 -2 1 -8 2 2 2 -8 1 -6 2 11 
2 -6 1 -6 2 -8 2 17 1 -3 2 3 2 7 1 6 
2 4 2 0 1 -1 2 -8 2 1 1 2 2 4 2 -8 
1 -2 2 4 2 0 1 -1 2 2 2 -7 1 -5 2 -1 
1 0 2 -3 2 -1 1 -3 2 14 2 4 1 7 2 -3 
2 1 1 2 2 -7 2 -1 1 -4 2 -7 2 -5 1 -1 
2 6 2 -2 1 -11 2 11 2 3 1 2 2 -8 2 1 
1 7 2 -4 2 -1 1 -1 2 -4 1 -3 2 1 2 7 
1 9 2 0 2 1 1 6 2 6 2 -10 1 -7 2 6 
2 5 1 -6 2 -1 2 0 1 0 2 -3 2 -5 1 -5 
2 -2 2 -7 1 -6 2 8 2 5 1 -4 2 -4 1 6 
2 7 2 2 1 1 2 -1 2 1 1 -4 2 1 2 -5 
1 -4 2 -2 2 -1 1 -7 2 2 2 3 1 -6 2 7 
2 -4 1 4 2 0 2 -11 1 1 2 4 2 -2 1 -13 
2 3 2 8 1 -6 2 -5 1 6 2 -1 2 -5 1 -4 
2 4 2 1 1 0 2 -5 2 1 1 2 2 0 2 4 
1 -4 2 2 2 -7 1 -1 2 11 2 -4 1 -1 2 -2 
2 -3 1 7 2 -3 2 -7 1 -1 2 2 1 -7 2 -6 
2 -2 1 13 2 -14 2 6 1 8 2 -3 2 4 1 8 
2 2 2 2 1 2 2 -5 2 0 1 3 2 -1 2 -7 
1 -2 2 -5 2 -8 1 5 2 5 2 -2 1 1 2 -4 
2 -7 1 3 2 -10 1 -9 2 -1 2 7 1 3 2 -8 
2 5 1 12 2 5 2 8 1 -2 2 -1 2 -7 1 -1 
2 2 2 -6 1 3 2 -2 2 7 1 -5 2 -1 2 3 
1 -2 2 -1 2 -2 1 6 2 0 1 2 2 -9 2 2 
1 1 2 -10 2 -12 3491 773 300 MP stroke
1 9 2 4 2 0 1 -1 2 -1 2 0 1 -2 2 -9 
2 -2 1 5 2 -9 2 -20 1 18 2 9 2 2 1 2 
2 -1 2 1 1 -1 2 -1 2 8 1 -5 2 4 1 1 
2 -3 2 -3 1 1 2 -3 2 1 1 -6 2 0 2 4 
1 -6 2 -2 2 0 1 6 2 -11 2 2 1 -3 2 3 
2 1 1 0 2 -7 2 -3 1 4 2 7 2 -8 1 -13 
2 6 2 9 1 -2 2 5 1 0 2 4 2 0 1 -8 
2 -2 2 1 1 -3 2 -10 2 7 1 1 2 -3 2 -2 
1 -4 2 -1 2 0 1 -3 2 2 2 6 1 -5 2 -13 
2 0 1 12 2 -10 2 10 1 6 2 -3 1 -1 2 -5 
2 10 1 -9 2 -6 2 -2 1 -2 2 9 2 -5 1 6 
2 2 2 -3 1 -8 2 1 2 -2 1 -7 2 -4 2 3 
1 -4 2 -12 2 -5 1 1 2 2 2 3 1 2 2 -9 
2 1 1 -3 2 3 1 1 2 4 2 -3 1 10 2 -4 
2 -3 1 6 2 6 2 1 1 2 2 5 2 -2 1 0 
2 -8 2 -2 1 3 2 -1 2 -4 1 -4 2 -4 2 5 
1 1 2 -1 2 5 1 0 2 -5 1 -14 2 11 2 3 
1 4 2 5 2 -1 1 -1 2 -4 2 -7 1 -3 2 -4 
2 -2 1 -4 2 2 2 1 1 -6 2 -3 2 -2 1 -4 
2 1 2 4 1 -7 2 10 2 -4 1 -2 2 3 2 -8 
1 -7 2 1 1 -1 2 4 2 5 1 -4 2 0 2 -1 
1 -7 2 5 2 -2 1 7 2 -5 2 -15 1 -1 2 1 
2 -7 1 1 2 9 2 3 1 -8 2 -7 2 9 1 2 
2 -12 2 -5 1 11 2 -7 1 -8 2 -2 2 14 1 -3 
2 -7 2 2 1 -4 2 -10 2 -7 1 5 2 4 2 7 
1 -2 2 0 2 3 1 -10 2 -3 2 3 1 -3 2 -1 
2 3 1 2 2 9 2 11 1 6 2 4 2 -4 1 -3 
2 -9 1 5 2 -13 2 -5 1 7 2 -1 2 0 1 -4 
2 1 2 -3 1 -3 2 2 2 -1 1 0 2 -5 2 4 
1 -9 2 -7 2 14 1 5 2 -12 2 11 1 -5 2 9 
2 -2 1 -7 2 1 2 -4 1 0 2 -3 1 3 2 -3 
2 -7 1 1 2 -4 2 -11 1 0 2 2 2 -14 1 19 
2 -2 2 0 1 12 2 -14 2 5 1 0 2 3 2 5 
1 4 2 3 2 -2 1 -5 2 -5 2 1 1 1 2 -7 
1 -1 2 0 2 -8 1 -5 2 -4 2 -8 1 -3 2 -6 
2 -2 1 9 2 -7 2 -13 1 7 2 2 2 9 1 10 
2 1 2 0 1 -3 2 -5 2 -2 1 4 2 -8 2 9 
1 8 2 -5 2 2 2996 962 300 MP stroke
1 1 2 1 1 -5 2 -7 2 9 1 -15 2 -1 2 7 
1 1 2 0 2 -8 1 7 2 -4 2 -5 1 -4 2 -3 
2 9 1 -16 2 4 2 3 1 -3 2 15 2 0 1 0 
2 -1 2 1 1 -10 2 -5 1 -4 2 -5 2 10 1 -8 
2 0 2 -1 1 3 2 -8 2 -3 1 7 2 -7 2 -4 
1 -6 2 -2 2 0 1 -9 2 -8 2 -1 1 8 2 -3 
2 3 1 -5 2 -3 2 1 1 5 2 -8 2 0 1 10 
2 1 1 -4 2 -2 2 -6 1 -7 2 4 2 -9 1 0 
2 -1 2 -9 1 -1 2 -6 2 -2 1 -1 2 9 2 2 
1 13 2 2 2 -4 1 -3 2 1 2 -5 1 -9 2 11 
2 -9 1 -4 2 8 1 -1 2 -4 2 -3 1 -2 2 -3 
2 -3 1 10 2 2 2 -3 1 12 2 -8 2 2 1 -3 
2 2 2 -1 1 -9 2 -8 2 5 1 -2 2 0 2 -3 
1 -3 2 -1 2 -13 1 3 2 2 2 -2 1 0 2 3 
1 1 2 -4 2 3 1 -8 2 4 2 -1 1 -9 2 2 
2 -12 1 -6 2 -3 2 -4 1 -3 2 -5 2 9 1 7 
2 14 2 6 1 9 2 -11 2 1 1 2 2 0 2 -7 
1 -8 2 -2 2 2 1 -6 2 -5 1 -7 2 8 2 4 
1 -13 2 -2 2 11 1 -2 2 -7 2 6 1 7 2 -5 
2 -1 1 -3 2 9 2 -4 1 -2 2 -10 2 6 1 -3 
2 -9 2 2 1 4 2 12 2 0 1 -1 2 1 1 -1 
2 -5 2 -9 1 -9 2 8 2 -5 1 -9 2 4 2 -8 
1 -2 2 11 2 1 1 -5 2 3 2 -5 1 0 2 -4 
2 0 1 5 2 -6 2 2 1 -1 2 -4 2 -1 1 0 
2 -2 2 -2 1 -6 2 12 1 -7 2 3 2 1 1 -11 
2 3 2 -6 1 -3 2 1 2 -4 1 -4 2 -6 2 3 
1 0 2 -1 2 5 1 0 2 -6 2 -2 1 -5 2 -2 
2 -4 1 2 2 1 2 -5 1 3 2 5 1 -1 2 -6 
2 -7 1 -8 2 10 2 -8 1 -13 2 7 2 -4 1 5 
2 -12 2 3 1 10 2 -8 2 -4 1 -7 2 6 2 3 
1 -1 2 2 2 4 1 -2 2 -9 2 1 1 4 2 -8 
2 -2 1 0 2 -3 1 -2 2 0 2 0 1 -6 2 -2 
2 2 1 -6 2 -2 2 -6 1 0 2 -11 2 -1 1 -6 
2 5 2 3 1 10 2 1 2 -6 1 3 2 1 2 5 
1 -7 2 11 2 2 1 -5 2 1 1 -1 2 -5 2 -5 
1 -1 2 -5 2 -10 1 9 2 -3 2 -5 1 -3 2 2 
2 2 1 0 2 -3 2 -2 1 -10 2 -5 2 -1 1 -1 
2 -7 2 -2 1 2 2502 1319 300 MP stroke
2 3 2 -4 1 0 2 0 2 -4 1 -7 2 0 1 -3 
2 -8 2 2 1 0 2 -1 2 -12 1 6 2 3 2 -4 
1 4 2 13 2 4 1 -10 2 -1 2 0 1 0 2 -7 
2 -5 1 4 2 4 2 5 1 -1 2 -4 2 3 1 5 
2 0 1 -12 2 5 2 -5 1 0 2 -3 2 -10 1 -5 
2 4 2 -3 1 -4 2 1 2 -5 1 -7 2 1 2 2 
1 -3 2 -4 2 -7 1 1 2 -1 2 1 1 -9 2 2 
2 3 1 -3 2 -1 2 -1 1 -8 2 1 1 -7 2 2 
2 -11 1 -6 2 2 2 4 1 -3 2 0 2 -5 1 0 
2 -4 2 -15 1 3 2 11 2 -10 1 0 2 5 2 0 
1 -3 2 -12 2 -3 1 3 2 -4 2 -7 1 1 2 17 
2 14 1 5 2 -6 1 -1 2 -1 2 4 1 -9 2 1 
2 2 1 -3 2 2 2 -12 1 6 2 -6 2 -5 1 3 
2 -4 2 -1 1 -7 2 -11 2 8 1 -5 2 -2 2 0 
1 -5 2 0 2 4 1 -7 2 -9 1 2 2 -3 2 -7 
1 0 2 -1 2 -3 1 -6 2 6 2 6 1 -3 2 12 
2 -5 1 1 2 3 2 -2 1 -6 2 1 2 1 1 -5 
2 -13 2 -6 1 6 2 -2 2 -4 1 -3 2 4 2 4 
1 -3 2 -10 1 0 2 3 2 -5 1 -6 2 -8 2 -6 
1 0 2 -8 2 -11 1 11 2 2 2 16 1 -3 2 6 
2 1 1 -1 2 -1 2 -4 1 -8 2 -2 2 -4 1 3 
2 -9 2 1 1 1 2 -5 1 0 2 1 2 -1 1 0 
2 0 2 -5 1 -5 2 -7 2 0 1 -1 2 -11 2 -2 
1 -3 2 2 2 -3 1 0 2 4 2 -5 1 -9 2 -1 
2 6 1 2 2 0 2 -9 1 -9 2 0 2 1 1 -4 
2 -2 1 5 2 1 2 -9 1 -7 2 -5 2 -1 1 1 
2 -9 2 5 1 -1 2 -7 2 7 1 -5 2 5 2 5 
1 -3 2 -7 2 -6 1 2 2 -8 2 -2 1 -2 2 -3 
2 -2 1 13 2 -1 1 -12 2 9 2 -2 1 1 2 -6 
2 -3 1 2 2 -6 2 -4 1 -4 2 2 2 -5 1 -8 
2 -1 2 1 1 7 2 5 2 -1 1 -2 2 -4 2 -4 
1 -9 2 -4 2 -1 1 -4 2 0 2 0 1 0 2 -3 
1 -1 2 -1 2 -5 1 -2 2 -10 2 2 1 5 2 4 
2 0 1 -4 2 -1 2 -8 1 3 2 -7 2 4 1 -2 
2 -3 2 -3 1 1 2 -5 2 -12 1 1 2 5 2 -11 
1 -3 2 -8 2 3 1 -14 2 2 1 10 2 5 2 -11 
1 5 2 -3 2 -5 1 -10 2 1 2 5 1 -10 2 -10 
2 15 1 -1 2 -4 2007 1798 300 MP stroke
2 -11 1 5 2 -4 2 -5 1 -4 2 -5 2 5 1 9 
2 -4 2 3 1 7 2 -7 1 -9 2 -2 2 5 1 -4 
2 0 2 -4 1 -10 2 -4 2 2 1 2 2 -3 2 7 
1 -2 2 -1 2 -4 1 -1 2 -6 2 -3 1 1 2 -8 
2 8 1 -5 2 4 2 -3 1 2 2 -5 2 -2 1 -1 
2 0 1 -3 2 -9 2 1 1 -1 2 1 2 -13 1 -4 
2 2 2 0 1 -6 2 0 2 -3 1 -4 2 -2 2 4 
1 -2 2 6 2 -5 1 -3 2 -3 2 -1 1 -6 2 -8 
2 1 1 -1 2 1 1 -11 2 -15 2 0 1 5 2 2 
2 -1 1 2 2 1 2 0 1 -8 2 -5 2 0 1 -3 
2 -1 2 -3 1 -4 2 -5 2 0 1 -7 2 -2 2 -8 
1 -3 2 10 2 -14 1 1 2 3 2 1 1 -7 2 -1 
1 -1 2 -5 2 -4 1 -9 2 -3 2 -11 1 -1 2 5 
2 1 1 -6 2 6 2 -2 1 5 2 -1 2 -3 1 -1 
2 -10 2 1 1 2 2 -4 2 -11 1 -4 2 5 2 0 
1 -2 2 -13 1 2 2 5 2 0 1 -5 2 -4 2 3 
1 -6 2 -1 2 1 1 -8 2 -3 2 1 1 6 2 -10 
2 -11 1 1 2 -5 2 0 1 -5 2 -12 2 -3 1 10 
2 4 2 2 1 -6 2 -6 2 0 1 -6 2 2 1 -9 
2 -3 2 6 1 -1 2 -7 2 -6 1 -1 2 -3 2 -4 
1 -6 2 -4 2 -5 1 -1 2 -2 2 -15 1 -7 2 11 
2 1 1 -4 2 0 2 1 1 2 2 -5 2 3 1 -7 
2 -4 2 -5 1 -9 2 1 1 -4 2 0 2 -8 1 -11 
2 12 2 -2 1 -9 2 -3 2 -1 1 1 2 -2 2 -7 
1 -7 2 -1 2 -6 1 -3 2 -7 2 -6 1 6 2 -1 
2 -15 1 -9 2 12 2 9 1 5 2 2 1 -2 2 -4 
2 -4 1 -3 2 -5 2 -5 1 1 2 -1 2 -7 1 -2 
2 -5 2 -2 1 -7 2 1 2 1 1 3 2 -6 2 -5 
1 -6 2 -5 2 -2 1 -2 2 -8 2 -1 1 5 2 -4 
2 -4 1 -5 2 0 1 2 2 -9 2 -10 1 -3 2 3 
2 9 1 -3 2 -7 2 -2 1 -2 2 -3 2 -4 1 -3 
2 0 2 -4 1 -8 2 -2 2 -4 1 -3 2 -1 2 -3 
1 -6 2 -5 2 -4 1 -2 2 -2 1 -3 2 0 2 -7 
1 -4 2 -2 2 -6 1 -3 2 -6 2 -1 1 -3 2 -2 
2 -6 1 -8 2 0 2 2 1 0 2 -7 2 -2 1 -3 
2 0 2 -2 1 0 2 -1 2 -7 1 -7 2 4 2 0 
1 -2 2 -5 1 -7 2 -7 2 -6 1 -2 2 1 2 0 
1 -7 2 -5 2 -2 1512 2520 300 MP stroke
1 -7 2 -4 2 -3 1 0 2 -4 2 -5 1 -3 2 -2 
2 -3 1 -5 2 -3 2 -2 1 -4 2 -7 2 -2 1 0 
2 -2 1 -3 2 -9 2 2 1 -1 2 -6 2 -5 1 -4 
2 0 2 -4 1 -2 2 -4 2 -4 1 -1 2 -3 2 0 
1 -2 2 -5 2 -6 1 -6 2 -3 2 -3 1 -2 2 0 
2 -5 1 -7 2 -7 2 -1 1 2 2 -1 1 -5 2 -8 
2 -5 1 1 2 -3 2 -5 1 -10 2 -5 2 -1 1 -2 
2 -6 2 -4 1 -1 2 -1 2 -3 1 -5 2 -7 2 -6 
1 1 2 -3 2 -4 1 -2 2 -2 2 -2 1 -5 2 -3 
2 -7 1 0 2 -4 1 -3 2 -7 2 -4 1 -4 2 1 
2 -9 1 -8 2 0 2 0 1 2 2 -6 2 -1 1 -4 
2 -5 2 -4 1 -2 2 -3 2 -3 1 -4 2 -4 2 -1 
1 -10 2 -5 2 -2 1 -5 2 -2 1 -5 2 -7 2 -3 
1 -4 2 -3 2 -1 1 -6 2 -4 2 -5 1 -7 2 -3 
2 -2 1 3 2 -3 2 -8 1 -4 2 -2 2 -3 1 -1 
2 -4 2 -7 1 -8 2 -4 2 0 1 -4 2 -5 2 -3 
1 -5 2 -1 1 -6 2 0 2 -6 1 -4 2 -6 2 -6 
1 -3 2 -1 2 -3 1 -5 2 -12 2 -7 1 -1 2 0 
2 -1 1 -8 2 -7 2 -7 1 -1 2 -3 2 -1 1 -3 
2 -5 2 -5 1 -7 2 -7 1 -2 2 -2 2 -3 1 -8 
2 -3 2 -3 1 0 2 -3 2 -5 1 -6 2 -2 2 -3 
1 -6 2 -3 2 -6 1 -6 2 -1 2 -6 1 -4 2 -2 
2 -9 1 -7 2 -4 2 -2 1 -1 2 -3 2 -5 1 -1 
2 -4 1 -5 2 -7 2 -4 1 -5 2 -6 2 1 1 -2 
2 -4 2 -4 1 -7 2 -8 2 -3 1 -2 2 -3 2 -4 
1 -3 2 -6 2 -6 1 -5 2 -2 2 -5 1 -5 2 -2 
2 -6 1 -3 2 -7 1 -7 2 -2 2 -5 1 2 2 -5 
2 -5 1 -7 2 -4 2 -2 1 -4 2 -4 2 -6 1 -5 
2 -4 2 -6 1 -5 2 0 2 -4 1 -4 2 -6 2 -7 
1 -4 2 -3 2 -4 1 -3 2 -6 2 -8 1 -5 2 -3 
1 -1 2 -2 2 -6 1 -7 2 -5 2 -6 1 -3 2 3 
2 -3 1 -6 2 -9 2 -9 1 -5 2 -1 2 0 1 -2 
2 -3 2 -8 1 -4 2 -8 2 3 1 -5 2 -3 2 -4 
1 -3 2 -4 2 -6 1 -6 2 -1 1 -2 2 -3 2 -2 
1 -6 2 -3 2 -2 1 -4 2 -4 2 -3 1 -3 2 -4 
2 -4 1 -4 2 -4 2 -2 1 -4 2 -4 2 -4 1 -1 
2 -4 2 -4 1 -2 2 -4 2 -4 1 -3 2 -3 1 -3 
2 -2 2 -3 1 -3 1018 3651 300 MP stroke
2 -5 2 -5 1 -5 2 -4 2 -2 1 -1 2 -2 2 -4 
1 -4 2 -6 2 -4 1 -4 2 5 2 -2 1 -3 2 -4 
2 -4 1 -4 2 -3 2 -3 1 0 2 -3 2 -3 1 -4 
2 -4 1 -4 2 -3 2 -2 1 -3 2 -1 2 -4 1 -5 
2 -6 2 -1 1 0 2 -3 2 -3 1 -3 2 -3 2 -2 
1 -3 2 -4 2 -5 1 -4 2 -3 2 -3 1 -3 2 -2 
2 -3 1 -4 2 -4 1 -2 2 -2 2 -2 1 -2 2 -2 
2 -3 1 -1 2 -3 2 -2 1 -2 2 -3 2 -2 1 -1 
2 -2 2 -3 1 -2 2 -2 2 -3 1 -3 2 -2 2 -2 
1 -2 2 -2 2 -2 1 -2 2 -2 2 -3 1 -2 2 -3 
1 -1 2 -1 2 -2 1 -2 2 -3 2 -3 1 -3 2 -1 
2 -2 1 0 2 -3 2 -2 1 -2 2 -3 2 -2 1 -2 
2 -2 2 -2 1 -3 2 -2 2 -3 1 -2 2 -2 2 -2 
1 -2 2 0 1 -2 2 -3 2 -2 1 -1 2 -2 2 -2 
1 -3 2 -2 2 0 1 -2 2 -2 2 -2 1 -2 2 -2 
2 -2 1 -2 2 -2 2 -2 1 -2 2 -2 2 -1 1 -2 
2 -2 2 -2 1 -2 2 -2 2 -1 1 0 2 -1 1 -1 
2 -1 2 -1 1 -1 2 0 2 -1 1 -1 2 -1 2 -2 
1 0 2 -1 2 -1 1 -1 2 -1 2 -1 1 -1 2 -1 
2 -1 1 0 2 -1 2 0 1 0 2 -1 2 0 1 0 
2 -1 1 0 750 3998 163 MP stroke
DA
0 sg
1 -4 2 10 1 -1 2 1 2 -6 1 0 2 3 2 2 
1 -8 2 -2 2 1 1 -4 2 -1 1 -4 2 5 2 -5 
1 1 2 4 2 0 1 -3 2 0 2 -11 1 3 2 2 
1 -3 2 -6 2 13 1 1 2 -1 2 -10 1 6 2 5 
1 -2 2 -9 2 8 1 6 2 -2 2 -9 1 -5 2 5 
2 2 1 -11 2 1 1 1 2 -3 2 -3 1 -4 2 9 
2 -13 1 2 2 3 2 6 1 -13 2 2 1 -1 2 8 
2 0 1 6 2 2 2 -1 1 10 2 -2 1 -2 2 5 
2 -2 1 2 2 3 2 3 1 -4 2 -5 2 1 1 -2 
2 -2 1 0 2 -1 2 -1 1 0 2 7 2 -1 1 -3 
2 1 2 -2 1 -5 2 -3 1 -11 2 2 2 2 1 1 
2 -8 2 3 1 7 2 -6 2 3 1 4 2 -3 1 0 
2 1 2 -3 1 -4 2 10 2 7 1 -3 2 -4 1 -8 
2 5 2 0 1 0 2 -15 2 6 1 3 2 0 2 -2 
1 4 2 0 1 -10 2 3 2 5 1 -2 2 -6 2 -1 
1 6 2 -3 2 -10 1 -3 2 9 1 2 2 0 2 0 
1 -3 2 -5 2 2 1 1 2 -12 2 -3 1 11 2 -3 
1 -3 2 -4 2 -7 1 2 2 12 2 6 1 -5 2 -8 
1 2 2 1 2 -7 1 -3 2 -1 2 9 1 -1 2 -3 
2 -5 1 -4 2 -5 1 2 2 9 2 9 1 -6 2 -1 
2 -4 1 0 2 -5 2 -3 1 7 2 5 1 -6 2 0 
2 4 1 -2 2 -3 2 7 1 3 2 -3 1 4 2 -4 
2 -2 1 -3 2 -6 2 -3 1 2 2 1 2 -3 1 1 
2 -9 1 -2 2 1 2 4 1 -3 2 8 2 4 1 -5 
2 -6 2 -2 1 2 2 -2 1 3 2 4 2 -2 1 -4 
2 -3 2 0 1 -3 2 -9 2 3 1 -1 2 4 1 -5 
2 -8 2 2 1 -1 2 -10 2 2 1 4 2 21 1 2 
2 -2 2 2 1 -2 2 -7 2 -2 1 0 2 2 2 -6 
1 3 2 -3 1 -6 2 -3 2 5 1 3 2 -1 2 0 
1 -4 2 4 2 -3 1 -1 2 -1 1 -1 2 -8 2 -2 
1 0 2 4 2 -2 1 4 2 2 2 1 1 -7 2 -2 
1 -5 2 3 2 -1 1 -11 2 -4 2 5 1 -4 2 4 
1 -3 2 11 2 -3 1 -5 2 1 2 1 1 -6 2 3 
2 -1 1 -7 2 4 1 -3 2 2 2 0 1 -3 2 -11 
2 1 1 8 2 -4 2 -16 1 9 2 16 1 -1 2 -6 
2 -1 1 -2 2 0 2 -1 1 2 2 1 1 0 2 0 
2 -4 1 -1 2 6 2 -7 1 -4 2 -1 2 -2 1 6 
2 -4 1 0 2 -2 3073 1082 300 MP stroke
2 9 1 -6 2 -15 2 7 1 4 2 -6 2 1 1 -1 
2 -2 1 -4 2 -7 2 1 1 -4 2 3 2 -3 1 3 
2 -4 2 0 1 2 2 2 1 -1 2 0 2 -4 1 -4 
2 -1 2 3 1 -2 2 -2 1 1 2 -1 2 1 1 -9 
2 -7 2 7 1 -2 2 -2 2 9 1 -8 2 4 1 4 
2 -2 2 -2 1 3 2 -6 2 -6 1 -5 2 3 2 -9 
1 -1 2 -6 1 -2 2 8 2 4 1 -6 2 13 2 4 
1 -1 2 0 1 -4 2 -8 2 -2 1 -2 2 0 2 0 
1 5 2 -3 2 -4 1 -1 2 0 1 -5 2 -7 2 7 
1 -5 2 -12 2 -2 1 6 2 -5 2 -4 1 -1 2 6 
1 -4 2 1 2 6 1 6 2 2 2 -2 1 -10 2 -1 
2 1 1 -2 2 -5 1 -1 2 -9 2 11 1 -3 2 -5 
2 4 1 4 2 -4 1 -1 2 -2 2 -2 1 -4 2 -3 
2 4 1 -3 2 -7 2 1 1 2 2 -6 1 -9 2 16 
2 0 1 2 2 1 2 3 1 -2 2 -4 2 5 1 -2 
2 2 1 -3 2 1 2 -2 1 -7 2 1 2 -4 1 -8 
2 -2 2 5 1 -3 2 1 1 2 2 -8 2 -1 1 -6 
2 -1 2 4 1 1 2 -1 1 -3 2 2 2 -2 1 -6 
2 -2 2 -2 1 1 2 6 2 -4 1 0 2 10 1 -1 
2 -4 2 3 1 -7 2 1 2 -8 1 2 2 -2 2 3 
1 -8 2 1 1 3 2 -8 2 5 1 2 2 -3 2 0 
1 -2 2 -1 1 2 2 -14 2 -1 1 15 2 -7 2 -7 
1 14 2 2 2 -4 1 5 2 2 1 -13 2 4 2 4 
1 -2 2 -3 2 6 1 -4 2 -6 2 -3 1 8 2 -6 
1 -7 2 -1 2 2 1 -1 2 -1 2 -3 1 2 2 2 
2 -2 1 -5 2 0 1 -3 2 2 2 -4 1 -3 2 -5 
2 4 1 -6 2 -8 1 7 2 1 2 -8 1 -1 2 2 
2 2 1 0 2 -2 2 5 1 -3 2 -8 1 3 2 -7 
2 -1 1 -1 2 -7 2 -3 1 11 2 -11 2 -1 1 9 
2 -3 1 -7 2 2 2 -1 1 -3 2 0 2 -1 1 -6 
2 3 2 -1 1 0 2 -4 1 2 2 1 2 -7 1 -5 
2 7 2 7 1 -4 2 -5 1 3 2 -4 2 5 1 1 
2 -1 2 -5 1 1 2 -3 2 -11 1 1 2 9 1 0 
2 -11 2 12 1 -1 2 -9 2 1 1 -7 2 4 2 -2 
1 -4 2 -4 1 7 2 1 2 0 1 -3 2 -3 2 -7 
1 -5 2 2 1 -6 2 -1 2 -2 1 2 2 -7 2 -1 
1 0 2 1 2 -2 1 -2 2 1 1 -10 2 1 2 2 
1 2 2 11 2 -13 2584 1383 300 MP stroke
1 8 2 -3 2 -5 1 3 2 -6 1 -5 2 12 2 -3 
1 -2 2 -3 2 -5 1 -6 2 -2 2 -1 1 -3 2 -4 
1 1 2 1 2 0 1 3 2 -2 2 -7 1 0 2 -3 
1 -1 2 2 2 5 1 5 2 -5 2 -5 1 -3 2 8 
2 -10 1 -3 2 0 1 -2 2 -7 2 -1 1 -3 2 -4 
2 2 1 -5 2 -3 2 7 1 3 2 5 1 1 2 -3 
2 0 1 -1 2 -10 2 3 1 3 2 -17 1 -7 2 13 
2 3 1 1 2 -6 2 -2 1 4 2 4 2 -7 1 -7 
2 -4 1 -1 2 -3 2 -4 1 -4 2 -4 2 -4 1 -10 
2 3 2 8 1 2 2 2 1 -1 2 0 2 2 1 -6 
2 -1 2 -5 1 -2 2 -6 2 -5 1 -6 2 2 1 -4 
2 4 2 -3 1 -3 2 14 2 -2 1 0 2 -9 1 0 
2 3 2 -4 1 -4 2 6 2 -6 1 -2 2 0 2 4 
1 0 2 -5 1 -2 2 0 2 0 1 2 2 -14 2 -4 
1 4 2 -2 2 -5 1 0 2 4 1 2 2 -1 2 0 
1 -5 2 -6 2 -3 1 1 2 -6 2 -4 1 7 2 2 
1 -9 2 -9 2 14 1 -8 2 4 2 13 1 -3 2 0 
1 -7 2 -3 2 1 1 -14 2 6 2 -4 1 4 2 1 
2 0 1 -1 2 -4 1 4 2 0 2 -2 1 -4 2 -9 
2 -1 1 -5 2 3 2 -11 1 -5 2 2 1 -5 2 1 
2 6 1 -1 2 -17 2 13 1 -4 2 8 1 -6 2 -5 
2 -5 1 1 2 -7 2 -6 1 0 2 3 2 -10 1 1 
2 -4 1 -8 2 0 2 2 1 -6 2 17 2 2 1 1 
2 -3 2 -4 1 -7 2 1 1 -4 2 0 2 -6 1 -2 
2 -7 2 -2 1 -7 2 4 2 11 1 -15 2 7 1 3 
2 -3 2 -1 1 -4 2 6 2 -4 1 -3 2 -2 1 0 
2 -5 2 -5 1 -4 2 4 2 -7 1 -5 2 4 2 6 
1 8 2 -2 1 -4 2 0 2 0 1 -7 2 -7 2 -3 
1 -2 2 -2 2 2 1 -3 2 3 1 -2 2 -4 2 1 
1 -6 2 -1 2 -3 1 -5 2 -4 2 1 1 -2 2 -3 
1 -2 2 3 2 2 1 3 2 4 2 0 1 -2 2 3 
1 1 2 -5 2 -7 1 -2 2 -2 2 -2 1 -3 2 -8 
2 1 1 4 2 -5 1 -1 2 -8 2 9 1 0 2 2 
2 -6 1 -5 2 3 2 -5 1 -4 2 -4 1 -2 2 3 
2 -2 1 -5 2 -1 2 -2 1 -1 2 -3 1 5 2 -6 
2 0 1 -4 2 -1 2 5 1 -3 2 -6 2 9 1 5 
2 -16 1 4 2 8 2 -3 1 -1 2 -2 2 -2 1 -3 
2 -7 2 -2 1 0 2096 1790 300 MP stroke
2 -6 1 -2 2 -1 2 -4 1 -3 2 1 2 -5 1 5 
2 5 2 -9 1 -3 2 1 1 -7 2 -3 2 0 1 1 
2 -3 2 -7 1 1 2 -3 1 -3 2 0 2 -1 1 -11 
2 4 2 3 1 -7 2 -6 2 -6 1 10 2 1 1 -4 
2 -1 2 2 1 1 2 -6 2 -2 1 2 2 -3 2 -14 
1 10 2 1 1 0 2 -2 2 -7 1 3 2 2 2 3 
1 -11 2 -5 1 -8 2 2 2 6 1 -6 2 -8 2 4 
1 1 2 2 2 -10 1 -8 2 1 1 5 2 -1 2 -7 
1 -4 2 1 2 0 1 -8 2 -1 2 3 1 4 2 0 
1 1 2 -6 2 -10 1 -1 2 -1 2 -3 1 2 2 -6 
2 3 1 -3 2 0 1 1 2 -4 2 0 1 0 2 2 
2 -2 1 -5 2 0 1 -5 2 7 2 -5 1 -8 2 -1 
2 12 1 -10 2 -2 2 3 1 -3 2 7 1 -2 2 -4 
2 -3 1 -3 2 -6 2 -2 1 4 2 -2 2 -7 1 -5 
2 1 1 -4 2 0 2 -4 1 0 2 -5 2 5 1 -7 
2 -8 2 -1 1 -10 2 5 1 0 2 -18 2 8 1 4 
2 -1 2 1 1 -11 2 2 1 8 2 -8 2 -13 1 3 
2 9 2 -6 1 -5 2 0 2 0 1 1 2 -1 1 0 
2 -3 2 -5 1 1 2 -1 2 -4 1 -3 2 -3 2 -2 
1 -3 2 4 1 -10 2 -6 2 -2 1 -7 2 3 2 1 
1 -3 2 -2 1 -1 2 1 2 0 1 2 2 -8 2 1 
1 8 2 -5 2 -6 1 4 2 -2 1 -5 2 -4 2 6 
1 -3 2 -4 2 5 1 -4 2 -9 2 0 1 -5 2 -2 
1 -5 2 -4 2 -2 1 6 2 -3 2 0 1 -4 2 0 
2 -12 1 2 2 3 1 -6 2 -2 2 -11 1 -5 2 4 
2 -6 1 4 2 0 1 -5 2 -14 2 -2 1 3 2 6 
2 -2 1 -6 2 -3 2 -1 1 -5 2 -3 1 0 2 -12 
2 -4 1 4 2 3 2 1 1 2 2 -3 2 2 1 3 
2 -9 1 -6 2 4 2 1 1 -3 2 -3 2 -4 1 -3 
2 -2 2 -6 1 -5 2 0 1 -2 2 -4 2 -6 1 5 
2 -2 2 1 1 -3 2 1 1 -3 2 -8 2 0 1 0 
2 -3 2 -4 1 -5 2 0 2 -1 1 -4 2 -6 1 0 
2 -4 2 4 1 -1 2 -4 2 -4 1 -4 2 0 2 -3 
1 -7 2 -5 1 1 2 -8 2 -11 1 -3 2 4 2 1 
1 -11 2 -2 1 0 2 3 2 -2 1 -7 2 1 2 -4 
1 1 2 4 2 -4 1 -8 2 -1 1 8 2 -2 2 0 
1 -10 2 -5 2 -4 1 4 2 0 2 -4 1 -6 2 -4 
1 1 2 -5 2 3 1607 2364 300 MP stroke
1 0 2 -6 2 1 1 -3 2 -3 2 -4 1 -5 2 -4 
1 1 2 -4 2 -11 1 -6 2 3 2 3 1 0 2 -8 
1 -2 2 -6 2 -2 1 -4 2 -7 2 4 1 3 2 0 
2 0 1 -3 2 1 1 -5 2 -2 2 -4 1 -2 2 -5 
2 -1 1 -3 2 -1 2 -1 1 -6 2 -8 1 -7 2 1 
2 1 1 -6 2 2 2 -5 1 -9 2 -4 1 6 2 -9 
2 -5 1 1 2 -3 2 -4 1 2 2 -4 2 -7 1 -2 
2 2 1 -4 2 1 2 -2 1 -5 2 -4 2 -7 1 2 
2 -9 2 0 1 -7 2 -3 1 1 2 0 2 -6 1 -5 
2 3 2 -5 1 -11 2 -6 2 0 1 8 2 2 1 -8 
2 -9 2 -2 1 0 2 1 2 -8 1 3 2 2 1 -4 
2 -7 2 -4 1 -7 2 0 2 -4 1 -3 2 -12 2 -2 
1 10 2 -3 1 -3 2 -10 2 -4 1 2 2 1 2 -6 
1 -10 2 -4 2 1 1 -1 2 -3 1 -10 2 -9 2 5 
1 -7 2 -3 2 -1 1 -8 2 -2 2 4 1 -3 2 -5 
1 -1 2 -3 2 -1 1 -3 2 2 2 -7 1 -7 2 -8 
1 -3 2 3 2 -8 1 -3 2 -5 2 -5 1 6 2 -10 
2 -6 1 3 2 -2 1 -9 2 -1 2 -1 1 -6 2 -7 
2 -2 1 -2 2 -5 2 -4 1 -2 2 -5 1 -1 2 -1 
2 -3 1 -6 2 -3 2 3 1 -5 2 -6 1 -4 2 -6 
2 -4 1 1 2 -2 2 -3 1 -5 2 -5 2 -2 1 -6 
2 2 1 -6 2 -4 2 -2 1 -5 2 -8 2 -5 1 -5 
2 -3 2 -2 1 -3 2 -3 1 -4 2 -1 2 -1 1 0 
2 -5 2 -12 1 -2 2 0 2 -3 1 -2 2 -5 1 -6 
2 1 2 -10 1 -6 2 -3 2 0 1 -4 2 -3 1 -12 
2 4 2 -3 1 -3 2 -3 2 -4 1 -5 2 -3 2 -8 
1 -4 2 -5 1 0 2 -5 2 -4 1 -6 2 -1 2 -6 
1 -1 2 -5 2 -5 1 0 2 -4 1 -7 2 -4 2 -8 
1 0 2 1 2 -5 1 -5 2 0 2 -5 1 -2 2 -5 
1 -4 2 -6 2 -2 1 -1 2 -8 2 -6 1 -4 2 -1 
1 -3 2 -7 2 -6 1 -3 2 2 2 -6 1 -5 2 -1 
2 -8 1 -2 2 -3 1 -7 2 -5 2 2 1 -4 2 -7 
2 -4 1 -5 2 -6 2 -2 1 -3 2 -7 1 -7 2 -4 
2 -1 1 -3 2 -6 2 0 1 -7 2 -7 1 -2 2 -4 
2 -5 1 -5 2 -3 2 -7 1 -3 2 -3 2 -2 1 -3 
2 -6 1 -6 2 -5 2 -5 1 1 2 -6 2 -11 1 -3 
2 -3 2 -1 1 -6 2 -6 1 -5 2 -1 2 -5 1 -4 
2 -5 2 -4 1 -1 1119 3373 300 MP stroke
2 -4 2 -5 1 -6 2 -7 1 -4 2 -2 2 -3 1 -6 
2 -7 2 -6 1 -5 2 -2 1 -1 2 -5 2 -3 1 -5 
2 -1 2 -3 1 -5 2 -8 2 -5 1 -2 2 -3 1 -5 
2 -5 2 -5 1 -5 2 -4 2 -3 1 -4 2 -7 2 -6 
1 -5 2 -4 1 -1 2 -4 2 -5 1 -5 2 -7 2 -2 
1 -3 2 -3 1 -4 2 -6 2 -4 1 -6 2 -5 2 -4 
1 -3 2 -3 2 -4 1 -4 2 -5 1 -5 2 -2 2 -3 
1 -2 2 -5 2 -5 1 -7 2 -7 2 -2 1 -2 2 -3 
1 -3 2 -4 2 -4 1 -6 2 -4 2 -1 1 -3 2 -4 
2 -3 1 -4 2 -7 1 -5 2 -5 2 -3 1 -2 2 -3 
2 -2 1 -5 2 -5 1 -5 2 -1 2 -1 1 -4 2 -4 
2 -3 1 -3 2 -2 2 -2 1 -4 2 -3 1 -4 2 -4 
2 -1 1 -3 2 -2 2 -1 1 -2 2 -4 2 -3 1 -5 
2 -3 1 3 2 -3 2 -2 1 -3 2 -2 2 -4 1 -3 
2 -3 2 -2 1 -3 2 -1 1 -2 2 -3 2 -4 1 -3 
2 -2 2 -3 1 -2 2 -2 1 -2 2 -3 2 -4 1 -4 
2 -2 2 -2 1 -1 2 -2 2 -3 1 -4 2 -4 1 -4 
2 -3 2 0 1 -2 2 -3 2 -3 1 -4 2 -5 2 -4 
1 1 2 -3 1 -2 2 -3 2 -4 1 -3 2 -3 2 -3 
1 -2 2 -3 1 -2 2 -3 2 -3 1 -3 2 -3 2 -2 
1 -3 2 -2 2 -2 1 -2 2 -3 1 -2 2 -3 2 -3 
1 -2 2 -2 2 -2 1 -2 2 -2 2 -2 1 -2 2 -1 
1 -2 2 -2 2 -1 1 -2 2 -1 2 -2 1 -2 2 -1 
2 -1 1 -1 2 -1 1 -1 2 -1 2 0 1 -1 2 0 
2 -1 1 0 2 -1 1 0 2 -1 2 0 1 -1 2 0 
2 -1 1 0 2 -1 2 0 1 -1 2 0 1 -1 2 0 
2 0 1 -1 2 -1 2 0 1 -1 2 0 2 -1 1 0 
2 -1 1 0 2 -1 2 -1 1 0 2 -1 2 -1 1 1 
2 -1 1 -1 750 3998 227 MP stroke
c8
2 -1 2 5 1 0 2 -1 1 -1 2 -4 2 0 1 12 
2 -9 2 0 1 0 2 -1 1 -5 2 -10 2 0 1 10 
2 -13 2 2 1 10 2 8 1 5 2 -5 2 1 1 -2 
2 -7 2 0 1 -1 2 3 1 -4 2 -5 2 4 1 6 
2 -1 2 -4 1 -4 2 -1 1 -6 2 -2 2 0 1 3 
2 -3 1 -5 2 -4 2 3 1 6 2 0 2 -17 1 12 
2 8 1 8 2 1 2 -3 1 -2 2 -1 2 -1 1 -9 
2 2 1 0 2 -1 2 -3 1 1 2 0 2 -8 1 -5 
2 0 1 1 2 -2 2 8 1 -4 2 -1 2 6 1 -6 
2 -10 1 9 2 3 2 7 1 -2 2 0 2 6 1 -2 
2 -1 1 -3 2 2 2 -3 1 -3 2 -2 1 -4 2 -1 
2 1 1 0 2 0 2 6 1 -6 2 -2 1 -1 2 5 
2 2 1 -5 2 1 2 -2 1 1 2 3 1 0 2 -5 
2 5 1 0 2 -5 2 0 1 3 2 -3 1 -2 2 -9 
2 3 1 0 2 2 2 -8 1 -11 2 6 1 9 2 8 
2 -1 1 -2 2 -3 2 -3 1 -1 2 -2 1 -1 2 3 
2 0 1 -4 2 -8 1 3 2 2 2 -1 1 -1 2 -6 
2 0 1 5 2 -2 1 -10 2 7 2 -1 1 -3 2 1 
2 3 1 -3 2 -8 1 4 2 -3 2 -8 1 4 2 -4 
2 5 1 6 2 4 1 -6 2 2 2 1 1 -1 2 -5 
2 -6 1 3 2 5 1 -5 2 -6 2 -2 1 7 2 -7 
2 1 1 14 2 0 1 -3 2 -3 2 -3 1 -2 2 0 
1 -1 2 -5 2 -2 1 -8 2 5 2 -2 1 -9 2 9 
1 2 2 -6 2 3 1 5 2 0 2 -7 1 3 2 -4 
1 1 2 3 2 9 1 -5 2 0 2 1 1 1 2 -1 
1 3 2 -3 2 -2 1 -4 2 3 2 -1 1 -3 2 -6 
1 -1 2 5 2 5 1 -1 2 0 2 1 1 0 2 -6 
1 -6 2 -5 2 3 1 -1 2 -9 1 0 2 6 2 5 
1 -8 2 7 2 -1 1 0 2 1 1 -7 2 2 2 0 
1 -6 2 1 2 4 1 -3 2 -1 1 -3 2 -1 2 -2 
1 -10 2 12 2 -3 1 -2 2 5 1 0 2 -9 2 -3 
1 2 2 -9 2 -3 1 6 2 5 1 4 2 -3 2 -4 
1 11 2 0 2 -9 1 -8 2 4 1 -6 2 5 2 10 
1 -13 2 2 1 7 2 -7 2 3 1 5 2 5 2 -11 
1 3 2 -1 1 -2 2 4 2 0 1 2 2 1 2 -6 
1 -2 2 3 1 -2 2 -5 2 -1 1 -9 2 0 2 4 
1 3 2 1 1 -2 2 -4 2 -3 1 -3 2 2 2 1 
1 -9 2 -3 1 3 3394 1151 300 MP stroke
2 -2 2 -3 1 2 2 -10 2 4 1 1 2 -4 1 -1 
2 -1 2 -8 1 -2 2 0 1 1 2 -6 2 -13 1 20 
2 -1 2 9 1 9 2 5 1 1 2 -9 2 -4 1 4 
2 -1 2 -5 1 -7 2 -5 1 1 2 -5 2 -4 1 -6 
2 14 2 -5 1 4 2 15 1 2 2 -2 2 -4 1 3 
2 0 2 3 1 1 2 -5 1 -7 2 -6 2 3 1 -1 
2 -6 1 0 2 4 2 0 1 -6 2 -10 2 3 1 1 
2 -2 1 -2 2 -6 2 -5 1 4 2 7 2 -1 1 -10 
2 9 1 -5 2 -6 2 6 1 -3 2 -6 2 2 1 10 
2 -5 1 -1 2 4 2 -2 1 -13 2 0 2 -5 1 7 
2 5 1 -1 2 7 2 6 1 3 2 -3 2 -5 1 -3 
2 -3 1 0 2 -2 2 -5 1 3 2 0 1 -5 2 3 
2 8 1 -2 2 -10 2 0 1 9 2 4 1 -7 2 0 
2 4 1 -8 2 -3 2 -4 1 1 2 1 1 3 2 -10 
2 5 1 3 2 -4 2 -1 1 0 2 -1 1 -4 2 4 
2 -8 1 -2 2 8 2 -3 1 -4 2 3 1 -3 2 0 
2 4 1 -4 2 -7 2 -7 1 -3 2 4 1 -1 2 -4 
2 -2 1 -1 2 5 1 0 2 -1 2 -6 1 -5 2 8 
2 0 1 -2 2 -2 1 -1 2 -2 2 3 1 -5 2 -6 
2 -7 1 4 2 -5 1 -1 2 -1 2 -3 1 -8 2 0 
2 -2 1 6 2 7 1 2 2 4 2 8 1 -4 2 3 
2 -1 1 6 2 -1 1 -4 2 1 2 -3 1 7 2 3 
2 -4 1 -10 2 -1 1 0 2 0 2 -2 1 -3 2 -4 
1 3 2 -7 2 -6 1 5 2 -1 2 -3 1 11 2 6 
1 -2 2 -8 2 6 1 0 2 -10 2 6 1 -4 2 -4 
1 -1 2 -6 2 -16 1 13 2 2 2 0 1 1 2 15 
1 1 2 -1 2 1 1 -8 2 -1 2 3 1 -6 2 -6 
1 7 2 0 2 -6 1 -7 2 3 2 5 1 -5 2 -6 
1 -2 2 -1 2 -2 1 2 2 -6 1 -4 2 7 2 -2 
1 2 2 1 2 -2 1 -2 2 3 1 -1 2 1 2 0 
1 1 2 3 2 -4 1 -4 2 -3 1 4 2 -4 2 -5 
1 -5 2 -2 2 -5 1 -1 2 -2 1 -3 2 5 2 8 
1 -2 2 0 2 -10 1 5 2 3 1 3 2 -5 2 -5 
1 1 2 11 2 -1 1 0 2 -2 1 -1 2 -3 2 -1 
1 -2 2 -7 1 -6 2 2 2 -3 1 1 2 -3 2 0 
1 -8 2 9 1 -7 2 -3 2 -1 1 2 2 -5 2 3 
1 2 2 -9 1 -4 2 5 2 5 1 -9 2 -2 2 7 
1 2 2 -1 1 2 2909 1368 300 MP stroke
2 -3 2 -8 1 1 2 -1 2 -9 1 1 2 12 1 -1 
2 5 2 -6 1 -2 2 -5 2 -1 1 -3 2 1 1 -6 
2 -11 2 7 1 5 2 -2 1 0 2 -10 2 10 1 10 
2 -8 2 -5 1 4 2 -2 1 -1 2 -2 2 -1 1 -5 
2 -6 2 -5 1 4 2 -9 1 -1 2 -3 2 -2 1 4 
2 -6 2 10 1 3 2 -4 1 -3 2 1 2 3 1 -1 
2 -8 2 6 1 2 2 -3 1 4 2 -3 2 1 1 -1 
2 -1 1 -3 2 -3 2 0 1 8 2 -4 2 -7 1 5 
2 -1 1 -1 2 4 2 -2 1 -5 2 4 2 -2 1 -6 
2 -3 1 -2 2 -3 2 -3 1 -2 2 -2 2 -4 1 -4 
2 -4 1 2 2 -4 2 5 1 -8 2 -5 2 -1 1 1 
2 -1 1 -9 2 2 2 12 1 -6 2 1 2 0 1 1 
2 10 1 -5 2 -10 2 9 1 0 2 -1 1 1 2 13 
2 -3 1 3 2 -4 2 -7 1 2 2 1 1 -7 2 4 
2 0 1 -4 2 -6 2 -3 1 3 2 -4 1 0 2 10 
2 3 1 -2 2 -6 2 0 1 -4 2 -8 1 -1 2 2 
2 -5 1 6 2 1 2 -8 1 -7 2 5 1 8 2 -4 
2 -1 1 -3 2 -1 2 -3 1 -5 2 2 1 -10 2 4 
2 4 1 -2 2 0 1 -2 2 -6 2 1 1 0 2 -5 
2 2 1 -1 2 -1 1 4 2 -6 2 1 1 3 2 7 
2 -5 1 -1 2 -2 1 -3 2 3 2 -3 1 -9 2 -2 
2 2 1 -6 2 -2 1 -3 2 -8 2 7 1 3 2 -4 
2 0 1 -1 2 -1 1 -8 2 3 2 5 1 5 2 0 
2 -4 1 -2 2 -9 1 -4 2 10 2 3 1 -14 2 -2 
1 3 2 4 2 -7 1 -4 2 4 2 5 1 -7 2 3 
1 -4 2 0 2 1 1 -3 2 2 2 -7 1 0 2 3 
1 -2 2 -7 2 1 1 -2 2 -5 2 -6 1 -1 2 -3 
1 -3 2 3 2 0 1 -7 2 4 2 4 1 3 2 -5 
1 4 2 4 2 -8 1 -4 2 1 2 -3 1 -6 2 -8 
1 -1 2 0 2 1 1 1 2 -7 1 -1 2 3 2 -8 
1 3 2 -2 2 5 1 -1 2 2 1 -4 2 1 2 6 
1 -4 2 -3 2 2 1 0 2 -2 1 -2 2 -4 2 2 
1 -1 2 -3 2 -2 1 1 2 -12 1 9 2 -1 2 -1 
1 -7 2 2 2 6 1 -3 2 -7 1 4 2 -2 2 -6 
1 -9 2 0 2 1 1 -4 2 0 1 -13 2 11 2 3 
1 0 2 0 1 2 2 -2 2 -7 1 -1 2 -4 2 0 
1 1 2 -6 1 -2 2 1 2 -6 1 -4 2 -2 2 3 
1 -5 2 -3 1 11 2424 1684 300 MP stroke
2 -1 2 1 1 2 2 1 2 -3 1 -6 2 -3 1 2 
2 -8 2 0 1 -3 2 -7 2 -4 1 7 2 -7 1 -2 
2 0 2 -4 1 4 2 -4 2 -2 1 3 2 -4 1 -9 
2 1 2 2 1 -2 2 14 1 -7 2 -3 2 5 1 3 
2 -3 2 -3 1 -1 2 -5 1 -1 2 0 2 0 1 -1 
2 -13 2 3 1 8 2 -4 1 -2 2 -3 2 -3 1 1 
2 -3 2 5 1 0 2 -4 1 -8 2 0 2 -2 1 -5 
2 -7 2 1 1 -8 2 -3 1 2 2 0 2 9 1 -3 
2 -5 1 9 2 1 2 -11 1 -6 2 1 2 4 1 -4 
2 -7 1 0 2 -6 2 8 1 8 2 0 2 1 1 5 
2 -1 1 1 2 -8 2 -4 1 -5 2 0 2 -5 1 -2 
2 -2 1 -6 2 -6 2 -2 1 0 2 -3 2 -2 1 -3 
2 -1 1 2 2 -4 2 -1 1 -1 2 -2 2 -6 1 -5 
2 0 1 1 2 -6 2 3 1 -8 2 -9 1 -8 2 15 
2 -2 1 3 2 -2 2 6 1 0 2 -7 1 -2 2 1 
2 -7 1 -6 2 -5 2 7 1 4 2 -7 1 -6 2 9 
2 4 1 -5 2 -6 2 0 1 7 2 -3 1 -2 2 1 
2 -4 1 -1 2 -2 2 0 1 -2 2 -6 1 -1 2 -5 
2 0 1 -6 2 -4 2 -2 1 0 2 -6 1 2 2 2 
2 -5 1 10 2 -3 1 -5 2 9 2 0 1 -4 2 -9 
2 -6 1 4 2 -4 1 -6 2 -4 2 2 1 0 2 -8 
2 1 1 6 2 -10 1 2 2 -1 2 2 1 -2 2 -4 
2 12 1 -3 2 -7 1 -1 2 -5 2 -5 1 2 2 -9 
2 -2 1 1 2 3 1 -1 2 -2 2 -5 1 1 2 -7 
2 -2 1 1 2 -5 1 -3 2 -3 2 -2 1 1 2 -6 
1 -6 2 -7 2 -4 1 10 2 4 2 -2 1 -6 2 -2 
1 5 2 3 2 2 1 -11 2 3 2 0 1 -2 2 -2 
1 -4 2 -4 2 5 1 2 2 -8 2 -6 1 3 2 -2 
1 1 2 -3 2 -7 1 -1 2 0 2 -3 1 -3 2 -2 
1 -1 2 -2 2 -5 1 0 2 -3 2 -4 1 2 2 -7 
1 -11 2 -2 2 6 1 -7 2 -6 1 2 2 2 2 -2 
1 -2 2 -1 2 0 1 -6 2 -3 1 1 2 -5 2 -3 
1 2 2 -2 2 3 1 -4 2 -11 1 9 2 1 2 -5 
1 -4 2 -6 2 -3 1 1 2 -1 1 -5 2 -6 2 4 
1 1 2 6 2 -4 1 -6 2 2 1 -3 2 -2 2 -5 
1 -9 2 2 2 -8 1 -3 2 -2 1 -2 2 -6 2 9 
1 -1 2 0 1 1 2 -5 2 -3 1 0 2 -4 2 -4 
1 0 2 -3 1 -2 1939 2168 300 MP stroke
2 -3 2 -8 1 -2 2 -3 2 4 1 -6 2 -10 1 1 
2 -5 2 2 1 -1 2 -7 2 -1 1 4 2 -5 1 -4 
2 11 2 1 1 -4 2 -6 2 9 1 2 2 -4 1 -4 
2 -2 2 -7 1 -7 2 -2 2 -1 1 -4 2 -1 1 -4 
2 -4 2 0 1 0 2 -2 1 -1 2 -9 2 1 1 -4 
2 2 2 -10 1 -5 2 -3 1 1 2 6 2 -4 1 -2 
2 0 2 5 1 -3 2 -9 1 -4 2 0 2 -1 1 -9 
2 1 2 1 1 0 2 -5 1 -7 2 -3 2 -2 1 1 
2 -10 2 -2 1 5 2 -3 1 1 2 -10 2 1 1 4 
2 1 2 -8 1 0 2 0 1 -9 2 -6 2 1 1 0 
2 0 1 0 2 -4 2 -3 1 0 2 -5 2 -8 1 1 
2 -2 1 -7 2 -4 2 7 1 -6 2 -1 2 -4 1 1 
2 -5 1 -1 2 1 2 -4 1 -4 2 -6 2 -1 1 0 
2 -4 1 -2 2 -2 2 -6 1 -4 2 0 2 -4 1 -5 
2 -6 1 2 2 8 2 -4 1 -5 2 -3 1 -2 2 -2 
2 -2 1 -8 2 -5 2 -4 1 9 2 -3 1 3 2 -3 
2 -7 1 -8 2 -2 2 6 1 -3 2 -8 1 3 2 -1 
2 -6 1 -1 2 -2 2 -2 1 -6 2 -6 1 -2 2 -5 
2 1 1 -4 2 -7 2 -4 1 5 2 0 1 -8 2 -1 
2 -4 1 6 2 -7 2 -7 1 1 2 -1 1 3 2 -3 
2 -7 1 -3 2 -3 1 0 2 -4 2 -2 1 -5 2 -8 
2 0 1 6 2 1 1 -8 2 1 2 -3 1 -1 2 -3 
2 -7 1 -8 2 -2 1 -3 2 -3 2 3 1 -2 2 -5 
2 0 1 -6 2 -1 1 -2 2 -4 2 -1 1 -5 2 -6 
2 -2 1 -2 2 -1 1 0 2 -2 2 -3 1 -3 2 2 
2 -2 1 -9 2 -8 1 -1 2 1 2 -4 1 -5 2 -5 
1 -3 2 -5 2 -5 1 4 2 -3 2 -5 1 -6 2 -3 
1 0 2 3 2 4 1 -3 2 -7 2 -3 1 -8 2 0 
1 -4 2 -2 2 -7 1 -5 2 -3 2 -1 1 -5 2 2 
1 -4 2 -7 2 -3 1 2 2 -3 2 -2 1 -6 2 -5 
1 -1 2 -10 2 2 1 -4 2 -5 2 3 1 -1 2 -5 
1 0 2 -1 2 -7 1 -6 2 0 1 -1 2 -6 2 -6 
1 0 2 -5 2 -4 1 -6 2 -4 1 -3 2 0 2 -4 
1 -13 2 0 2 -3 1 4 2 -4 1 -9 2 2 2 5 
1 -5 2 -4 2 -5 1 -5 2 -3 1 -6 2 -11 2 7 
1 -3 2 -1 2 -5 1 -10 2 -3 1 0 2 -2 2 -3 
1 -3 2 -2 2 -1 1 -3 2 -6 1 -8 2 1 2 -1 
1 -4 2 -8 1 -4 1454 2944 300 MP stroke
2 -1 2 -3 1 0 2 -8 2 -9 1 1 2 -3 1 -1 
2 -2 2 -6 1 -7 2 -2 2 -2 1 -6 2 -3 1 -1 
2 -3 2 -5 1 -2 2 -6 2 -10 1 -3 2 1 1 -1 
2 -7 2 -4 1 -5 2 -2 2 -1 1 -6 2 -8 1 -2 
2 -4 2 -5 1 -3 2 -7 2 -2 1 0 2 -2 1 -3 
2 -9 2 -3 1 0 2 -2 1 -3 2 -8 2 -3 1 -1 
2 -2 2 -5 1 -2 2 -4 1 -5 2 -5 2 -4 1 -4 
2 -4 2 -2 1 -6 2 -5 1 -2 2 -3 2 -4 1 -5 
2 -4 2 -4 1 -6 2 -5 1 -3 2 -1 2 -3 1 -3 
2 -3 2 -5 1 -4 2 -3 1 -3 2 -5 2 -6 1 -4 
2 -4 2 -2 1 -4 2 -5 1 -6 2 -3 2 -2 1 -4 
2 -5 1 -7 2 -8 2 -1 1 -1 2 -3 2 -2 1 -3 
2 -7 1 -3 2 -4 2 -5 1 -4 2 -7 2 -5 1 -3 
2 -4 1 -3 2 -2 2 -3 1 -7 2 -7 2 0 1 -3 
2 -3 1 -4 2 -3 2 -5 1 -1 2 -3 2 -3 1 -4 
2 -5 1 -4 2 -6 2 -5 1 -4 2 -4 1 -4 2 -3 
2 -5 1 -4 2 -4 2 -3 1 -3 2 -4 1 -3 2 -4 
2 -4 1 -3 2 -3 2 -3 1 -3 2 -4 1 -4 2 -4 
2 -4 1 -3 2 -2 2 -5 1 -5 2 -4 1 -2 2 -2 
2 -3 1 -2 2 -5 2 -4 1 -2 2 0 1 -3 2 -4 
2 -3 1 -2 2 -3 2 -3 1 -4 2 -5 1 -2 2 -4 
2 -3 1 -2 2 -1 1 -3 2 -3 2 -4 1 -4 2 -3 
2 -3 1 -3 2 -3 1 -4 2 -2 2 -4 1 -3 2 -2 
2 -2 1 -4 2 -4 1 -6 2 0 2 -3 1 -3 2 -1 
2 -2 1 -3 2 -3 1 -3 2 -3 2 -3 1 -2 2 -1 
2 -3 1 -3 2 -3 1 -3 2 -3 2 -1 1 -2 2 -3 
2 0 1 -3 2 -5 1 -3 2 -3 2 3 1 -3 2 -4 
1 -2 2 -3 2 -3 1 0 2 -2 2 -3 1 -4 2 -3 
1 -3 2 -2 2 -3 1 -2 2 -4 2 -3 1 -3 2 -4 
1 -1 2 -2 2 -3 1 -3 2 -3 2 -3 1 -3 2 -3 
1 -3 2 -2 2 -3 1 -2 2 -3 2 -4 1 -2 2 -3 
1 -3 2 -2 2 -3 1 -3 2 -2 2 -2 1 -3 2 -3 
1 -3 2 -3 2 -2 1 -2 2 -3 1 -2 2 -3 2 -3 
1 -2 2 -3 2 -2 1 -2 2 -1 1 -1 2 -2 2 -2 
1 -2 2 -3 2 -1 1 -2 2 -2 1 -1 2 -1 2 -2 
1 -1 2 -1 2 -1 1 -1 2 -2 1 -2 2 -2 2 -1 
1 -2 2 -1 2 -2 1 -1 2 -2 1 -1 2 -2 2 -2 
1 -2 2 -1 2 -2 968 3878 300 MP stroke
1 -1 2 -1 1 -2 2 -2 2 -1 1 -2 2 -2 1 -2 
2 -1 2 -1 1 -1 2 -2 2 -1 1 -2 2 -1 1 -2 
2 -2 2 -1 1 -1 2 -1 2 -1 1 -1 2 -1 1 -1 
2 -1 2 0 1 -2 2 -1 2 -1 1 -1 2 -1 1 -1 
2 -1 2 -1 1 -1 2 -1 2 -1 1 -1 2 -1 1 -1 
2 -1 2 -1 1 -1 2 -1 2 -2 1 -1 2 -1 1 -1 
2 -1 2 -1 1 -1 2 -2 1 -1 2 -1 2 -1 1 -1 
2 -1 2 -1 1 -2 2 0 1 -1 2 -1 2 -1 1 -2 
2 -1 2 -1 1 0 2 -1 1 -1 2 -1 2 -1 1 -1 
2 -1 2 -1 1 0 2 -1 1 0 2 -1 2 0 1 -1 
2 0 2 -1 1 0 2 -1 1 -1 2 0 2 -1 1 -1 
2 0 2 -1 1 0 2 -1 1 0 2 -1 2 -1 1 0 
2 -1 1 -1 2 -1 2 0 1 -1 2 -1 2 0 1 -1 
2 0 1 -1 2 -1 2 -1 1 0 2 -1 2 -1 1 -1 
2 0 1 -1 2 -1 2 -1 1 0 2 -1 2 -1 1 -1 
2 -1 1 -1 2 -1 2 0 1 0 2 0 2 -1 1 0 
2 0 1 0 2 0 2 0 1 -1 2 0 1 0 750 3998 136 MP stroke
gr

c8
DA
0 sg
%%IncludeResource: font Helvetica
/Helvetica /WindowsLatin1Encoding 83.3333 FMSR

 732 4037 mt 
( ) s
4483  536 mt 
( ) s
8.33333 w
DO
SO
12.5 w
0.1 sg
 750  500 mt 4500  500 L
 750 4000 mt 4500 4000 L
4500 4000 mt 4500  500 L
 750 4000 mt  750  500 L
 750 4000 mt 4500 4000 L
 750 4000 mt  750  500 L
 750 4000 mt  750 3943 L
 750  500 mt  750  556 L
%%IncludeResource: font Helvetica
/Helvetica /WindowsLatin1Encoding 133.333 FMSR

 713 4148 mt 
(0) s
1350 4000 mt 1350 3943 L
1350  500 mt 1350  556 L
1221 4148 mt 
(0.02) s
1950 4000 mt 1950 3943 L
1950  500 mt 1950  556 L
1821 4148 mt 
(0.04) s
2550 4000 mt 2550 3943 L
2550  500 mt 2550  556 L
2421 4148 mt 
(0.06) s
3150 4000 mt 3150 3943 L
3150  500 mt 3150  556 L
3021 4148 mt 
(0.08) s
3750 4000 mt 3750 3943 L
3750  500 mt 3750  556 L
3658 4148 mt 
(0.1) s
4350 4000 mt 4350 3943 L
4350  500 mt 4350  556 L
4221 4148 mt 
(0.12) s
 750 4000 mt  806 4000 L
4500 4000 mt 4443 4000 L
 652 4049 mt 
(0) s
 750 3300 mt  806 3300 L
4500 3300 mt 4443 3300 L
 652 3349 mt 
(5) s
 750 2600 mt  806 2600 L
4500 2600 mt 4443 2600 L
 578 2649 mt 
(10) s
 750 1900 mt  806 1900 L
4500 1900 mt 4443 1900 L
 578 1949 mt 
(15) s
 750 1200 mt  806 1200 L
4500 1200 mt 4443 1200 L
 578 1249 mt 
(20) s
 750  500 mt  806  500 L
4500  500 mt 4443  500 L
 578  549 mt 
(25) s
 750  500 mt 4500  500 L
 750 4000 mt 4500 4000 L
4500 4000 mt 4500  500 L
 750 4000 mt  750  500 L
0 sg
%%IncludeResource: font Symbol
/Symbol /WindowsLatin1Encoding 125 FMSR

3697 1491 mt 
(m) s
%%IncludeResource: font Helvetica-Bold
/Helvetica-Bold /WindowsLatin1Encoding 100 FMSR

3769 1553 mt 
(r) s
%%IncludeResource: font Helvetica-Bold
/Helvetica-Bold /WindowsLatin1Encoding 125 FMSR

3807 1491 mt 
(  =  0.001) s
gs 3372 1344 1007 1813 rc
16.6667 w
250 0 3421 1470 2 MP stroke
gr

16.6667 w
%%IncludeResource: font Symbol
/Symbol /WindowsLatin1Encoding 125 FMSR

3697 1714 mt 
(m) s
%%IncludeResource: font Helvetica-Bold
/Helvetica-Bold /WindowsLatin1Encoding 100 FMSR

3769 1776 mt 
(r) s
%%IncludeResource: font Helvetica-Bold
/Helvetica-Bold /WindowsLatin1Encoding 125 FMSR

3807 1714 mt 
(  =  0.005) s
gs 3372 1344 1007 1813 rc
c8
250 0 3421 1692 2 MP stroke
gr

c8
0 sg
%%IncludeResource: font Symbol
/Symbol /WindowsLatin1Encoding 125 FMSR

3697 1937 mt 
(m) s
%%IncludeResource: font Helvetica-Bold
/Helvetica-Bold /WindowsLatin1Encoding 100 FMSR

3769 1999 mt 
(r) s
%%IncludeResource: font Helvetica-Bold
/Helvetica-Bold /WindowsLatin1Encoding 125 FMSR

3807 1937 mt 
(  =  0.01) s
gs 3372 1344 1007 1813 rc
c9
250 0 3421 1915 2 MP stroke
gr

c9
0 sg
%%IncludeResource: font Symbol
/Symbol /WindowsLatin1Encoding 125 FMSR

3697 2160 mt 
(m) s
%%IncludeResource: font Helvetica-Bold
/Helvetica-Bold /WindowsLatin1Encoding 100 FMSR

3769 2222 mt 
(r) s
%%IncludeResource: font Helvetica-Bold
/Helvetica-Bold /WindowsLatin1Encoding 125 FMSR

3807 2160 mt 
(  =  0.025) s
gs 3372 1344 1007 1813 rc
c10
250 0 3421 2138 2 MP stroke
gr

c10
0 sg
%%IncludeResource: font Symbol
/Symbol /WindowsLatin1Encoding 125 FMSR

3697 2383 mt 
(m) s
%%IncludeResource: font Helvetica-Bold
/Helvetica-Bold /WindowsLatin1Encoding 100 FMSR

3769 2445 mt 
(r) s
%%IncludeResource: font Helvetica-Bold
/Helvetica-Bold /WindowsLatin1Encoding 125 FMSR

3807 2383 mt 
(  =  0.05) s
gs 3372 1344 1007 1813 rc
c11
250 0 3421 2361 2 MP stroke
gr

c11
0 sg
%%IncludeResource: font Symbol
/Symbol /WindowsLatin1Encoding 125 FMSR

3697 2606 mt 
(m) s
%%IncludeResource: font Helvetica-Bold
/Helvetica-Bold /WindowsLatin1Encoding 100 FMSR

3769 2668 mt 
(r) s
%%IncludeResource: font Helvetica-Bold
/Helvetica-Bold /WindowsLatin1Encoding 125 FMSR

3807 2606 mt 
(  =  0.1) s
gs 3372 1344 1007 1813 rc
c12
250 0 3421 2584 2 MP stroke
gr

c12
0 sg
%%IncludeResource: font Symbol
/Symbol /WindowsLatin1Encoding 125 FMSR

3697 2829 mt 
(m) s
%%IncludeResource: font Helvetica-Bold
/Helvetica-Bold /WindowsLatin1Encoding 100 FMSR

3769 2891 mt 
(r) s
%%IncludeResource: font Helvetica-Bold
/Helvetica-Bold /WindowsLatin1Encoding 125 FMSR

3807 2829 mt 
(  =  0.3) s
gs 3372 1344 1007 1813 rc
DA
250 0 3421 2807 2 MP stroke
SO
gr

%%IncludeResource: font Symbol
/Symbol /WindowsLatin1Encoding 125 FMSR

3697 3052 mt 
(m) s
%%IncludeResource: font Helvetica-Bold
/Helvetica-Bold /WindowsLatin1Encoding 100 FMSR

3769 3114 mt 
(r) s
%%IncludeResource: font Helvetica-Bold
/Helvetica-Bold /WindowsLatin1Encoding 125 FMSR

3807 3052 mt 
(  =  0.5) s
gs 3372 1344 1007 1813 rc
DA
c8
250 0 3421 3029 2 MP stroke
SO
12.5 w
gr

12.5 w
c8

end %%Color Dict

eplot
%%EndObject

epage
end

showpage

%%Trailer
%%EOF
