%!PS-Adobe-3.0 EPSF-3.0
%%Creator: MATLAB, The MathWorks, Inc. Version 8.1.0.604 (R2013a). Operating System: Microsoft Windows 7.
%%Title: .\Rolling_Confined_Contacts_Paired.eps
%%CreationDate: 08/17/2013  16:57:56
%%DocumentNeededFonts: Helvetica-Bold
%%+ Helvetica
%%DocumentProcessColors: Cyan Magenta Yellow Black
%%LanguageLevel: 2
%%Pages: 1
%%BoundingBox:    50    93   564   587
%%EndComments

%%BeginProlog
% MathWorks dictionary
/MathWorks 160 dict begin
% definition operators
/bdef {bind def} bind def
/ldef {load def} bind def
/xdef {exch def} bdef
/xstore {exch store} bdef
% operator abbreviations
/c  /clip ldef
/cc /concat ldef
/cp /closepath ldef
/gr /grestore ldef
/gs /gsave ldef
/mt /moveto ldef
/np /newpath ldef
/cm /currentmatrix ldef
/sm /setmatrix ldef
/rm /rmoveto ldef
/rl /rlineto ldef
/s {show newpath} bdef
/sc {setcmykcolor} bdef
/sr /setrgbcolor ldef
/sg /setgray ldef
/w /setlinewidth ldef
/j /setlinejoin ldef
/cap /setlinecap ldef
/rc {rectclip} bdef
/rf {rectfill} bdef
% page state control
/pgsv () def
/bpage {/pgsv save def} bdef
/epage {pgsv restore} bdef
/bplot /gsave ldef
/eplot {stroke grestore} bdef
% orientation switch
/portraitMode 0 def /landscapeMode 1 def /rotateMode 2 def
% coordinate system mappings
/dpi2point 0 def
% font control
/FontSize 0 def
/FMS {/FontSize xstore findfont [FontSize 0 0 FontSize neg 0 0]
  makefont setfont} bdef
/ISOLatin1Encoding where {pop /WindowsLatin1Encoding 256 array bdef
ISOLatin1Encoding WindowsLatin1Encoding copy pop
/.notdef/.notdef/quotesinglbase/florin/quotedblbase/ellipsis/dagger
/daggerdbl/circumflex/perthousand/Scaron/guilsinglleft/OE/.notdef/.notdef
/.notdef/.notdef/quoteleft/quoteright/quotedblleft/quotedblright/bullet
/endash/emdash/tilde/trademark/scaron/guilsinglright/oe/.notdef/.notdef
/Ydieresis WindowsLatin1Encoding 128 32 getinterval astore pop}
{/WindowsLatin1Encoding StandardEncoding bdef} ifelse
/reencode {exch dup where {pop load} {pop StandardEncoding} ifelse
  exch dup 3 1 roll findfont dup length dict begin
  { 1 index /FID ne {def}{pop pop} ifelse } forall
  /Encoding exch def currentdict end definefont pop} bdef
/isroman {findfont /CharStrings get /Agrave known} bdef
/FMSR {3 1 roll 1 index dup isroman {reencode} {pop pop} ifelse
  exch FMS} bdef
/csm {1 dpi2point div -1 dpi2point div scale neg translate
 dup landscapeMode eq {pop -90 rotate}
  {rotateMode eq {90 rotate} if} ifelse} bdef
% line types: solid, dotted, dashed, dotdash
/SO { [] 0 setdash } bdef
/DO { [.5 dpi2point mul 4 dpi2point mul] 0 setdash } bdef
/DA { [6 dpi2point mul] 0 setdash } bdef
/DD { [.5 dpi2point mul 4 dpi2point mul 6 dpi2point mul 4
  dpi2point mul] 0 setdash } bdef
% macros for lines and objects
/L {lineto stroke} bdef
/MP {3 1 roll moveto 1 sub {rlineto} repeat} bdef
/AP {{rlineto} repeat} bdef
/PDlw -1 def
/W {/PDlw currentlinewidth def setlinewidth} def
/PP {closepath eofill} bdef
/DP {closepath stroke} bdef
/MR {4 -2 roll moveto dup  0 exch rlineto exch 0 rlineto
  neg 0 exch rlineto closepath} bdef
/FR {MR stroke} bdef
/PR {MR fill} bdef
/L1i {{currentfile picstr readhexstring pop} image} bdef
/tMatrix matrix def
/MakeOval {newpath tMatrix currentmatrix pop translate scale
0 0 1 0 360 arc tMatrix setmatrix} bdef
/FO {MakeOval stroke} bdef
/PO {MakeOval fill} bdef
/PD {currentlinewidth 2 div 0 360 arc fill
   PDlw -1 eq not {PDlw w /PDlw -1 def} if} def
/FA {newpath tMatrix currentmatrix pop translate scale
  0 0 1 5 -2 roll arc tMatrix setmatrix stroke} bdef
/PA {newpath tMatrix currentmatrix pop	translate 0 0 moveto scale
  0 0 1 5 -2 roll arc closepath tMatrix setmatrix fill} bdef
/FAn {newpath tMatrix currentmatrix pop translate scale
  0 0 1 5 -2 roll arcn tMatrix setmatrix stroke} bdef
/PAn {newpath tMatrix currentmatrix pop translate 0 0 moveto scale
  0 0 1 5 -2 roll arcn closepath tMatrix setmatrix fill} bdef
/vradius 0 def /hradius 0 def /lry 0 def
/lrx 0 def /uly 0 def /ulx 0 def /rad 0 def
/MRR {/vradius xdef /hradius xdef /lry xdef /lrx xdef /uly xdef
  /ulx xdef newpath tMatrix currentmatrix pop ulx hradius add uly
  vradius add translate hradius vradius scale 0 0 1 180 270 arc 
  tMatrix setmatrix lrx hradius sub uly vradius add translate
  hradius vradius scale 0 0 1 270 360 arc tMatrix setmatrix
  lrx hradius sub lry vradius sub translate hradius vradius scale
  0 0 1 0 90 arc tMatrix setmatrix ulx hradius add lry vradius sub
  translate hradius vradius scale 0 0 1 90 180 arc tMatrix setmatrix
  closepath} bdef
/FRR {MRR stroke } bdef
/PRR {MRR fill } bdef
/MlrRR {/lry xdef /lrx xdef /uly xdef /ulx xdef /rad lry uly sub 2 div def
  newpath tMatrix currentmatrix pop ulx rad add uly rad add translate
  rad rad scale 0 0 1 90 270 arc tMatrix setmatrix lrx rad sub lry rad
  sub translate rad rad scale 0 0 1 270 90 arc tMatrix setmatrix
  closepath} bdef
/FlrRR {MlrRR stroke } bdef
/PlrRR {MlrRR fill } bdef
/MtbRR {/lry xdef /lrx xdef /uly xdef /ulx xdef /rad lrx ulx sub 2 div def
  newpath tMatrix currentmatrix pop ulx rad add uly rad add translate
  rad rad scale 0 0 1 180 360 arc tMatrix setmatrix lrx rad sub lry rad
  sub translate rad rad scale 0 0 1 0 180 arc tMatrix setmatrix
  closepath} bdef
/FtbRR {MtbRR stroke } bdef
/PtbRR {MtbRR fill } bdef
/stri 6 array def /dtri 6 array def
/smat 6 array def /dmat 6 array def
/tmat1 6 array def /tmat2 6 array def /dif 3 array def
/asub {/ind2 exch def /ind1 exch def dup dup
  ind1 get exch ind2 get sub exch } bdef
/tri_to_matrix {
  2 0 asub 3 1 asub 4 0 asub 5 1 asub
  dup 0 get exch 1 get 7 -1 roll astore } bdef
/compute_transform {
  dmat dtri tri_to_matrix tmat1 invertmatrix 
  smat stri tri_to_matrix tmat2 concatmatrix } bdef
/ds {stri astore pop} bdef
/dt {dtri astore pop} bdef
/db {2 copy /cols xdef /rows xdef mul dup 3 mul string
  currentfile 
  3 index 0 eq {/ASCIIHexDecode filter}
  {/ASCII85Decode filter 3 index 2 eq {/RunLengthDecode filter} if }
  ifelse exch readstring pop
  dup 0 3 index getinterval /rbmap xdef
  dup 2 index dup getinterval /gbmap xdef
  1 index dup 2 mul exch getinterval /bbmap xdef pop pop}bdef
/it {gs np dtri aload pop moveto lineto lineto cp c
  cols rows 8 compute_transform 
  rbmap gbmap bbmap true 3 colorimage gr}bdef
/il {newpath moveto lineto stroke}bdef
currentdict end def
%%EndProlog

%%BeginSetup
MathWorks begin

0 cap

end
%%EndSetup

%%Page: 1 1
%%BeginPageSetup
%%PageBoundingBox:    50    93   564   587
MathWorks begin
bpage
%%EndPageSetup

%%BeginObject: obj1
bplot

/dpi2point 8.33333 def
portraitMode 0150 5158 csm

  268   264  4288  4116 rc
84 dict begin %Colortable dictionary
/c0 { 0.000000 0.000000 0.000000 sr} bdef
/c1 { 1.000000 1.000000 1.000000 sr} bdef
/c2 { 0.900000 0.000000 0.000000 sr} bdef
/c3 { 0.000000 0.820000 0.000000 sr} bdef
/c4 { 0.000000 0.000000 0.800000 sr} bdef
/c5 { 0.910000 0.820000 0.320000 sr} bdef
/c6 { 1.000000 0.260000 0.820000 sr} bdef
/c7 { 0.000000 0.820000 0.820000 sr} bdef
c0
1 j
1 sg
   0    0 5001 5001 rf
12.5 w
0 3500 3750 0 0 -3500 750 4000 4 MP
PP
-3750 0 0 3500 3750 0 0 -3500 750 4000 5 MP stroke
gs 750 500 3751 3501 rc
16.6667 w
0 sg
-6 2 -5 0 -6 5 -6 3 -6 1 -6 7 -6 2 -6 3 
-6 2 -5 5 -6 8 -6 5 -6 7 -6 8 -6 6 -6 5 
-5 8 -6 4 -6 4 -6 10 -6 7 -6 2 -6 13 -6 11 
-5 13 -6 7 -6 5 -6 7 -6 12 -6 6 -6 8 -5 10 
-6 8 -6 14 -6 11 -6 11 -6 10 -6 8 -6 6 -5 12 
-6 9 -6 10 -6 11 -6 7 -6 15 -6 12 -6 10 -5 10 
-6 14 -6 8 -6 13 -6 11 -6 13 -6 14 -5 12 -6 12 
-6 10 -6 14 -6 10 -6 19 -6 10 -6 15 -5 8 -6 15 
-6 14 -6 9 -6 18 -6 13 -6 17 -5 8 -6 18 11 -11 
12 -15 12 -15 12 -14 11 -13 12 -14 12 -18 12 -15 11 -17 
12 -14 12 -16 11 -15 12 -15 12 -11 12 -14 11 -13 12 -15 
12 -14 12 -16 11 -14 12 -14 12 -18 12 -14 11 -14 12 -11 
12 -12 12 -15 11 -15 12 -17 12 -11 11 -12 12 -12 12 -14 
12 -18 11 -11 12 -14 12 -12 12 -15 11 -12 12 -12 12 -10 
12 -16 11 -13 12 -13 12 -13 12 -13 11 -14 12 -12 12 -16 
11 -17 12 -12 12 -12 12 -10 11 -14 12 -13 12 -12 12 -9 
11 -13 12 -12 12 -13 12 -15 11 -12 12 -15 12 -16 12 -14 
11 -12 12 -11 12 -11 11 -11 12 -15 12 -12 12 -12 11 -11 
12 -13 12 -12 12 -16 11 -11 12 -14 12 -10 12 -12 11 -8 
12 -11 12 -15 12 -9 11 -14 12 -11 12 -11 11 -10 12 -7 
12 -17 12 -10 11 -10 12 -7 12 -10 12 -10 11 -13 12 -11 
12 -15 12 -14 11 -13 12 -10 12 -12 12 -16 11 -12 12 -11 
12 -11 11 -11 12 -11 12 -10 12 -12 11 -12 12 -15 12 -12 
12 -8 11 -11 12 -11 12 -12 12 -12 11 -10 12 -9 12 -10 
12 -13 11 -9 12 -11 12 -8 12 -10 11 -8 12 -9 12 -10 
11 -11 12 -12 12 -8 12 -13 11 -14 12 -5 12 -9 12 -10 
11 -8 12 -8 12 -7 12 -10 11 -8 12 -11 12 -12 12 -11 
11 -12 12 -9 12 -8 11 -10 12 -9 12 -11 12 -6 11 -10 
12 -14 12 -9 12 -11 11 -13 12 -8 12 -9 12 -9 11 -11 
12 -12 12 -9 12 -8 11 -7 12 -6 12 -11 11 -7 12 -9 
12 -10 12 -11 11 -9 12 -11 12 -7 12 -8 11 -8 12 -10 
12 -6 12 -10 11 -8 12 -9 12 -8 12 -9 11 -6 12 -9 
12 -8 11 -7 12 -10 12 -7 12 -10 11 -4 12 -10 12 -4 
12 -5 11 -6 12 -4 12 -6 12 -6 11 -8 12 -6 12 -8 
12 -7 11 -7 12 -9 12 -8 11 -7 12 -5 12 -4 12 -13 
11 -6 12 -3 12 -8 12 -7 11 -7 12 -6 12 0 12 -4 
11 -5 12 -6 12 -4 12 -6 11 -5 12 -7 12 -3 11 -9 
12 -2 12 -5 12 -4 1383 3116 300 MP stroke
11 -6 12 -8 12 -2 12 -6 11 -5 12 -2 12 -6 12 -2 
11 -3 12 -6 12 -3 12 -6 11 -1 12 0 12 -5 11 -5 
12 -3 12 -3 12 -1 11 -3 12 -3 12 -3 12 0 11 -6 
12 -2 12 -4 12 -3 11 -3 12 -5 12 -4 12 -1 11 -2 
12 -1 12 -4 11 0 12 2 12 -1 12 0 11 0 12 -1 
12 -2 12 -1 11 -2 12 -1 12 -1 12 0 11 0 12 0 
12 0 12 -1 11 1 12 0 12 -1 11 0 750 3241 55 MP stroke
gr

16.6667 w
0 sg
0.1 sg
%%IncludeResource: font Helvetica-Bold
/Helvetica-Bold /WindowsLatin1Encoding 183.333 FMSR

2010 4322 mt 
(Vertical Strain) s
 461 3127 mt  -90 rotate
(Number of Contacts) s
90 rotate
gs 750 500 3751 3501 rc
/c8 { 1.000000 0.000000 0.000000 sr} bdef
c8
-6 6 -6 4 -6 3 -6 6 -7 6 -6 6 -6 5 -6 7 
-6 3 -6 5 -6 6 -6 4 -6 8 -6 2 -6 9 -6 4 
-6 7 -6 7 -6 10 -6 8 -6 6 -6 8 -7 8 -6 2 
-6 9 -6 10 -6 11 -6 2 -6 11 -6 8 -6 7 -6 10 
-6 5 -6 11 -6 8 -6 8 -6 11 -6 7 -6 8 -6 11 
-7 9 -6 11 -6 11 -6 7 -6 11 -6 8 -6 13 -6 6 
-6 8 -6 13 -6 14 -6 12 -6 8 -6 12 -6 9 -6 7 
-6 7 -6 15 -7 13 -6 15 -6 15 -6 17 -6 10 -6 14 
-6 7 -6 18 -6 15 -6 13 -6 18 -6 10 -6 9 -6 14 
-6 14 -6 14 12 -15 12 -13 12 -21 12 -13 12 -13 12 -12 
12 -15 13 -11 12 -16 12 -12 12 -14 12 -16 12 -17 12 -13 
12 -15 12 -14 13 -14 12 -14 12 -9 12 -17 12 -13 12 -8 
12 -11 12 -12 12 -13 13 -13 12 -15 12 -16 12 -13 12 -13 
12 -15 12 -14 12 -15 12 -15 13 -13 12 -17 12 -10 12 -14 
12 -11 12 -15 12 -11 12 -12 12 -13 13 -13 12 -15 12 -12 
12 -16 12 -13 12 -9 12 -16 12 -12 12 -15 13 -11 12 -11 
12 -13 12 -11 12 -11 12 -14 12 -11 12 -13 12 -12 13 -16 
12 -10 12 -14 12 -10 12 -10 12 -11 12 -12 12 -12 12 -9 
13 -15 12 -10 12 -15 12 -15 12 -11 12 -12 12 -11 12 -15 
12 -9 13 -10 12 -12 12 -8 12 -14 12 -10 12 -10 12 -13 
12 -9 12 -11 13 -14 12 -14 12 -9 12 -11 12 -8 12 -15 
12 -10 12 -16 13 -10 12 -8 12 -13 12 -14 12 -10 12 -11 
12 -15 12 -12 12 -13 13 -12 12 -9 12 -12 12 -8 12 -11 
12 -13 12 -8 12 -12 12 -11 13 -12 12 -12 12 -9 12 -13 
12 -8 12 -8 12 -12 12 -9 12 -11 13 -15 12 -14 12 -11 
12 -10 12 -9 12 -10 12 -10 12 -11 12 -11 13 -9 12 -12 
12 -12 12 -9 12 -12 12 -9 12 -11 12 -9 12 -10 13 -11 
12 -12 12 -10 12 -10 12 -9 12 -11 12 -12 12 -11 12 -9 
13 -12 12 -10 12 -8 12 -7 12 -7 12 -8 12 -8 12 -12 
12 -8 13 -10 12 -8 12 -16 12 -10 12 -8 12 -13 12 -11 
12 -6 12 -12 13 -9 12 -10 12 -7 12 -10 12 -8 12 -10 
12 -10 12 -9 12 -10 13 -8 12 -7 12 -9 12 -10 12 -7 
12 -10 12 -12 12 -10 13 -7 12 -10 12 -6 12 -8 12 -9 
12 -8 12 -7 12 -4 12 -8 13 -5 12 -7 12 -4 12 -10 
12 -6 12 -6 12 -10 12 -8 12 -7 13 -6 12 -9 12 -4 
12 -8 12 -7 12 -8 12 -8 12 -7 12 -4 13 -3 12 -7 
12 -6 12 -9 12 -5 12 -2 12 -3 12 -6 12 -7 13 -8 
12 -7 12 -8 12 -4 1137 3146 300 MP stroke
12 -7 12 -5 12 -8 12 -3 12 -5 13 -6 12 -7 12 -2 
12 -4 12 -6 12 -2 12 -6 12 -3 12 -3 13 -4 12 -5 
12 -4 12 -7 12 -3 12 -5 12 -3 12 -1 12 0 13 2 
12 0 12 0 12 -1 12 -1 12 0 12 0 12 0 12 0 
750 3245 33 MP stroke
/c9 { 0.000000 0.000000 1.000000 sr} bdef
c9
-6 1 -6 0 -5 1 -6 2 -6 2 -6 2 -5 3 -6 3 
-6 5 -6 2 -5 6 -6 6 -6 8 -6 4 -5 8 -6 4 
-6 4 -6 5 -5 4 -6 4 -6 6 -6 4 -5 7 -6 10 
-6 5 -6 9 -5 10 -6 6 -6 6 -6 8 -5 12 -6 11 
-6 2 -6 5 -5 3 -6 12 -6 6 -6 11 -5 6 -6 8 
-6 9 -6 8 -5 9 -6 8 -6 6 -6 8 -5 8 -6 12 
-6 5 -6 4 -5 9 -6 9 -6 10 -6 13 -6 9 -5 7 
-6 10 -6 10 -6 14 -5 10 -6 7 -6 9 -6 9 -5 10 
-6 6 -6 10 -6 13 -5 12 -6 11 -6 13 -6 15 -5 10 
-6 9 -6 8 -6 10 -5 8 -6 9 -6 9 -6 10 -5 9 
11 -19 12 -11 11 -13 12 -15 11 -14 12 -15 11 -10 12 -16 
11 -15 12 -14 11 -11 12 -13 11 -17 12 -14 11 -16 12 -17 
11 -15 12 -16 11 -12 12 -12 11 -17 12 -13 11 -11 12 -11 
11 -16 12 -13 11 -14 12 -11 11 -11 12 -12 11 -16 12 -16 
11 -14 12 -13 11 -13 12 -10 11 -13 12 -11 12 -15 11 -13 
12 -16 11 -16 12 -15 11 -15 12 -16 11 -14 12 -12 11 -12 
12 -15 11 -12 12 -10 11 -13 12 -12 11 -11 12 -13 11 -15 
12 -11 11 -10 12 -15 11 -11 12 -9 11 -12 12 -13 11 -12 
12 -13 11 -10 12 -13 11 -13 12 -10 11 -11 12 -11 11 -13 
12 -11 11 -12 12 -11 11 -11 12 -8 11 -11 12 -10 11 -13 
12 -9 11 -12 12 -12 11 -11 12 -10 11 -14 12 -9 12 -7 
11 -11 12 -9 11 -10 12 -13 11 -13 12 -12 11 -11 12 -9 
11 -9 12 -10 11 -9 12 -9 11 -11 12 -14 11 -8 12 -6 
11 -6 12 -13 11 -12 12 -11 11 -10 12 -11 11 -9 12 -9 
11 -9 12 -8 11 -11 12 -15 11 -11 12 -11 11 -9 12 -7 
11 -13 12 -8 11 -9 12 -11 11 -10 12 -13 11 -9 12 -12 
11 -11 12 -10 11 -10 12 -9 11 -10 12 -10 11 -7 12 -11 
12 -8 11 -9 12 -10 11 -8 12 -8 11 -12 12 -11 11 -8 
12 -7 11 -9 12 -10 11 -10 12 -9 11 -6 12 -9 11 -10 
12 -10 11 -9 12 -8 11 -11 12 -8 11 -9 12 -5 11 -8 
12 -8 11 -8 12 -8 11 -10 12 -10 11 -10 12 -8 11 -10 
12 -8 11 -5 12 -7 11 -8 12 -9 11 -7 12 -8 11 -6 
12 -10 11 -9 12 -6 11 -9 12 -8 11 -12 12 -8 11 -9 
12 -8 11 -11 12 -8 12 -9 11 -8 12 -9 11 -9 12 -11 
11 -9 12 -5 11 -7 12 -7 11 -9 12 -7 11 -6 12 -5 
11 -5 12 -7 11 -7 12 -7 11 -6 12 -5 11 -6 12 -5 
11 -5 12 -7 11 -5 12 -6 11 -7 12 -3 11 -9 12 -4 
11 -9 12 -6 11 -5 1498 3263 300 MP stroke
12 -5 11 -5 12 -3 11 -4 12 -5 11 -4 12 -4 11 -9 
12 -5 11 -2 12 -3 11 -4 12 -5 11 -6 12 -3 11 -6 
12 -3 12 -3 11 -2 12 -1 11 -2 12 -3 11 -3 12 -2 
11 -2 12 -1 11 -2 12 -4 11 -3 12 -5 11 -5 12 -4 
11 -3 12 -4 11 -4 12 -3 11 -4 12 -3 11 -2 12 -2 
11 -2 12 -3 11 -2 12 0 11 -2 12 0 11 -1 12 0 
11 -2 12 0 11 -1 12 1 11 0 12 -1 11 0 12 0 
11 -1 12 0 11 0 12 -1 11 0 12 0 11 0 12 0 
11 0 750 3421 66 MP stroke
/c10 { 1.000000 0.000000 1.000000 sr} bdef
c10
-5 2 -6 2 -5 3 -6 3 -5 4 -5 4 -6 2 -5 4 
-6 3 -5 1 -5 4 -6 5 -5 5 -6 6 -5 3 -5 2 
-6 5 -5 5 -5 7 -6 4 -5 3 -6 4 -5 6 -5 8 
-6 7 -5 7 -6 7 -5 5 -5 9 -6 8 -5 7 -6 6 
-5 8 -5 6 -6 6 -5 7 -6 8 -5 10 -5 10 -6 8 
-5 5 -5 9 -6 9 -5 6 -6 9 -5 9 -5 10 -6 7 
-5 9 -6 9 -5 10 -5 8 -6 9 -5 7 -6 13 -5 11 
-5 14 -6 8 -5 8 -5 12 -6 10 -5 12 -6 13 -5 14 
-5 10 -6 12 -5 10 -6 10 -5 15 -5 10 -6 10 -5 6 
-6 8 -5 12 -5 8 -6 7 -5 9 -6 10 11 -12 11 -18 
11 -13 11 -14 10 -14 11 -14 11 -14 11 -12 11 -17 10 -17 
11 -15 11 -17 11 -12 10 -18 11 -15 11 -13 11 -11 11 -16 
10 -16 11 -15 11 -10 11 -11 10 -13 11 -17 11 -14 11 -15 
11 -11 10 -16 11 -13 11 -13 11 -13 10 -14 11 -7 11 -15 
11 -18 11 -14 10 -14 11 -12 11 -16 11 -13 10 -13 11 -11 
11 -17 11 -13 11 -10 10 -10 11 -13 11 -12 11 -9 10 -11 
11 -11 11 -9 11 -13 11 -10 10 -15 11 -12 11 -12 11 -11 
11 -15 10 -15 11 -11 11 -9 11 -15 10 -15 11 -15 11 -12 
11 -13 11 -11 10 -8 11 -13 11 -18 11 -9 10 -11 11 -11 
11 -10 11 -10 11 -9 10 -12 11 -10 11 -12 11 -11 10 -14 
11 -12 11 -15 11 -14 11 -13 10 -12 11 -9 11 -11 11 -10 
10 -13 11 -9 11 -12 11 -12 11 -16 10 -14 11 -8 11 -11 
11 -11 11 -11 10 -10 11 -11 11 -11 11 -13 10 -9 11 -14 
11 -10 11 -9 11 -10 10 -8 11 -9 11 -14 11 -10 10 -10 
11 -11 11 -10 11 -10 11 -18 10 -10 11 -12 11 -14 11 -9 
10 -10 11 -9 11 -10 11 -12 11 -9 10 -8 11 -10 11 -11 
11 -11 10 -9 11 -10 11 -10 11 -9 11 -7 10 -11 11 -15 
11 -11 11 -9 11 -8 10 -12 11 -11 11 -8 11 -11 10 -9 
11 -13 11 -12 11 -8 11 -8 10 -10 11 -11 11 -9 11 -8 
10 -10 11 -11 11 -10 11 -11 11 -9 10 -6 11 -8 11 -11 
11 -8 10 -8 11 -7 11 -12 11 -5 11 -9 10 -8 11 -9 
11 -11 11 -12 10 -11 11 -8 11 -12 11 -12 11 -11 10 -6 
11 -9 11 -10 11 -12 11 -10 10 -10 11 -8 11 -9 11 -6 
10 -8 11 -8 11 -10 11 -8 11 -9 10 -10 11 -8 11 -9 
11 -9 10 -8 11 -7 11 -8 11 -8 11 -6 10 -8 11 -10 
11 -10 11 -5 10 -9 11 -8 11 -7 11 -8 11 -8 10 -6 
11 -7 11 -8 11 -8 10 -8 11 -12 11 -9 11 -9 11 -4 
10 -5 11 -6 11 -5 2000 3326 300 MP stroke
11 -9 11 -6 10 -5 11 -8 11 -10 11 -4 10 -6 11 -6 
11 -6 11 -5 11 -4 10 -6 11 -7 11 -8 11 -5 10 -8 
11 -4 11 -5 11 -8 11 -9 10 -5 11 -8 11 -5 11 -9 
10 -8 11 -5 11 -6 11 -7 11 -7 10 -7 11 -6 11 -5 
11 -5 10 -8 11 -5 11 -7 11 -6 11 -6 10 -6 11 -4 
11 -7 11 -4 11 -4 10 -4 11 -7 11 -7 11 -7 10 -7 
11 -5 11 -7 11 -4 11 -6 10 -5 11 -4 11 -5 11 -7 
10 -6 11 -5 11 -4 11 -5 11 -4 10 -5 11 -6 11 -5 
11 -4 10 -4 11 -5 11 -4 11 -5 11 -4 10 -3 11 -5 
11 -4 11 -4 10 -5 11 -6 11 -4 11 -5 11 -4 10 -4 
11 -5 11 -3 11 -5 11 -3 10 -5 11 -2 11 -3 11 -1 
10 -4 11 -1 11 -3 11 -2 11 -3 10 -4 11 -4 11 -1 
11 -2 10 -2 11 -5 11 -2 11 -2 11 0 10 -1 11 -3 
11 -2 11 -1 10 1 11 -1 11 -1 11 1 11 -1 10 0 
11 0 11 -1 11 0 10 0 750 3851 117 MP stroke
gr

c10
0 sg
%%IncludeResource: font Helvetica
/Helvetica /WindowsLatin1Encoding 83.3333 FMSR

 732 4037 mt 
( ) s
4483  536 mt 
( ) s
8.33333 w
DO
SO
12.5 w
0.1 sg
 750  500 mt 4500  500 L
 750 4000 mt 4500 4000 L
4500 4000 mt 4500  500 L
 750 4000 mt  750  500 L
 750 4000 mt 4500 4000 L
 750 4000 mt  750  500 L
 750 4000 mt  750 3943 L
 750  500 mt  750  556 L
%%IncludeResource: font Helvetica
/Helvetica /WindowsLatin1Encoding 133.333 FMSR

 713 4148 mt 
(0) s
1166 4000 mt 1166 3943 L
1166  500 mt 1166  556 L
1037 4148 mt 
(0.05) s
1583 4000 mt 1583 3943 L
1583  500 mt 1583  556 L
1491 4148 mt 
(0.1) s
2000 4000 mt 2000 3943 L
2000  500 mt 2000  556 L
1871 4148 mt 
(0.15) s
2416 4000 mt 2416 3943 L
2416  500 mt 2416  556 L
2324 4148 mt 
(0.2) s
2833 4000 mt 2833 3943 L
2833  500 mt 2833  556 L
2704 4148 mt 
(0.25) s
3250 4000 mt 3250 3943 L
3250  500 mt 3250  556 L
3158 4148 mt 
(0.3) s
3666 4000 mt 3666 3943 L
3666  500 mt 3666  556 L
3537 4148 mt 
(0.35) s
4083 4000 mt 4083 3943 L
4083  500 mt 4083  556 L
3991 4148 mt 
(0.4) s
 750 3750 mt  806 3750 L
4500 3750 mt 4443 3750 L
 541 3799 mt 
(0.6) s
 750 3250 mt  806 3250 L
4500 3250 mt 4443 3250 L
 541 3299 mt 
(0.8) s
 750 2750 mt  806 2750 L
4500 2750 mt 4443 2750 L
 652 2799 mt 
(1) s
 750 2250 mt  806 2250 L
4500 2250 mt 4443 2250 L
 541 2299 mt 
(1.2) s
 750 1750 mt  806 1750 L
4500 1750 mt 4443 1750 L
 541 1799 mt 
(1.4) s
 750 1250 mt  806 1250 L
4500 1250 mt 4443 1250 L
 541 1299 mt 
(1.6) s
 750  750 mt  806  750 L
4500  750 mt 4443  750 L
 541  799 mt 
(1.8) s
 750  463 mt 
(x 10) s
%%IncludeResource: font Helvetica
/Helvetica /WindowsLatin1Encoding 88.8889 FMSR

1002  381 mt 
(4) s
 750  500 mt 4500  500 L
 750 4000 mt 4500 4000 L
4500 4000 mt 4500  500 L
 750 4000 mt  750  500 L
0 sg
%%IncludeResource: font Symbol
/Symbol /WindowsLatin1Encoding 125 FMSR

1197  770 mt 
(m) s
%%IncludeResource: font Helvetica-Bold
/Helvetica-Bold /WindowsLatin1Encoding 100 FMSR

1269  832 mt 
(r) s
%%IncludeResource: font Helvetica-Bold
/Helvetica-Bold /WindowsLatin1Encoding 125 FMSR

1307  770 mt 
(  =  0.0) s
gs 872 623 1007 922 rc
16.6667 w
250 0 921 749 2 MP stroke
gr

16.6667 w
%%IncludeResource: font Symbol
/Symbol /WindowsLatin1Encoding 125 FMSR

1197  993 mt 
(m) s
%%IncludeResource: font Helvetica-Bold
/Helvetica-Bold /WindowsLatin1Encoding 100 FMSR

1269 1055 mt 
(r) s
%%IncludeResource: font Helvetica-Bold
/Helvetica-Bold /WindowsLatin1Encoding 125 FMSR

1307  993 mt 
(  =  0.025) s
gs 872 623 1007 922 rc
c8
250 0 921 972 2 MP stroke
gr

c8
0 sg
%%IncludeResource: font Symbol
/Symbol /WindowsLatin1Encoding 125 FMSR

1197 1217 mt 
(m) s
%%IncludeResource: font Helvetica-Bold
/Helvetica-Bold /WindowsLatin1Encoding 100 FMSR

1269 1279 mt 
(r) s
%%IncludeResource: font Helvetica-Bold
/Helvetica-Bold /WindowsLatin1Encoding 125 FMSR

1307 1217 mt 
(  =  0.1) s
gs 872 623 1007 922 rc
c9
250 0 921 1194 2 MP stroke
gr

c9
0 sg
%%IncludeResource: font Symbol
/Symbol /WindowsLatin1Encoding 125 FMSR

1197 1440 mt 
(m) s
%%IncludeResource: font Helvetica-Bold
/Helvetica-Bold /WindowsLatin1Encoding 100 FMSR

1269 1502 mt 
(r) s
%%IncludeResource: font Helvetica-Bold
/Helvetica-Bold /WindowsLatin1Encoding 125 FMSR

1307 1440 mt 
(  =  0.5) s
gs 872 623 1007 922 rc
c10
250 0 921 1417 2 MP stroke
12.5 w
gr

12.5 w
c10

end %%Color Dict

eplot
%%EndObject

epage
end

showpage

%%Trailer
%%EOF
