%!PS-Adobe-3.0 EPSF-3.0
%%Creator: MATLAB, The MathWorks, Inc. Version 8.1.0.604 (R2013a). Operating System: Microsoft Windows 7.
%%Title: .\Rolling_ConfinedPorosity_Paired.eps
%%CreationDate: 08/17/2013  16:57:53
%%DocumentNeededFonts: Helvetica-Bold
%%+ Helvetica
%%DocumentProcessColors: Cyan Magenta Yellow Black
%%LanguageLevel: 2
%%Pages: 1
%%BoundingBox:    41    88   564   572
%%EndComments

%%BeginProlog
% MathWorks dictionary
/MathWorks 160 dict begin
% definition operators
/bdef {bind def} bind def
/ldef {load def} bind def
/xdef {exch def} bdef
/xstore {exch store} bdef
% operator abbreviations
/c  /clip ldef
/cc /concat ldef
/cp /closepath ldef
/gr /grestore ldef
/gs /gsave ldef
/mt /moveto ldef
/np /newpath ldef
/cm /currentmatrix ldef
/sm /setmatrix ldef
/rm /rmoveto ldef
/rl /rlineto ldef
/s {show newpath} bdef
/sc {setcmykcolor} bdef
/sr /setrgbcolor ldef
/sg /setgray ldef
/w /setlinewidth ldef
/j /setlinejoin ldef
/cap /setlinecap ldef
/rc {rectclip} bdef
/rf {rectfill} bdef
% page state control
/pgsv () def
/bpage {/pgsv save def} bdef
/epage {pgsv restore} bdef
/bplot /gsave ldef
/eplot {stroke grestore} bdef
% orientation switch
/portraitMode 0 def /landscapeMode 1 def /rotateMode 2 def
% coordinate system mappings
/dpi2point 0 def
% font control
/FontSize 0 def
/FMS {/FontSize xstore findfont [FontSize 0 0 FontSize neg 0 0]
  makefont setfont} bdef
/ISOLatin1Encoding where {pop /WindowsLatin1Encoding 256 array bdef
ISOLatin1Encoding WindowsLatin1Encoding copy pop
/.notdef/.notdef/quotesinglbase/florin/quotedblbase/ellipsis/dagger
/daggerdbl/circumflex/perthousand/Scaron/guilsinglleft/OE/.notdef/.notdef
/.notdef/.notdef/quoteleft/quoteright/quotedblleft/quotedblright/bullet
/endash/emdash/tilde/trademark/scaron/guilsinglright/oe/.notdef/.notdef
/Ydieresis WindowsLatin1Encoding 128 32 getinterval astore pop}
{/WindowsLatin1Encoding StandardEncoding bdef} ifelse
/reencode {exch dup where {pop load} {pop StandardEncoding} ifelse
  exch dup 3 1 roll findfont dup length dict begin
  { 1 index /FID ne {def}{pop pop} ifelse } forall
  /Encoding exch def currentdict end definefont pop} bdef
/isroman {findfont /CharStrings get /Agrave known} bdef
/FMSR {3 1 roll 1 index dup isroman {reencode} {pop pop} ifelse
  exch FMS} bdef
/csm {1 dpi2point div -1 dpi2point div scale neg translate
 dup landscapeMode eq {pop -90 rotate}
  {rotateMode eq {90 rotate} if} ifelse} bdef
% line types: solid, dotted, dashed, dotdash
/SO { [] 0 setdash } bdef
/DO { [.5 dpi2point mul 4 dpi2point mul] 0 setdash } bdef
/DA { [6 dpi2point mul] 0 setdash } bdef
/DD { [.5 dpi2point mul 4 dpi2point mul 6 dpi2point mul 4
  dpi2point mul] 0 setdash } bdef
% macros for lines and objects
/L {lineto stroke} bdef
/MP {3 1 roll moveto 1 sub {rlineto} repeat} bdef
/AP {{rlineto} repeat} bdef
/PDlw -1 def
/W {/PDlw currentlinewidth def setlinewidth} def
/PP {closepath eofill} bdef
/DP {closepath stroke} bdef
/MR {4 -2 roll moveto dup  0 exch rlineto exch 0 rlineto
  neg 0 exch rlineto closepath} bdef
/FR {MR stroke} bdef
/PR {MR fill} bdef
/L1i {{currentfile picstr readhexstring pop} image} bdef
/tMatrix matrix def
/MakeOval {newpath tMatrix currentmatrix pop translate scale
0 0 1 0 360 arc tMatrix setmatrix} bdef
/FO {MakeOval stroke} bdef
/PO {MakeOval fill} bdef
/PD {currentlinewidth 2 div 0 360 arc fill
   PDlw -1 eq not {PDlw w /PDlw -1 def} if} def
/FA {newpath tMatrix currentmatrix pop translate scale
  0 0 1 5 -2 roll arc tMatrix setmatrix stroke} bdef
/PA {newpath tMatrix currentmatrix pop	translate 0 0 moveto scale
  0 0 1 5 -2 roll arc closepath tMatrix setmatrix fill} bdef
/FAn {newpath tMatrix currentmatrix pop translate scale
  0 0 1 5 -2 roll arcn tMatrix setmatrix stroke} bdef
/PAn {newpath tMatrix currentmatrix pop translate 0 0 moveto scale
  0 0 1 5 -2 roll arcn closepath tMatrix setmatrix fill} bdef
/vradius 0 def /hradius 0 def /lry 0 def
/lrx 0 def /uly 0 def /ulx 0 def /rad 0 def
/MRR {/vradius xdef /hradius xdef /lry xdef /lrx xdef /uly xdef
  /ulx xdef newpath tMatrix currentmatrix pop ulx hradius add uly
  vradius add translate hradius vradius scale 0 0 1 180 270 arc 
  tMatrix setmatrix lrx hradius sub uly vradius add translate
  hradius vradius scale 0 0 1 270 360 arc tMatrix setmatrix
  lrx hradius sub lry vradius sub translate hradius vradius scale
  0 0 1 0 90 arc tMatrix setmatrix ulx hradius add lry vradius sub
  translate hradius vradius scale 0 0 1 90 180 arc tMatrix setmatrix
  closepath} bdef
/FRR {MRR stroke } bdef
/PRR {MRR fill } bdef
/MlrRR {/lry xdef /lrx xdef /uly xdef /ulx xdef /rad lry uly sub 2 div def
  newpath tMatrix currentmatrix pop ulx rad add uly rad add translate
  rad rad scale 0 0 1 90 270 arc tMatrix setmatrix lrx rad sub lry rad
  sub translate rad rad scale 0 0 1 270 90 arc tMatrix setmatrix
  closepath} bdef
/FlrRR {MlrRR stroke } bdef
/PlrRR {MlrRR fill } bdef
/MtbRR {/lry xdef /lrx xdef /uly xdef /ulx xdef /rad lrx ulx sub 2 div def
  newpath tMatrix currentmatrix pop ulx rad add uly rad add translate
  rad rad scale 0 0 1 180 360 arc tMatrix setmatrix lrx rad sub lry rad
  sub translate rad rad scale 0 0 1 0 180 arc tMatrix setmatrix
  closepath} bdef
/FtbRR {MtbRR stroke } bdef
/PtbRR {MtbRR fill } bdef
/stri 6 array def /dtri 6 array def
/smat 6 array def /dmat 6 array def
/tmat1 6 array def /tmat2 6 array def /dif 3 array def
/asub {/ind2 exch def /ind1 exch def dup dup
  ind1 get exch ind2 get sub exch } bdef
/tri_to_matrix {
  2 0 asub 3 1 asub 4 0 asub 5 1 asub
  dup 0 get exch 1 get 7 -1 roll astore } bdef
/compute_transform {
  dmat dtri tri_to_matrix tmat1 invertmatrix 
  smat stri tri_to_matrix tmat2 concatmatrix } bdef
/ds {stri astore pop} bdef
/dt {dtri astore pop} bdef
/db {2 copy /cols xdef /rows xdef mul dup 3 mul string
  currentfile 
  3 index 0 eq {/ASCIIHexDecode filter}
  {/ASCII85Decode filter 3 index 2 eq {/RunLengthDecode filter} if }
  ifelse exch readstring pop
  dup 0 3 index getinterval /rbmap xdef
  dup 2 index dup getinterval /gbmap xdef
  1 index dup 2 mul exch getinterval /bbmap xdef pop pop}bdef
/it {gs np dtri aload pop moveto lineto lineto cp c
  cols rows 8 compute_transform 
  rbmap gbmap bbmap true 3 colorimage gr}bdef
/il {newpath moveto lineto stroke}bdef
currentdict end def
%%EndProlog

%%BeginSetup
MathWorks begin

0 cap

end
%%EndSetup

%%Page: 1 1
%%BeginPageSetup
%%PageBoundingBox:    41    88   564   572
MathWorks begin
bpage
%%EndPageSetup

%%BeginObject: obj1
bplot

/dpi2point 8.33333 def
portraitMode 0150 5158 csm

  194   389  4362  4031 rc
84 dict begin %Colortable dictionary
/c0 { 0.000000 0.000000 0.000000 sr} bdef
/c1 { 1.000000 1.000000 1.000000 sr} bdef
/c2 { 0.900000 0.000000 0.000000 sr} bdef
/c3 { 0.000000 0.820000 0.000000 sr} bdef
/c4 { 0.000000 0.000000 0.800000 sr} bdef
/c5 { 0.910000 0.820000 0.320000 sr} bdef
/c6 { 1.000000 0.260000 0.820000 sr} bdef
/c7 { 0.000000 0.820000 0.820000 sr} bdef
c0
1 j
1 sg
   0    0 5001 5001 rf
12.5 w
0 3500 3750 0 0 -3500 750 4000 4 MP
PP
-3750 0 0 3500 3750 0 0 -3500 750 4000 5 MP stroke
gs 750 500 3751 3501 rc
16.6667 w
0 sg
-31 -1 -348 -7 -278 -6 -231 -7 -179 -7 -150 -7 -113 -7 -95 -6 
-84 -7 -80 -7 -68 -7 -62 -7 -60 -7 -56 -7 -52 -7 -54 -7 
-49 -7 -46 -7 -46 -7 -45 -7 -45 -7 -46 -7 -43 -7 -40 -7 
-36 -7 -35 -7 -34 -7 -34 -8 -31 -7 -29 -7 -28 -7 -28 -7 
-28 -8 -29 -7 -29 -7 -28 -7 -28 -8 -27 -7 -26 -7 -27 -8 
-26 -7 -25 -8 -24 -7 -24 -7 -24 -8 -25 -7 -26 -8 -25 -7 
-27 -8 -27 -7 -27 -8 -26 -7 -28 -8 -28 -8 -27 -7 -28 -8 
-29 -7 -29 -8 -29 -8 -31 -7 -31 -8 -29 -8 -37 -8 -30 -7 
-41 -8 -35 -8 -46 -8 -32 -8 -29 -8 -13 16 -10 16 4 15 
5 16 5 15 4 16 5 15 5 15 5 15 5 15 5 15 
5 15 5 15 5 15 4 15 5 14 5 15 5 14 5 15 
5 14 6 15 5 14 5 14 5 14 5 14 5 14 5 14 
5 14 5 14 6 14 5 13 5 14 5 14 5 13 5 14 
5 13 6 14 5 13 5 13 6 13 5 13 6 14 5 13 
5 13 4 12 6 13 5 13 6 13 6 13 5 12 5 13 
5 12 4 13 5 12 6 13 5 12 6 12 6 13 6 12 
6 12 5 12 5 12 5 12 5 12 5 12 6 12 6 11 
7 12 6 12 5 12 5 11 5 12 4 11 5 12 6 11 
6 11 7 12 6 11 6 11 5 12 6 11 5 11 5 11 
6 11 5 11 6 11 6 11 6 11 6 10 6 11 6 11 
6 11 6 10 7 11 7 10 6 11 6 10 6 11 5 10 
6 11 6 10 6 10 8 10 7 11 8 10 8 10 7 10 
7 10 5 10 5 10 5 10 5 10 7 10 8 10 8 9 
8 10 8 10 8 10 7 9 6 10 6 9 5 10 6 10 
6 9 6 9 6 10 7 9 7 10 8 9 8 9 8 9 
7 10 8 9 7 9 7 9 7 9 7 9 6 9 6 9 
7 9 8 9 10 9 10 9 9 9 8 8 8 9 7 9 
8 9 7 8 8 9 6 9 7 8 7 9 8 8 9 9 
10 8 10 9 11 8 10 9 10 8 10 8 9 9 10 8 
7 8 8 8 7 8 6 9 6 8 8 8 10 8 12 8 
13 8 16 8 15 8 16 8 14 8 13 8 11 8 9 7 
7 8 7 8 5 8 4 8 6 7 6 8 9 8 11 7 
12 8 15 7 17 8 16 8 18 7 18 8 15 7 12 7 
11 8 10 7 10 8 12 7 14 7 14 8 13 7 14 7 
13 7 12 8 13 7 13 7 12 7 12 7 13 7 10 7 
13 7 12 7 11 7 12 7 14 7 17 7 21 7 24 7 
21 7 21 7 15 7 11 7 10 6 12 7 13 7 15 7 
14 6 10 7 7 7 2580 1382 300 MP stroke
7 6 8 7 7 7 14 6 15 7 14 6 16 7 19 6 
20 7 22 6 22 7 22 6 24 7 23 6 25 6 27 7 
28 6 28 6 27 7 28 6 31 6 35 6 38 7 39 6 
40 6 35 6 32 6 23 7 21 6 21 6 19 6 20 6 
28 6 34 6 37 6 40 6 53 6 67 6 64 6 86 6 
118 6 138 6 137 6 172 5 106 4 750 1104 46 MP stroke
gr

16.6667 w
0 sg
0.1 sg
%%IncludeResource: font Helvetica-Bold
/Helvetica-Bold /WindowsLatin1Encoding 183.333 FMSR

1903 4362 mt 
(Log Stress [kPa]) s
 387 2612 mt  -90 rotate
(Porosity) s
90 rotate
gs 750 500 3751 3501 rc
/c8 { 1.000000 0.000000 0.000000 sr} bdef
c8
-258 -5 -284 -6 -250 -7 -192 -6 -156 -7 -137 -7 -106 -7 -81 -6 
-76 -7 -65 -7 -56 -7 -54 -6 -54 -7 -54 -7 -52 -7 -49 -7 
-51 -6 -52 -7 -47 -7 -42 -7 -39 -7 -38 -7 -36 -7 -34 -7 
-37 -7 -35 -7 -35 -7 -32 -7 -31 -7 -29 -7 -30 -7 -30 -7 
-30 -7 -28 -7 -27 -7 -27 -7 -27 -8 -25 -7 -27 -7 -27 -7 
-26 -7 -25 -8 -26 -7 -25 -7 -25 -7 -25 -8 -25 -7 -24 -7 
-25 -8 -24 -7 -24 -8 -25 -7 -25 -7 -25 -8 -25 -7 -25 -8 
-25 -7 -25 -8 -24 -7 -26 -8 -26 -7 -25 -8 -28 -8 -28 -7 
-28 -8 -34 -7 -30 -8 -38 -8 -35 -8 -47 -7 -33 -8 -29 -8 
-15 16 -11 15 5 16 5 15 5 15 4 15 5 15 5 15 
4 15 5 15 5 15 5 15 5 14 4 15 5 14 5 15 
4 14 5 15 4 14 4 14 5 14 5 14 5 14 5 14 
5 14 5 14 4 14 5 13 4 14 5 14 5 13 6 14 
5 13 6 14 5 13 4 13 5 13 4 13 5 14 5 13 
5 13 6 12 6 13 6 13 5 13 5 13 4 12 5 13 
4 12 6 13 5 12 6 13 6 12 6 12 5 13 5 12 
4 12 5 12 5 12 5 12 6 12 6 12 6 12 6 11 
5 12 5 12 5 12 5 11 4 12 5 11 5 12 6 11 
6 11 6 12 6 11 7 11 6 12 5 11 5 11 6 11 
5 11 4 11 7 11 6 11 7 11 7 10 6 11 5 11 
6 11 5 10 5 11 6 10 6 11 7 10 8 11 8 10 
8 11 6 10 6 10 5 10 5 11 5 10 6 10 7 10 
7 10 7 10 7 10 7 10 6 10 6 10 6 10 6 9 
7 10 7 10 8 10 8 9 8 10 8 9 8 10 7 10 
7 9 6 9 7 10 6 9 7 10 7 9 8 9 8 9 
9 10 9 9 9 9 10 9 8 9 8 9 7 9 6 9 
6 9 5 9 6 9 7 9 9 9 9 8 9 9 11 9 
11 9 10 8 10 9 10 9 8 8 7 9 6 8 5 9 
4 8 6 9 8 8 10 9 10 8 10 8 11 9 9 8 
9 8 10 8 9 8 9 9 9 8 8 8 9 8 8 8 
9 8 8 8 9 8 10 8 10 8 11 8 12 8 12 7 
12 8 12 8 11 8 11 8 11 7 10 8 11 8 10 7 
11 8 11 7 12 8 11 8 12 7 11 8 12 7 13 7 
14 8 13 7 12 8 12 7 11 7 13 8 15 7 16 7 
14 7 14 8 12 7 11 7 12 7 14 7 14 7 14 7 
14 7 14 7 13 7 11 7 10 7 11 7 12 7 13 7 
15 7 17 7 18 7 17 7 19 6 22 7 25 7 28 7 
32 6 33 7 33 7 2520 1382 300 MP stroke
32 6 28 7 25 7 24 6 23 7 21 6 19 7 18 6 
17 7 13 6 12 7 16 6 21 7 27 6 38 6 46 7 
59 6 66 6 78 7 88 6 94 6 92 6 91 7 85 6 
92 6 125 6 158 6 192 7 170 3 750 1200 30 MP stroke
/c9 { 0.000000 0.000000 1.000000 sr} bdef
c9
-58 -2 -190 -6 -170 -7 -160 -6 -151 -7 -141 -6 -131 -6 -115 -7 
-107 -6 -101 -7 -90 -6 -74 -7 -71 -6 -65 -6 -57 -7 -59 -7 
-54 -6 -52 -7 -46 -6 -43 -7 -37 -6 -39 -7 -34 -7 -32 -6 
-33 -7 -33 -6 -32 -7 -31 -7 -31 -7 -29 -6 -28 -7 -27 -7 
-27 -7 -27 -6 -26 -7 -26 -7 -27 -7 -25 -7 -26 -6 -25 -7 
-25 -7 -23 -7 -24 -7 -24 -7 -24 -7 -24 -7 -25 -7 -25 -7 
-24 -7 -24 -7 -25 -7 -24 -7 -24 -7 -24 -7 -24 -7 -25 -7 
-24 -7 -25 -7 -25 -8 -26 -7 -25 -7 -28 -7 -29 -7 -29 -8 
-31 -7 -34 -7 -32 -7 -38 -8 -36 -7 -42 -7 -42 -8 -49 -7 
-46 -8 -59 -7 -42 -7 -33 -8 -22 15 -11 15 4 15 4 14 
5 15 4 14 4 15 5 14 4 15 5 14 4 14 4 14 
5 14 4 14 4 14 5 14 4 14 5 14 4 13 5 14 
4 14 5 13 4 14 5 13 4 14 5 13 4 13 5 13 
4 13 5 14 4 13 5 13 5 12 4 13 5 13 4 13 
5 13 4 12 5 13 5 12 4 13 5 12 4 13 5 12 
4 12 5 13 5 12 5 12 4 12 5 12 4 12 4 12 
5 12 5 12 5 11 5 12 5 12 4 12 5 11 5 12 
4 11 4 12 5 11 5 11 5 12 5 11 6 11 5 12 
4 11 5 11 4 11 5 11 5 11 5 11 5 11 6 11 
5 10 5 11 5 11 4 11 5 10 4 11 5 10 6 11 
5 10 6 11 5 10 6 11 5 10 4 10 5 10 5 11 
5 10 6 10 6 10 6 10 6 10 6 10 6 10 5 10 
5 10 5 10 5 9 5 10 6 10 6 10 7 9 7 10 
6 9 6 10 6 10 5 9 5 9 5 10 5 9 6 10 
6 9 7 9 7 9 8 10 7 9 6 9 6 9 6 9 
5 9 5 9 6 9 6 9 7 9 8 9 8 9 8 9 
8 8 7 9 6 9 5 9 4 8 6 9 6 9 6 8 
8 9 8 8 10 9 9 8 9 9 8 8 7 9 5 8 
5 8 6 9 6 8 7 8 8 8 7 8 7 9 7 8 
6 8 6 8 6 8 7 8 7 8 8 8 9 8 10 8 
9 8 10 8 9 7 9 8 8 8 7 8 7 8 7 7 
7 8 7 8 7 7 9 8 9 7 10 8 10 8 11 7 
11 8 11 7 10 7 10 8 8 7 8 8 7 7 7 7 
8 8 8 7 8 7 9 7 10 8 11 7 13 7 14 7 
15 7 14 7 13 7 12 7 10 7 8 7 9 7 9 7 
8 7 8 7 9 7 8 7 10 7 12 7 14 7 16 6 
17 7 18 7 18 7 17 6 17 7 17 7 16 6 16 7 
14 7 12 6 9 7 2874 1349 300 MP stroke
7 6 4 7 4 6 4 7 5 6 8 7 12 6 14 7 
14 6 18 6 18 7 20 6 24 6 28 7 31 6 34 6 
33 6 29 7 27 6 22 6 17 6 16 6 16 7 16 6 
16 6 19 6 19 6 20 6 19 6 19 6 17 6 17 6 
15 6 21 6 29 6 38 6 50 6 65 6 77 5 83 6 
87 6 87 6 78 6 68 5 52 6 42 6 33 6 35 5 
30 6 38 6 46 5 44 6 72 6 78 5 94 6 94 5 
116 6 72 6 13 1 750 998 60 MP stroke
/c10 { 1.000000 0.000000 1.000000 sr} bdef
c10
-30 -1 -204 -7 -210 -6 -197 -7 -152 -7 -130 -6 -109 -7 -94 -6 
-80 -7 -77 -7 -75 -6 -68 -7 -66 -6 -61 -7 -57 -7 -52 -7 
-51 -6 -49 -7 -48 -7 -48 -6 -46 -7 -45 -7 -44 -7 -43 -7 
-40 -7 -38 -6 -37 -7 -34 -7 -33 -7 -32 -7 -32 -7 -32 -7 
-32 -7 -31 -7 -31 -7 -30 -7 -29 -7 -29 -7 -28 -7 -28 -7 
-28 -7 -28 -7 -28 -7 -27 -7 -28 -7 -28 -8 -28 -7 -27 -7 
-28 -7 -28 -7 -29 -8 -28 -7 -29 -7 -30 -7 -30 -8 -30 -7 
-32 -7 -34 -8 -33 -7 -35 -8 -39 -7 -34 -7 -42 -8 -39 -7 
-46 -8 -43 -7 -51 -8 -45 -7 -60 -8 -42 -7 -33 -8 -21 15 
-12 15 4 15 4 15 4 15 5 15 4 15 4 14 4 15 
4 14 5 15 4 14 4 15 5 14 4 14 4 14 4 14 
4 14 4 14 5 14 4 14 4 14 4 13 4 14 5 14 
4 13 4 14 4 13 5 14 4 13 4 13 5 13 4 13 
4 14 4 13 4 13 5 12 4 13 4 13 4 13 5 13 
4 12 4 13 4 12 5 13 4 12 4 13 5 12 4 12 
4 13 4 12 5 12 4 12 5 12 4 12 5 12 4 12 
4 12 4 11 5 12 4 12 5 12 5 11 4 12 5 11 
4 12 4 11 5 11 4 12 4 11 5 11 5 12 4 11 
5 11 4 11 5 11 4 11 4 11 5 11 4 11 5 10 
5 11 4 11 5 11 4 10 5 11 4 10 5 11 4 10 
4 11 5 10 5 11 4 10 5 10 5 10 4 11 5 10 
4 10 4 10 5 10 4 10 5 10 5 10 5 10 4 10 
5 10 5 9 4 10 5 10 4 10 5 9 5 10 4 9 
5 10 5 10 4 9 5 9 5 10 5 9 4 10 5 9 
5 9 4 9 5 10 5 9 4 9 5 9 5 9 5 9 
5 9 5 9 5 9 4 9 5 9 5 9 5 9 5 8 
5 9 5 9 6 9 5 8 5 9 5 9 5 8 5 9 
5 8 5 9 6 8 5 9 5 8 5 9 6 8 5 8 
5 9 6 8 5 8 5 8 5 8 5 9 5 8 5 8 
6 8 6 8 6 8 6 8 6 8 6 8 5 8 5 8 
5 8 6 7 5 8 6 8 6 8 6 8 7 7 6 8 
7 8 6 7 6 8 6 7 5 8 5 8 6 7 5 8 
6 7 6 7 6 8 7 7 7 8 7 7 6 7 7 8 
7 7 6 7 5 7 6 8 5 7 5 7 6 7 6 7 
6 7 7 7 7 7 8 7 8 7 8 7 7 7 6 7 
6 7 5 7 6 7 6 7 5 7 7 7 6 6 7 7 
7 7 7 7 7 6 8 7 8 7 7 6 6 7 6 7 
6 6 6 7 6 6 3255 1343 300 MP stroke
7 7 7 6 7 7 6 6 7 7 7 6 7 7 9 6 
10 6 10 7 9 6 8 6 7 7 7 6 6 6 7 6 
6 7 6 6 7 6 6 6 8 6 8 7 9 6 11 6 
11 6 13 6 13 6 13 6 12 6 10 6 9 6 8 6 
8 6 7 6 7 6 6 6 7 6 6 5 7 6 8 6 
10 6 12 6 14 5 15 6 16 6 16 6 16 5 15 6 
14 6 15 5 13 6 13 6 11 5 11 6 8 5 8 6 
7 6 5 5 7 6 8 5 9 6 11 5 14 6 17 5 
19 6 20 5 21 5 20 6 20 5 21 5 23 6 25 5 
27 5 29 6 29 5 29 5 28 6 25 5 20 5 17 5 
14 5 11 6 11 5 9 5 12 5 14 5 16 5 19 6 
25 5 30 5 37 5 44 5 45 5 61 5 68 5 68 5 
77 5 92 5 80 5 80 5 95 5 88 5 110 5 113 4 
132 5 141 5 28 1 750 744 108 MP stroke
gr

c10
0 sg
%%IncludeResource: font Helvetica
/Helvetica /WindowsLatin1Encoding 83.3333 FMSR

 732 4037 mt 
( ) s
4483  536 mt 
( ) s
8.33333 w
DO
SO
12.5 w
0.1 sg
 750  500 mt 4500  500 L
 750 4000 mt 4500 4000 L
4500 4000 mt 4500  500 L
 750 4000 mt  750  500 L
 750 4000 mt 4500 4000 L
 750 4000 mt  750  500 L
 750 4000 mt  750 3971 L
 750  500 mt  750  528 L
 750 4000 mt  750 3943 L
 750  500 mt  750  556 L
%%IncludeResource: font Helvetica
/Helvetica /WindowsLatin1Encoding 133.333 FMSR

 626 4188 mt 
(10) s
%%IncludeResource: font Helvetica
/Helvetica /WindowsLatin1Encoding 88.8889 FMSR

 774 4106 mt 
(-1) s
1116 4000 mt 1116 3971 L
1116  500 mt 1116  528 L
1331 4000 mt 1331 3971 L
1331  500 mt 1331  528 L
1483 4000 mt 1483 3971 L
1483  500 mt 1483  528 L
1601 4000 mt 1601 3971 L
1601  500 mt 1601  528 L
1697 4000 mt 1697 3971 L
1697  500 mt 1697  528 L
1779 4000 mt 1779 3971 L
1779  500 mt 1779  528 L
1849 4000 mt 1849 3971 L
1849  500 mt 1849  528 L
1912 4000 mt 1912 3971 L
1912  500 mt 1912  528 L
1967 4000 mt 1967 3971 L
1967  500 mt 1967  528 L
1967 4000 mt 1967 3943 L
1967  500 mt 1967  556 L
%%IncludeResource: font Helvetica
/Helvetica /WindowsLatin1Encoding 133.333 FMSR

1869 4188 mt 
(10) s
%%IncludeResource: font Helvetica
/Helvetica /WindowsLatin1Encoding 88.8889 FMSR

2017 4106 mt 
(0) s
2334 4000 mt 2334 3971 L
2334  500 mt 2334  528 L
2548 4000 mt 2548 3971 L
2548  500 mt 2548  528 L
2701 4000 mt 2701 3971 L
2701  500 mt 2701  528 L
2819 4000 mt 2819 3971 L
2819  500 mt 2819  528 L
2915 4000 mt 2915 3971 L
2915  500 mt 2915  528 L
2997 4000 mt 2997 3971 L
2997  500 mt 2997  528 L
3067 4000 mt 3067 3971 L
3067  500 mt 3067  528 L
3129 4000 mt 3129 3971 L
3129  500 mt 3129  528 L
3185 4000 mt 3185 3971 L
3185  500 mt 3185  528 L
3185 4000 mt 3185 3943 L
3185  500 mt 3185  556 L
%%IncludeResource: font Helvetica
/Helvetica /WindowsLatin1Encoding 133.333 FMSR

3087 4188 mt 
(10) s
%%IncludeResource: font Helvetica
/Helvetica /WindowsLatin1Encoding 88.8889 FMSR

3235 4106 mt 
(1) s
3552 4000 mt 3552 3971 L
3552  500 mt 3552  528 L
3766 4000 mt 3766 3971 L
3766  500 mt 3766  528 L
3918 4000 mt 3918 3971 L
3918  500 mt 3918  528 L
4036 4000 mt 4036 3971 L
4036  500 mt 4036  528 L
4133 4000 mt 4133 3971 L
4133  500 mt 4133  528 L
4214 4000 mt 4214 3971 L
4214  500 mt 4214  528 L
4285 4000 mt 4285 3971 L
4285  500 mt 4285  528 L
4347 4000 mt 4347 3971 L
4347  500 mt 4347  528 L
4403 4000 mt 4403 3971 L
4403  500 mt 4403  528 L
4403 4000 mt 4403 3943 L
4403  500 mt 4403  556 L
%%IncludeResource: font Helvetica
/Helvetica /WindowsLatin1Encoding 133.333 FMSR

4305 4188 mt 
(10) s
%%IncludeResource: font Helvetica
/Helvetica /WindowsLatin1Encoding 88.8889 FMSR

4453 4106 mt 
(2) s
 750 4000 mt  806 4000 L
4500 4000 mt 4443 4000 L
%%IncludeResource: font Helvetica
/Helvetica /WindowsLatin1Encoding 133.333 FMSR

 541 4049 mt 
(0.2) s
 750 3562 mt  806 3562 L
4500 3562 mt 4443 3562 L
 467 3611 mt 
(0.25) s
 750 3125 mt  806 3125 L
4500 3125 mt 4443 3125 L
 541 3174 mt 
(0.3) s
 750 2687 mt  806 2687 L
4500 2687 mt 4443 2687 L
 467 2736 mt 
(0.35) s
 750 2250 mt  806 2250 L
4500 2250 mt 4443 2250 L
 541 2299 mt 
(0.4) s
 750 1812 mt  806 1812 L
4500 1812 mt 4443 1812 L
 467 1861 mt 
(0.45) s
 750 1375 mt  806 1375 L
4500 1375 mt 4443 1375 L
 541 1424 mt 
(0.5) s
 750  937 mt  806  937 L
4500  937 mt 4443  937 L
 467  986 mt 
(0.55) s
 750  500 mt 4500  500 L
 750 4000 mt 4500 4000 L
4500 4000 mt 4500  500 L
 750 4000 mt  750  500 L
0 sg
%%IncludeResource: font Symbol
/Symbol /WindowsLatin1Encoding 125 FMSR

1197 1937 mt 
(m) s
%%IncludeResource: font Helvetica-Bold
/Helvetica-Bold /WindowsLatin1Encoding 100 FMSR

1269 1999 mt 
(r) s
%%IncludeResource: font Helvetica-Bold
/Helvetica-Bold /WindowsLatin1Encoding 125 FMSR

1307 1937 mt 
(  =  0.0) s
gs 872 1790 1007 921 rc
16.6667 w
250 0 921 1915 2 MP stroke
gr

16.6667 w
%%IncludeResource: font Symbol
/Symbol /WindowsLatin1Encoding 125 FMSR

1197 2160 mt 
(m) s
%%IncludeResource: font Helvetica-Bold
/Helvetica-Bold /WindowsLatin1Encoding 100 FMSR

1269 2222 mt 
(r) s
%%IncludeResource: font Helvetica-Bold
/Helvetica-Bold /WindowsLatin1Encoding 125 FMSR

1307 2160 mt 
(  =  0.025) s
gs 872 1790 1007 921 rc
c8
250 0 921 2138 2 MP stroke
gr

c8
0 sg
%%IncludeResource: font Symbol
/Symbol /WindowsLatin1Encoding 125 FMSR

1197 2383 mt 
(m) s
%%IncludeResource: font Helvetica-Bold
/Helvetica-Bold /WindowsLatin1Encoding 100 FMSR

1269 2445 mt 
(r) s
%%IncludeResource: font Helvetica-Bold
/Helvetica-Bold /WindowsLatin1Encoding 125 FMSR

1307 2383 mt 
(  =  0.1) s
gs 872 1790 1007 921 rc
c9
250 0 921 2361 2 MP stroke
gr

c9
0 sg
%%IncludeResource: font Symbol
/Symbol /WindowsLatin1Encoding 125 FMSR

1197 2606 mt 
(m) s
%%IncludeResource: font Helvetica-Bold
/Helvetica-Bold /WindowsLatin1Encoding 100 FMSR

1269 2668 mt 
(r) s
%%IncludeResource: font Helvetica-Bold
/Helvetica-Bold /WindowsLatin1Encoding 125 FMSR

1307 2606 mt 
(  =  0.5) s
gs 872 1790 1007 921 rc
c10
250 0 921 2584 2 MP stroke
12.5 w
gr

12.5 w
c10

end %%Color Dict

eplot
%%EndObject

epage
end

showpage

%%Trailer
%%EOF
