%!PS-Adobe-3.0 EPSF-3.0
%%Creator: MATLAB, The MathWorks, Inc. Version 8.1.0.604 (R2013a). Operating System: Microsoft Windows 7.
%%Title: .\Rolling_UC_Only_StressStain_Paired.eps
%%CreationDate: 08/17/2013  16:57:55
%%DocumentNeededFonts: Helvetica-Bold
%%+ Helvetica
%%DocumentProcessColors: Cyan Magenta Yellow Black
%%LanguageLevel: 2
%%Pages: 1
%%BoundingBox:    54    93   573   572
%%EndComments

%%BeginProlog
% MathWorks dictionary
/MathWorks 160 dict begin
% definition operators
/bdef {bind def} bind def
/ldef {load def} bind def
/xdef {exch def} bdef
/xstore {exch store} bdef
% operator abbreviations
/c  /clip ldef
/cc /concat ldef
/cp /closepath ldef
/gr /grestore ldef
/gs /gsave ldef
/mt /moveto ldef
/np /newpath ldef
/cm /currentmatrix ldef
/sm /setmatrix ldef
/rm /rmoveto ldef
/rl /rlineto ldef
/s {show newpath} bdef
/sc {setcmykcolor} bdef
/sr /setrgbcolor ldef
/sg /setgray ldef
/w /setlinewidth ldef
/j /setlinejoin ldef
/cap /setlinecap ldef
/rc {rectclip} bdef
/rf {rectfill} bdef
% page state control
/pgsv () def
/bpage {/pgsv save def} bdef
/epage {pgsv restore} bdef
/bplot /gsave ldef
/eplot {stroke grestore} bdef
% orientation switch
/portraitMode 0 def /landscapeMode 1 def /rotateMode 2 def
% coordinate system mappings
/dpi2point 0 def
% font control
/FontSize 0 def
/FMS {/FontSize xstore findfont [FontSize 0 0 FontSize neg 0 0]
  makefont setfont} bdef
/ISOLatin1Encoding where {pop /WindowsLatin1Encoding 256 array bdef
ISOLatin1Encoding WindowsLatin1Encoding copy pop
/.notdef/.notdef/quotesinglbase/florin/quotedblbase/ellipsis/dagger
/daggerdbl/circumflex/perthousand/Scaron/guilsinglleft/OE/.notdef/.notdef
/.notdef/.notdef/quoteleft/quoteright/quotedblleft/quotedblright/bullet
/endash/emdash/tilde/trademark/scaron/guilsinglright/oe/.notdef/.notdef
/Ydieresis WindowsLatin1Encoding 128 32 getinterval astore pop}
{/WindowsLatin1Encoding StandardEncoding bdef} ifelse
/reencode {exch dup where {pop load} {pop StandardEncoding} ifelse
  exch dup 3 1 roll findfont dup length dict begin
  { 1 index /FID ne {def}{pop pop} ifelse } forall
  /Encoding exch def currentdict end definefont pop} bdef
/isroman {findfont /CharStrings get /Agrave known} bdef
/FMSR {3 1 roll 1 index dup isroman {reencode} {pop pop} ifelse
  exch FMS} bdef
/csm {1 dpi2point div -1 dpi2point div scale neg translate
 dup landscapeMode eq {pop -90 rotate}
  {rotateMode eq {90 rotate} if} ifelse} bdef
% line types: solid, dotted, dashed, dotdash
/SO { [] 0 setdash } bdef
/DO { [.5 dpi2point mul 4 dpi2point mul] 0 setdash } bdef
/DA { [6 dpi2point mul] 0 setdash } bdef
/DD { [.5 dpi2point mul 4 dpi2point mul 6 dpi2point mul 4
  dpi2point mul] 0 setdash } bdef
% macros for lines and objects
/L {lineto stroke} bdef
/MP {3 1 roll moveto 1 sub {rlineto} repeat} bdef
/AP {{rlineto} repeat} bdef
/PDlw -1 def
/W {/PDlw currentlinewidth def setlinewidth} def
/PP {closepath eofill} bdef
/DP {closepath stroke} bdef
/MR {4 -2 roll moveto dup  0 exch rlineto exch 0 rlineto
  neg 0 exch rlineto closepath} bdef
/FR {MR stroke} bdef
/PR {MR fill} bdef
/L1i {{currentfile picstr readhexstring pop} image} bdef
/tMatrix matrix def
/MakeOval {newpath tMatrix currentmatrix pop translate scale
0 0 1 0 360 arc tMatrix setmatrix} bdef
/FO {MakeOval stroke} bdef
/PO {MakeOval fill} bdef
/PD {currentlinewidth 2 div 0 360 arc fill
   PDlw -1 eq not {PDlw w /PDlw -1 def} if} def
/FA {newpath tMatrix currentmatrix pop translate scale
  0 0 1 5 -2 roll arc tMatrix setmatrix stroke} bdef
/PA {newpath tMatrix currentmatrix pop	translate 0 0 moveto scale
  0 0 1 5 -2 roll arc closepath tMatrix setmatrix fill} bdef
/FAn {newpath tMatrix currentmatrix pop translate scale
  0 0 1 5 -2 roll arcn tMatrix setmatrix stroke} bdef
/PAn {newpath tMatrix currentmatrix pop translate 0 0 moveto scale
  0 0 1 5 -2 roll arcn closepath tMatrix setmatrix fill} bdef
/vradius 0 def /hradius 0 def /lry 0 def
/lrx 0 def /uly 0 def /ulx 0 def /rad 0 def
/MRR {/vradius xdef /hradius xdef /lry xdef /lrx xdef /uly xdef
  /ulx xdef newpath tMatrix currentmatrix pop ulx hradius add uly
  vradius add translate hradius vradius scale 0 0 1 180 270 arc 
  tMatrix setmatrix lrx hradius sub uly vradius add translate
  hradius vradius scale 0 0 1 270 360 arc tMatrix setmatrix
  lrx hradius sub lry vradius sub translate hradius vradius scale
  0 0 1 0 90 arc tMatrix setmatrix ulx hradius add lry vradius sub
  translate hradius vradius scale 0 0 1 90 180 arc tMatrix setmatrix
  closepath} bdef
/FRR {MRR stroke } bdef
/PRR {MRR fill } bdef
/MlrRR {/lry xdef /lrx xdef /uly xdef /ulx xdef /rad lry uly sub 2 div def
  newpath tMatrix currentmatrix pop ulx rad add uly rad add translate
  rad rad scale 0 0 1 90 270 arc tMatrix setmatrix lrx rad sub lry rad
  sub translate rad rad scale 0 0 1 270 90 arc tMatrix setmatrix
  closepath} bdef
/FlrRR {MlrRR stroke } bdef
/PlrRR {MlrRR fill } bdef
/MtbRR {/lry xdef /lrx xdef /uly xdef /ulx xdef /rad lrx ulx sub 2 div def
  newpath tMatrix currentmatrix pop ulx rad add uly rad add translate
  rad rad scale 0 0 1 180 360 arc tMatrix setmatrix lrx rad sub lry rad
  sub translate rad rad scale 0 0 1 0 180 arc tMatrix setmatrix
  closepath} bdef
/FtbRR {MtbRR stroke } bdef
/PtbRR {MtbRR fill } bdef
/stri 6 array def /dtri 6 array def
/smat 6 array def /dmat 6 array def
/tmat1 6 array def /tmat2 6 array def /dif 3 array def
/asub {/ind2 exch def /ind1 exch def dup dup
  ind1 get exch ind2 get sub exch } bdef
/tri_to_matrix {
  2 0 asub 3 1 asub 4 0 asub 5 1 asub
  dup 0 get exch 1 get 7 -1 roll astore } bdef
/compute_transform {
  dmat dtri tri_to_matrix tmat1 invertmatrix 
  smat stri tri_to_matrix tmat2 concatmatrix } bdef
/ds {stri astore pop} bdef
/dt {dtri astore pop} bdef
/db {2 copy /cols xdef /rows xdef mul dup 3 mul string
  currentfile 
  3 index 0 eq {/ASCIIHexDecode filter}
  {/ASCII85Decode filter 3 index 2 eq {/RunLengthDecode filter} if }
  ifelse exch readstring pop
  dup 0 3 index getinterval /rbmap xdef
  dup 2 index dup getinterval /gbmap xdef
  1 index dup 2 mul exch getinterval /bbmap xdef pop pop}bdef
/it {gs np dtri aload pop moveto lineto lineto cp c
  cols rows 8 compute_transform 
  rbmap gbmap bbmap true 3 colorimage gr}bdef
/il {newpath moveto lineto stroke}bdef
currentdict end def
%%EndProlog

%%BeginSetup
MathWorks begin

0 cap

end
%%EndSetup

%%Page: 1 1
%%BeginPageSetup
%%PageBoundingBox:    54    93   573   572
MathWorks begin
bpage
%%EndPageSetup

%%BeginObject: obj1
bplot

/dpi2point 8.33333 def
portraitMode 0150 5158 csm

  305   390  4324  3990 rc
84 dict begin %Colortable dictionary
/c0 { 0.000000 0.000000 0.000000 sr} bdef
/c1 { 1.000000 1.000000 1.000000 sr} bdef
/c2 { 0.900000 0.000000 0.000000 sr} bdef
/c3 { 0.000000 0.820000 0.000000 sr} bdef
/c4 { 0.000000 0.000000 0.800000 sr} bdef
/c5 { 0.910000 0.820000 0.320000 sr} bdef
/c6 { 1.000000 0.260000 0.820000 sr} bdef
/c7 { 0.000000 0.820000 0.820000 sr} bdef
c0
1 j
1 sg
   0    0 5001 5001 rf
12.5 w
0 3500 3750 0 0 -3500 750 4000 4 MP
PP
-3750 0 0 3500 3750 0 0 -3500 750 4000 5 MP stroke
gs 750 500 3751 3501 rc
16.6667 w
0 sg
2 15 2 -3 2 2 2 4 2 6 2 3 2 10 2 0 
2 -8 2 2 2 -3 2 -3 2 -6 2 -4 2 -2 2 -5 
2 -10 2 -11 2 -2 2 -4 2 5 2 7 2 -14 2 9 
2 8 2 -3 2 11 2 11 2 0 2 -3 2 11 2 15 
2 5 2 6 2 1 2 -4 3 7 2 0 2 3 2 3 
2 7 2 13 2 5 2 -3 2 -4 2 -2 2 -1 2 -8 
2 -1 2 4 2 -5 2 -2 2 -1 2 11 2 8 2 7 
2 8 2 5 2 4 2 -1 2 9 2 2 2 -5 2 -2 
2 -2 2 5 2 1 2 -2 2 -1 2 -1 2 -3 2 -3 
2 -6 2 7 2 -2 2 -4 2 -4 2 -7 3 -4 2 -6 
2 5 2 -3 2 -5 2 -7 2 11 2 -11 2 4 2 13 
2 5 2 5 2 -5 2 -7 2 1 2 0 2 -6 2 -9 
2 0 2 -5 2 -6 2 1 2 -2 2 3 2 -8 2 -4 
2 0 2 -7 2 -6 2 -8 2 -1 2 3 2 10 2 14 
2 -1 2 13 2 10 2 19 2 9 2 -4 2 1 2 -2 
3 5 2 9 2 0 2 -4 2 1 2 -10 2 -6 2 -1 
2 -3 2 -7 2 2 2 9 2 1 2 -3 2 6 2 3 
2 -2 2 -6 2 2 2 7 2 1 2 0 2 -1 2 -3 
2 -2 2 8 2 -2 2 -1 2 -7 2 -5 2 0 2 -6 
2 -9 2 2 2 3 2 0 2 0 2 -3 2 12 2 -2 
2 -10 2 16 3 8 2 1 2 -2 2 2 2 -2 2 -2 
2 4 2 -2 2 -2 2 -5 2 -4 2 -7 2 -6 2 -4 
2 -10 2 7 2 -4 2 -4 2 8 2 -4 2 -3 2 4 
2 2 2 0 2 -4 2 -2 2 1 2 -3 2 -3 2 -4 
2 -1 2 -4 2 3 2 -1 2 5 2 3 2 -3 2 -10 
2 -6 2 4 2 -3 2 -8 3 -9 2 -3 2 -1 2 -5 
2 -7 2 0 2 -6 2 -11 2 -1 2 1 2 9 2 17 
2 3 2 -4 2 -5 2 -7 2 -10 2 -2 2 0 2 -1 
2 -2 2 -5 2 2 2 -2 2 -3 2 8 2 9 2 -3 
2 10 2 -2 2 -9 2 7 2 4 2 -7 2 5 2 -3 
2 -1 2 -5 2 0 2 4 2 -2 2 0 3 13 2 1 
2 -2 2 -3 2 9 2 8 2 22 2 31 2 6 2 0 
2 -3 2 -7 2 -7 2 -6 2 -4 2 0 2 -5 2 -12 
2 -11 2 6 2 7 2 12 2 4 2 0 2 -9 2 -5 
2 7 2 3 2 4 2 2 2 -4 2 -6 2 -4 2 2 
2 3 2 10 2 3 2 5 2 3 2 1 2 2 2 1 
3 -7 2 -2 2 1 2 -5 2 -10 2 5 2 0 2 3 
2 0 2 -9 2 6 3700 925 300 MP stroke
2 2 2 2 2 -3 2 -5 2 -4 2 -2 2 -7 2 -6 
2 -3 2 0 2 1 2 7 2 -2 2 -3 2 3 2 2 
2 -2 2 -3 2 -6 2 -2 2 -1 2 -3 2 0 2 -5 
2 -4 2 6 2 3 2 -7 2 -6 2 0 2 -1 3 -1 
2 0 2 1 2 -1 2 3 2 1 2 -3 2 0 2 -1 
2 -2 2 -1 2 -2 2 2 2 -1 2 -5 2 -5 2 -8 
2 -9 2 -3 2 -2 2 -9 2 -11 2 5 2 2 2 -2 
2 2 2 10 2 6 2 -5 2 11 2 10 2 -3 2 0 
2 2 2 -1 2 -5 2 1 2 3 2 -2 2 -1 2 0 
2 -8 3 -6 2 -1 2 2 2 0 2 11 2 5 2 -6 
2 -7 2 2 2 4 2 -3 2 -6 2 -2 2 -4 2 -9 
2 -2 2 -3 2 2 2 -1 2 -2 2 -1 2 -3 2 -4 
2 2 2 5 2 -3 2 -7 2 -4 2 -2 2 -8 2 -2 
2 -6 2 -3 2 -3 2 -2 2 1 2 1 2 -15 2 -3 
2 4 2 -4 2 -6 3 -9 2 -3 2 -8 2 -9 2 -9 
2 4 2 -3 2 -3 2 10 2 27 2 10 2 8 2 7 
2 16 2 3 2 0 2 30 2 12 2 -3 2 4 2 12 
2 -3 2 3 2 -3 2 -6 2 2 2 -2 2 -3 2 -6 
2 -10 2 3 2 0 2 -6 2 -2 2 -5 2 -1 2 -4 
2 -4 2 -4 2 10 2 6 2 -3 3 -5 2 -1 2 -2 
2 -2 2 -3 2 4 2 0 2 -5 2 -1 2 -2 2 0 
2 -5 2 -4 2 -4 2 4 2 -2 2 -1 2 -7 2 -10 
2 -3 2 3 2 -9 2 -2 2 -7 2 0 2 -1 2 -3 
2 -1 2 -6 2 -1 2 -8 2 -4 2 -13 2 -2 2 6 
2 10 2 5 2 -3 2 9 2 5 2 -2 2 0 3 9 
2 -5 2 -4 2 0 2 -4 2 -1 2 0 2 5 2 9 
2 1 2 1 2 0 2 -8 2 -2 2 5 2 -2 2 -5 
2 -1 2 5 2 -1 2 -7 2 -9 2 -5 2 -3 2 -8 
2 2 2 -4 2 -6 2 -8 2 -1 2 1 2 -2 2 1 
2 4 2 0 2 2 2 -3 2 6 2 -9 2 -5 2 3 
2 6 3 14 2 3 2 8 2 17 2 1 2 -6 2 4 
2 -7 2 -13 2 10 2 -2 2 -7 2 -3 2 4 2 0 
2 -4 2 0 2 -8 2 -6 2 -4 2 -7 2 -4 2 -8 
2 -5 2 -4 2 -9 2 5 2 -2 2 4 2 -1 2 4 
2 -2 2 -4 2 -4 2 9 2 5 2 3 2 3 2 2 
2 -4 2 -4 2 -1 3 -1 2 -6 2 8 2 3 2 1 
2 -2 2 -6 2 3 2 0 2 -4 2 -9 2 -2 2 0 
2 -11 2 -14 2 3 3095 1213 300 MP stroke
2 -3 2 -9 2 -2 2 -9 2 4 2 10 2 9 2 -7 
2 -4 2 4 2 3 2 -5 2 3 2 19 2 4 2 1 
2 -1 2 -4 2 -6 2 3 2 6 2 -4 2 8 2 5 
2 8 2 7 3 -2 2 7 2 3 2 -5 2 -3 2 4 
2 -11 2 4 2 8 2 -7 2 2 2 -6 2 7 2 7 
2 1 2 -7 2 -3 2 1 2 -1 2 4 2 -5 2 1 
2 3 2 0 2 -5 2 1 2 -6 2 0 2 -7 2 -6 
2 6 2 -1 2 -8 2 0 2 -8 2 -2 2 6 2 -5 
2 -3 2 -1 2 -3 3 -10 2 -1 2 1 2 -9 2 -6 
2 -2 2 0 2 -10 2 2 2 0 2 -7 2 -2 2 4 
2 -1 2 -2 2 -7 2 -9 2 -5 2 -4 2 -5 2 -10 
2 -1 2 -4 2 0 2 -4 2 -6 2 -3 2 -1 2 -2 
2 -6 2 -8 2 1 2 -4 2 -2 2 13 2 3 2 -4 
2 -9 2 2 2 7 2 -7 2 2 3 7 2 6 2 0 
2 4 2 0 2 -6 2 1 2 -4 2 -11 2 -5 2 2 
2 -8 2 -9 2 1 2 -4 2 -9 2 -11 2 -4 2 14 
2 -2 2 -5 2 -1 2 1 2 -10 2 -8 2 -5 2 -10 
2 -15 2 3 2 -5 2 -11 2 -12 2 -5 2 -11 2 -16 
2 -5 2 -4 2 -13 2 8 2 -15 2 49 2 246 3 -1 
2 7 2 1 2 4 2 -3 2 -7 2 1 2 6 2 -4 
2 -3 2 -7 2 -9 2 0 2 2 2 3 2 -4 2 -8 
2 3 2 3 2 -7 2 -3 2 -4 2 -1 2 0 2 -4 
2 0 2 3 2 -8 2 -1 2 1 2 -10 2 -6 2 7 
2 4 2 -3 2 -5 2 -4 2 -3 2 -8 2 -3 2 -5 
2 -6 3 -7 2 -8 2 -1 2 3 2 7 2 12 2 7 
2 -2 2 4 2 7 2 -2 2 1 2 -1 2 -4 2 -4 
2 4 2 -6 2 -5 2 5 2 -5 2 -2 2 1 2 -2 
2 -1 2 -4 2 -3 2 -2 2 -5 2 -9 2 -7 2 3 
2 -9 2 -6 2 -6 2 -4 2 -1 2 0 2 -8 2 12 
2 8 2 2 2 4 3 0 2 -1 2 -2 2 -2 2 7 
2 -7 2 1 2 0 2 -1 2 -7 2 -3 2 1 2 2 
2 -3 2 -4 2 -3 2 -2 2 -8 2 -9 2 1 2 1 
2 -4 2 -5 2 -3 2 -6 2 -11 2 -8 2 -5 2 -3 
2 10 2 16 2 20 2 5 2 -9 2 1 2 9 2 0 
2 -6 2 -6 2 -6 2 0 2 -7 3 -8 2 -8 2 0 
2 -4 2 -10 2 7 2 10 2 0 2 -7 2 -2 2 2 
2 -7 2 -6 2 -2 2 -3 2 -3 2 -7 2 2 2 -8 
2 10 2 2 2 -8 2490 1434 300 MP stroke
2 1 2 6 2 -9 2 8 2 0 2 3 2 1 2 -2 
2 -3 2 -9 2 -4 2 10 2 0 2 -1 2 5 2 6 
2 -1 2 -5 2 -1 2 0 3 -2 2 0 2 1 2 -9 
2 -4 2 2 2 2 2 -7 2 -6 2 4 2 6 2 -5 
2 -4 2 -3 2 -8 2 -1 2 1 2 -3 2 -10 2 1 
2 0 2 6 2 -1 2 -4 2 -6 2 0 2 -5 2 -11 
2 -1 2 -1 2 -11 2 -3 2 0 2 -2 2 -2 2 -5 
2 -2 2 -5 2 -9 2 -3 2 8 2 -5 3 5 2 1 
2 7 2 1 2 -1 2 -2 2 -3 2 5 2 6 2 -9 
2 -7 2 10 2 3 2 1 2 -1 2 -4 2 -10 2 -3 
2 7 2 6 2 0 2 -2 2 -6 2 -4 2 -5 2 -8 
2 -8 2 -1 2 10 2 2 2 -6 2 9 2 -1 2 5 
2 2 2 1 2 -4 2 -5 2 -6 2 -5 2 4 2 -3 
3 -12 2 3 2 16 2 -4 2 0 2 -4 2 -5 2 -1 
2 -1 2 -5 2 -4 2 -5 2 -9 2 -5 2 -2 2 -8 
2 -12 2 -3 2 5 2 5 2 11 2 5 2 1 2 -5 
2 -3 2 0 2 -7 2 -8 2 -1 2 -11 2 -5 2 4 
2 -3 2 0 2 0 2 1 2 -3 2 -4 2 -4 2 0 
2 -7 2 1 3 -3 2 -2 2 -9 2 -3 2 -3 2 -8 
2 3 2 1 2 -6 2 -3 2 3 2 -2 2 -4 2 1 
2 -1 2 2 2 -1 2 -5 2 -3 2 -2 2 -4 2 -8 
2 -10 2 7 2 1 2 -7 2 -7 2 -7 2 1 2 2 
2 -6 2 -1 2 8 2 -1 2 -11 2 4 2 10 2 -1 
2 -2 2 -6 2 3 2 -3 3 4 2 -2 2 -3 2 7 
2 -2 2 -2 2 -1 2 3 2 0 2 1 2 2 2 -2 
2 -3 2 -6 2 -2 2 -7 2 0 2 -6 2 -15 2 -2 
2 5 2 3 2 -8 2 3 2 -6 2 -4 2 -4 2 -5 
2 -4 2 5 2 1 2 -4 2 -1 2 -4 2 0 2 2 
2 -6 2 -3 2 4 2 0 2 -2 2 -5 3 -2 2 -5 
2 0 2 0 2 -4 2 -2 2 -3 2 -2 2 -4 2 -5 
2 9 2 -2 2 -5 2 14 2 3 2 -5 2 6 2 0 
2 2 2 3 2 -4 2 -12 2 -4 2 -7 2 -3 2 -2 
2 -9 2 1 2 -4 2 2 2 -7 2 -3 2 2 2 -4 
2 -6 2 -6 2 -1 2 3 2 -5 2 -4 2 10 2 -1 
3 -6 2 0 2 -1 2 -4 2 -4 2 0 2 -2 2 -8 
2 -1 2 -2 2 -7 2 -1 2 -7 2 -1 2 -4 2 6 
2 -4 2 -15 2 1 2 3 2 -5 2 -5 2 -4 2 1 
2 -1 2 -3 2 4 1885 1932 300 MP stroke
2 2 2 -1 2 -3 2 -7 2 -5 2 -2 2 -1 2 -7 
2 1 2 0 2 -5 2 6 2 -6 2 3 2 -5 3 -4 
2 -9 2 -2 2 -3 2 7 2 -5 2 7 2 -3 2 -4 
2 -1 2 -4 2 1 2 -5 2 -5 2 -2 2 2 2 -5 
2 -4 2 -3 2 -7 2 -6 2 1 2 3 2 -7 2 -11 
2 3 2 -5 2 -9 2 1 2 -8 2 -7 2 9 2 6 
2 5 2 -3 2 -3 2 1 2 1 2 -3 2 -5 2 0 
2 -5 3 -4 2 -4 2 -5 2 -5 2 -5 2 -4 2 5 
2 -3 2 1 2 4 2 -1 2 -3 2 -12 2 -6 2 1 
2 -2 2 0 2 3 2 2 2 -5 2 -1 2 -7 2 -6 
2 -4 2 -4 2 -5 2 -3 2 -1 2 4 2 -1 2 -7 
2 -2 2 -5 2 -4 2 -4 2 -2 2 -4 2 -3 2 1 
2 -5 2 -7 2 -2 3 4 2 -2 2 -4 2 -6 2 -5 
2 -6 2 -4 2 -7 2 -9 2 -5 2 -1 2 -9 2 -11 
2 -8 2 11 2 6 2 -9 2 5 2 12 2 -2 2 -3 
2 -3 2 -3 2 0 2 -2 2 -7 2 -5 2 -7 2 -9 
2 -2 2 -3 2 -11 2 -1 2 -3 2 -6 2 3 2 5 
2 1 2 -7 2 -3 2 -2 2 -5 3 -2 2 -2 2 0 
2 -9 2 -7 2 1 2 -6 2 -3 2 -8 2 3 2 -1 
2 -8 2 -6 2 2 2 2 2 -6 2 -2 2 0 2 -6 
2 -7 2 0 2 -2 2 -4 2 -2 2 -4 2 1 2 -7 
2 -8 2 1 2 0 2 6 2 -1 2 -6 2 -10 2 3 
2 -1 2 -5 2 -7 2 -3 2 -5 2 -6 2 -2 3 -2 
2 -1 2 -3 2 -4 2 0 2 -7 2 -5 2 -5 2 0 
2 -6 2 0 2 2 2 -4 2 -11 2 -5 2 -10 2 3 
2 1 2 -5 2 -7 2 -4 2 -4 2 -6 2 -10 2 -8 
2 -6 2 -4 2 -5 2 6 2 3 2 -4 2 1 2 0 
2 -4 2 -1 2 -2 2 -4 2 -1 2 -4 2 -4 2 -6 
2 -6 3 -3 2 -3 2 -6 2 -11 2 -4 2 -4 2 -7 
2 -4 2 1 2 4 2 -4 2 -2 2 -4 2 0 2 -4 
2 -7 2 -7 2 -6 2 -5 2 -11 2 -1 2 1 2 -8 
2 1 2 -4 2 -5 2 -2 2 -1 2 -1 2 -4 2 -4 
2 -6 2 -7 2 -5 2 0 2 -5 2 -6 2 -10 2 -1 
2 1 2 -6 2 -3 3 -6 2 0 2 -5 2 -5 2 -5 
2 -5 2 -1 2 -5 2 -7 2 -6 2 -2 2 -7 2 -7 
2 -2 2 -3 2 -7 2 -7 2 -11 2 -3 2 1 2 -5 
2 -7 2 -1 2 -1 2 -6 2 -5 2 -3 2 -6 2 -3 
2 -3 2 -6 2 -7 1280 2869 300 MP stroke
2 -5 2 0 2 0 2 -8 2 -9 2 -6 2 -4 2 -5 
2 -2 2 -5 3 -6 2 -8 2 -6 2 -3 2 -4 2 -6 
2 -5 2 -3 2 -6 2 0 2 -4 2 -4 2 -5 2 -7 
2 -2 2 -4 2 -8 2 -6 2 -7 2 -6 2 -1 2 0 
2 -6 2 -5 2 -4 2 -8 2 -5 2 -5 2 -7 2 -7 
2 -7 2 -3 2 -7 2 -8 2 -5 2 -2 2 -6 2 -3 
2 -5 2 -8 2 -5 2 -5 3 -4 2 -7 2 -7 2 2 
2 -4 2 -8 2 -7 2 -1 2 -3 2 -5 2 -8 2 -5 
2 -5 2 -4 2 -5 2 -6 2 -5 2 -5 2 -6 2 -4 
2 -5 2 -6 2 -5 2 -8 2 -1 2 -3 2 -8 2 -6 
2 -4 2 -4 2 -6 2 -8 2 -8 2 -2 2 -3 2 -8 
2 -6 2 -6 2 -6 2 -2 2 -3 2 -2 3 -5 2 -6 
2 -3 2 -4 2 -5 2 -6 2 -6 2 -5 2 -4 2 -3 
2 -4 2 -6 2 -7 2 -6 2 -5 2 -4 2 -5 2 -7 
2 -6 2 -2 2 -3 2 -7 2 -4 2 -4 2 -2 2 -5 
2 -9 2 -8 2 -2 2 -4 2 -2 2 -3 2 -4 2 -7 
2 -7 2 -6 2 -1 2 -3 2 -5 2 -8 2 -4 2 -3 
3 -5 2 -5 2 -5 2 -5 2 -6 2 -5 2 -2 2 -5 
2 -6 2 -8 2 -4 2 -6 2 -3 2 -5 2 -3 2 -5 
2 -4 2 -5 2 -5 2 -5 2 -4 2 -5 2 -2 2 -5 
2 -8 2 -4 2 -1 2 -3 2 -2 2 -4 2 -4 2 -5 
2 -6 2 -6 2 -5 2 -4 2 -2 2 -4 2 -4 2 -6 
2 -6 2 -4 3 -5 2 -5 2 -6 2 -3 2 -5 2 -6 
2 -6 2 -4 2 -5 2 -4 2 -2 2 -4 2 -5 2 -6 
2 -4 2 -4 2 -5 2 -3 2 -4 2 -4 2 -3 2 -5 
2 -6 2 -5 2 -5 2 -3 2 -3 2 -5 2 -5 2 -5 
2 -6 2 -4 2 -4 2 -5 2 -5 2 -3 2 -5 2 -4 
2 -5 2 -5 2 -3 2 -4 3 -3 2 -4 2 -4 2 -5 
2 -3 2 -3 2 -2 2 -3 2 -3 2 -4 2 -3 2 -4 
2 -2 2 -4 2 -2 2 -3 2 -3 2 -4 2 -4 2 -3 
2 -2 2 -2 2 -1 2 -2 2 -1 2 -2 2 -2 2 -1 
2 -1 2 -1 2 0 2 -1 2 0 2 -1 2 0 2 -1 
2 0 2 -1 2 0 2 -1 2 0 2 -1 750 3998 263 MP stroke
gr

16.6667 w
0 sg
0.1 sg
%%IncludeResource: font Helvetica-Bold
/Helvetica-Bold /WindowsLatin1Encoding 183.333 FMSR

2010 4322 mt 
(Vertical Strain) s
 498 3132 mt  -90 rotate
(Vertical Stress [kPa]) s
90 rotate
gs 750 500 3751 3501 rc
/c8 { 1.000000 0.000000 0.000000 sr} bdef
c8
2 -3 2 -4 2 -2 2 -1 2 -6 2 -4 2 4 2 2 
2 -8 2 7 2 -4 2 0 2 10 2 -2 2 2 2 -6 
2 3 2 4 2 4 2 -1 2 -2 2 -1 2 -2 2 2 
2 2 2 -3 2 -2 2 1 2 2 2 -2 3 -5 2 4 
2 8 2 0 2 4 2 2 2 -2 2 0 2 2 2 -1 
2 4 2 3 2 -1 2 -1 2 1 2 -1 2 1 2 -1 
2 -3 2 3 2 -5 2 -1 2 2 2 -6 2 1 2 7 
2 -1 2 -1 2 -2 2 0 2 -2 2 1 2 0 2 0 
2 -2 2 -3 2 0 2 -3 2 3 2 -5 2 0 2 -3 
3 -2 2 -1 2 -2 2 -4 2 -8 2 -2 2 2 2 11 
2 -5 2 3 2 -2 2 -7 2 12 2 6 2 -2 2 -2 
2 -3 2 -2 2 -2 2 -8 2 3 2 -3 2 -10 2 12 
2 2 2 -1 2 3 2 -3 2 -2 2 -1 2 -4 2 0 
2 -4 2 -9 2 6 2 -1 2 7 2 6 2 -1 2 -2 
2 -3 2 -5 3 -7 2 7 2 -5 2 9 2 -2 2 -1 
2 -4 2 3 2 4 2 -6 2 4 2 -8 2 2 2 5 
2 -2 2 7 2 2 2 1 2 -4 2 1 2 -4 2 -2 
2 -2 2 -8 2 3 2 2 2 0 2 -1 2 3 2 4 
2 0 2 -1 2 0 2 0 2 -3 2 -3 2 0 2 -3 
2 -1 2 -2 2 -5 2 0 2 3 3 -9 2 0 2 4 
2 0 2 -2 2 -3 2 6 2 0 2 0 2 3 2 7 
2 -3 2 -5 2 3 2 3 2 -2 2 0 2 -1 2 -3 
2 1 2 1 2 7 2 -1 2 -2 2 -2 2 -1 2 -2 
2 5 2 3 2 -3 2 -1 2 -1 2 -3 2 -1 2 1 
2 -1 2 -3 2 -1 2 1 2 -1 2 -1 2 -1 3 -3 
2 1 2 -3 2 -1 2 0 2 -2 2 3 2 1 2 -6 
2 1 2 3 2 -2 2 -8 2 8 2 -5 2 8 2 3 
2 7 2 2 2 -3 2 0 2 0 2 0 2 -2 2 1 
2 -1 2 -2 2 0 2 1 2 -2 2 0 2 -4 2 -1 
2 1 2 -2 2 -4 2 2 2 0 2 -6 2 0 2 2 
2 -4 3 -2 2 2 2 -5 2 6 2 -3 2 2 2 -2 
2 5 2 0 2 -2 2 -4 2 -2 2 0 2 -2 2 -5 
2 1 2 3 2 -1 2 -6 2 1 2 0 2 -6 2 1 
2 -1 2 -1 2 1 2 -1 2 -2 2 -4 2 -1 2 -2 
2 -4 2 -2 2 -4 2 -3 2 -4 2 -5 2 -1 2 -13 
2 8 2 10 2 -7 3 5 2 2 2 1 2 -5 2 3 
2 -5 2 -4 2 4 2 -1 2 1 2 -5 2 -7 2 5 
2 5 2 -3 2 3 3704 800 300 MP stroke
2 -1 2 5 2 -5 2 -2 2 1 2 2 2 3 2 1 
2 2 2 -3 2 -3 2 -3 2 -4 2 -5 2 -1 2 -2 
2 -3 2 0 2 -9 2 2 2 2 2 -7 2 23 2 7 
2 0 2 0 3 -3 2 -1 2 -2 2 0 2 -1 2 -1 
2 -2 2 -1 2 -2 2 -3 2 -2 2 -2 2 -4 2 2 
2 -1 2 -3 2 0 2 -1 2 1 2 2 2 1 2 -2 
2 -5 2 3 2 -1 2 -6 2 -1 2 1 2 -2 2 2 
2 -2 2 -2 2 2 2 -3 2 -3 2 -4 2 -6 2 2 
2 6 2 2 2 -2 2 -3 3 -1 2 -3 2 -4 2 0 
2 0 2 5 2 0 2 1 2 -2 2 -2 2 2 2 -1 
2 -3 2 -2 2 2 2 -2 2 3 2 -2 2 -2 2 -1 
2 -5 2 -1 2 1 2 -1 2 -2 2 3 2 0 2 2 
2 -5 2 3 2 -1 2 -3 2 0 2 4 2 -2 2 -3 
2 0 2 -4 2 0 2 1 2 1 2 0 2 0 3 -1 
2 -2 2 2 2 1 2 -2 2 -2 2 0 2 -2 2 -6 
2 2 2 8 2 -3 2 -1 2 2 2 -4 2 -3 2 9 
2 1 2 -1 2 0 2 0 2 0 2 -1 2 -1 2 -2 
2 -2 2 2 2 0 2 -2 2 0 2 -3 2 -2 2 -1 
2 -4 2 -2 2 3 2 1 2 8 2 -3 2 -2 2 2 
2 -1 3 1 2 3 2 2 2 -3 2 0 2 -1 2 -7 
2 4 2 6 2 -4 2 5 2 -6 2 5 2 1 2 0 
2 -1 2 -5 2 5 2 -3 2 -4 2 5 2 0 2 1 
2 -3 2 -2 2 -5 2 -3 2 -4 2 -4 2 -4 2 -6 
2 -6 2 -5 2 -8 2 -5 2 -8 2 -9 2 -7 2 -10 
2 -11 2 -3 2 -23 3 -7 2 -15 2 -39 2 14 2 -90 
2 304 2 -2 2 -1 2 -4 2 -4 2 -2 2 -4 2 -6 
2 1 2 -5 2 -2 2 3 2 -6 2 -7 2 1 2 -1 
2 18 2 2 2 0 2 -9 2 2 2 5 2 -1 2 5 
2 1 2 -2 2 -6 2 2 2 -7 2 6 2 5 2 1 
2 7 2 -7 2 6 2 -1 2 -2 3 -2 2 0 2 -1 
2 -5 2 1 2 -5 2 -1 2 1 2 1 2 -9 2 -1 
2 5 2 -4 2 10 2 4 2 -3 2 -5 2 6 2 4 
2 -5 2 3 2 -4 2 1 2 -4 2 0 2 -3 2 -3 
2 -2 2 -3 2 0 2 2 2 2 2 -2 2 -4 2 -4 
2 -2 2 -1 2 -5 2 3 2 -4 2 -1 2 -7 3 5 
2 -1 2 -2 2 -3 2 1 2 -3 2 -7 2 6 2 -4 
2 -3 2 15 2 -2 2 -1 2 3 2 -5 2 3 2 -7 
2 0 2 -2 2 0 3099 906 300 MP stroke
2 0 2 -3 2 4 2 -2 2 -2 2 0 2 -3 2 -2 
2 -2 2 -1 2 -3 2 0 2 -2 2 0 2 -1 2 -6 
2 1 2 4 2 -3 2 -1 2 1 2 -1 3 -2 2 -1 
2 0 2 -3 2 -1 2 0 2 -6 2 -1 2 5 2 -5 
2 8 2 2 2 -4 2 -3 2 -1 2 0 2 -3 2 -3 
2 0 2 -2 2 -3 2 -1 2 -4 2 -1 2 -4 2 -3 
2 0 2 -4 2 3 2 -1 2 1 2 -2 2 -3 2 -3 
2 -3 2 -2 2 -4 2 -3 2 -3 2 -1 2 -4 2 -4 
3 0 2 -6 2 -5 2 1 2 -4 2 -14 2 8 2 7 
2 -3 2 -2 2 2 2 -4 2 -1 2 -5 2 -6 2 -2 
2 -6 2 -2 2 3 2 9 2 8 2 0 2 0 2 2 
2 -3 2 -1 2 -4 2 -2 2 -1 2 4 2 4 2 2 
2 -2 2 2 2 -5 2 3 2 -2 2 -2 2 0 2 -2 
2 -6 2 2 2 -4 3 -8 2 7 2 1 2 -2 2 2 
2 -5 2 0 2 -3 2 -2 2 -1 2 -2 2 -6 2 -2 
2 0 2 -9 2 -2 2 -1 2 5 2 -3 2 8 2 -1 
2 -2 2 1 2 -3 2 -2 2 0 2 0 2 -4 2 0 
2 1 2 2 2 -4 2 2 2 -2 2 -1 2 -2 2 0 
2 -2 2 -5 2 2 2 0 2 -1 3 -3 2 -1 2 -2 
2 -1 2 -1 2 -4 2 1 2 -5 2 -2 2 -1 2 -3 
2 -4 2 -3 2 -2 2 0 2 -4 2 -2 2 -3 2 -4 
2 4 2 -4 2 3 2 -4 2 3 2 -6 2 4 2 -2 
2 1 2 0 2 0 2 -5 2 -4 2 2 2 3 2 -4 
2 2 2 -1 2 1 2 -3 2 -5 2 1 2 1 3 -5 
2 0 2 -3 2 -3 2 0 2 -4 2 -4 2 -2 2 -5 
2 -1 2 3 2 -4 2 -2 2 2 2 -1 2 -7 2 -3 
2 0 2 -5 2 -9 2 14 2 6 2 -4 2 2 2 0 
2 -4 2 -2 2 0 2 -3 2 3 2 -3 2 1 2 -2 
2 -3 2 -1 2 -1 2 2 2 -2 2 5 2 -1 2 -4 
2 4 3 -4 2 2 2 -3 2 -2 2 -1 2 -3 2 -3 
2 0 2 -1 2 -2 2 -1 2 0 2 -1 2 0 2 -4 
2 -2 2 -3 2 -7 2 1 2 -2 2 -6 2 6 2 -1 
2 -6 2 3 2 1 2 1 2 -10 2 5 2 3 2 6 
2 2 2 -5 2 5 2 -2 2 -3 2 2 2 -3 2 -3 
2 5 2 -1 2 -3 3 -4 2 -1 2 1 2 -6 2 2 
2 -2 2 1 2 -4 2 -4 2 1 2 -4 2 -6 2 1 
2 -2 2 -8 2 1 2 -4 2 -2 2 -3 2 -2 2 -3 
2 -7 2 -4 2 5 2494 1275 300 MP stroke
2 -1 2 -5 2 2 2 -2 2 -6 2 -4 2 3 2 -18 
2 4 2 4 2 8 2 -8 2 4 2 -3 2 3 2 8 
2 -4 2 0 3 -2 2 -4 2 -1 2 -4 2 -3 2 -2 
2 -5 2 -2 2 -2 2 -4 2 -2 2 -8 2 5 2 -7 
2 -4 2 4 2 2 2 -7 2 2 2 -3 2 -5 2 -2 
2 -8 2 -2 2 7 2 0 2 0 2 -3 2 -1 2 -5 
2 -2 2 -2 2 -2 2 -2 2 -2 2 0 2 -7 2 -3 
2 4 2 -2 2 1 2 -7 2 -1 3 3 2 -6 2 2 
2 6 2 -1 2 -1 2 -4 2 -3 2 -2 2 -2 2 0 
2 -7 2 -2 2 3 2 -9 2 4 2 0 2 -1 2 -8 
2 0 2 5 2 -8 2 5 2 6 2 -2 2 -1 2 2 
2 -1 2 -2 2 -2 2 -3 2 -4 2 -1 2 0 2 -2 
2 1 2 -3 2 -1 2 0 2 -3 2 -2 2 -6 3 4 
2 0 2 -3 2 5 2 -3 2 0 2 0 2 -3 2 -4 
2 -1 2 -5 2 -1 2 -2 2 -6 2 -2 2 -4 2 -1 
2 -1 2 -3 2 -3 2 -5 2 -4 2 -7 2 -2 2 2 
2 -1 2 2 2 0 2 -6 2 -4 2 3 2 1 2 -3 
2 2 2 2 2 -2 2 -3 2 0 2 -5 2 -1 2 -4 
2 -5 3 0 2 2 2 -7 2 -4 2 8 2 1 2 -3 
2 -2 2 -4 2 -3 2 -6 2 -2 2 0 2 -3 2 -4 
2 -4 2 -6 2 -4 2 1 2 -3 2 -5 2 -5 2 -1 
2 2 2 1 2 1 2 0 2 -2 2 -3 2 -2 2 -3 
2 -2 2 -5 2 -1 2 -2 2 -2 2 -3 2 -3 2 -4 
2 1 2 -6 2 -4 3 1 2 -6 2 1 2 0 2 -3 
2 -5 2 -2 2 -3 2 0 2 -7 2 3 2 -2 2 -1 
2 -2 2 -1 2 -3 2 -3 2 1 2 -2 2 -1 2 -4 
2 -2 2 -3 2 -2 2 -4 2 -3 2 -2 2 -4 2 -1 
2 -2 2 -4 2 -4 2 -3 2 -2 2 -4 2 -3 2 -5 
2 -3 2 -1 2 -3 2 1 2 -6 3 -6 2 2 2 -5 
2 -3 2 0 2 2 2 -1 2 -5 2 3 2 -1 2 -2 
2 -3 2 -1 2 -2 2 -5 2 1 2 0 2 2 2 0 
2 1 2 0 2 -2 2 -4 2 0 2 -7 2 -3 2 0 
2 -2 2 -8 2 -7 2 6 2 -4 2 1 2 -5 2 -3 
2 4 2 -3 2 0 2 -6 2 4 2 -2 2 -1 3 -3 
2 -1 2 -3 2 -4 2 -3 2 -4 2 -3 2 -1 2 -4 
2 -3 2 -3 2 -4 2 -1 2 -2 2 -5 2 -4 2 -3 
2 -4 2 -3 2 -8 2 -1 2 -3 2 -4 2 -4 2 -6 
2 -1 2 -13 2 5 1889 1852 300 MP stroke
2 5 2 -7 2 1 2 0 2 -1 2 -7 2 5 2 -6 
2 -2 2 -1 2 0 2 -8 2 -3 2 7 3 0 2 -4 
2 0 2 -4 2 -3 2 -3 2 -3 2 -4 2 -1 2 -2 
2 -3 2 -3 2 -2 2 -6 2 -4 2 -1 2 -1 2 -5 
2 -3 2 -5 2 -2 2 -7 2 4 2 -6 2 -5 2 3 
2 -6 2 0 2 -1 2 -5 2 0 2 -3 2 -3 2 -2 
2 -3 2 -4 2 -3 2 -4 2 -6 2 -3 2 -2 2 -6 
2 -6 3 1 2 -2 2 -3 2 0 2 -4 2 0 2 -3 
2 -3 2 -3 2 -3 2 -2 2 -2 2 -2 2 -3 2 -4 
2 -4 2 -3 2 -4 2 -5 2 0 2 -4 2 0 2 -6 
2 2 2 -6 2 -5 2 1 2 -6 2 0 2 1 2 3 
2 -4 2 -4 2 -5 2 -2 2 -4 2 -3 2 -4 2 -1 
2 -6 2 1 2 -10 3 3 2 1 2 0 2 -1 2 -5 
2 -2 2 -3 2 -2 2 -3 2 -3 2 -5 2 -2 2 -5 
2 -4 2 -4 2 -4 2 -3 2 0 2 -5 2 -4 2 -1 
2 -2 2 -4 2 3 2 -1 2 0 2 -4 2 -4 2 -1 
2 -4 2 -3 2 -5 2 -4 2 -2 2 -6 2 -5 2 -1 
2 -4 2 -1 2 1 2 -3 2 -8 3 -2 2 3 2 -1 
2 -1 2 -2 2 -6 2 -3 2 -3 2 -1 2 -7 2 -3 
2 -1 2 -5 2 -3 2 -5 2 -4 2 -4 2 -4 2 0 
2 -6 2 -3 2 -3 2 -7 2 -2 2 -1 2 -4 2 -2 
2 -4 2 -4 2 0 2 -5 2 -3 2 -4 2 -5 2 -3 
2 -1 2 -3 2 -4 2 -3 2 1 2 -2 2 -3 3 -4 
2 -4 2 -6 2 -2 2 -3 2 -2 2 -3 2 -4 2 -4 
2 -4 2 -4 2 -3 2 -6 2 -4 2 -3 2 -4 2 -5 
2 -6 2 -5 2 -4 2 0 2 -10 2 3 2 -7 2 -3 
2 -3 2 -4 2 -7 2 -1 2 -4 2 -1 2 -3 2 -7 
2 -6 2 -2 2 -2 2 -6 2 -4 2 -1 2 -5 2 -5 
2 -5 3 -2 2 -4 2 -6 2 -5 2 -5 2 1 2 -7 
2 -2 2 -4 2 -5 2 0 2 -6 2 -5 2 0 2 -3 
2 -5 2 0 2 -5 2 -4 2 -3 2 -5 2 -7 2 -1 
2 -3 2 -3 2 -6 2 -1 2 -3 2 -5 2 -3 2 -3 
2 -4 2 -4 2 -6 2 -4 2 -4 2 -6 2 -6 2 -1 
2 -5 2 -6 2 -5 3 -6 2 -4 2 -2 2 -5 2 -6 
2 -1 2 -3 2 -5 2 -2 2 -4 2 -4 2 -3 2 -5 
2 -7 2 -2 2 -5 2 -7 2 -5 2 -3 2 -5 2 -7 
2 -5 2 -2 2 -5 2 -6 2 -4 2 -5 2 -5 2 -5 
2 -4 2 -8 2 -7 1284 2811 300 MP stroke
2 -1 2 -5 2 -6 2 -6 2 -5 2 -4 2 -5 2 -2 
2 -5 2 -5 2 -5 3 -6 2 -6 2 -5 2 -5 2 -4 
2 -8 2 -3 2 -4 2 -4 2 -4 2 -5 2 -7 2 -4 
2 -5 2 -5 2 -5 2 -6 2 -4 2 -5 2 -6 2 -5 
2 -6 2 -5 2 -4 2 -4 2 -7 2 -8 2 -5 2 -2 
2 -6 2 -7 2 -5 2 -3 2 -4 2 -9 2 -3 2 -4 
2 -5 2 -6 2 -5 2 -7 2 -4 3 -6 2 -5 2 -6 
2 -4 2 -6 2 -4 2 -6 2 -4 2 -4 2 -5 2 -4 
2 -6 2 -5 2 -4 2 -5 2 -4 2 -7 2 -6 2 -3 
2 -4 2 -5 2 -5 2 -5 2 -4 2 -6 2 -4 2 -4 
2 -5 2 -4 2 -5 2 -7 2 -3 2 -6 2 -5 2 -4 
2 -7 2 -4 2 -6 2 -5 2 -6 2 -7 2 -5 3 -4 
2 -6 2 -5 2 -4 2 -6 2 -7 2 -3 2 -4 2 -5 
2 -5 2 -5 2 -6 2 -3 2 -5 2 -5 2 -6 2 -5 
2 -6 2 -4 2 -6 2 -4 2 -5 2 -6 2 -5 2 -4 
2 -5 2 -7 2 -3 2 -4 2 -5 2 -4 2 -6 2 -5 
2 -5 2 -5 2 -4 2 -6 2 -7 2 -4 2 -5 2 -5 
2 -6 3 -6 2 -5 2 -4 2 -3 2 -5 2 -6 2 -6 
2 -3 2 -5 2 -4 2 -4 2 -6 2 -4 2 -4 2 -5 
2 -4 2 -4 2 -5 2 -5 2 -5 2 -3 2 -4 2 -5 
2 -5 2 -4 2 -4 2 -3 2 -5 2 -4 2 -5 2 -4 
2 -5 2 -6 2 -5 2 -3 2 -4 2 -4 2 -5 2 -5 
2 -5 2 -4 2 -5 3 -5 2 -6 2 -5 2 -5 2 -4 
2 -5 2 -7 2 -5 2 -5 2 -4 2 -4 2 -6 2 -5 
2 -5 2 -5 2 -4 2 -5 2 -5 2 -6 2 -4 2 -3 
2 -5 2 -5 2 -4 2 -6 2 -5 2 -5 2 -5 2 -5 
2 -6 2 -4 2 -6 2 -5 2 -5 2 -5 2 -6 2 -5 
2 -5 2 -5 2 -5 2 -4 2 -4 3 -5 2 -4 2 -5 
2 -4 2 -4 2 -4 2 -4 2 -4 2 -3 2 -3 2 -4 
2 -3 2 -4 2 -4 2 -4 2 -4 2 -3 2 -4 2 -4 
2 -3 2 -3 2 -2 2 -2 2 -3 2 -2 2 -2 2 -3 
2 -1 2 -1 2 -1 2 0 2 -1 2 -1 2 0 2 -1 
2 0 2 -1 2 0 2 -1 2 -1 2 0 2 -1 2 -1 
750 3998 265 MP stroke
/c9 { 0.000000 0.000000 1.000000 sr} bdef
c9
2 -1 2 -2 2 1 2 -2 2 0 2 -1 2 -1 2 -2 
2 0 2 -1 2 0 2 -2 2 1 2 -2 2 0 2 1 
2 -1 2 2 2 0 2 -1 2 0 2 -2 2 0 3 1 
2 0 2 -1 2 -1 2 0 2 -3 2 1 2 -1 2 -2 
2 1 2 0 2 -2 2 2 2 -2 2 3 2 2 2 1 
2 0 2 0 2 1 2 2 2 -1 2 1 2 -1 2 0 
2 0 2 1 2 -1 2 0 2 0 2 -2 2 -2 2 0 
2 -2 2 -1 2 -1 2 0 2 -2 2 1 2 -1 2 -1 
2 0 2 0 3 0 2 -2 2 4 2 -1 2 1 2 -1 
2 -1 2 1 2 -1 2 -2 2 1 2 -4 2 1 2 0 
2 -4 2 2 2 5 2 -1 2 3 2 0 2 -3 2 4 
2 -1 2 1 2 -1 2 2 2 0 2 -1 2 1 2 -1 
2 -1 2 0 2 0 2 -2 2 1 2 -1 2 -1 2 0 
2 -2 2 -2 2 1 2 -3 3 2 2 -1 2 0 2 -1 
2 0 2 1 2 -2 2 1 2 0 2 -1 2 0 2 -1 
2 0 2 -3 2 -1 2 1 2 -2 2 0 2 0 2 -1 
2 1 2 0 2 -1 2 0 2 -2 2 1 2 -1 2 -1 
2 -1 2 3 2 1 2 -2 2 1 2 0 2 -4 2 3 
2 -3 2 -2 2 5 2 0 2 1 2 -2 3 1 2 0 
2 -1 2 0 2 -1 2 0 2 -1 2 -1 2 1 2 -2 
2 0 2 0 2 -2 2 3 2 -1 2 3 2 2 2 1 
2 -2 2 -1 2 -3 2 3 2 1 2 0 2 0 2 1 
2 -1 2 1 2 -5 2 5 2 -1 2 2 2 -1 2 -1 
2 1 2 -2 2 0 2 -2 2 1 2 1 2 -1 2 -1 
2 -1 3 -1 2 -2 2 1 2 -1 2 -1 2 0 2 -3 
2 4 2 -5 2 5 2 0 2 0 2 -1 2 0 2 0 
2 -1 2 0 2 -1 2 0 2 -2 2 1 2 0 2 0 
2 -3 2 3 2 1 2 0 2 2 2 -1 2 3 2 1 
2 -1 2 -1 2 0 2 1 2 -5 2 5 2 -2 2 1 
2 -1 2 -1 2 -1 3 0 2 -2 2 0 2 -7 2 5 
2 -4 2 6 2 0 2 0 2 -2 2 0 2 -2 2 -1 
2 -1 2 -3 2 0 2 -1 2 0 2 -3 2 0 2 -2 
2 1 2 -1 2 -1 2 0 2 -5 2 1 2 0 2 -3 
2 0 2 -2 2 -1 2 1 2 -3 2 0 2 -1 2 -3 
2 4 2 -2 2 -2 2 3 2 1 3 -6 2 3 2 3 
2 -2 2 0 2 1 2 -2 2 3 2 1 2 -2 2 8 
2 0 2 0 2 0 2 0 2 -2 2 -1 2 -3 2 -1 
2 -1 2 -4 2 0 3706 749 300 MP stroke
2 -3 2 -1 2 -3 2 0 2 -5 2 5 2 -1 2 -3 
2 -1 2 2 2 -1 2 -1 2 0 2 -1 2 -2 2 -1 
2 -2 2 0 2 -4 2 1 2 1 3 -4 2 1 2 0 
2 -6 2 4 2 3 2 0 2 1 2 -1 2 1 2 0 
2 -1 2 0 2 -2 2 1 2 -2 2 2 2 -2 2 1 
2 3 2 -3 2 1 2 2 2 -1 2 1 2 -1 2 0 
2 1 2 -1 2 0 2 0 2 0 2 0 2 -1 2 -1 
2 -2 2 0 2 -2 2 -1 2 -1 2 -3 2 0 3 -1 
2 -2 2 -1 2 -1 2 -4 2 1 2 0 2 0 2 0 
2 -1 2 -1 2 -2 2 0 2 -3 2 -1 2 -1 2 -3 
2 -3 2 0 2 1 2 3 2 4 2 0 2 -2 2 0 
2 -1 2 0 2 -2 2 0 2 -2 2 0 2 -2 2 -1 
2 0 2 -2 2 0 2 -2 2 1 2 -2 2 -1 2 4 
2 0 3 1 2 -1 2 -1 2 -1 2 0 2 0 2 -1 
2 -1 2 -1 2 -1 2 -2 2 -1 2 0 2 -3 2 0 
2 0 2 -2 2 3 2 -1 2 -1 2 1 2 0 2 0 
2 -1 2 0 2 1 2 1 2 -2 2 1 2 -1 2 -2 
2 2 2 -4 2 1 2 -1 2 -1 2 -1 2 -2 2 -1 
2 0 2 -3 2 0 2 1 3 -1 2 -3 2 2 2 0 
2 -1 2 -2 2 0 2 1 2 0 2 1 2 1 2 -3 
2 0 2 0 2 0 2 -1 2 -1 2 -3 2 0 2 -1 
2 -1 2 -2 2 -1 2 -1 2 -1 2 -3 2 -1 2 -3 
2 -2 2 -2 2 -2 2 -3 2 -2 2 -3 2 -3 2 -3 
2 -3 2 -4 2 -2 2 -5 2 -3 2 -4 3 -7 2 2 
2 -16 2 13 2 -32 2 21 2 -21 2 -19 2 59 2 -128 
2 213 2 0 2 0 2 -4 2 1 2 -2 2 0 2 -4 
2 1 2 -2 2 -5 2 0 2 0 2 -5 2 1 2 -4 
2 -2 2 -1 2 -2 2 -4 2 1 2 -1 2 -2 2 -3 
2 -1 2 -3 2 -3 2 -1 2 0 2 -6 2 1 2 -1 
3 -3 2 -1 2 -3 2 -1 2 -3 2 -1 2 -3 2 -4 
2 0 2 -4 2 2 2 1 2 -1 2 -1 2 -1 2 -4 
2 1 2 -3 2 -2 2 3 2 4 2 -2 2 0 2 0 
2 -1 2 0 2 -2 2 -1 2 1 2 0 2 -2 2 0 
2 1 2 -3 2 2 2 -2 2 -1 2 2 2 -2 2 -1 
2 -1 2 0 2 1 3 -2 2 0 2 -2 2 1 2 -1 
2 0 2 -2 2 -1 2 -1 2 3 2 -3 2 -2 2 4 
2 -3 2 1 2 0 2 0 2 -3 2 0 2 0 2 -2 
2 1 2 0 2 -3 3101 914 300 MP stroke
2 -1 2 0 2 -2 2 -2 2 -2 2 2 2 1 2 -3 
2 3 2 0 2 -2 2 -1 2 1 2 -1 2 -1 2 -1 
2 0 2 -3 3 1 2 -1 2 -2 2 3 2 3 2 -3 
2 3 2 -2 2 0 2 -1 2 -1 2 -1 2 -1 2 -1 
2 -2 2 0 2 -1 2 -2 2 0 2 1 2 -3 2 0 
2 1 2 -1 2 0 2 -3 2 1 2 -2 2 -2 2 -3 
2 0 2 1 2 0 2 -2 2 0 2 -1 2 -1 2 -2 
2 -1 2 -2 2 -1 2 -1 3 -3 2 -2 2 1 2 -4 
2 -1 2 0 2 -3 2 -4 2 1 2 -4 2 2 2 -3 
2 -1 2 -2 2 -1 2 -2 2 -2 2 -2 2 -2 2 -2 
2 -2 2 -4 2 -2 2 0 2 2 2 -2 2 -2 2 -2 
2 -4 2 -1 2 0 2 -4 2 -1 2 0 2 -5 2 0 
2 2 2 -3 2 -2 2 0 2 -2 2 1 2 -3 3 -4 
2 6 2 -3 2 -1 2 0 2 -2 2 -1 2 -1 2 -1 
2 -4 2 0 2 -2 2 -5 2 0 2 0 2 -5 2 4 
2 -3 2 -1 2 0 2 -2 2 0 2 -1 2 -2 2 -2 
2 -1 2 -3 2 0 2 0 2 -3 2 -1 2 2 2 -3 
2 1 2 0 2 -1 2 1 2 -1 2 -1 2 -1 2 -1 
2 -4 3 -2 2 -1 2 -2 2 0 2 -1 2 -1 2 -2 
2 -1 2 -1 2 -2 2 -2 2 1 2 -6 2 1 2 1 
2 -4 2 4 2 -3 2 -2 2 -1 2 -3 2 -2 2 -2 
2 -2 2 -2 2 -1 2 -2 2 -2 2 0 2 -2 2 -6 
2 3 2 -3 2 -2 2 -1 2 -1 2 -1 2 0 2 -2 
2 -1 2 -3 2 -1 3 -1 2 -2 2 0 2 4 2 0 
2 -1 2 -2 2 1 2 -1 2 -1 2 -2 2 2 2 -2 
2 -1 2 -1 2 -1 2 -2 2 -2 2 -2 2 1 2 1 
2 -5 2 2 2 -2 2 -2 2 0 2 0 2 -3 2 1 
2 -3 2 -1 2 -1 2 -2 2 -1 2 -2 2 -1 2 -2 
2 -1 2 -2 2 -3 2 -1 2 -3 2 -3 3 -2 2 -1 
2 -1 2 -5 2 -2 2 1 2 -4 2 -5 2 1 2 -3 
2 -7 2 3 2 -1 2 -5 2 0 2 0 2 -4 2 0 
2 0 2 1 2 -4 2 3 2 0 2 -4 2 -1 2 -1 
2 -4 2 -6 2 9 2 2 2 -1 2 -2 2 -2 2 0 
2 -3 2 -1 2 -2 2 -3 2 -1 2 -3 2 1 2 -6 
3 4 2 3 2 1 2 -4 2 0 2 0 2 -3 2 -4 
2 2 2 -5 2 -3 2 3 2 -3 2 -3 2 0 2 -5 
2 0 2 2 2 -2 2 2 2 -1 2 -3 2 -2 2 0 
2 -3 2 -6 2 3 2496 1266 300 MP stroke
2 1 2 -4 2 0 2 -3 2 1 2 -2 2 -1 2 -4 
2 1 2 -3 2 -1 2 0 2 -2 2 -3 2 -2 2 -1 
3 -3 2 -3 2 -1 2 -2 2 -1 2 -6 2 -1 2 -1 
2 -3 2 -4 2 4 2 -2 2 -3 2 -1 2 -3 2 -3 
2 -2 2 -1 2 -3 2 -2 2 -3 2 -5 2 -1 2 -1 
2 -2 2 -3 2 -4 2 -2 1 0 1 -1 2 -5 2 -1 
2 -2 2 -4 2 -2 2 2 2 -8 2 1 2 -1 2 -5 
2 -3 2 1 2 -6 3 -2 2 -1 2 -5 2 -6 2 4 
2 -5 2 -1 2 4 2 -2 2 1 2 -4 2 -4 2 2 
2 -5 2 1 2 0 2 -1 2 -1 2 1 2 -1 2 -1 
2 -4 2 -1 2 -1 2 -2 2 -2 2 -1 2 -3 2 -2 
2 -3 2 -1 2 -4 2 -2 2 -1 2 -3 2 -4 2 0 
2 1 2 -2 2 -2 2 -2 2 -2 3 -1 2 -2 2 -3 
2 1 2 -3 2 -3 2 0 2 -3 2 -1 2 -2 2 -1 
2 -4 2 1 2 -3 2 -1 2 -1 2 -2 2 -2 2 -2 
2 0 2 -2 2 -2 2 0 2 -3 2 -2 2 -2 2 -2 
2 -2 2 -3 2 2 2 -3 2 -2 2 -1 2 -3 2 -2 
2 -3 2 0 2 -3 2 -2 2 -2 2 -3 2 -3 2 -2 
3 -4 2 -2 2 0 2 -2 2 -3 2 -2 2 -3 2 0 
2 -3 2 -2 2 -2 2 -1 2 -5 2 0 2 0 2 -1 
2 -2 2 -1 2 -1 2 -3 2 1 2 -5 2 1 2 -1 
2 -3 2 -1 2 0 2 -1 2 -4 2 0 2 -1 2 -4 
2 0 2 -3 2 -1 2 -1 2 -1 2 -4 2 -2 2 -3 
2 -4 2 0 3 -6 2 0 2 -1 2 -3 2 -1 2 -1 
2 -1 2 -4 2 2 2 -1 2 -3 2 -3 2 -1 2 -3 
2 -1 2 -2 2 -1 2 -3 2 -2 2 -1 2 -4 2 -1 
2 0 2 -4 2 -3 2 -1 2 -4 2 -3 2 -1 2 -4 
2 -3 2 -3 2 -1 2 -4 2 -2 2 -1 2 -4 2 -2 
2 -2 2 -4 2 -2 2 -3 3 -4 2 -2 2 0 2 -3 
2 -1 2 -4 2 -1 2 -3 2 -1 2 -3 2 -1 2 -2 
2 -2 2 -1 2 -1 2 -3 2 -3 2 -2 2 -1 2 -4 
2 0 2 -1 2 -2 2 -2 2 -3 2 0 2 0 2 -5 
2 -1 2 -2 2 -3 2 -4 2 1 2 -3 2 -2 2 0 
2 -4 2 -1 2 -1 2 -4 2 -4 2 3 2 -2 3 -2 
2 -4 2 -2 2 -4 2 -1 2 -4 2 -2 2 -1 2 -4 
2 -2 2 -1 2 -4 2 -3 2 -2 2 -1 2 -2 2 -4 
2 -1 2 -2 2 -3 2 -2 2 -3 2 -1 2 -4 2 -2 
2 -1 2 -3 2 0 1893 1842 300 MP stroke
2 1 2 -1 2 -3 2 -3 2 0 2 -4 2 -2 2 -5 
2 1 2 -5 2 -1 2 -6 2 -1 2 -3 3 -2 2 -3 
2 -2 2 -3 2 -1 2 -5 2 -1 2 -3 2 -4 2 -4 
2 -3 2 -1 2 -6 2 -1 2 -3 2 -2 2 -4 2 -2 
2 -3 2 -1 2 -6 2 0 2 -3 2 -2 2 -5 2 -1 
2 -2 2 -5 2 -2 2 -2 2 -3 2 -4 2 -1 2 -5 
2 -3 2 -2 2 -4 2 -1 2 -3 2 -4 2 -4 2 -1 
3 -4 2 0 2 -3 2 -2 2 -1 2 -3 2 -4 2 -1 
2 -4 2 -1 2 -2 2 -2 2 -4 2 -2 2 -1 2 -4 
2 -1 2 -3 2 -2 2 -2 2 -1 2 -3 2 0 2 -2 
2 -3 2 -2 2 -2 2 -6 2 -3 2 1 2 -4 2 -3 
2 -1 2 -3 2 -4 2 -1 2 -4 2 -3 2 -2 2 -2 
2 -4 2 -3 2 -2 3 -5 2 -3 2 -2 2 -2 2 -3 
2 -3 2 -3 2 -2 2 -3 2 -3 2 -2 2 -4 2 -5 
2 -3 2 -2 2 -5 2 -1 2 -4 2 -2 2 -1 2 -2 
2 -2 2 -1 2 -4 2 -3 2 -2 2 -3 2 -3 2 -2 
2 -3 2 -2 2 -4 2 -2 2 -2 2 -4 2 -2 2 -3 
2 -1 2 -5 2 -2 2 -3 2 -3 3 -4 2 -3 2 -3 
2 -2 2 -6 2 -3 2 -3 2 -5 2 -4 2 0 2 -4 
2 -3 2 -2 2 -4 2 -4 2 -3 2 -4 2 -4 2 -4 
2 -3 2 -6 2 -3 2 -1 2 -5 2 -3 2 -3 2 -3 
2 -3 2 -4 2 -3 2 -1 2 -5 2 -1 2 -3 2 -3 
2 -3 2 -3 2 -4 2 -2 2 -3 2 -4 2 -3 3 -3 
2 -5 2 -3 2 -4 2 -3 2 -6 2 -3 2 -3 2 -4 
2 -6 2 0 2 -5 2 -1 2 -3 2 -4 2 -4 2 -3 
2 -4 2 -4 2 -4 2 -4 2 -4 2 -5 2 -4 2 -4 
2 -5 2 0 2 -4 2 -2 2 -4 2 -3 2 -4 2 -3 
2 -4 2 -4 2 -5 2 -2 2 -4 2 -4 2 -4 2 -4 
2 -3 2 -6 3 -2 2 -5 2 -3 2 -4 2 -4 2 -4 
2 -3 2 -4 2 -3 2 -5 2 -4 2 -2 2 -5 2 -5 
2 -3 2 -3 2 -6 2 -1 2 -4 2 -4 2 -4 2 -3 
2 -4 2 -5 2 -2 2 -4 2 -5 2 -4 2 -3 2 -3 
2 -6 2 -2 2 -3 2 -4 2 -4 2 -4 2 -5 2 -4 
2 -4 2 -4 2 -6 2 -3 3 -3 2 -5 2 -5 2 -3 
2 -5 2 -6 2 -2 2 -4 2 -6 2 -3 2 -3 2 -5 
2 -5 2 -4 2 -4 2 -5 2 -4 2 -5 2 -5 2 -5 
2 -4 2 -6 2 -4 2 -5 2 -6 2 -3 2 -6 2 -5 
2 -5 2 -5 2 -5 1288 2806 300 MP stroke
2 -8 2 -4 2 -4 2 -5 2 -5 2 -5 2 -6 2 -3 
2 -4 2 -5 2 -4 3 -6 2 -4 2 -6 2 -5 2 -3 
2 -5 2 -5 2 -4 2 -6 2 -4 2 -5 2 -5 2 -4 
2 -5 2 -5 2 -5 2 -6 2 -4 2 -6 2 -4 2 -5 
2 -6 2 -5 2 -5 2 -4 2 -6 2 -5 2 -5 2 -4 
2 -5 2 -6 2 -5 2 -5 2 -5 2 -4 2 -6 2 -5 
2 -5 2 -5 2 -5 2 -6 2 -5 2 -5 3 -5 2 -5 
2 -5 2 -5 2 -5 2 -4 2 -6 2 -6 2 -4 2 -6 
2 -5 2 -5 2 -6 2 -5 2 -5 2 -5 2 -5 2 -5 
2 -5 2 -5 2 -5 2 -5 2 -4 2 -5 2 -4 2 -5 
2 -6 2 -5 2 -4 2 -5 2 -5 2 -5 2 -6 2 -5 
2 -5 2 -5 2 -5 2 -5 2 -4 2 -5 2 -6 2 -5 
3 -4 2 -5 2 -5 2 -5 2 -4 2 -5 2 -6 2 -4 
2 -4 2 -5 2 -6 2 -5 2 -5 2 -4 2 -7 2 -3 
2 -5 2 -5 2 -5 2 -5 2 -5 2 -5 2 -5 2 -4 
2 -5 2 -4 2 -5 2 -4 2 -5 2 -5 2 -4 2 -5 
2 -5 2 -6 2 -4 2 -4 2 -5 2 -6 2 -5 2 -4 
2 -6 2 -6 3 -5 2 -3 2 -5 2 -7 2 -6 2 -3 
2 -3 2 -5 2 -6 2 -4 2 -3 2 -4 2 -5 2 -5 
2 -4 2 -5 2 -4 2 -4 2 -5 2 -5 2 -3 2 -5 
2 -5 2 -3 2 -4 2 -6 2 -5 2 -4 2 -4 2 -4 
2 -6 2 -6 2 -3 2 -5 2 -4 2 -5 2 -4 2 -6 
2 -4 2 -5 2 -4 2 -5 2 -5 3 -6 2 -5 2 -4 
2 -5 2 -6 2 -6 2 -3 2 -5 2 -5 2 -5 2 -5 
2 -4 2 -5 2 -5 2 -5 2 -5 2 -5 2 -4 2 -5 
2 -5 2 -5 2 -5 2 -5 2 -5 2 -6 2 -4 2 -5 
2 -6 2 -5 2 -5 2 -6 2 -5 2 -5 2 -6 2 -5 
2 -5 2 -4 2 -5 2 -5 2 -5 2 -4 2 -5 3 -4 
2 -5 2 -5 2 -4 2 -3 2 -4 2 -4 2 -4 2 -4 
2 -3 2 -3 2 -4 2 -5 2 -4 2 -4 2 -3 2 -4 
2 -4 2 -4 2 -2 2 -2 2 -2 2 -3 2 -2 2 -3 
2 -2 2 -1 2 -1 2 -1 2 0 2 -1 2 0 2 -1 
2 -1 2 -1 2 -1 2 -1 2 0 2 -1 2 -1 2 -1 
2 -1 2 -1 750 3998 267 MP stroke
/c10 { 1.000000 0.000000 1.000000 sr} bdef
c10
2 -2 2 -1 2 3 2 3 2 2 2 0 2 0 2 0 
2 2 2 -1 2 2 2 -1 2 -2 2 4 2 1 2 -1 
2 1 2 1 2 -2 2 -1 2 0 2 -2 2 -1 2 -3 
2 -1 2 2 2 7 2 -4 2 2 2 1 3 -1 2 -1 
2 -2 2 -1 2 -1 2 -6 2 5 2 0 2 4 2 -3 
2 0 2 -2 2 -2 2 -1 2 -1 2 2 2 -3 2 1 
2 -1 2 -2 2 0 2 -2 2 -1 2 -2 2 -1 2 -2 
2 1 2 0 2 -5 2 6 2 0 2 -2 2 0 2 1 
2 -2 2 0 2 -2 2 0 2 -3 2 -1 2 1 2 0 
3 -3 2 1 2 0 2 -1 2 -1 2 -1 2 0 2 -3 
2 1 2 -2 2 -1 2 0 2 -2 2 -1 2 -1 2 -2 
2 0 2 -1 2 -1 2 1 2 -3 2 3 2 -1 2 -1 
2 0 2 -1 2 -3 2 0 2 -1 2 -3 2 2 2 -2 
2 2 2 -2 2 -2 2 -1 2 -1 2 -3 2 0 2 -1 
2 -1 2 -2 3 -1 2 -2 2 -3 2 0 2 -4 2 -1 
2 -2 2 -1 2 -3 2 0 2 -3 2 1 2 -2 2 -3 
2 0 2 -1 2 -2 2 2 2 -1 2 0 2 0 2 0 
2 1 2 -2 2 1 2 0 2 0 2 -2 2 1 2 -2 
2 1 2 0 2 3 2 -4 2 1 2 6 2 0 2 -1 
2 1 2 -2 2 -2 2 3 2 1 3 -1 2 3 2 -3 
2 3 2 0 2 3 2 2 2 -1 2 -1 2 1 2 0 
2 -2 2 0 2 -1 2 1 2 -1 2 0 2 -1 2 -1 
2 0 2 -1 2 0 2 0 2 2 2 -1 2 4 2 3 
2 -1 2 6 2 4 2 1 2 0 2 0 2 0 2 0 
2 -1 2 0 2 1 2 -1 2 -1 2 -1 2 0 3 -3 
2 2 2 1 2 -2 2 0 2 -2 2 1 2 -2 2 0 
2 -1 2 0 2 0 2 -2 2 1 2 0 2 -2 2 1 
2 -2 2 1 2 -2 2 -1 2 -2 2 -1 2 0 2 -2 
2 -1 2 -1 2 1 2 -3 2 -1 2 1 2 -4 2 -1 
2 -1 2 -2 2 -2 2 1 2 -6 2 1 2 0 2 -1 
2 3 3 -3 2 2 2 0 2 -1 2 0 2 0 2 0 
2 -1 2 0 2 -2 2 1 2 -2 2 1 2 -1 2 0 
2 0 2 1 2 -2 2 3 2 -2 2 1 2 -1 2 0 
2 0 2 0 2 -1 2 -2 2 -1 2 -5 2 1 2 0 
2 -2 2 -1 2 -2 2 -3 2 0 2 -1 2 -3 2 -1 
2 -1 2 -4 2 -1 3 -2 2 -2 2 0 2 -3 2 0 
2 1 2 -5 2 1 2 0 2 -6 2 2 2 1 2 1 
2 -1 2 -2 2 2 3704 919 300 MP stroke
2 -2 2 -2 2 3 2 -3 2 5 2 -1 2 0 2 -1 
2 -1 2 2 2 -3 2 3 2 0 2 0 2 6 2 2 
2 1 2 -3 2 4 2 0 2 0 2 2 2 -3 2 -1 
2 5 2 0 3 -3 2 1 2 -1 2 -1 2 3 2 0 
2 -1 2 -1 2 -2 2 2 2 -3 2 1 2 -2 2 1 
2 0 2 -1 2 1 2 0 2 -1 2 -1 2 -1 2 0 
2 -2 2 1 2 -1 2 -3 2 4 2 -2 2 1 2 1 
2 1 2 0 2 0 2 -1 2 -1 2 0 2 -1 2 -2 
2 3 2 -3 2 3 2 0 3 0 2 -1 2 1 2 -1 
2 0 2 1 2 -1 2 0 2 1 2 -1 2 -1 2 0 
2 0 2 0 2 -1 2 -1 2 -1 2 -1 2 0 2 -2 
2 -1 2 0 2 0 2 -1 2 1 2 -1 2 -3 2 0 
2 0 2 -2 2 1 2 0 2 -2 2 1 2 0 2 -1 
2 0 2 -3 2 1 2 -2 2 -1 2 -1 2 -1 3 -2 
2 1 2 -4 2 1 2 0 2 -1 2 -1 2 -1 2 -1 
2 2 2 -1 2 0 2 -1 2 -1 2 0 2 -1 2 0 
2 0 2 -2 2 0 2 0 2 0 2 0 2 -3 2 2 
2 0 2 -1 2 -1 2 -1 2 -1 2 -1 2 0 2 -2 
2 0 2 0 2 0 2 -2 2 0 2 0 2 1 2 -2 
2 -4 3 3 2 0 2 0 2 0 2 -2 2 1 2 -2 
2 -1 2 -3 2 0 2 -2 2 -4 2 2 2 0 2 -2 
2 0 2 -3 2 0 2 -2 2 -2 2 0 2 -2 2 -2 
2 -3 2 -2 2 -4 2 -1 2 -2 2 -2 2 -2 2 -3 
2 -3 2 -4 2 -4 2 -1 2 -7 2 0 2 -6 2 1 
2 -8 2 5 2 -15 3 10 2 -9 2 -13 2 52 2 -92 
2 190 2 -1 2 -2 2 -1 2 -1 2 -2 2 -2 2 -1 
2 -2 2 -3 2 -1 2 1 2 -3 2 0 2 0 2 -1 
2 1 2 -3 2 1 2 0 2 -1 2 -5 2 1 2 1 
2 -2 2 -3 2 -1 2 0 2 -2 2 -3 2 -1 2 -1 
2 0 2 -5 2 2 2 -1 2 -1 3 -1 2 1 2 2 
2 -2 2 -1 2 1 2 -3 2 -1 2 1 2 0 2 -2 
2 -1 2 1 2 1 2 1 2 -2 2 0 2 -3 2 0 
2 -1 2 1 2 -1 2 -1 2 -1 2 -3 2 1 2 -2 
2 -2 2 0 2 -1 2 -1 2 1 2 -3 2 1 2 -1 
2 0 2 -2 2 -1 2 -1 2 -2 2 0 2 -3 3 -2 
2 1 2 -3 2 -3 2 3 2 -2 2 0 2 -4 2 1 
2 -3 2 0 2 -1 2 -3 2 0 2 -1 2 -2 2 -4 
2 2 2 -2 2 -2 3099 1008 300 MP stroke
2 -1 2 -1 2 -2 2 -2 2 -2 2 -1 2 -2 2 -2 
2 -2 2 -1 2 -1 2 -3 2 1 2 -3 2 2 2 -9 
2 4 2 4 2 -2 2 -1 2 1 2 -2 3 0 2 1 
2 -2 2 -2 2 1 2 -1 2 -3 2 0 2 -3 2 -2 
2 0 2 -3 2 0 2 -3 2 -2 2 1 2 2 2 -2 
2 1 2 -1 2 -2 2 -1 2 -3 2 0 2 2 2 -4 
2 2 2 -3 2 -1 2 -2 2 0 2 -2 2 0 2 -1 
2 -1 2 -2 2 0 2 -5 2 0 2 1 2 -2 2 -2 
3 2 2 -4 2 5 2 0 2 -1 2 -1 2 0 2 -4 
2 0 2 0 2 0 2 -2 2 -1 2 -3 2 -5 2 2 
2 0 2 -2 2 -3 2 0 2 -2 2 -1 2 -1 2 -2 
2 -2 2 -1 2 0 2 -1 2 -2 2 -2 2 0 2 -1 
2 1 2 -2 2 -1 2 -3 2 2 2 -1 2 -2 2 1 
2 -2 2 0 2 -1 3 2 2 1 2 -2 2 3 2 -1 
2 3 2 -2 2 3 2 -2 2 -3 2 2 2 -3 2 1 
2 -1 2 1 2 0 2 0 2 -3 2 0 2 0 2 -4 
2 0 2 -1 2 -2 2 -1 2 -3 2 -1 2 0 2 -2 
2 1 2 -2 2 -2 2 1 2 -4 2 0 2 0 2 -1 
2 -3 2 -4 2 2 2 -4 2 -3 3 1 2 -1 2 -3 
2 2 2 0 2 -1 2 -3 2 -1 2 -2 2 -1 2 0 
2 -2 2 0 2 -2 2 -1 2 1 2 1 2 -4 2 0 
2 -2 2 2 2 0 2 -4 2 3 2 0 2 -3 2 -1 
2 0 2 -4 2 -1 2 -1 2 -1 2 -1 2 -4 2 1 
2 -2 2 -2 2 -1 2 -2 2 -2 2 -2 2 -3 3 0 
2 -2 2 0 2 -3 2 -1 2 -1 2 -3 2 -2 2 -1 
2 -4 2 -1 2 -2 2 -1 2 -1 2 -3 2 -3 2 3 
2 -1 2 -3 2 1 2 -3 2 -2 2 -1 2 0 2 -2 
2 1 2 0 2 -2 2 1 2 -1 2 0 2 -2 2 0 
2 -2 2 -1 2 0 2 1 2 0 2 -2 2 0 2 -3 
2 -2 3 -1 2 -2 2 1 2 -1 2 -1 2 -3 2 0 
2 -1 2 -2 2 0 2 -2 2 -3 2 -1 2 -2 2 -3 
2 0 2 -2 2 -3 2 -3 2 -2 2 1 2 -1 2 -3 
2 1 2 -3 2 0 2 -3 2 -4 2 2 2 -3 2 -4 
2 1 2 -2 2 -3 2 -1 2 -2 2 -4 2 -2 2 -1 
2 -2 2 -2 2 -3 3 -1 2 -5 2 2 2 -1 2 -1 
2 -5 2 1 2 3 2 -3 2 -1 2 1 2 -2 2 -1 
2 0 2 -1 2 0 2 -2 2 0 2 -2 2 -2 2 0 
2 -2 2 -4 2 2 2494 1338 300 MP stroke
2 -1 2 -2 2 -1 2 -2 2 -1 2 -3 2 -2 2 -2 
2 -3 2 -4 2 -1 2 -1 2 -5 2 -2 2 -1 2 -1 
2 -5 2 1 3 -3 2 -5 2 4 2 -4 2 -1 2 -2 
2 -5 2 -1 2 0 2 -2 2 -1 2 0 2 -3 2 1 
2 0 2 -4 2 0 2 -3 2 -2 2 -2 2 -1 2 -2 
2 -4 2 1 2 -3 2 0 2 -4 2 1 2 -3 2 0 
2 -3 2 -1 2 -2 2 -1 2 -1 2 -1 2 -2 2 -1 
2 2 2 -5 2 3 2 -2 2 0 3 -1 2 1 2 -2 
2 -2 2 0 2 -1 2 -3 2 0 2 0 2 -5 2 0 
2 1 2 -6 2 5 2 -1 2 -1 2 -2 2 -2 2 0 
2 -5 2 0 2 -2 2 -2 2 0 2 0 2 -1 2 -1 
2 -3 2 0 2 -2 2 -2 2 -1 2 -4 2 0 2 -3 
2 0 2 -4 2 -1 2 -2 2 -2 2 -3 2 -1 3 -4 
2 -1 2 -3 2 -1 2 -6 2 -1 2 -2 2 -6 2 1 
2 -3 2 -3 2 0 2 -1 2 -3 2 -2 2 -2 2 -4 
2 0 2 -4 2 -2 2 0 2 -5 2 1 2 -2 2 0 
2 -2 2 -3 2 0 2 -3 2 -2 2 0 2 -4 2 -2 
2 -1 2 -2 2 -1 2 -1 2 -3 2 -1 2 -2 2 -2 
2 -2 3 -1 2 -2 2 -2 2 -2 2 -2 2 -2 2 -3 
2 -2 2 -1 2 -1 2 -2 2 -2 2 -2 2 -3 2 -2 
2 -3 2 -3 2 0 2 -2 2 -3 2 0 2 -4 2 -2 
2 -2 2 -1 2 -5 2 1 2 -1 2 -2 2 -4 2 0 
2 -1 2 -2 2 -1 2 0 2 0 2 -1 2 -2 2 -2 
2 0 2 -4 2 0 3 -2 2 -5 2 2 2 -2 2 -2 
2 -2 2 -1 2 -5 2 -1 2 -3 2 -3 2 -2 2 -2 
2 -4 2 -4 2 2 2 -1 2 -6 2 1 2 1 2 -3 
2 -3 2 -1 2 -1 2 -3 2 1 2 -3 2 -2 2 3 
2 -1 2 -1 2 -3 2 0 2 1 2 -2 2 0 2 0 
2 -1 2 -4 2 0 2 1 2 -4 3 -2 2 1 2 0 
2 -5 2 2 2 0 2 -2 2 -2 2 -1 2 -2 2 -4 
2 -2 2 -2 2 -4 2 0 2 -2 2 -4 2 -1 2 -4 
2 -4 2 -2 2 -1 2 -3 2 -3 2 -1 2 -3 2 -3 
2 -3 2 -2 2 -2 2 -3 2 -3 2 -2 2 1 2 -4 
2 -2 2 0 2 -2 2 -2 2 -3 2 -2 2 -2 3 -3 
2 -2 2 -3 2 -4 2 -3 2 -1 2 -3 2 -2 2 -3 
2 -1 2 -2 2 -3 2 -2 2 0 2 -4 2 0 2 -3 
2 -3 2 -2 2 -2 2 -5 2 -1 2 -4 2 -2 2 -3 
2 -1 2 -2 2 -6 1889 1871 300 MP stroke
2 0 2 -3 2 -1 2 -3 2 -3 2 0 2 -4 2 -1 
2 -1 2 -3 2 -4 2 -1 2 -2 2 -2 3 -4 2 -1 
2 -3 2 -4 2 -1 2 -4 2 -2 2 -3 2 -3 2 -3 
2 -2 2 -2 2 -5 2 -2 2 -2 2 -4 2 -2 2 -3 
2 -4 2 -2 2 -1 2 -4 2 -4 2 -2 2 -1 2 -6 
2 -2 2 -1 2 -3 2 -2 2 -3 2 -3 2 -3 2 -2 
2 -5 2 -2 2 -3 2 -2 2 -4 2 -2 2 -3 2 -1 
2 -4 3 -3 2 -2 2 -4 2 -3 2 -2 2 -2 2 -7 
2 2 2 -4 2 -1 2 -4 2 -1 2 -1 2 -3 2 -1 
2 0 2 -3 2 -3 2 -3 2 -3 2 -1 2 -2 2 -4 
2 -1 2 -3 2 -2 2 -5 2 -2 2 -3 2 -3 2 -3 
2 -4 2 -3 2 -4 2 -3 2 -5 2 -3 2 -1 2 -4 
2 -2 2 -2 2 -3 3 -4 2 -2 2 -3 2 -3 2 0 
2 -4 2 -1 2 -3 2 -4 2 -1 2 -3 2 -4 2 -3 
2 -3 2 -3 2 -3 2 -5 2 -3 2 -5 2 -2 2 -4 
2 -5 2 0 2 -1 2 -3 2 -4 2 -1 2 -1 2 -5 
2 1 2 -3 2 -2 2 -3 2 -2 2 -3 2 -2 2 -2 
2 -2 2 -3 2 -1 2 -3 2 -1 3 -3 2 -2 2 -3 
2 -3 2 -3 2 -3 2 -3 2 -4 2 -3 2 -3 2 -4 
2 -2 2 -4 2 -3 2 -2 2 -5 2 -3 2 -3 2 -4 
2 -4 2 -3 2 -4 2 -4 2 -2 2 -3 2 -3 2 -3 
2 -4 2 -4 2 -3 2 -4 2 -3 2 -4 2 -4 2 -1 
2 -3 2 -3 2 -5 2 -4 2 -1 2 -4 2 -5 3 -3 
2 -1 2 -2 2 -4 2 -4 2 -2 2 -3 2 -5 2 -2 
2 -5 2 -1 2 -3 2 -4 2 -3 2 -5 2 -2 2 -5 
2 -2 2 -4 2 -4 2 -3 2 -2 2 -6 2 -2 2 -3 
2 -3 2 -5 2 -4 2 -4 2 -3 2 -5 2 -4 2 -2 
2 -4 2 -5 2 -2 2 -5 2 -3 2 -4 2 -3 2 -4 
2 -6 3 -3 2 -5 2 -5 2 -5 2 -1 2 -4 2 -3 
2 -2 2 -3 2 -4 2 -3 2 -4 2 -4 2 -3 2 -5 
2 -4 2 -4 2 -3 2 -3 2 -4 2 -4 2 -4 2 -4 
2 -4 2 -4 2 -4 2 -2 2 -6 2 -4 2 -3 2 -4 
2 -3 2 -4 2 -5 2 -3 2 -4 2 -4 2 -4 2 -5 
2 -3 2 -4 2 -5 3 -3 2 -3 2 -5 2 -4 2 -4 
2 -4 2 -6 2 -3 2 -4 2 -5 2 -5 2 -4 2 -4 
2 -5 2 -5 2 -5 2 -4 2 -5 2 -4 2 -4 2 -4 
2 -6 2 -2 2 -6 2 -5 2 -3 2 -5 2 -5 2 -3 
2 -5 2 -5 2 -3 1284 2819 300 MP stroke
2 -5 2 -5 2 -5 2 -5 2 -5 2 -3 2 -6 2 -4 
2 -5 2 -3 2 -5 3 -6 2 -5 2 -4 2 -5 2 -4 
2 -4 2 -4 2 -5 2 -5 2 -5 2 -5 2 -5 2 -6 
2 -4 2 -5 2 -6 2 -5 2 -4 2 -5 2 -5 2 -5 
2 -5 2 -5 2 -5 2 -5 2 -5 2 -4 2 -6 2 -5 
2 -5 2 -5 2 -5 2 -5 2 -4 2 -5 2 -6 2 -4 
2 -5 2 -6 2 -4 2 -5 2 -5 3 -6 2 -5 2 -5 
2 -5 2 -5 2 -5 2 -5 2 -6 2 -5 2 -6 2 -5 
2 -3 2 -5 2 -6 2 -4 2 -5 2 -5 2 -5 2 -4 
2 -6 2 -5 2 -4 2 -5 2 -4 2 -5 2 -6 2 -4 
2 -5 2 -6 2 -5 2 -4 2 -6 2 -5 2 -5 2 -5 
2 -4 2 -6 2 -4 2 -5 2 -5 2 -5 2 -5 3 -5 
2 -5 2 -6 2 -4 2 -5 2 -5 2 -6 2 -4 2 -6 
2 -5 2 -5 2 -5 2 -5 2 -5 2 -5 2 -6 2 -5 
2 -4 2 -5 2 -6 2 -4 2 -5 2 -5 2 -5 2 -5 
2 -4 2 -5 2 -5 2 -4 2 -5 2 -6 2 -5 2 -5 
2 -4 2 -5 2 -4 2 -5 2 -5 2 -5 2 -6 2 -5 
2 -4 3 -5 2 -4 2 -5 2 -5 2 -6 2 -4 2 -4 
2 -5 2 -5 2 -4 2 -4 2 -4 2 -4 2 -5 2 -4 
2 -5 2 -4 2 -4 2 -5 2 -4 2 -5 2 -4 2 -4 
2 -4 2 -5 2 -4 2 -4 2 -5 2 -5 2 -4 2 -5 
2 -4 2 -5 2 -5 2 -4 2 -5 2 -4 2 -6 2 -4 
2 -5 2 -4 2 -5 2 -5 1 -1 2 -4 2 -5 2 -4 
2 -6 2 -6 2 -4 2 -4 2 -5 2 -5 2 -5 2 -5 
2 -5 2 -4 2 -5 2 -5 2 -5 2 -5 2 -5 2 -5 
2 -4 2 -4 2 -6 2 -5 2 -5 2 -4 2 -6 2 -5 
2 -5 2 -6 2 -5 2 -5 2 -6 2 -5 2 -6 2 -4 
2 -5 2 -5 2 -5 2 -4 2 -5 2 -4 3 -4 2 -5 
2 -5 2 -5 2 -3 2 -4 2 -4 2 -3 2 -4 2 -4 
2 -4 2 -3 2 -4 2 -4 2 -4 2 -4 2 -4 2 -2 
2 -4 2 -5 2 -3 2 -1 2 -2 2 -2 2 -3 2 -2 
2 -3 2 -1 2 -1 2 0 2 -1 2 -1 2 0 2 0 
2 -1 2 -1 2 0 2 -1 2 -1 2 -1 2 -1 2 -1 
2 -1 750 3997 266 MP stroke
gr

c10
0 sg
%%IncludeResource: font Helvetica
/Helvetica /WindowsLatin1Encoding 83.3333 FMSR

 732 4037 mt 
( ) s
4483  536 mt 
( ) s
8.33333 w
DO
SO
12.5 w
0.1 sg
 750  500 mt 4500  500 L
 750 4000 mt 4500 4000 L
4500 4000 mt 4500  500 L
 750 4000 mt  750  500 L
 750 4000 mt 4500 4000 L
 750 4000 mt  750  500 L
 750 4000 mt  750 3943 L
 750  500 mt  750  556 L
%%IncludeResource: font Helvetica
/Helvetica /WindowsLatin1Encoding 133.333 FMSR

 713 4148 mt 
(0) s
1500 4000 mt 1500 3943 L
1500  500 mt 1500  556 L
1371 4148 mt 
(0.02) s
2250 4000 mt 2250 3943 L
2250  500 mt 2250  556 L
2121 4148 mt 
(0.04) s
3000 4000 mt 3000 3943 L
3000  500 mt 3000  556 L
2871 4148 mt 
(0.06) s
3749 4000 mt 3749 3943 L
3749  500 mt 3749  556 L
3620 4148 mt 
(0.08) s
4500 4000 mt 4500 3943 L
4500  500 mt 4500  556 L
4408 4148 mt 
(0.1) s
 750 4000 mt  806 4000 L
4500 4000 mt 4443 4000 L
 652 4049 mt 
(0) s
 750 3416 mt  806 3416 L
4500 3416 mt 4443 3416 L
 652 3465 mt 
(5) s
 750 2833 mt  806 2833 L
4500 2833 mt 4443 2833 L
 578 2882 mt 
(10) s
 750 2250 mt  806 2250 L
4500 2250 mt 4443 2250 L
 578 2299 mt 
(15) s
 750 1666 mt  806 1666 L
4500 1666 mt 4443 1666 L
 578 1715 mt 
(20) s
 750 1083 mt  806 1083 L
4500 1083 mt 4443 1083 L
 578 1132 mt 
(25) s
 750  500 mt  806  500 L
4500  500 mt 4443  500 L
 578  549 mt 
(30) s
 750  500 mt 4500  500 L
 750 4000 mt 4500 4000 L
4500 4000 mt 4500  500 L
 750 4000 mt  750  500 L
0 sg
%%IncludeResource: font Symbol
/Symbol /WindowsLatin1Encoding 125 FMSR

3697 1937 mt 
(m) s
%%IncludeResource: font Helvetica-Bold
/Helvetica-Bold /WindowsLatin1Encoding 100 FMSR

3769 1999 mt 
(r) s
%%IncludeResource: font Helvetica-Bold
/Helvetica-Bold /WindowsLatin1Encoding 125 FMSR

3807 1937 mt 
(  =  0.0) s
gs 3372 1790 1007 921 rc
16.6667 w
250 0 3421 1915 2 MP stroke
gr

16.6667 w
%%IncludeResource: font Symbol
/Symbol /WindowsLatin1Encoding 125 FMSR

3697 2160 mt 
(m) s
%%IncludeResource: font Helvetica-Bold
/Helvetica-Bold /WindowsLatin1Encoding 100 FMSR

3769 2222 mt 
(r) s
%%IncludeResource: font Helvetica-Bold
/Helvetica-Bold /WindowsLatin1Encoding 125 FMSR

3807 2160 mt 
(  =  0.025) s
gs 3372 1790 1007 921 rc
c8
250 0 3421 2138 2 MP stroke
gr

c8
0 sg
%%IncludeResource: font Symbol
/Symbol /WindowsLatin1Encoding 125 FMSR

3697 2383 mt 
(m) s
%%IncludeResource: font Helvetica-Bold
/Helvetica-Bold /WindowsLatin1Encoding 100 FMSR

3769 2445 mt 
(r) s
%%IncludeResource: font Helvetica-Bold
/Helvetica-Bold /WindowsLatin1Encoding 125 FMSR

3807 2383 mt 
(  =  0.1) s
gs 3372 1790 1007 921 rc
c9
250 0 3421 2361 2 MP stroke
gr

c9
0 sg
%%IncludeResource: font Symbol
/Symbol /WindowsLatin1Encoding 125 FMSR

3697 2606 mt 
(m) s
%%IncludeResource: font Helvetica-Bold
/Helvetica-Bold /WindowsLatin1Encoding 100 FMSR

3769 2668 mt 
(r) s
%%IncludeResource: font Helvetica-Bold
/Helvetica-Bold /WindowsLatin1Encoding 125 FMSR

3807 2606 mt 
(  =  0.5) s
gs 3372 1790 1007 921 rc
c10
250 0 3421 2584 2 MP stroke
12.5 w
gr

12.5 w
c10

end %%Color Dict

eplot
%%EndObject

epage
end

showpage

%%Trailer
%%EOF
