%!PS-Adobe-3.0 EPSF-3.0
%%Creator: MATLAB, The MathWorks, Inc. Version 8.1.0.604 (R2013a). Operating System: Microsoft Windows 7.
%%Title: .\SE_Confined_StressStain.eps
%%CreationDate: 08/17/2013  18:15:04
%%DocumentNeededFonts: Helvetica-Bold
%%+ Helvetica
%%DocumentProcessColors: Cyan Magenta Yellow Black
%%LanguageLevel: 2
%%Pages: 1
%%BoundingBox:    45    93   577   572
%%EndComments

%%BeginProlog
% MathWorks dictionary
/MathWorks 160 dict begin
% definition operators
/bdef {bind def} bind def
/ldef {load def} bind def
/xdef {exch def} bdef
/xstore {exch store} bdef
% operator abbreviations
/c  /clip ldef
/cc /concat ldef
/cp /closepath ldef
/gr /grestore ldef
/gs /gsave ldef
/mt /moveto ldef
/np /newpath ldef
/cm /currentmatrix ldef
/sm /setmatrix ldef
/rm /rmoveto ldef
/rl /rlineto ldef
/s {show newpath} bdef
/sc {setcmykcolor} bdef
/sr /setrgbcolor ldef
/sg /setgray ldef
/w /setlinewidth ldef
/j /setlinejoin ldef
/cap /setlinecap ldef
/rc {rectclip} bdef
/rf {rectfill} bdef
% page state control
/pgsv () def
/bpage {/pgsv save def} bdef
/epage {pgsv restore} bdef
/bplot /gsave ldef
/eplot {stroke grestore} bdef
% orientation switch
/portraitMode 0 def /landscapeMode 1 def /rotateMode 2 def
% coordinate system mappings
/dpi2point 0 def
% font control
/FontSize 0 def
/FMS {/FontSize xstore findfont [FontSize 0 0 FontSize neg 0 0]
  makefont setfont} bdef
/ISOLatin1Encoding where {pop /WindowsLatin1Encoding 256 array bdef
ISOLatin1Encoding WindowsLatin1Encoding copy pop
/.notdef/.notdef/quotesinglbase/florin/quotedblbase/ellipsis/dagger
/daggerdbl/circumflex/perthousand/Scaron/guilsinglleft/OE/.notdef/.notdef
/.notdef/.notdef/quoteleft/quoteright/quotedblleft/quotedblright/bullet
/endash/emdash/tilde/trademark/scaron/guilsinglright/oe/.notdef/.notdef
/Ydieresis WindowsLatin1Encoding 128 32 getinterval astore pop}
{/WindowsLatin1Encoding StandardEncoding bdef} ifelse
/reencode {exch dup where {pop load} {pop StandardEncoding} ifelse
  exch dup 3 1 roll findfont dup length dict begin
  { 1 index /FID ne {def}{pop pop} ifelse } forall
  /Encoding exch def currentdict end definefont pop} bdef
/isroman {findfont /CharStrings get /Agrave known} bdef
/FMSR {3 1 roll 1 index dup isroman {reencode} {pop pop} ifelse
  exch FMS} bdef
/csm {1 dpi2point div -1 dpi2point div scale neg translate
 dup landscapeMode eq {pop -90 rotate}
  {rotateMode eq {90 rotate} if} ifelse} bdef
% line types: solid, dotted, dashed, dotdash
/SO { [] 0 setdash } bdef
/DO { [.5 dpi2point mul 4 dpi2point mul] 0 setdash } bdef
/DA { [6 dpi2point mul] 0 setdash } bdef
/DD { [.5 dpi2point mul 4 dpi2point mul 6 dpi2point mul 4
  dpi2point mul] 0 setdash } bdef
% macros for lines and objects
/L {lineto stroke} bdef
/MP {3 1 roll moveto 1 sub {rlineto} repeat} bdef
/AP {{rlineto} repeat} bdef
/PDlw -1 def
/W {/PDlw currentlinewidth def setlinewidth} def
/PP {closepath eofill} bdef
/DP {closepath stroke} bdef
/MR {4 -2 roll moveto dup  0 exch rlineto exch 0 rlineto
  neg 0 exch rlineto closepath} bdef
/FR {MR stroke} bdef
/PR {MR fill} bdef
/L1i {{currentfile picstr readhexstring pop} image} bdef
/tMatrix matrix def
/MakeOval {newpath tMatrix currentmatrix pop translate scale
0 0 1 0 360 arc tMatrix setmatrix} bdef
/FO {MakeOval stroke} bdef
/PO {MakeOval fill} bdef
/PD {currentlinewidth 2 div 0 360 arc fill
   PDlw -1 eq not {PDlw w /PDlw -1 def} if} def
/FA {newpath tMatrix currentmatrix pop translate scale
  0 0 1 5 -2 roll arc tMatrix setmatrix stroke} bdef
/PA {newpath tMatrix currentmatrix pop	translate 0 0 moveto scale
  0 0 1 5 -2 roll arc closepath tMatrix setmatrix fill} bdef
/FAn {newpath tMatrix currentmatrix pop translate scale
  0 0 1 5 -2 roll arcn tMatrix setmatrix stroke} bdef
/PAn {newpath tMatrix currentmatrix pop translate 0 0 moveto scale
  0 0 1 5 -2 roll arcn closepath tMatrix setmatrix fill} bdef
/vradius 0 def /hradius 0 def /lry 0 def
/lrx 0 def /uly 0 def /ulx 0 def /rad 0 def
/MRR {/vradius xdef /hradius xdef /lry xdef /lrx xdef /uly xdef
  /ulx xdef newpath tMatrix currentmatrix pop ulx hradius add uly
  vradius add translate hradius vradius scale 0 0 1 180 270 arc 
  tMatrix setmatrix lrx hradius sub uly vradius add translate
  hradius vradius scale 0 0 1 270 360 arc tMatrix setmatrix
  lrx hradius sub lry vradius sub translate hradius vradius scale
  0 0 1 0 90 arc tMatrix setmatrix ulx hradius add lry vradius sub
  translate hradius vradius scale 0 0 1 90 180 arc tMatrix setmatrix
  closepath} bdef
/FRR {MRR stroke } bdef
/PRR {MRR fill } bdef
/MlrRR {/lry xdef /lrx xdef /uly xdef /ulx xdef /rad lry uly sub 2 div def
  newpath tMatrix currentmatrix pop ulx rad add uly rad add translate
  rad rad scale 0 0 1 90 270 arc tMatrix setmatrix lrx rad sub lry rad
  sub translate rad rad scale 0 0 1 270 90 arc tMatrix setmatrix
  closepath} bdef
/FlrRR {MlrRR stroke } bdef
/PlrRR {MlrRR fill } bdef
/MtbRR {/lry xdef /lrx xdef /uly xdef /ulx xdef /rad lrx ulx sub 2 div def
  newpath tMatrix currentmatrix pop ulx rad add uly rad add translate
  rad rad scale 0 0 1 180 360 arc tMatrix setmatrix lrx rad sub lry rad
  sub translate rad rad scale 0 0 1 0 180 arc tMatrix setmatrix
  closepath} bdef
/FtbRR {MtbRR stroke } bdef
/PtbRR {MtbRR fill } bdef
/stri 6 array def /dtri 6 array def
/smat 6 array def /dmat 6 array def
/tmat1 6 array def /tmat2 6 array def /dif 3 array def
/asub {/ind2 exch def /ind1 exch def dup dup
  ind1 get exch ind2 get sub exch } bdef
/tri_to_matrix {
  2 0 asub 3 1 asub 4 0 asub 5 1 asub
  dup 0 get exch 1 get 7 -1 roll astore } bdef
/compute_transform {
  dmat dtri tri_to_matrix tmat1 invertmatrix 
  smat stri tri_to_matrix tmat2 concatmatrix } bdef
/ds {stri astore pop} bdef
/dt {dtri astore pop} bdef
/db {2 copy /cols xdef /rows xdef mul dup 3 mul string
  currentfile 
  3 index 0 eq {/ASCIIHexDecode filter}
  {/ASCII85Decode filter 3 index 2 eq {/RunLengthDecode filter} if }
  ifelse exch readstring pop
  dup 0 3 index getinterval /rbmap xdef
  dup 2 index dup getinterval /gbmap xdef
  1 index dup 2 mul exch getinterval /bbmap xdef pop pop}bdef
/it {gs np dtri aload pop moveto lineto lineto cp c
  cols rows 8 compute_transform 
  rbmap gbmap bbmap true 3 colorimage gr}bdef
/il {newpath moveto lineto stroke}bdef
currentdict end def
%%EndProlog

%%BeginSetup
MathWorks begin

0 cap

end
%%EndSetup

%%Page: 1 1
%%BeginPageSetup
%%PageBoundingBox:    45    93   577   572
MathWorks begin
bpage
%%EndPageSetup

%%BeginObject: obj1
bplot

/dpi2point 8.33333 def
portraitMode 0150 5158 csm

  231   390  4435  3990 rc
84 dict begin %Colortable dictionary
/c0 { 0.000000 0.000000 0.000000 sr} bdef
/c1 { 1.000000 1.000000 1.000000 sr} bdef
/c2 { 0.900000 0.000000 0.000000 sr} bdef
/c3 { 0.000000 0.820000 0.000000 sr} bdef
/c4 { 0.000000 0.000000 0.800000 sr} bdef
/c5 { 0.910000 0.820000 0.320000 sr} bdef
/c6 { 1.000000 0.260000 0.820000 sr} bdef
/c7 { 0.000000 0.820000 0.820000 sr} bdef
c0
1 j
1 sg
   0    0 5001 5001 rf
12.5 w
0 3500 3750 0 0 -3500 750 4000 4 MP
PP
-3750 0 0 3500 3750 0 0 -3500 750 4000 5 MP stroke
gs 750 500 3751 3501 rc
16.6667 w
0 sg
-5 1 -4 0 -4 1 -5 1 -4 1 -4 3 -5 2 -4 3 
-5 4 -4 4 -4 4 -5 6 -4 6 -4 5 -5 9 -4 8 
-4 10 -5 9 -4 12 -5 13 -4 12 -4 15 -5 15 -4 18 
-4 20 -5 23 -4 23 -4 24 -5 26 -4 27 -4 30 -5 31 
-4 34 -5 38 -4 41 -4 39 -5 39 -4 39 -4 45 -5 56 
-4 58 -4 50 -5 51 -4 51 -4 55 -5 61 -4 67 -5 82 
-4 75 -4 94 -5 116 -4 176 -4 455 -5 1117 11 -35 11 -32 
11 -26 11 -43 11 -23 11 -31 11 -29 10 -38 11 -21 11 -37 
11 -40 11 -3 11 -31 11 -29 11 -28 11 -35 11 -29 10 -28 
11 -35 11 -26 11 -29 11 -31 11 -21 11 -38 11 -31 11 -7 
11 -27 10 -24 11 -24 11 -36 11 -20 11 -21 11 -23 11 -30 
11 -28 11 -22 11 -27 10 -23 11 -23 11 -23 11 -29 11 -25 
11 -22 11 -29 11 -26 11 -19 11 -27 10 -20 11 -22 11 -24 
11 -23 11 -21 11 -23 11 -25 11 -17 11 -24 10 -26 11 -20 
11 -26 11 -12 11 -24 11 -7 11 -19 11 -21 11 -23 11 -18 
10 -21 11 -23 11 -20 11 -22 11 -25 11 -13 11 -19 11 -14 
11 -18 11 -14 10 -24 11 -25 11 -4 11 -17 11 -20 11 -16 
11 -18 11 -17 11 -11 11 -16 10 -17 11 -17 11 -16 11 -18 
11 -17 11 -20 11 -13 11 -14 11 -14 11 -15 10 -16 11 -15 
11 -14 11 -16 11 -16 11 -14 11 -14 11 -17 11 -15 11 -10 
10 -11 11 -12 11 -15 11 -13 11 -11 11 -15 11 -16 11 -13 
11 -10 11 -12 10 -16 11 -3 11 -12 11 -8 11 -11 11 -11 
11 -12 11 -9 11 -13 10 -4 11 -7 11 -5 11 -10 11 -16 
11 -3 11 -6 11 -7 11 -7 11 -13 10 -9 11 -10 11 -8 
11 -10 11 -10 11 -11 11 -12 11 -11 11 -10 11 -9 10 -11 
11 -8 11 -8 11 -12 11 -5 11 -8 11 -11 11 -10 11 -6 
11 -9 10 -7 11 -4 11 -5 11 -7 11 -9 11 -8 11 -4 
11 -5 11 -8 11 -5 10 -6 11 -6 11 -7 11 -8 11 -3 
11 -5 11 -5 11 -4 11 0 11 -4 10 -5 11 -5 11 -6 
11 -6 11 -6 11 -7 11 -5 11 -6 11 -5 11 -3 10 -6 
11 -4 11 -5 11 -6 11 -4 11 -4 11 -3 11 -5 11 -5 
10 -2 11 -2 11 -3 11 -2 11 -4 11 -6 11 -3 11 -3 
11 -3 11 -4 10 -3 11 -4 11 -3 11 -2 11 -2 11 -3 
11 -2 11 -1 11 -3 11 -1 10 -2 11 -3 11 -2 11 -3 
11 -2 11 -2 11 -1 11 -2 11 -4 11 -2 10 -2 11 -2 
11 -3 11 -1 11 -2 11 -2 11 -2 11 -2 11 -2 11 -2 
10 -2 11 -1 11 -2 11 -1 11 -1 11 -1 11 -1 11 -1 
11 -3 11 -3 10 -2 1600 3951 300 MP stroke
11 -1 11 0 11 -2 11 -1 11 -1 11 -1 11 -2 11 0 
11 -1 10 -1 11 -1 11 -1 11 -1 11 -1 11 -2 11 -1 
11 -1 11 0 10 -1 11 0 11 -2 11 0 11 -1 11 0 
11 -1 11 -1 11 -2 11 -2 10 0 11 -2 11 -1 11 0 
11 0 11 -1 11 0 11 0 11 -1 11 -1 10 0 11 0 
11 0 11 0 11 0 11 -2 11 0 11 -2 11 -1 11 -1 
10 -1 11 0 11 0 11 -1 11 0 11 0 11 0 11 -1 
11 0 11 -1 10 0 11 -1 11 0 11 0 11 0 11 0 
11 0 11 -1 11 0 11 0 10 0 11 0 11 -1 11 0 
11 0 11 0 11 0 11 0 11 -1 10 0 750 3999 79 MP stroke
gr

16.6667 w
0 sg
0.1 sg
%%IncludeResource: font Helvetica-Bold
/Helvetica-Bold /WindowsLatin1Encoding 183.333 FMSR

2010 4322 mt 
(Vertical Strain) s
 424 3132 mt  -90 rotate
(Vertical Stress [kPa]) s
90 rotate
gs 750 500 3751 3501 rc
/c8 { 1.000000 0.000000 0.000000 sr} bdef
c8
-4 1 -5 0 -4 0 -5 1 -4 2 -4 1 -5 2 -4 2 
-4 2 -5 3 -4 3 -5 4 -4 4 -4 4 -5 4 -4 5 
-4 4 -5 5 -4 5 -4 7 -5 6 -4 8 -5 9 -4 8 
-4 9 -5 10 -4 10 -4 11 -5 11 -4 15 -5 18 -4 18 
-4 18 -5 17 -4 19 -4 20 -5 24 -4 31 -4 28 -5 26 
-4 29 -5 38 -4 36 -4 35 -5 36 -4 39 -4 47 -5 46 
-4 47 -5 47 -4 48 -4 53 -5 50 -4 46 -4 56 -5 63 
-4 66 -4 75 -5 75 -4 86 -5 98 -4 158 -4 431 -5 1120 
11 -29 11 -30 11 -26 11 -34 11 -19 11 -35 11 -24 11 -33 
11 -30 10 -21 11 -28 55 -151 55 -94 54 -126 55 -117 54 -120 
55 -120 55 -117 54 -107 55 -112 55 -108 54 -81 55 -96 54 -73 
55 -91 55 -74 54 -89 55 -30 54 -60 55 -74 55 -52 54 -63 
55 -63 54 -50 55 -48 55 -50 54 -44 55 -43 55 -45 54 -29 
55 -36 54 -38 55 -38 55 -38 54 -31 55 -34 54 -18 55 -27 
55 -24 54 -23 55 -22 54 -15 55 -20 55 -15 54 -15 55 -19 
55 -17 54 -17 55 -18 54 -17 55 -18 55 -13 54 -8 55 -11 
54 -9 55 -6 55 -6 54 -3 55 -3 54 -3 750 3998 135 MP stroke
/c9 { 0.000000 0.000000 1.000000 sr} bdef
c9
-4 1 -4 0 -5 0 -4 0 -4 1 -5 1 -4 1 -5 2 
-4 2 -4 2 -5 2 -4 3 -4 2 -5 3 -4 3 -4 3 
-5 3 -4 3 -5 4 -4 4 -4 6 -5 5 -4 6 -4 6 
-5 7 -4 8 -5 8 -4 9 -4 8 -5 11 -4 8 -4 11 
-5 16 -4 11 -4 10 -5 13 -4 16 -5 15 -4 15 -4 13 
-5 15 -4 17 -4 21 -5 23 -4 25 -5 21 -4 21 -4 22 
-5 22 -4 21 -4 24 -5 28 -4 33 -5 34 -4 34 -4 44 
-5 37 -4 40 -4 42 -5 36 -4 41 -4 38 -5 44 -4 53 
-5 51 -4 52 -4 56 -5 54 -4 62 -4 60 -5 89 -4 115 
-5 166 -4 439 -4 1090 11 -28 11 -30 10 -28 11 -27 55 -135 
55 -144 54 -114 55 -123 54 -93 55 -110 55 -120 54 -74 55 -93 
55 -90 54 -94 55 -87 54 -80 55 -87 55 -72 54 -104 55 -59 
54 -63 55 -67 55 -61 54 -58 55 -68 54 -50 55 -69 55 -58 
54 -38 55 -64 55 -45 54 -40 55 -41 54 -46 55 -46 55 -36 
54 -41 55 -40 54 -31 55 -30 55 -29 54 -39 55 -21 54 -26 
55 -24 55 -27 54 -27 55 -27 55 -26 54 -29 55 -28 54 -23 
55 -21 55 -12 54 -11 55 -13 54 -14 55 -10 55 -5 54 -6 
55 -5 54 -3 750 3998 139 MP stroke
gr

c9
0 sg
%%IncludeResource: font Helvetica
/Helvetica /WindowsLatin1Encoding 83.3333 FMSR

 732 4037 mt 
( ) s
4483  536 mt 
( ) s
8.33333 w
DO
SO
12.5 w
0.1 sg
 750  500 mt 4500  500 L
 750 4000 mt 4500 4000 L
4500 4000 mt 4500  500 L
 750 4000 mt  750  500 L
 750 4000 mt 4500 4000 L
 750 4000 mt  750  500 L
 750 4000 mt  750 3943 L
 750  500 mt  750  556 L
%%IncludeResource: font Helvetica
/Helvetica /WindowsLatin1Encoding 133.333 FMSR

 713 4148 mt 
(0) s
1500 4000 mt 1500 3943 L
1500  500 mt 1500  556 L
1371 4148 mt 
(0.05) s
2250 4000 mt 2250 3943 L
2250  500 mt 2250  556 L
2158 4148 mt 
(0.1) s
3000 4000 mt 3000 3943 L
3000  500 mt 3000  556 L
2871 4148 mt 
(0.15) s
3750 4000 mt 3750 3943 L
3750  500 mt 3750  556 L
3658 4148 mt 
(0.2) s
4500 4000 mt 4500 3943 L
4500  500 mt 4500  556 L
4371 4148 mt 
(0.25) s
 750 4000 mt  806 4000 L
4500 4000 mt 4443 4000 L
 652 4049 mt 
(0) s
 750 3681 mt  806 3681 L
4500 3681 mt 4443 3681 L
 578 3730 mt 
(10) s
 750 3363 mt  806 3363 L
4500 3363 mt 4443 3363 L
 578 3412 mt 
(20) s
 750 3045 mt  806 3045 L
4500 3045 mt 4443 3045 L
 578 3094 mt 
(30) s
 750 2727 mt  806 2727 L
4500 2727 mt 4443 2727 L
 578 2776 mt 
(40) s
 750 2409 mt  806 2409 L
4500 2409 mt 4443 2409 L
 578 2458 mt 
(50) s
 750 2090 mt  806 2090 L
4500 2090 mt 4443 2090 L
 578 2139 mt 
(60) s
 750 1772 mt  806 1772 L
4500 1772 mt 4443 1772 L
 578 1821 mt 
(70) s
 750 1454 mt  806 1454 L
4500 1454 mt 4443 1454 L
 578 1503 mt 
(80) s
 750 1136 mt  806 1136 L
4500 1136 mt 4443 1136 L
 578 1185 mt 
(90) s
 750  818 mt  806  818 L
4500  818 mt 4443  818 L
 504  867 mt 
(100) s
 750  500 mt  806  500 L
4500  500 mt 4443  500 L
 504  549 mt 
(110) s
 750  500 mt 4500  500 L
 750 4000 mt 4500 4000 L
4500 4000 mt 4500  500 L
 750 4000 mt  750  500 L
0 sg
%%IncludeResource: font Helvetica-Bold
/Helvetica-Bold /WindowsLatin1Encoding 125 FMSR

1141  799 mt 
(SE = 5 J/m) s
%%IncludeResource: font Helvetica-Bold
/Helvetica-Bold /WindowsLatin1Encoding 100 FMSR

1769  737 mt 
(2) s
gs 816 617 1119 642 rc
16.6667 w
250 0 865 733 2 MP stroke
gr

16.6667 w
%%IncludeResource: font Helvetica-Bold
/Helvetica-Bold /WindowsLatin1Encoding 125 FMSR

1141 1003 mt 
(SE = 15 J/m) s
%%IncludeResource: font Helvetica-Bold
/Helvetica-Bold /WindowsLatin1Encoding 100 FMSR

1839  941 mt 
(2) s
gs 816 617 1119 642 rc
c8
250 0 865 937 2 MP stroke
gr

c8
0 sg
%%IncludeResource: font Helvetica-Bold
/Helvetica-Bold /WindowsLatin1Encoding 125 FMSR

1141 1207 mt 
(SE = 25 J/m) s
%%IncludeResource: font Helvetica-Bold
/Helvetica-Bold /WindowsLatin1Encoding 100 FMSR

1839 1145 mt 
(2) s
gs 816 617 1119 642 rc
c9
250 0 865 1141 2 MP stroke
12.5 w
gr

12.5 w
c9

end %%Color Dict

eplot
%%EndObject

epage
end

showpage

%%Trailer
%%EOF
