%!PS-Adobe-3.0 EPSF-3.0
%%Creator: MATLAB, The MathWorks, Inc. Version 8.1.0.604 (R2013a). Operating System: Microsoft Windows 7.
%%Title: .\SE_ConfinedDensity.eps
%%CreationDate: 08/17/2013  18:15:06
%%DocumentNeededFonts: Helvetica-Bold
%%+ Helvetica
%%DocumentProcessColors: Cyan Magenta Yellow Black
%%LanguageLevel: 2
%%Pages: 1
%%BoundingBox:    30    88   564   572
%%EndComments

%%BeginProlog
% MathWorks dictionary
/MathWorks 160 dict begin
% definition operators
/bdef {bind def} bind def
/ldef {load def} bind def
/xdef {exch def} bdef
/xstore {exch store} bdef
% operator abbreviations
/c  /clip ldef
/cc /concat ldef
/cp /closepath ldef
/gr /grestore ldef
/gs /gsave ldef
/mt /moveto ldef
/np /newpath ldef
/cm /currentmatrix ldef
/sm /setmatrix ldef
/rm /rmoveto ldef
/rl /rlineto ldef
/s {show newpath} bdef
/sc {setcmykcolor} bdef
/sr /setrgbcolor ldef
/sg /setgray ldef
/w /setlinewidth ldef
/j /setlinejoin ldef
/cap /setlinecap ldef
/rc {rectclip} bdef
/rf {rectfill} bdef
% page state control
/pgsv () def
/bpage {/pgsv save def} bdef
/epage {pgsv restore} bdef
/bplot /gsave ldef
/eplot {stroke grestore} bdef
% orientation switch
/portraitMode 0 def /landscapeMode 1 def /rotateMode 2 def
% coordinate system mappings
/dpi2point 0 def
% font control
/FontSize 0 def
/FMS {/FontSize xstore findfont [FontSize 0 0 FontSize neg 0 0]
  makefont setfont} bdef
/ISOLatin1Encoding where {pop /WindowsLatin1Encoding 256 array bdef
ISOLatin1Encoding WindowsLatin1Encoding copy pop
/.notdef/.notdef/quotesinglbase/florin/quotedblbase/ellipsis/dagger
/daggerdbl/circumflex/perthousand/Scaron/guilsinglleft/OE/.notdef/.notdef
/.notdef/.notdef/quoteleft/quoteright/quotedblleft/quotedblright/bullet
/endash/emdash/tilde/trademark/scaron/guilsinglright/oe/.notdef/.notdef
/Ydieresis WindowsLatin1Encoding 128 32 getinterval astore pop}
{/WindowsLatin1Encoding StandardEncoding bdef} ifelse
/reencode {exch dup where {pop load} {pop StandardEncoding} ifelse
  exch dup 3 1 roll findfont dup length dict begin
  { 1 index /FID ne {def}{pop pop} ifelse } forall
  /Encoding exch def currentdict end definefont pop} bdef
/isroman {findfont /CharStrings get /Agrave known} bdef
/FMSR {3 1 roll 1 index dup isroman {reencode} {pop pop} ifelse
  exch FMS} bdef
/csm {1 dpi2point div -1 dpi2point div scale neg translate
 dup landscapeMode eq {pop -90 rotate}
  {rotateMode eq {90 rotate} if} ifelse} bdef
% line types: solid, dotted, dashed, dotdash
/SO { [] 0 setdash } bdef
/DO { [.5 dpi2point mul 4 dpi2point mul] 0 setdash } bdef
/DA { [6 dpi2point mul] 0 setdash } bdef
/DD { [.5 dpi2point mul 4 dpi2point mul 6 dpi2point mul 4
  dpi2point mul] 0 setdash } bdef
% macros for lines and objects
/L {lineto stroke} bdef
/MP {3 1 roll moveto 1 sub {rlineto} repeat} bdef
/AP {{rlineto} repeat} bdef
/PDlw -1 def
/W {/PDlw currentlinewidth def setlinewidth} def
/PP {closepath eofill} bdef
/DP {closepath stroke} bdef
/MR {4 -2 roll moveto dup  0 exch rlineto exch 0 rlineto
  neg 0 exch rlineto closepath} bdef
/FR {MR stroke} bdef
/PR {MR fill} bdef
/L1i {{currentfile picstr readhexstring pop} image} bdef
/tMatrix matrix def
/MakeOval {newpath tMatrix currentmatrix pop translate scale
0 0 1 0 360 arc tMatrix setmatrix} bdef
/FO {MakeOval stroke} bdef
/PO {MakeOval fill} bdef
/PD {currentlinewidth 2 div 0 360 arc fill
   PDlw -1 eq not {PDlw w /PDlw -1 def} if} def
/FA {newpath tMatrix currentmatrix pop translate scale
  0 0 1 5 -2 roll arc tMatrix setmatrix stroke} bdef
/PA {newpath tMatrix currentmatrix pop	translate 0 0 moveto scale
  0 0 1 5 -2 roll arc closepath tMatrix setmatrix fill} bdef
/FAn {newpath tMatrix currentmatrix pop translate scale
  0 0 1 5 -2 roll arcn tMatrix setmatrix stroke} bdef
/PAn {newpath tMatrix currentmatrix pop translate 0 0 moveto scale
  0 0 1 5 -2 roll arcn closepath tMatrix setmatrix fill} bdef
/vradius 0 def /hradius 0 def /lry 0 def
/lrx 0 def /uly 0 def /ulx 0 def /rad 0 def
/MRR {/vradius xdef /hradius xdef /lry xdef /lrx xdef /uly xdef
  /ulx xdef newpath tMatrix currentmatrix pop ulx hradius add uly
  vradius add translate hradius vradius scale 0 0 1 180 270 arc 
  tMatrix setmatrix lrx hradius sub uly vradius add translate
  hradius vradius scale 0 0 1 270 360 arc tMatrix setmatrix
  lrx hradius sub lry vradius sub translate hradius vradius scale
  0 0 1 0 90 arc tMatrix setmatrix ulx hradius add lry vradius sub
  translate hradius vradius scale 0 0 1 90 180 arc tMatrix setmatrix
  closepath} bdef
/FRR {MRR stroke } bdef
/PRR {MRR fill } bdef
/MlrRR {/lry xdef /lrx xdef /uly xdef /ulx xdef /rad lry uly sub 2 div def
  newpath tMatrix currentmatrix pop ulx rad add uly rad add translate
  rad rad scale 0 0 1 90 270 arc tMatrix setmatrix lrx rad sub lry rad
  sub translate rad rad scale 0 0 1 270 90 arc tMatrix setmatrix
  closepath} bdef
/FlrRR {MlrRR stroke } bdef
/PlrRR {MlrRR fill } bdef
/MtbRR {/lry xdef /lrx xdef /uly xdef /ulx xdef /rad lrx ulx sub 2 div def
  newpath tMatrix currentmatrix pop ulx rad add uly rad add translate
  rad rad scale 0 0 1 180 360 arc tMatrix setmatrix lrx rad sub lry rad
  sub translate rad rad scale 0 0 1 0 180 arc tMatrix setmatrix
  closepath} bdef
/FtbRR {MtbRR stroke } bdef
/PtbRR {MtbRR fill } bdef
/stri 6 array def /dtri 6 array def
/smat 6 array def /dmat 6 array def
/tmat1 6 array def /tmat2 6 array def /dif 3 array def
/asub {/ind2 exch def /ind1 exch def dup dup
  ind1 get exch ind2 get sub exch } bdef
/tri_to_matrix {
  2 0 asub 3 1 asub 4 0 asub 5 1 asub
  dup 0 get exch 1 get 7 -1 roll astore } bdef
/compute_transform {
  dmat dtri tri_to_matrix tmat1 invertmatrix 
  smat stri tri_to_matrix tmat2 concatmatrix } bdef
/ds {stri astore pop} bdef
/dt {dtri astore pop} bdef
/db {2 copy /cols xdef /rows xdef mul dup 3 mul string
  currentfile 
  3 index 0 eq {/ASCIIHexDecode filter}
  {/ASCII85Decode filter 3 index 2 eq {/RunLengthDecode filter} if }
  ifelse exch readstring pop
  dup 0 3 index getinterval /rbmap xdef
  dup 2 index dup getinterval /gbmap xdef
  1 index dup 2 mul exch getinterval /bbmap xdef pop pop}bdef
/it {gs np dtri aload pop moveto lineto lineto cp c
  cols rows 8 compute_transform 
  rbmap gbmap bbmap true 3 colorimage gr}bdef
/il {newpath moveto lineto stroke}bdef
currentdict end def
%%EndProlog

%%BeginSetup
MathWorks begin

0 cap

end
%%EndSetup

%%Page: 1 1
%%BeginPageSetup
%%PageBoundingBox:    30    88   564   572
MathWorks begin
bpage
%%EndPageSetup

%%BeginObject: obj1
bplot

/dpi2point 8.33333 def
portraitMode 0150 5158 csm

  106   390  4450  4030 rc
84 dict begin %Colortable dictionary
/c0 { 0.000000 0.000000 0.000000 sr} bdef
/c1 { 1.000000 1.000000 1.000000 sr} bdef
/c2 { 0.900000 0.000000 0.000000 sr} bdef
/c3 { 0.000000 0.820000 0.000000 sr} bdef
/c4 { 0.000000 0.000000 0.800000 sr} bdef
/c5 { 0.910000 0.820000 0.320000 sr} bdef
/c6 { 1.000000 0.260000 0.820000 sr} bdef
/c7 { 0.000000 0.820000 0.820000 sr} bdef
c0
1 j
1 sg
   0    0 5001 5001 rf
12.5 w
0 3500 3750 0 0 -3500 750 4000 4 MP
PP
-3750 0 0 3500 3750 0 0 -3500 750 4000 5 MP stroke
gs 750 500 3751 3501 rc
16.6667 w
0 sg
-185 3 -200 4 -174 4 -154 4 -134 5 -122 4 -112 4 -101 4 
-96 5 -91 4 -87 4 -81 4 -79 5 -76 4 -71 4 -68 5 
-66 4 -64 4 -61 4 -62 5 -61 4 -58 4 -57 5 -54 4 
-52 4 -50 5 -49 4 -48 4 -47 4 -46 5 -44 4 -42 4 
-40 5 -40 4 -40 4 -39 5 -38 4 -36 4 -34 5 -32 4 
-32 5 -34 4 -33 4 -36 5 -37 4 -44 4 -67 5 -119 4 
-91 5 -72 4 -56 -11 -34 -11 6 -11 5 -11 5 -11 6 -11 
5 -10 5 -11 6 -11 5 -11 5 -11 6 -10 4 -11 5 -11 
6 -10 6 -11 6 -11 6 -10 6 -11 6 -10 5 -11 6 -11 
7 -10 5 -11 5 -10 6 -11 5 -10 5 -10 6 -11 5 -10 
6 -11 6 -10 6 -10 6 -11 6 -10 6 -10 6 -10 6 -11 
6 -10 6 -10 6 -10 7 -10 7 -10 6 -11 7 -10 6 -10 
6 -10 7 -10 6 -10 6 -10 7 -10 6 -10 7 -10 6 -10 
7 -10 7 -10 7 -10 7 -9 7 -10 6 -10 5 -10 6 -10 
6 -9 6 -10 7 -10 7 -10 8 -9 7 -10 8 -10 7 -9 
8 -10 7 -10 6 -9 6 -10 7 -9 8 -10 7 -10 7 -9 
7 -10 7 -9 6 -10 8 -9 7 -9 6 -10 7 -9 7 -10 
8 -9 7 -9 8 -10 9 -9 8 -9 8 -10 8 -9 7 -9 
8 -9 8 -10 7 -9 8 -9 9 -9 8 -9 9 -10 8 -9 
9 -9 9 -9 8 -9 7 -9 8 -9 8 -9 8 -9 8 -9 
9 -9 10 -9 8 -9 10 -9 9 -9 8 -9 8 -9 7 -9 
8 -8 6 -9 9 -9 8 -9 9 -9 8 -9 7 -8 6 -9 
7 -9 7 -9 7 -8 7 -9 7 -9 7 -8 7 -9 8 -9 
8 -8 9 -9 10 -9 9 -8 10 -9 10 -8 12 -9 11 -8 
12 -9 12 -8 11 -9 11 -8 11 -9 10 -8 11 -9 11 -8 
12 -8 10 -9 12 -8 12 -9 10 -8 9 -8 10 -9 9 -8 
10 -8 10 -8 11 -9 10 -8 10 -8 9 -8 10 -9 11 -8 
12 -8 11 -8 10 -8 11 -8 9 -9 7 -8 7 -8 6 -8 
8 -8 8 -8 11 -8 12 -8 13 -8 14 -8 13 -8 14 -8 
13 -8 12 -8 13 -8 12 -8 12 -8 13 -8 13 -8 12 -8 
13 -7 13 -8 12 -8 11 -8 11 -8 9 -8 8 -7 11 -8 
13 -8 13 -8 13 -7 15 -8 12 -8 14 -8 14 -7 13 -8 
11 -8 12 -7 11 -8 9 -8 10 -7 10 -8 8 -7 10 -8 
11 -8 10 -7 12 -8 12 -7 10 -8 11 -7 12 -8 13 -7 
14 -8 15 -7 15 -8 13 -7 14 -8 13 -7 13 -7 14 -8 
14 -7 15 -8 15 -7 15 -7 13 -8 13 -7 11 -7 11 -8 
9 -7 11 -7 12 -7 17 -8 19 -7 20 -7 19 -7 19 -8 
15 -7 12 -7 13 -7 2143 3205 300 MP stroke
14 -7 13 -8 12 -7 12 -7 13 -7 12 -7 11 -7 15 -7 
18 -7 17 -8 19 -7 19 -7 16 -7 13 -7 12 -7 12 -7 
14 -7 13 -7 16 -7 14 -7 19 -7 24 -7 25 -7 31 -6 
33 -7 27 -7 22 -7 26 -7 15 -7 11 -7 15 -7 15 -7 
10 -6 13 -7 11 -7 5 -7 5 -7 17 -6 19 -7 31 -7 
46 -7 53 -6 55 -7 58 -7 46 -7 32 -6 26 -7 3 -7 
5 -6 23 -7 31 -7 36 -6 53 -7 63 -7 42 -6 34 -7 
35 -6 19 -7 16 -7 38 -6 20 -3 750 3620 62 MP stroke
gr

16.6667 w
0 sg
0.1 sg
%%IncludeResource: font Helvetica-Bold
/Helvetica-Bold /WindowsLatin1Encoding 183.333 FMSR

1903 4362 mt 
(Log Stress [kPa]) s
 350 3181 mt  -90 rotate
(Bulk Density [kgm) s
90 rotate
%%IncludeResource: font Helvetica-Bold
/Helvetica-Bold /WindowsLatin1Encoding 141.667 FMSR

 259 1582 mt  -90 rotate
(-) s
90 rotate
 259 1500 mt  -90 rotate
(3) s
90 rotate
%%IncludeResource: font Helvetica-Bold
/Helvetica-Bold /WindowsLatin1Encoding 183.333 FMSR

 350 1422 mt  -90 rotate
( ]) s
90 rotate
gs 750 500 3751 3501 rc
/c8 { 1.000000 0.000000 0.000000 sr} bdef
c8
-32 0 -197 5 -166 4 -143 4 -126 4 -121 4 -108 4 -100 4 
-88 4 -82 4 -71 5 -67 4 -62 4 -61 4 -58 4 -60 4 
-59 4 -58 4 -56 5 -55 4 -50 4 -49 4 -46 4 -48 4 
-50 5 -52 4 -51 4 -50 4 -48 4 -45 4 -44 5 -45 4 
-45 4 -45 4 -44 4 -44 5 -42 4 -41 4 -40 4 -39 4 
-39 5 -37 4 -37 4 -37 4 -35 5 -34 4 -32 4 -31 4 
-29 4 -30 5 -30 4 -30 4 -32 4 -32 5 -33 4 -38 4 
-60 4 -113 5 -88 4 -71 4 -55 -10 -35 -11 4 -11 5 -10 
5 -11 5 -10 5 -11 5 -11 5 -10 10 -11 12 -10 15 -52 
21 -52 25 -51 25 -51 27 -50 27 -50 29 -49 30 -49 30 -48 
29 -48 30 -48 30 -47 29 -47 31 -46 28 -46 29 -46 29 -45 
28 -45 27 -44 32 -44 33 -44 32 -43 34 -43 34 -43 33 -42 
35 -42 33 -41 34 -42 35 -40 36 -41 37 -40 41 -40 44 -40 
42 -39 42 -39 42 -38 42 -39 41 -38 43 -37 45 -38 44 -37 
44 -37 46 -36 52 -36 55 -36 63 -36 75 -36 86 -35 98 -35 
104 -34 118 -35 129 -34 133 -34 148 -33 179 -34 199 -33 227 -33 
276 -32 205 -14 750 3670 131 MP stroke
/c9 { 0.000000 0.000000 1.000000 sr} bdef
c9
-106 2 -185 4 -161 4 -138 4 -111 4 -99 4 -87 4 -79 4 
-70 4 -67 4 -64 4 -60 4 -61 4 -59 5 -59 4 -59 4 
-59 4 -57 4 -56 4 -54 4 -51 4 -51 4 -48 4 -46 4 
-48 4 -47 4 -42 4 -42 5 -42 4 -39 4 -38 4 -37 4 
-36 4 -34 4 -34 4 -35 4 -38 5 -36 4 -36 4 -34 4 
-31 4 -29 4 -28 4 -28 4 -29 5 -30 4 -31 4 -33 4 
-33 4 -32 4 -31 4 -30 5 -28 4 -27 4 -26 4 -26 4 
-26 5 -26 4 -27 4 -27 4 -26 4 -26 4 -28 5 -31 4 
-37 4 -61 4 -112 5 -87 4 -69 4 -55 -11 -34 -10 9 -11 
12 -10 16 -52 20 -52 23 -51 24 -51 23 -50 23 -50 22 -49 
23 -49 23 -48 23 -48 24 -48 25 -47 25 -47 26 -46 27 -46 
26 -46 27 -45 27 -45 24 -44 27 -44 27 -44 28 -43 30 -43 
29 -43 31 -42 32 -42 30 -41 30 -42 33 -40 32 -41 33 -40 
35 -40 38 -40 37 -39 37 -39 38 -38 40 -39 39 -38 40 -37 
42 -38 44 -37 44 -37 51 -36 56 -36 65 -36 75 -36 84 -36 
96 -35 103 -35 105 -34 109 -35 120 -34 128 -34 145 -33 177 -34 
213 -33 232 -33 261 -32 361 -21 750 3677 133 MP stroke
gr

c9
0 sg
%%IncludeResource: font Helvetica
/Helvetica /WindowsLatin1Encoding 83.3333 FMSR

 732 4037 mt 
( ) s
4483  536 mt 
( ) s
8.33333 w
DO
SO
12.5 w
0.1 sg
 750  500 mt 4500  500 L
 750 4000 mt 4500 4000 L
4500 4000 mt 4500  500 L
 750 4000 mt  750  500 L
 750 4000 mt 4500 4000 L
 750 4000 mt  750  500 L
 750 4000 mt  750 3943 L
 750  500 mt  750  556 L
%%IncludeResource: font Helvetica
/Helvetica /WindowsLatin1Encoding 133.333 FMSR

 626 4188 mt 
(10) s
%%IncludeResource: font Helvetica
/Helvetica /WindowsLatin1Encoding 88.8889 FMSR

 774 4106 mt 
(-1) s
1967 4000 mt 1967 3943 L
1967  500 mt 1967  556 L
%%IncludeResource: font Helvetica
/Helvetica /WindowsLatin1Encoding 133.333 FMSR

1869 4188 mt 
(10) s
%%IncludeResource: font Helvetica
/Helvetica /WindowsLatin1Encoding 88.8889 FMSR

2017 4106 mt 
(0) s
3185 4000 mt 3185 3943 L
3185  500 mt 3185  556 L
%%IncludeResource: font Helvetica
/Helvetica /WindowsLatin1Encoding 133.333 FMSR

3087 4188 mt 
(10) s
%%IncludeResource: font Helvetica
/Helvetica /WindowsLatin1Encoding 88.8889 FMSR

3235 4106 mt 
(1) s
4403 4000 mt 4403 3943 L
4403  500 mt 4403  556 L
%%IncludeResource: font Helvetica
/Helvetica /WindowsLatin1Encoding 133.333 FMSR

4305 4188 mt 
(10) s
%%IncludeResource: font Helvetica
/Helvetica /WindowsLatin1Encoding 88.8889 FMSR

4453 4106 mt 
(2) s
 750 4000 mt  806 4000 L
4500 4000 mt 4443 4000 L
%%IncludeResource: font Helvetica
/Helvetica /WindowsLatin1Encoding 133.333 FMSR

 430 4049 mt 
(2200) s
 750 3611 mt  806 3611 L
4500 3611 mt 4443 3611 L
 430 3660 mt 
(2300) s
 750 3222 mt  806 3222 L
4500 3222 mt 4443 3222 L
 430 3271 mt 
(2400) s
 750 2833 mt  806 2833 L
4500 2833 mt 4443 2833 L
 430 2882 mt 
(2500) s
 750 2444 mt  806 2444 L
4500 2444 mt 4443 2444 L
 430 2493 mt 
(2600) s
 750 2055 mt  806 2055 L
4500 2055 mt 4443 2055 L
 430 2104 mt 
(2700) s
 750 1666 mt  806 1666 L
4500 1666 mt 4443 1666 L
 430 1715 mt 
(2800) s
 750 1277 mt  806 1277 L
4500 1277 mt 4443 1277 L
 430 1326 mt 
(2900) s
 750  888 mt  806  888 L
4500  888 mt 4443  888 L
 430  937 mt 
(3000) s
 750  500 mt  806  500 L
4500  500 mt 4443  500 L
 430  549 mt 
(3100) s
 750  500 mt 4500  500 L
 750 4000 mt 4500 4000 L
4500 4000 mt 4500  500 L
 750 4000 mt  750  500 L
0 sg
%%IncludeResource: font Helvetica-Bold
/Helvetica-Bold /WindowsLatin1Encoding 125 FMSR

3641 3424 mt 
(SE = 5 J/m) s
%%IncludeResource: font Helvetica-Bold
/Helvetica-Bold /WindowsLatin1Encoding 100 FMSR

4269 3362 mt 
(2) s
gs 3316 3242 1119 642 rc
16.6667 w
250 0 3365 3358 2 MP stroke
gr

16.6667 w
%%IncludeResource: font Helvetica-Bold
/Helvetica-Bold /WindowsLatin1Encoding 125 FMSR

3641 3628 mt 
(SE = 15 J/m) s
%%IncludeResource: font Helvetica-Bold
/Helvetica-Bold /WindowsLatin1Encoding 100 FMSR

4339 3566 mt 
(2) s
gs 3316 3242 1119 642 rc
c8
250 0 3365 3562 2 MP stroke
gr

c8
0 sg
%%IncludeResource: font Helvetica-Bold
/Helvetica-Bold /WindowsLatin1Encoding 125 FMSR

3641 3832 mt 
(SE = 25 J/m) s
%%IncludeResource: font Helvetica-Bold
/Helvetica-Bold /WindowsLatin1Encoding 100 FMSR

4339 3770 mt 
(2) s
gs 3316 3242 1119 642 rc
c9
250 0 3365 3766 2 MP stroke
12.5 w
gr

12.5 w
c9

end %%Color Dict

eplot
%%EndObject

epage
end

showpage

%%Trailer
%%EOF
