%!PS-Adobe-3.0 EPSF-3.0
%%Creator: MATLAB, The MathWorks, Inc. Version 8.1.0.604 (R2013a). Operating System: Microsoft Windows 7.
%%Title: .\SE_Confined_Contacts_SameFill.eps
%%CreationDate: 08/17/2013  18:15:07
%%DocumentNeededFonts: Helvetica-Bold
%%+ Helvetica
%%DocumentProcessColors: Cyan Magenta Yellow Black
%%LanguageLevel: 2
%%Pages: 1
%%BoundingBox:    50    93   577   587
%%EndComments

%%BeginProlog
% MathWorks dictionary
/MathWorks 160 dict begin
% definition operators
/bdef {bind def} bind def
/ldef {load def} bind def
/xdef {exch def} bdef
/xstore {exch store} bdef
% operator abbreviations
/c  /clip ldef
/cc /concat ldef
/cp /closepath ldef
/gr /grestore ldef
/gs /gsave ldef
/mt /moveto ldef
/np /newpath ldef
/cm /currentmatrix ldef
/sm /setmatrix ldef
/rm /rmoveto ldef
/rl /rlineto ldef
/s {show newpath} bdef
/sc {setcmykcolor} bdef
/sr /setrgbcolor ldef
/sg /setgray ldef
/w /setlinewidth ldef
/j /setlinejoin ldef
/cap /setlinecap ldef
/rc {rectclip} bdef
/rf {rectfill} bdef
% page state control
/pgsv () def
/bpage {/pgsv save def} bdef
/epage {pgsv restore} bdef
/bplot /gsave ldef
/eplot {stroke grestore} bdef
% orientation switch
/portraitMode 0 def /landscapeMode 1 def /rotateMode 2 def
% coordinate system mappings
/dpi2point 0 def
% font control
/FontSize 0 def
/FMS {/FontSize xstore findfont [FontSize 0 0 FontSize neg 0 0]
  makefont setfont} bdef
/ISOLatin1Encoding where {pop /WindowsLatin1Encoding 256 array bdef
ISOLatin1Encoding WindowsLatin1Encoding copy pop
/.notdef/.notdef/quotesinglbase/florin/quotedblbase/ellipsis/dagger
/daggerdbl/circumflex/perthousand/Scaron/guilsinglleft/OE/.notdef/.notdef
/.notdef/.notdef/quoteleft/quoteright/quotedblleft/quotedblright/bullet
/endash/emdash/tilde/trademark/scaron/guilsinglright/oe/.notdef/.notdef
/Ydieresis WindowsLatin1Encoding 128 32 getinterval astore pop}
{/WindowsLatin1Encoding StandardEncoding bdef} ifelse
/reencode {exch dup where {pop load} {pop StandardEncoding} ifelse
  exch dup 3 1 roll findfont dup length dict begin
  { 1 index /FID ne {def}{pop pop} ifelse } forall
  /Encoding exch def currentdict end definefont pop} bdef
/isroman {findfont /CharStrings get /Agrave known} bdef
/FMSR {3 1 roll 1 index dup isroman {reencode} {pop pop} ifelse
  exch FMS} bdef
/csm {1 dpi2point div -1 dpi2point div scale neg translate
 dup landscapeMode eq {pop -90 rotate}
  {rotateMode eq {90 rotate} if} ifelse} bdef
% line types: solid, dotted, dashed, dotdash
/SO { [] 0 setdash } bdef
/DO { [.5 dpi2point mul 4 dpi2point mul] 0 setdash } bdef
/DA { [6 dpi2point mul] 0 setdash } bdef
/DD { [.5 dpi2point mul 4 dpi2point mul 6 dpi2point mul 4
  dpi2point mul] 0 setdash } bdef
% macros for lines and objects
/L {lineto stroke} bdef
/MP {3 1 roll moveto 1 sub {rlineto} repeat} bdef
/AP {{rlineto} repeat} bdef
/PDlw -1 def
/W {/PDlw currentlinewidth def setlinewidth} def
/PP {closepath eofill} bdef
/DP {closepath stroke} bdef
/MR {4 -2 roll moveto dup  0 exch rlineto exch 0 rlineto
  neg 0 exch rlineto closepath} bdef
/FR {MR stroke} bdef
/PR {MR fill} bdef
/L1i {{currentfile picstr readhexstring pop} image} bdef
/tMatrix matrix def
/MakeOval {newpath tMatrix currentmatrix pop translate scale
0 0 1 0 360 arc tMatrix setmatrix} bdef
/FO {MakeOval stroke} bdef
/PO {MakeOval fill} bdef
/PD {currentlinewidth 2 div 0 360 arc fill
   PDlw -1 eq not {PDlw w /PDlw -1 def} if} def
/FA {newpath tMatrix currentmatrix pop translate scale
  0 0 1 5 -2 roll arc tMatrix setmatrix stroke} bdef
/PA {newpath tMatrix currentmatrix pop	translate 0 0 moveto scale
  0 0 1 5 -2 roll arc closepath tMatrix setmatrix fill} bdef
/FAn {newpath tMatrix currentmatrix pop translate scale
  0 0 1 5 -2 roll arcn tMatrix setmatrix stroke} bdef
/PAn {newpath tMatrix currentmatrix pop translate 0 0 moveto scale
  0 0 1 5 -2 roll arcn closepath tMatrix setmatrix fill} bdef
/vradius 0 def /hradius 0 def /lry 0 def
/lrx 0 def /uly 0 def /ulx 0 def /rad 0 def
/MRR {/vradius xdef /hradius xdef /lry xdef /lrx xdef /uly xdef
  /ulx xdef newpath tMatrix currentmatrix pop ulx hradius add uly
  vradius add translate hradius vradius scale 0 0 1 180 270 arc 
  tMatrix setmatrix lrx hradius sub uly vradius add translate
  hradius vradius scale 0 0 1 270 360 arc tMatrix setmatrix
  lrx hradius sub lry vradius sub translate hradius vradius scale
  0 0 1 0 90 arc tMatrix setmatrix ulx hradius add lry vradius sub
  translate hradius vradius scale 0 0 1 90 180 arc tMatrix setmatrix
  closepath} bdef
/FRR {MRR stroke } bdef
/PRR {MRR fill } bdef
/MlrRR {/lry xdef /lrx xdef /uly xdef /ulx xdef /rad lry uly sub 2 div def
  newpath tMatrix currentmatrix pop ulx rad add uly rad add translate
  rad rad scale 0 0 1 90 270 arc tMatrix setmatrix lrx rad sub lry rad
  sub translate rad rad scale 0 0 1 270 90 arc tMatrix setmatrix
  closepath} bdef
/FlrRR {MlrRR stroke } bdef
/PlrRR {MlrRR fill } bdef
/MtbRR {/lry xdef /lrx xdef /uly xdef /ulx xdef /rad lrx ulx sub 2 div def
  newpath tMatrix currentmatrix pop ulx rad add uly rad add translate
  rad rad scale 0 0 1 180 360 arc tMatrix setmatrix lrx rad sub lry rad
  sub translate rad rad scale 0 0 1 0 180 arc tMatrix setmatrix
  closepath} bdef
/FtbRR {MtbRR stroke } bdef
/PtbRR {MtbRR fill } bdef
/stri 6 array def /dtri 6 array def
/smat 6 array def /dmat 6 array def
/tmat1 6 array def /tmat2 6 array def /dif 3 array def
/asub {/ind2 exch def /ind1 exch def dup dup
  ind1 get exch ind2 get sub exch } bdef
/tri_to_matrix {
  2 0 asub 3 1 asub 4 0 asub 5 1 asub
  dup 0 get exch 1 get 7 -1 roll astore } bdef
/compute_transform {
  dmat dtri tri_to_matrix tmat1 invertmatrix 
  smat stri tri_to_matrix tmat2 concatmatrix } bdef
/ds {stri astore pop} bdef
/dt {dtri astore pop} bdef
/db {2 copy /cols xdef /rows xdef mul dup 3 mul string
  currentfile 
  3 index 0 eq {/ASCIIHexDecode filter}
  {/ASCII85Decode filter 3 index 2 eq {/RunLengthDecode filter} if }
  ifelse exch readstring pop
  dup 0 3 index getinterval /rbmap xdef
  dup 2 index dup getinterval /gbmap xdef
  1 index dup 2 mul exch getinterval /bbmap xdef pop pop}bdef
/it {gs np dtri aload pop moveto lineto lineto cp c
  cols rows 8 compute_transform 
  rbmap gbmap bbmap true 3 colorimage gr}bdef
/il {newpath moveto lineto stroke}bdef
currentdict end def
%%EndProlog

%%BeginSetup
MathWorks begin

0 cap

end
%%EndSetup

%%Page: 1 1
%%BeginPageSetup
%%PageBoundingBox:    50    93   577   587
MathWorks begin
bpage
%%EndPageSetup

%%BeginObject: obj1
bplot

/dpi2point 8.33333 def
portraitMode 0150 5158 csm

  268   264  4398  4116 rc
84 dict begin %Colortable dictionary
/c0 { 0.000000 0.000000 0.000000 sr} bdef
/c1 { 1.000000 1.000000 1.000000 sr} bdef
/c2 { 0.900000 0.000000 0.000000 sr} bdef
/c3 { 0.000000 0.820000 0.000000 sr} bdef
/c4 { 0.000000 0.000000 0.800000 sr} bdef
/c5 { 0.910000 0.820000 0.320000 sr} bdef
/c6 { 1.000000 0.260000 0.820000 sr} bdef
/c7 { 0.000000 0.820000 0.820000 sr} bdef
c0
1 j
1 sg
   0    0 5001 5001 rf
12.5 w
0 3500 3750 0 0 -3500 750 4000 4 MP
PP
-3750 0 0 3500 3750 0 0 -3500 750 4000 5 MP stroke
gs 750 500 3751 3501 rc
16.6667 w
0 sg
-5 0 -4 0 -4 3 -5 -1 -4 3 -4 9 -5 1 -4 5 
-5 4 -4 8 -4 4 -5 12 -4 5 -4 4 -5 14 -4 7 
-4 5 -5 4 -4 7 -5 17 -4 4 -4 9 -5 3 -4 7 
-4 12 -5 1 -4 7 -4 4 -5 8 -4 7 -4 14 -5 6 
-4 2 -5 7 -4 4 -4 15 -5 10 -4 8 -4 9 -5 10 
-4 6 -4 8 -5 10 -4 1 -4 2 -5 9 -4 3 -5 -3 
-4 7 -4 1 -5 9 -4 -1 -4 2 -5 -5 11 -11 11 -12 
11 -10 11 -5 11 -16 11 -14 11 -15 10 -13 11 -15 11 -9 
11 -15 11 -16 11 -16 11 1 11 -20 11 -5 11 -19 10 -12 
11 -4 11 -14 11 -21 11 -13 11 -8 11 -15 11 -17 11 -12 
11 -13 10 -25 11 -14 11 -20 11 -15 11 -16 11 -11 11 -11 
11 -5 11 -12 11 -15 10 -7 11 -12 11 -17 11 -19 11 -13 
11 -17 11 -12 11 -15 11 -18 11 -15 10 -14 11 -10 11 -16 
11 -17 11 -20 11 -12 11 -5 11 -14 11 -13 10 -12 11 -15 
11 -11 11 -11 11 -16 11 -10 11 -15 11 -13 11 -10 11 -15 
10 -9 11 -10 11 -22 11 -18 11 -26 11 -16 11 -15 11 -17 
11 -12 11 -16 10 -15 11 -9 11 -14 11 -6 11 -6 11 -18 
11 -14 11 -13 11 -16 11 -16 10 -9 11 -5 11 -14 11 -19 
11 -14 11 -12 11 -12 11 -13 11 -11 11 -12 10 -20 11 -9 
11 -21 11 -8 11 -10 11 -10 11 -10 11 -12 11 -9 11 0 
10 -15 11 -16 11 -8 11 -7 11 -14 11 -9 11 -13 11 -9 
11 -12 11 -15 10 -13 11 -13 11 -14 11 -11 11 -16 11 -17 
11 -10 11 -8 11 -7 10 -7 11 -10 11 -9 11 -13 11 -13 
11 -8 11 -12 11 -12 11 -9 11 -3 10 -7 11 -14 11 -11 
11 -14 11 -16 11 -8 11 -10 11 -13 11 -9 11 -14 10 -12 
11 -13 11 -9 11 -10 11 -10 11 -4 11 -11 11 -13 11 -19 
11 -23 10 -2 11 -21 11 5 11 -8 11 -11 11 -7 11 -17 
11 -11 11 -20 11 -11 10 -13 11 -10 11 -9 11 -12 11 -11 
11 -4 11 -14 11 -12 11 -8 11 -7 10 -13 11 -15 11 -10 
11 -8 11 -14 11 -7 11 -11 11 -19 11 -17 11 -10 10 -7 
11 -9 11 -9 11 -16 11 -14 11 -13 11 -13 11 -11 11 -13 
10 -13 11 -7 11 -3 11 -5 11 -7 11 -12 11 -13 11 -13 
11 -11 11 -9 10 -15 11 -9 11 0 11 -6 11 1 11 -5 
11 -9 11 -6 11 -9 11 -9 10 -18 11 -15 11 -13 11 -10 
11 -6 11 -6 11 -3 11 -11 11 -13 11 0 10 -10 11 -4 
11 -16 11 -9 11 -6 11 -10 11 -6 11 -15 11 -13 11 -7 
10 -5 11 -7 11 -6 11 -11 11 -8 11 -3 11 -15 11 -4 
11 -7 11 -13 10 -6 1600 3468 300 MP stroke
11 -10 11 -11 11 -8 11 -10 11 -5 11 -2 11 -5 11 -9 
11 -10 10 -8 11 -14 11 -1 11 -12 11 -11 11 -3 11 -7 
11 0 11 -9 10 -6 11 -13 11 -16 11 -10 11 -14 11 -7 
11 -6 11 -8 11 -6 11 -1 10 -14 11 0 11 -2 11 -5 
11 -9 11 4 11 -3 11 -10 11 -9 11 -12 10 -2 11 -10 
11 -5 11 -4 11 -5 11 -7 11 0 11 -5 11 0 11 -9 
10 -2 11 -4 11 -5 11 -3 11 -3 11 -9 11 -6 11 -5 
11 0 11 -2 10 0 11 -1 11 5 11 -2 11 -2 11 -2 
11 -1 11 -1 11 -3 11 -2 10 -2 11 -1 11 0 11 2 
11 -5 11 -3 11 -1 11 -1 11 1 10 0 750 3855 79 MP stroke
gr

16.6667 w
0 sg
0.1 sg
%%IncludeResource: font Helvetica-Bold
/Helvetica-Bold /WindowsLatin1Encoding 183.333 FMSR

2010 4322 mt 
(Vertical Strain) s
 461 3127 mt  -90 rotate
(Number of Contacts) s
90 rotate
gs 750 500 3751 3501 rc
/c8 { 1.000000 0.000000 0.000000 sr} bdef
c8
-4 -1 -5 -2 -4 0 -5 5 -4 -1 -4 2 -5 5 -4 7 
-4 13 -5 8 -4 4 -5 8 -4 4 -4 5 -5 14 -4 1 
-4 4 -5 7 -4 3 -4 9 -5 3 -4 10 -5 13 -4 2 
-4 12 -5 16 -4 11 -4 6 -5 2 -4 7 -5 7 -4 0 
-4 6 -5 7 -4 0 -4 5 -5 4 -4 7 -4 8 -5 11 
-4 7 -5 5 -4 9 -4 5 -5 7 -4 10 -4 4 -5 6 
-4 6 -5 0 -4 5 -4 8 -5 7 -4 2 -4 4 -5 3 
-4 0 -4 10 -5 3 -4 6 -5 1 -4 8 -4 -3 -5 -11 
11 -15 11 -20 11 -15 11 -16 11 -15 11 -13 11 -11 11 -9 
11 -11 10 -8 11 -12 55 -52 55 -51 54 -52 55 -71 54 -58 
55 -72 55 -69 54 -85 55 -69 55 -62 54 -51 55 -56 54 -74 
55 -55 55 -42 54 -56 55 -57 54 -41 55 -43 55 -70 54 -54 
55 -53 54 -64 55 -53 55 -42 54 -49 55 -45 55 -58 54 -39 
55 -51 54 -58 55 -63 55 -59 54 -56 55 -60 54 -47 55 -23 
55 -52 54 -40 55 -51 54 -66 55 -40 55 -45 54 -38 55 -51 
55 -47 54 -40 55 -46 54 -20 55 -43 55 -35 54 -17 55 -38 
54 -27 55 -28 55 -18 54 -9 55 -19 54 -15 750 3855 135 MP stroke
/c9 { 0.000000 0.000000 1.000000 sr} bdef
c9
-4 0 -4 0 -5 1 -4 0 -4 1 -5 3 -4 4 -5 5 
-4 6 -4 8 -5 1 -4 8 -4 6 -5 5 -4 -1 -4 5 
-5 11 -4 -2 -5 5 -4 4 -4 4 -5 3 -4 16 -4 6 
-5 2 -4 0 -5 3 -4 9 -4 10 -5 7 -4 13 -4 7 
-5 5 -4 6 -4 4 -5 12 -4 10 -5 8 -4 1 -4 4 
-5 12 -4 2 -4 3 -5 3 -4 7 -5 -1 -4 11 -4 7 
-5 2 -4 3 -4 7 -5 9 -4 1 -5 7 -4 11 -4 5 
-5 10 -4 2 -4 6 -5 5 -4 10 -4 5 -5 2 -4 6 
-5 12 -4 5 -4 8 -5 12 -4 5 -4 7 -5 8 -4 3 
-5 8 -4 3 -4 -7 11 -10 11 -19 10 -12 11 -13 55 -62 
55 -73 54 -55 55 -71 54 -60 55 -60 55 -65 54 -58 55 -65 
55 -64 54 -66 55 -55 54 -56 55 -66 55 -53 54 -59 55 -51 
54 -56 55 -47 55 -54 54 -49 55 -52 54 -43 55 -66 55 -45 
54 -52 55 -66 55 -62 54 -45 55 -44 54 -37 55 -50 55 -36 
54 -66 55 -61 54 -40 55 -32 55 -57 54 -55 55 -54 54 -41 
55 -53 55 -48 54 -36 55 -45 55 -27 54 -47 55 -41 54 -45 
55 -38 55 -30 54 -33 55 -24 54 -42 55 -28 55 -15 54 -26 
55 -23 54 -14 750 3853 139 MP stroke
gr

c9
0 sg
%%IncludeResource: font Helvetica
/Helvetica /WindowsLatin1Encoding 83.3333 FMSR

 732 4037 mt 
( ) s
4483  536 mt 
( ) s
8.33333 w
DO
SO
12.5 w
0.1 sg
 750  500 mt 4500  500 L
 750 4000 mt 4500 4000 L
4500 4000 mt 4500  500 L
 750 4000 mt  750  500 L
 750 4000 mt 4500 4000 L
 750 4000 mt  750  500 L
 750 4000 mt  750 3943 L
 750  500 mt  750  556 L
%%IncludeResource: font Helvetica
/Helvetica /WindowsLatin1Encoding 133.333 FMSR

 713 4148 mt 
(0) s
1500 4000 mt 1500 3943 L
1500  500 mt 1500  556 L
1371 4148 mt 
(0.05) s
2250 4000 mt 2250 3943 L
2250  500 mt 2250  556 L
2158 4148 mt 
(0.1) s
3000 4000 mt 3000 3943 L
3000  500 mt 3000  556 L
2871 4148 mt 
(0.15) s
3750 4000 mt 3750 3943 L
3750  500 mt 3750  556 L
3658 4148 mt 
(0.2) s
4500 4000 mt 4500 3943 L
4500  500 mt 4500  556 L
4371 4148 mt 
(0.25) s
 750 4000 mt  806 4000 L
4500 4000 mt 4443 4000 L
 541 4049 mt 
(0.7) s
 750 3416 mt  806 3416 L
4500 3416 mt 4443 3416 L
 541 3465 mt 
(0.8) s
 750 2833 mt  806 2833 L
4500 2833 mt 4443 2833 L
 541 2882 mt 
(0.9) s
 750 2250 mt  806 2250 L
4500 2250 mt 4443 2250 L
 652 2299 mt 
(1) s
 750 1666 mt  806 1666 L
4500 1666 mt 4443 1666 L
 541 1715 mt 
(1.1) s
 750 1083 mt  806 1083 L
4500 1083 mt 4443 1083 L
 541 1132 mt 
(1.2) s
 750  500 mt  806  500 L
4500  500 mt 4443  500 L
 541  549 mt 
(1.3) s
 750  463 mt 
(x 10) s
%%IncludeResource: font Helvetica
/Helvetica /WindowsLatin1Encoding 88.8889 FMSR

1002  381 mt 
(4) s
 750  500 mt 4500  500 L
 750 4000 mt 4500 4000 L
4500 4000 mt 4500  500 L
 750 4000 mt  750  500 L
0 sg
%%IncludeResource: font Helvetica-Bold
/Helvetica-Bold /WindowsLatin1Encoding 125 FMSR

3641 2549 mt 
(SE = 5 J/m) s
%%IncludeResource: font Helvetica-Bold
/Helvetica-Bold /WindowsLatin1Encoding 100 FMSR

4269 2487 mt 
(2) s
gs 3316 2367 1119 642 rc
16.6667 w
250 0 3365 2483 2 MP stroke
gr

16.6667 w
%%IncludeResource: font Helvetica-Bold
/Helvetica-Bold /WindowsLatin1Encoding 125 FMSR

3641 2753 mt 
(SE = 15 J/m) s
%%IncludeResource: font Helvetica-Bold
/Helvetica-Bold /WindowsLatin1Encoding 100 FMSR

4339 2691 mt 
(2) s
gs 3316 2367 1119 642 rc
c8
250 0 3365 2687 2 MP stroke
gr

c8
0 sg
%%IncludeResource: font Helvetica-Bold
/Helvetica-Bold /WindowsLatin1Encoding 125 FMSR

3641 2957 mt 
(SE = 25 J/m) s
%%IncludeResource: font Helvetica-Bold
/Helvetica-Bold /WindowsLatin1Encoding 100 FMSR

4339 2895 mt 
(2) s
gs 3316 2367 1119 642 rc
c9
250 0 3365 2891 2 MP stroke
12.5 w
gr

12.5 w
c9

end %%Color Dict

eplot
%%EndObject

epage
end

showpage

%%Trailer
%%EOF
