%!PS-Adobe-3.0 EPSF-3.0
%%Creator: MATLAB, The MathWorks, Inc. Version 8.1.0.604 (R2013a). Operating System: Microsoft Windows 7.
%%Title: .\SE_UC_StressStain.eps
%%CreationDate: 08/17/2013  18:15:04
%%DocumentNeededFonts: Helvetica-Bold
%%+ Helvetica
%%DocumentProcessColors: Cyan Magenta Yellow Black
%%LanguageLevel: 2
%%Pages: 1
%%BoundingBox:    54    93   577   572
%%EndComments

%%BeginProlog
% MathWorks dictionary
/MathWorks 160 dict begin
% definition operators
/bdef {bind def} bind def
/ldef {load def} bind def
/xdef {exch def} bdef
/xstore {exch store} bdef
% operator abbreviations
/c  /clip ldef
/cc /concat ldef
/cp /closepath ldef
/gr /grestore ldef
/gs /gsave ldef
/mt /moveto ldef
/np /newpath ldef
/cm /currentmatrix ldef
/sm /setmatrix ldef
/rm /rmoveto ldef
/rl /rlineto ldef
/s {show newpath} bdef
/sc {setcmykcolor} bdef
/sr /setrgbcolor ldef
/sg /setgray ldef
/w /setlinewidth ldef
/j /setlinejoin ldef
/cap /setlinecap ldef
/rc {rectclip} bdef
/rf {rectfill} bdef
% page state control
/pgsv () def
/bpage {/pgsv save def} bdef
/epage {pgsv restore} bdef
/bplot /gsave ldef
/eplot {stroke grestore} bdef
% orientation switch
/portraitMode 0 def /landscapeMode 1 def /rotateMode 2 def
% coordinate system mappings
/dpi2point 0 def
% font control
/FontSize 0 def
/FMS {/FontSize xstore findfont [FontSize 0 0 FontSize neg 0 0]
  makefont setfont} bdef
/ISOLatin1Encoding where {pop /WindowsLatin1Encoding 256 array bdef
ISOLatin1Encoding WindowsLatin1Encoding copy pop
/.notdef/.notdef/quotesinglbase/florin/quotedblbase/ellipsis/dagger
/daggerdbl/circumflex/perthousand/Scaron/guilsinglleft/OE/.notdef/.notdef
/.notdef/.notdef/quoteleft/quoteright/quotedblleft/quotedblright/bullet
/endash/emdash/tilde/trademark/scaron/guilsinglright/oe/.notdef/.notdef
/Ydieresis WindowsLatin1Encoding 128 32 getinterval astore pop}
{/WindowsLatin1Encoding StandardEncoding bdef} ifelse
/reencode {exch dup where {pop load} {pop StandardEncoding} ifelse
  exch dup 3 1 roll findfont dup length dict begin
  { 1 index /FID ne {def}{pop pop} ifelse } forall
  /Encoding exch def currentdict end definefont pop} bdef
/isroman {findfont /CharStrings get /Agrave known} bdef
/FMSR {3 1 roll 1 index dup isroman {reencode} {pop pop} ifelse
  exch FMS} bdef
/csm {1 dpi2point div -1 dpi2point div scale neg translate
 dup landscapeMode eq {pop -90 rotate}
  {rotateMode eq {90 rotate} if} ifelse} bdef
% line types: solid, dotted, dashed, dotdash
/SO { [] 0 setdash } bdef
/DO { [.5 dpi2point mul 4 dpi2point mul] 0 setdash } bdef
/DA { [6 dpi2point mul] 0 setdash } bdef
/DD { [.5 dpi2point mul 4 dpi2point mul 6 dpi2point mul 4
  dpi2point mul] 0 setdash } bdef
% macros for lines and objects
/L {lineto stroke} bdef
/MP {3 1 roll moveto 1 sub {rlineto} repeat} bdef
/AP {{rlineto} repeat} bdef
/PDlw -1 def
/W {/PDlw currentlinewidth def setlinewidth} def
/PP {closepath eofill} bdef
/DP {closepath stroke} bdef
/MR {4 -2 roll moveto dup  0 exch rlineto exch 0 rlineto
  neg 0 exch rlineto closepath} bdef
/FR {MR stroke} bdef
/PR {MR fill} bdef
/L1i {{currentfile picstr readhexstring pop} image} bdef
/tMatrix matrix def
/MakeOval {newpath tMatrix currentmatrix pop translate scale
0 0 1 0 360 arc tMatrix setmatrix} bdef
/FO {MakeOval stroke} bdef
/PO {MakeOval fill} bdef
/PD {currentlinewidth 2 div 0 360 arc fill
   PDlw -1 eq not {PDlw w /PDlw -1 def} if} def
/FA {newpath tMatrix currentmatrix pop translate scale
  0 0 1 5 -2 roll arc tMatrix setmatrix stroke} bdef
/PA {newpath tMatrix currentmatrix pop	translate 0 0 moveto scale
  0 0 1 5 -2 roll arc closepath tMatrix setmatrix fill} bdef
/FAn {newpath tMatrix currentmatrix pop translate scale
  0 0 1 5 -2 roll arcn tMatrix setmatrix stroke} bdef
/PAn {newpath tMatrix currentmatrix pop translate 0 0 moveto scale
  0 0 1 5 -2 roll arcn closepath tMatrix setmatrix fill} bdef
/vradius 0 def /hradius 0 def /lry 0 def
/lrx 0 def /uly 0 def /ulx 0 def /rad 0 def
/MRR {/vradius xdef /hradius xdef /lry xdef /lrx xdef /uly xdef
  /ulx xdef newpath tMatrix currentmatrix pop ulx hradius add uly
  vradius add translate hradius vradius scale 0 0 1 180 270 arc 
  tMatrix setmatrix lrx hradius sub uly vradius add translate
  hradius vradius scale 0 0 1 270 360 arc tMatrix setmatrix
  lrx hradius sub lry vradius sub translate hradius vradius scale
  0 0 1 0 90 arc tMatrix setmatrix ulx hradius add lry vradius sub
  translate hradius vradius scale 0 0 1 90 180 arc tMatrix setmatrix
  closepath} bdef
/FRR {MRR stroke } bdef
/PRR {MRR fill } bdef
/MlrRR {/lry xdef /lrx xdef /uly xdef /ulx xdef /rad lry uly sub 2 div def
  newpath tMatrix currentmatrix pop ulx rad add uly rad add translate
  rad rad scale 0 0 1 90 270 arc tMatrix setmatrix lrx rad sub lry rad
  sub translate rad rad scale 0 0 1 270 90 arc tMatrix setmatrix
  closepath} bdef
/FlrRR {MlrRR stroke } bdef
/PlrRR {MlrRR fill } bdef
/MtbRR {/lry xdef /lrx xdef /uly xdef /ulx xdef /rad lrx ulx sub 2 div def
  newpath tMatrix currentmatrix pop ulx rad add uly rad add translate
  rad rad scale 0 0 1 180 360 arc tMatrix setmatrix lrx rad sub lry rad
  sub translate rad rad scale 0 0 1 0 180 arc tMatrix setmatrix
  closepath} bdef
/FtbRR {MtbRR stroke } bdef
/PtbRR {MtbRR fill } bdef
/stri 6 array def /dtri 6 array def
/smat 6 array def /dmat 6 array def
/tmat1 6 array def /tmat2 6 array def /dif 3 array def
/asub {/ind2 exch def /ind1 exch def dup dup
  ind1 get exch ind2 get sub exch } bdef
/tri_to_matrix {
  2 0 asub 3 1 asub 4 0 asub 5 1 asub
  dup 0 get exch 1 get 7 -1 roll astore } bdef
/compute_transform {
  dmat dtri tri_to_matrix tmat1 invertmatrix 
  smat stri tri_to_matrix tmat2 concatmatrix } bdef
/ds {stri astore pop} bdef
/dt {dtri astore pop} bdef
/db {2 copy /cols xdef /rows xdef mul dup 3 mul string
  currentfile 
  3 index 0 eq {/ASCIIHexDecode filter}
  {/ASCII85Decode filter 3 index 2 eq {/RunLengthDecode filter} if }
  ifelse exch readstring pop
  dup 0 3 index getinterval /rbmap xdef
  dup 2 index dup getinterval /gbmap xdef
  1 index dup 2 mul exch getinterval /bbmap xdef pop pop}bdef
/it {gs np dtri aload pop moveto lineto lineto cp c
  cols rows 8 compute_transform 
  rbmap gbmap bbmap true 3 colorimage gr}bdef
/il {newpath moveto lineto stroke}bdef
currentdict end def
%%EndProlog

%%BeginSetup
MathWorks begin

0 cap

end
%%EndSetup

%%Page: 1 1
%%BeginPageSetup
%%PageBoundingBox:    54    93   577   572
MathWorks begin
bpage
%%EndPageSetup

%%BeginObject: obj1
bplot

/dpi2point 8.33333 def
portraitMode 0150 5158 csm

  305   390  4361  3990 rc
84 dict begin %Colortable dictionary
/c0 { 0.000000 0.000000 0.000000 sr} bdef
/c1 { 1.000000 1.000000 1.000000 sr} bdef
/c2 { 0.900000 0.000000 0.000000 sr} bdef
/c3 { 0.000000 0.820000 0.000000 sr} bdef
/c4 { 0.000000 0.000000 0.800000 sr} bdef
/c5 { 0.910000 0.820000 0.320000 sr} bdef
/c6 { 1.000000 0.260000 0.820000 sr} bdef
/c7 { 0.000000 0.820000 0.820000 sr} bdef
c0
1 j
1 sg
   0    0 5001 5001 rf
12.5 w
0 3500 3750 0 0 -3500 750 4000 4 MP
PP
-3750 0 0 3500 3750 0 0 -3500 750 4000 5 MP stroke
gs 750 500 3751 3501 rc
16.6667 w
0 sg
10 -2 14 -1 14 0 14 1 13 2 14 -2 14 1 14 -4 
14 -3 14 3 14 0 14 3 14 2 14 3 14 3 14 2 
14 1 14 0 14 0 14 -2 14 -3 14 -2 14 -1 14 -1 
14 0 14 -2 14 -1 14 2 14 0 14 0 14 0 13 1 
14 1 14 -5 14 -3 14 3 14 5 14 4 14 5 14 5 
14 1 14 -2 14 4 14 5 14 3 14 3 14 0 14 2 
14 3 14 -1 14 -1 14 2 14 5 14 3 14 -1 14 -3 
14 2 13 2 14 1 14 1 14 -2 14 -1 14 2 14 2 
14 1 14 -1 14 0 14 -2 14 3 14 2 14 1 14 -2 
14 -3 14 2 14 2 14 -1 14 -1 14 -1 14 1 14 2 
14 2 14 2 14 3 14 0 13 0 14 0 14 3 14 0 
14 1 14 1 14 0 14 1 14 0 14 1 14 2 14 0 
14 2 14 2 14 0 14 1 14 1 14 -1 14 0 14 2 
14 3 14 1 14 -1 14 -2 14 -1 14 2 13 7 14 3 
14 4 14 -1 14 1 14 0 14 3 14 -2 14 7 14 2 
14 2 14 1 14 -1 14 1 14 -4 14 0 14 8 14 2 
14 3 14 4 14 4 14 0 14 2 14 -1 14 0 14 -1 
13 0 14 5 14 3 14 1 14 0 14 2 14 2 14 1 
14 2 14 -3 14 0 14 0 14 2 14 0 14 3 14 1 
14 -2 14 -1 14 -3 14 2 14 4 14 5 14 -1 14 -5 
14 -3 14 2 14 11 13 5 14 6 14 4 14 -1 14 -2 
14 -2 14 1 14 1 14 2 14 -2 14 5 14 8 14 3 
14 0 14 -2 14 -2 14 -1 14 1 14 -2 14 3 14 1 
14 6 14 3 14 6 14 0 14 -2 13 1 14 2 14 3 
14 -2 14 -4 14 -2 14 -2 14 -1 14 0 14 0 14 0 
14 -9 14 0 14 7 14 2 14 0 14 3 14 3 14 -1 
14 -4 14 -3 14 0 14 2 14 -1 14 0 14 1 14 -1 
13 -3 14 0 14 2 14 3 14 2 14 -3 14 -4 14 -1 
14 -3 14 2 14 0 14 3 14 -2 14 -2 14 -1 14 -6 
14 -2 14 -1 14 -2 14 -2 14 -6 14 -7 14 -4 14 5 
14 -4 14 -5 13 -3 14 -6 14 -7 14 -2 14 -7 14 -9 
14 -13 14 -9 14 -11 14 -12 14 -12 14 -14 14 -16 14 -16 
14 -24 14 -30 14 -25 14 -34 14 -33 14 -42 14 -50 14 -39 
14 -23 14 -19 14 -15 14 -13 13 -9 750 3992 270 MP stroke
gr

16.6667 w
0 sg
0.1 sg
%%IncludeResource: font Helvetica-Bold
/Helvetica-Bold /WindowsLatin1Encoding 183.333 FMSR

2010 4322 mt 
(Vertical Strain) s
 498 3132 mt  -90 rotate
(Vertical Stress [kPa]) s
90 rotate
gs 750 500 3751 3501 rc
/c8 { 1.000000 0.000000 0.000000 sr} bdef
c8
5 3 13 6 14 -2 14 -4 14 3 13 6 14 -3 14 -7 
13 14 14 7 14 10 14 2 13 1 14 -1 14 0 14 2 
13 3 14 -5 14 -7 13 5 14 6 14 -4 14 -1 13 -1 
14 2 14 -7 14 -4 13 12 14 2 14 -4 13 -7 14 20 
14 7 14 -2 13 10 14 1 14 -3 14 -6 13 10 14 1 
14 8 13 1 14 0 14 8 14 3 13 11 14 -8 14 4 
13 6 14 -9 14 13 14 0 13 -6 14 -6 14 14 14 0 
13 -14 14 8 14 18 13 7 14 -8 14 5 14 0 13 1 
14 2 14 -5 14 5 13 -6 14 0 14 0 13 18 14 3 
14 -1 14 -8 13 0 14 -1 14 13 13 2 14 -4 14 0 
14 -1 13 -1 14 0 14 5 14 15 13 -1 14 3 14 -2 
13 -4 14 1 14 -2 14 -17 13 16 14 13 14 14 14 9 
13 -5 14 -4 14 -2 13 -10 14 -12 14 3 14 18 13 2 
14 -6 14 -1 14 -5 13 -5 14 0 14 1 13 -7 14 -1 
14 21 14 5 13 1 14 1 14 2 13 -3 14 3 14 0 
14 -7 13 -1 14 1 14 -11 14 8 13 0 14 -5 14 9 
13 -7 14 14 14 1 14 -13 13 11 14 -2 14 -5 14 3 
13 5 14 -8 14 -3 13 3 14 -1 14 5 14 8 13 -1 
14 -5 14 -9 13 4 14 15 14 -4 14 -9 13 1 14 -2 
14 -3 14 -16 13 15 14 -2 14 16 13 4 14 0 14 -9 
14 -5 13 0 14 -2 14 -11 14 3 13 20 14 9 14 3 
13 12 14 -2 14 -8 14 2 13 -14 14 -8 14 -12 13 8 
14 15 14 4 14 0 13 -3 14 1 14 4 14 -11 13 -4 
14 11 14 16 13 -5 14 -11 14 -26 14 -9 13 -3 14 -7 
14 4 14 1 13 -1 14 20 14 15 13 -10 14 -13 14 -12 
14 3 13 -7 14 -4 14 -14 14 -12 13 -13 14 -10 14 13 
13 -2 14 -23 14 0 14 -8 13 -7 14 -6 14 5 13 -9 
14 -17 14 -16 14 -13 13 -6 14 -10 14 -13 14 -24 13 0 
14 -28 14 -19 13 -17 14 1 14 -10 14 -14 13 -29 14 -27 
14 -24 14 -14 13 -8 14 -19 14 -10 13 -21 14 -26 14 -26 
14 -20 13 -26 14 -24 14 -20 13 -38 14 -27 14 -34 14 -32 
13 -41 14 -35 14 -39 14 -40 13 -38 14 -43 14 -43 13 -39 
14 -48 14 -45 14 -48 13 -54 14 -53 14 -61 14 -53 13 -60 
14 -54 14 -42 13 -31 14 -16 14 -11 14 -9 13 -9 14 -9 
14 -4 13 -4 750 3996 275 MP stroke
/c9 { 0.000000 0.000000 1.000000 sr} bdef
c9
2 3 14 -10 13 -10 14 4 13 13 14 -1 13 -8 14 2 
14 0 13 -4 14 22 13 -13 14 -3 14 31 13 -4 14 -9 
13 2 14 21 13 9 14 -3 14 12 13 -3 14 -13 13 1 
14 -19 14 -18 13 28 14 -1 13 14 14 20 14 16 13 -2 
14 -3 13 -16 14 4 13 -2 14 14 14 -8 13 0 14 -4 
13 -4 14 -5 14 4 13 -15 14 16 13 -3 14 1 13 -9 
14 -7 14 -10 13 -13 14 15 13 9 14 4 14 -12 13 -11 
14 -3 13 1 14 -20 13 35 14 21 14 -19 13 -5 14 15 
13 16 14 -17 14 17 13 -3 14 -9 13 -18 14 7 14 41 
13 3 14 0 13 -4 14 -5 13 0 14 0 14 -10 13 4 
14 -4 13 -6 14 39 14 0 13 -16 14 14 13 -6 14 -25 
13 5 14 8 14 5 13 29 14 -7 13 -7 14 1 14 3 
13 0 14 -10 13 -8 14 -7 13 6 14 11 14 0 13 12 
14 -6 13 -20 14 -13 14 23 13 19 14 -10 13 -7 14 10 
14 -8 13 -6 14 -7 13 -16 14 -1 13 28 14 -23 14 -7 
13 -7 14 13 13 -3 14 3 14 5 13 10 14 14 13 -6 
14 0 13 -7 14 2 14 12 13 -2 14 1 13 0 14 -8 
14 -12 13 10 14 -9 13 11 14 -18 13 -6 14 -15 14 6 
13 7 14 -2 13 6 14 -19 14 1 13 -2 14 -22 13 18 
14 2 14 -20 13 26 14 -14 13 -10 14 -19 13 13 14 24 
14 -6 13 -9 14 -3 13 -28 14 -5 14 -2 13 -25 14 1 
13 -25 14 -5 13 15 14 0 14 -5 13 4 14 -9 13 -14 
14 -21 14 -4 13 50 14 9 13 -10 14 -10 13 9 14 -23 
14 0 13 -13 14 -19 13 -2 14 -5 14 -27 13 -15 14 11 
13 5 14 1 14 -19 13 -31 14 -9 13 -22 14 -12 13 -16 
14 -2 14 -14 13 -14 14 -27 13 -24 14 -4 14 -13 13 -25 
14 -4 13 -15 14 -21 13 -10 14 -14 14 -24 13 -16 14 -26 
13 -20 14 -12 14 -28 13 -11 14 -28 13 -37 14 -23 13 -11 
14 -22 14 -35 13 -34 14 -29 13 -14 14 -37 14 -22 13 -30 
14 -35 13 -35 14 -32 14 -23 13 -43 14 -32 13 -28 14 -43 
13 -38 14 -20 14 -41 13 -45 14 -35 13 -39 14 -44 14 -49 
13 -32 14 -45 13 -39 14 -53 13 -39 14 -46 14 -44 13 -46 
14 -51 13 -47 14 -51 14 -51 13 -57 14 -61 13 -68 14 -71 
13 -66 14 -61 14 -55 13 -47 14 -35 13 -17 14 -10 14 -6 
13 -5 14 -6 13 -6 14 -6 13 -5 750 3994 278 MP stroke
gr

c9
0 sg
%%IncludeResource: font Helvetica
/Helvetica /WindowsLatin1Encoding 83.3333 FMSR

 732 4037 mt 
( ) s
4483  536 mt 
( ) s
8.33333 w
DO
SO
12.5 w
0.1 sg
 750  500 mt 4500  500 L
 750 4000 mt 4500 4000 L
4500 4000 mt 4500  500 L
 750 4000 mt  750  500 L
 750 4000 mt 4500 4000 L
 750 4000 mt  750  500 L
 750 4000 mt  750 3943 L
 750  500 mt  750  556 L
%%IncludeResource: font Helvetica
/Helvetica /WindowsLatin1Encoding 133.333 FMSR

 713 4148 mt 
(0) s
1500 4000 mt 1500 3943 L
1500  500 mt 1500  556 L
1371 4148 mt 
(0.01) s
2250 4000 mt 2250 3943 L
2250  500 mt 2250  556 L
2121 4148 mt 
(0.02) s
3000 4000 mt 3000 3943 L
3000  500 mt 3000  556 L
2871 4148 mt 
(0.03) s
3749 4000 mt 3749 3943 L
3749  500 mt 3749  556 L
3620 4148 mt 
(0.04) s
4500 4000 mt 4500 3943 L
4500  500 mt 4500  556 L
4371 4148 mt 
(0.05) s
 750 4000 mt  806 4000 L
4500 4000 mt 4443 4000 L
 652 4049 mt 
(0) s
 750 3611 mt  806 3611 L
4500 3611 mt 4443 3611 L
 652 3660 mt 
(2) s
 750 3222 mt  806 3222 L
4500 3222 mt 4443 3222 L
 652 3271 mt 
(4) s
 750 2833 mt  806 2833 L
4500 2833 mt 4443 2833 L
 652 2882 mt 
(6) s
 750 2444 mt  806 2444 L
4500 2444 mt 4443 2444 L
 652 2493 mt 
(8) s
 750 2055 mt  806 2055 L
4500 2055 mt 4443 2055 L
 578 2104 mt 
(10) s
 750 1666 mt  806 1666 L
4500 1666 mt 4443 1666 L
 578 1715 mt 
(12) s
 750 1277 mt  806 1277 L
4500 1277 mt 4443 1277 L
 578 1326 mt 
(14) s
 750  888 mt  806  888 L
4500  888 mt 4443  888 L
 578  937 mt 
(16) s
 750  500 mt  806  500 L
4500  500 mt 4443  500 L
 578  549 mt 
(18) s
 750  500 mt 4500  500 L
 750 4000 mt 4500 4000 L
4500 4000 mt 4500  500 L
 750 4000 mt  750  500 L
0 sg
%%IncludeResource: font Helvetica-Bold
/Helvetica-Bold /WindowsLatin1Encoding 125 FMSR

1153  795 mt 
(SE = 5 J/m) s
%%IncludeResource: font Helvetica-Bold
/Helvetica-Bold /WindowsLatin1Encoding 100 FMSR

1781  733 mt 
(2) s
%%IncludeResource: font Helvetica-Bold
/Helvetica-Bold /WindowsLatin1Encoding 125 FMSR

1836  795 mt 
(, ) s
%%IncludeResource: font Symbol
/Symbol /WindowsLatin1Encoding 125 FMSR

1900  795 mt 
(f) s
%%IncludeResource: font Helvetica-Bold
/Helvetica-Bold /WindowsLatin1Encoding 125 FMSR

1965  795 mt 
( = 0.389) s
gs 828 617 1720 642 rc
16.6667 w
250 0 878 733 2 MP stroke
gr

16.6667 w
1153  999 mt 
(SE = 15 J/m) s
%%IncludeResource: font Helvetica-Bold
/Helvetica-Bold /WindowsLatin1Encoding 100 FMSR

1851  937 mt 
(2) s
%%IncludeResource: font Helvetica-Bold
/Helvetica-Bold /WindowsLatin1Encoding 125 FMSR

1906  999 mt 
(, ) s
%%IncludeResource: font Symbol
/Symbol /WindowsLatin1Encoding 125 FMSR

1970  999 mt 
(f) s
%%IncludeResource: font Helvetica-Bold
/Helvetica-Bold /WindowsLatin1Encoding 125 FMSR

2035  999 mt 
( = 0.397) s
gs 828 617 1720 642 rc
c8
250 0 878 937 2 MP stroke
gr

c8
0 sg
1153 1203 mt 
(SE = 25 J/m) s
%%IncludeResource: font Helvetica-Bold
/Helvetica-Bold /WindowsLatin1Encoding 100 FMSR

1851 1141 mt 
(2) s
%%IncludeResource: font Helvetica-Bold
/Helvetica-Bold /WindowsLatin1Encoding 125 FMSR

1906 1203 mt 
(, ) s
%%IncludeResource: font Symbol
/Symbol /WindowsLatin1Encoding 125 FMSR

1970 1203 mt 
(f) s
%%IncludeResource: font Helvetica-Bold
/Helvetica-Bold /WindowsLatin1Encoding 125 FMSR

2035 1203 mt 
( = 0.403) s
gs 828 617 1720 642 rc
c9
250 0 878 1141 2 MP stroke
12.5 w
gr

12.5 w
c9

end %%Color Dict

eplot
%%EndObject

epage
end

showpage

%%Trailer
%%EOF
