%!PS-Adobe-3.0 EPSF-3.0
%%Creator: MATLAB, The MathWorks, Inc. Version 8.1.0.604 (R2013a). Operating System: Microsoft Windows 7.
%%Title: .\SE_UC_StressStain_SameFill.eps
%%CreationDate: 08/17/2013  18:15:06
%%DocumentNeededFonts: Helvetica-Bold
%%+ Helvetica
%%DocumentProcessColors: Cyan Magenta Yellow Black
%%LanguageLevel: 2
%%Pages: 1
%%BoundingBox:    54    93   577   572
%%EndComments

%%BeginProlog
% MathWorks dictionary
/MathWorks 160 dict begin
% definition operators
/bdef {bind def} bind def
/ldef {load def} bind def
/xdef {exch def} bdef
/xstore {exch store} bdef
% operator abbreviations
/c  /clip ldef
/cc /concat ldef
/cp /closepath ldef
/gr /grestore ldef
/gs /gsave ldef
/mt /moveto ldef
/np /newpath ldef
/cm /currentmatrix ldef
/sm /setmatrix ldef
/rm /rmoveto ldef
/rl /rlineto ldef
/s {show newpath} bdef
/sc {setcmykcolor} bdef
/sr /setrgbcolor ldef
/sg /setgray ldef
/w /setlinewidth ldef
/j /setlinejoin ldef
/cap /setlinecap ldef
/rc {rectclip} bdef
/rf {rectfill} bdef
% page state control
/pgsv () def
/bpage {/pgsv save def} bdef
/epage {pgsv restore} bdef
/bplot /gsave ldef
/eplot {stroke grestore} bdef
% orientation switch
/portraitMode 0 def /landscapeMode 1 def /rotateMode 2 def
% coordinate system mappings
/dpi2point 0 def
% font control
/FontSize 0 def
/FMS {/FontSize xstore findfont [FontSize 0 0 FontSize neg 0 0]
  makefont setfont} bdef
/ISOLatin1Encoding where {pop /WindowsLatin1Encoding 256 array bdef
ISOLatin1Encoding WindowsLatin1Encoding copy pop
/.notdef/.notdef/quotesinglbase/florin/quotedblbase/ellipsis/dagger
/daggerdbl/circumflex/perthousand/Scaron/guilsinglleft/OE/.notdef/.notdef
/.notdef/.notdef/quoteleft/quoteright/quotedblleft/quotedblright/bullet
/endash/emdash/tilde/trademark/scaron/guilsinglright/oe/.notdef/.notdef
/Ydieresis WindowsLatin1Encoding 128 32 getinterval astore pop}
{/WindowsLatin1Encoding StandardEncoding bdef} ifelse
/reencode {exch dup where {pop load} {pop StandardEncoding} ifelse
  exch dup 3 1 roll findfont dup length dict begin
  { 1 index /FID ne {def}{pop pop} ifelse } forall
  /Encoding exch def currentdict end definefont pop} bdef
/isroman {findfont /CharStrings get /Agrave known} bdef
/FMSR {3 1 roll 1 index dup isroman {reencode} {pop pop} ifelse
  exch FMS} bdef
/csm {1 dpi2point div -1 dpi2point div scale neg translate
 dup landscapeMode eq {pop -90 rotate}
  {rotateMode eq {90 rotate} if} ifelse} bdef
% line types: solid, dotted, dashed, dotdash
/SO { [] 0 setdash } bdef
/DO { [.5 dpi2point mul 4 dpi2point mul] 0 setdash } bdef
/DA { [6 dpi2point mul] 0 setdash } bdef
/DD { [.5 dpi2point mul 4 dpi2point mul 6 dpi2point mul 4
  dpi2point mul] 0 setdash } bdef
% macros for lines and objects
/L {lineto stroke} bdef
/MP {3 1 roll moveto 1 sub {rlineto} repeat} bdef
/AP {{rlineto} repeat} bdef
/PDlw -1 def
/W {/PDlw currentlinewidth def setlinewidth} def
/PP {closepath eofill} bdef
/DP {closepath stroke} bdef
/MR {4 -2 roll moveto dup  0 exch rlineto exch 0 rlineto
  neg 0 exch rlineto closepath} bdef
/FR {MR stroke} bdef
/PR {MR fill} bdef
/L1i {{currentfile picstr readhexstring pop} image} bdef
/tMatrix matrix def
/MakeOval {newpath tMatrix currentmatrix pop translate scale
0 0 1 0 360 arc tMatrix setmatrix} bdef
/FO {MakeOval stroke} bdef
/PO {MakeOval fill} bdef
/PD {currentlinewidth 2 div 0 360 arc fill
   PDlw -1 eq not {PDlw w /PDlw -1 def} if} def
/FA {newpath tMatrix currentmatrix pop translate scale
  0 0 1 5 -2 roll arc tMatrix setmatrix stroke} bdef
/PA {newpath tMatrix currentmatrix pop	translate 0 0 moveto scale
  0 0 1 5 -2 roll arc closepath tMatrix setmatrix fill} bdef
/FAn {newpath tMatrix currentmatrix pop translate scale
  0 0 1 5 -2 roll arcn tMatrix setmatrix stroke} bdef
/PAn {newpath tMatrix currentmatrix pop translate 0 0 moveto scale
  0 0 1 5 -2 roll arcn closepath tMatrix setmatrix fill} bdef
/vradius 0 def /hradius 0 def /lry 0 def
/lrx 0 def /uly 0 def /ulx 0 def /rad 0 def
/MRR {/vradius xdef /hradius xdef /lry xdef /lrx xdef /uly xdef
  /ulx xdef newpath tMatrix currentmatrix pop ulx hradius add uly
  vradius add translate hradius vradius scale 0 0 1 180 270 arc 
  tMatrix setmatrix lrx hradius sub uly vradius add translate
  hradius vradius scale 0 0 1 270 360 arc tMatrix setmatrix
  lrx hradius sub lry vradius sub translate hradius vradius scale
  0 0 1 0 90 arc tMatrix setmatrix ulx hradius add lry vradius sub
  translate hradius vradius scale 0 0 1 90 180 arc tMatrix setmatrix
  closepath} bdef
/FRR {MRR stroke } bdef
/PRR {MRR fill } bdef
/MlrRR {/lry xdef /lrx xdef /uly xdef /ulx xdef /rad lry uly sub 2 div def
  newpath tMatrix currentmatrix pop ulx rad add uly rad add translate
  rad rad scale 0 0 1 90 270 arc tMatrix setmatrix lrx rad sub lry rad
  sub translate rad rad scale 0 0 1 270 90 arc tMatrix setmatrix
  closepath} bdef
/FlrRR {MlrRR stroke } bdef
/PlrRR {MlrRR fill } bdef
/MtbRR {/lry xdef /lrx xdef /uly xdef /ulx xdef /rad lrx ulx sub 2 div def
  newpath tMatrix currentmatrix pop ulx rad add uly rad add translate
  rad rad scale 0 0 1 180 360 arc tMatrix setmatrix lrx rad sub lry rad
  sub translate rad rad scale 0 0 1 0 180 arc tMatrix setmatrix
  closepath} bdef
/FtbRR {MtbRR stroke } bdef
/PtbRR {MtbRR fill } bdef
/stri 6 array def /dtri 6 array def
/smat 6 array def /dmat 6 array def
/tmat1 6 array def /tmat2 6 array def /dif 3 array def
/asub {/ind2 exch def /ind1 exch def dup dup
  ind1 get exch ind2 get sub exch } bdef
/tri_to_matrix {
  2 0 asub 3 1 asub 4 0 asub 5 1 asub
  dup 0 get exch 1 get 7 -1 roll astore } bdef
/compute_transform {
  dmat dtri tri_to_matrix tmat1 invertmatrix 
  smat stri tri_to_matrix tmat2 concatmatrix } bdef
/ds {stri astore pop} bdef
/dt {dtri astore pop} bdef
/db {2 copy /cols xdef /rows xdef mul dup 3 mul string
  currentfile 
  3 index 0 eq {/ASCIIHexDecode filter}
  {/ASCII85Decode filter 3 index 2 eq {/RunLengthDecode filter} if }
  ifelse exch readstring pop
  dup 0 3 index getinterval /rbmap xdef
  dup 2 index dup getinterval /gbmap xdef
  1 index dup 2 mul exch getinterval /bbmap xdef pop pop}bdef
/it {gs np dtri aload pop moveto lineto lineto cp c
  cols rows 8 compute_transform 
  rbmap gbmap bbmap true 3 colorimage gr}bdef
/il {newpath moveto lineto stroke}bdef
currentdict end def
%%EndProlog

%%BeginSetup
MathWorks begin

0 cap

end
%%EndSetup

%%Page: 1 1
%%BeginPageSetup
%%PageBoundingBox:    54    93   577   572
MathWorks begin
bpage
%%EndPageSetup

%%BeginObject: obj1
bplot

/dpi2point 8.33333 def
portraitMode 0150 5158 csm

  305   390  4361  3990 rc
84 dict begin %Colortable dictionary
/c0 { 0.000000 0.000000 0.000000 sr} bdef
/c1 { 1.000000 1.000000 1.000000 sr} bdef
/c2 { 0.900000 0.000000 0.000000 sr} bdef
/c3 { 0.000000 0.820000 0.000000 sr} bdef
/c4 { 0.000000 0.000000 0.800000 sr} bdef
/c5 { 0.910000 0.820000 0.320000 sr} bdef
/c6 { 1.000000 0.260000 0.820000 sr} bdef
/c7 { 0.000000 0.820000 0.820000 sr} bdef
c0
1 j
1 sg
   0    0 5001 5001 rf
12.5 w
0 3500 3750 0 0 -3500 750 4000 4 MP
PP
-3750 0 0 3500 3750 0 0 -3500 750 4000 5 MP stroke
gs 750 500 3751 3501 rc
16.6667 w
0 sg
5 0 23 -1 24 2 23 7 23 3 23 4 24 -1 23 1 
23 0 23 3 24 -2 23 7 23 2 24 2 23 1 23 -1 
23 1 24 -4 23 0 23 8 23 2 24 3 23 4 23 4 
23 0 24 2 23 -1 23 0 24 -1 23 0 23 5 23 3 
24 1 23 0 23 2 23 2 24 1 23 2 23 -3 24 0 
23 0 23 2 23 0 24 3 23 1 23 -2 23 -1 24 -3 
23 2 23 4 24 5 23 -1 23 -5 23 -3 24 2 23 11 
23 5 23 6 24 4 23 -1 23 -2 23 -2 24 1 23 1 
23 2 24 -2 23 5 23 8 23 3 24 0 23 -2 23 -2 
23 -1 24 1 23 -2 23 3 24 1 23 6 23 3 23 6 
24 0 23 -2 23 1 23 2 24 3 23 -2 23 -4 24 -2 
23 -2 23 -1 23 0 24 0 23 0 23 -9 23 0 24 7 
23 2 23 0 23 3 24 3 23 -1 23 -4 24 -3 23 0 
23 2 23 -1 24 0 23 1 23 -1 23 -3 24 0 23 2 
23 3 24 2 23 -3 23 -4 23 -1 24 -3 23 2 23 0 
23 3 24 -2 23 -2 23 -1 24 -6 23 -2 23 -1 23 -2 
24 -2 23 -6 23 -7 23 -4 24 5 23 -4 23 -5 23 -3 
24 -6 23 -7 23 -2 24 -7 23 -9 23 -13 23 -9 24 -11 
23 -12 23 -12 23 -14 24 -16 23 -16 23 -24 24 -30 23 -25 
23 -34 23 -33 24 -42 23 -50 23 -39 23 -23 24 -19 23 -15 
23 -13 23 -9 750 3992 163 MP stroke
gr

16.6667 w
0 sg
0.1 sg
%%IncludeResource: font Helvetica-Bold
/Helvetica-Bold /WindowsLatin1Encoding 183.333 FMSR

2010 4322 mt 
(Vertical Strain) s
 498 3132 mt  -90 rotate
(Vertical Stress [kPa]) s
90 rotate
gs 750 500 3751 3501 rc
/c8 { 1.000000 0.000000 0.000000 sr} bdef
c8
6 -5 23 -8 23 21 23 27 24 -13 23 2 23 -4 24 -1 
23 -4 23 7 23 8 24 -3 23 1 23 7 23 9 24 6 
23 3 23 0 23 -3 24 -4 23 4 23 -6 24 1 23 -1 
23 7 23 7 24 -3 23 6 23 -3 23 -7 24 1 23 14 
23 7 23 -1 24 -3 23 -2 23 0 24 11 23 -4 23 -9 
23 -13 24 1 23 1 23 18 23 4 24 -7 23 9 23 14 
23 -17 24 7 23 11 23 3 24 -10 23 1 23 0 23 10 
24 18 23 4 23 -11 23 0 24 0 23 -23 23 -4 23 14 
24 -5 23 2 23 23 24 4 23 -22 23 0 23 16 24 0 
23 -6 23 -6 23 -1 24 -6 23 20 23 -5 23 -3 24 5 
23 -15 23 -10 23 -7 24 -11 23 -15 23 0 24 12 23 -11 
23 -6 23 -9 24 15 23 -11 23 -4 23 -2 24 7 23 8 
23 -14 23 -21 24 -1 23 -8 23 -6 24 5 23 -9 23 -9 
23 -20 24 -10 23 -18 23 -19 23 -19 24 12 23 9 23 -21 
23 -17 24 6 23 -15 23 -24 24 -18 23 3 23 -13 23 -23 
24 -18 23 -19 23 -13 23 -25 24 -22 23 -15 23 -31 23 -33 
24 -24 23 -28 23 -30 24 -53 23 -19 23 -35 23 -39 24 -44 
23 -9 23 -32 23 -55 24 -41 23 -45 23 -53 23 -42 24 -54 
23 -40 23 -48 24 -46 23 -53 23 -49 23 -57 24 -58 23 -56 
23 -74 23 -77 24 -76 23 -62 23 -38 23 -26 24 -20 23 -16 
23 -11 23 -7 750 3996 163 MP stroke
/c9 { 0.000000 0.000000 1.000000 sr} bdef
c9
6 3 23 48 23 17 23 -16 24 3 23 5 23 -9 24 4 
23 -6 23 -23 23 -17 24 -2 23 -17 23 -16 23 8 24 15 
23 1 23 -13 23 15 24 11 23 14 23 -6 24 -18 23 11 
23 13 23 -23 24 -15 23 21 23 11 23 -10 24 -3 23 -9 
23 -23 23 -1 24 -6 23 -12 23 -10 24 -10 23 19 23 1 
23 -20 24 -2 23 14 23 1 23 -6 24 2 23 1 23 -29 
23 17 24 16 23 4 23 -8 24 -10 23 5 23 -3 23 28 
24 5 23 0 23 -16 23 -8 24 -2 23 -5 23 -20 23 6 
24 -25 23 7 23 15 24 -12 23 -30 23 -5 23 -5 24 -13 
23 7 23 15 23 -7 24 -15 23 -24 23 -10 23 -30 24 -29 
23 -15 23 -29 23 -1 24 -17 23 -13 23 -7 24 5 23 -18 
23 11 23 -12 24 -33 23 -15 23 -29 23 9 24 -28 23 -6 
23 -21 23 -3 24 -13 23 -41 23 -11 24 -20 23 -41 23 3 
23 -52 24 -14 23 -24 23 -48 23 -28 24 -7 23 -11 23 -40 
23 -9 24 -47 23 -41 23 -31 24 -30 23 -31 23 -31 23 -34 
24 -35 23 -44 23 -47 23 -40 24 -33 23 -46 23 -35 23 -49 
24 -52 23 -47 23 -50 24 -50 23 -59 23 -56 23 -47 24 -47 
23 -53 23 -47 23 -51 24 -52 23 -64 23 -62 23 -62 24 -71 
23 -54 23 -70 24 -63 23 -66 23 -59 23 -71 24 -62 23 -84 
23 -76 23 -87 24 -82 23 -67 23 -41 23 -28 24 -20 23 -16 
23 -10 23 -7 750 3996 163 MP stroke
gr

c9
0 sg
%%IncludeResource: font Helvetica
/Helvetica /WindowsLatin1Encoding 83.3333 FMSR

 732 4037 mt 
( ) s
4483  536 mt 
( ) s
8.33333 w
DO
SO
12.5 w
0.1 sg
 750  500 mt 4500  500 L
 750 4000 mt 4500 4000 L
4500 4000 mt 4500  500 L
 750 4000 mt  750  500 L
 750 4000 mt 4500 4000 L
 750 4000 mt  750  500 L
 750 4000 mt  750 3943 L
 750  500 mt  750  556 L
%%IncludeResource: font Helvetica
/Helvetica /WindowsLatin1Encoding 133.333 FMSR

 713 4148 mt 
(0) s
1375 4000 mt 1375 3943 L
1375  500 mt 1375  556 L
1209 4148 mt 
(0.005) s
2000 4000 mt 2000 3943 L
2000  500 mt 2000  556 L
1871 4148 mt 
(0.01) s
2625 4000 mt 2625 3943 L
2625  500 mt 2625  556 L
2459 4148 mt 
(0.015) s
3250 4000 mt 3250 3943 L
3250  500 mt 3250  556 L
3121 4148 mt 
(0.02) s
3875 4000 mt 3875 3943 L
3875  500 mt 3875  556 L
3709 4148 mt 
(0.025) s
4500 4000 mt 4500 3943 L
4500  500 mt 4500  556 L
4371 4148 mt 
(0.03) s
 750 4000 mt  806 4000 L
4500 4000 mt 4443 4000 L
 652 4049 mt 
(0) s
 750 3611 mt  806 3611 L
4500 3611 mt 4443 3611 L
 652 3660 mt 
(2) s
 750 3222 mt  806 3222 L
4500 3222 mt 4443 3222 L
 652 3271 mt 
(4) s
 750 2833 mt  806 2833 L
4500 2833 mt 4443 2833 L
 652 2882 mt 
(6) s
 750 2444 mt  806 2444 L
4500 2444 mt 4443 2444 L
 652 2493 mt 
(8) s
 750 2055 mt  806 2055 L
4500 2055 mt 4443 2055 L
 578 2104 mt 
(10) s
 750 1666 mt  806 1666 L
4500 1666 mt 4443 1666 L
 578 1715 mt 
(12) s
 750 1277 mt  806 1277 L
4500 1277 mt 4443 1277 L
 578 1326 mt 
(14) s
 750  888 mt  806  888 L
4500  888 mt 4443  888 L
 578  937 mt 
(16) s
 750  500 mt  806  500 L
4500  500 mt 4443  500 L
 578  549 mt 
(18) s
 750  500 mt 4500  500 L
 750 4000 mt 4500 4000 L
4500 4000 mt 4500  500 L
 750 4000 mt  750  500 L
0 sg
%%IncludeResource: font Helvetica-Bold
/Helvetica-Bold /WindowsLatin1Encoding 125 FMSR

3641 2549 mt 
(SE = 5 J/m) s
%%IncludeResource: font Helvetica-Bold
/Helvetica-Bold /WindowsLatin1Encoding 100 FMSR

4269 2487 mt 
(2) s
gs 3316 2367 1119 642 rc
16.6667 w
250 0 3365 2483 2 MP stroke
gr

16.6667 w
%%IncludeResource: font Helvetica-Bold
/Helvetica-Bold /WindowsLatin1Encoding 125 FMSR

3641 2753 mt 
(SE = 15 J/m) s
%%IncludeResource: font Helvetica-Bold
/Helvetica-Bold /WindowsLatin1Encoding 100 FMSR

4339 2691 mt 
(2) s
gs 3316 2367 1119 642 rc
c8
250 0 3365 2687 2 MP stroke
gr

c8
0 sg
%%IncludeResource: font Helvetica-Bold
/Helvetica-Bold /WindowsLatin1Encoding 125 FMSR

3641 2957 mt 
(SE = 25 J/m) s
%%IncludeResource: font Helvetica-Bold
/Helvetica-Bold /WindowsLatin1Encoding 100 FMSR

4339 2895 mt 
(2) s
gs 3316 2367 1119 642 rc
c9
250 0 3365 2891 2 MP stroke
12.5 w
gr

12.5 w
c9

end %%Color Dict

eplot
%%EndObject

epage
end

showpage

%%Trailer
%%EOF
