%!PS-Adobe-3.0 EPSF-3.0
%%Creator: MATLAB, The MathWorks, Inc. Version 8.1.0.604 (R2013a). Operating System: Microsoft Windows 7.
%%Title: .\SE_Unconfined_Contacts_SameFill.eps
%%CreationDate: 08/17/2013  18:15:08
%%DocumentNeededFonts: Helvetica-Bold
%%+ Helvetica
%%DocumentProcessColors: Cyan Magenta Yellow Black
%%LanguageLevel: 2
%%Pages: 1
%%BoundingBox:    41    93   577   587
%%EndComments

%%BeginProlog
% MathWorks dictionary
/MathWorks 160 dict begin
% definition operators
/bdef {bind def} bind def
/ldef {load def} bind def
/xdef {exch def} bdef
/xstore {exch store} bdef
% operator abbreviations
/c  /clip ldef
/cc /concat ldef
/cp /closepath ldef
/gr /grestore ldef
/gs /gsave ldef
/mt /moveto ldef
/np /newpath ldef
/cm /currentmatrix ldef
/sm /setmatrix ldef
/rm /rmoveto ldef
/rl /rlineto ldef
/s {show newpath} bdef
/sc {setcmykcolor} bdef
/sr /setrgbcolor ldef
/sg /setgray ldef
/w /setlinewidth ldef
/j /setlinejoin ldef
/cap /setlinecap ldef
/rc {rectclip} bdef
/rf {rectfill} bdef
% page state control
/pgsv () def
/bpage {/pgsv save def} bdef
/epage {pgsv restore} bdef
/bplot /gsave ldef
/eplot {stroke grestore} bdef
% orientation switch
/portraitMode 0 def /landscapeMode 1 def /rotateMode 2 def
% coordinate system mappings
/dpi2point 0 def
% font control
/FontSize 0 def
/FMS {/FontSize xstore findfont [FontSize 0 0 FontSize neg 0 0]
  makefont setfont} bdef
/ISOLatin1Encoding where {pop /WindowsLatin1Encoding 256 array bdef
ISOLatin1Encoding WindowsLatin1Encoding copy pop
/.notdef/.notdef/quotesinglbase/florin/quotedblbase/ellipsis/dagger
/daggerdbl/circumflex/perthousand/Scaron/guilsinglleft/OE/.notdef/.notdef
/.notdef/.notdef/quoteleft/quoteright/quotedblleft/quotedblright/bullet
/endash/emdash/tilde/trademark/scaron/guilsinglright/oe/.notdef/.notdef
/Ydieresis WindowsLatin1Encoding 128 32 getinterval astore pop}
{/WindowsLatin1Encoding StandardEncoding bdef} ifelse
/reencode {exch dup where {pop load} {pop StandardEncoding} ifelse
  exch dup 3 1 roll findfont dup length dict begin
  { 1 index /FID ne {def}{pop pop} ifelse } forall
  /Encoding exch def currentdict end definefont pop} bdef
/isroman {findfont /CharStrings get /Agrave known} bdef
/FMSR {3 1 roll 1 index dup isroman {reencode} {pop pop} ifelse
  exch FMS} bdef
/csm {1 dpi2point div -1 dpi2point div scale neg translate
 dup landscapeMode eq {pop -90 rotate}
  {rotateMode eq {90 rotate} if} ifelse} bdef
% line types: solid, dotted, dashed, dotdash
/SO { [] 0 setdash } bdef
/DO { [.5 dpi2point mul 4 dpi2point mul] 0 setdash } bdef
/DA { [6 dpi2point mul] 0 setdash } bdef
/DD { [.5 dpi2point mul 4 dpi2point mul 6 dpi2point mul 4
  dpi2point mul] 0 setdash } bdef
% macros for lines and objects
/L {lineto stroke} bdef
/MP {3 1 roll moveto 1 sub {rlineto} repeat} bdef
/AP {{rlineto} repeat} bdef
/PDlw -1 def
/W {/PDlw currentlinewidth def setlinewidth} def
/PP {closepath eofill} bdef
/DP {closepath stroke} bdef
/MR {4 -2 roll moveto dup  0 exch rlineto exch 0 rlineto
  neg 0 exch rlineto closepath} bdef
/FR {MR stroke} bdef
/PR {MR fill} bdef
/L1i {{currentfile picstr readhexstring pop} image} bdef
/tMatrix matrix def
/MakeOval {newpath tMatrix currentmatrix pop translate scale
0 0 1 0 360 arc tMatrix setmatrix} bdef
/FO {MakeOval stroke} bdef
/PO {MakeOval fill} bdef
/PD {currentlinewidth 2 div 0 360 arc fill
   PDlw -1 eq not {PDlw w /PDlw -1 def} if} def
/FA {newpath tMatrix currentmatrix pop translate scale
  0 0 1 5 -2 roll arc tMatrix setmatrix stroke} bdef
/PA {newpath tMatrix currentmatrix pop	translate 0 0 moveto scale
  0 0 1 5 -2 roll arc closepath tMatrix setmatrix fill} bdef
/FAn {newpath tMatrix currentmatrix pop translate scale
  0 0 1 5 -2 roll arcn tMatrix setmatrix stroke} bdef
/PAn {newpath tMatrix currentmatrix pop translate 0 0 moveto scale
  0 0 1 5 -2 roll arcn closepath tMatrix setmatrix fill} bdef
/vradius 0 def /hradius 0 def /lry 0 def
/lrx 0 def /uly 0 def /ulx 0 def /rad 0 def
/MRR {/vradius xdef /hradius xdef /lry xdef /lrx xdef /uly xdef
  /ulx xdef newpath tMatrix currentmatrix pop ulx hradius add uly
  vradius add translate hradius vradius scale 0 0 1 180 270 arc 
  tMatrix setmatrix lrx hradius sub uly vradius add translate
  hradius vradius scale 0 0 1 270 360 arc tMatrix setmatrix
  lrx hradius sub lry vradius sub translate hradius vradius scale
  0 0 1 0 90 arc tMatrix setmatrix ulx hradius add lry vradius sub
  translate hradius vradius scale 0 0 1 90 180 arc tMatrix setmatrix
  closepath} bdef
/FRR {MRR stroke } bdef
/PRR {MRR fill } bdef
/MlrRR {/lry xdef /lrx xdef /uly xdef /ulx xdef /rad lry uly sub 2 div def
  newpath tMatrix currentmatrix pop ulx rad add uly rad add translate
  rad rad scale 0 0 1 90 270 arc tMatrix setmatrix lrx rad sub lry rad
  sub translate rad rad scale 0 0 1 270 90 arc tMatrix setmatrix
  closepath} bdef
/FlrRR {MlrRR stroke } bdef
/PlrRR {MlrRR fill } bdef
/MtbRR {/lry xdef /lrx xdef /uly xdef /ulx xdef /rad lrx ulx sub 2 div def
  newpath tMatrix currentmatrix pop ulx rad add uly rad add translate
  rad rad scale 0 0 1 180 360 arc tMatrix setmatrix lrx rad sub lry rad
  sub translate rad rad scale 0 0 1 0 180 arc tMatrix setmatrix
  closepath} bdef
/FtbRR {MtbRR stroke } bdef
/PtbRR {MtbRR fill } bdef
/stri 6 array def /dtri 6 array def
/smat 6 array def /dmat 6 array def
/tmat1 6 array def /tmat2 6 array def /dif 3 array def
/asub {/ind2 exch def /ind1 exch def dup dup
  ind1 get exch ind2 get sub exch } bdef
/tri_to_matrix {
  2 0 asub 3 1 asub 4 0 asub 5 1 asub
  dup 0 get exch 1 get 7 -1 roll astore } bdef
/compute_transform {
  dmat dtri tri_to_matrix tmat1 invertmatrix 
  smat stri tri_to_matrix tmat2 concatmatrix } bdef
/ds {stri astore pop} bdef
/dt {dtri astore pop} bdef
/db {2 copy /cols xdef /rows xdef mul dup 3 mul string
  currentfile 
  3 index 0 eq {/ASCIIHexDecode filter}
  {/ASCII85Decode filter 3 index 2 eq {/RunLengthDecode filter} if }
  ifelse exch readstring pop
  dup 0 3 index getinterval /rbmap xdef
  dup 2 index dup getinterval /gbmap xdef
  1 index dup 2 mul exch getinterval /bbmap xdef pop pop}bdef
/it {gs np dtri aload pop moveto lineto lineto cp c
  cols rows 8 compute_transform 
  rbmap gbmap bbmap true 3 colorimage gr}bdef
/il {newpath moveto lineto stroke}bdef
currentdict end def
%%EndProlog

%%BeginSetup
MathWorks begin

0 cap

end
%%EndSetup

%%Page: 1 1
%%BeginPageSetup
%%PageBoundingBox:    41    93   577   587
MathWorks begin
bpage
%%EndPageSetup

%%BeginObject: obj1
bplot

/dpi2point 8.33333 def
portraitMode 0150 5158 csm

  194   264  4472  4116 rc
84 dict begin %Colortable dictionary
/c0 { 0.000000 0.000000 0.000000 sr} bdef
/c1 { 1.000000 1.000000 1.000000 sr} bdef
/c2 { 0.900000 0.000000 0.000000 sr} bdef
/c3 { 0.000000 0.820000 0.000000 sr} bdef
/c4 { 0.000000 0.000000 0.800000 sr} bdef
/c5 { 0.910000 0.820000 0.320000 sr} bdef
/c6 { 1.000000 0.260000 0.820000 sr} bdef
/c7 { 0.000000 0.820000 0.820000 sr} bdef
c0
1 j
1 sg
   0    0 5001 5001 rf
12.5 w
0 3500 3750 0 0 -3500 750 4000 4 MP
PP
-3750 0 0 3500 3750 0 0 -3500 750 4000 5 MP stroke
gs 750 500 3751 3501 rc
16.6667 w
0 sg
9 2 9 -1 8 -1 9 -4 9 4 9 7 8 -5 9 6 
9 5 9 3 8 4 9 2 9 -1 8 3 9 1 9 7 
9 2 8 5 9 9 9 2 9 -5 8 4 9 2 9 0 
8 -1 9 -1 9 7 9 6 8 1 9 -1 9 2 9 12 
8 -3 9 -4 9 5 8 14 9 2 9 1 9 1 8 10 
9 11 9 5 8 -4 9 5 9 3 9 14 8 -7 9 6 
9 0 9 4 8 10 9 0 9 5 8 -3 9 -2 9 8 
9 6 8 5 9 4 9 12 9 6 8 8 9 11 9 2 
8 -1 9 3 9 4 9 13 8 3 9 0 9 1 9 8 
8 4 9 6 9 15 8 7 9 3 9 -2 9 9 8 5 
9 -1 9 8 9 -5 8 3 9 10 9 12 8 5 9 -6 
9 6 9 1 8 0 9 -3 9 6 9 13 8 -1 9 5 
9 1 8 3 9 -4 9 16 9 1 8 5 9 7 9 7 
9 14 8 4 9 12 9 6 8 2 9 1 9 4 9 5 
8 7 9 0 9 5 9 3 8 1 9 3 9 -2 8 8 
9 5 9 0 9 1 8 2 9 2 9 4 9 5 8 17 
9 2 9 1 8 11 9 3 9 10 9 7 8 -1 9 9 
9 2 9 9 8 5 9 0 9 10 8 16 9 18 9 0 
9 8 8 5 9 -3 9 4 8 7 9 8 9 -2 9 1 
8 13 9 2 9 2 9 0 8 5 9 2 9 0 8 4 
9 7 9 6 9 10 8 5 9 12 9 8 9 6 8 5 
9 5 9 11 8 12 9 5 9 5 9 0 8 6 9 7 
9 4 9 12 8 8 9 -3 9 -3 8 13 9 6 9 5 
9 3 8 5 9 13 9 7 9 4 8 7 9 10 9 7 
8 3 9 1 9 7 9 4 8 13 9 16 9 1 9 11 
8 4 9 13 9 5 8 10 9 12 9 7 9 12 8 11 
9 11 9 11 9 9 8 7 9 4 9 4 8 6 9 5 
9 11 9 9 8 12 9 10 9 11 9 8 8 14 9 8 
9 7 8 11 9 10 9 3 9 10 8 4 9 9 9 12 
9 1 8 14 9 14 9 21 8 7 9 3 9 11 9 17 
8 14 9 12 9 7 8 16 9 18 9 15 9 14 8 6 
9 6 9 3 9 14 8 14 9 8 9 11 8 7 9 10 
9 19 9 20 8 4 9 9 9 10 9 13 8 14 9 0 
9 14 8 19 9 17 9 15 9 15 8 6 9 15 9 23 
9 15 8 10 9 21 9 15 8 18 9 16 9 22 9 17 
8 18 9 10 9 22 9 15 8 2 9 18 9 15 8 26 
9 18 9 19 9 9 8 7 9 7 9 18 9 9 8 8 
9 9 9 24 8 18 1751 1793 300 MP stroke
9 9 9 14 9 17 8 21 9 24 9 15 9 9 8 15 
9 17 9 14 8 22 9 21 9 16 9 17 8 19 9 21 
9 21 9 4 8 13 9 11 9 13 8 15 9 20 9 26 
9 30 8 7 9 26 9 17 9 13 8 20 9 9 9 25 
8 12 9 15 9 8 9 13 8 18 9 24 9 14 8 18 
9 17 9 6 9 19 8 6 9 4 9 8 9 6 8 13 
9 18 9 12 8 5 9 7 9 -4 9 -1 8 -2 9 3 
9 1 9 1 8 0 9 0 9 2 8 0 9 0 1201 1009 64 MP stroke
gr

16.6667 w
0 sg
0.1 sg
%%IncludeResource: font Helvetica-Bold
/Helvetica-Bold /WindowsLatin1Encoding 183.333 FMSR

2010 4322 mt 
(Vertical Strain) s
 387 3127 mt  -90 rotate
(Number of Contacts) s
90 rotate
gs 750 500 3751 3501 rc
/c8 { 1.000000 0.000000 0.000000 sr} bdef
c8
9 -1 9 5 8 6 9 6 9 4 8 -2 9 10 9 2 
9 4 8 4 9 -4 9 7 9 -5 8 0 9 7 9 -2 
8 -2 9 5 9 0 9 2 8 4 9 9 9 11 9 2 
8 2 9 -2 9 1 8 7 9 0 9 10 9 5 8 -1 
9 1 9 -1 8 3 9 4 9 -7 9 4 8 6 9 4 
9 5 9 3 8 -4 9 3 9 8 8 14 9 -1 9 6 
9 7 8 4 9 3 9 9 9 -1 8 3 9 8 9 10 
8 5 9 2 9 -8 9 0 8 -1 9 5 9 5 9 3 
8 0 9 10 9 1 8 14 9 4 9 0 9 0 8 1 
9 6 9 3 8 -3 9 3 9 2 9 1 8 6 9 -2 
9 3 9 16 8 1 9 3 9 4 8 -6 9 2 9 5 
9 -2 8 -1 9 7 9 13 9 4 8 11 9 9 9 1 
8 14 9 11 9 5 9 2 8 5 9 8 9 2 8 0 
9 6 9 7 9 5 8 5 9 2 9 8 9 7 8 8 
9 -5 9 3 8 1 9 6 9 0 9 4 8 -1 9 1 
9 6 9 4 8 3 9 1 9 11 8 11 9 12 9 0 
9 -1 8 6 9 3 9 13 9 5 8 2 9 7 9 -2 
8 9 9 5 9 3 9 4 8 2 9 2 9 9 8 3 
9 5 9 20 9 7 8 7 9 16 9 7 9 -4 8 7 
9 6 9 13 8 2 9 7 9 0 9 13 8 3 9 3 
9 13 9 12 8 -3 9 10 9 4 8 7 9 4 9 9 
9 13 8 9 9 4 9 3 9 1 8 7 9 2 9 4 
8 8 9 3 9 17 9 -1 8 -1 9 6 9 4 8 7 
9 10 9 2 9 0 8 7 9 7 9 -1 9 15 8 7 
9 2 9 5 8 5 9 6 9 7 9 2 8 7 9 7 
9 6 9 4 8 9 9 7 9 12 8 4 9 9 9 7 
9 5 8 1 9 12 9 10 8 8 9 11 9 10 9 10 
8 7 9 14 9 10 9 3 8 8 9 6 9 9 8 -2 
9 5 9 5 9 1 8 5 9 9 9 5 9 7 8 3 
9 2 9 8 8 6 9 9 9 16 9 -1 8 12 9 0 
9 18 9 19 8 4 9 1 9 4 8 27 9 15 9 23 
9 1 8 4 9 3 9 9 8 15 9 18 9 3 9 5 
8 10 9 12 9 13 9 12 8 -4 9 12 9 11 8 33 
9 18 9 12 9 11 8 7 9 17 9 14 9 5 8 13 
9 10 9 12 8 27 9 9 9 22 9 13 8 -1 9 1 
9 20 8 11 9 5 9 9 9 18 8 13 9 18 9 19 
9 12 8 8 9 12 9 22 8 8 9 26 9 13 9 15 
8 24 9 10 9 16 1759 1398 300 MP stroke
9 25 8 22 9 7 9 4 8 14 9 6 9 15 9 23 
8 11 9 12 9 15 9 -1 8 13 9 16 9 13 8 19 
9 3 9 9 9 14 8 9 9 4 9 19 8 10 9 12 
9 5 9 15 8 1 9 2 9 -2 9 6 8 5 9 9 
9 12 8 4 9 7 9 5 9 27 8 10 9 14 9 4 
9 4 8 10 9 0 9 6 8 5 9 2 9 5 9 10 
8 6 9 1 9 3 9 0 8 -1 9 2 9 -2 8 2 
9 5 9 -1 9 -1 8 1 9 0 9 1 8 0 1210 922 64 MP stroke
/c9 { 0.000000 0.000000 1.000000 sr} bdef
c9
9 2 9 10 8 7 9 7 9 -6 8 7 9 3 9 4 
9 -1 8 8 9 -1 9 4 9 5 8 4 9 3 9 9 
8 0 9 9 9 1 9 0 8 4 9 1 9 7 9 -3 
8 0 9 -3 9 0 8 1 9 1 9 8 9 4 8 2 
9 6 9 4 8 4 9 10 9 1 9 4 8 2 9 10 
9 13 9 0 8 -2 9 0 9 8 8 -6 9 -1 9 0 
9 2 8 -1 9 -4 9 -2 9 13 8 -1 9 3 9 8 
8 5 9 -9 9 0 9 0 8 10 9 4 9 16 9 1 
8 7 9 5 9 -6 8 5 9 7 9 0 9 9 8 -3 
9 3 9 2 8 7 9 9 9 7 9 5 8 13 9 11 
9 -3 9 3 8 -1 9 -5 9 1 8 -2 9 -7 9 2 
9 5 8 -6 9 -1 9 4 9 10 8 -1 9 14 9 1 
8 8 9 -1 9 16 9 0 8 1 9 3 9 12 8 16 
9 14 9 2 9 6 8 3 9 12 9 9 9 11 8 -3 
9 3 9 -6 8 8 9 4 9 7 9 3 8 13 9 3 
9 -3 9 0 8 8 9 1 9 11 8 7 9 -5 9 -2 
9 8 8 8 9 -2 9 2 9 5 8 10 9 7 9 11 
8 1 9 5 9 9 9 -6 8 -5 9 2 9 14 8 -2 
9 9 9 4 9 11 8 6 9 -5 9 -4 9 -5 8 5 
9 4 9 5 8 4 9 3 9 -7 9 10 8 4 9 1 
9 1 9 1 8 4 9 9 9 -4 8 10 9 9 9 6 
9 14 8 0 9 7 9 9 9 4 8 7 9 11 9 7 
8 5 9 7 9 2 9 9 8 15 9 6 9 2 8 6 
9 10 9 8 9 6 8 15 9 10 9 10 9 11 8 2 
9 9 9 10 8 8 9 8 9 2 9 2 8 0 9 8 
9 11 9 12 8 11 9 10 9 5 8 11 9 5 9 4 
9 8 8 4 9 5 9 0 8 9 9 3 9 15 9 13 
8 2 9 20 9 3 9 7 8 18 9 2 9 -2 8 17 
9 10 9 -1 9 5 8 7 9 7 9 10 9 9 8 8 
9 14 9 14 8 6 9 5 9 11 9 13 8 5 9 15 
9 5 9 14 8 6 9 8 9 2 8 0 9 -1 9 8 
9 14 8 6 9 16 9 8 8 25 9 9 9 13 9 13 
8 12 9 3 9 7 9 25 8 11 9 21 9 19 8 15 
9 14 9 -2 9 7 8 4 9 14 9 9 9 5 8 3 
9 6 9 5 8 13 9 14 9 8 9 12 8 12 9 15 
9 13 8 17 9 22 9 23 9 12 8 18 9 12 9 16 
9 14 8 7 9 3 9 -2 8 21 9 11 9 11 9 4 
8 18 9 9 9 1 1759 1204 300 MP stroke
9 23 8 6 9 -2 9 9 8 5 9 17 9 14 9 5 
8 8 9 13 9 3 9 3 8 4 9 6 9 11 8 11 
9 13 9 0 9 13 8 16 9 14 9 10 8 11 9 5 
9 7 9 17 8 6 9 4 9 3 9 0 8 -1 9 2 
9 9 8 14 9 2 9 -7 9 5 8 9 9 0 9 21 
9 -5 8 1 9 2 9 -2 8 2 9 0 9 8 9 3 
8 -2 9 1 9 2 9 -2 8 -1 9 -2 9 1 8 3 
9 0 9 1 9 0 8 0 9 0 9 3 8 0 1210 882 64 MP stroke
gr

c9
0 sg
%%IncludeResource: font Helvetica
/Helvetica /WindowsLatin1Encoding 83.3333 FMSR

 732 4037 mt 
( ) s
4483  536 mt 
( ) s
8.33333 w
DO
SO
12.5 w
0.1 sg
 750  500 mt 4500  500 L
 750 4000 mt 4500 4000 L
4500 4000 mt 4500  500 L
 750 4000 mt  750  500 L
 750 4000 mt 4500 4000 L
 750 4000 mt  750  500 L
 750 4000 mt  750 3943 L
 750  500 mt  750  556 L
%%IncludeResource: font Helvetica
/Helvetica /WindowsLatin1Encoding 133.333 FMSR

 544 4148 mt 
(-0.01) s
1218 4000 mt 1218 3943 L
1218  500 mt 1218  556 L
1181 4148 mt 
(0) s
1687 4000 mt 1687 3943 L
1687  500 mt 1687  556 L
1558 4148 mt 
(0.01) s
2156 4000 mt 2156 3943 L
2156  500 mt 2156  556 L
2027 4148 mt 
(0.02) s
2625 4000 mt 2625 3943 L
2625  500 mt 2625  556 L
2496 4148 mt 
(0.03) s
3093 4000 mt 3093 3943 L
3093  500 mt 3093  556 L
2964 4148 mt 
(0.04) s
3562 4000 mt 3562 3943 L
3562  500 mt 3562  556 L
3433 4148 mt 
(0.05) s
4031 4000 mt 4031 3943 L
4031  500 mt 4031  556 L
3902 4148 mt 
(0.06) s
4500 4000 mt 4500 3943 L
4500  500 mt 4500  556 L
4371 4148 mt 
(0.07) s
 750 4000 mt  806 4000 L
4500 4000 mt 4443 4000 L
 467 4049 mt 
(0.95) s
 750 3416 mt  806 3416 L
4500 3416 mt 4443 3416 L
 652 3465 mt 
(1) s
 750 2833 mt  806 2833 L
4500 2833 mt 4443 2833 L
 467 2882 mt 
(1.05) s
 750 2250 mt  806 2250 L
4500 2250 mt 4443 2250 L
 541 2299 mt 
(1.1) s
 750 1666 mt  806 1666 L
4500 1666 mt 4443 1666 L
 467 1715 mt 
(1.15) s
 750 1083 mt  806 1083 L
4500 1083 mt 4443 1083 L
 541 1132 mt 
(1.2) s
 750  500 mt  806  500 L
4500  500 mt 4443  500 L
 467  549 mt 
(1.25) s
 750  463 mt 
(x 10) s
%%IncludeResource: font Helvetica
/Helvetica /WindowsLatin1Encoding 88.8889 FMSR

1002  381 mt 
(4) s
 750  500 mt 4500  500 L
 750 4000 mt 4500 4000 L
4500 4000 mt 4500  500 L
 750 4000 mt  750  500 L
0 sg
%%IncludeResource: font Helvetica-Bold
/Helvetica-Bold /WindowsLatin1Encoding 125 FMSR

3641 1674 mt 
(SE = 5 J/m) s
%%IncludeResource: font Helvetica-Bold
/Helvetica-Bold /WindowsLatin1Encoding 100 FMSR

4269 1612 mt 
(2) s
gs 3316 1492 1119 642 rc
16.6667 w
250 0 3365 1608 2 MP stroke
gr

16.6667 w
%%IncludeResource: font Helvetica-Bold
/Helvetica-Bold /WindowsLatin1Encoding 125 FMSR

3641 1878 mt 
(SE = 15 J/m) s
%%IncludeResource: font Helvetica-Bold
/Helvetica-Bold /WindowsLatin1Encoding 100 FMSR

4339 1816 mt 
(2) s
gs 3316 1492 1119 642 rc
c8
250 0 3365 1812 2 MP stroke
gr

c8
0 sg
%%IncludeResource: font Helvetica-Bold
/Helvetica-Bold /WindowsLatin1Encoding 125 FMSR

3641 2082 mt 
(SE = 25 J/m) s
%%IncludeResource: font Helvetica-Bold
/Helvetica-Bold /WindowsLatin1Encoding 100 FMSR

4339 2020 mt 
(2) s
gs 3316 1492 1119 642 rc
c9
250 0 3365 2016 2 MP stroke
12.5 w
gr

12.5 w
c9

end %%Color Dict

eplot
%%EndObject

epage
end

showpage

%%Trailer
%%EOF
