%!PS-Adobe-3.0 EPSF-3.0
%%Creator: MATLAB, The MathWorks, Inc. Version 8.1.0.604 (R2013a). Operating System: Microsoft Windows 7.
%%Title: .\StaticF_ConfinedDensity_paired_vs_spherical.eps
%%CreationDate: 08/17/2013  17:30:36
%%DocumentNeededFonts: Helvetica-Bold
%%+ Helvetica
%%DocumentProcessColors: Cyan Magenta Yellow Black
%%LanguageLevel: 2
%%Pages: 1
%%BoundingBox:    30    88   565   572
%%EndComments

%%BeginProlog
% MathWorks dictionary
/MathWorks 160 dict begin
% definition operators
/bdef {bind def} bind def
/ldef {load def} bind def
/xdef {exch def} bdef
/xstore {exch store} bdef
% operator abbreviations
/c  /clip ldef
/cc /concat ldef
/cp /closepath ldef
/gr /grestore ldef
/gs /gsave ldef
/mt /moveto ldef
/np /newpath ldef
/cm /currentmatrix ldef
/sm /setmatrix ldef
/rm /rmoveto ldef
/rl /rlineto ldef
/s {show newpath} bdef
/sc {setcmykcolor} bdef
/sr /setrgbcolor ldef
/sg /setgray ldef
/w /setlinewidth ldef
/j /setlinejoin ldef
/cap /setlinecap ldef
/rc {rectclip} bdef
/rf {rectfill} bdef
% page state control
/pgsv () def
/bpage {/pgsv save def} bdef
/epage {pgsv restore} bdef
/bplot /gsave ldef
/eplot {stroke grestore} bdef
% orientation switch
/portraitMode 0 def /landscapeMode 1 def /rotateMode 2 def
% coordinate system mappings
/dpi2point 0 def
% font control
/FontSize 0 def
/FMS {/FontSize xstore findfont [FontSize 0 0 FontSize neg 0 0]
  makefont setfont} bdef
/ISOLatin1Encoding where {pop /WindowsLatin1Encoding 256 array bdef
ISOLatin1Encoding WindowsLatin1Encoding copy pop
/.notdef/.notdef/quotesinglbase/florin/quotedblbase/ellipsis/dagger
/daggerdbl/circumflex/perthousand/Scaron/guilsinglleft/OE/.notdef/.notdef
/.notdef/.notdef/quoteleft/quoteright/quotedblleft/quotedblright/bullet
/endash/emdash/tilde/trademark/scaron/guilsinglright/oe/.notdef/.notdef
/Ydieresis WindowsLatin1Encoding 128 32 getinterval astore pop}
{/WindowsLatin1Encoding StandardEncoding bdef} ifelse
/reencode {exch dup where {pop load} {pop StandardEncoding} ifelse
  exch dup 3 1 roll findfont dup length dict begin
  { 1 index /FID ne {def}{pop pop} ifelse } forall
  /Encoding exch def currentdict end definefont pop} bdef
/isroman {findfont /CharStrings get /Agrave known} bdef
/FMSR {3 1 roll 1 index dup isroman {reencode} {pop pop} ifelse
  exch FMS} bdef
/csm {1 dpi2point div -1 dpi2point div scale neg translate
 dup landscapeMode eq {pop -90 rotate}
  {rotateMode eq {90 rotate} if} ifelse} bdef
% line types: solid, dotted, dashed, dotdash
/SO { [] 0 setdash } bdef
/DO { [.5 dpi2point mul 4 dpi2point mul] 0 setdash } bdef
/DA { [6 dpi2point mul] 0 setdash } bdef
/DD { [.5 dpi2point mul 4 dpi2point mul 6 dpi2point mul 4
  dpi2point mul] 0 setdash } bdef
% macros for lines and objects
/L {lineto stroke} bdef
/MP {3 1 roll moveto 1 sub {rlineto} repeat} bdef
/AP {{rlineto} repeat} bdef
/PDlw -1 def
/W {/PDlw currentlinewidth def setlinewidth} def
/PP {closepath eofill} bdef
/DP {closepath stroke} bdef
/MR {4 -2 roll moveto dup  0 exch rlineto exch 0 rlineto
  neg 0 exch rlineto closepath} bdef
/FR {MR stroke} bdef
/PR {MR fill} bdef
/L1i {{currentfile picstr readhexstring pop} image} bdef
/tMatrix matrix def
/MakeOval {newpath tMatrix currentmatrix pop translate scale
0 0 1 0 360 arc tMatrix setmatrix} bdef
/FO {MakeOval stroke} bdef
/PO {MakeOval fill} bdef
/PD {currentlinewidth 2 div 0 360 arc fill
   PDlw -1 eq not {PDlw w /PDlw -1 def} if} def
/FA {newpath tMatrix currentmatrix pop translate scale
  0 0 1 5 -2 roll arc tMatrix setmatrix stroke} bdef
/PA {newpath tMatrix currentmatrix pop	translate 0 0 moveto scale
  0 0 1 5 -2 roll arc closepath tMatrix setmatrix fill} bdef
/FAn {newpath tMatrix currentmatrix pop translate scale
  0 0 1 5 -2 roll arcn tMatrix setmatrix stroke} bdef
/PAn {newpath tMatrix currentmatrix pop translate 0 0 moveto scale
  0 0 1 5 -2 roll arcn closepath tMatrix setmatrix fill} bdef
/vradius 0 def /hradius 0 def /lry 0 def
/lrx 0 def /uly 0 def /ulx 0 def /rad 0 def
/MRR {/vradius xdef /hradius xdef /lry xdef /lrx xdef /uly xdef
  /ulx xdef newpath tMatrix currentmatrix pop ulx hradius add uly
  vradius add translate hradius vradius scale 0 0 1 180 270 arc 
  tMatrix setmatrix lrx hradius sub uly vradius add translate
  hradius vradius scale 0 0 1 270 360 arc tMatrix setmatrix
  lrx hradius sub lry vradius sub translate hradius vradius scale
  0 0 1 0 90 arc tMatrix setmatrix ulx hradius add lry vradius sub
  translate hradius vradius scale 0 0 1 90 180 arc tMatrix setmatrix
  closepath} bdef
/FRR {MRR stroke } bdef
/PRR {MRR fill } bdef
/MlrRR {/lry xdef /lrx xdef /uly xdef /ulx xdef /rad lry uly sub 2 div def
  newpath tMatrix currentmatrix pop ulx rad add uly rad add translate
  rad rad scale 0 0 1 90 270 arc tMatrix setmatrix lrx rad sub lry rad
  sub translate rad rad scale 0 0 1 270 90 arc tMatrix setmatrix
  closepath} bdef
/FlrRR {MlrRR stroke } bdef
/PlrRR {MlrRR fill } bdef
/MtbRR {/lry xdef /lrx xdef /uly xdef /ulx xdef /rad lrx ulx sub 2 div def
  newpath tMatrix currentmatrix pop ulx rad add uly rad add translate
  rad rad scale 0 0 1 180 360 arc tMatrix setmatrix lrx rad sub lry rad
  sub translate rad rad scale 0 0 1 0 180 arc tMatrix setmatrix
  closepath} bdef
/FtbRR {MtbRR stroke } bdef
/PtbRR {MtbRR fill } bdef
/stri 6 array def /dtri 6 array def
/smat 6 array def /dmat 6 array def
/tmat1 6 array def /tmat2 6 array def /dif 3 array def
/asub {/ind2 exch def /ind1 exch def dup dup
  ind1 get exch ind2 get sub exch } bdef
/tri_to_matrix {
  2 0 asub 3 1 asub 4 0 asub 5 1 asub
  dup 0 get exch 1 get 7 -1 roll astore } bdef
/compute_transform {
  dmat dtri tri_to_matrix tmat1 invertmatrix 
  smat stri tri_to_matrix tmat2 concatmatrix } bdef
/ds {stri astore pop} bdef
/dt {dtri astore pop} bdef
/db {2 copy /cols xdef /rows xdef mul dup 3 mul string
  currentfile 
  3 index 0 eq {/ASCIIHexDecode filter}
  {/ASCII85Decode filter 3 index 2 eq {/RunLengthDecode filter} if }
  ifelse exch readstring pop
  dup 0 3 index getinterval /rbmap xdef
  dup 2 index dup getinterval /gbmap xdef
  1 index dup 2 mul exch getinterval /bbmap xdef pop pop}bdef
/it {gs np dtri aload pop moveto lineto lineto cp c
  cols rows 8 compute_transform 
  rbmap gbmap bbmap true 3 colorimage gr}bdef
/il {newpath moveto lineto stroke}bdef
currentdict end def
%%EndProlog

%%BeginSetup
MathWorks begin

0 cap

end
%%EndSetup

%%Page: 1 1
%%BeginPageSetup
%%PageBoundingBox:    30    88   565   572
MathWorks begin
bpage
%%EndPageSetup

%%BeginObject: obj1
bplot

/dpi2point 8.33333 def
portraitMode 0150 5158 csm

  106   390  4456  4030 rc
84 dict begin %Colortable dictionary
/c0 { 0.000000 0.000000 0.000000 sr} bdef
/c1 { 1.000000 1.000000 1.000000 sr} bdef
/c2 { 0.900000 0.000000 0.000000 sr} bdef
/c3 { 0.000000 0.820000 0.000000 sr} bdef
/c4 { 0.000000 0.000000 0.800000 sr} bdef
/c5 { 0.910000 0.820000 0.320000 sr} bdef
/c6 { 1.000000 0.260000 0.820000 sr} bdef
/c7 { 0.000000 0.820000 0.820000 sr} bdef
c0
1 j
1 sg
   0    0 5001 5001 rf
12.5 w
0 3500 3750 0 0 -3500 750 4000 4 MP
PP
-3750 0 0 3500 3750 0 0 -3500 750 4000 5 MP stroke
gs 750 500 3751 3501 rc
16.6667 w
0 sg
-824 5 -349 7 -290 7 -267 6 -235 7 -189 6 -149 7 -143 7 
-137 6 -102 7 -99 7 -110 7 -83 6 -78 7 -89 7 -65 7 
-77 6 -61 7 -71 7 -54 7 -69 7 -39 7 -39 6 -17 -6 
-13 -7 4 -7 4 -7 4 -7 5 -7 4 -6 4 -7 4 -7 
4 -7 4 -6 4 -7 3 -7 4 -7 4 -6 4 -7 5 -7 
4 -6 4 -7 5 -6 4 -7 5 -7 4 -6 4 -7 5 -6 
5 -7 4 -6 4 -7 5 -6 4 -7 4 -6 5 -7 6 -6 
4 -7 5 -6 4 -6 4 -7 5 -6 5 -7 5 -6 5 -6 
5 -7 4 -6 4 -6 5 -7 4 -6 3 -6 4 -6 4 -7 
4 -6 4 -6 6 -6 5 -7 4 -6 5 -6 4 -6 4 -6 
5 -6 6 -6 6 -7 6 -6 5 -6 3 -6 4 -6 5 -6 
5 -6 6 -6 7 -6 5 -6 5 -6 4 -6 4 -6 5 -6 
5 -6 6 -6 7 -6 6 -6 5 -6 5 -6 4 -5 4 -6 
5 -6 5 -6 6 -6 5 -6 5 -6 4 -5 5 -6 6 -6 
6 -6 6 -5 7 -6 6 -6 4 -6 5 -5 5 -6 6 -6 
6 -6 7 -5 7 -6 5 -6 5 -5 5 -6 6 -5 7 -6 
5 -6 6 -5 5 -6 4 -5 4 -6 6 -6 6 -5 6 -6 
5 -5 4 -6 5 -5 5 -6 4 -5 4 -6 7 -5 8 -6 
7 -5 7 -5 8 -6 6 -5 3 -6 4 -5 4 -6 4 -5 
4 -5 6 -6 6 -5 7 -5 6 -6 7 -5 7 -5 6 -6 
5 -5 5 -5 4 -5 5 -6 5 -5 6 -5 6 -5 6 -6 
6 -5 6 -5 6 -5 6 -5 7 -6 7 -5 8 -5 7 -5 
7 -5 4 -5 4 -6 4 -5 5 -5 6 -5 8 -5 8 -5 
9 -5 6 -5 6 -5 6 -5 4 -5 4 -5 6 -5 6 -5 
7 -5 8 -5 9 -5 7 -5 6 -5 6 -5 3 -5 3 -5 
4 -5 5 -5 6 -5 10 -5 9 -5 9 -5 7 -4 5 -5 
4 -5 5 -5 6 -5 7 -5 7 -5 6 -4 7 -5 7 -5 
7 -5 10 -5 10 -4 10 -5 9 -5 9 -5 8 -4 7 -5 
7 -5 9 -5 8 -4 10 -5 10 -5 10 -4 7 -5 8 -5 
6 -4 5 -5 8 -5 9 -4 11 -5 14 -5 14 -4 9 -5 
9 -5 6 -4 4 -5 4 -4 6 -5 5 -4 4 -5 6 -5 
7 -4 7 -5 9 -4 8 -5 10 -4 11 -5 12 -4 12 -5 
14 -4 13 -5 13 -4 13 -5 11 -4 9 -5 8 -4 7 -4 
5 -5 5 -4 4 -5 5 -4 5 -5 6 -4 8 -4 11 -5 
11 -4 14 -4 16 -5 16 -4 13 -4 13 -5 13 -4 11 -4 
12 -5 14 -4 16 -4 17 -5 17 -4 17 -4 17 -5 14 -4 
15 -4 14 -4 16 -5 14 -4 11 -4 10 -4 10 -4 7 -5 
11 -4 13 -4 14 -4 2548 2238 300 MP stroke
18 -4 23 -5 26 -4 28 -4 36 -4 37 -4 41 -4 33 -5 
26 -4 15 -4 10 -4 7 -4 11 -4 21 -4 28 -4 34 -4 
38 -5 45 -4 57 -4 69 -4 73 -4 78 -4 88 -4 91 -4 
96 -4 108 -4 88 -4 71 -4 52 -4 -1 -4 -40 -4 -42 -4 
-38 -4 -32 -4 10 -4 45 -4 83 -4 93 -4 108 -4 76 -4 
60 -4 74 -4 54 -1 750 2410 44 MP stroke
gr

16.6667 w
0 sg
0.1 sg
%%IncludeResource: font Helvetica-Bold
/Helvetica-Bold /WindowsLatin1Encoding 183.333 FMSR

1903 4362 mt 
(Log Stress [kPa]) s
 350 3181 mt  -90 rotate
(Bulk Density [kgm) s
90 rotate
%%IncludeResource: font Helvetica-Bold
/Helvetica-Bold /WindowsLatin1Encoding 141.667 FMSR

 259 1582 mt  -90 rotate
(-) s
90 rotate
 259 1500 mt  -90 rotate
(3) s
90 rotate
%%IncludeResource: font Helvetica-Bold
/Helvetica-Bold /WindowsLatin1Encoding 183.333 FMSR

 350 1422 mt  -90 rotate
( ]) s
90 rotate
gs 750 500 3751 3501 rc
/c8 { 1.000000 0.000000 0.000000 sr} bdef
c8
-751 4 -373 6 -294 6 -234 6 -195 6 -174 7 -159 6 -139 6 
-120 6 -111 6 -107 6 -92 6 -80 6 -86 6 -79 7 -63 6 
-73 6 -68 6 -55 6 -67 6 -54 7 -61 6 -53 6 -60 6 
-39 7 -35 6 -15 -6 -12 -7 4 -6 4 -6 5 -6 4 -7 
6 -6 3 -6 4 -6 4 -6 4 -6 4 -7 5 -6 4 -6 
4 -6 4 -6 4 -6 5 -6 5 -6 5 -6 4 -7 5 -6 
4 -6 6 -6 5 -6 6 -6 4 -6 5 -6 4 -6 5 -5 
5 -6 5 -6 5 -6 5 -6 4 -6 5 -6 5 -6 6 -6 
5 -6 6 -5 5 -6 5 -6 5 -6 5 -6 5 -5 5 -6 
6 -6 5 -6 5 -5 5 -6 4 -6 5 -6 5 -5 5 -6 
5 -6 6 -5 4 -6 4 -6 5 -5 5 -6 6 -6 6 -5 
5 -6 4 -5 4 -6 2 -5 3 -6 5 -6 5 -5 6 -6 
6 -5 6 -6 7 -5 4 -6 5 -5 5 -6 4 -5 5 -5 
6 -6 6 -5 6 -6 5 -5 5 -6 4 -5 6 -5 5 -6 
6 -5 7 -5 7 -6 6 -5 5 -5 5 -6 5 -5 4 -5 
6 -6 7 -5 7 -5 6 -5 6 -6 6 -5 4 -5 4 -5 
6 -5 6 -6 6 -5 6 -5 8 -5 5 -5 6 -5 6 -6 
6 -5 5 -5 7 -5 7 -5 6 -5 6 -5 5 -5 7 -5 
8 -6 8 -5 7 -5 7 -5 6 -5 4 -5 4 -5 4 -5 
3 -5 3 -5 4 -5 6 -5 9 -5 9 -5 9 -4 7 -5 
5 -5 4 -5 3 -5 4 -5 4 -5 6 -5 8 -5 8 -5 
8 -4 9 -5 7 -5 5 -5 5 -5 4 -5 5 -4 5 -5 
7 -5 8 -5 9 -5 9 -4 8 -5 6 -5 6 -5 4 -4 
6 -5 5 -5 5 -5 6 -4 8 -5 9 -5 10 -4 12 -5 
13 -5 11 -4 8 -5 7 -5 4 -4 1 -5 2 -4 4 -5 
3 -5 4 -4 5 -5 4 -4 5 -5 8 -5 9 -4 9 -5 
8 -4 8 -5 8 -4 6 -5 7 -4 8 -5 5 -4 5 -5 
3 -4 3 -5 4 -4 6 -5 7 -4 10 -5 13 -4 12 -4 
12 -5 11 -4 7 -5 5 -4 5 -5 3 -4 5 -4 6 -5 
6 -4 8 -4 9 -5 8 -4 8 -4 8 -5 7 -4 6 -4 
7 -5 10 -4 10 -4 11 -5 10 -4 8 -4 7 -5 6 -4 
7 -4 7 -4 9 -5 9 -4 10 -4 9 -4 8 -4 8 -5 
8 -4 7 -4 7 -4 9 -4 8 -5 9 -4 9 -4 10 -4 
9 -4 9 -4 9 -5 9 -4 10 -4 11 -4 13 -4 14 -4 
13 -4 12 -4 11 -4 7 -4 3 -5 1 -4 1 -4 1 -4 
4 -4 6 -4 5 -4 5 -4 8 -4 9 -4 9 -4 9 -4 
13 -4 14 -4 14 -4 17 -4 14 -4 13 -4 14 -4 14 -4 
12 -4 16 -4 15 -4 2626 2369 300 MP stroke
12 -4 9 -3 12 -4 15 -4 16 -4 16 -4 14 -4 11 -4 
8 -4 5 -4 5 -4 7 -3 11 -4 15 -4 14 -4 13 -4 
12 -4 12 -3 15 -4 15 -4 21 -4 26 -4 29 -4 28 -3 
31 -4 38 -4 37 -4 39 -3 35 -4 32 -4 22 -4 17 -4 
16 -3 23 -4 31 -4 41 -3 55 -4 70 -4 70 -4 73 -3 
73 -4 63 -4 50 -3 51 -4 49 -4 32 -3 26 -4 23 -4 
20 -3 9 -4 25 -4 10 -3 10 -4 41 -4 66 -3 96 -4 
166 -3 95 -2 750 2585 59 MP stroke
/c9 { 0.000000 0.000000 1.000000 sr} bdef
c9
-345 1 -395 7 -346 6 -287 6 -233 6 -187 6 -158 6 -139 6 
-125 6 -112 7 -100 6 -94 6 -93 6 -82 6 -75 7 -78 6 
-73 6 -62 6 -68 7 -64 6 -57 6 -63 7 -53 6 -57 6 
-50 7 -54 6 -46 7 -56 6 -37 6 -30 7 -16 -7 -10 -6 
4 -6 4 -7 4 -6 3 -7 4 -6 5 -6 4 -7 4 -6 
4 -6 4 -7 2 -6 4 -6 4 -6 5 -7 4 -6 4 -6 
6 -6 5 -6 4 -7 2 -6 3 -6 3 -6 2 -6 3 -6 
5 -6 4 -6 6 -7 3 -6 4 -6 4 -6 4 -6 2 -6 
4 -6 4 -6 4 -6 4 -6 3 -6 4 -6 4 -5 4 -6 
4 -6 4 -6 4 -6 3 -6 4 -6 4 -6 4 -5 4 -6 
3 -6 3 -6 4 -6 5 -5 4 -6 5 -6 4 -6 4 -5 
3 -6 4 -6 5 -5 4 -6 5 -6 4 -5 5 -6 5 -6 
4 -5 4 -6 6 -5 4 -6 4 -6 5 -5 4 -6 4 -5 
4 -6 5 -5 6 -6 4 -5 3 -6 3 -5 4 -6 1 -5 
4 -6 4 -5 3 -5 4 -6 4 -5 3 -6 3 -5 4 -5 
4 -6 4 -5 4 -5 4 -6 5 -5 5 -5 5 -6 4 -5 
4 -5 3 -5 3 -6 2 -5 5 -5 5 -5 5 -6 5 -5 
5 -5 5 -5 5 -5 6 -5 5 -6 5 -5 6 -5 5 -5 
4 -5 2 -5 4 -5 3 -5 3 -5 5 -6 5 -5 5 -5 
5 -5 2 -5 2 -5 2 -5 3 -5 3 -5 5 -5 4 -5 
4 -5 4 -5 4 -4 5 -5 4 -5 4 -5 4 -5 5 -5 
4 -5 5 -5 5 -5 5 -4 6 -5 5 -5 5 -5 6 -5 
5 -5 6 -4 8 -5 6 -5 4 -5 3 -5 3 -4 2 -5 
3 -5 5 -4 5 -5 5 -5 5 -5 3 -4 4 -5 4 -5 
6 -4 3 -5 5 -5 6 -4 4 -5 4 -5 5 -4 5 -5 
5 -4 6 -5 6 -5 4 -4 3 -5 4 -4 3 -5 4 -4 
7 -5 8 -4 8 -5 7 -4 6 -5 5 -4 5 -5 6 -4 
4 -5 4 -4 6 -5 5 -4 0 -5 3 -4 3 -5 3 -4 
2 -4 3 -5 5 -4 5 -5 5 -4 6 -4 6 -5 6 -4 
6 -4 5 -5 6 -4 5 -4 6 -5 7 -4 9 -4 8 -5 
5 -4 5 -4 4 -4 2 -5 2 -4 5 -4 6 -4 5 -5 
4 -4 5 -4 5 -4 3 -4 4 -5 7 -4 6 -4 6 -4 
5 -4 3 -4 1 -5 2 -4 2 -4 3 -4 5 -4 5 -4 
6 -4 6 -4 6 -5 5 -4 3 -4 5 -4 6 -4 5 -4 
6 -4 7 -4 2 -4 0 -4 2 -4 0 -8 3 -4 4 -4 
4 -4 6 -4 5 -4 7 -4 7 -4 6 -4 4 -4 5 -4 
5 -4 7 -4 6 -4 7 -4 5 -4 3 -3 3 -4 2 -4 
4 -4 4 -4 3 -4 3235 2874 300 MP stroke
1 -4 0 -4 2 -3 3 -4 6 -4 7 -4 8 -4 8 -4 
8 -3 7 -4 9 -4 7 -4 5 -4 5 -3 3 -4 3 -4 
2 -4 2 -3 2 -4 2 -4 3 -4 3 -3 7 -4 9 -4 
9 -4 9 -3 9 -4 5 -4 4 -3 7 -4 5 -4 6 -3 
8 -4 6 -4 4 -3 3 -4 3 -4 2 -3 4 -4 2 -4 
4 -3 6 -4 7 -3 7 -4 6 -4 6 -3 3 -4 4 -3 
3 -4 5 -3 3 -4 4 -4 4 -3 4 -4 5 -3 6 -4 
4 -3 5 -4 7 -3 7 -4 7 -3 8 -4 8 -3 8 -4 
5 -3 8 -4 6 -3 4 -4 4 -3 4 -4 2 -3 3 -3 
2 -4 4 -3 7 -4 11 -3 8 -4 8 -3 11 -3 8 -4 
3 -3 8 -4 7 -3 6 -3 3 -4 1 -3 2 -4 1 -3 
2 -3 4 -4 8 -3 10 -3 9 -4 8 -3 7 -3 5 -4 
1 -3 4 -3 2 -3 2 -4 2 -3 6 -3 6 -4 4 -3 
4 -3 1 -3 -1 -4 -2 -3 -1 -3 2 -3 4 -4 8 -3 
7 -3 10 -3 9 -4 7 -3 8 -3 6 -3 5 -3 7 -4 
7 -3 6 -3 6 -3 4 -3 4 -4 5 -3 6 -3 5 -3 
5 -3 4 -3 2 -3 -1 -4 -1 -3 0 -6 2 -3 8 -3 
12 -3 14 -3 13 -4 10 -3 8 -3 7 -3 3 -3 4 -3 
2 -3 2 -3 3 -3 5 -3 3 -3 4 -3 5 -3 3 -3 
4 -4 10 -3 11 -3 10 -3 8 -3 5 -3 3 -3 4 -3 
5 -3 6 -3 7 -3 7 -3 5 -3 5 -3 8 -3 8 -3 
7 -3 6 -2 6 -3 3 -3 0 -3 -3 -3 0 -3 2 -3 
0 -3 4 -3 6 -3 4 -3 -1 -3 0 -3 -2 -3 -1 -3 
1 -2 6 -3 7 -3 9 -3 10 -3 9 -3 5 -3 9 -3 
9 -2 6 -3 8 -3 7 -3 7 -3 10 -3 7 -3 10 -2 
13 -3 11 -3 7 -3 12 -3 9 -3 8 -2 7 -3 6 -3 
6 -3 5 -3 2 -2 1 -3 -1 -3 -1 -3 -2 -2 3 -3 
7 -3 6 -3 4 -3 4 -2 1 -3 -1 -3 1 -3 5 -2 
12 -3 18 -3 22 -2 23 -3 19 -3 17 -3 15 -2 12 -3 
12 -3 17 -2 15 -3 14 -3 10 -3 10 -2 11 -3 7 -3 
-1 -2 -4 -3 -1 -3 0 -2 -1 -3 5 -3 14 -2 12 -3 
4 -3 10 -2 12 -3 9 -2 5 -3 5 -3 6 -2 4 -3 
1 -3 5 -2 6 -3 6 -2 12 -3 19 -3 28 -2 40 -3 
45 -2 38 -3 40 -3 54 -2 44 -3 44 -2 49 -3 53 -2 
38 -3 56 -3 71 -2 126 -3 160 -2 98 -1 750 3747 279 MP stroke
/c10 { 1.000000 0.000000 1.000000 sr} bdef
c10
-620 3 -402 6 -339 6 -280 6 -226 5 -179 6 -151 6 -138 6 
-128 6 -109 6 -99 6 -103 5 -95 6 -77 6 -87 6 -83 6 
-67 6 -80 6 -64 6 -72 6 -60 6 -70 6 -44 6 -40 6 
-18 -6 -11 -6 5 -6 6 -6 5 -6 5 -6 5 -6 6 -6 
5 -6 6 -6 6 -6 6 -6 6 -5 6 -6 6 -6 5 -6 
6 -6 5 -6 4 -6 5 -5 6 -6 5 -6 6 -6 6 -5 
6 -6 5 -6 6 -6 6 -5 5 -6 5 -6 6 -6 6 -5 
5 -6 7 -6 6 -5 5 -6 5 -5 6 -6 6 -6 6 -5 
6 -6 6 -5 6 -6 6 -6 7 -5 6 -6 6 -5 6 -6 
6 -5 6 -6 7 -5 6 -6 7 -5 6 -6 6 -5 6 -5 
6 -6 6 -5 6 -6 7 -5 6 -6 5 -5 6 -5 5 -6 
6 -5 6 -5 7 -6 8 -5 6 -5 6 -6 6 -5 6 -5 
7 -5 7 -6 8 -5 7 -5 6 -5 6 -6 5 -5 7 -5 
9 -5 10 -5 9 -6 7 -5 6 -5 5 -5 6 -5 7 -5 
9 -6 11 -5 12 -5 10 -5 6 -5 4 -5 4 -5 2 -5 
4 -5 8 -5 9 -5 9 -5 8 -5 7 -5 6 -5 5 -5 
6 -5 7 -5 8 -5 8 -5 8 -5 8 -5 7 -5 7 -5 
8 -5 7 -5 8 -5 9 -5 9 -5 10 -5 9 -4 10 -5 
11 -5 10 -5 10 -5 8 -5 7 -4 6 -5 5 -5 5 -5 
6 -5 7 -4 6 -5 8 -5 8 -5 10 -4 11 -5 10 -5 
9 -5 9 -4 8 -5 8 -5 8 -5 9 -4 10 -5 12 -5 
14 -4 13 -5 14 -5 12 -4 10 -5 7 -4 5 -5 4 -5 
4 -4 4 -5 5 -4 6 -5 8 -5 9 -4 12 -5 13 -4 
14 -5 14 -4 15 -5 15 -4 9 -5 5 -4 3 -5 1 -4 
1 -5 4 -4 8 -5 10 -4 11 -5 11 -4 11 -5 10 -4 
9 -4 9 -5 9 -4 11 -5 12 -4 14 -4 15 -5 15 -4 
15 -5 16 -4 14 -4 11 -5 10 -4 10 -4 9 -5 10 -4 
11 -4 8 -5 8 -4 6 -4 4 -4 4 -5 6 -4 8 -4 
8 -4 11 -5 11 -4 12 -4 14 -4 16 -5 18 -4 18 -4 
19 -4 20 -4 18 -5 17 -4 15 -4 13 -4 8 -4 7 -5 
4 -4 5 -4 4 -4 5 -4 5 -4 6 -4 5 -4 4 -5 
5 -4 7 -4 10 -4 13 -4 17 -4 19 -4 22 -4 26 -4 
28 -4 30 -4 34 -4 35 -4 32 -4 31 -4 28 -4 18 -4 
12 -4 10 -4 9 -4 8 -4 10 -4 12 -4 16 -4 21 -4 
27 -4 31 -4 38 -4 43 -4 43 -4 46 -4 54 -4 61 -4 
72 -4 87 -3 108 -4 118 -4 125 -4 132 -4 128 -4 110 -4 
123 -4 89 -2 750 2406 291 MP stroke
gr

c10
0 sg
%%IncludeResource: font Helvetica
/Helvetica /WindowsLatin1Encoding 83.3333 FMSR

 738 4031 mt 
( ) s
4489  530 mt 
( ) s
8.33333 w
DO
SO
12.5 w
0.1 sg
 750  500 mt 4500  500 L
 750 4000 mt 4500 4000 L
4500 4000 mt 4500  500 L
 750 4000 mt  750  500 L
 750 4000 mt 4500 4000 L
 750 4000 mt  750  500 L
 750 4000 mt  750 3971 L
 750  500 mt  750  528 L
 750 4000 mt  750 3943 L
 750  500 mt  750  556 L
%%IncludeResource: font Helvetica
/Helvetica /WindowsLatin1Encoding 133.333 FMSR

 626 4188 mt 
(10) s
%%IncludeResource: font Helvetica
/Helvetica /WindowsLatin1Encoding 88.8889 FMSR

 774 4106 mt 
(-1) s
1116 4000 mt 1116 3971 L
1116  500 mt 1116  528 L
1331 4000 mt 1331 3971 L
1331  500 mt 1331  528 L
1483 4000 mt 1483 3971 L
1483  500 mt 1483  528 L
1601 4000 mt 1601 3971 L
1601  500 mt 1601  528 L
1697 4000 mt 1697 3971 L
1697  500 mt 1697  528 L
1779 4000 mt 1779 3971 L
1779  500 mt 1779  528 L
1849 4000 mt 1849 3971 L
1849  500 mt 1849  528 L
1912 4000 mt 1912 3971 L
1912  500 mt 1912  528 L
1967 4000 mt 1967 3971 L
1967  500 mt 1967  528 L
1967 4000 mt 1967 3943 L
1967  500 mt 1967  556 L
%%IncludeResource: font Helvetica
/Helvetica /WindowsLatin1Encoding 133.333 FMSR

1869 4188 mt 
(10) s
%%IncludeResource: font Helvetica
/Helvetica /WindowsLatin1Encoding 88.8889 FMSR

2017 4106 mt 
(0) s
2334 4000 mt 2334 3971 L
2334  500 mt 2334  528 L
2548 4000 mt 2548 3971 L
2548  500 mt 2548  528 L
2701 4000 mt 2701 3971 L
2701  500 mt 2701  528 L
2819 4000 mt 2819 3971 L
2819  500 mt 2819  528 L
2915 4000 mt 2915 3971 L
2915  500 mt 2915  528 L
2997 4000 mt 2997 3971 L
2997  500 mt 2997  528 L
3067 4000 mt 3067 3971 L
3067  500 mt 3067  528 L
3129 4000 mt 3129 3971 L
3129  500 mt 3129  528 L
3185 4000 mt 3185 3971 L
3185  500 mt 3185  528 L
3185 4000 mt 3185 3943 L
3185  500 mt 3185  556 L
%%IncludeResource: font Helvetica
/Helvetica /WindowsLatin1Encoding 133.333 FMSR

3087 4188 mt 
(10) s
%%IncludeResource: font Helvetica
/Helvetica /WindowsLatin1Encoding 88.8889 FMSR

3235 4106 mt 
(1) s
3552 4000 mt 3552 3971 L
3552  500 mt 3552  528 L
3766 4000 mt 3766 3971 L
3766  500 mt 3766  528 L
3918 4000 mt 3918 3971 L
3918  500 mt 3918  528 L
4036 4000 mt 4036 3971 L
4036  500 mt 4036  528 L
4133 4000 mt 4133 3971 L
4133  500 mt 4133  528 L
4214 4000 mt 4214 3971 L
4214  500 mt 4214  528 L
4285 4000 mt 4285 3971 L
4285  500 mt 4285  528 L
4347 4000 mt 4347 3971 L
4347  500 mt 4347  528 L
4403 4000 mt 4403 3971 L
4403  500 mt 4403  528 L
4403 4000 mt 4403 3943 L
4403  500 mt 4403  556 L
%%IncludeResource: font Helvetica
/Helvetica /WindowsLatin1Encoding 133.333 FMSR

4305 4188 mt 
(10) s
%%IncludeResource: font Helvetica
/Helvetica /WindowsLatin1Encoding 88.8889 FMSR

4453 4106 mt 
(2) s
 750 4000 mt  806 4000 L
4500 4000 mt 4443 4000 L
%%IncludeResource: font Helvetica
/Helvetica /WindowsLatin1Encoding 133.333 FMSR

 430 4049 mt 
(1500) s
 750 2833 mt  806 2833 L
4500 2833 mt 4443 2833 L
 430 2882 mt 
(2000) s
 750 1666 mt  806 1666 L
4500 1666 mt 4443 1666 L
 430 1715 mt 
(2500) s
 750  500 mt  806  500 L
4500  500 mt 4443  500 L
 430  549 mt 
(3000) s
 750  500 mt 4500  500 L
 750 4000 mt 4500 4000 L
4500 4000 mt 4500  500 L
 750 4000 mt  750  500 L
0 sg
%%IncludeResource: font Symbol
/Symbol /WindowsLatin1Encoding 125 FMSR

3151 3210 mt 
(m) s
%%IncludeResource: font Helvetica-Bold
/Helvetica-Bold /WindowsLatin1Encoding 100 FMSR

3223 3272 mt 
(s) s
%%IncludeResource: font Helvetica-Bold
/Helvetica-Bold /WindowsLatin1Encoding 125 FMSR

3278 3210 mt 
( = 0.5 - P) s
%%IncludeResource: font Helvetica-Bold
/Helvetica-Bold /WindowsLatin1Encoding 100 FMSR

3820 3272 mt 
(A) s
3892 3272 mt 
(R) s
%%IncludeResource: font Helvetica-Bold
/Helvetica-Bold /WindowsLatin1Encoding 125 FMSR

3964 3210 mt 
( = 1.0) s
gs 2828 3066 1632 895 rc
16.6667 w
248 0 2877 3188 2 MP stroke
gr

16.6667 w
%%IncludeResource: font Symbol
/Symbol /WindowsLatin1Encoding 125 FMSR

3151 3426 mt 
(m) s
%%IncludeResource: font Helvetica-Bold
/Helvetica-Bold /WindowsLatin1Encoding 100 FMSR

3223 3488 mt 
(s) s
%%IncludeResource: font Helvetica-Bold
/Helvetica-Bold /WindowsLatin1Encoding 125 FMSR

3278 3426 mt 
( = 0.5 - P) s
%%IncludeResource: font Helvetica-Bold
/Helvetica-Bold /WindowsLatin1Encoding 100 FMSR

3820 3488 mt 
(A) s
3892 3488 mt 
(R) s
%%IncludeResource: font Helvetica-Bold
/Helvetica-Bold /WindowsLatin1Encoding 125 FMSR

3964 3426 mt 
( = 1.5) s
gs 2828 3066 1632 895 rc
c8
248 0 2877 3404 2 MP stroke
gr

c8
0 sg
%%IncludeResource: font Symbol
/Symbol /WindowsLatin1Encoding 125 FMSR

3151 3643 mt 
(m) s
%%IncludeResource: font Helvetica-Bold
/Helvetica-Bold /WindowsLatin1Encoding 100 FMSR

3223 3705 mt 
(s) s
%%IncludeResource: font Helvetica-Bold
/Helvetica-Bold /WindowsLatin1Encoding 125 FMSR

3278 3643 mt 
( = 0.5 - P) s
%%IncludeResource: font Helvetica-Bold
/Helvetica-Bold /WindowsLatin1Encoding 100 FMSR

3820 3705 mt 
(A) s
3892 3705 mt 
(R) s
%%IncludeResource: font Helvetica-Bold
/Helvetica-Bold /WindowsLatin1Encoding 125 FMSR

3964 3643 mt 
( = 2 \(2p\)) s
gs 2828 3066 1632 895 rc
c9
248 0 2877 3621 2 MP stroke
gr

c9
0 sg
%%IncludeResource: font Symbol
/Symbol /WindowsLatin1Encoding 125 FMSR

3151 3859 mt 
(m) s
%%IncludeResource: font Helvetica-Bold
/Helvetica-Bold /WindowsLatin1Encoding 100 FMSR

3223 3921 mt 
(s) s
%%IncludeResource: font Helvetica-Bold
/Helvetica-Bold /WindowsLatin1Encoding 125 FMSR

3278 3859 mt 
( = 0.5 - P) s
%%IncludeResource: font Helvetica-Bold
/Helvetica-Bold /WindowsLatin1Encoding 100 FMSR

3820 3921 mt 
(A) s
3892 3921 mt 
(R) s
%%IncludeResource: font Helvetica-Bold
/Helvetica-Bold /WindowsLatin1Encoding 125 FMSR

3964 3859 mt 
( = 2 \(3p\)) s
gs 2828 3066 1632 895 rc
c10
248 0 2877 3837 2 MP stroke
12.5 w
gr

12.5 w
c10

end %%Color Dict

eplot
%%EndObject

epage
end

showpage

%%Trailer
%%EOF
