%!PS-Adobe-3.0 EPSF-3.0
%%Creator: MATLAB, The MathWorks, Inc. Version 8.1.0.604 (R2013a). Operating System: Microsoft Windows 7.
%%Title: .\StaticF_Confined_StressStain_paired_spherical.eps
%%CreationDate: 08/17/2013  17:30:34
%%DocumentNeededFonts: Helvetica-Bold
%%+ Helvetica
%%DocumentProcessColors: Cyan Magenta Yellow Black
%%LanguageLevel: 2
%%Pages: 1
%%BoundingBox:    45    93   573   572
%%EndComments

%%BeginProlog
% MathWorks dictionary
/MathWorks 160 dict begin
% definition operators
/bdef {bind def} bind def
/ldef {load def} bind def
/xdef {exch def} bdef
/xstore {exch store} bdef
% operator abbreviations
/c  /clip ldef
/cc /concat ldef
/cp /closepath ldef
/gr /grestore ldef
/gs /gsave ldef
/mt /moveto ldef
/np /newpath ldef
/cm /currentmatrix ldef
/sm /setmatrix ldef
/rm /rmoveto ldef
/rl /rlineto ldef
/s {show newpath} bdef
/sc {setcmykcolor} bdef
/sr /setrgbcolor ldef
/sg /setgray ldef
/w /setlinewidth ldef
/j /setlinejoin ldef
/cap /setlinecap ldef
/rc {rectclip} bdef
/rf {rectfill} bdef
% page state control
/pgsv () def
/bpage {/pgsv save def} bdef
/epage {pgsv restore} bdef
/bplot /gsave ldef
/eplot {stroke grestore} bdef
% orientation switch
/portraitMode 0 def /landscapeMode 1 def /rotateMode 2 def
% coordinate system mappings
/dpi2point 0 def
% font control
/FontSize 0 def
/FMS {/FontSize xstore findfont [FontSize 0 0 FontSize neg 0 0]
  makefont setfont} bdef
/ISOLatin1Encoding where {pop /WindowsLatin1Encoding 256 array bdef
ISOLatin1Encoding WindowsLatin1Encoding copy pop
/.notdef/.notdef/quotesinglbase/florin/quotedblbase/ellipsis/dagger
/daggerdbl/circumflex/perthousand/Scaron/guilsinglleft/OE/.notdef/.notdef
/.notdef/.notdef/quoteleft/quoteright/quotedblleft/quotedblright/bullet
/endash/emdash/tilde/trademark/scaron/guilsinglright/oe/.notdef/.notdef
/Ydieresis WindowsLatin1Encoding 128 32 getinterval astore pop}
{/WindowsLatin1Encoding StandardEncoding bdef} ifelse
/reencode {exch dup where {pop load} {pop StandardEncoding} ifelse
  exch dup 3 1 roll findfont dup length dict begin
  { 1 index /FID ne {def}{pop pop} ifelse } forall
  /Encoding exch def currentdict end definefont pop} bdef
/isroman {findfont /CharStrings get /Agrave known} bdef
/FMSR {3 1 roll 1 index dup isroman {reencode} {pop pop} ifelse
  exch FMS} bdef
/csm {1 dpi2point div -1 dpi2point div scale neg translate
 dup landscapeMode eq {pop -90 rotate}
  {rotateMode eq {90 rotate} if} ifelse} bdef
% line types: solid, dotted, dashed, dotdash
/SO { [] 0 setdash } bdef
/DO { [.5 dpi2point mul 4 dpi2point mul] 0 setdash } bdef
/DA { [6 dpi2point mul] 0 setdash } bdef
/DD { [.5 dpi2point mul 4 dpi2point mul 6 dpi2point mul 4
  dpi2point mul] 0 setdash } bdef
% macros for lines and objects
/L {lineto stroke} bdef
/MP {3 1 roll moveto 1 sub {rlineto} repeat} bdef
/AP {{rlineto} repeat} bdef
/PDlw -1 def
/W {/PDlw currentlinewidth def setlinewidth} def
/PP {closepath eofill} bdef
/DP {closepath stroke} bdef
/MR {4 -2 roll moveto dup  0 exch rlineto exch 0 rlineto
  neg 0 exch rlineto closepath} bdef
/FR {MR stroke} bdef
/PR {MR fill} bdef
/L1i {{currentfile picstr readhexstring pop} image} bdef
/tMatrix matrix def
/MakeOval {newpath tMatrix currentmatrix pop translate scale
0 0 1 0 360 arc tMatrix setmatrix} bdef
/FO {MakeOval stroke} bdef
/PO {MakeOval fill} bdef
/PD {currentlinewidth 2 div 0 360 arc fill
   PDlw -1 eq not {PDlw w /PDlw -1 def} if} def
/FA {newpath tMatrix currentmatrix pop translate scale
  0 0 1 5 -2 roll arc tMatrix setmatrix stroke} bdef
/PA {newpath tMatrix currentmatrix pop	translate 0 0 moveto scale
  0 0 1 5 -2 roll arc closepath tMatrix setmatrix fill} bdef
/FAn {newpath tMatrix currentmatrix pop translate scale
  0 0 1 5 -2 roll arcn tMatrix setmatrix stroke} bdef
/PAn {newpath tMatrix currentmatrix pop translate 0 0 moveto scale
  0 0 1 5 -2 roll arcn closepath tMatrix setmatrix fill} bdef
/vradius 0 def /hradius 0 def /lry 0 def
/lrx 0 def /uly 0 def /ulx 0 def /rad 0 def
/MRR {/vradius xdef /hradius xdef /lry xdef /lrx xdef /uly xdef
  /ulx xdef newpath tMatrix currentmatrix pop ulx hradius add uly
  vradius add translate hradius vradius scale 0 0 1 180 270 arc 
  tMatrix setmatrix lrx hradius sub uly vradius add translate
  hradius vradius scale 0 0 1 270 360 arc tMatrix setmatrix
  lrx hradius sub lry vradius sub translate hradius vradius scale
  0 0 1 0 90 arc tMatrix setmatrix ulx hradius add lry vradius sub
  translate hradius vradius scale 0 0 1 90 180 arc tMatrix setmatrix
  closepath} bdef
/FRR {MRR stroke } bdef
/PRR {MRR fill } bdef
/MlrRR {/lry xdef /lrx xdef /uly xdef /ulx xdef /rad lry uly sub 2 div def
  newpath tMatrix currentmatrix pop ulx rad add uly rad add translate
  rad rad scale 0 0 1 90 270 arc tMatrix setmatrix lrx rad sub lry rad
  sub translate rad rad scale 0 0 1 270 90 arc tMatrix setmatrix
  closepath} bdef
/FlrRR {MlrRR stroke } bdef
/PlrRR {MlrRR fill } bdef
/MtbRR {/lry xdef /lrx xdef /uly xdef /ulx xdef /rad lrx ulx sub 2 div def
  newpath tMatrix currentmatrix pop ulx rad add uly rad add translate
  rad rad scale 0 0 1 180 360 arc tMatrix setmatrix lrx rad sub lry rad
  sub translate rad rad scale 0 0 1 0 180 arc tMatrix setmatrix
  closepath} bdef
/FtbRR {MtbRR stroke } bdef
/PtbRR {MtbRR fill } bdef
/stri 6 array def /dtri 6 array def
/smat 6 array def /dmat 6 array def
/tmat1 6 array def /tmat2 6 array def /dif 3 array def
/asub {/ind2 exch def /ind1 exch def dup dup
  ind1 get exch ind2 get sub exch } bdef
/tri_to_matrix {
  2 0 asub 3 1 asub 4 0 asub 5 1 asub
  dup 0 get exch 1 get 7 -1 roll astore } bdef
/compute_transform {
  dmat dtri tri_to_matrix tmat1 invertmatrix 
  smat stri tri_to_matrix tmat2 concatmatrix } bdef
/ds {stri astore pop} bdef
/dt {dtri astore pop} bdef
/db {2 copy /cols xdef /rows xdef mul dup 3 mul string
  currentfile 
  3 index 0 eq {/ASCIIHexDecode filter}
  {/ASCII85Decode filter 3 index 2 eq {/RunLengthDecode filter} if }
  ifelse exch readstring pop
  dup 0 3 index getinterval /rbmap xdef
  dup 2 index dup getinterval /gbmap xdef
  1 index dup 2 mul exch getinterval /bbmap xdef pop pop}bdef
/it {gs np dtri aload pop moveto lineto lineto cp c
  cols rows 8 compute_transform 
  rbmap gbmap bbmap true 3 colorimage gr}bdef
/il {newpath moveto lineto stroke}bdef
currentdict end def
%%EndProlog

%%BeginSetup
MathWorks begin

0 cap

end
%%EndSetup

%%Page: 1 1
%%BeginPageSetup
%%PageBoundingBox:    45    93   573   572
MathWorks begin
bpage
%%EndPageSetup

%%BeginObject: obj1
bplot

/dpi2point 8.33333 def
portraitMode 0150 5158 csm

  231   390  4398  3990 rc
84 dict begin %Colortable dictionary
/c0 { 0.000000 0.000000 0.000000 sr} bdef
/c1 { 1.000000 1.000000 1.000000 sr} bdef
/c2 { 0.900000 0.000000 0.000000 sr} bdef
/c3 { 0.000000 0.820000 0.000000 sr} bdef
/c4 { 0.000000 0.000000 0.800000 sr} bdef
/c5 { 0.910000 0.820000 0.320000 sr} bdef
/c6 { 1.000000 0.260000 0.820000 sr} bdef
/c7 { 0.000000 0.820000 0.820000 sr} bdef
c0
1 j
1 sg
   0    0 5001 5001 rf
12.5 w
0 3500 3750 0 0 -3500 750 4000 4 MP
PP
-3750 0 0 3500 3750 0 0 -3500 750 4000 5 MP stroke
gs 750 500 3751 3501 rc
16.6667 w
0 sg
-7 1 -8 7 -7 16 -7 21 -7 26 -7 37 -7 66 -7 85 
-7 67 -8 48 -7 119 -7 160 -7 57 -7 136 -7 245 -7 43 
-8 226 -7 287 -7 -8 -7 530 -7 -61 -7 539 -7 92 -7 461 
7 -23 7 -20 7 -22 7 -25 7 -25 7 -24 7 -28 8 -22 
7 -21 7 -23 7 -32 7 -14 7 -9 7 -24 8 -25 7 -23 
7 -24 7 -25 7 -19 7 -24 7 -26 7 -15 8 -34 7 -19 
7 -16 7 -26 7 -28 7 -18 7 -21 8 -13 7 -23 7 -24 
7 -29 7 -30 7 -16 7 -11 7 -11 8 -20 7 -41 7 -37 
7 5 7 -16 7 -18 7 -39 8 -12 7 -13 7 -13 7 -11 
7 -15 7 -23 7 -18 8 -15 7 -28 7 -22 7 -12 7 -10 
7 -19 7 -14 7 -27 8 -28 7 -24 7 -8 7 -20 7 -10 
7 -8 7 -19 8 -24 7 -33 7 -24 7 -9 7 -9 7 -9 
7 -15 7 -18 8 -25 7 -18 7 -24 7 -18 7 -16 7 -5 
7 -7 8 -13 7 -29 7 -16 7 -13 7 -10 7 -12 7 -15 
7 -12 8 -21 7 -20 7 -14 7 -20 7 -10 7 -17 7 -4 
8 -14 7 -17 7 -20 7 -19 7 -26 7 3 7 -5 8 -10 
7 -27 7 -29 7 -8 7 11 7 -15 7 -18 7 -16 8 -9 
7 -11 7 -11 7 -10 7 -10 7 -7 7 -9 8 -15 7 -8 
7 -4 7 -31 7 -19 7 -10 7 -10 7 -6 8 -6 7 0 
7 -12 7 -12 7 -11 7 -6 7 -12 8 -12 7 -15 7 -11 
7 -11 7 -12 7 0 7 -5 8 -13 7 -8 7 -9 7 -8 
7 -13 7 -7 7 -11 7 -7 8 -6 7 -14 7 -9 7 -13 
7 -9 7 -10 7 -9 8 -7 7 5 7 -5 7 -12 7 -16 
7 -9 7 -10 7 -7 8 -16 7 4 7 -11 7 -2 7 -3 
7 -10 7 -9 8 -10 7 -9 7 -12 7 -6 7 -4 7 -4 
7 -4 7 2 8 -7 7 -8 7 -8 7 -13 7 -14 7 -4 
7 -3 8 -2 7 -4 7 -6 7 -7 7 -9 7 -8 7 1 
8 -8 7 -8 7 -7 7 -9 7 -10 7 -8 7 -7 7 -5 
8 -6 7 -4 7 -5 7 -7 7 -10 7 -7 7 -6 8 -7 
7 -3 7 -3 7 -7 7 1 7 -6 7 -10 7 -9 8 -11 
7 -8 7 -2 7 3 7 -6 7 -6 7 0 8 -2 7 -4 
7 -1 7 -4 7 -6 7 -4 7 -3 7 -5 8 -5 7 -7 
7 -7 7 -4 7 -6 7 -8 7 -5 8 -5 7 -4 7 -2 
7 -3 7 -2 7 -1 7 -2 8 -1 7 -3 7 -3 7 -1 
7 -3 7 -5 7 -7 7 -4 8 -5 7 -7 7 -2 7 -2 
7 -5 7 -3 7 -4 8 -4 7 -5 7 -6 7 -3 7 -5 
7 -2 7 -4 7 -3 8 -3 7 -3 7 -4 7 -1 7 -1 
7 -2 7 -2 8 -2 1170 3901 300 MP stroke
7 -4 7 -2 7 -2 7 -6 7 -5 7 -6 7 -3 8 -6 
7 -5 7 -6 7 0 7 3 7 0 7 -3 8 -3 7 -2 
7 -2 7 -3 7 -5 7 -4 7 -4 8 -4 7 -4 7 -3 
7 -3 7 -3 7 -3 7 -2 7 -2 8 1 7 0 7 0 
7 1 7 1 7 2 7 -1 8 0 7 -3 7 -2 7 -1 
7 0 7 0 7 0 7 -1 8 -2 7 0 7 -2 7 1 
7 1 7 1 7 0 8 0 7 0 7 0 7 0 7 0 
7 0 7 -1 7 -1 750 3999 60 MP stroke
gr

16.6667 w
0 sg
0.1 sg
%%IncludeResource: font Helvetica-Bold
/Helvetica-Bold /WindowsLatin1Encoding 183.333 FMSR

2010 4322 mt 
(Vertical Strain) s
 424 3132 mt  -90 rotate
(Vertical Stress [kPa]) s
90 rotate
gs 750 500 3751 3501 rc
/c8 { 1.000000 0.000000 0.000000 sr} bdef
c8
-7 1 -7 5 -7 13 -7 23 -7 26 -7 32 -6 35 -7 46 
-7 64 -7 77 -7 74 -7 64 -7 96 -6 132 -7 94 -7 83 
-7 185 -7 140 -7 80 -7 272 -6 132 -7 126 -7 397 -7 -17 
-7 506 -7 95 -7 430 7 -37 7 -27 7 -25 7 5 7 -35 
7 -41 6 -32 7 -30 7 -10 7 3 7 -30 7 -45 7 -28 
6 -16 7 -12 7 -17 7 -27 7 -33 7 -33 7 -24 6 -10 
7 -19 7 -20 7 -42 7 -28 7 -29 7 -19 7 -17 6 -16 
7 -18 7 -36 7 -38 7 4 7 -27 7 -23 6 -26 7 -20 
7 -18 7 -27 7 -30 7 -24 7 -23 6 -15 7 -15 7 -28 
7 -12 7 -29 7 -29 7 -12 7 -16 6 -18 7 -14 7 -17 
7 -31 7 -26 7 -7 7 -17 6 -13 7 -16 7 -20 7 -26 
7 -15 7 -26 7 -12 6 -6 7 -10 7 -13 7 -5 7 -17 
7 -25 7 -37 6 1 7 -22 7 -22 7 -20 7 -4 7 -9 
7 -17 7 -24 6 -22 7 -8 7 -19 7 -13 7 -17 7 -3 
7 -16 6 -24 7 -14 7 -22 7 -20 7 -17 7 -7 7 -5 
6 -11 7 -20 7 -13 7 -23 7 -23 7 -10 7 -4 7 -14 
6 -11 7 -14 7 -9 7 -16 7 -16 7 -14 7 -14 6 -23 
7 4 7 -13 7 -16 7 -15 7 -15 7 -12 6 -10 7 -14 
7 -4 7 -14 7 -22 7 -29 7 0 7 -2 6 -14 7 -10 
7 -9 7 -2 7 2 7 -8 7 -11 6 -16 7 -21 7 -15 
7 -14 7 -7 7 -3 7 0 6 -7 7 -9 7 -8 7 -8 
7 -17 7 -18 7 -6 6 -13 7 -7 7 -8 7 -1 7 -7 
7 -8 7 -7 7 -11 6 -14 7 -14 7 -14 7 -3 7 -3 
7 -8 7 -7 6 -6 7 -6 7 -6 7 -5 7 -13 7 -14 
7 -14 6 -11 7 -17 7 -11 7 -5 7 2 7 -4 7 1 
7 -1 6 -8 7 -8 7 2 7 -4 7 -4 7 -7 7 -10 
6 -13 7 -10 7 0 7 -4 7 -9 7 -8 7 -7 6 -3 
7 -3 7 -3 7 -2 7 -3 7 -2 7 -5 7 -10 6 -10 
7 -10 7 -15 7 -1 7 -8 7 -2 7 0 6 -4 7 -3 
7 -3 7 -6 7 -4 7 -4 7 -7 6 -8 7 -3 7 -2 
7 -4 7 -4 7 -3 7 -8 7 -10 6 -5 7 -3 7 -3 
7 -1 7 -4 7 -6 7 -4 6 -2 7 -6 7 -5 7 -6 
7 -1 7 -2 7 -5 6 -4 7 -3 7 -3 7 -4 7 -2 
7 -6 7 -5 6 -3 7 -2 7 -1 7 -6 7 -5 7 -5 
7 -2 7 -6 6 -6 7 -3 7 -3 7 0 7 1 7 1 
7 -1 6 -1 7 -2 7 -3 7 -2 7 0 7 -1 7 -6 
6 -4 7 -1 7 -2 7 -5 7 -7 7 -4 7 -4 7 3 
6 -4 7 -7 7 -5 1182 3889 300 MP stroke
7 0 7 -1 7 -3 7 -3 6 -2 7 -3 7 -4 7 -3 
7 -3 7 0 7 1 6 -1 7 -2 7 -1 7 -3 7 -2 
7 -3 7 -2 7 0 6 -1 7 -3 7 -5 7 -2 7 -2 
7 -5 7 -3 6 -4 7 -2 7 -5 7 -3 7 -3 7 -1 
7 0 6 -1 7 -1 7 -2 7 -3 7 -3 7 -3 7 -4 
6 -3 7 -1 7 -2 7 -1 7 -1 7 -2 7 0 7 -1 
6 1 7 -1 7 0 7 -1 7 0 7 0 7 1 6 -1 
7 -3 7 -1 7 -1 7 -1 7 -1 7 1 6 -1 750 3999 64 MP stroke
/c9 { 0.000000 0.000000 1.000000 sr} bdef
c9
-6 1 -7 2 -6 7 -6 10 -7 14 -6 26 -6 32 -7 36 
-6 32 -7 40 -6 51 -6 62 -7 62 -6 55 -6 75 -7 104 
-6 81 -6 77 -7 141 -6 114 -6 85 -7 200 -6 113 -6 150 
-7 255 -6 48 -6 352 -7 66 -6 341 -7 177 -6 386 6 -39 
7 -35 6 -18 7 -9 6 -30 6 -25 7 -19 6 -11 6 -34 
7 -54 6 19 6 -24 7 -23 6 -24 6 -15 7 -23 6 -32 
6 -22 7 -17 6 -27 6 -39 7 -45 6 45 7 0 6 -31 
6 -49 7 -1 6 -14 6 -16 7 -31 6 -63 6 31 7 -10 
6 -23 6 -27 7 -15 6 -14 6 -27 7 -10 6 -14 7 -18 
6 -22 6 -18 7 -17 6 -18 6 -4 7 -21 6 -18 6 -26 
7 -12 6 -5 6 -15 7 -15 6 -22 6 -18 7 -26 6 -8 
7 -18 6 -13 6 -8 7 -21 6 -21 6 -27 7 -6 6 -15 
6 -8 7 -34 6 -25 6 9 7 -25 6 -29 6 -6 7 -10 
6 -16 6 -24 7 -10 6 -9 7 -16 6 -43 6 16 7 -4 
6 -11 6 -11 7 -15 6 -18 6 -11 7 0 6 -13 6 -15 
7 -14 6 -4 6 -18 7 -11 6 -13 7 -11 6 -13 6 -16 
7 -22 6 -24 6 23 7 -12 6 -14 6 -13 7 -11 6 -19 
6 -19 7 -4 6 -14 6 -17 7 -11 6 -23 6 -5 7 -16 
6 -4 7 -28 6 -6 6 3 7 -1 6 -14 6 -16 7 -6 
6 -20 6 -16 7 2 6 -14 6 17 7 -11 6 -15 6 -14 
7 -4 6 -11 7 -8 6 -7 6 -16 7 -4 6 -14 6 -1 
7 -15 6 -8 6 -11 7 -9 6 -8 6 -16 7 -9 6 -12 
6 -7 7 -12 6 -11 7 -12 6 -17 6 -19 7 1 6 11 
6 -7 7 -11 6 -10 6 -10 7 -11 6 -7 6 2 7 -20 
6 5 6 -6 7 -18 6 -11 6 0 7 -7 6 -8 7 -10 
6 -6 6 -9 7 -8 6 -8 6 -14 7 -6 6 5 6 -2 
7 -11 6 -13 6 -10 7 -13 6 -10 6 -12 7 -7 6 0 
7 -1 6 -14 6 -24 7 16 6 -6 6 -9 7 -9 6 3 
6 3 7 -7 6 -8 6 -3 7 -5 6 -8 6 -6 7 -10 
6 -6 6 -8 7 -5 6 -7 7 -6 6 -5 6 -8 7 -8 
6 -14 6 -13 7 1 6 3 6 -3 7 -8 6 -3 6 -1 
7 -7 6 -11 6 -4 7 1 6 -6 7 -2 6 -6 6 -7 
7 -11 6 -2 6 -3 7 2 6 1 6 -7 7 -1 6 -2 
6 -5 7 -8 6 -8 6 -3 7 -4 6 -2 6 -2 7 -5 
6 -7 7 -9 6 2 6 -7 7 -7 6 15 6 -4 7 -5 
6 0 6 -3 7 -2 6 -4 6 -7 7 -7 6 -1 6 -9 
7 0 6 -6 7 1 6 -4 6 -9 7 -7 6 -3 6 0 
7 2 6 -3 6 -5 2541 3646 300 MP stroke
7 -3 6 -4 6 1 7 2 6 3 6 -5 7 -7 6 -3 
7 -7 6 0 6 -10 7 -4 6 -3 6 -6 7 -2 6 -5 
6 1 7 -2 6 -2 6 -1 7 -1 6 1 6 -2 7 -2 
6 -4 6 -3 7 -8 6 -6 7 -2 6 -6 6 0 7 0 
6 -4 6 -5 7 -3 6 -4 6 -2 7 2 6 -3 6 -1 
7 -2 6 -1 6 -2 7 0 6 -3 7 -8 6 -2 6 -2 
7 2 6 -4 6 -2 7 -2 6 -1 6 -1 7 0 6 -4 
6 -3 7 0 6 -3 6 0 7 -2 6 -4 6 -4 7 -4 
6 1 7 -4 6 -5 6 -1 7 -1 6 -3 6 0 7 -1 
6 -1 6 -2 7 0 6 0 6 -1 7 -3 6 -7 6 -8 
7 6 6 -1 7 -5 6 -4 6 -2 7 1 6 0 6 -3 
7 0 6 1 6 0 7 -1 6 -3 6 -3 7 -3 6 -4 
6 1 7 -2 6 -1 7 -1 6 2 6 -2 7 -1 6 0 
6 -1 7 -3 6 -2 6 0 7 2 6 1 6 0 7 -1 
6 -1 6 -1 7 -2 6 -4 6 -1 7 -2 6 -1 7 0 
6 -4 6 0 7 -1 6 -2 6 -1 7 -2 6 1 6 -1 
7 -1 6 -2 6 -2 7 1 6 -1 6 0 7 0 6 1 
7 1 6 -2 6 0 7 -2 6 -4 6 -3 7 -3 6 0 
6 1 7 -2 6 -2 6 1 7 -1 6 2 6 -1 7 -3 
6 -2 6 2 7 1 6 -1 7 -2 6 -3 6 -3 7 0 
6 1 6 -1 7 0 6 -1 6 -2 7 0 6 -1 6 -1 
7 -1 6 0 6 -1 7 -2 6 -1 7 0 6 0 6 0 
7 -1 6 1 6 1 7 -1 6 -2 6 1 7 -1 6 0 
6 -1 7 2 6 1 6 -1 7 -1 6 -1 7 -2 6 1 
6 -3 7 -1 6 0 6 0 7 -1 6 -2 6 0 7 0 
6 -1 6 -1 7 -3 6 1 6 -1 7 -1 6 -1 6 -1 
7 -1 6 0 7 -1 6 0 6 -1 7 0 6 0 6 0 
7 1 6 -1 6 0 7 0 6 -1 6 -1 7 0 6 0 
6 1 7 0 6 -1 7 0 6 -2 6 -2 7 -2 6 -2 
6 0 7 0 6 -1 6 -1 7 -1 6 -1 6 -1 7 0 
6 -1 6 0 7 0 6 -1 6 0 7 1 6 1 7 -1 
6 -1 6 0 7 0 6 -2 6 1 7 0 6 -1 6 -1 
7 -1 6 2 6 0 7 -1 6 -1 6 0 7 1 6 -1 
7 -1 6 -1 6 -1 7 -2 6 -2 6 -1 7 0 6 -1 
6 -3 7 0 6 -1 6 0 7 -1 6 -1 6 -1 7 -1 
6 -3 6 -1 750 3999 283 MP stroke
/c10 { 1.000000 0.000000 1.000000 sr} bdef
c10
-7 1 -7 3 -8 11 -7 18 -7 26 -7 40 -7 51 -7 54 
-7 48 -7 59 -7 90 -7 110 -7 76 -7 90 -7 169 -7 149 
-7 79 -7 259 -8 181 -7 112 -7 435 -7 -2 -7 519 -7 124 
-7 486 7 -29 7 -43 7 -33 7 -34 7 -24 7 -35 8 -32 
7 -17 7 -28 7 -41 7 -29 7 -38 7 -29 7 -20 7 -42 
7 -35 7 -18 7 -24 7 -25 7 -21 7 -19 7 -32 8 -49 
7 -11 7 -28 7 -27 7 -25 7 -26 7 -26 7 -19 7 -18 
7 -28 7 -31 7 -35 7 -12 7 -24 7 -25 8 -20 7 -24 
7 -26 7 -21 7 -21 7 -26 7 -29 7 -19 7 -24 7 -24 
7 -21 7 -24 7 -11 7 -20 7 -35 7 -32 8 -6 7 -23 
7 -13 7 -24 7 -25 7 -19 7 -13 7 -19 7 -24 7 -21 
7 -6 7 -13 7 -24 7 -23 7 -21 8 -23 7 -13 7 -12 
7 -11 7 -21 7 -26 7 -24 7 -20 7 -14 7 -6 7 -12 
7 -16 7 -24 7 -30 7 -25 7 -17 8 -11 7 -5 7 -9 
7 -15 7 -23 7 -30 7 -22 7 -23 7 -29 7 2 7 14 
7 -11 7 -11 7 -16 7 -17 8 -20 7 -21 7 -11 7 -7 
7 -6 7 -6 7 -16 7 -19 7 -16 7 -5 7 -14 7 -14 
7 -13 7 -10 7 -9 8 -12 7 -15 7 -16 7 -13 7 -14 
7 -12 7 -13 7 -16 7 -16 7 -14 7 -7 7 2 7 -10 
7 -9 7 -9 7 -4 8 -7 7 -9 7 -11 7 -13 7 -11 
7 -12 7 -13 7 -7 7 -8 7 -6 7 -10 7 -6 7 -15 
7 -7 7 -10 8 -18 7 -16 7 -9 7 -8 7 -4 7 -5 
7 -2 7 -3 7 -3 7 -3 7 -4 7 -6 7 -8 7 -10 
7 -9 7 -11 8 -11 7 -9 7 -9 7 -11 7 -10 7 9 
7 5 7 -3 7 -4 7 -8 7 -2 7 -9 7 -7 7 -7 
7 -8 8 -1 7 -4 7 -5 7 -7 7 -7 7 -6 7 -6 
7 -8 7 -8 7 -7 7 -6 7 -7 7 -3 7 -2 7 -3 
7 -5 8 -4 7 -5 7 -4 7 1 7 -1 7 -3 7 -1 
7 -2 7 -4 7 -5 7 -2 7 -4 7 -5 7 -4 7 -7 
8 -6 7 -4 7 -5 7 -6 7 -6 7 -2 7 -3 7 -1 
7 -2 7 -2 7 0 7 0 7 -1 7 -3 7 -1 8 -1 
7 0 7 -1 7 -1 7 -2 7 -3 7 -4 7 -3 7 -4 
7 -4 7 -6 7 -6 7 -3 7 -5 7 -5 7 -5 8 -3 
7 -1 7 -2 7 0 7 -1 7 -1 7 -1 7 0 7 -2 
7 -2 7 -3 7 -3 7 -2 7 -3 7 -4 8 -3 7 -2 
7 -2 7 -4 7 -4 7 -4 7 -3 7 -3 7 -1 7 -2 
7 -2 7 0 7 0 7 -1 7 -1 7 -1 750 3999 295 MP stroke
gr

c10
0 sg
%%IncludeResource: font Helvetica
/Helvetica /WindowsLatin1Encoding 83.3333 FMSR

 732 4037 mt 
( ) s
4483  536 mt 
( ) s
8.33333 w
DO
SO
12.5 w
0.1 sg
 750  500 mt 4500  500 L
 750 4000 mt 4500 4000 L
4500 4000 mt 4500  500 L
 750 4000 mt  750  500 L
 750 4000 mt 4500 4000 L
 750 4000 mt  750  500 L
 750 4000 mt  750 3943 L
 750  500 mt  750  556 L
%%IncludeResource: font Helvetica
/Helvetica /WindowsLatin1Encoding 133.333 FMSR

 713 4148 mt 
(0) s
1218 4000 mt 1218 3943 L
1218  500 mt 1218  556 L
1089 4148 mt 
(0.05) s
1687 4000 mt 1687 3943 L
1687  500 mt 1687  556 L
1595 4148 mt 
(0.1) s
2156 4000 mt 2156 3943 L
2156  500 mt 2156  556 L
2027 4148 mt 
(0.15) s
2625 4000 mt 2625 3943 L
2625  500 mt 2625  556 L
2533 4148 mt 
(0.2) s
3093 4000 mt 3093 3943 L
3093  500 mt 3093  556 L
2964 4148 mt 
(0.25) s
3562 4000 mt 3562 3943 L
3562  500 mt 3562  556 L
3470 4148 mt 
(0.3) s
4031 4000 mt 4031 3943 L
4031  500 mt 4031  556 L
3902 4148 mt 
(0.35) s
4500 4000 mt 4500 3943 L
4500  500 mt 4500  556 L
4408 4148 mt 
(0.4) s
 750 4000 mt  806 4000 L
4500 4000 mt 4443 4000 L
 652 4049 mt 
(0) s
 750 3681 mt  806 3681 L
4500 3681 mt 4443 3681 L
 578 3730 mt 
(10) s
 750 3363 mt  806 3363 L
4500 3363 mt 4443 3363 L
 578 3412 mt 
(20) s
 750 3045 mt  806 3045 L
4500 3045 mt 4443 3045 L
 578 3094 mt 
(30) s
 750 2727 mt  806 2727 L
4500 2727 mt 4443 2727 L
 578 2776 mt 
(40) s
 750 2409 mt  806 2409 L
4500 2409 mt 4443 2409 L
 578 2458 mt 
(50) s
 750 2090 mt  806 2090 L
4500 2090 mt 4443 2090 L
 578 2139 mt 
(60) s
 750 1772 mt  806 1772 L
4500 1772 mt 4443 1772 L
 578 1821 mt 
(70) s
 750 1454 mt  806 1454 L
4500 1454 mt 4443 1454 L
 578 1503 mt 
(80) s
 750 1136 mt  806 1136 L
4500 1136 mt 4443 1136 L
 578 1185 mt 
(90) s
 750  818 mt  806  818 L
4500  818 mt 4443  818 L
 504  867 mt 
(100) s
 750  500 mt  806  500 L
4500  500 mt 4443  500 L
 504  549 mt 
(110) s
 750  500 mt 4500  500 L
 750 4000 mt 4500 4000 L
4500 4000 mt 4500  500 L
 750 4000 mt  750  500 L
0 sg
%%IncludeResource: font Symbol
/Symbol /WindowsLatin1Encoding 125 FMSR

1191  770 mt 
(m) s
%%IncludeResource: font Helvetica-Bold
/Helvetica-Bold /WindowsLatin1Encoding 100 FMSR

1263  832 mt 
(s) s
%%IncludeResource: font Helvetica-Bold
/Helvetica-Bold /WindowsLatin1Encoding 125 FMSR

1318  770 mt 
( = 0.5 - P) s
%%IncludeResource: font Helvetica-Bold
/Helvetica-Bold /WindowsLatin1Encoding 100 FMSR

1860  832 mt 
(A) s
1932  832 mt 
(R) s
%%IncludeResource: font Helvetica-Bold
/Helvetica-Bold /WindowsLatin1Encoding 125 FMSR

2004  770 mt 
( = 1.0) s
gs 866 623 1644 922 rc
16.6667 w
250 0 915 749 2 MP stroke
gr

16.6667 w
%%IncludeResource: font Symbol
/Symbol /WindowsLatin1Encoding 125 FMSR

1191  993 mt 
(m) s
%%IncludeResource: font Helvetica-Bold
/Helvetica-Bold /WindowsLatin1Encoding 100 FMSR

1263 1055 mt 
(s) s
%%IncludeResource: font Helvetica-Bold
/Helvetica-Bold /WindowsLatin1Encoding 125 FMSR

1318  993 mt 
( = 0.5 - P) s
%%IncludeResource: font Helvetica-Bold
/Helvetica-Bold /WindowsLatin1Encoding 100 FMSR

1860 1055 mt 
(A) s
1932 1055 mt 
(R) s
%%IncludeResource: font Helvetica-Bold
/Helvetica-Bold /WindowsLatin1Encoding 125 FMSR

2004  993 mt 
( = 1.5) s
gs 866 623 1644 922 rc
c8
250 0 915 972 2 MP stroke
gr

c8
0 sg
%%IncludeResource: font Symbol
/Symbol /WindowsLatin1Encoding 125 FMSR

1191 1217 mt 
(m) s
%%IncludeResource: font Helvetica-Bold
/Helvetica-Bold /WindowsLatin1Encoding 100 FMSR

1263 1279 mt 
(s) s
%%IncludeResource: font Helvetica-Bold
/Helvetica-Bold /WindowsLatin1Encoding 125 FMSR

1318 1217 mt 
( = 0.5 - P) s
%%IncludeResource: font Helvetica-Bold
/Helvetica-Bold /WindowsLatin1Encoding 100 FMSR

1860 1279 mt 
(A) s
1932 1279 mt 
(R) s
%%IncludeResource: font Helvetica-Bold
/Helvetica-Bold /WindowsLatin1Encoding 125 FMSR

2004 1217 mt 
( = 2 \(2p\)) s
gs 866 623 1644 922 rc
c9
250 0 915 1194 2 MP stroke
gr

c9
0 sg
%%IncludeResource: font Symbol
/Symbol /WindowsLatin1Encoding 125 FMSR

1191 1440 mt 
(m) s
%%IncludeResource: font Helvetica-Bold
/Helvetica-Bold /WindowsLatin1Encoding 100 FMSR

1263 1502 mt 
(s) s
%%IncludeResource: font Helvetica-Bold
/Helvetica-Bold /WindowsLatin1Encoding 125 FMSR

1318 1440 mt 
( = 0.5 - P) s
%%IncludeResource: font Helvetica-Bold
/Helvetica-Bold /WindowsLatin1Encoding 100 FMSR

1860 1502 mt 
(A) s
1932 1502 mt 
(R) s
%%IncludeResource: font Helvetica-Bold
/Helvetica-Bold /WindowsLatin1Encoding 125 FMSR

2004 1440 mt 
( = 2 \(3p\)) s
gs 866 623 1644 922 rc
c10
250 0 915 1417 2 MP stroke
12.5 w
gr

12.5 w
c10

end %%Color Dict

eplot
%%EndObject

epage
end

showpage

%%Trailer
%%EOF
