%!PS-Adobe-3.0 EPSF-3.0
%%Creator: MATLAB, The MathWorks, Inc. Version 8.1.0.604 (R2013a). Operating System: Microsoft Windows 7.
%%Title: .\StaticF_UC_StressStain_Same_UC_Only.eps
%%CreationDate: 08/17/2013  17:30:30
%%DocumentNeededFonts: Helvetica-Bold
%%+ Helvetica
%%DocumentProcessColors: Cyan Magenta Yellow Black
%%LanguageLevel: 2
%%Pages: 1
%%BoundingBox:    54    93   577   569
%%EndComments

%%BeginProlog
% MathWorks dictionary
/MathWorks 160 dict begin
% definition operators
/bdef {bind def} bind def
/ldef {load def} bind def
/xdef {exch def} bdef
/xstore {exch store} bdef
% operator abbreviations
/c  /clip ldef
/cc /concat ldef
/cp /closepath ldef
/gr /grestore ldef
/gs /gsave ldef
/mt /moveto ldef
/np /newpath ldef
/cm /currentmatrix ldef
/sm /setmatrix ldef
/rm /rmoveto ldef
/rl /rlineto ldef
/s {show newpath} bdef
/sc {setcmykcolor} bdef
/sr /setrgbcolor ldef
/sg /setgray ldef
/w /setlinewidth ldef
/j /setlinejoin ldef
/cap /setlinecap ldef
/rc {rectclip} bdef
/rf {rectfill} bdef
% page state control
/pgsv () def
/bpage {/pgsv save def} bdef
/epage {pgsv restore} bdef
/bplot /gsave ldef
/eplot {stroke grestore} bdef
% orientation switch
/portraitMode 0 def /landscapeMode 1 def /rotateMode 2 def
% coordinate system mappings
/dpi2point 0 def
% font control
/FontSize 0 def
/FMS {/FontSize xstore findfont [FontSize 0 0 FontSize neg 0 0]
  makefont setfont} bdef
/ISOLatin1Encoding where {pop /WindowsLatin1Encoding 256 array bdef
ISOLatin1Encoding WindowsLatin1Encoding copy pop
/.notdef/.notdef/quotesinglbase/florin/quotedblbase/ellipsis/dagger
/daggerdbl/circumflex/perthousand/Scaron/guilsinglleft/OE/.notdef/.notdef
/.notdef/.notdef/quoteleft/quoteright/quotedblleft/quotedblright/bullet
/endash/emdash/tilde/trademark/scaron/guilsinglright/oe/.notdef/.notdef
/Ydieresis WindowsLatin1Encoding 128 32 getinterval astore pop}
{/WindowsLatin1Encoding StandardEncoding bdef} ifelse
/reencode {exch dup where {pop load} {pop StandardEncoding} ifelse
  exch dup 3 1 roll findfont dup length dict begin
  { 1 index /FID ne {def}{pop pop} ifelse } forall
  /Encoding exch def currentdict end definefont pop} bdef
/isroman {findfont /CharStrings get /Agrave known} bdef
/FMSR {3 1 roll 1 index dup isroman {reencode} {pop pop} ifelse
  exch FMS} bdef
/csm {1 dpi2point div -1 dpi2point div scale neg translate
 dup landscapeMode eq {pop -90 rotate}
  {rotateMode eq {90 rotate} if} ifelse} bdef
% line types: solid, dotted, dashed, dotdash
/SO { [] 0 setdash } bdef
/DO { [.5 dpi2point mul 4 dpi2point mul] 0 setdash } bdef
/DA { [6 dpi2point mul] 0 setdash } bdef
/DD { [.5 dpi2point mul 4 dpi2point mul 6 dpi2point mul 4
  dpi2point mul] 0 setdash } bdef
% macros for lines and objects
/L {lineto stroke} bdef
/MP {3 1 roll moveto 1 sub {rlineto} repeat} bdef
/AP {{rlineto} repeat} bdef
/PDlw -1 def
/W {/PDlw currentlinewidth def setlinewidth} def
/PP {closepath eofill} bdef
/DP {closepath stroke} bdef
/MR {4 -2 roll moveto dup  0 exch rlineto exch 0 rlineto
  neg 0 exch rlineto closepath} bdef
/FR {MR stroke} bdef
/PR {MR fill} bdef
/L1i {{currentfile picstr readhexstring pop} image} bdef
/tMatrix matrix def
/MakeOval {newpath tMatrix currentmatrix pop translate scale
0 0 1 0 360 arc tMatrix setmatrix} bdef
/FO {MakeOval stroke} bdef
/PO {MakeOval fill} bdef
/PD {currentlinewidth 2 div 0 360 arc fill
   PDlw -1 eq not {PDlw w /PDlw -1 def} if} def
/FA {newpath tMatrix currentmatrix pop translate scale
  0 0 1 5 -2 roll arc tMatrix setmatrix stroke} bdef
/PA {newpath tMatrix currentmatrix pop	translate 0 0 moveto scale
  0 0 1 5 -2 roll arc closepath tMatrix setmatrix fill} bdef
/FAn {newpath tMatrix currentmatrix pop translate scale
  0 0 1 5 -2 roll arcn tMatrix setmatrix stroke} bdef
/PAn {newpath tMatrix currentmatrix pop translate 0 0 moveto scale
  0 0 1 5 -2 roll arcn closepath tMatrix setmatrix fill} bdef
/vradius 0 def /hradius 0 def /lry 0 def
/lrx 0 def /uly 0 def /ulx 0 def /rad 0 def
/MRR {/vradius xdef /hradius xdef /lry xdef /lrx xdef /uly xdef
  /ulx xdef newpath tMatrix currentmatrix pop ulx hradius add uly
  vradius add translate hradius vradius scale 0 0 1 180 270 arc 
  tMatrix setmatrix lrx hradius sub uly vradius add translate
  hradius vradius scale 0 0 1 270 360 arc tMatrix setmatrix
  lrx hradius sub lry vradius sub translate hradius vradius scale
  0 0 1 0 90 arc tMatrix setmatrix ulx hradius add lry vradius sub
  translate hradius vradius scale 0 0 1 90 180 arc tMatrix setmatrix
  closepath} bdef
/FRR {MRR stroke } bdef
/PRR {MRR fill } bdef
/MlrRR {/lry xdef /lrx xdef /uly xdef /ulx xdef /rad lry uly sub 2 div def
  newpath tMatrix currentmatrix pop ulx rad add uly rad add translate
  rad rad scale 0 0 1 90 270 arc tMatrix setmatrix lrx rad sub lry rad
  sub translate rad rad scale 0 0 1 270 90 arc tMatrix setmatrix
  closepath} bdef
/FlrRR {MlrRR stroke } bdef
/PlrRR {MlrRR fill } bdef
/MtbRR {/lry xdef /lrx xdef /uly xdef /ulx xdef /rad lrx ulx sub 2 div def
  newpath tMatrix currentmatrix pop ulx rad add uly rad add translate
  rad rad scale 0 0 1 180 360 arc tMatrix setmatrix lrx rad sub lry rad
  sub translate rad rad scale 0 0 1 0 180 arc tMatrix setmatrix
  closepath} bdef
/FtbRR {MtbRR stroke } bdef
/PtbRR {MtbRR fill } bdef
/stri 6 array def /dtri 6 array def
/smat 6 array def /dmat 6 array def
/tmat1 6 array def /tmat2 6 array def /dif 3 array def
/asub {/ind2 exch def /ind1 exch def dup dup
  ind1 get exch ind2 get sub exch } bdef
/tri_to_matrix {
  2 0 asub 3 1 asub 4 0 asub 5 1 asub
  dup 0 get exch 1 get 7 -1 roll astore } bdef
/compute_transform {
  dmat dtri tri_to_matrix tmat1 invertmatrix 
  smat stri tri_to_matrix tmat2 concatmatrix } bdef
/ds {stri astore pop} bdef
/dt {dtri astore pop} bdef
/db {2 copy /cols xdef /rows xdef mul dup 3 mul string
  currentfile 
  3 index 0 eq {/ASCIIHexDecode filter}
  {/ASCII85Decode filter 3 index 2 eq {/RunLengthDecode filter} if }
  ifelse exch readstring pop
  dup 0 3 index getinterval /rbmap xdef
  dup 2 index dup getinterval /gbmap xdef
  1 index dup 2 mul exch getinterval /bbmap xdef pop pop}bdef
/it {gs np dtri aload pop moveto lineto lineto cp c
  cols rows 8 compute_transform 
  rbmap gbmap bbmap true 3 colorimage gr}bdef
/il {newpath moveto lineto stroke}bdef
currentdict end def
%%EndProlog

%%BeginSetup
MathWorks begin

0 cap

end
%%EndSetup

%%Page: 1 1
%%BeginPageSetup
%%PageBoundingBox:    54    93   577   569
MathWorks begin
bpage
%%EndPageSetup

%%BeginObject: obj1
bplot

/dpi2point 8.33333 def
portraitMode 0150 5158 csm

  305   409  4361  3971 rc
84 dict begin %Colortable dictionary
/c0 { 0.000000 0.000000 0.000000 sr} bdef
/c1 { 1.000000 1.000000 1.000000 sr} bdef
/c2 { 0.900000 0.000000 0.000000 sr} bdef
/c3 { 0.000000 0.820000 0.000000 sr} bdef
/c4 { 0.000000 0.000000 0.800000 sr} bdef
/c5 { 0.910000 0.820000 0.320000 sr} bdef
/c6 { 1.000000 0.260000 0.820000 sr} bdef
/c7 { 0.000000 0.820000 0.820000 sr} bdef
c0
1 j
1 sg
   0    0 5001 5001 rf
12.5 w
0 3500 3750 0 0 -3500 750 4000 4 MP
PP
-3750 0 0 3500 3750 0 0 -3500 750 4000 5 MP stroke
gs 750 500 3751 3501 rc
16.6667 w
0 sg
2 -2 4 3 3 5 3 -4 4 -3 3 4 3 2 4 -3 
3 -9 3 5 4 6 3 -2 3 -9 4 1 3 7 3 -2 
4 -8 3 2 3 0 3 0 4 3 3 4 3 0 4 1 
3 1 3 0 4 2 3 2 3 3 4 -5 3 -6 3 3 
4 8 3 -2 3 -3 4 3 3 -4 3 0 3 1 4 0 
3 -6 3 -1 4 1 3 1 3 -2 4 -2 3 1 3 -1 
4 -6 3 -2 3 4 4 2 3 -4 3 -14 4 6 3 8 
3 0 4 -1 3 1 3 2 3 1 4 -2 3 -3 3 4 
4 4 3 -2 3 -5 4 5 3 0 3 -3 4 4 3 -1 
3 -2 4 -1 3 5 3 -7 4 -4 3 2 3 2 4 -1 
3 -1 3 2 3 0 4 0 3 -1 3 -4 4 3 3 1 
3 -1 4 1 3 0 3 2 4 5 3 -3 3 4 4 -2 
3 -4 3 4 4 2 3 4 3 2 4 0 3 -3 3 -5 
3 8 4 -3 3 -3 3 3 4 4 3 -1 3 2 4 -5 
3 -5 3 1 4 8 3 1 3 -5 4 -4 3 -2 3 11 
4 -2 3 -5 3 1 4 4 3 2 3 3 3 -4 4 -9 
3 0 3 1 4 2 3 -3 3 -4 4 5 3 -6 3 3 
4 1 3 5 3 -4 4 -6 3 -3 3 7 4 5 3 -2 
3 -9 3 -5 4 6 3 2 3 -6 4 -3 3 5 3 4 
4 1 3 -9 3 0 4 4 3 2 3 2 4 -5 3 -7 
3 5 4 1 3 -6 3 -1 4 -1 3 10 3 -13 3 -7 
4 13 3 6 3 -5 4 -9 3 0 3 9 4 4 3 -8 
3 0 4 6 3 7 3 0 4 1 3 4 3 1 4 3 
3 -5 3 -1 4 4 3 1 3 7 3 0 4 1 3 0 
3 2 4 0 3 -11 3 0 4 0 3 -4 3 -3 4 -2 
3 10 3 -5 4 -4 3 7 3 3 4 2 3 3 3 -1 
4 1 3 3 3 1 3 0 4 -1 3 1 3 -1 4 -2 
3 3 3 -6 4 -1 3 -4 3 -1 4 -1 3 8 3 2 
4 -4 3 -3 3 2 4 4 3 3 3 -1 4 -6 3 0 
3 6 3 2 4 -1 3 -3 3 2 4 3 3 -1 3 2 
4 -5 3 3 3 6 4 -1 3 -12 3 -6 4 9 3 0 
3 -1 4 5 3 -3 3 -3 4 -2 3 4 3 3 3 -3 
4 -7 3 -2 3 2 4 7 3 1 3 2 4 1 3 0 
3 -4 4 -1 3 2 3 0 4 -3 3 -1 3 4 4 -1 
3 -7 3 4 3 1 4 4 3 0 3 -5 4 -9 3 3 
3 10 4 2 3 -1 3 1 4 3 3 3 3 -3 4 -6 
3 1 3 4 4 2 3 0 3 -4 4 -1 3 4 3 6 
3 -4 4 -1 3 5 3510 2914 300 MP stroke
3 3 4 -2 3 -2 3 3 4 1 3 0 3 -3 4 -4 
3 5 3 -2 4 -1 3 1 3 2 4 2 3 1 3 3 
4 0 3 -3 3 0 3 2 4 3 3 -2 3 1 4 7 
3 2 3 0 4 4 3 3 3 -2 4 1 3 -1 3 2 
4 3 3 2 3 -3 4 -1 3 4 3 0 4 -3 3 2 
3 2 3 3 4 -3 3 -2 3 8 4 3 3 -8 3 -1 
4 4 3 1 3 -1 4 0 3 0 3 1 4 0 3 4 
3 -5 4 -4 3 7 3 -8 4 2 3 6 3 -3 3 -5 
4 5 3 4 3 1 4 -4 3 1 3 4 4 -1 3 -7 
3 5 4 3 3 2 3 1 4 2 3 -7 3 0 4 -2 
3 5 3 -3 3 -2 4 -2 3 1 3 2 4 -5 3 -4 
3 4 4 7 3 5 3 -15 4 -2 3 11 3 2 4 -2 
3 0 3 1 4 4 3 0 3 4 4 -3 3 -2 3 0 
3 6 4 -3 3 -1 3 2 4 1 3 5 3 0 4 -9 
3 -2 3 7 4 -1 3 -9 3 2 4 3 3 -3 3 0 
4 9 3 2 3 -6 4 -4 3 11 3 2 3 0 4 3 
3 2 3 2 4 -7 3 5 3 9 4 4 3 0 3 3 
4 4 3 3 3 -3 4 2 3 1 3 -4 4 0 3 -4 
3 2 4 3 3 3 3 -4 3 -3 4 3 3 -1 3 4 
4 3 3 -3 3 -15 4 1 3 5 3 2 4 0 3 4 
3 6 4 1 3 -1 3 3 4 4 3 4 3 2 4 -5 
3 -6 3 1 3 3 4 3 3 -2 3 -6 4 -6 3 -1 
3 8 4 8 3 -4 3 -14 4 -8 3 13 3 -2 4 0 
3 -1 3 3 4 4 3 -2 3 -1 3 9 4 0 3 -4 
3 5 4 9 3 -4 3 -6 4 7 3 2 3 0 4 -3 
3 -4 3 -3 4 0 3 -6 3 -9 4 -2 3 0 3 3 
4 7 3 -1 3 -5 3 -2 4 5 3 -2 3 -10 4 4 
3 -2 3 -3 4 -1 3 6 3 10 4 1 3 -2 3 1 
4 6 3 -1 3 -5 4 0 3 5 3 4 4 -3 3 3 
3 2 3 4 4 -2 3 -7 3 7 4 6 3 -1 3 -4 
4 -6 3 4 3 4 4 1 3 -3 3 -4 4 4 3 7 
3 -10 4 7 3 3 3 4 4 5 3 1 3 1 3 0 
4 5 3 -1 3 0 4 -5 3 5 3 5 4 0 3 3 
3 1 4 4 3 -3 3 1 4 1 3 1 3 -3 4 2 
3 2 3 -3 4 -4 3 0 3 2 3 0 4 -3 3 4 
3 -4 4 -1 3 3 3 2 4 -3 3 2 3 -3 4 -5 
3 3 3 0 4 -3 3 -2 3 0 4 -6 3 -8 3 13 
3 4 4 -5 3 4 2518 2795 300 MP stroke
3 4 4 -2 3 3 3 1 4 -4 3 3 3 4 4 -4 
3 -2 3 5 4 8 3 1 3 -6 4 7 3 3 3 -1 
4 2 3 2 3 3 3 1 4 -4 3 2 3 1 4 -1 
3 4 3 2 4 0 3 1 3 4 4 -5 3 -4 3 5 
4 -1 3 2 3 2 4 -2 3 2 3 1 4 3 3 3 
3 0 3 -4 4 0 3 5 3 -1 4 -1 3 7 3 1 
4 -2 3 -3 3 1 4 6 3 2 3 -4 4 -1 3 -2 
3 2 4 -5 3 8 3 -14 4 -9 3 13 3 -2 3 -21 
4 -9 3 16 3 7 4 -3 3 1 3 4 4 2 3 -1 
3 3 4 -4 3 1 3 1 4 3 3 3 3 0 4 4 
3 3 3 1 4 -2 3 3 3 3 3 0 4 3 3 -4 
3 1 4 -1 3 -5 3 3 4 2 3 4 3 1 4 0 
3 4 3 5 4 0 3 -1 3 2 4 1 3 -5 3 1 
3 5 4 -5 3 -1 3 -1 4 9 3 4 3 -3 4 -2 
3 2 3 2 4 3 3 0 3 -7 4 0 3 7 3 0 
4 -1 3 -2 3 4 4 7 3 -1 3 -6 3 -2 4 4 
3 4 3 -6 4 -7 3 1 3 2 4 7 3 0 3 -1 
4 1 3 -1 3 -10 4 -4 3 11 3 0 4 -8 3 8 
3 8 4 3 3 1 3 -1 3 2 4 1 3 2 3 -9 
4 3 3 4 3 1 4 -2 3 -2 3 1 4 -1 3 0 
3 -1 4 -8 3 9 3 -5 4 -5 3 3 3 -2 4 -4 
3 4 3 2 3 -12 4 2 3 6 3 1 4 -5 3 1 
3 4 4 0 3 -3 3 4 4 3 3 1 3 2 4 1 
3 -2 3 5 4 6 3 -4 3 3 4 8 3 2 3 -3 
3 2 4 7 3 0 3 -3 4 3 3 4 3 -4 4 -2 
3 0 3 8 4 10 3 3 3 -4 4 5 3 3 3 -3 
4 -1 3 4 3 -3 3 -3 4 2 3 7 3 4 4 -5 
3 0 3 6 4 0 3 -2 3 4 4 -12 3 -10 3 -3 
4 -4 3 -28 3 14 4 10 3 5 3 -7 4 -1 3 4 
3 -8 3 0 4 0 3 5 3 2 4 0 3 5 3 -7 
4 -2 3 6 3 3 4 0 3 -1 3 2 4 1 3 2 
3 -6 4 4 3 7 3 -6 4 -9 3 4 3 9 3 -5 
4 -8 3 6 3 4 4 -2 3 -4 3 6 4 4 3 -1 
3 -2 4 3 3 2 3 -5 4 -2 3 4 3 7 4 -1 
3 -10 3 -1 4 8 3 7 3 4 3 -2 4 -1 3 2 
3 0 4 -4 3 4 3 3 4 -1 3 -2 3 0 4 8 
3 6 3 2 4 6 3 4 3 -1 4 -6 3 1 3 0 
4 0 3 -1 3 -9 1526 2648 300 MP stroke
3 3 4 4 3 -1 3 2 4 6 3 4 3 -7 4 2 
3 1 3 5 4 -1 3 -11 3 5 4 2 3 -3 3 -2 
4 2 3 2 3 1 3 -2 4 4 3 7 3 3 4 1 
3 3 3 -1 4 1 3 8 3 1 4 0 3 5 3 4 
4 -6 3 -5 3 11 4 9 3 -1 3 0 4 -4 3 2 
3 4 3 -1 4 -1 3 -5 3 -8 4 -6 3 -7 3 -5 
4 -8 3 -17 3 4 4 2 3 2 3 2 4 -3 3 -10 
3 -3 4 -1 3 1 3 0 4 -7 3 -1 3 8 3 3 
4 -14 3 -11 3 9 4 7 3 2 3 0 4 -8 3 4 
3 5 4 0 3 -1 3 -2 4 -6 3 -2 3 5 4 -2 
3 -9 3 3 4 -13 3 2 3 -1 3 -5 4 6 3 7 
3 1 4 -5 3 5 3 0 4 1 3 2 3 -2 4 -3 
3 2 3 2 4 -5 3 -2 3 4 4 2 3 -2 3 0 
4 7 3 1 3 -10 3 1 4 5 3 -9 3 -6 4 5 
3 2 3 2 4 -2 3 3 3 4 4 5 3 4 3 2 
4 2 3 -3 3 -5 4 -2 3 2 3 1 3 -7 4 -14 
3 6 3 8 4 3 3 6 3 3 4 -10 3 1 3 -3 
4 1 3 3 3 0 4 2 3 0 3 -4 4 -2 3 -1 
3 -7 4 -10 3 -16 3 -3 3 1 4 -5 3 -6 3 -13 
4 -2 3 -7 3 -11 4 0 3 -10 3 -5 4 -14 3 -8 
3 -12 4 -4 3 -9 3 -14 4 -17 3 -14 3 -9 4 -18 
3 -18 3 -14 3 -19 4 -15 3 -19 3 -25 4 -17 3 -15 
3 -24 4 -29 3 -16 3 -18 4 -30 3 -28 3 -18 4 -20 
3 -34 3 -29 4 -14 3 -21 3 -33 4 -29 3 -14 3 -21 
3 -34 4 -30 3 -12 3 -17 4 -34 3 -31 3 -11 4 -12 
3 -30 3 -34 4 -15 3 -6 3 -20 4 -34 3 -23 3 -7 
4 -6 3 -21 3 -30 4 -20 3 -5 3 -3 3 -17 4 -26 
3 -20 3 -7 4 -2 3 -6 3 -15 4 -17 3 -12 3 -6 
4 -1 3 -2 3 -5 4 -6 3 -6 3 -3 4 -2 3 -1 
3 0 3 -1 750 3997 235 MP stroke
gr

16.6667 w
0 sg
0.1 sg
%%IncludeResource: font Helvetica-Bold
/Helvetica-Bold /WindowsLatin1Encoding 183.333 FMSR

2010 4322 mt 
(Vertical Strain) s
 498 3132 mt  -90 rotate
(Vertical Stress [kPa]) s
90 rotate
gs 750 500 3751 3501 rc
/c8 { 1.000000 0.000000 0.000000 sr} bdef
c8
2 8 4 10 3 -1 3 -10 4 -7 3 4 3 3 4 9 
3 -5 3 -15 4 3 3 17 3 8 4 7 3 -7 3 -6 
4 3 3 3 3 3 3 1 4 0 3 -24 3 -13 4 30 
3 -3 3 -11 4 14 3 -2 3 10 4 4 3 2 3 -14 
4 -26 3 5 3 15 4 0 3 -12 3 1 3 4 4 10 
3 5 3 2 4 -3 3 -3 3 5 4 15 3 -1 3 -3 
4 4 3 -5 3 -8 4 0 3 3 3 -11 4 -3 3 10 
3 -9 4 -25 3 -7 3 24 3 27 4 3 3 -7 3 -6 
4 11 3 1 3 -8 4 -1 3 8 3 9 4 10 3 3 
3 -1 4 -7 3 -7 3 -11 4 -11 3 19 3 14 4 -10 
3 2 3 4 3 2 4 5 3 -2 3 -3 4 -1 3 5 
3 -11 4 -14 3 24 3 13 4 0 3 0 3 -9 4 0 
3 -6 3 -6 4 -8 3 22 3 15 4 4 3 -3 3 -9 
3 -4 4 8 3 9 3 5 4 -15 3 -16 3 1 4 -8 
3 -16 3 6 4 6 3 -13 3 9 4 10 3 -12 3 -8 
4 4 3 5 3 10 4 1 3 7 3 -7 3 -3 4 -3 
3 -3 3 0 4 -5 3 -10 3 0 4 8 3 0 3 19 
4 11 3 -5 3 -8 4 1 3 13 3 -10 4 5 3 1 
3 7 3 16 4 -4 3 -5 3 13 4 2 3 -3 3 -12 
4 6 3 -9 3 -8 4 -3 3 12 3 9 4 -10 3 13 
3 7 4 -13 3 -18 3 11 4 21 3 3 3 3 3 8 
4 -4 3 -2 3 0 4 -8 3 2 3 9 4 2 3 -4 
3 -6 4 3 3 -1 3 -3 4 1 3 -9 3 3 4 -1 
3 -11 3 6 4 22 3 21 3 -4 3 -6 4 9 3 4 
3 -3 4 1 3 0 3 -7 4 -27 3 2 3 -3 4 16 
3 27 3 11 4 8 3 -8 3 -5 4 9 3 5 3 5 
4 -4 3 0 3 -5 3 4 4 3 3 5 3 -6 4 -19 
3 -1 3 0 4 -25 3 -5 3 12 4 7 3 -12 3 -5 
4 -7 3 -9 3 9 4 12 3 4 3 -3 4 -2 3 10 
3 -3 3 -8 4 -5 3 6 3 5 4 7 3 6 3 -6 
4 -11 3 6 3 2 4 -9 3 4 3 -1 4 2 3 -1 
3 -3 4 2 3 -3 3 9 4 3 3 -17 3 -5 3 0 
4 17 3 20 3 6 4 -2 3 -2 3 -3 4 4 3 5 
3 0 4 -2 3 6 3 2 4 0 3 -6 3 -3 4 -1 
3 11 3 27 3 -4 4 -5 3 13 3 1 4 -14 3 -2 
3 16 4 2 3 -18 3 -9 4 -4 3 15 3 1 4 -5 
3 2 3 -4 4 10 3 0 3 -8 4 7 3 11 3 2 
3 -1 4 -11 3 -26 3510 2254 300 MP stroke
3 3 4 -17 3 33 3 23 4 15 3 15 3 1 4 -8 
3 -6 3 21 4 -12 3 -18 3 2 4 -5 3 -38 3 14 
4 21 3 -7 3 12 3 6 4 3 3 9 3 1 4 -9 
3 -7 3 -3 4 11 3 5 3 -7 4 1 3 -1 3 -6 
4 6 3 -11 3 -12 4 11 3 13 3 6 4 -13 3 -12 
3 3 3 -18 4 -38 3 17 3 -2 4 -16 3 25 3 17 
4 -1 3 12 3 10 4 9 3 5 3 -2 4 1 3 19 
3 7 4 -2 3 -4 3 6 4 5 3 1 3 -7 3 -6 
4 12 3 9 3 3 4 0 3 -1 3 2 4 -5 3 -3 
3 -3 4 -3 3 9 3 11 4 13 3 3 3 -10 4 -4 
3 -10 3 -1 3 16 4 28 3 9 3 1 4 -10 3 -15 
3 -5 4 -4 3 -33 3 4 4 22 3 -1 3 17 4 -2 
3 2 3 -9 4 -17 3 12 3 26 4 10 3 -17 3 8 
3 0 4 -6 3 1 3 -4 4 -23 3 -14 3 20 4 10 
3 26 3 -8 4 2 3 10 3 18 4 12 3 1 3 -8 
4 -10 3 6 3 -1 4 6 3 -2 3 -11 3 7 4 15 
3 -4 3 -9 4 -12 3 3 3 -4 4 -3 3 11 3 -1 
4 1 3 -16 3 -16 4 13 3 27 3 4 4 2 3 13 
3 5 4 -13 3 11 3 11 3 -3 4 -8 3 -11 3 0 
4 -7 3 -4 3 -1 4 -28 3 23 3 12 4 11 3 2 
3 -9 4 -14 3 -3 3 -7 4 11 3 5 3 3 4 17 
3 10 3 -4 3 -4 4 -1 3 -2 3 -1 4 -30 3 15 
3 22 4 8 3 9 3 -8 4 6 3 9 3 7 4 -7 
3 7 3 -8 4 -1 3 14 3 -5 3 -15 4 0 3 5 
3 8 4 23 3 3 3 9 4 0 3 -19 3 -7 4 -7 
3 1 3 9 4 -14 3 -1 3 18 4 18 3 -4 3 -15 
4 17 3 20 3 11 3 15 4 20 3 -13 3 -14 4 1 
3 0 3 -6 4 -14 3 -22 3 -13 4 -10 3 -3 3 27 
4 2 3 11 3 24 4 12 3 12 3 -1 4 -1 3 -8 
3 15 3 -14 4 -6 3 -10 3 -7 4 22 3 -10 3 -3 
4 18 3 -4 3 1 4 12 3 -8 3 16 4 5 3 -14 
3 -3 4 2 3 19 3 4 4 -8 3 -7 3 14 3 9 
4 -12 3 -6 3 10 4 10 3 6 3 7 4 8 3 -2 
3 -8 4 -8 3 -1 3 -9 4 5 3 18 3 7 4 -14 
3 10 3 5 4 -2 3 -2 3 -1 3 -12 4 11 3 8 
3 6 4 12 3 -18 3 -4 4 10 3 -6 3 1 4 -18 
3 -8 3 5 4 28 3 4 3 4 4 3 3 -9 3 13 
3 24 4 25 3 -9 2518 1801 300 MP stroke
3 -8 4 16 3 17 3 -6 4 -3 3 3 3 -3 4 -6 
3 2 3 -14 4 -17 3 -9 3 7 4 15 3 -9 3 -18 
4 -10 3 -2 3 15 3 29 4 7 3 1 3 8 4 9 
3 -12 3 -7 4 0 3 -2 3 2 4 -1 3 11 3 9 
4 -9 3 0 3 4 4 -7 3 -24 3 3 4 -2 3 -6 
3 8 3 -7 4 -20 3 -1 3 13 4 14 3 27 3 6 
4 4 3 -18 3 -1 4 23 3 -3 3 2 4 10 3 2 
3 -28 4 0 3 4 3 2 4 4 3 6 3 -13 3 0 
4 4 3 13 3 0 4 -6 3 -9 3 -7 4 -14 3 -28 
3 -8 4 -10 3 -12 3 5 4 36 3 23 3 10 4 -2 
3 -12 3 5 4 10 3 -5 3 13 3 18 4 1 3 24 
3 19 4 5 3 -3 3 -6 4 4 3 1 3 8 4 -17 
3 -3 3 6 4 -2 3 6 3 15 4 5 3 7 3 3 
3 -31 4 -4 3 -12 3 14 4 46 3 1 3 9 4 0 
3 -18 3 9 4 28 3 -10 3 -1 4 -2 3 -10 3 -5 
4 -9 3 -23 3 -7 4 -3 3 11 3 7 3 -5 4 -3 
3 -2 3 -16 4 -27 3 3 3 17 4 31 3 18 3 1 
4 -5 3 0 3 -12 4 -12 3 7 3 -3 4 4 3 -5 
3 0 4 -1 3 -1 3 1 3 -9 4 12 3 -2 3 3 
4 -3 3 -12 3 11 4 -20 3 -9 3 -6 4 -18 3 7 
3 15 4 47 3 32 3 7 4 1 3 9 3 12 4 -3 
3 -9 3 10 3 -3 4 1 3 -12 3 3 4 6 3 0 
3 -13 4 10 3 -4 3 -15 4 -9 3 -10 3 -3 4 -4 
3 -6 3 15 4 22 3 11 3 6 4 4 3 -15 3 -26 
3 16 4 -18 3 20 3 9 4 10 3 1 3 -17 4 2 
3 6 3 -3 4 0 3 0 3 5 4 1 3 -5 3 -14 
4 -20 3 20 3 13 3 10 4 1 3 -2 3 -18 4 -17 
3 29 3 7 4 -15 3 -4 3 4 4 37 3 15 3 12 
4 9 3 -4 3 7 4 0 3 1 3 -4 4 -10 3 -11 
3 1 3 9 4 14 3 -3 3 -3 4 8 3 15 3 5 
4 -8 3 2 3 -1 4 -5 3 -17 3 -24 4 4 3 -1 
3 9 4 18 3 3 3 -16 4 -4 3 -2 3 -7 3 17 
4 4 3 3 3 1 4 7 3 1 3 -21 4 -11 3 -7 
3 -18 4 -6 3 -15 3 6 4 10 3 23 3 10 4 8 
3 6 3 8 4 34 3 -8 3 -1 3 -7 4 -8 3 7 
3 12 4 11 3 1 3 -6 4 -23 3 9 3 9 4 -3 
3 -17 3 2 4 4 3 13 3 8 4 11 3 -17 3 -5 
4 32 3 21 3 6 1526 1493 300 MP stroke
3 -11 4 -29 3 -7 3 -1 4 12 3 2 3 2 4 9 
3 6 3 8 4 -6 3 -6 3 7 4 -13 3 4 3 -10 
4 0 3 14 3 5 3 7 4 -11 3 -6 3 4 4 -12 
3 -8 3 -10 4 20 3 -2 3 -4 4 -13 3 -19 3 -4 
4 1 3 11 3 -7 4 -27 3 1 3 6 4 12 3 5 
3 -13 3 -5 4 1 3 0 3 -17 4 -17 3 16 3 22 
4 25 3 9 3 -6 4 -9 3 -9 3 -13 4 4 3 -7 
3 -20 4 3 3 23 3 6 4 8 3 -2 3 -8 3 -11 
4 17 3 -9 3 -17 4 7 3 14 3 7 4 -12 3 -18 
3 4 4 -19 3 -2 3 9 4 -3 3 3 3 -2 4 -16 
3 -3 3 6 4 -32 3 -9 3 7 3 2 4 4 3 1 
3 -8 4 -16 3 -20 3 -13 4 1 3 -15 3 -9 4 -7 
3 5 3 -1 4 -6 3 -2 3 -16 4 -17 3 -9 3 0 
4 -22 3 -23 3 7 3 -5 4 -3 3 -3 3 -6 4 -9 
3 -8 3 1 4 -11 3 -17 3 -8 4 -8 3 -15 3 -10 
4 -5 3 -19 3 -20 4 -20 3 -13 3 -13 3 -8 4 -14 
3 -15 3 -15 4 -10 3 -18 3 -18 4 -16 3 -15 3 -21 
4 -12 3 -9 3 -22 4 -15 3 -15 3 -24 4 -16 3 -17 
3 -17 4 -25 3 -19 3 -15 3 -21 4 -22 3 -22 3 -17 
4 -23 3 -23 3 -18 4 -21 3 -24 3 -20 4 -23 3 -29 
3 -21 4 -21 3 -25 3 -23 4 -21 3 -28 3 -28 4 -23 
3 -17 3 -28 3 -30 4 -20 3 -24 3 -34 4 -23 3 -20 
3 -30 4 -31 3 -20 3 -24 4 -35 3 -27 3 -16 4 -30 
3 -36 3 -20 4 -17 3 -35 3 -34 4 -16 3 -17 3 -36 
3 -32 4 -12 3 -16 3 -34 4 -33 3 -11 3 -10 4 -31 
3 -35 3 -15 4 -5 3 -19 3 -34 4 -25 3 -7 3 -5 
4 -21 3 -31 3 -21 4 -5 3 -2 3 -16 3 -26 4 -21 
3 -8 3 -1 4 -6 3 -14 3 -18 4 -13 3 -6 3 -1 
4 -2 3 -4 3 -7 4 -5 3 -4 3 -2 4 -1 3 -1 
3 0 3 -1 750 3997 235 MP stroke
/c9 { 0.000000 0.000000 1.000000 sr} bdef
c9
2 0 4 -4 3 -8 3 1 4 -4 3 2 3 -13 4 -10 
3 -1 3 10 4 7 3 22 3 26 4 19 3 9 3 9 
4 7 3 3 3 0 3 1 4 -17 3 -7 3 -2 4 -44 
3 -5 3 34 4 14 3 19 3 8 4 -5 3 -1 3 6 
4 -9 3 -7 3 -5 4 -25 3 -14 3 -4 3 4 4 18 
3 23 3 0 4 -11 3 2 3 16 4 -2 3 2 3 -9 
4 0 3 -14 3 0 4 -3 3 9 3 10 4 5 3 -7 
3 7 4 13 3 -2 3 5 3 -6 4 16 3 4 3 -1 
4 -7 3 -6 3 11 4 17 3 11 3 -5 4 2 3 -4 
3 -10 4 -22 3 -3 3 3 4 14 3 -14 3 -15 4 7 
3 12 3 5 3 -2 4 -6 3 -14 3 -14 4 -2 3 -14 
3 8 4 9 3 14 3 12 4 20 3 18 3 11 4 8 
3 4 3 -9 4 -15 3 7 3 25 4 4 3 -20 3 1 
3 6 4 3 3 -1 3 -1 4 -20 3 -11 3 7 4 -5 
3 2 3 -7 4 -14 3 -10 3 -15 4 1 3 -10 3 2 
4 14 3 9 3 19 4 15 3 8 3 16 3 15 4 -1 
3 -1 3 9 4 8 3 -2 3 -13 4 20 3 18 3 4 
4 14 3 -2 3 -1 4 7 3 -1 3 -1 4 4 3 -3 
3 -12 3 1 4 7 3 -7 3 -17 4 -1 3 11 3 -7 
4 -6 3 -7 3 5 4 13 3 -3 3 -18 4 5 3 -2 
3 -18 4 -3 3 -1 3 15 4 -4 3 2 3 16 3 3 
4 17 3 14 3 -3 4 26 3 27 3 -6 4 -9 3 2 
3 -8 4 -2 3 22 3 22 4 5 3 23 3 -3 4 3 
3 -3 3 -3 4 -19 3 8 3 -8 3 3 4 -1 3 8 
3 0 4 -16 3 -7 3 -16 4 -10 3 29 3 26 4 23 
3 12 3 2 4 0 3 3 3 -9 4 -1 3 5 3 -11 
4 -31 3 -4 3 1 3 -9 4 7 3 2 3 -8 4 -10 
3 -11 3 -22 4 -16 3 -20 3 1 4 16 3 62 3 42 
4 6 3 -1 3 16 4 -7 3 -20 3 10 4 -8 3 -19 
3 15 3 3 4 25 3 36 3 7 4 6 3 13 3 4 
4 0 3 4 3 -1 4 -10 3 -7 3 -14 4 8 3 7 
3 1 4 11 3 -13 3 8 4 7 3 -11 3 -5 3 2 
4 -15 3 -10 3 -1 4 -7 3 22 3 21 4 -10 3 32 
3 21 4 13 3 7 3 -19 4 -14 3 9 3 0 4 -13 
3 -17 3 -31 3 4 4 24 3 24 3 8 4 -11 3 -19 
3 -8 4 -10 3 4 3 25 4 31 3 7 3 -6 4 -6 
3 -7 3 -13 4 11 3 14 3 5 4 -11 3 -6 3 2 
3 5 4 -3 3 15 3510 1942 300 MP stroke
3 4 4 4 3 9 3 8 4 4 3 -17 3 -10 4 -9 
3 2 3 6 4 -18 3 -16 3 -12 4 6 3 11 3 23 
4 9 3 -5 3 23 3 -3 4 -15 3 13 3 -12 4 -17 
3 7 3 -50 4 1 3 29 3 22 4 7 3 -2 3 8 
4 -6 3 1 3 7 4 23 3 -1 3 -10 4 -8 3 -6 
3 -8 3 16 4 19 3 40 3 14 4 6 3 -4 3 -10 
4 3 3 -4 3 -2 4 -7 3 -13 3 -2 4 -7 3 -22 
3 -12 4 -24 3 -9 3 37 4 9 3 -1 3 -11 3 11 
4 -13 3 -6 3 -16 4 -30 3 -7 3 -15 4 -14 3 41 
3 21 4 17 3 38 3 22 4 2 3 -22 3 4 4 -4 
3 4 3 -4 3 13 4 18 3 -3 3 15 4 26 3 1 
3 -13 4 -9 3 -17 3 -24 4 18 3 1 3 23 4 19 
3 3 3 -3 4 -10 3 -18 3 -17 4 -15 3 -24 3 -9 
3 13 4 19 3 45 3 29 4 38 3 24 3 1 4 4 
3 -8 3 9 4 24 3 12 3 -7 4 5 3 -13 3 -11 
4 -11 3 -18 3 13 4 6 3 -21 3 -11 3 -12 4 -31 
3 -22 3 -11 4 -40 3 23 3 48 4 34 3 18 3 31 
4 30 3 2 3 18 4 -17 3 -8 3 4 4 5 3 44 
3 -8 4 -10 3 6 3 -4 3 18 4 2 3 7 3 -6 
4 11 3 3 3 -7 4 7 3 7 3 -1 4 -5 3 -23 
3 0 4 -10 3 -8 3 -4 4 13 3 0 3 9 4 -9 
3 3 3 11 3 15 4 14 3 19 3 -12 4 -26 3 13 
3 -7 4 0 3 1 3 30 4 36 3 6 3 -4 4 -10 
3 -14 3 -15 4 -21 3 -20 3 10 3 -21 4 9 3 -5 
3 -11 4 -24 3 -23 3 12 4 12 3 19 3 -6 4 5 
3 -12 3 29 4 34 3 17 3 13 4 15 3 26 3 2 
4 10 3 -8 3 -13 3 -5 4 -29 3 -31 3 -7 4 -25 
3 -8 3 31 4 -10 3 -9 3 29 4 20 3 23 3 23 
4 13 3 17 3 5 4 -12 3 -2 3 6 4 6 3 8 
3 -10 3 -8 4 20 3 15 3 7 4 7 3 -17 3 -1 
4 9 3 26 3 -8 4 7 3 -9 3 -11 4 -7 3 7 
3 -4 4 -28 3 9 3 4 4 -34 3 -32 3 11 3 3 
4 51 3 28 3 16 4 3 3 8 3 8 4 16 3 32 
3 16 4 2 3 -22 3 -12 4 18 3 -7 3 6 4 1 
3 -3 3 -15 4 -10 3 -26 3 12 3 9 4 4 3 10 
3 -5 4 -7 3 -9 3 0 4 -2 3 19 3 23 4 1 
3 -18 3 -15 4 -19 3 -6 3 18 4 11 3 -1 3 -9 
3 34 4 20 3 7 2518 1379 300 MP stroke
3 20 4 34 3 36 3 17 4 24 3 6 3 3 4 1 
3 -10 3 -20 4 -24 3 -15 3 -3 4 -28 3 -4 3 -37 
4 -30 3 49 3 35 3 42 4 31 3 1 3 -16 4 -12 
3 -9 3 -27 4 -12 3 -35 3 -9 4 -24 3 -7 3 55 
4 51 3 58 3 33 4 5 3 -8 3 -18 4 -11 3 -23 
3 -1 3 -13 4 -40 3 10 3 -16 4 60 3 -2 3 8 
4 41 3 21 3 22 4 -17 3 -19 3 -9 4 -2 3 18 
3 -2 4 -33 3 -16 3 -4 4 -19 3 42 3 45 3 25 
4 10 3 11 3 4 4 -13 3 -3 3 -2 4 -8 3 16 
3 -11 4 20 3 -1 3 20 4 10 3 -15 3 -12 4 3 
3 -16 3 -16 4 -12 3 -37 3 -27 3 21 4 12 3 34 
3 17 4 20 3 10 3 1 4 7 3 -5 3 -13 4 5 
3 -28 3 -13 4 5 3 7 3 -2 4 9 3 15 3 -7 
3 -11 4 -15 3 -11 3 -23 4 4 3 -1 3 10 4 -15 
3 -26 3 -22 4 -15 3 9 3 27 4 41 3 26 3 41 
4 18 3 -9 3 -13 4 -6 3 -35 3 -7 3 -52 4 -1 
3 2 3 27 4 60 3 40 3 32 4 11 3 -13 3 0 
4 3 3 -50 3 0 4 -10 3 -15 3 46 4 22 3 -22 
3 6 4 5 3 -10 3 -10 3 -8 4 -25 3 3 3 -9 
4 8 3 21 3 27 4 16 3 7 3 8 4 12 3 8 
3 16 4 -3 3 -2 3 -5 4 -3 3 0 3 1 4 -27 
3 20 3 12 3 30 4 14 3 2 3 -15 4 6 3 -12 
3 -14 4 -9 3 -18 3 -25 4 -15 3 -31 3 -5 4 9 
3 7 3 -11 4 -9 3 5 3 17 4 29 3 56 3 40 
3 15 4 -6 3 8 3 -12 4 15 3 -18 3 -24 4 -19 
3 15 3 9 4 14 3 0 3 20 4 6 3 -17 3 9 
4 5 3 -24 3 -21 3 -8 4 -2 3 9 3 45 4 20 
3 18 3 8 4 -19 3 -3 3 -22 4 -17 3 -15 3 -12 
4 0 3 -33 3 -9 4 11 3 14 3 9 4 -22 3 -2 
3 -9 3 20 4 27 3 9 3 -10 4 -3 3 -31 3 -6 
4 8 3 34 3 36 4 57 3 39 3 4 4 -15 3 -15 
3 -16 4 -12 3 -11 3 -29 4 -14 3 8 3 25 3 25 
4 9 3 -20 3 -12 4 -24 3 17 3 42 4 33 3 1 
3 -14 4 8 3 17 3 -8 4 -14 3 -7 3 -32 4 -23 
3 -23 3 -37 4 -30 3 -43 3 -19 3 50 4 52 3 56 
3 11 4 42 3 30 3 0 4 3 3 -3 3 -29 4 -13 
3 -36 3 -30 4 35 3 38 3 13 4 -10 3 -19 3 4 
4 -12 3 -19 3 -12 1526 941 300 MP stroke
3 -4 4 16 3 -32 3 15 4 -10 3 0 3 -2 4 16 
3 20 3 1 4 -14 3 -12 3 -15 4 -28 3 21 3 -4 
4 24 3 4 3 -8 3 -7 4 -14 3 -7 3 14 4 -1 
3 22 3 -5 4 0 3 7 3 -10 4 5 3 -16 3 -25 
4 -2 3 -26 3 3 4 4 3 -12 3 -12 4 5 3 2 
3 14 3 12 4 5 3 -12 3 -4 4 -4 3 -24 3 0 
4 -8 3 -10 3 -21 4 -34 3 -16 3 -28 4 -33 3 24 
3 5 4 -2 3 -15 3 -8 4 2 3 -13 3 19 3 9 
4 -22 3 -11 3 20 4 8 3 -3 3 -25 4 -2 3 1 
3 2 4 1 3 -14 3 -11 4 -20 3 -15 3 7 4 -13 
3 -8 3 -14 4 -24 3 -14 3 -4 3 -11 4 -16 3 -4 
3 -8 4 -42 3 15 3 -1 4 -19 3 -1 3 0 4 -22 
3 -19 3 -1 4 -1 3 1 3 -14 4 -15 3 -21 3 -23 
4 -12 3 -26 3 -24 3 4 4 -8 3 -13 3 -9 4 -22 
3 -17 3 -10 4 -25 3 -9 3 -9 4 -14 3 -15 3 -18 
4 -19 3 -13 3 -15 4 -30 3 -7 3 -25 3 -17 4 -9 
3 -22 3 -16 4 -24 3 -20 3 -19 4 -20 3 -18 3 -24 
4 -18 3 -16 3 -21 4 -20 3 -21 3 -21 4 -24 3 -23 
3 -16 4 -28 3 -27 3 -17 3 -26 4 -23 3 -23 3 -24 
4 -30 3 -22 3 -22 4 -22 3 -28 3 -21 4 -22 3 -35 
3 -23 4 -19 3 -33 3 -21 4 -20 3 -28 3 -29 4 -22 
3 -21 3 -30 3 -29 4 -21 3 -28 3 -32 4 -23 3 -23 
3 -32 4 -30 3 -19 3 -26 4 -36 3 -26 3 -17 4 -31 
3 -35 3 -19 4 -18 3 -37 3 -33 4 -13 3 -20 3 -38 
3 -29 4 -10 3 -19 3 -37 4 -30 3 -9 3 -13 4 -33 
3 -33 3 -12 4 -5 3 -22 3 -35 4 -23 3 -4 3 -7 
4 -24 3 -31 3 -18 4 -3 3 -4 3 -19 3 -26 4 -19 
3 -6 3 -1 4 -6 3 -17 3 -17 4 -12 3 -4 3 -2 
4 -2 3 -5 3 -6 4 -6 3 -4 3 -1 4 -1 3 -1 
3 0 3 -2 750 3998 235 MP stroke
gr

c9
0 sg
%%IncludeResource: font Helvetica
/Helvetica /WindowsLatin1Encoding 83.3333 FMSR

 732 4037 mt 
( ) s
4483  536 mt 
( ) s
8.33333 w
DO
SO
12.5 w
0.1 sg
 750  500 mt 4500  500 L
 750 4000 mt 4500 4000 L
4500 4000 mt 4500  500 L
 750 4000 mt  750  500 L
 750 4000 mt 4500 4000 L
 750 4000 mt  750  500 L
 750 4000 mt  750 3943 L
 750  500 mt  750  556 L
%%IncludeResource: font Helvetica
/Helvetica /WindowsLatin1Encoding 133.333 FMSR

 713 4148 mt 
(0) s
1375 4000 mt 1375 3943 L
1375  500 mt 1375  556 L
1246 4148 mt 
(0.01) s
2000 4000 mt 2000 3943 L
2000  500 mt 2000  556 L
1871 4148 mt 
(0.02) s
2625 4000 mt 2625 3943 L
2625  500 mt 2625  556 L
2496 4148 mt 
(0.03) s
3250 4000 mt 3250 3943 L
3250  500 mt 3250  556 L
3121 4148 mt 
(0.04) s
3875 4000 mt 3875 3943 L
3875  500 mt 3875  556 L
3746 4148 mt 
(0.05) s
4500 4000 mt 4500 3943 L
4500  500 mt 4500  556 L
4371 4148 mt 
(0.06) s
 750 4000 mt  806 4000 L
4500 4000 mt 4443 4000 L
 652 4049 mt 
(0) s
 750 3270 mt  806 3270 L
4500 3270 mt 4443 3270 L
 652 3319 mt 
(5) s
 750 2541 mt  806 2541 L
4500 2541 mt 4443 2541 L
 578 2590 mt 
(10) s
 750 1812 mt  806 1812 L
4500 1812 mt 4443 1812 L
 578 1861 mt 
(15) s
 750 1083 mt  806 1083 L
4500 1083 mt 4443 1083 L
 578 1132 mt 
(20) s
 750  500 mt 4500  500 L
 750 4000 mt 4500 4000 L
4500 4000 mt 4500  500 L
 750 4000 mt  750  500 L
0 sg
%%IncludeResource: font Symbol
/Symbol /WindowsLatin1Encoding 125 FMSR

3951  736 mt 
(m) s
%%IncludeResource: font Helvetica-Bold
/Helvetica-Bold /WindowsLatin1Encoding 100 FMSR

4023  798 mt 
(s) s
%%IncludeResource: font Helvetica-Bold
/Helvetica-Bold /WindowsLatin1Encoding 125 FMSR

4078  736 mt 
( = 0.2) s
gs 3625 589 814 698 rc
16.6667 w
250 0 3675 714 2 MP stroke
gr

16.6667 w
%%IncludeResource: font Symbol
/Symbol /WindowsLatin1Encoding 125 FMSR

3951  959 mt 
(m) s
%%IncludeResource: font Helvetica-Bold
/Helvetica-Bold /WindowsLatin1Encoding 100 FMSR

4023 1021 mt 
(s) s
%%IncludeResource: font Helvetica-Bold
/Helvetica-Bold /WindowsLatin1Encoding 125 FMSR

4078  959 mt 
( = 0.5) s
gs 3625 589 814 698 rc
c8
250 0 3675 937 2 MP stroke
gr

c8
0 sg
%%IncludeResource: font Symbol
/Symbol /WindowsLatin1Encoding 125 FMSR

3951 1182 mt 
(m) s
%%IncludeResource: font Helvetica-Bold
/Helvetica-Bold /WindowsLatin1Encoding 100 FMSR

4023 1244 mt 
(s) s
%%IncludeResource: font Helvetica-Bold
/Helvetica-Bold /WindowsLatin1Encoding 125 FMSR

4078 1182 mt 
( = 0.8) s
gs 3625 589 814 698 rc
c9
250 0 3675 1160 2 MP stroke
12.5 w
gr

12.5 w
c9

end %%Color Dict

eplot
%%EndObject

epage
end

showpage

%%Trailer
%%EOF
