%!PS-Adobe-3.0 EPSF-3.0
%%Creator: MATLAB, The MathWorks, Inc. Version 8.1.0.604 (R2013a). Operating System: Microsoft Windows 7.
%%Title: .\StaticF_Unconfined_Contacts_PairedSpherical.eps
%%CreationDate: 08/17/2013  17:30:38
%%DocumentNeededFonts: Helvetica-Bold
%%+ Helvetica
%%DocumentProcessColors: Cyan Magenta Yellow Black
%%LanguageLevel: 2
%%Pages: 1
%%BoundingBox:    50    93   573   587
%%EndComments

%%BeginProlog
% MathWorks dictionary
/MathWorks 160 dict begin
% definition operators
/bdef {bind def} bind def
/ldef {load def} bind def
/xdef {exch def} bdef
/xstore {exch store} bdef
% operator abbreviations
/c  /clip ldef
/cc /concat ldef
/cp /closepath ldef
/gr /grestore ldef
/gs /gsave ldef
/mt /moveto ldef
/np /newpath ldef
/cm /currentmatrix ldef
/sm /setmatrix ldef
/rm /rmoveto ldef
/rl /rlineto ldef
/s {show newpath} bdef
/sc {setcmykcolor} bdef
/sr /setrgbcolor ldef
/sg /setgray ldef
/w /setlinewidth ldef
/j /setlinejoin ldef
/cap /setlinecap ldef
/rc {rectclip} bdef
/rf {rectfill} bdef
% page state control
/pgsv () def
/bpage {/pgsv save def} bdef
/epage {pgsv restore} bdef
/bplot /gsave ldef
/eplot {stroke grestore} bdef
% orientation switch
/portraitMode 0 def /landscapeMode 1 def /rotateMode 2 def
% coordinate system mappings
/dpi2point 0 def
% font control
/FontSize 0 def
/FMS {/FontSize xstore findfont [FontSize 0 0 FontSize neg 0 0]
  makefont setfont} bdef
/ISOLatin1Encoding where {pop /WindowsLatin1Encoding 256 array bdef
ISOLatin1Encoding WindowsLatin1Encoding copy pop
/.notdef/.notdef/quotesinglbase/florin/quotedblbase/ellipsis/dagger
/daggerdbl/circumflex/perthousand/Scaron/guilsinglleft/OE/.notdef/.notdef
/.notdef/.notdef/quoteleft/quoteright/quotedblleft/quotedblright/bullet
/endash/emdash/tilde/trademark/scaron/guilsinglright/oe/.notdef/.notdef
/Ydieresis WindowsLatin1Encoding 128 32 getinterval astore pop}
{/WindowsLatin1Encoding StandardEncoding bdef} ifelse
/reencode {exch dup where {pop load} {pop StandardEncoding} ifelse
  exch dup 3 1 roll findfont dup length dict begin
  { 1 index /FID ne {def}{pop pop} ifelse } forall
  /Encoding exch def currentdict end definefont pop} bdef
/isroman {findfont /CharStrings get /Agrave known} bdef
/FMSR {3 1 roll 1 index dup isroman {reencode} {pop pop} ifelse
  exch FMS} bdef
/csm {1 dpi2point div -1 dpi2point div scale neg translate
 dup landscapeMode eq {pop -90 rotate}
  {rotateMode eq {90 rotate} if} ifelse} bdef
% line types: solid, dotted, dashed, dotdash
/SO { [] 0 setdash } bdef
/DO { [.5 dpi2point mul 4 dpi2point mul] 0 setdash } bdef
/DA { [6 dpi2point mul] 0 setdash } bdef
/DD { [.5 dpi2point mul 4 dpi2point mul 6 dpi2point mul 4
  dpi2point mul] 0 setdash } bdef
% macros for lines and objects
/L {lineto stroke} bdef
/MP {3 1 roll moveto 1 sub {rlineto} repeat} bdef
/AP {{rlineto} repeat} bdef
/PDlw -1 def
/W {/PDlw currentlinewidth def setlinewidth} def
/PP {closepath eofill} bdef
/DP {closepath stroke} bdef
/MR {4 -2 roll moveto dup  0 exch rlineto exch 0 rlineto
  neg 0 exch rlineto closepath} bdef
/FR {MR stroke} bdef
/PR {MR fill} bdef
/L1i {{currentfile picstr readhexstring pop} image} bdef
/tMatrix matrix def
/MakeOval {newpath tMatrix currentmatrix pop translate scale
0 0 1 0 360 arc tMatrix setmatrix} bdef
/FO {MakeOval stroke} bdef
/PO {MakeOval fill} bdef
/PD {currentlinewidth 2 div 0 360 arc fill
   PDlw -1 eq not {PDlw w /PDlw -1 def} if} def
/FA {newpath tMatrix currentmatrix pop translate scale
  0 0 1 5 -2 roll arc tMatrix setmatrix stroke} bdef
/PA {newpath tMatrix currentmatrix pop	translate 0 0 moveto scale
  0 0 1 5 -2 roll arc closepath tMatrix setmatrix fill} bdef
/FAn {newpath tMatrix currentmatrix pop translate scale
  0 0 1 5 -2 roll arcn tMatrix setmatrix stroke} bdef
/PAn {newpath tMatrix currentmatrix pop translate 0 0 moveto scale
  0 0 1 5 -2 roll arcn closepath tMatrix setmatrix fill} bdef
/vradius 0 def /hradius 0 def /lry 0 def
/lrx 0 def /uly 0 def /ulx 0 def /rad 0 def
/MRR {/vradius xdef /hradius xdef /lry xdef /lrx xdef /uly xdef
  /ulx xdef newpath tMatrix currentmatrix pop ulx hradius add uly
  vradius add translate hradius vradius scale 0 0 1 180 270 arc 
  tMatrix setmatrix lrx hradius sub uly vradius add translate
  hradius vradius scale 0 0 1 270 360 arc tMatrix setmatrix
  lrx hradius sub lry vradius sub translate hradius vradius scale
  0 0 1 0 90 arc tMatrix setmatrix ulx hradius add lry vradius sub
  translate hradius vradius scale 0 0 1 90 180 arc tMatrix setmatrix
  closepath} bdef
/FRR {MRR stroke } bdef
/PRR {MRR fill } bdef
/MlrRR {/lry xdef /lrx xdef /uly xdef /ulx xdef /rad lry uly sub 2 div def
  newpath tMatrix currentmatrix pop ulx rad add uly rad add translate
  rad rad scale 0 0 1 90 270 arc tMatrix setmatrix lrx rad sub lry rad
  sub translate rad rad scale 0 0 1 270 90 arc tMatrix setmatrix
  closepath} bdef
/FlrRR {MlrRR stroke } bdef
/PlrRR {MlrRR fill } bdef
/MtbRR {/lry xdef /lrx xdef /uly xdef /ulx xdef /rad lrx ulx sub 2 div def
  newpath tMatrix currentmatrix pop ulx rad add uly rad add translate
  rad rad scale 0 0 1 180 360 arc tMatrix setmatrix lrx rad sub lry rad
  sub translate rad rad scale 0 0 1 0 180 arc tMatrix setmatrix
  closepath} bdef
/FtbRR {MtbRR stroke } bdef
/PtbRR {MtbRR fill } bdef
/stri 6 array def /dtri 6 array def
/smat 6 array def /dmat 6 array def
/tmat1 6 array def /tmat2 6 array def /dif 3 array def
/asub {/ind2 exch def /ind1 exch def dup dup
  ind1 get exch ind2 get sub exch } bdef
/tri_to_matrix {
  2 0 asub 3 1 asub 4 0 asub 5 1 asub
  dup 0 get exch 1 get 7 -1 roll astore } bdef
/compute_transform {
  dmat dtri tri_to_matrix tmat1 invertmatrix 
  smat stri tri_to_matrix tmat2 concatmatrix } bdef
/ds {stri astore pop} bdef
/dt {dtri astore pop} bdef
/db {2 copy /cols xdef /rows xdef mul dup 3 mul string
  currentfile 
  3 index 0 eq {/ASCIIHexDecode filter}
  {/ASCII85Decode filter 3 index 2 eq {/RunLengthDecode filter} if }
  ifelse exch readstring pop
  dup 0 3 index getinterval /rbmap xdef
  dup 2 index dup getinterval /gbmap xdef
  1 index dup 2 mul exch getinterval /bbmap xdef pop pop}bdef
/it {gs np dtri aload pop moveto lineto lineto cp c
  cols rows 8 compute_transform 
  rbmap gbmap bbmap true 3 colorimage gr}bdef
/il {newpath moveto lineto stroke}bdef
currentdict end def
%%EndProlog

%%BeginSetup
MathWorks begin

0 cap

end
%%EndSetup

%%Page: 1 1
%%BeginPageSetup
%%PageBoundingBox:    50    93   573   587
MathWorks begin
bpage
%%EndPageSetup

%%BeginObject: obj1
bplot

/dpi2point 8.33333 def
portraitMode 0150 5158 csm

  268   264  4361  4116 rc
84 dict begin %Colortable dictionary
/c0 { 0.000000 0.000000 0.000000 sr} bdef
/c1 { 1.000000 1.000000 1.000000 sr} bdef
/c2 { 0.900000 0.000000 0.000000 sr} bdef
/c3 { 0.000000 0.820000 0.000000 sr} bdef
/c4 { 0.000000 0.000000 0.800000 sr} bdef
/c5 { 0.910000 0.820000 0.320000 sr} bdef
/c6 { 1.000000 0.260000 0.820000 sr} bdef
/c7 { 0.000000 0.820000 0.820000 sr} bdef
c0
1 j
1 sg
   0    0 5001 5001 rf
12.5 w
0 3500 3750 0 0 -3500 750 4000 4 MP
PP
-3750 0 0 3500 3750 0 0 -3500 750 4000 5 MP stroke
gs 750 500 3751 3501 rc
16.6667 w
0 sg
1 0 2 2 2 -1 2 0 2 -1 2 1 2 0 1 1 
2 1 2 0 2 0 2 0 2 -1 2 1 2 -1 1 1 
2 0 2 0 2 0 2 0 2 0 2 0 2 1 1 -1 
2 1 2 -1 2 -1 2 0 2 2 2 0 2 1 1 1 
2 -1 2 1 2 1 2 0 2 0 2 0 1 1 2 0 
2 1 2 -1 2 1 2 0 2 0 2 1 1 2 2 0 
2 2 2 1 2 0 2 0 2 0 2 -1 1 1 2 0 
2 0 2 2 2 0 2 0 2 1 2 1 1 -1 2 0 
2 0 2 2 2 -1 2 0 2 0 1 0 2 0 2 0 
2 -1 2 2 2 0 2 0 2 1 1 -1 2 0 2 0 
2 0 2 -1 2 0 2 0 2 0 1 0 2 -1 2 0 
2 0 2 1 2 -2 2 0 2 0 1 -1 2 2 2 1 
2 0 2 1 2 2 2 1 2 0 1 0 2 0 2 0 
2 1 2 0 2 1 2 -1 1 1 2 0 2 0 2 -1 
2 0 2 0 2 -2 2 0 1 0 2 0 2 2 2 1 
2 -1 2 1 2 0 2 1 1 0 2 0 2 0 2 0 
2 -2 2 2 2 0 2 0 1 0 2 1 2 0 2 0 
2 -1 2 0 2 1 1 -1 2 1 2 0 2 0 2 0 
2 0 2 0 2 0 1 0 2 -1 2 3 2 0 2 -1 
2 1 2 2 2 0 1 0 2 0 2 0 2 0 2 2 
2 0 2 1 2 0 1 -1 2 1 2 0 2 1 2 1 
2 0 2 0 1 0 2 0 2 0 2 0 2 0 2 0 
2 -1 2 0 1 1 2 0 2 0 2 0 2 0 2 -1 
2 1 2 0 1 0 2 2 2 0 2 0 2 2 2 -2 
2 1 2 1 1 2 2 0 2 0 2 0 2 1 2 0 
2 -1 2 0 1 -1 2 1 2 0 2 1 2 0 2 0 
2 0 1 0 2 0 2 0 2 0 2 0 2 0 2 0 
2 0 1 1 2 0 2 0 2 0 2 1 2 2 2 1 
2 0 1 0 2 0 2 0 2 0 2 1 2 0 2 0 
2 0 1 0 2 0 2 0 2 0 2 0 2 1 2 0 
1 2 2 0 2 1 2 0 2 0 2 1 2 0 2 0 
1 0 2 0 2 0 2 0 2 0 2 1 2 0 2 0 
1 1 2 0 2 1 2 0 2 0 2 0 2 0 2 -1 
1 1 2 2 2 0 2 0 2 0 2 -1 2 -1 1 0 
2 0 2 0 2 0 2 1 2 1 2 0 2 0 1 1 
2 0 2 1 2 -1 2 0 2 0 2 1 2 0 1 -1 
2 -1 2 0 2 0 2 1 2 -1 2 0 2 0 1 0 
2 1 2 0 2 0 3446 1580 300 MP stroke
2 0 2 0 2 1 1 1 2 0 2 -2 2 0 2 0 
2 -1 2 0 2 1 1 -1 2 0 2 -1 2 0 2 0 
2 1 2 0 2 1 1 0 2 1 2 -1 2 0 2 0 
2 0 2 0 2 0 1 1 2 1 2 1 2 1 2 1 
2 0 2 -1 2 0 1 -1 2 1 2 -1 2 1 2 1 
2 0 2 0 1 1 2 0 2 -1 2 1 2 -1 2 0 
2 0 2 0 1 1 2 -1 2 0 2 0 2 -1 2 1 
2 1 2 0 1 0 2 -1 2 1 2 0 2 1 2 0 
2 -1 2 0 1 0 2 2 2 0 2 0 2 1 2 0 
2 0 1 -1 2 0 2 1 2 -1 2 1 2 -1 2 1 
2 0 1 0 2 0 2 1 2 0 2 1 2 0 2 0 
2 0 1 0 2 1 2 0 2 0 2 2 2 0 2 0 
2 2 1 0 2 1 2 0 2 1 2 1 2 -1 2 0 
1 1 2 0 2 -1 2 0 2 1 2 -1 2 0 2 0 
1 0 2 1 2 1 2 -2 2 0 2 -1 2 0 2 1 
1 -1 2 0 2 1 2 0 2 -1 2 1 2 1 2 0 
1 0 2 1 2 0 2 0 2 1 2 -1 2 1 2 0 
1 1 2 0 2 0 2 0 2 0 2 1 2 -1 1 0 
2 0 2 0 2 1 2 0 2 0 2 -1 2 -1 1 1 
2 0 2 0 2 0 2 0 2 0 2 -1 2 1 1 1 
2 -1 2 0 2 0 2 0 2 0 2 0 2 1 1 -1 
2 0 2 0 2 -1 2 1 2 0 2 0 1 0 2 1 
2 1 2 1 2 2 2 0 2 1 2 2 1 0 2 0 
2 0 2 0 2 0 2 0 2 3 2 1 1 0 2 1 
2 1 2 0 2 1 2 -1 2 1 2 2 1 -1 2 1 
2 1 2 1 2 0 2 1 2 -1 1 0 2 0 2 1 
2 0 2 0 2 1 2 0 2 0 1 -1 2 1 2 1 
2 -1 2 3 2 0 2 -1 2 1 1 0 2 0 2 0 
2 1 2 1 2 0 2 0 2 1 1 -1 2 1 2 0 
2 -1 2 1 2 0 2 1 2 0 1 0 2 0 2 0 
2 0 2 0 2 0 2 -2 1 2 2 2 2 -1 2 1 
2 0 2 1 2 -1 2 1 1 0 2 2 2 0 2 1 
2 -1 2 0 2 2 2 2 1 1 2 0 2 1 2 0 
2 1 2 0 2 2 2 -1 1 1 2 -1 2 0 2 0 
2 -1 2 1 2 0 1 0 2 1 2 0 2 0 2 -1 
2 -1 2 1 2 0 1 1 2 0 2 1 2 1 2 1 
2 0 2 0 2 0 1 1 2 1 2 -2 2 1 2 0 
2 -1 2 1 2 0 2886 1512 300 MP stroke
1 1 2 0 2 0 2 0 2 -1 2 0 2 -1 1 0 
2 1 2 -1 2 0 2 0 2 0 2 1 2 0 1 -1 
2 0 2 -2 2 0 2 1 2 0 2 1 2 1 1 2 
2 0 2 0 2 1 2 0 2 1 2 -1 2 0 1 0 
2 1 2 1 2 -1 2 0 2 -1 2 0 2 0 1 -1 
2 1 2 -1 2 0 2 1 2 0 2 0 1 1 2 0 
2 1 2 0 2 0 2 0 2 1 2 -1 1 0 2 0 
2 0 2 1 2 0 2 0 2 0 2 0 1 1 2 1 
2 -1 2 1 2 1 2 0 2 0 2 -1 1 0 2 1 
2 1 2 1 2 1 2 0 2 1 1 0 2 2 2 1 
2 1 2 0 2 0 2 0 2 1 1 -1 2 1 2 0 
2 0 2 0 2 0 2 0 2 0 1 0 2 0 2 1 
2 0 2 0 2 0 2 1 2 1 1 1 2 0 2 0 
2 1 2 0 2 -1 2 0 1 0 2 -1 2 1 2 0 
2 0 2 0 2 -1 2 0 1 -1 2 1 2 1 2 2 
2 1 2 -1 2 2 2 0 1 0 2 -1 2 1 2 0 
2 0 2 1 2 1 2 1 1 0 2 0 2 -1 2 -1 
2 0 2 0 2 1 1 1 2 0 2 -1 2 0 2 -1 
2 -1 2 1 2 0 1 0 2 0 2 1 2 0 2 0 
2 2 2 1 2 1 1 0 2 0 2 0 2 1 2 2 
2 0 2 0 2 0 1 0 2 0 2 2 2 0 2 1 
2 1 2 0 2 2 1 2 2 0 2 1 2 0 2 1 
2 0 2 1 1 1 2 1 2 0 2 -1 2 0 2 2 
2 1 2 1 1 1 2 0 2 -1 2 1 2 1 2 0 
2 0 2 1 1 1 2 0 2 1 2 0 2 -1 2 1 
2 -1 2 3 1 1 2 1 2 0 2 2 2 -2 2 0 
2 0 1 2 2 0 2 -1 2 -1 2 1 2 0 2 1 
2 0 1 0 2 -1 2 -1 2 0 2 1 2 -1 2 1 
2 0 1 1 2 1 2 1 2 -1 2 0 2 1 2 0 
2 2 1 -1 2 1 2 -1 2 1 2 0 2 3 2 -2 
1 -1 2 1 2 1 2 0 2 1 2 -1 2 0 2 -1 
1 0 2 -1 2 0 2 2 2 0 2 0 2 0 2 1 
1 0 2 -1 2 1 2 1 2 -1 2 1 2 2 2 1 
1 0 2 0 2 -2 2 0 2 -1 2 1 2 0 2 0 
1 0 2 0 2 0 2 0 2 1 2 0 2 1 1 1 
2 1 2 -1 2 0 2 1 2 2 2 0 2 0 1 1 
2 0 2 -1 2 4 2 0 2 0 2 0 2 1 1 0 
2 1 2 1 2 3 2327 1425 300 MP stroke
2 0 2 0 2 0 2 1 1 2 2 0 2 1 2 0 
2 1 2 0 2 1 1 -1 2 1 2 -1 2 0 2 0 
2 0 2 2 2 0 1 2 2 1 2 0 2 1 2 -1 
2 0 2 0 2 0 1 1 2 0 2 0 2 1 2 2 
2 0 2 0 2 1 1 1 2 1 2 0 2 1 2 1 
2 1 2 1 1 0 2 -1 2 0 2 0 2 1 2 0 
2 1 2 0 1 0 2 0 2 0 2 3 2 0 2 -1 
2 1 2 0 1 0 2 1 2 1 2 1 2 1 2 0 
2 1 2 1 1 0 2 1 2 1 2 0 2 0 2 1 
2 1 2 0 1 0 2 1 2 1 2 0 2 2 2 1 
2 -1 1 0 2 0 2 1 2 2 2 0 2 -1 2 1 
2 0 1 2 2 0 2 1 2 2 2 -1 2 1 2 1 
2 0 1 2 2 0 2 1 2 -1 2 2 2 -1 2 0 
2 2 1 1 2 0 2 0 2 2 2 0 2 0 2 3 
1 -2 2 1 2 0 2 1 2 3 2 0 2 0 2 0 
1 0 2 1 2 0 2 1 2 0 2 2 2 2 2 3 
1 2 2 0 2 1 2 1 2 -1 2 1 2 1 2 2 
1 1 2 1 2 1 2 1 2 1 2 1 2 0 1 -1 
2 0 2 2 2 -1 2 0 2 0 2 0 2 1 1 0 
2 0 2 0 2 2 2 0 2 0 2 0 2 1 1 3 
2 3 2 0 2 0 2 1 2 0 2 1 2 1 1 2 
2 0 2 1 2 1 2 0 2 0 2 2 1 0 2 0 
2 0 2 0 2 1 2 0 2 0 2 1 1 0 2 3 
2 0 2 1 2 0 2 -1 2 2 2 1 1 1 2 0 
2 1 2 0 2 0 2 1 2 0 2 1 1 1 2 1 
2 0 2 1 2 1 2 1 2 1 2 1 1 -2 2 1 
2 1 2 1 2 1 2 1 2 1 1 1 2 -1 2 1 
2 1 2 1 2 0 2 -1 2 0 1 1 2 -1 2 1 
2 3 2 1 2 1 2 2 2 -1 1 1 2 0 2 3 
2 1 2 0 2 0 2 0 2 0 1 1 2 -1 2 1 
2 0 2 1 2 0 2 1 1 2 2 0 2 1 2 1 
2 1 2 0 2 0 2 0 1 0 2 -1 2 0 2 0 
2 1 2 0 2 0 2 -1 1 2 2 0 2 0 2 1 
2 -1 2 0 2 0 2 1 1 0 2 0 2 2 2 1 
2 1 2 1 2 1 1 1 2 1 2 1 2 1 2 -1 
2 2 2 1 2 1 1 1 2 1 2 1 2 -1 2 0 
2 1 2 0 2 3 1 2 2 2 2 1 2 -1 2 2 
2 1 2 0 2 0 1767 1249 300 MP stroke
1 0 2 1 2 0 2 2 2 1 2 1 2 1 2 0 
1 -1 2 2 2 1 2 2 2 -1 2 0 2 0 1 2 
2 1 2 1 2 1 2 1 2 1 2 -1 2 0 1 2 
2 0 2 -1 2 0 2 0 2 1 2 1 2 1 1 0 
2 2 2 1 2 1 2 0 2 0 2 2 2 2 1 0 
2 1 2 1 2 1 2 2 2 2 2 -1 1 0 2 -1 
2 2 2 3 2 0 2 0 2 4 2 1 1 2 2 0 
2 1 2 -1 2 2 2 2 2 1 2 1 1 -1 2 1 
2 2 2 0 2 1 2 2 2 0 2 2 1 1 2 0 
2 0 2 2 2 0 2 1 2 1 1 -1 2 1 2 3 
2 2 2 2 2 0 2 -1 2 2 1 0 2 0 2 2 
2 -1 2 2 2 -1 2 2 2 0 1 0 2 0 2 0 
2 1 2 0 2 2 2 1 2 1 1 1 2 1 2 1 
2 0 2 1 2 0 2 1 2 1 1 0 2 -1 2 0 
2 2 2 0 2 1 2 2 1 1 2 -2 2 1 2 0 
2 1 2 1 2 1 2 1 1 0 2 2 2 -1 2 1 
2 0 2 0 2 1 2 0 1 2 2 1 2 4 2 2 
2 2 2 1 2 1 2 0 1 0 2 3 2 0 2 1 
2 -1 2 1 2 2 1 0 2 0 2 2 2 2 2 1 
2 0 2 0 2 0 1 -1 2 2 2 0 2 0 2 -1 
2 1 2 1 2 -1 1 1 2 2 2 1 2 1 2 0 
2 2 2 2 2 0 1 1 2 1 2 0 2 0 2 1 
2 0 2 2 1 0 2 2 2 0 2 1 2 0 2 1 
2 -1 2 1 1 0 2 3 2 0 2 0 2 2 2 1 
2 0 2 1 1 1 2 1 2 2 2 0 2 0 2 0 
2 1 2 -1 1 0 2 3 2 1 2 1 2 2 2 2 
2 2 1 3 2 1 2 2 2 2 2 1 2 2 2 0 
2 2 1 0 2 0 2 0 2 0 2 1 2 2 2 0 
2 4 1 0 2 1 2 0 2 -2 2 1 2 -2 2 2 
2 1 1 0 2 1 2 1 2 1 2 1 2 1 2 1 
2 -1 1 0 2 0 2 -2 2 2 2 1 2 0 2 0 
1 3 2 1 2 2 2 0 2 0 2 2 2 1 2 3 
1 4 2 1 2 1 2 0 2 -1 2 1 2 1 2 1 
1 0 2 2 2 1 2 -1 2 1 2 -1 2 2 2 2 
1 4 2 1 2 4 2 -1 2 2 2 1 2 1 1 2 
2 0 2 -3 2 0 2 1 2 2 2 1 2 -1 1 1 
2 1 2 -1 2 0 2 -1 2 0 2 2 2 0 1 0 
2 1 2 0 2 1 1208 1017 300 MP stroke
2 2 2 0 2 2 2 1 1 3 2 1 2 0 2 1 
2 0 2 2 2 3 1 -2 2 2 2 0 2 1 2 -1 
2 2 2 1 2 1 1 0 2 2 2 1 2 2 2 0 
2 2 2 1 2 0 1 1 2 0 2 0 2 -1 2 0 
2 1 2 0 2 2 1 -1 2 -1 2 -1 2 0 2 2 
2 2 2 0 2 2 1 0 2 0 2 0 2 1 2 0 
2 0 2 3 1 1 2 1 2 -1 2 1 2 0 2 1 
2 0 2 2 1 1 2 2 2 -1 2 1 2 0 2 1 
2 2 2 0 1 0 2 0 2 1 2 0 2 -1 2 2 
2 1 2 -1 1 1 2 -1 2 1 2 0 2 2 2 0 
2 0 1 1 2 0 2 1 2 0 2 2 2 1 2 -1 
2 1 1 0 2 0 2 0 2 1 2 0 2 0 2 2 
2 -1 1 2 2 1 2 0 2 2 2 0 2 0 2 1 
2 0 1 0 2 0 2 2 2 1 2 -2 2 0 2 1 
1 -1 2 1 2 0 2 0 2 0 2 0 2 -1 2 1 
1 0 2 1 2 0 2 1 2 1 2 0 2 0 2 1 
1 -1 2 -1 2 -1 2 1 2 0 2 1 2 0 2 1 
1 0 2 0 2 -1 2 1 2 0 2 0 2 1 2 0 
1 1 2 1 2 -1 2 2 2 -1 2 0 2 0 1 1 
2 1 2 1 2 1 2 -1 2 0 2 0 2 0 1 1 
2 -1 2 1 2 0 2 0 2 -1 2 1 2 1 1 0 
2 0 2 0 2 1 2 0 2 0 2 0 2 0 1 0 
2 0 2 1 2 0 2 0 2 -1 2 0 1 0 2 -1 
2 0 2 -1 2 -2 2 0 2 0 2 0 1 -1 2 -1 
2 0 2 0 2 0 2 -1 2 0 2 0 1 0 2 0 
2 0 2 0 2 0 2 0 2 1 2 0 1 0 2 0 
2 0 2 0 2 0 2 0 2 0 1 0 2 0 2 0 
2 0 2 -1 2 1 2 0 2 0 1 -1 2 0 2 0 
2 0 2 0 2 0 2 0 2 0 1 0 2 0 2 0 
2 0 2 0 2 0 2 0 2 0 1 0 2 -1 2 1 
2 0 2 0 2 0 2 0 1 0 750 943 246 MP stroke
gr

16.6667 w
0 sg
0.1 sg
%%IncludeResource: font Helvetica-Bold
/Helvetica-Bold /WindowsLatin1Encoding 183.333 FMSR

2010 4322 mt 
(Vertical Strain) s
 461 3127 mt  -90 rotate
(Number of Contacts) s
90 rotate
gs 750 500 3751 3501 rc
/c8 { 1.000000 0.000000 0.000000 sr} bdef
c8
2 -1 2 0 1 1 2 0 2 -1 2 1 1 1 2 1 
2 1 2 -1 2 -1 1 0 2 0 2 0 2 1 1 1 
2 0 2 -1 2 1 1 0 2 0 2 1 2 0 2 0 
1 0 2 0 2 2 2 0 1 0 2 0 2 0 2 0 
2 0 1 0 2 0 2 1 2 0 1 -1 2 1 2 0 
2 -1 2 0 1 0 2 0 2 1 2 -1 1 0 2 1 
2 0 2 -1 1 0 2 1 2 0 2 1 2 0 1 0 
2 1 2 1 2 1 1 0 2 0 2 0 2 0 2 0 
1 0 2 -1 2 0 2 0 1 0 2 0 2 1 2 -1 
2 1 1 -1 2 0 2 0 2 0 1 1 2 2 2 0 
2 0 2 1 1 1 2 0 2 0 2 0 1 1 2 0 
2 0 2 -1 1 1 2 1 2 0 2 0 2 0 1 1 
2 0 2 0 2 -1 1 0 2 0 2 0 2 0 2 2 
1 0 2 2 2 0 2 0 1 1 2 0 2 0 2 2 
2 -1 1 -1 2 0 2 0 2 0 1 0 2 1 2 0 
2 1 2 0 1 1 2 0 2 1 2 0 1 0 2 0 
2 1 2 1 1 1 2 0 2 0 2 1 2 -1 1 0 
2 1 2 -1 2 0 1 2 2 0 2 1 2 0 2 0 
1 0 2 0 2 1 2 0 1 -2 2 1 2 0 2 1 
2 -1 1 1 2 1 2 0 2 0 1 2 2 1 2 1 
2 2 1 0 2 1 2 0 2 0 2 0 1 0 2 0 
2 1 2 -1 1 1 2 0 2 0 2 -1 2 0 1 0 
2 0 2 0 2 0 1 0 2 0 2 1 2 0 2 0 
1 0 2 0 2 1 2 0 1 0 2 0 2 0 2 0 
2 -1 1 0 2 1 2 0 2 0 1 0 2 0 2 0 
2 0 1 1 2 -1 2 0 2 0 2 1 1 0 2 0 
2 1 2 0 1 -1 2 2 2 0 2 0 2 0 1 1 
2 1 2 -1 2 2 1 0 2 0 2 0 2 0 2 -1 
1 0 2 1 2 1 2 0 1 0 2 0 2 0 2 0 
1 -1 2 0 2 0 2 0 2 0 1 0 2 1 2 -2 
2 0 1 1 2 0 2 2 2 -1 2 0 1 1 2 1 
2 0 2 1 1 -1 2 1 2 0 2 0 2 0 1 0 
2 -1 2 1 2 1 1 -1 2 0 2 0 2 0 2 -1 
1 0 2 1 2 2 2 -1 1 0 2 -1 2 0 2 -1 
1 1 2 0 2 -1 2 0 2 0 1 0 2 0 2 1 
2 1 1 1 2 0 2 1 2 1 2 0 1 -1 2 1 
2 0 2 1 1 0 2 1 2 -1 2 1 2 -1 1 0 
2 1 2 0 2 0 3413 2489 300 MP stroke
1 0 2 0 2 0 2 0 2 0 1 1 2 0 2 0 
2 1 1 0 2 1 2 1 2 1 1 0 2 1 2 -1 
2 1 2 0 1 0 2 0 2 2 2 0 1 1 2 1 
2 -1 2 0 2 1 1 0 2 0 2 0 2 0 1 -1 
2 1 2 -1 2 2 2 1 1 1 2 -1 2 1 2 1 
1 0 2 0 2 0 2 0 1 1 2 0 2 0 2 -1 
2 0 1 1 2 0 2 0 2 1 1 1 2 -1 2 -1 
2 1 2 1 1 0 2 1 2 1 2 1 1 0 2 1 
2 -2 2 0 2 0 1 0 2 0 2 -1 2 1 1 0 
2 1 2 0 2 0 2 1 1 0 2 0 2 0 2 0 
1 0 2 -1 2 1 2 1 1 -1 2 1 2 0 2 -1 
2 1 1 0 2 1 2 -1 2 0 1 0 2 -1 2 1 
2 0 2 0 1 0 2 0 2 0 2 0 1 0 2 0 
2 1 2 1 2 0 1 0 2 0 2 1 2 -1 1 0 
2 -1 2 1 2 0 1 1 2 0 2 0 2 0 2 2 
1 1 2 0 2 0 2 1 1 0 2 0 2 -1 2 0 
2 0 1 0 2 0 2 1 2 1 1 1 2 0 2 0 
2 1 2 -1 1 -1 2 0 2 0 2 1 1 1 2 -1 
2 0 2 -1 2 0 1 1 2 0 2 0 2 1 1 0 
2 0 2 0 2 0 1 1 2 0 2 0 2 -1 2 0 
1 0 2 0 2 0 2 1 1 1 2 1 2 -2 2 1 
2 -1 1 0 2 0 2 2 2 0 1 1 2 -1 2 1 
2 2 2 0 1 1 2 0 2 -1 2 2 1 -2 2 0 
2 -1 2 3 2 0 1 1 2 0 2 0 2 -1 1 0 
2 2 2 0 2 0 1 0 2 0 2 1 2 0 2 1 
1 1 2 0 2 -1 2 0 1 0 2 1 2 0 2 2 
2 1 1 1 2 0 2 0 2 -1 1 -1 2 -2 2 0 
2 0 2 1 1 1 2 2 2 0 2 0 1 0 2 -1 
2 0 2 1 1 0 2 1 2 2 2 0 2 0 1 0 
2 0 2 0 2 0 1 1 2 1 2 0 2 2 2 0 
1 0 2 0 2 1 2 0 1 0 2 0 2 1 2 -1 
2 -1 1 1 2 1 2 -1 2 1 1 1 2 0 2 0 
2 -1 2 2 1 -1 2 0 2 0 2 -1 1 1 2 -1 
2 0 2 1 1 0 2 0 2 -1 2 1 2 0 1 0 
2 0 2 1 2 1 1 2 2 -2 2 0 2 0 2 2 
1 0 2 1 2 -1 2 3 1 0 2 1 2 1 2 0 
2 0 1 0 2 1 2 0 2 0 1 0 2 1 2 0 
2 0 1 1 2 1 2883 2417 300 MP stroke
2 0 2 -1 2 0 1 0 2 1 2 0 2 0 1 0 
2 0 2 2 2 0 2 0 1 1 2 0 2 0 2 0 
1 -1 2 1 2 0 2 0 2 1 1 1 2 0 2 0 
2 0 1 0 2 0 2 0 2 0 2 -1 1 1 2 0 
2 0 2 1 1 0 2 1 2 1 2 0 1 0 2 1 
2 -1 2 0 2 0 1 1 2 1 2 1 2 2 1 0 
2 0 2 2 2 -1 2 1 1 2 2 0 2 0 2 0 
1 0 2 1 2 -1 2 3 2 0 1 0 2 0 2 1 
2 -1 1 0 2 0 2 -1 2 1 2 0 1 0 2 0 
2 0 2 1 1 -2 2 0 2 -1 2 1 1 -2 2 -1 
2 -1 2 0 2 -1 1 0 2 0 2 1 2 0 1 0 
2 1 2 1 2 0 2 1 1 1 2 -2 2 1 2 1 
1 -1 2 1 2 0 2 0 2 0 1 0 2 1 2 1 
2 0 1 2 2 3 2 0 2 1 1 0 2 0 2 1 
2 1 2 1 1 1 2 0 2 0 2 1 1 2 2 0 
2 0 2 1 2 3 1 0 2 0 2 1 2 2 1 0 
2 1 2 2 2 0 2 0 1 1 2 0 2 2 2 1 
1 0 2 1 2 0 2 1 2 0 1 0 2 0 2 1 
2 1 1 0 2 0 2 0 2 -1 1 1 2 1 2 2 
2 -1 2 0 1 1 2 0 2 0 2 1 1 -1 2 -1 
2 -1 2 1 2 3 1 0 2 1 2 1 2 1 1 1 
2 0 2 0 2 1 2 1 1 0 2 0 2 1 2 0 
1 0 2 0 2 2 2 1 2 -2 1 0 2 1 2 0 
2 -1 1 1 2 1 2 -1 2 1 1 1 2 3 2 -1 
2 0 2 -1 1 0 2 2 2 0 2 2 1 0 2 0 
2 -1 2 1 2 2 1 0 2 0 2 0 2 -1 1 0 
2 1 2 0 2 1 2 0 1 2 2 0 2 0 2 1 
1 1 2 1 2 -1 2 1 1 1 2 0 2 1 2 -1 
2 -1 1 1 2 0 2 0 2 0 1 0 2 1 2 0 
2 0 2 0 1 1 2 0 2 3 2 0 1 0 2 1 
2 2 2 0 2 -1 1 1 2 2 2 0 2 0 1 0 
2 0 2 -1 2 2 2 0 1 1 2 -1 2 1 2 1 
1 0 2 0 2 1 2 1 1 2 2 3 2 1 2 1 
2 1 1 1 2 0 2 0 2 -1 1 2 2 1 2 0 
2 0 2 1 1 1 2 0 2 1 2 0 1 0 2 0 
2 -1 2 0 2 -1 1 1 2 0 2 0 2 2 1 1 
2 1 2 1 2 -3 1 1 2 0 2 0 2 0 2 0 
1 0 2 1 2 1 2352 2302 300 MP stroke
2 -1 1 1 2 0 2 1 2 -1 2 1 1 0 2 0 
2 1 2 0 1 1 2 2 2 0 2 1 2 1 1 0 
2 1 2 0 2 1 1 1 2 0 2 0 2 1 2 0 
1 1 2 -1 2 0 2 -1 1 1 2 -1 2 0 2 0 
1 0 2 2 2 0 2 0 2 -1 1 1 2 0 2 2 
2 0 1 2 2 0 2 1 2 2 2 0 1 0 2 1 
2 1 2 1 1 -2 2 1 2 1 2 0 2 1 1 0 
2 0 2 0 2 0 1 0 2 0 2 0 2 2 2 0 
1 0 2 0 2 1 2 -1 1 1 2 0 2 -1 2 1 
1 2 2 -1 2 0 2 1 2 -1 1 1 2 0 2 0 
2 1 1 0 2 1 2 0 2 0 2 1 1 1 2 -1 
2 2 2 2 1 -1 2 1 2 2 2 -1 2 1 1 0 
2 2 2 0 2 1 1 1 2 0 2 1 2 0 1 1 
2 0 2 1 2 0 2 1 1 1 2 1 2 2 2 2 
1 1 2 0 2 1 2 2 2 1 1 0 2 0 2 2 
2 0 1 0 2 3 2 -1 2 -1 2 1 1 -1 2 -1 
2 2 2 1 1 0 2 -1 2 1 2 2 2 0 1 2 
2 -1 2 0 2 0 1 1 2 0 2 1 2 0 1 3 
2 1 2 0 2 1 2 0 1 0 2 0 2 0 2 0 
1 0 2 0 2 0 2 1 2 0 1 0 2 1 2 0 
2 0 1 0 2 2 2 1 2 0 2 0 1 1 2 1 
2 2 2 0 1 0 2 0 2 1 2 -1 1 0 2 1 
2 0 2 2 2 1 1 0 2 1 2 1 2 -1 1 1 
2 0 2 0 2 1 2 1 1 0 2 1 2 0 2 0 
1 0 2 2 2 1 2 1 2 1 1 -1 2 0 2 0 
2 1 1 0 2 1 2 2 2 1 2 0 1 3 2 0 
2 0 2 2 1 -1 2 -1 2 0 2 0 1 0 2 2 
2 0 2 0 2 1 1 -1 2 0 2 0 2 1 1 1 
2 0 2 0 2 0 2 1 1 -1 2 3 2 0 2 -1 
1 2 2 1 2 -1 2 1 2 -1 1 3 2 0 2 0 
2 -2 1 2 2 1 2 1 2 0 2 0 1 1 2 1 
2 1 2 1 1 1 2 0 2 1 2 1 1 1 2 0 
2 1 2 1 2 0 1 -1 2 2 2 1 2 2 1 0 
2 -1 2 1 2 1 2 0 1 0 2 0 2 0 2 0 
1 1 2 0 2 0 2 1 2 1 1 -1 2 0 2 0 
2 1 1 1 2 -2 2 1 2 1 1 0 2 1 2 0 
2 1 2 1 1 1 2 1 2 1 2 1 1 0 2 0 
2 1 2 0 2 1 1821 2160 300 MP stroke
1 0 2 1 2 3 2 0 1 2 2 0 2 1 2 1 
2 0 1 0 2 0 2 0 2 1 1 -1 2 2 2 0 
2 1 2 1 1 0 2 0 2 0 2 2 1 0 2 0 
2 1 2 0 1 0 2 0 2 2 2 0 2 1 1 0 
2 -1 2 1 2 2 1 0 2 1 2 0 2 1 2 1 
1 -1 2 1 2 1 2 0 1 -1 2 0 2 0 2 -1 
2 1 1 2 2 1 2 -1 2 1 1 1 2 1 2 1 
2 -1 1 1 2 -1 2 3 2 -1 2 1 1 1 2 -1 
2 2 2 0 1 2 2 1 2 2 2 0 2 1 1 0 
2 -1 2 2 2 0 1 1 2 0 2 0 2 0 2 1 
1 1 2 1 2 1 2 2 1 0 2 0 2 0 2 2 
2 -1 1 1 2 1 2 2 2 0 1 2 2 0 2 2 
2 0 1 0 2 0 2 0 2 1 2 1 1 1 2 1 
2 1 2 0 1 1 2 1 2 2 2 1 2 -1 1 0 
2 0 2 1 2 1 1 1 2 0 2 0 2 0 2 0 
1 2 2 1 2 0 2 4 1 1 2 2 2 1 2 1 
2 3 1 2 2 2 2 2 2 2 1 0 2 1 2 1 
2 1 1 2 2 2 2 0 2 0 2 3 1 -1 2 0 
2 -1 2 1 1 0 2 0 2 0 2 1 2 2 1 0 
2 0 2 0 2 1 1 1 2 3 2 1 2 0 2 1 
1 1 2 1 2 1 2 3 1 0 2 1 2 -1 2 0 
1 3 2 1 2 2 2 1 2 2 1 1 2 0 2 1 
2 0 1 2 2 1 2 -1 2 2 2 0 1 -1 2 1 
2 -1 2 2 1 0 2 0 2 -1 2 3 2 1 1 1 
2 1 2 2 2 2 1 0 2 1 2 0 2 3 2 1 
1 1 2 1 2 1 2 2 1 1 2 2 2 2 2 1 
1 0 2 2 2 0 2 2 2 1 1 1 2 0 2 1 
2 2 1 2 2 -1 2 3 2 3 2 1 1 0 2 1 
2 1 2 0 1 2 2 0 2 2 2 1 2 3 1 1 
2 0 2 2 2 2 1 0 2 4 2 3 2 0 1 -1 
2 -1 2 2 2 1 2 1 1 1 2 1 2 2 2 1 
1 0 2 2 2 1 2 3 2 1 1 0 2 0 2 1 
2 3 1 1 2 2 2 0 2 0 2 1 1 4 2 1 
2 1 2 0 1 3 2 0 2 2 2 0 2 0 1 1 
2 0 2 0 2 0 1 0 2 1 2 0 2 0 1 0 
2 1 2 1 2 1 2 2 1 0 2 -1 2 1 2 1 
1 2 2 0 2 0 2 2 2 3 1 0 2 2 2 1 
2 -2 1 1 2 0 1291 1914 300 MP stroke
2 3 2 4 2 0 1 0 2 2 2 0 2 2 1 1 
2 2 2 2 2 2 2 0 1 0 2 2 2 1 2 0 
1 0 2 2 2 1 2 2 1 1 2 1 2 1 2 2 
2 1 1 2 2 -1 2 2 2 0 1 0 2 0 2 0 
2 2 2 3 1 1 2 -1 2 1 2 0 1 2 2 2 
2 1 2 0 2 -2 1 0 2 2 2 0 2 0 1 2 
2 0 2 0 2 2 1 1 2 2 2 2 2 1 2 1 
1 1 2 0 2 1 2 1 1 0 2 1 2 2 2 1 
2 1 1 2 2 -1 2 0 2 0 1 1 2 0 2 0 
2 2 2 1 1 0 2 2 2 0 2 1 1 0 2 0 
2 2 2 -1 2 1 1 1 2 1 2 1 2 1 1 2 
2 2 2 1 2 2 1 2 2 1 2 0 2 0 2 0 
1 3 2 1 2 0 2 0 1 0 2 0 2 0 2 1 
2 1 1 1 2 1 2 1 2 0 1 2 2 0 2 1 
2 1 2 0 1 -1 2 2 2 0 2 2 1 0 2 0 
2 -1 2 0 1 0 2 0 2 0 2 0 2 0 1 0 
2 0 2 1 2 0 1 1 2 1 2 2 2 2 2 1 
1 1 2 1 2 1 2 -1 1 0 2 2 2 1 2 1 
2 -2 1 0 2 -1 2 0 2 1 1 0 2 2 2 -1 
2 -1 2 1 1 1 2 0 2 2 2 0 1 0 2 1 
2 0 2 0 1 2 2 -1 2 1 2 2 2 1 1 2 
2 0 2 -1 2 1 1 0 2 0 2 0 2 1 2 -1 
1 0 2 -1 2 0 2 0 1 1 2 0 2 0 2 2 
2 -1 1 -1 2 0 2 0 2 0 1 0 2 1 2 1 
2 0 2 0 1 0 2 2 2 -2 2 0 1 0 2 1 
2 -1 2 0 1 0 2 0 2 0 2 -1 2 1 1 0 
2 0 2 0 2 0 1 1 2 1 2 1 2 -1 2 0 
1 0 2 1 2 0 2 0 1 -1 2 0 2 1 2 0 
2 -1 1 1 2 -1 2 0 2 -1 1 0 2 1 2 0 
2 1 1 0 2 0 2 0 2 0 2 1 1 -1 2 1 
2 -1 2 0 1 0 2 0 2 0 2 0 2 0 1 0 
2 0 2 0 2 0 1 0 2 0 2 0 2 -1 2 0 
1 0 2 0 2 0 2 0 1 -1 2 0 2 0 2 -1 
2 0 1 0 2 0 2 0 2 0 1 0 2 0 2 0 
2 0 1 0 2 0 2 0 2 0 2 0 1 0 2 0 
2 0 2 0 1 0 2 0 2 0 2 0 2 0 1 0 
2 0 2 0 2 -1 1 1 2 0 2 0 2 0 2 0 
1 0 2 0 2 0 760 1784 300 MP stroke
2 0 1 0 2 0 2 0 2 0 1 0 750 1784 7 MP stroke
/c9 { 0.000000 0.000000 1.000000 sr} bdef
c9
2 0 2 1 2 0 2 0 1 0 2 0 2 1 2 1 
2 0 2 -1 2 0 2 0 2 1 2 0 2 1 2 1 
2 0 2 0 2 1 2 0 2 -1 2 0 2 -1 2 1 
2 1 2 1 2 0 2 0 2 1 2 -1 2 0 1 0 
2 1 2 0 2 0 2 1 2 0 2 0 2 1 2 -1 
2 0 2 0 2 0 2 1 2 0 2 0 2 1 2 1 
2 0 2 0 2 0 2 1 2 0 2 0 2 0 2 1 
2 0 2 1 1 1 2 0 2 0 2 1 2 0 2 0 
2 0 2 0 2 0 2 -1 2 0 2 0 2 0 2 0 
2 0 2 1 2 -1 2 0 2 2 2 -1 2 -2 2 0 
2 0 2 1 2 1 2 0 2 0 1 0 2 -1 2 0 
2 0 2 -1 2 -1 2 0 2 0 2 0 2 2 2 0 
2 1 2 0 2 1 2 -1 2 1 2 0 2 0 2 1 
2 0 2 0 2 0 2 1 2 0 2 1 2 1 2 0 
2 0 1 0 2 -1 2 0 2 3 2 0 2 1 2 0 
2 0 2 0 2 0 2 0 2 0 2 0 2 -1 2 1 
2 0 2 0 2 0 2 1 2 -1 2 2 2 0 2 0 
2 1 2 -1 2 1 2 0 1 0 2 0 2 0 2 0 
2 -1 2 0 2 0 2 1 2 0 2 2 2 0 2 -1 
2 1 2 0 2 0 2 1 2 0 2 1 2 0 2 0 
2 0 2 0 2 0 2 0 2 0 2 0 2 0 1 1 
2 -1 2 1 2 -1 2 0 2 0 2 0 2 0 2 0 
2 0 2 0 2 0 2 1 2 0 2 0 2 -1 2 -1 
2 0 2 -1 2 0 2 2 2 1 2 0 2 0 2 1 
2 0 2 1 2 0 1 0 2 1 2 1 2 0 2 0 
2 0 2 0 2 2 2 0 2 1 2 1 2 0 2 -1 
2 0 2 -1 2 1 2 0 2 0 2 0 2 0 2 1 
2 0 2 0 2 0 2 0 2 0 2 1 1 0 2 0 
2 -1 2 1 2 2 2 1 2 2 2 0 2 0 2 1 
2 -2 2 1 2 1 2 0 2 0 2 0 2 0 2 1 
2 -1 2 0 2 0 2 0 2 0 2 0 2 -1 2 1 
2 0 1 0 2 2 2 -1 2 -1 2 0 2 1 2 0 
2 0 2 0 2 0 2 0 2 0 2 0 2 -1 2 1 
2 1 2 1 2 -1 2 -1 2 0 2 0 2 0 2 0 
2 0 2 0 2 1 2 0 1 0 2 0 2 1 2 -1 
2 1 2 0 2 1 2 1 2 0 2 -1 2 0 2 1 
2 0 2 0 2 -1 2 1 2 -1 2 1 2 0 2 0 
2 0 2 0 2 0 2420 3625 300 MP stroke
2 0 2 1 2 0 2 1 2 0 1 -1 2 1 2 1 
2 0 2 0 2 2 2 -1 2 1 2 0 2 0 2 0 
2 1 2 0 2 0 2 1 2 1 2 1 2 0 2 0 
2 0 2 0 2 0 2 0 2 0 2 0 2 0 2 0 
1 -1 2 0 2 1 2 -2 2 0 2 1 2 0 2 0 
2 0 2 -1 2 0 2 1 2 1 2 0 2 0 2 1 
2 0 2 0 2 1 2 0 2 0 2 1 2 0 2 0 
2 2 2 1 2 1 1 0 2 0 2 0 2 1 2 1 
2 1 2 1 2 0 2 1 2 0 2 0 2 1 2 -1 
2 1 2 0 2 1 2 0 2 0 2 0 2 1 2 0 
2 0 2 0 2 1 2 1 2 0 2 1 2 1 1 0 
2 0 2 2 2 0 2 0 2 0 2 1 2 0 2 0 
2 0 2 1 2 -1 2 2 2 1 2 0 2 0 2 0 
2 0 2 1 2 1 2 0 2 0 2 1 2 0 2 0 
2 1 2 0 1 2 2 -1 2 2 2 0 2 1 2 1 
2 1 2 1 2 0 2 0 2 0 2 0 2 2 2 0 
2 -1 2 -1 2 1 2 1 2 0 2 -1 2 1 2 1 
2 1 2 0 2 1 2 0 2 -1 1 2 2 -1 2 1 
2 1 2 0 2 1 2 1 2 -1 2 1 2 0 2 0 
2 0 2 -1 2 1 2 0 2 1 2 -1 2 1 2 1 
2 0 2 1 2 1 2 0 2 1 2 0 2 0 2 0 
1 0 2 0 2 1 2 0 2 -1 2 1 2 2 2 1 
2 0 2 0 2 1 2 0 2 -1 2 0 2 0 2 0 
2 0 2 0 2 1 2 1 2 0 2 1 2 0 2 0 
2 2 2 1 2 0 2 1 1 1 2 1 2 0 2 0 
2 1 2 0 2 2 2 1 2 -1 2 0 2 1 2 0 
2 1 2 0 2 2 2 0 2 1 2 0 2 0 2 2 
2 0 2 0 2 0 2 1 2 0 2 0 2 1 1 0 
2 0 2 0 2 1 2 -1 2 1 2 1 2 0 2 0 
2 0 2 0 2 0 2 1 2 -1 2 1 2 0 2 0 
2 0 2 1 2 1 2 0 2 -2 2 1 2 0 2 2 
2 1 2 -1 1 1 2 -1 2 1 2 1 2 0 2 0 
2 0 2 -1 2 1 2 -1 2 2 2 1 2 0 2 0 
2 2 2 0 2 0 2 -1 2 2 2 -1 2 0 2 0 
2 2 2 0 2 1 2 0 2 0 2 1 1 0 2 1 
2 0 2 0 2 0 2 0 2 1 2 0 2 1 2 1 
2 1 2 0 2 -1 2 2 2 0 2 0 2 2 2 0 
2 1 2 1 2 1 1833 3514 300 MP stroke
2 1 2 0 2 1 2 1 2 0 2 0 1 2 2 1 
2 1 2 1 2 -1 2 0 2 0 2 0 2 1 2 1 
2 0 2 2 2 0 2 0 2 0 2 0 2 2 2 0 
2 0 2 0 2 0 2 3 2 1 2 1 2 0 2 1 
2 2 1 0 2 2 2 0 2 0 2 1 2 0 2 0 
2 1 2 0 2 0 2 0 2 0 2 0 2 1 2 1 
2 1 2 1 2 0 2 2 2 -1 2 1 2 1 2 0 
2 0 2 -1 2 1 2 1 1 1 2 1 2 1 2 0 
2 0 2 0 2 -1 2 2 2 1 2 0 2 1 2 0 
2 1 2 1 2 0 2 0 2 1 2 1 2 0 2 1 
2 1 2 1 2 0 2 0 2 2 2 -1 2 1 2 0 
1 0 2 0 2 0 2 0 2 2 2 0 2 -1 2 1 
2 1 2 1 2 1 2 0 2 1 2 1 2 0 2 0 
2 0 2 1 2 1 2 1 2 0 2 0 2 1 2 1 
2 -1 2 1 2 1 1 0 2 2 2 1 2 0 2 0 
2 0 2 0 2 1 2 -1 2 2 2 1 2 2 2 0 
2 0 2 0 2 1 2 0 2 -1 2 2 2 -1 2 2 
2 1 2 1 2 0 2 0 2 0 2 -1 1 1 2 2 
2 0 2 0 2 4 2 1 2 1 2 2 2 0 2 1 
2 2 2 0 2 0 2 1 2 0 2 1 2 0 2 1 
2 1 2 0 2 -1 2 1 2 1 2 1 2 1 2 0 
2 0 2 1 1 1 2 0 2 1 2 1 2 1 2 0 
2 1 2 1 2 1 2 0 2 1 2 1 2 0 2 2 
2 1 2 0 2 1 2 0 2 1 2 2 2 0 2 0 
2 2 2 0 2 0 2 1 2 1 1 -2 2 2 2 0 
2 1 2 2 2 1 2 1 2 0 2 -1 2 2 2 1 
2 0 2 1 2 1 2 0 2 1 2 1 2 -1 2 0 
2 2 2 2 2 1 2 1 2 0 2 -1 2 2 2 1 
1 0 2 0 2 1 2 2 2 0 2 1 2 0 2 0 
2 1 2 0 2 0 2 0 2 2 2 1 2 1 2 1 
2 0 2 2 2 -1 2 2 2 0 2 1 2 1 2 0 
2 0 2 0 2 2 1 0 2 0 2 1 2 1 2 1 
2 0 2 0 2 0 2 2 2 0 2 1 2 0 2 0 
2 1 2 2 2 -1 2 1 2 0 2 2 2 1 2 0 
2 0 2 3 2 2 2 0 2 1 2 1 2 0 1 0 
2 1 2 0 2 0 2 -1 2 0 2 1 2 0 2 1 
2 1 2 0 2 0 2 0 2 1 2 0 2 0 2 0 
2 0 2 1 2 0 1246 3340 300 MP stroke
2 0 2 1 2 1 2 0 2 2 2 -1 2 -1 1 0 
2 1 2 0 2 0 2 2 2 0 2 0 2 0 2 0 
2 1 2 1 2 1 2 1 2 0 2 1 2 1 2 0 
2 0 2 0 2 0 2 0 2 1 2 0 2 1 2 0 
2 0 2 1 1 -1 2 1 2 0 2 1 2 2 2 0 
2 1 2 0 2 1 2 0 2 1 2 0 2 1 2 0 
2 -1 2 1 2 -1 2 0 2 2 2 1 2 0 2 1 
2 0 2 1 2 0 2 0 2 0 2 2 1 -1 2 0 
2 0 2 1 2 0 2 0 2 1 2 0 2 0 2 0 
2 0 2 -1 2 1 2 0 2 0 2 0 2 3 2 -1 
2 1 2 0 2 1 2 0 2 1 2 0 2 0 2 0 
2 0 1 0 2 0 2 0 2 0 2 0 2 0 2 1 
2 0 2 1 2 -1 2 0 2 1 2 -1 2 0 2 0 
2 1 2 0 2 -1 2 1 2 0 2 0 2 1 2 0 
2 0 2 1 2 -1 2 0 1 0 2 0 2 0 2 -1 
2 0 2 0 2 0 2 0 2 0 2 0 2 1 2 0 
2 0 2 1 2 0 2 0 2 0 2 -1 2 -1 2 0 
2 -1 2 0 2 1 2 0 2 -1 2 0 2 1 1 0 
2 0 2 0 2 0 2 1 2 1 2 0 2 0 2 -1 
2 0 2 0 2 0 2 -1 2 1 2 0 2 0 2 -1 
2 0 2 0 2 0 2 0 2 0 2 -1 2 0 2 0 
2 1 2 -1 2 0 1 0 2 1 2 0 2 0 2 0 
2 0 2 0 2 0 2 1 2 0 2 0 2 0 2 1 
2 0 2 1 2 0 2 0 2 0 2 0 2 0 2 0 
2 -1 2 0 2 0 2 0 2 0 2 0 1 0 2 0 
2 0 2 0 2 0 2 0 2 0 2 0 2 0 2 0 
2 0 2 1 2 -1 2 0 2 0 2 0 2 0 2 0 
2 0 2 0 2 0 2 0 2 0 2 0 2 0 2 0 
2 0 1 0 2 0 2 0 2 0 2 0 2 0 2 0 
2 0 2 0 2 0 2 0 2 0 2 -1 2 0 2 0 
2 0 2 -1 2 0 2 0 2 0 2 0 2 0 2 0 
2 0 2 0 2 0 2 0 1 0 750 3305 254 MP stroke
/c10 { 1.000000 0.000000 1.000000 sr} bdef
c10
2 0 1 0 2 0 2 2 2 0 1 -1 2 1 2 0 
1 1 2 -1 2 0 2 2 1 0 2 0 2 0 2 0 
1 0 2 0 2 1 2 1 1 1 2 0 2 0 1 1 
2 0 2 1 2 0 1 0 2 0 2 0 2 0 1 -1 
2 1 2 0 2 0 1 0 2 0 2 1 1 0 2 0 
2 0 2 0 1 1 2 1 2 -1 2 0 1 1 2 1 
2 -1 2 0 1 0 2 0 2 0 2 -1 1 -1 2 0 
2 0 1 1 2 0 2 0 2 0 1 1 2 -1 2 1 
2 0 1 3 2 0 2 -1 2 0 1 0 2 1 2 -1 
1 1 2 -1 2 2 2 0 1 0 2 0 2 0 2 -1 
1 0 2 0 2 -1 2 0 1 0 2 0 2 0 1 -1 
2 2 2 -1 2 -1 1 1 2 0 2 0 2 0 1 -1 
2 0 2 0 2 1 1 0 2 1 2 1 1 0 2 1 
2 1 2 0 1 0 2 0 2 -1 2 0 1 0 2 0 
2 0 2 0 1 1 2 0 2 0 1 0 2 1 2 0 
2 -1 1 1 2 0 2 0 2 0 1 0 2 0 2 0 
2 0 1 1 2 0 2 1 1 1 2 2 2 0 2 1 
1 -1 2 0 2 1 2 1 1 0 2 0 2 2 2 2 
1 0 2 0 2 0 1 1 2 -1 2 1 2 0 1 1 
2 1 2 0 2 1 1 1 2 0 2 0 2 -2 1 0 
2 1 2 0 2 -1 1 1 2 0 2 1 1 0 2 0 
2 0 2 0 1 0 2 0 2 -1 2 1 1 -2 2 0 
2 2 2 1 1 -1 2 0 2 0 1 2 2 0 2 1 
2 1 1 -1 2 1 2 1 2 1 1 0 2 -1 2 1 
2 0 1 1 2 2 2 0 1 0 2 1 2 1 2 1 
1 0 2 0 2 1 2 0 1 -1 2 1 2 1 2 0 
1 0 2 1 2 1 1 2 2 -1 2 0 2 0 1 0 
2 0 2 1 2 -1 1 1 2 0 2 1 2 -2 1 1 
2 1 2 1 1 2 2 0 2 1 2 1 1 0 2 2 
2 1 2 0 1 -1 2 1 2 1 2 0 1 -1 2 1 
2 0 1 0 2 0 2 0 2 0 1 0 2 1 2 1 
2 0 1 1 2 1 2 3 2 2 1 1 2 -1 2 1 
1 1 2 0 2 0 2 1 1 0 2 1 2 0 2 -1 
1 1 2 0 2 1 2 0 1 0 2 2 2 0 2 0 
1 -1 2 0 2 0 1 0 2 1 2 1 2 0 1 0 
2 1 2 0 2 0 1 0 2 -1 2 1 2 0 1 0 
2 1 2 2 1 0 2 1 2 1 2 -1 1 0 2 0 
2 1 2 0 1 0 2567 2911 300 MP stroke
2 -1 2 1 2 1 1 1 2 0 2 1 1 0 2 0 
2 0 2 0 1 1 2 2 2 -1 2 0 1 1 2 0 
2 1 2 1 1 2 2 0 2 0 1 -1 2 2 2 1 
2 1 1 0 2 0 2 0 2 0 1 0 2 0 2 1 
2 0 1 0 2 0 2 0 1 0 2 0 2 1 2 0 
1 1 2 1 2 0 2 0 1 1 2 2 2 0 2 -1 
1 0 2 0 2 1 1 0 2 0 2 0 2 -1 1 1 
2 0 2 -1 2 0 1 1 2 2 2 -1 2 1 1 1 
2 0 2 0 1 1 2 0 2 1 2 1 1 0 2 1 
2 1 2 -1 1 1 2 0 2 1 2 0 1 1 2 0 
2 1 2 1 1 1 2 1 2 1 1 0 2 1 2 1 
2 0 1 0 2 1 2 0 2 1 1 1 2 0 2 2 
2 0 1 1 2 0 2 -1 1 1 2 2 2 0 2 -1 
1 0 2 1 2 0 2 2 1 1 2 0 2 0 2 1 
1 0 2 1 2 0 1 -1 2 0 2 1 2 1 1 0 
2 0 2 0 2 0 1 0 2 0 2 2 2 -1 1 1 
2 0 2 1 1 0 2 0 2 0 2 0 1 1 2 2 
2 0 2 1 1 1 2 1 2 -1 2 1 1 -1 2 0 
2 1 1 1 2 -1 2 1 2 0 1 1 2 -1 2 2 
2 0 1 2 2 -1 2 0 2 -1 1 0 2 1 2 1 
1 1 2 0 2 0 2 -1 1 0 2 1 2 1 2 2 
1 1 2 0 2 1 2 1 1 1 2 0 2 0 1 0 
2 0 2 0 2 0 1 1 2 -1 2 1 2 1 1 -1 
2 -1 2 1 2 1 1 1 2 1 2 0 2 0 1 2 
2 0 2 -1 1 0 2 0 2 -1 2 2 1 0 2 1 
2 0 2 2 1 -1 2 -1 2 -1 2 0 1 0 2 1 
2 0 1 0 2 0 2 1 2 2 1 1 2 0 2 0 
2 0 1 0 2 -1 2 1 2 0 1 1 2 0 2 1 
1 1 2 0 2 0 2 1 1 -1 2 0 2 0 2 1 
1 0 2 -1 2 0 2 2 1 0 2 1 2 0 1 0 
2 1 2 0 2 -1 1 1 2 1 2 -1 2 0 1 2 
2 0 2 0 2 -1 1 0 2 1 2 0 1 0 2 0 
2 3 2 0 1 0 2 1 2 -1 2 0 1 0 2 0 
2 0 2 1 1 0 2 1 2 1 1 1 2 0 2 0 
2 1 1 0 2 1 2 0 2 -2 1 1 2 0 2 0 
2 0 1 1 2 0 2 0 1 2 2 1 2 2 2 1 
1 2 2 0 2 1 2 -1 1 2 2 -1 2 2 2 2 
1 1 2 1 2 1 2048 2793 300 MP stroke
2 0 1 1 2 1 2 -1 1 0 2 2 2 0 2 2 
1 1 2 0 2 1 2 -1 1 0 2 0 2 -1 2 -1 
1 2 2 0 2 0 1 0 2 1 2 1 2 -1 1 0 
2 1 2 0 2 2 1 0 2 0 2 1 2 0 1 0 
2 1 2 1 1 1 2 0 2 0 2 1 1 1 2 1 
2 0 2 0 1 0 2 1 2 2 2 0 1 1 2 0 
2 0 1 1 2 0 2 0 2 0 1 0 2 2 2 0 
2 0 1 2 2 1 2 1 2 0 1 1 2 -1 2 1 
1 0 2 0 2 -1 2 0 1 1 2 1 2 1 2 0 
1 0 2 1 2 1 2 1 1 3 2 1 2 -2 1 0 
2 2 2 2 2 2 1 1 2 -1 2 1 2 0 1 2 
2 0 2 -1 2 1 1 1 2 0 2 1 1 -1 2 0 
2 0 2 0 1 2 2 0 2 0 2 0 1 2 2 1 
2 1 2 -1 1 0 2 -1 2 0 2 1 1 -1 2 -2 
2 1 1 2 2 1 2 0 2 1 1 1 2 1 2 -2 
2 0 1 1 2 1 2 2 2 0 1 0 2 0 2 1 
1 1 2 0 2 -2 2 0 1 2 2 0 2 2 2 0 
1 1 2 0 2 -1 2 1 1 1 2 0 2 1 1 0 
2 1 2 0 2 1 1 1 2 -1 2 1 2 0 1 0 
2 1 2 1 2 0 1 2 2 0 2 -1 1 -1 2 1 
2 2 2 0 1 0 2 1 2 1 2 0 1 0 2 0 
2 1 2 3 1 1 2 1 2 0 1 1 2 0 2 -1 
2 2 1 1 2 1 2 -1 2 2 1 -1 2 0 2 0 
2 1 1 0 2 0 2 1 1 2 2 0 2 1 2 -1 
1 0 2 1 2 -1 2 0 1 2 2 -1 2 0 2 1 
1 0 2 0 2 -1 1 1 2 2 2 3 2 1 1 0 
2 -2 2 1 2 2 1 0 2 2 2 -1 2 0 1 2 
2 1 2 -1 2 2 1 -1 2 1 2 1 1 1 2 1 
2 1 2 0 1 -1 2 1 2 0 2 1 1 1 2 1 
2 0 2 1 1 1 2 2 2 1 1 0 2 1 2 0 
2 0 1 1 2 1 2 2 2 3 1 -1 2 0 2 2 
2 -1 1 0 2 0 2 0 1 0 2 -1 2 1 2 2 
1 1 2 0 2 1 2 0 1 -1 2 0 2 1 2 0 
1 1 2 0 2 2 1 0 2 1 2 1 2 0 1 1 
2 0 2 0 2 1 1 1 2 1 2 1 2 0 1 0 
2 2 2 1 1 1 2 0 2 0 2 0 1 1 2 1 
2 3 2 1 1 0 2 0 2 1 2 2 1 1 2 0 
2 1 1 2 2 1 1530 2639 300 MP stroke
2 1 2 -1 1 2 2 0 2 1 2 0 1 -1 2 1 
2 2 2 -1 1 2 2 1 2 0 1 2 2 1 2 1 
2 1 1 1 2 2 2 2 2 1 1 -1 2 1 2 -1 
2 0 1 1 2 2 2 0 2 2 1 1 2 1 2 0 
1 1 2 3 2 1 2 2 1 1 2 0 2 2 2 1 
1 0 2 0 2 -1 2 0 1 0 2 1 2 0 1 1 
2 0 2 0 2 1 1 0 2 1 2 0 2 1 1 0 
2 1 2 1 2 1 1 -1 2 2 2 0 1 0 2 1 
2 2 2 1 1 3 2 0 2 0 2 0 1 3 2 1 
2 0 2 1 1 0 2 1 2 0 1 1 2 0 2 1 
2 0 1 1 2 1 2 2 2 1 1 -1 2 0 2 1 
2 1 1 0 2 0 2 1 1 -1 2 1 2 2 2 2 
1 2 2 1 2 1 2 0 1 -2 2 0 2 3 2 2 
1 2 2 0 2 1 1 0 2 1 2 2 2 0 1 1 
2 2 2 2 2 1 1 0 2 1 2 3 2 2 1 1 
2 0 2 1 1 1 2 1 2 0 2 1 1 0 2 2 
2 1 2 0 1 1 2 1 2 2 2 1 1 1 2 1 
2 3 2 1 1 0 2 1 2 6 1 2 2 0 2 3 
2 0 1 0 2 0 2 1 2 1 1 1 2 2 2 2 
2 0 1 2 2 0 2 0 1 2 2 1 2 0 2 1 
1 0 2 0 2 1 2 1 1 0 2 1 2 0 2 1 
1 0 2 1 2 1 1 0 2 1 2 1 2 1 1 1 
2 1 2 -2 2 1 1 2 2 1 2 0 2 0 1 3 
2 -1 2 3 1 1 2 1 2 2 2 0 1 2 2 0 
2 0 2 1 1 -1 2 2 2 1 2 2 1 2 2 1 
2 -1 1 2 2 1 2 -1 2 1 1 1 2 0 2 1 
2 2 1 2 2 0 2 1 2 2 1 0 2 3 2 -1 
1 2 2 2 2 1 2 1 1 1 2 1 2 0 2 1 
1 2 2 1 2 1 2 2 1 2 2 3 2 1 1 0 
2 2 2 1 2 2 1 0 2 1 2 0 2 1 1 1 
2 0 2 2 2 0 1 -1 2 2 2 1 2 2 1 0 
2 1 2 2 1 0 2 0 2 2 2 0 1 2 2 0 
2 1 2 0 1 0 2 1 2 0 2 1 1 0 2 0 
2 2 1 -2 2 2 2 2 2 1 1 -1 2 0 2 2 
2 1 1 3 2 0 2 1 2 0 1 0 2 0 2 2 
1 1 2 0 2 2 2 0 1 2 2 2 2 1 2 1 
1 -1 2 -1 2 1 2 1 1 0 2 0 2 1 1 2 
2 0 2 0 2 0 1011 2386 300 MP stroke
1 1 2 1 2 0 2 1 1 0 2 1 2 0 2 -1 
1 1 2 -1 2 1 1 0 2 1 2 0 2 1 1 1 
2 0 2 0 2 0 1 0 2 1 2 2 2 1 1 1 
2 -1 2 2 1 0 2 1 2 0 2 1 1 0 2 0 
2 1 2 0 1 1 2 0 2 0 2 1 1 -1 2 0 
2 0 1 -1 2 1 2 0 2 0 1 0 2 -1 2 1 
2 1 1 0 2 -1 2 1 2 0 1 1 2 1 2 0 
2 -1 1 1 2 0 2 1 1 0 2 0 2 0 2 -2 
1 0 2 0 2 0 2 0 1 -2 2 -1 2 1 2 0 
1 0 2 0 2 1 1 0 2 0 2 0 2 0 1 0 
2 0 2 0 2 1 1 0 2 0 2 0 2 0 1 0 
2 -1 2 0 1 0 2 -1 2 0 2 1 1 -1 2 0 
2 0 2 0 1 0 2 -1 2 -1 2 0 1 0 2 1 
2 -1 1 0 2 0 2 0 2 0 1 0 2 0 2 0 
2 0 1 0 2 0 2 0 2 0 1 0 2 0 2 0 
1 0 2 0 2 0 2 1 1 0 2 0 2 0 2 0 
1 -1 2 0 2 -1 2 0 1 0 2 0 2 0 1 0 
2 0 2 0 2 0 1 0 2 0 2 0 2 0 1 0 
2 0 2 0 2 0 1 0 2 0 2 0 1 0 750 2372 152 MP stroke
gr

c10
0 sg
%%IncludeResource: font Helvetica
/Helvetica /WindowsLatin1Encoding 83.3333 FMSR

 738 4031 mt 
( ) s
4489  530 mt 
( ) s
8.33333 w
DO
SO
12.5 w
0.1 sg
 750  500 mt 4500  500 L
 750 4000 mt 4500 4000 L
4500 4000 mt 4500  500 L
 750 4000 mt  750  500 L
 750 4000 mt 4500 4000 L
 750 4000 mt  750  500 L
 750 4000 mt  750 3943 L
 750  500 mt  750  556 L
%%IncludeResource: font Helvetica
/Helvetica /WindowsLatin1Encoding 133.333 FMSR

 713 4148 mt 
(0) s
1500 4000 mt 1500 3943 L
1500  500 mt 1500  556 L
1371 4148 mt 
(0.02) s
2250 4000 mt 2250 3943 L
2250  500 mt 2250  556 L
2121 4148 mt 
(0.04) s
3000 4000 mt 3000 3943 L
3000  500 mt 3000  556 L
2871 4148 mt 
(0.06) s
3749 4000 mt 3749 3943 L
3749  500 mt 3749  556 L
3620 4148 mt 
(0.08) s
4500 4000 mt 4500 3943 L
4500  500 mt 4500  556 L
4408 4148 mt 
(0.1) s
 750 4000 mt  806 4000 L
4500 4000 mt 4443 4000 L
 541 4049 mt 
(0.7) s
 750 3611 mt  806 3611 L
4500 3611 mt 4443 3611 L
 541 3660 mt 
(0.8) s
 750 3222 mt  806 3222 L
4500 3222 mt 4443 3222 L
 541 3271 mt 
(0.9) s
 750 2833 mt  806 2833 L
4500 2833 mt 4443 2833 L
 652 2882 mt 
(1) s
 750 2444 mt  806 2444 L
4500 2444 mt 4443 2444 L
 541 2493 mt 
(1.1) s
 750 2055 mt  806 2055 L
4500 2055 mt 4443 2055 L
 541 2104 mt 
(1.2) s
 750 1666 mt  806 1666 L
4500 1666 mt 4443 1666 L
 541 1715 mt 
(1.3) s
 750 1277 mt  806 1277 L
4500 1277 mt 4443 1277 L
 541 1326 mt 
(1.4) s
 750  888 mt  806  888 L
4500  888 mt 4443  888 L
 541  937 mt 
(1.5) s
 750  500 mt  806  500 L
4500  500 mt 4443  500 L
 541  549 mt 
(1.6) s
 750  463 mt 
(x 10) s
%%IncludeResource: font Helvetica
/Helvetica /WindowsLatin1Encoding 88.8889 FMSR

1002  381 mt 
(4) s
 750  500 mt 4500  500 L
 750 4000 mt 4500 4000 L
4500 4000 mt 4500  500 L
 750 4000 mt  750  500 L
0 sg
%%IncludeResource: font Symbol
/Symbol /WindowsLatin1Encoding 125 FMSR

2565  686 mt 
(m) s
%%IncludeResource: font Helvetica-Bold
/Helvetica-Bold /WindowsLatin1Encoding 100 FMSR

2637  748 mt 
(s) s
%%IncludeResource: font Helvetica-Bold
/Helvetica-Bold /WindowsLatin1Encoding 125 FMSR

2692  686 mt 
( = 0.5 - P) s
%%IncludeResource: font Helvetica-Bold
/Helvetica-Bold /WindowsLatin1Encoding 100 FMSR

3234  748 mt 
(A) s
3306  748 mt 
(R) s
%%IncludeResource: font Helvetica-Bold
/Helvetica-Bold /WindowsLatin1Encoding 125 FMSR

3378  686 mt 
( = 1.0, ) s
%%IncludeResource: font Symbol
/Symbol /WindowsLatin1Encoding 125 FMSR

3758  686 mt 
(f) s
%%IncludeResource: font Helvetica-Bold
/Helvetica-Bold /WindowsLatin1Encoding 125 FMSR

3823  686 mt 
( = 0.352) s
gs 2244 542 2216 895 rc
16.6667 w
247 0 2293 664 2 MP stroke
gr

16.6667 w
%%IncludeResource: font Symbol
/Symbol /WindowsLatin1Encoding 125 FMSR

2565  902 mt 
(m) s
%%IncludeResource: font Helvetica-Bold
/Helvetica-Bold /WindowsLatin1Encoding 100 FMSR

2637  964 mt 
(s) s
%%IncludeResource: font Helvetica-Bold
/Helvetica-Bold /WindowsLatin1Encoding 125 FMSR

2692  902 mt 
( = 0.5 - P) s
%%IncludeResource: font Helvetica-Bold
/Helvetica-Bold /WindowsLatin1Encoding 100 FMSR

3234  964 mt 
(A) s
3306  964 mt 
(R) s
%%IncludeResource: font Helvetica-Bold
/Helvetica-Bold /WindowsLatin1Encoding 125 FMSR

3378  902 mt 
( = 1.5, ) s
%%IncludeResource: font Symbol
/Symbol /WindowsLatin1Encoding 125 FMSR

3758  902 mt 
(f) s
%%IncludeResource: font Helvetica-Bold
/Helvetica-Bold /WindowsLatin1Encoding 125 FMSR

3823  902 mt 
( = 0.377) s
gs 2244 542 2216 895 rc
c8
247 0 2293 880 2 MP stroke
gr

c8
0 sg
%%IncludeResource: font Symbol
/Symbol /WindowsLatin1Encoding 125 FMSR

2565 1119 mt 
(m) s
%%IncludeResource: font Helvetica-Bold
/Helvetica-Bold /WindowsLatin1Encoding 100 FMSR

2637 1181 mt 
(s) s
%%IncludeResource: font Helvetica-Bold
/Helvetica-Bold /WindowsLatin1Encoding 125 FMSR

2692 1119 mt 
( = 0.5 - P) s
%%IncludeResource: font Helvetica-Bold
/Helvetica-Bold /WindowsLatin1Encoding 100 FMSR

3234 1181 mt 
(A) s
3306 1181 mt 
(R) s
%%IncludeResource: font Helvetica-Bold
/Helvetica-Bold /WindowsLatin1Encoding 125 FMSR

3378 1119 mt 
( = 2 \(2p\), ) s
%%IncludeResource: font Symbol
/Symbol /WindowsLatin1Encoding 125 FMSR

3918 1119 mt 
(f) s
%%IncludeResource: font Helvetica-Bold
/Helvetica-Bold /WindowsLatin1Encoding 125 FMSR

3983 1119 mt 
( = 0.448) s
gs 2244 542 2216 895 rc
c9
247 0 2293 1097 2 MP stroke
gr

c9
0 sg
%%IncludeResource: font Symbol
/Symbol /WindowsLatin1Encoding 125 FMSR

2565 1335 mt 
(m) s
%%IncludeResource: font Helvetica-Bold
/Helvetica-Bold /WindowsLatin1Encoding 100 FMSR

2637 1397 mt 
(s) s
%%IncludeResource: font Helvetica-Bold
/Helvetica-Bold /WindowsLatin1Encoding 125 FMSR

2692 1335 mt 
( = 0.5 - P) s
%%IncludeResource: font Helvetica-Bold
/Helvetica-Bold /WindowsLatin1Encoding 100 FMSR

3234 1397 mt 
(A) s
3306 1397 mt 
(R) s
%%IncludeResource: font Helvetica-Bold
/Helvetica-Bold /WindowsLatin1Encoding 125 FMSR

3378 1335 mt 
( = 2 \(3p\), ) s
%%IncludeResource: font Symbol
/Symbol /WindowsLatin1Encoding 125 FMSR

3918 1335 mt 
(f) s
%%IncludeResource: font Helvetica-Bold
/Helvetica-Bold /WindowsLatin1Encoding 125 FMSR

3983 1335 mt 
( = 0.431) s
gs 2244 542 2216 895 rc
c10
247 0 2293 1313 2 MP stroke
12.5 w
gr

12.5 w
c10

end %%Color Dict

eplot
%%EndObject

epage
end

showpage

%%Trailer
%%EOF
