%!PS-Adobe-3.0 EPSF-3.0
%%Creator: MATLAB, The MathWorks, Inc. Version 8.1.0.604 (R2013a). Operating System: Microsoft Windows 7.
%%Title: .\StaticF_Confined_StressStain.eps
%%CreationDate: 08/17/2013  17:30:25
%%DocumentNeededFonts: Helvetica-Bold
%%+ Helvetica
%%DocumentProcessColors: Cyan Magenta Yellow Black
%%LanguageLevel: 2
%%Pages: 1
%%BoundingBox:    11    57   544   536
%%EndComments

%%BeginProlog
% MathWorks dictionary
/MathWorks 160 dict begin
% definition operators
/bdef {bind def} bind def
/ldef {load def} bind def
/xdef {exch def} bdef
/xstore {exch store} bdef
% operator abbreviations
/c  /clip ldef
/cc /concat ldef
/cp /closepath ldef
/gr /grestore ldef
/gs /gsave ldef
/mt /moveto ldef
/np /newpath ldef
/cm /currentmatrix ldef
/sm /setmatrix ldef
/rm /rmoveto ldef
/rl /rlineto ldef
/s {show newpath} bdef
/sc {setcmykcolor} bdef
/sr /setrgbcolor ldef
/sg /setgray ldef
/w /setlinewidth ldef
/j /setlinejoin ldef
/cap /setlinecap ldef
/rc {rectclip} bdef
/rf {rectfill} bdef
% page state control
/pgsv () def
/bpage {/pgsv save def} bdef
/epage {pgsv restore} bdef
/bplot /gsave ldef
/eplot {stroke grestore} bdef
% orientation switch
/portraitMode 0 def /landscapeMode 1 def /rotateMode 2 def
% coordinate system mappings
/dpi2point 0 def
% font control
/FontSize 0 def
/FMS {/FontSize xstore findfont [FontSize 0 0 FontSize neg 0 0]
  makefont setfont} bdef
/ISOLatin1Encoding where {pop /WindowsLatin1Encoding 256 array bdef
ISOLatin1Encoding WindowsLatin1Encoding copy pop
/.notdef/.notdef/quotesinglbase/florin/quotedblbase/ellipsis/dagger
/daggerdbl/circumflex/perthousand/Scaron/guilsinglleft/OE/.notdef/.notdef
/.notdef/.notdef/quoteleft/quoteright/quotedblleft/quotedblright/bullet
/endash/emdash/tilde/trademark/scaron/guilsinglright/oe/.notdef/.notdef
/Ydieresis WindowsLatin1Encoding 128 32 getinterval astore pop}
{/WindowsLatin1Encoding StandardEncoding bdef} ifelse
/reencode {exch dup where {pop load} {pop StandardEncoding} ifelse
  exch dup 3 1 roll findfont dup length dict begin
  { 1 index /FID ne {def}{pop pop} ifelse } forall
  /Encoding exch def currentdict end definefont pop} bdef
/isroman {findfont /CharStrings get /Agrave known} bdef
/FMSR {3 1 roll 1 index dup isroman {reencode} {pop pop} ifelse
  exch FMS} bdef
/csm {1 dpi2point div -1 dpi2point div scale neg translate
 dup landscapeMode eq {pop -90 rotate}
  {rotateMode eq {90 rotate} if} ifelse} bdef
% line types: solid, dotted, dashed, dotdash
/SO { [] 0 setdash } bdef
/DO { [.5 dpi2point mul 4 dpi2point mul] 0 setdash } bdef
/DA { [6 dpi2point mul] 0 setdash } bdef
/DD { [.5 dpi2point mul 4 dpi2point mul 6 dpi2point mul 4
  dpi2point mul] 0 setdash } bdef
% macros for lines and objects
/L {lineto stroke} bdef
/MP {3 1 roll moveto 1 sub {rlineto} repeat} bdef
/AP {{rlineto} repeat} bdef
/PDlw -1 def
/W {/PDlw currentlinewidth def setlinewidth} def
/PP {closepath eofill} bdef
/DP {closepath stroke} bdef
/MR {4 -2 roll moveto dup  0 exch rlineto exch 0 rlineto
  neg 0 exch rlineto closepath} bdef
/FR {MR stroke} bdef
/PR {MR fill} bdef
/L1i {{currentfile picstr readhexstring pop} image} bdef
/tMatrix matrix def
/MakeOval {newpath tMatrix currentmatrix pop translate scale
0 0 1 0 360 arc tMatrix setmatrix} bdef
/FO {MakeOval stroke} bdef
/PO {MakeOval fill} bdef
/PD {currentlinewidth 2 div 0 360 arc fill
   PDlw -1 eq not {PDlw w /PDlw -1 def} if} def
/FA {newpath tMatrix currentmatrix pop translate scale
  0 0 1 5 -2 roll arc tMatrix setmatrix stroke} bdef
/PA {newpath tMatrix currentmatrix pop	translate 0 0 moveto scale
  0 0 1 5 -2 roll arc closepath tMatrix setmatrix fill} bdef
/FAn {newpath tMatrix currentmatrix pop translate scale
  0 0 1 5 -2 roll arcn tMatrix setmatrix stroke} bdef
/PAn {newpath tMatrix currentmatrix pop translate 0 0 moveto scale
  0 0 1 5 -2 roll arcn closepath tMatrix setmatrix fill} bdef
/vradius 0 def /hradius 0 def /lry 0 def
/lrx 0 def /uly 0 def /ulx 0 def /rad 0 def
/MRR {/vradius xdef /hradius xdef /lry xdef /lrx xdef /uly xdef
  /ulx xdef newpath tMatrix currentmatrix pop ulx hradius add uly
  vradius add translate hradius vradius scale 0 0 1 180 270 arc 
  tMatrix setmatrix lrx hradius sub uly vradius add translate
  hradius vradius scale 0 0 1 270 360 arc tMatrix setmatrix
  lrx hradius sub lry vradius sub translate hradius vradius scale
  0 0 1 0 90 arc tMatrix setmatrix ulx hradius add lry vradius sub
  translate hradius vradius scale 0 0 1 90 180 arc tMatrix setmatrix
  closepath} bdef
/FRR {MRR stroke } bdef
/PRR {MRR fill } bdef
/MlrRR {/lry xdef /lrx xdef /uly xdef /ulx xdef /rad lry uly sub 2 div def
  newpath tMatrix currentmatrix pop ulx rad add uly rad add translate
  rad rad scale 0 0 1 90 270 arc tMatrix setmatrix lrx rad sub lry rad
  sub translate rad rad scale 0 0 1 270 90 arc tMatrix setmatrix
  closepath} bdef
/FlrRR {MlrRR stroke } bdef
/PlrRR {MlrRR fill } bdef
/MtbRR {/lry xdef /lrx xdef /uly xdef /ulx xdef /rad lrx ulx sub 2 div def
  newpath tMatrix currentmatrix pop ulx rad add uly rad add translate
  rad rad scale 0 0 1 180 360 arc tMatrix setmatrix lrx rad sub lry rad
  sub translate rad rad scale 0 0 1 0 180 arc tMatrix setmatrix
  closepath} bdef
/FtbRR {MtbRR stroke } bdef
/PtbRR {MtbRR fill } bdef
/stri 6 array def /dtri 6 array def
/smat 6 array def /dmat 6 array def
/tmat1 6 array def /tmat2 6 array def /dif 3 array def
/asub {/ind2 exch def /ind1 exch def dup dup
  ind1 get exch ind2 get sub exch } bdef
/tri_to_matrix {
  2 0 asub 3 1 asub 4 0 asub 5 1 asub
  dup 0 get exch 1 get 7 -1 roll astore } bdef
/compute_transform {
  dmat dtri tri_to_matrix tmat1 invertmatrix 
  smat stri tri_to_matrix tmat2 concatmatrix } bdef
/ds {stri astore pop} bdef
/dt {dtri astore pop} bdef
/db {2 copy /cols xdef /rows xdef mul dup 3 mul string
  currentfile 
  3 index 0 eq {/ASCIIHexDecode filter}
  {/ASCII85Decode filter 3 index 2 eq {/RunLengthDecode filter} if }
  ifelse exch readstring pop
  dup 0 3 index getinterval /rbmap xdef
  dup 2 index dup getinterval /gbmap xdef
  1 index dup 2 mul exch getinterval /bbmap xdef pop pop}bdef
/it {gs np dtri aload pop moveto lineto lineto cp c
  cols rows 8 compute_transform 
  rbmap gbmap bbmap true 3 colorimage gr}bdef
/il {newpath moveto lineto stroke}bdef
currentdict end def
%%EndProlog

%%BeginSetup
MathWorks begin

0 cap

end
%%EndSetup

%%Page: 1 1
%%BeginPageSetup
%%PageBoundingBox:    11    57   544   536
MathWorks begin
bpage
%%EndPageSetup

%%BeginObject: obj1
bplot

/dpi2point 8.33333 def
portraitMode -0133 4858 csm

  231   390  4437  3992 rc
84 dict begin %Colortable dictionary
/c0 { 0.000000 0.000000 0.000000 sr} bdef
/c1 { 1.000000 1.000000 1.000000 sr} bdef
/c2 { 0.900000 0.000000 0.000000 sr} bdef
/c3 { 0.000000 0.820000 0.000000 sr} bdef
/c4 { 0.000000 0.000000 0.800000 sr} bdef
/c5 { 0.910000 0.820000 0.320000 sr} bdef
/c6 { 1.000000 0.260000 0.820000 sr} bdef
/c7 { 0.000000 0.820000 0.820000 sr} bdef
c0
1 j
1 sg
   0    0 5003 5003 rf
12.5 w
0 3502 3752 0 0 -3502 750 4002 4 MP
PP
-3752 0 0 3502 3752 0 0 -3502 750 4002 5 MP stroke
gs 750 500 3753 3503 rc
20.8333 w
0 sg
-8 3 -9 20 -8 37 -8 40 -9 35 -8 66 -8 122 -9 110 
-8 55 -8 195 -8 203 -9 64 -8 386 -8 81 -9 370 -8 251 
-8 313 -9 364 -8 474 8 -18 9 -22 8 -30 8 -32 9 -15 
8 -21 8 -23 9 -28 8 -20 8 -24 8 -30 9 -18 8 -17 
8 -26 9 -22 8 -20 8 -23 9 -21 8 -28 8 -19 9 -21 
8 -23 8 -17 9 -26 8 -27 8 -20 9 -11 8 -23 8 -22 
9 -32 8 -34 8 -47 9 31 8 -36 8 1 9 -14 8 -20 
8 -20 9 -20 8 -27 8 -12 8 -13 9 -24 8 -17 8 -22 
9 -24 8 -19 8 -21 9 -13 8 -20 8 -30 9 -8 8 -9 
8 -15 9 -24 8 -16 8 -8 9 -23 8 -22 8 -14 9 -17 
8 -24 8 -10 9 -21 8 -17 8 -20 9 -19 8 -17 8 -16 
9 -12 8 -7 8 -21 8 -22 9 -17 8 -15 8 -16 9 -11 
8 -9 8 -17 9 -15 8 -20 8 -19 9 -20 8 -11 8 -8 
9 -7 8 -12 8 -20 9 -15 8 -11 8 -14 9 -15 8 -16 
8 -11 9 -19 8 -7 8 -12 9 -5 8 -17 8 -19 9 -19 
8 -13 8 -9 9 -7 8 -9 8 -7 8 -13 9 -10 8 -15 
8 -21 9 -12 8 -14 8 0 9 -8 8 -15 8 -17 9 -14 
8 -12 8 -13 9 -14 8 -11 8 -9 9 -9 8 -12 8 -13 
9 -11 8 -11 8 -11 9 -15 8 -15 8 -11 9 -10 8 -16 
8 -8 9 -3 8 -10 8 -14 8 -11 9 -13 8 -13 8 -8 
9 -12 8 -9 8 -4 9 -12 8 -14 8 -12 9 -12 8 -12 
8 -8 9 -8 8 -3 8 -7 9 -12 8 -10 8 -11 9 -10 
8 -12 8 -7 9 -8 8 -12 8 -8 9 -5 8 -7 8 -6 
9 -7 8 -8 8 -10 9 -11 8 -4 8 -4 8 -6 9 -9 
8 -10 8 -11 9 -6 8 -10 8 -5 9 -11 8 -7 8 -3 
9 -8 8 -9 8 -7 9 -9 8 -7 8 -7 9 1 8 -7 
8 -7 9 -7 8 -6 8 -4 9 -1 8 -6 8 -4 9 -8 
8 -9 8 -4 9 -9 8 -6 8 -1 8 -3 9 -5 8 -4 
8 -7 9 -7 8 -6 8 -6 9 -7 8 -3 8 -3 9 -4 
8 -5 8 -5 9 -5 8 -3 8 -3 9 -5 8 -5 8 -5 
9 -2 8 -2 8 -4 9 -2 8 -3 8 -3 9 -7 8 -6 
8 -5 9 -7 8 -5 8 -1 8 -3 9 -2 8 -1 8 -6 
9 -3 8 -3 8 -4 9 -5 8 -4 8 -4 9 0 8 -2 
8 -4 9 -5 8 -2 8 -3 9 -1 8 -3 8 -2 9 -3 
8 -4 8 -1 9 -6 8 -2 8 -4 9 -2 8 -4 8 -3 
9 -3 8 -4 8 -4 9 -4 8 -3 8 -2 8 -2 9 -2 
8 -2 8 -2 9 -2 8 -3 8 -1 9 -2 8 -3 8 -5 
9 -3 8 -4 8 -4 1449 3856 300 MP stroke
9 -3 8 -3 8 -2 9 -4 8 -3 8 -3 9 -1 8 -3 
8 -3 9 -2 8 0 8 1 9 0 8 0 8 1 9 3 
8 -1 8 -3 8 -6 9 -8 8 -7 8 -9 9 -6 8 -2 
8 -4 9 -4 8 -4 8 -3 9 1 8 -1 8 -1 9 -1 
8 -1 8 -1 9 0 8 -1 8 -1 9 -1 8 -1 8 -1 
9 -1 8 -1 8 -1 9 -1 8 -4 8 -5 9 -5 8 -2 
8 -2 9 0 8 -3 8 -2 8 -3 9 -3 8 0 8 -3 
9 -1 8 -3 8 -7 9 0 8 -1 8 -1 9 0 8 0 
8 0 9 -1 8 -1 8 -1 9 -1 8 -1 8 -1 9 0 
8 0 8 -1 9 1 8 -1 8 -1 9 1 8 -1 8 1 
9 0 8 -1 8 1 8 -1 750 4001 85 MP stroke
gr

20.8333 w
0 sg
0.1 sg
%%IncludeResource: font Helvetica-Bold
/Helvetica-Bold /WindowsLatin1Encoding 183.333 FMSR

2011 4324 mt 
(Vertical Strain) s
 424 3133 mt  -90 rotate
(Vertical Stress [kPa]) s
90 rotate
gs 750 500 3753 3503 rc
/c8 { 1.000000 0.000000 0.000000 sr} bdef
c8
-8 1 -8 7 -8 16 -8 21 -8 26 -9 37 -8 66 -8 85 
-8 67 -8 48 -8 119 -8 160 -9 57 -8 137 -8 244 -8 44 
-8 225 -8 288 -9 -8 -8 530 -8 -60 -8 538 -8 92 -8 462 
8 -23 8 -20 8 -22 8 -25 8 -25 9 -24 8 -28 8 -22 
8 -21 8 -23 8 -32 9 -14 8 -10 8 -23 8 -26 8 -23 
8 -23 8 -25 9 -19 8 -25 8 -25 8 -15 8 -35 8 -18 
9 -16 8 -26 8 -28 8 -18 8 -21 8 -14 9 -22 8 -24 
8 -30 8 -29 8 -17 8 -11 8 -10 9 -20 8 -42 8 -37 
8 5 8 -15 8 -19 9 -39 8 -12 8 -13 8 -12 8 -12 
8 -15 9 -23 8 -18 8 -15 8 -27 8 -23 8 -11 8 -11 
9 -19 8 -14 8 -27 8 -28 8 -24 8 -8 9 -20 8 -10 
8 -8 8 -19 8 -24 8 -33 9 -24 8 -9 8 -9 8 -9 
8 -15 8 -18 8 -25 9 -18 8 -24 8 -18 8 -17 8 -4 
8 -7 9 -13 8 -29 8 -16 8 -13 8 -10 8 -12 9 -15 
8 -12 8 -22 8 -19 8 -14 8 -21 9 -10 8 -16 8 -5 
8 -13 8 -17 8 -21 8 -18 9 -26 8 3 8 -5 8 -10 
8 -28 8 -28 9 -8 8 10 8 -14 8 -18 8 -16 8 -10 
9 -10 8 -11 8 -11 8 -10 8 -6 8 -10 8 -15 9 -7 
8 -5 8 -31 8 -19 8 -9 8 -11 9 -5 8 -6 8 -1 
8 -12 8 -11 8 -11 9 -7 8 -12 8 -12 8 -15 8 -10 
8 -12 8 -11 9 -1 8 -4 8 -13 8 -9 8 -9 8 -8 
9 -13 8 -6 8 -12 8 -7 8 -6 8 -13 9 -10 8 -12 
8 -10 8 -10 8 -9 8 -6 8 5 9 -6 8 -11 8 -17 
8 -9 8 -9 8 -8 9 -15 8 4 8 -11 8 -3 8 -3 
8 -10 9 -9 8 -10 8 -9 8 -12 8 -6 8 -3 8 -4 
9 -4 8 1 8 -7 8 -8 8 -8 8 -13 9 -14 8 -4 
8 -3 8 -2 8 -4 8 -5 9 -8 8 -9 8 -8 8 1 
8 -7 8 -9 8 -7 9 -8 8 -11 8 -8 8 -6 8 -5 
8 -7 9 -4 8 -5 8 -6 8 -11 8 -6 8 -7 9 -7 
8 -3 8 -3 8 -7 8 1 8 -6 9 -10 8 -9 8 -11 
8 -8 8 -2 8 3 8 -6 9 -6 8 0 8 -2 8 -3 
8 -2 8 -4 9 -6 8 -4 8 -2 8 -6 8 -5 8 -7 
9 -7 8 -4 8 -6 8 -8 8 -5 8 -4 8 -4 9 -3 
8 -3 8 -2 8 -1 8 -2 8 -1 9 -3 8 -3 8 -1 
8 -3 8 -5 8 -6 9 -5 8 -5 8 -7 8 -2 8 -2 
8 -5 8 -3 9 -4 8 -4 8 -4 8 -7 8 -3 8 -5 
9 -2 8 -4 8 -3 8 -3 8 -3 8 -4 9 -1 8 -1 
8 -2 8 -2 8 -2 1231 3903 300 MP stroke
8 -4 8 -2 9 -2 8 -6 8 -5 8 -6 8 -3 8 -6 
9 -5 8 -6 8 0 8 3 8 0 8 -3 9 -3 8 -2 
8 -2 8 -3 8 -5 8 -4 8 -4 9 -4 8 -4 8 -3 
8 -3 8 -3 8 -3 9 -2 8 -2 8 1 8 0 8 0 
8 1 9 1 8 2 8 -1 8 0 8 -3 8 -2 8 -1 
9 0 8 0 8 0 8 -1 8 -2 8 0 9 -2 8 1 
8 1 8 1 8 0 8 0 9 0 8 0 8 0 8 0 
8 0 8 -1 8 -1 750 4001 60 MP stroke
/c9 { 0.000000 0.000000 1.000000 sr} bdef
c9
-8 1 -8 1 -9 3 -8 10 -8 18 -9 24 -8 35 -8 46 
-8 44 -9 40 -8 46 -8 67 -8 90 -9 76 -8 48 -8 106 
-9 144 -8 75 -8 75 -8 203 -9 130 -8 56 -8 302 -8 92 
-9 130 -8 424 -8 -116 -9 608 -8 -5 -8 429 8 -48 8 -23 
9 -3 8 -27 8 -33 9 -18 8 -13 8 -42 8 -28 9 -38 
8 -36 8 11 8 -13 9 -33 8 -28 8 -47 9 -35 8 12 
8 -14 8 -23 9 -30 8 -16 8 -16 8 -26 9 -16 8 -30 
8 -16 9 -20 8 -29 8 -23 8 -12 9 -19 8 -21 8 -11 
8 -37 9 -17 8 -16 8 -14 9 -19 8 -24 8 -28 8 -5 
9 -29 8 -15 8 -10 8 -13 9 -28 8 -23 8 -8 8 -23 
9 -28 8 -25 8 -22 9 -5 8 -19 8 -21 8 2 9 -26 
8 -15 8 -12 8 -22 9 -18 8 -17 8 -21 9 -16 8 -19 
8 -9 8 -21 9 -18 8 -18 8 -16 8 -12 9 -16 8 -18 
8 -28 9 -23 8 -12 8 -8 8 -9 9 -17 8 -9 8 -44 
8 -20 9 -2 8 -14 8 -8 9 -16 8 -10 8 -15 8 -6 
9 -22 8 -24 8 -14 8 -21 9 -26 8 -18 8 -37 9 55 
8 -13 8 -22 8 -18 9 -2 8 -19 8 -11 8 -9 9 -21 
8 -16 8 -14 9 -21 8 -4 8 -8 8 -13 9 -8 8 -20 
8 -18 8 -11 9 -19 8 -13 8 -16 9 -4 8 -11 8 -14 
8 -17 9 -14 8 -6 8 -12 8 -10 9 -38 8 -14 8 31 
8 -8 9 -17 8 -11 8 -18 9 -12 8 -4 8 -5 8 -15 
9 -8 8 -14 8 -10 8 -13 9 -4 8 -11 8 -14 9 -11 
8 -12 8 -5 8 -10 9 -8 8 -10 8 -16 8 -10 9 -5 
8 -12 8 -12 9 5 8 -12 8 -21 8 -11 9 -5 8 0 
8 -10 8 -12 9 -7 8 -4 8 1 9 -3 8 -13 8 -14 
8 -8 9 -5 8 -12 8 -7 8 -10 9 -14 8 -9 8 -8 
9 -9 8 -9 8 -9 8 -15 9 -1 8 -4 8 -7 8 -10 
9 -3 8 -11 8 -12 9 -9 8 -2 8 -4 8 -8 9 -3 
8 -5 8 -2 8 -7 9 -12 8 -12 8 -7 9 -1 8 -5 
8 -4 8 -7 9 -10 8 -3 8 -9 8 -2 9 -3 8 -5 
8 -8 8 -8 9 -4 8 -6 8 -6 9 -7 8 -4 8 -1 
8 -1 9 -6 8 -11 8 -7 8 -2 9 -8 8 -4 8 -1 
9 -2 8 -7 8 -3 8 -8 9 -2 8 -8 8 -4 8 0 
9 -1 8 -8 8 -10 9 -8 8 -1 8 -4 8 -4 9 -2 
8 -2 8 -2 8 -4 9 -5 8 -5 8 -1 9 -2 8 -4 
8 -4 8 -9 9 -10 8 -6 8 -4 8 3 9 0 8 -6 
8 -6 9 -3 8 0 8 -3 8 -4 9 -4 8 -4 8 -4 
8 -3 9 -3 8 -5 948 3958 300 MP stroke
8 -2 9 -2 8 -1 8 -1 8 -2 9 -2 8 -2 8 -4 
8 -4 9 -4 8 -1 8 -4 9 2 8 -1 8 -4 8 -4 
9 -2 8 -1 8 1 8 -1 9 0 8 -1 8 0 8 -2 
750 4000 25 MP stroke
gr

c9
0 sg
%%IncludeResource: font Helvetica
/Helvetica /WindowsLatin1Encoding 83.3333 FMSR

 732 4039 mt 
( ) s
4485  536 mt 
( ) s
8.33333 w
DO
SO
12.5 w
0.1 sg
 750  500 mt 4502  500 L
 750 4002 mt 4502 4002 L
4502 4002 mt 4502  500 L
 750 4002 mt  750  500 L
 750 4002 mt 4502 4002 L
 750 4002 mt  750  500 L
 750 4002 mt  750 3945 L
 750  500 mt  750  556 L
%%IncludeResource: font Helvetica
/Helvetica /WindowsLatin1Encoding 133.333 FMSR

 713 4150 mt 
(0) s
1286 4002 mt 1286 3945 L
1286  500 mt 1286  556 L
1157 4150 mt 
(0.05) s
1822 4002 mt 1822 3945 L
1822  500 mt 1822  556 L
1730 4150 mt 
(0.1) s
2358 4002 mt 2358 3945 L
2358  500 mt 2358  556 L
2229 4150 mt 
(0.15) s
2894 4002 mt 2894 3945 L
2894  500 mt 2894  556 L
2802 4150 mt 
(0.2) s
3430 4002 mt 3430 3945 L
3430  500 mt 3430  556 L
3301 4150 mt 
(0.25) s
3966 4002 mt 3966 3945 L
3966  500 mt 3966  556 L
3874 4150 mt 
(0.3) s
4502 4002 mt 4502 3945 L
4502  500 mt 4502  556 L
4373 4150 mt 
(0.35) s
 750 4002 mt  806 4002 L
4502 4002 mt 4445 4002 L
 652 4051 mt 
(0) s
 750 3683 mt  806 3683 L
4502 3683 mt 4445 3683 L
 578 3732 mt 
(10) s
 750 3365 mt  806 3365 L
4502 3365 mt 4445 3365 L
 578 3414 mt 
(20) s
 750 3046 mt  806 3046 L
4502 3046 mt 4445 3046 L
 578 3095 mt 
(30) s
 750 2728 mt  806 2728 L
4502 2728 mt 4445 2728 L
 578 2777 mt 
(40) s
 750 2410 mt  806 2410 L
4502 2410 mt 4445 2410 L
 578 2459 mt 
(50) s
 750 2091 mt  806 2091 L
4502 2091 mt 4445 2091 L
 578 2140 mt 
(60) s
 750 1773 mt  806 1773 L
4502 1773 mt 4445 1773 L
 578 1822 mt 
(70) s
 750 1455 mt  806 1455 L
4502 1455 mt 4445 1455 L
 578 1504 mt 
(80) s
 750 1136 mt  806 1136 L
4502 1136 mt 4445 1136 L
 578 1185 mt 
(90) s
 750  818 mt  806  818 L
4502  818 mt 4445  818 L
 504  867 mt 
(100) s
 750  500 mt  806  500 L
4502  500 mt 4445  500 L
 504  549 mt 
(110) s
 750  500 mt 4502  500 L
 750 4002 mt 4502 4002 L
4502 4002 mt 4502  500 L
 750 4002 mt  750  500 L
0 sg
%%IncludeResource: font Symbol
/Symbol /WindowsLatin1Encoding 125 FMSR

2076  736 mt 
(m) s
%%IncludeResource: font Helvetica-Bold
/Helvetica-Bold /WindowsLatin1Encoding 100 FMSR

2148  798 mt 
(s) s
%%IncludeResource: font Helvetica-Bold
/Helvetica-Bold /WindowsLatin1Encoding 125 FMSR

2203  736 mt 
( = 0.2) s
gs 1751 589 813 699 rc
20.8333 w
250 0 1800 715 2 MP stroke
gr

20.8333 w
%%IncludeResource: font Symbol
/Symbol /WindowsLatin1Encoding 125 FMSR

2076  960 mt 
(m) s
%%IncludeResource: font Helvetica-Bold
/Helvetica-Bold /WindowsLatin1Encoding 100 FMSR

2148 1022 mt 
(s) s
%%IncludeResource: font Helvetica-Bold
/Helvetica-Bold /WindowsLatin1Encoding 125 FMSR

2203  960 mt 
( = 0.5) s
gs 1751 589 813 699 rc
c8
250 0 1800 938 2 MP stroke
gr

c8
0 sg
%%IncludeResource: font Symbol
/Symbol /WindowsLatin1Encoding 125 FMSR

2076 1183 mt 
(m) s
%%IncludeResource: font Helvetica-Bold
/Helvetica-Bold /WindowsLatin1Encoding 100 FMSR

2148 1245 mt 
(s) s
%%IncludeResource: font Helvetica-Bold
/Helvetica-Bold /WindowsLatin1Encoding 125 FMSR

2203 1183 mt 
( = 0.8) s
gs 1751 589 813 699 rc
c9
250 0 1800 1160 2 MP stroke
12.5 w
gr

12.5 w
c9

end %%Color Dict

eplot
%%EndObject

epage
end

showpage

%%Trailer
%%EOF
