%!PS-Adobe-3.0 EPSF-3.0
%%Creator: MATLAB, The MathWorks, Inc. Version 8.1.0.604 (R2013a). Operating System: Microsoft Windows 7.
%%Title: .\StaticF_ConfinedDensity_SameFill.eps
%%CreationDate: 08/17/2013  17:30:29
%%DocumentNeededFonts: Helvetica-Bold
%%+ Helvetica
%%DocumentProcessColors: Cyan Magenta Yellow Black
%%LanguageLevel: 2
%%Pages: 1
%%BoundingBox:    30    88   565   572
%%EndComments

%%BeginProlog
% MathWorks dictionary
/MathWorks 160 dict begin
% definition operators
/bdef {bind def} bind def
/ldef {load def} bind def
/xdef {exch def} bdef
/xstore {exch store} bdef
% operator abbreviations
/c  /clip ldef
/cc /concat ldef
/cp /closepath ldef
/gr /grestore ldef
/gs /gsave ldef
/mt /moveto ldef
/np /newpath ldef
/cm /currentmatrix ldef
/sm /setmatrix ldef
/rm /rmoveto ldef
/rl /rlineto ldef
/s {show newpath} bdef
/sc {setcmykcolor} bdef
/sr /setrgbcolor ldef
/sg /setgray ldef
/w /setlinewidth ldef
/j /setlinejoin ldef
/cap /setlinecap ldef
/rc {rectclip} bdef
/rf {rectfill} bdef
% page state control
/pgsv () def
/bpage {/pgsv save def} bdef
/epage {pgsv restore} bdef
/bplot /gsave ldef
/eplot {stroke grestore} bdef
% orientation switch
/portraitMode 0 def /landscapeMode 1 def /rotateMode 2 def
% coordinate system mappings
/dpi2point 0 def
% font control
/FontSize 0 def
/FMS {/FontSize xstore findfont [FontSize 0 0 FontSize neg 0 0]
  makefont setfont} bdef
/ISOLatin1Encoding where {pop /WindowsLatin1Encoding 256 array bdef
ISOLatin1Encoding WindowsLatin1Encoding copy pop
/.notdef/.notdef/quotesinglbase/florin/quotedblbase/ellipsis/dagger
/daggerdbl/circumflex/perthousand/Scaron/guilsinglleft/OE/.notdef/.notdef
/.notdef/.notdef/quoteleft/quoteright/quotedblleft/quotedblright/bullet
/endash/emdash/tilde/trademark/scaron/guilsinglright/oe/.notdef/.notdef
/Ydieresis WindowsLatin1Encoding 128 32 getinterval astore pop}
{/WindowsLatin1Encoding StandardEncoding bdef} ifelse
/reencode {exch dup where {pop load} {pop StandardEncoding} ifelse
  exch dup 3 1 roll findfont dup length dict begin
  { 1 index /FID ne {def}{pop pop} ifelse } forall
  /Encoding exch def currentdict end definefont pop} bdef
/isroman {findfont /CharStrings get /Agrave known} bdef
/FMSR {3 1 roll 1 index dup isroman {reencode} {pop pop} ifelse
  exch FMS} bdef
/csm {1 dpi2point div -1 dpi2point div scale neg translate
 dup landscapeMode eq {pop -90 rotate}
  {rotateMode eq {90 rotate} if} ifelse} bdef
% line types: solid, dotted, dashed, dotdash
/SO { [] 0 setdash } bdef
/DO { [.5 dpi2point mul 4 dpi2point mul] 0 setdash } bdef
/DA { [6 dpi2point mul] 0 setdash } bdef
/DD { [.5 dpi2point mul 4 dpi2point mul 6 dpi2point mul 4
  dpi2point mul] 0 setdash } bdef
% macros for lines and objects
/L {lineto stroke} bdef
/MP {3 1 roll moveto 1 sub {rlineto} repeat} bdef
/AP {{rlineto} repeat} bdef
/PDlw -1 def
/W {/PDlw currentlinewidth def setlinewidth} def
/PP {closepath eofill} bdef
/DP {closepath stroke} bdef
/MR {4 -2 roll moveto dup  0 exch rlineto exch 0 rlineto
  neg 0 exch rlineto closepath} bdef
/FR {MR stroke} bdef
/PR {MR fill} bdef
/L1i {{currentfile picstr readhexstring pop} image} bdef
/tMatrix matrix def
/MakeOval {newpath tMatrix currentmatrix pop translate scale
0 0 1 0 360 arc tMatrix setmatrix} bdef
/FO {MakeOval stroke} bdef
/PO {MakeOval fill} bdef
/PD {currentlinewidth 2 div 0 360 arc fill
   PDlw -1 eq not {PDlw w /PDlw -1 def} if} def
/FA {newpath tMatrix currentmatrix pop translate scale
  0 0 1 5 -2 roll arc tMatrix setmatrix stroke} bdef
/PA {newpath tMatrix currentmatrix pop	translate 0 0 moveto scale
  0 0 1 5 -2 roll arc closepath tMatrix setmatrix fill} bdef
/FAn {newpath tMatrix currentmatrix pop translate scale
  0 0 1 5 -2 roll arcn tMatrix setmatrix stroke} bdef
/PAn {newpath tMatrix currentmatrix pop translate 0 0 moveto scale
  0 0 1 5 -2 roll arcn closepath tMatrix setmatrix fill} bdef
/vradius 0 def /hradius 0 def /lry 0 def
/lrx 0 def /uly 0 def /ulx 0 def /rad 0 def
/MRR {/vradius xdef /hradius xdef /lry xdef /lrx xdef /uly xdef
  /ulx xdef newpath tMatrix currentmatrix pop ulx hradius add uly
  vradius add translate hradius vradius scale 0 0 1 180 270 arc 
  tMatrix setmatrix lrx hradius sub uly vradius add translate
  hradius vradius scale 0 0 1 270 360 arc tMatrix setmatrix
  lrx hradius sub lry vradius sub translate hradius vradius scale
  0 0 1 0 90 arc tMatrix setmatrix ulx hradius add lry vradius sub
  translate hradius vradius scale 0 0 1 90 180 arc tMatrix setmatrix
  closepath} bdef
/FRR {MRR stroke } bdef
/PRR {MRR fill } bdef
/MlrRR {/lry xdef /lrx xdef /uly xdef /ulx xdef /rad lry uly sub 2 div def
  newpath tMatrix currentmatrix pop ulx rad add uly rad add translate
  rad rad scale 0 0 1 90 270 arc tMatrix setmatrix lrx rad sub lry rad
  sub translate rad rad scale 0 0 1 270 90 arc tMatrix setmatrix
  closepath} bdef
/FlrRR {MlrRR stroke } bdef
/PlrRR {MlrRR fill } bdef
/MtbRR {/lry xdef /lrx xdef /uly xdef /ulx xdef /rad lrx ulx sub 2 div def
  newpath tMatrix currentmatrix pop ulx rad add uly rad add translate
  rad rad scale 0 0 1 180 360 arc tMatrix setmatrix lrx rad sub lry rad
  sub translate rad rad scale 0 0 1 0 180 arc tMatrix setmatrix
  closepath} bdef
/FtbRR {MtbRR stroke } bdef
/PtbRR {MtbRR fill } bdef
/stri 6 array def /dtri 6 array def
/smat 6 array def /dmat 6 array def
/tmat1 6 array def /tmat2 6 array def /dif 3 array def
/asub {/ind2 exch def /ind1 exch def dup dup
  ind1 get exch ind2 get sub exch } bdef
/tri_to_matrix {
  2 0 asub 3 1 asub 4 0 asub 5 1 asub
  dup 0 get exch 1 get 7 -1 roll astore } bdef
/compute_transform {
  dmat dtri tri_to_matrix tmat1 invertmatrix 
  smat stri tri_to_matrix tmat2 concatmatrix } bdef
/ds {stri astore pop} bdef
/dt {dtri astore pop} bdef
/db {2 copy /cols xdef /rows xdef mul dup 3 mul string
  currentfile 
  3 index 0 eq {/ASCIIHexDecode filter}
  {/ASCII85Decode filter 3 index 2 eq {/RunLengthDecode filter} if }
  ifelse exch readstring pop
  dup 0 3 index getinterval /rbmap xdef
  dup 2 index dup getinterval /gbmap xdef
  1 index dup 2 mul exch getinterval /bbmap xdef pop pop}bdef
/it {gs np dtri aload pop moveto lineto lineto cp c
  cols rows 8 compute_transform 
  rbmap gbmap bbmap true 3 colorimage gr}bdef
/il {newpath moveto lineto stroke}bdef
currentdict end def
%%EndProlog

%%BeginSetup
MathWorks begin

0 cap

end
%%EndSetup

%%Page: 1 1
%%BeginPageSetup
%%PageBoundingBox:    30    88   565   572
MathWorks begin
bpage
%%EndPageSetup

%%BeginObject: obj1
bplot

/dpi2point 8.33333 def
portraitMode 0150 5158 csm

  106   390  4456  4030 rc
84 dict begin %Colortable dictionary
/c0 { 0.000000 0.000000 0.000000 sr} bdef
/c1 { 1.000000 1.000000 1.000000 sr} bdef
/c2 { 0.900000 0.000000 0.000000 sr} bdef
/c3 { 0.000000 0.820000 0.000000 sr} bdef
/c4 { 0.000000 0.000000 0.800000 sr} bdef
/c5 { 0.910000 0.820000 0.320000 sr} bdef
/c6 { 1.000000 0.260000 0.820000 sr} bdef
/c7 { 0.000000 0.820000 0.820000 sr} bdef
c0
1 j
1 sg
   0    0 5001 5001 rf
12.5 w
0 3501 3750 0 0 -3501 750 4000 4 MP
PP
-3750 0 0 3501 3750 0 0 -3501 750 4000 5 MP stroke
gs 750 500 3751 3501 rc
16.6667 w
0 sg
-773 9 -290 10 -255 9 -242 9 -199 10 -149 9 -158 10 -148 9 
-106 9 -124 10 -102 9 -101 10 -88 10 -90 9 -76 10 -84 9 
-57 10 -42 10 -27 -10 -13 -10 4 -9 4 -10 4 -9 4 -10 
4 -10 4 -9 4 -10 5 -9 4 -9 4 -10 4 -9 4 -10 
4 -9 4 -9 4 -10 4 -9 5 -9 4 -10 4 -9 4 -9 
5 -9 4 -10 4 -9 5 -9 4 -9 4 -9 5 -9 7 -9 
4 -10 5 -9 4 -9 3 -9 2 -9 4 -9 3 -9 4 -8 
5 -9 4 -9 4 -9 4 -9 5 -9 4 -9 5 -8 5 -9 
5 -9 5 -9 5 -9 4 -8 4 -9 4 -9 5 -8 3 -9 
4 -9 4 -8 5 -9 5 -8 4 -9 5 -8 5 -9 5 -8 
5 -9 5 -8 5 -9 5 -8 5 -9 5 -8 4 -9 4 -8 
5 -8 5 -9 5 -8 5 -8 5 -8 4 -9 4 -8 5 -8 
4 -8 5 -9 6 -8 6 -8 5 -8 4 -8 4 -8 4 -9 
4 -8 5 -8 5 -8 5 -8 5 -8 5 -8 5 -8 5 -8 
5 -8 4 -8 5 -8 4 -8 6 -7 5 -8 6 -8 5 -8 
5 -8 4 -8 3 -8 4 -7 4 -8 6 -8 6 -8 6 -7 
5 -8 5 -8 4 -7 5 -8 4 -8 6 -7 7 -8 6 -8 
6 -7 5 -8 6 -7 5 -8 5 -8 5 -7 6 -8 6 -7 
6 -8 6 -7 7 -7 6 -8 7 -7 6 -8 6 -7 5 -8 
5 -7 5 -7 6 -8 7 -7 7 -7 7 -8 6 -7 5 -7 
6 -7 6 -8 6 -7 7 -7 8 -7 8 -8 6 -7 6 -7 
5 -7 5 -7 6 -7 5 -7 7 -8 8 -7 7 -7 7 -7 
7 -7 7 -7 6 -7 6 -7 6 -7 5 -7 5 -7 7 -7 
6 -7 7 -7 6 -7 6 -6 5 -7 6 -7 7 -7 7 -7 
8 -7 8 -7 8 -6 7 -7 7 -7 6 -7 7 -7 7 -6 
7 -7 8 -7 8 -7 6 -6 6 -7 6 -7 5 -6 6 -7 
7 -7 5 -6 6 -7 5 -7 5 -6 6 -7 7 -6 8 -7 
9 -6 7 -7 5 -7 6 -6 5 -7 5 -6 7 -7 7 -6 
8 -6 9 -7 8 -6 7 -7 6 -6 6 -7 6 -6 6 -6 
7 -7 6 -6 6 -6 7 -7 6 -6 6 -6 6 -7 6 -6 
5 -6 4 -7 5 -6 6 -6 7 -6 8 -7 10 -6 10 -6 
9 -6 7 -6 7 -7 5 -6 5 -6 5 -6 6 -6 6 -6 
8 -6 8 -7 8 -6 7 -6 6 -6 6 -6 7 -6 6 -6 
7 -6 6 -6 6 -6 5 -6 6 -6 5 -6 6 -6 8 -6 
7 -6 9 -6 7 -6 9 -6 7 -5 9 -6 8 -6 9 -6 
10 -6 10 -6 10 -6 8 -6 8 -5 7 -6 5 -6 6 -6 
7 -6 6 -5 6 -6 8 -6 9 -6 9 -5 12 -6 12 -6 
13 -6 12 -5 12 -6 2762 2978 300 MP stroke
12 -6 12 -5 11 -6 11 -6 11 -5 10 -6 11 -6 8 -5 
7 -6 3 -5 2 -6 -2 -6 -5 -5 -3 -6 1 -5 5 -6 
13 -5 23 -6 32 -5 37 -6 36 -5 35 -6 31 -5 27 -6 
24 -5 20 -6 17 -5 12 -6 8 -5 5 -5 8 -6 6 -5 
6 -6 7 -5 6 -5 7 -6 9 -5 9 -6 9 -5 9 -5 
11 -6 14 -5 25 -5 33 -5 41 -6 43 -5 38 -5 34 -6 
28 -5 31 -5 36 -5 37 -6 41 -5 41 -5 47 -5 75 -5 
84 -6 88 -5 101 -5 94 -5 26 -5 30 -5 25 -6 32 -5 
37 -5 58 -5 87 -5 110 -5 98 -5 77 -4 750 3353 71 MP stroke
gr

16.6667 w
0 sg
0.1 sg
%%IncludeResource: font Helvetica-Bold
/Helvetica-Bold /WindowsLatin1Encoding 183.333 FMSR

1903 4362 mt 
(Log Stress [kPa]) s
 350 3181 mt  -90 rotate
(Bulk Density [kgm) s
90 rotate
%%IncludeResource: font Helvetica-Bold
/Helvetica-Bold /WindowsLatin1Encoding 141.667 FMSR

 259 1582 mt  -90 rotate
(-) s
90 rotate
 259 1500 mt  -90 rotate
(3) s
90 rotate
%%IncludeResource: font Helvetica-Bold
/Helvetica-Bold /WindowsLatin1Encoding 183.333 FMSR

 350 1422 mt  -90 rotate
( ]) s
90 rotate
gs 750 500 3751 3501 rc
/c8 { 1.000000 0.000000 0.000000 sr} bdef
c8
-829 8 -352 8 -297 8 -264 9 -233 8 -186 8 -149 8 -145 9 
-135 8 -102 8 -99 9 -107 8 -80 9 -77 8 -88 9 -64 8 
-77 9 -62 8 -71 9 -55 8 -68 9 -40 8 -37 9 -16 -9 
-12 -8 4 -9 4 -8 3 -9 4 -8 4 -9 5 -8 4 -9 
4 -8 4 -9 4 -8 4 -9 4 -8 4 -8 4 -9 5 -8 
4 -8 5 -8 4 -9 4 -8 5 -8 4 -8 4 -9 4 -8 
4 -8 4 -8 5 -8 4 -8 5 -9 5 -8 4 -8 5 -8 
3 -8 4 -8 4 -8 4 -8 6 -8 7 -8 5 -8 5 -8 
4 -8 4 -7 3 -8 4 -8 5 -8 4 -8 5 -8 4 -8 
3 -7 4 -8 4 -8 3 -8 4 -7 5 -8 5 -8 5 -7 
5 -8 4 -8 4 -7 6 -8 4 -8 4 -7 5 -8 6 -7 
4 -8 5 -8 5 -7 5 -8 5 -7 4 -8 5 -7 5 -7 
5 -8 4 -7 4 -8 4 -7 3 -8 5 -7 5 -7 5 -8 
4 -7 5 -7 3 -8 4 -7 5 -7 6 -7 5 -8 6 -7 
4 -7 3 -7 3 -8 5 -7 4 -7 5 -7 6 -7 6 -7 
4 -7 4 -8 6 -7 5 -7 6 -7 6 -7 6 -7 5 -7 
4 -7 6 -7 4 -7 5 -7 6 -7 6 -7 6 -7 5 -7 
5 -6 4 -7 5 -7 6 -7 6 -7 6 -7 6 -7 6 -6 
5 -7 5 -7 6 -7 6 -7 6 -6 6 -7 6 -7 7 -7 
6 -6 5 -7 6 -7 5 -6 5 -7 6 -7 6 -6 6 -7 
5 -7 6 -6 6 -7 5 -6 4 -7 6 -6 6 -7 7 -7 
8 -6 9 -7 8 -6 7 -7 6 -6 4 -6 2 -7 4 -6 
4 -7 5 -6 8 -7 10 -6 9 -6 9 -7 8 -6 6 -6 
4 -7 5 -6 5 -6 6 -7 6 -6 9 -6 9 -7 9 -6 
9 -6 7 -6 6 -7 5 -6 4 -6 6 -6 10 -6 10 -7 
9 -6 9 -6 6 -6 5 -6 4 -6 5 -6 7 -7 8 -6 
8 -6 7 -6 9 -6 7 -6 7 -6 6 -6 7 -6 7 -6 
7 -6 8 -6 9 -6 8 -6 7 -6 7 -6 8 -6 7 -6 
8 -6 7 -5 7 -6 5 -6 6 -6 6 -6 6 -6 7 -6 
7 -6 6 -5 8 -6 8 -6 7 -6 8 -6 8 -5 7 -6 
7 -6 10 -6 12 -5 12 -6 14 -6 14 -6 12 -5 9 -6 
8 -6 8 -5 7 -6 6 -6 7 -5 9 -6 8 -6 8 -5 
10 -6 11 -5 10 -6 10 -6 13 -5 13 -6 15 -5 14 -6 
12 -5 9 -6 9 -5 9 -6 11 -5 13 -6 15 -5 16 -6 
17 -5 17 -6 19 -5 21 -6 19 -5 18 -5 15 -6 12 -5 
11 -6 11 -5 11 -5 12 -6 15 -5 14 -6 18 -5 21 -5 
23 -6 28 -5 35 -5 34 -5 33 -6 36 -5 32 -5 34 -6 
41 -5 49 -5 51 -5 2222 3256 300 MP stroke
61 -6 58 -5 48 -5 56 -5 74 -5 72 -6 76 -5 96 -5 
81 -5 48 -5 49 -5 50 -6 44 -5 65 -5 60 -5 65 -5 
91 -5 90 -5 54 -5 101 -5 74 -5 59 -3 750 3367 23 MP stroke
/c9 { 0.000000 0.000000 1.000000 sr} bdef
c9
-327 2 -463 8 -384 8 -304 8 -245 7 -194 8 -159 8 -137 8 
-128 8 -115 8 -96 8 -92 7 -94 8 -79 8 -67 8 -79 8 
-74 8 -54 8 -70 8 -63 8 -50 8 -66 8 -47 8 -61 8 
-49 9 -57 8 -34 8 -37 8 -12 -8 -12 -8 4 -8 5 -9 
5 -8 4 -8 5 -8 4 -8 4 -8 3 -8 5 -8 4 -8 
3 -8 4 -8 5 -8 4 -8 4 -7 5 -8 5 -8 4 -8 
4 -8 5 -8 4 -8 4 -7 5 -8 6 -8 4 -8 4 -7 
4 -8 4 -8 3 -7 4 -8 5 -8 6 -7 6 -8 5 -8 
4 -7 5 -8 3 -7 3 -8 4 -8 6 -7 6 -8 6 -7 
5 -8 5 -7 4 -7 4 -8 3 -7 4 -8 6 -7 5 -8 
6 -7 5 -7 5 -8 4 -7 4 -7 5 -8 4 -7 5 -7 
4 -7 5 -8 6 -7 5 -7 6 -7 7 -8 5 -7 6 -7 
5 -7 5 -7 6 -7 5 -7 3 -8 5 -7 4 -7 4 -7 
5 -7 6 -7 5 -7 4 -7 4 -7 3 -7 4 -7 6 -7 
6 -7 7 -7 5 -7 5 -6 5 -7 5 -7 5 -7 6 -7 
5 -7 3 -7 3 -6 3 -7 3 -7 6 -7 6 -7 6 -6 
6 -7 6 -7 6 -7 4 -6 5 -7 3 -7 3 -6 5 -7 
6 -7 5 -6 6 -7 6 -7 5 -6 5 -7 6 -6 6 -7 
7 -6 5 -7 6 -7 6 -6 7 -7 6 -6 6 -7 7 -6 
7 -6 6 -7 7 -6 7 -7 7 -6 4 -7 6 -6 6 -6 
6 -7 6 -6 6 -6 5 -7 6 -6 6 -6 7 -7 9 -6 
7 -6 7 -7 6 -6 7 -6 7 -6 8 -7 7 -6 5 -6 
5 -6 5 -6 5 -7 8 -6 7 -6 7 -6 6 -6 6 -6 
6 -6 6 -7 8 -6 8 -6 8 -6 8 -6 8 -6 7 -6 
9 -6 10 -6 9 -6 8 -6 8 -6 7 -6 6 -6 6 -6 
5 -6 7 -6 4 -6 5 -6 5 -5 7 -6 9 -6 13 -6 
12 -6 11 -6 10 -6 6 -6 5 -5 6 -6 9 -6 10 -6 
9 -6 8 -5 9 -6 8 -6 7 -6 9 -5 9 -6 9 -6 
9 -6 9 -5 11 -6 10 -6 10 -5 10 -6 10 -6 9 -5 
10 -6 10 -6 14 -5 15 -6 16 -5 16 -6 13 -6 6 -5 
2 -6 4 -5 6 -6 11 -5 18 -6 21 -5 20 -6 20 -5 
15 -6 11 -5 11 -6 11 -5 10 -6 14 -5 15 -6 17 -5 
19 -5 21 -6 20 -5 18 -6 17 -5 14 -5 13 -6 13 -5 
16 -6 17 -5 19 -5 20 -6 27 -5 34 -5 34 -5 39 -6 
42 -5 42 -5 43 -6 47 -5 39 -5 39 -5 31 -6 28 -5 
36 -5 57 -5 67 -5 71 -6 83 -5 80 -5 73 -5 66 -5 
54 -5 46 -6 73 -5 85 -5 91 -5 100 -5 92 -5 50 -5 
31 -5 61 -5 112 -5 926 3364 300 MP stroke
176 -5 750 3369 2 MP stroke
gr

c9
0 sg
%%IncludeResource: font Helvetica
/Helvetica /WindowsLatin1Encoding 83.3333 FMSR

 738 4031 mt 
( ) s
4489  530 mt 
( ) s
8.33333 w
DO
SO
12.5 w
0.1 sg
 750  499 mt 4500  499 L
 750 4000 mt 4500 4000 L
4500 4000 mt 4500  499 L
 750 4000 mt  750  499 L
 750 4000 mt 4500 4000 L
 750 4000 mt  750  499 L
 750 4000 mt  750 3971 L
 750  500 mt  750  528 L
 750 4000 mt  750 3943 L
 750  500 mt  750  556 L
%%IncludeResource: font Helvetica
/Helvetica /WindowsLatin1Encoding 133.333 FMSR

 626 4188 mt 
(10) s
%%IncludeResource: font Helvetica
/Helvetica /WindowsLatin1Encoding 88.8889 FMSR

 774 4106 mt 
(-1) s
1116 4000 mt 1116 3971 L
1116  500 mt 1116  528 L
1331 4000 mt 1331 3971 L
1331  500 mt 1331  528 L
1483 4000 mt 1483 3971 L
1483  500 mt 1483  528 L
1601 4000 mt 1601 3971 L
1601  500 mt 1601  528 L
1697 4000 mt 1697 3971 L
1697  500 mt 1697  528 L
1779 4000 mt 1779 3971 L
1779  500 mt 1779  528 L
1849 4000 mt 1849 3971 L
1849  500 mt 1849  528 L
1912 4000 mt 1912 3971 L
1912  500 mt 1912  528 L
1967 4000 mt 1967 3971 L
1967  500 mt 1967  528 L
1967 4000 mt 1967 3943 L
1967  500 mt 1967  556 L
%%IncludeResource: font Helvetica
/Helvetica /WindowsLatin1Encoding 133.333 FMSR

1869 4188 mt 
(10) s
%%IncludeResource: font Helvetica
/Helvetica /WindowsLatin1Encoding 88.8889 FMSR

2017 4106 mt 
(0) s
2334 4000 mt 2334 3971 L
2334  500 mt 2334  528 L
2548 4000 mt 2548 3971 L
2548  500 mt 2548  528 L
2701 4000 mt 2701 3971 L
2701  500 mt 2701  528 L
2819 4000 mt 2819 3971 L
2819  500 mt 2819  528 L
2915 4000 mt 2915 3971 L
2915  500 mt 2915  528 L
2997 4000 mt 2997 3971 L
2997  500 mt 2997  528 L
3067 4000 mt 3067 3971 L
3067  500 mt 3067  528 L
3129 4000 mt 3129 3971 L
3129  500 mt 3129  528 L
3185 4000 mt 3185 3971 L
3185  500 mt 3185  528 L
3185 4000 mt 3185 3943 L
3185  500 mt 3185  556 L
%%IncludeResource: font Helvetica
/Helvetica /WindowsLatin1Encoding 133.333 FMSR

3087 4188 mt 
(10) s
%%IncludeResource: font Helvetica
/Helvetica /WindowsLatin1Encoding 88.8889 FMSR

3235 4106 mt 
(1) s
3552 4000 mt 3552 3971 L
3552  500 mt 3552  528 L
3766 4000 mt 3766 3971 L
3766  500 mt 3766  528 L
3918 4000 mt 3918 3971 L
3918  500 mt 3918  528 L
4036 4000 mt 4036 3971 L
4036  500 mt 4036  528 L
4133 4000 mt 4133 3971 L
4133  500 mt 4133  528 L
4214 4000 mt 4214 3971 L
4214  500 mt 4214  528 L
4285 4000 mt 4285 3971 L
4285  500 mt 4285  528 L
4347 4000 mt 4347 3971 L
4347  500 mt 4347  528 L
4403 4000 mt 4403 3971 L
4403  500 mt 4403  528 L
4403 4000 mt 4403 3943 L
4403  500 mt 4403  556 L
%%IncludeResource: font Helvetica
/Helvetica /WindowsLatin1Encoding 133.333 FMSR

4305 4188 mt 
(10) s
%%IncludeResource: font Helvetica
/Helvetica /WindowsLatin1Encoding 88.8889 FMSR

4453 4106 mt 
(2) s
 750 4000 mt  806 4000 L
4500 4000 mt 4443 4000 L
%%IncludeResource: font Helvetica
/Helvetica /WindowsLatin1Encoding 133.333 FMSR

 430 4049 mt 
(2000) s
 750 3416 mt  806 3416 L
4500 3416 mt 4443 3416 L
 430 3465 mt 
(2200) s
 750 2833 mt  806 2833 L
4500 2833 mt 4443 2833 L
 430 2882 mt 
(2400) s
 750 2250 mt  806 2250 L
4500 2250 mt 4443 2250 L
 430 2299 mt 
(2600) s
 750 1666 mt  806 1666 L
4500 1666 mt 4443 1666 L
 430 1715 mt 
(2800) s
 750 1083 mt  806 1083 L
4500 1083 mt 4443 1083 L
 430 1132 mt 
(3000) s
 750  500 mt  806  500 L
4500  500 mt 4443  500 L
 430  549 mt 
(3200) s
 750  499 mt 4500  499 L
 750 4000 mt 4500 4000 L
4500 4000 mt 4500  499 L
 750 4000 mt  750  499 L
0 sg
%%IncludeResource: font Symbol
/Symbol /WindowsLatin1Encoding 125 FMSR

3984 3426 mt 
(m) s
%%IncludeResource: font Helvetica-Bold
/Helvetica-Bold /WindowsLatin1Encoding 100 FMSR

4056 3488 mt 
(s) s
%%IncludeResource: font Helvetica-Bold
/Helvetica-Bold /WindowsLatin1Encoding 125 FMSR

4111 3426 mt 
( = 0.2) s
gs 3667 3282 793 679 rc
16.6667 w
244 0 3715 3404 2 MP stroke
gr

16.6667 w
%%IncludeResource: font Symbol
/Symbol /WindowsLatin1Encoding 125 FMSR

3984 3643 mt 
(m) s
%%IncludeResource: font Helvetica-Bold
/Helvetica-Bold /WindowsLatin1Encoding 100 FMSR

4056 3705 mt 
(s) s
%%IncludeResource: font Helvetica-Bold
/Helvetica-Bold /WindowsLatin1Encoding 125 FMSR

4111 3643 mt 
( = 0.5) s
gs 3667 3282 793 679 rc
c8
244 0 3715 3621 2 MP stroke
gr

c8
0 sg
%%IncludeResource: font Symbol
/Symbol /WindowsLatin1Encoding 125 FMSR

3984 3859 mt 
(m) s
%%IncludeResource: font Helvetica-Bold
/Helvetica-Bold /WindowsLatin1Encoding 100 FMSR

4056 3921 mt 
(s) s
%%IncludeResource: font Helvetica-Bold
/Helvetica-Bold /WindowsLatin1Encoding 125 FMSR

4111 3859 mt 
( = 0.8) s
gs 3667 3282 793 679 rc
c9
244 0 3715 3837 2 MP stroke
12.5 w
gr

12.5 w
c9

end %%Color Dict

eplot
%%EndObject

epage
end

showpage

%%Trailer
%%EOF
