%!PS-Adobe-3.0 EPSF-3.0
%%Creator: MATLAB, The MathWorks, Inc. Version 8.1.0.604 (R2013a). Operating System: Microsoft Windows 7.
%%Title: .\StaticF_Confined_StressStain_SameFill.eps
%%CreationDate: 08/17/2013  17:30:27
%%DocumentNeededFonts: Helvetica-Bold
%%+ Helvetica
%%DocumentProcessColors: Cyan Magenta Yellow Black
%%LanguageLevel: 2
%%Pages: 1
%%BoundingBox:    45    93   577   572
%%EndComments

%%BeginProlog
% MathWorks dictionary
/MathWorks 160 dict begin
% definition operators
/bdef {bind def} bind def
/ldef {load def} bind def
/xdef {exch def} bdef
/xstore {exch store} bdef
% operator abbreviations
/c  /clip ldef
/cc /concat ldef
/cp /closepath ldef
/gr /grestore ldef
/gs /gsave ldef
/mt /moveto ldef
/np /newpath ldef
/cm /currentmatrix ldef
/sm /setmatrix ldef
/rm /rmoveto ldef
/rl /rlineto ldef
/s {show newpath} bdef
/sc {setcmykcolor} bdef
/sr /setrgbcolor ldef
/sg /setgray ldef
/w /setlinewidth ldef
/j /setlinejoin ldef
/cap /setlinecap ldef
/rc {rectclip} bdef
/rf {rectfill} bdef
% page state control
/pgsv () def
/bpage {/pgsv save def} bdef
/epage {pgsv restore} bdef
/bplot /gsave ldef
/eplot {stroke grestore} bdef
% orientation switch
/portraitMode 0 def /landscapeMode 1 def /rotateMode 2 def
% coordinate system mappings
/dpi2point 0 def
% font control
/FontSize 0 def
/FMS {/FontSize xstore findfont [FontSize 0 0 FontSize neg 0 0]
  makefont setfont} bdef
/ISOLatin1Encoding where {pop /WindowsLatin1Encoding 256 array bdef
ISOLatin1Encoding WindowsLatin1Encoding copy pop
/.notdef/.notdef/quotesinglbase/florin/quotedblbase/ellipsis/dagger
/daggerdbl/circumflex/perthousand/Scaron/guilsinglleft/OE/.notdef/.notdef
/.notdef/.notdef/quoteleft/quoteright/quotedblleft/quotedblright/bullet
/endash/emdash/tilde/trademark/scaron/guilsinglright/oe/.notdef/.notdef
/Ydieresis WindowsLatin1Encoding 128 32 getinterval astore pop}
{/WindowsLatin1Encoding StandardEncoding bdef} ifelse
/reencode {exch dup where {pop load} {pop StandardEncoding} ifelse
  exch dup 3 1 roll findfont dup length dict begin
  { 1 index /FID ne {def}{pop pop} ifelse } forall
  /Encoding exch def currentdict end definefont pop} bdef
/isroman {findfont /CharStrings get /Agrave known} bdef
/FMSR {3 1 roll 1 index dup isroman {reencode} {pop pop} ifelse
  exch FMS} bdef
/csm {1 dpi2point div -1 dpi2point div scale neg translate
 dup landscapeMode eq {pop -90 rotate}
  {rotateMode eq {90 rotate} if} ifelse} bdef
% line types: solid, dotted, dashed, dotdash
/SO { [] 0 setdash } bdef
/DO { [.5 dpi2point mul 4 dpi2point mul] 0 setdash } bdef
/DA { [6 dpi2point mul] 0 setdash } bdef
/DD { [.5 dpi2point mul 4 dpi2point mul 6 dpi2point mul 4
  dpi2point mul] 0 setdash } bdef
% macros for lines and objects
/L {lineto stroke} bdef
/MP {3 1 roll moveto 1 sub {rlineto} repeat} bdef
/AP {{rlineto} repeat} bdef
/PDlw -1 def
/W {/PDlw currentlinewidth def setlinewidth} def
/PP {closepath eofill} bdef
/DP {closepath stroke} bdef
/MR {4 -2 roll moveto dup  0 exch rlineto exch 0 rlineto
  neg 0 exch rlineto closepath} bdef
/FR {MR stroke} bdef
/PR {MR fill} bdef
/L1i {{currentfile picstr readhexstring pop} image} bdef
/tMatrix matrix def
/MakeOval {newpath tMatrix currentmatrix pop translate scale
0 0 1 0 360 arc tMatrix setmatrix} bdef
/FO {MakeOval stroke} bdef
/PO {MakeOval fill} bdef
/PD {currentlinewidth 2 div 0 360 arc fill
   PDlw -1 eq not {PDlw w /PDlw -1 def} if} def
/FA {newpath tMatrix currentmatrix pop translate scale
  0 0 1 5 -2 roll arc tMatrix setmatrix stroke} bdef
/PA {newpath tMatrix currentmatrix pop	translate 0 0 moveto scale
  0 0 1 5 -2 roll arc closepath tMatrix setmatrix fill} bdef
/FAn {newpath tMatrix currentmatrix pop translate scale
  0 0 1 5 -2 roll arcn tMatrix setmatrix stroke} bdef
/PAn {newpath tMatrix currentmatrix pop translate 0 0 moveto scale
  0 0 1 5 -2 roll arcn closepath tMatrix setmatrix fill} bdef
/vradius 0 def /hradius 0 def /lry 0 def
/lrx 0 def /uly 0 def /ulx 0 def /rad 0 def
/MRR {/vradius xdef /hradius xdef /lry xdef /lrx xdef /uly xdef
  /ulx xdef newpath tMatrix currentmatrix pop ulx hradius add uly
  vradius add translate hradius vradius scale 0 0 1 180 270 arc 
  tMatrix setmatrix lrx hradius sub uly vradius add translate
  hradius vradius scale 0 0 1 270 360 arc tMatrix setmatrix
  lrx hradius sub lry vradius sub translate hradius vradius scale
  0 0 1 0 90 arc tMatrix setmatrix ulx hradius add lry vradius sub
  translate hradius vradius scale 0 0 1 90 180 arc tMatrix setmatrix
  closepath} bdef
/FRR {MRR stroke } bdef
/PRR {MRR fill } bdef
/MlrRR {/lry xdef /lrx xdef /uly xdef /ulx xdef /rad lry uly sub 2 div def
  newpath tMatrix currentmatrix pop ulx rad add uly rad add translate
  rad rad scale 0 0 1 90 270 arc tMatrix setmatrix lrx rad sub lry rad
  sub translate rad rad scale 0 0 1 270 90 arc tMatrix setmatrix
  closepath} bdef
/FlrRR {MlrRR stroke } bdef
/PlrRR {MlrRR fill } bdef
/MtbRR {/lry xdef /lrx xdef /uly xdef /ulx xdef /rad lrx ulx sub 2 div def
  newpath tMatrix currentmatrix pop ulx rad add uly rad add translate
  rad rad scale 0 0 1 180 360 arc tMatrix setmatrix lrx rad sub lry rad
  sub translate rad rad scale 0 0 1 0 180 arc tMatrix setmatrix
  closepath} bdef
/FtbRR {MtbRR stroke } bdef
/PtbRR {MtbRR fill } bdef
/stri 6 array def /dtri 6 array def
/smat 6 array def /dmat 6 array def
/tmat1 6 array def /tmat2 6 array def /dif 3 array def
/asub {/ind2 exch def /ind1 exch def dup dup
  ind1 get exch ind2 get sub exch } bdef
/tri_to_matrix {
  2 0 asub 3 1 asub 4 0 asub 5 1 asub
  dup 0 get exch 1 get 7 -1 roll astore } bdef
/compute_transform {
  dmat dtri tri_to_matrix tmat1 invertmatrix 
  smat stri tri_to_matrix tmat2 concatmatrix } bdef
/ds {stri astore pop} bdef
/dt {dtri astore pop} bdef
/db {2 copy /cols xdef /rows xdef mul dup 3 mul string
  currentfile 
  3 index 0 eq {/ASCIIHexDecode filter}
  {/ASCII85Decode filter 3 index 2 eq {/RunLengthDecode filter} if }
  ifelse exch readstring pop
  dup 0 3 index getinterval /rbmap xdef
  dup 2 index dup getinterval /gbmap xdef
  1 index dup 2 mul exch getinterval /bbmap xdef pop pop}bdef
/it {gs np dtri aload pop moveto lineto lineto cp c
  cols rows 8 compute_transform 
  rbmap gbmap bbmap true 3 colorimage gr}bdef
/il {newpath moveto lineto stroke}bdef
currentdict end def
%%EndProlog

%%BeginSetup
MathWorks begin

0 cap

end
%%EndSetup

%%Page: 1 1
%%BeginPageSetup
%%PageBoundingBox:    45    93   577   572
MathWorks begin
bpage
%%EndPageSetup

%%BeginObject: obj1
bplot

/dpi2point 8.33333 def
portraitMode 0150 5158 csm

  231   390  4435  3990 rc
84 dict begin %Colortable dictionary
/c0 { 0.000000 0.000000 0.000000 sr} bdef
/c1 { 1.000000 1.000000 1.000000 sr} bdef
/c2 { 0.900000 0.000000 0.000000 sr} bdef
/c3 { 0.000000 0.820000 0.000000 sr} bdef
/c4 { 0.000000 0.000000 0.800000 sr} bdef
/c5 { 0.910000 0.820000 0.320000 sr} bdef
/c6 { 1.000000 0.260000 0.820000 sr} bdef
/c7 { 0.000000 0.820000 0.820000 sr} bdef
c0
1 j
1 sg
   0    0 5001 5001 rf
12.5 w
0 3500 3750 0 0 -3500 750 4000 4 MP
PP
-3750 0 0 3500 3750 0 0 -3500 750 4000 5 MP stroke
gs 750 500 3751 3501 rc
16.6667 w
0 sg
-9 3 -8 20 -8 37 -9 39 -8 36 -8 66 -9 122 -8 110 
-8 54 -9 195 -8 204 -8 63 -9 386 -8 81 -8 370 -9 251 
-8 312 -8 364 -8 474 8 -18 8 -22 8 -30 9 -32 8 -15 
8 -21 9 -23 8 -28 8 -20 9 -24 8 -30 8 -17 9 -18 
8 -25 8 -22 9 -20 8 -23 8 -21 9 -29 8 -18 8 -21 
9 -23 8 -17 8 -27 8 -27 9 -20 8 -10 8 -24 9 -21 
8 -33 8 -33 9 -47 8 31 8 -36 9 1 8 -14 8 -20 
9 -21 8 -19 8 -27 9 -12 8 -14 8 -24 9 -16 8 -23 
8 -23 9 -20 8 -21 8 -12 8 -20 9 -30 8 -8 8 -9 
9 -15 8 -24 8 -16 9 -8 8 -23 8 -22 9 -14 8 -17 
8 -24 9 -10 8 -22 8 -16 9 -20 8 -19 8 -17 9 -16 
8 -12 8 -7 8 -21 9 -22 8 -17 8 -15 9 -16 8 -11 
8 -9 9 -17 8 -15 8 -20 9 -18 8 -21 8 -11 9 -8 
8 -7 8 -11 9 -20 8 -16 8 -11 9 -14 8 -15 8 -16 
8 -11 9 -18 8 -8 8 -12 9 -5 8 -16 8 -19 9 -20 
8 -12 8 -10 9 -7 8 -9 8 -7 9 -13 8 -10 8 -15 
9 -21 8 -12 8 -14 9 0 8 -8 8 -14 8 -18 9 -14 
8 -11 8 -14 9 -14 8 -11 8 -9 9 -9 8 -12 8 -12 
9 -12 8 -10 8 -11 9 -16 8 -14 8 -12 9 -9 8 -17 
8 -8 9 -2 8 -11 8 -14 8 -10 9 -14 8 -12 8 -8 
9 -12 8 -10 8 -3 9 -12 8 -15 8 -11 9 -13 8 -11 
8 -9 9 -8 8 -3 8 -7 9 -11 8 -10 8 -11 9 -10 
8 -12 8 -7 9 -8 8 -13 8 -8 8 -4 9 -7 8 -6 
8 -8 9 -8 8 -10 8 -10 9 -5 8 -3 8 -6 9 -9 
8 -11 8 -10 9 -7 8 -9 8 -5 9 -11 8 -7 8 -4 
9 -7 8 -9 8 -8 8 -8 9 -8 8 -6 8 0 9 -7 
8 -6 8 -7 9 -7 8 -3 8 -2 9 -6 8 -4 8 -7 
9 -9 8 -4 8 -9 9 -6 8 -1 8 -3 9 -5 8 -4 
8 -7 8 -7 9 -6 8 -6 8 -7 9 -3 8 -3 8 -4 
9 -5 8 -5 8 -5 9 -3 8 -3 8 -5 9 -5 8 -5 
8 -2 9 -3 8 -3 8 -2 9 -3 8 -3 8 -8 8 -6 
9 -4 8 -7 8 -5 9 -2 8 -2 8 -2 9 -2 8 -5 
8 -3 9 -3 8 -4 8 -5 9 -4 8 -4 8 0 9 -3 
8 -3 8 -5 9 -3 8 -3 8 0 8 -3 9 -2 8 -3 
8 -4 9 -1 8 -6 8 -2 9 -5 8 -1 8 -4 9 -3 
8 -3 8 -4 9 -4 8 -4 8 -4 9 -1 8 -2 8 -2 
9 -2 8 -2 8 -2 8 -3 9 -1 8 -2 8 -3 9 -5 
8 -3 8 -4 9 -4 1448 3854 300 MP stroke
8 -3 8 -3 9 -2 8 -4 8 -3 9 -3 8 -1 8 -3 
9 -3 8 -2 8 -1 9 2 8 0 8 0 9 1 8 3 
8 -1 8 -3 9 -6 8 -8 8 -7 9 -9 8 -6 8 -2 
9 -5 8 -3 8 -4 9 -3 8 1 8 -1 9 -1 8 -1 
8 -1 9 -1 8 0 8 -1 9 -1 8 -1 8 -1 8 -1 
9 -1 8 -1 8 -1 9 -1 8 -4 8 -5 9 -5 8 -2 
8 -2 9 0 8 -3 8 -2 9 -3 8 -3 8 0 9 -3 
8 -1 8 -3 9 -7 8 0 8 -1 8 -1 9 0 8 0 
8 0 9 -1 8 -1 8 -1 9 -1 8 -1 8 -1 9 0 
8 0 8 -1 9 1 8 -1 8 -1 9 1 8 -1 8 1 
9 0 8 -1 8 1 8 -1 750 3999 85 MP stroke
gr

16.6667 w
0 sg
0.1 sg
%%IncludeResource: font Helvetica-Bold
/Helvetica-Bold /WindowsLatin1Encoding 183.333 FMSR

2010 4322 mt 
(Vertical Strain) s
 424 3132 mt  -90 rotate
(Vertical Stress [kPa]) s
90 rotate
gs 750 500 3751 3501 rc
/c8 { 1.000000 0.000000 0.000000 sr} bdef
c8
-8 1 -9 7 -8 16 -8 22 -9 27 -8 40 -8 64 -9 85 
-8 64 -8 55 -8 127 -9 150 -8 58 -8 139 -9 228 -8 48 
-8 224 -9 285 -8 -7 -8 524 -9 -44 -8 531 -8 111 -9 436 
9 -32 8 -38 8 -16 9 -9 8 -19 8 -30 9 -29 8 -13 
8 -35 9 -23 8 -13 8 -29 9 -22 8 -18 8 -29 8 -24 
9 -10 8 -29 8 -23 9 -33 8 -21 8 -14 9 -18 8 -25 
8 -17 9 -26 8 -15 8 -26 9 -22 8 -18 8 -26 9 -21 
8 -20 8 -20 9 -15 8 -10 8 -20 8 -28 9 -28 8 -35 
8 -35 9 3 8 -3 8 -24 9 -16 8 -24 8 -34 9 2 
8 -11 8 -27 9 -19 8 -3 8 -16 9 -18 8 -15 8 -24 
9 -21 8 -13 8 -23 8 -17 9 -3 8 -23 8 -28 9 -17 
8 1 8 -25 9 -30 8 -10 8 -13 9 -17 8 -15 8 -16 
9 -10 8 -22 8 -27 9 -2 8 -7 8 -5 9 -18 8 -22 
8 -29 8 0 9 -9 8 -9 8 -16 9 -15 8 -17 8 -16 
9 -20 8 -11 8 -14 9 3 8 -8 8 -17 9 -22 8 -14 
8 -12 9 -20 8 -3 8 -10 9 -14 8 -23 8 -15 9 -13 
8 -17 8 -10 8 -2 9 -12 8 -23 8 -10 9 -13 8 -14 
8 -11 9 -17 8 -2 8 -11 9 -13 8 -13 8 -19 9 -11 
8 -9 8 -10 9 -14 8 -14 8 -7 9 -13 8 -7 8 -18 
8 -15 9 -13 8 -8 8 -6 9 -11 8 -14 8 -6 9 -11 
8 -10 8 -12 9 -16 8 -2 8 -9 9 -10 8 -4 8 -13 
9 -12 8 -12 8 -14 9 -17 8 -14 8 -2 8 -10 9 -3 
8 2 8 -4 9 -11 8 -14 8 -14 9 -15 8 -13 8 -12 
9 -7 8 -2 8 -6 9 -5 8 -8 8 -12 9 -6 8 -13 
8 -13 9 -11 8 -12 8 -6 8 0 9 -4 8 -6 8 -8 
9 -18 8 -16 8 -9 9 2 8 -2 8 -8 9 -7 8 -6 
8 -4 9 -11 8 -11 8 -3 9 -7 8 -9 8 -5 9 -6 
8 -3 8 -7 8 -9 9 -5 8 -10 8 -6 9 -3 8 -3 
8 -8 9 -10 8 -4 8 -5 9 -1 8 -4 8 -8 9 -3 
8 -4 8 -4 9 -6 8 -6 8 -2 9 -9 8 -5 8 -1 
8 -7 9 -4 8 -5 8 -7 9 -9 8 -9 8 -7 9 -7 
8 -7 8 -4 9 1 8 -4 8 -8 9 -3 8 -1 8 -2 
9 -7 8 -6 8 -3 9 -6 8 -3 8 -5 9 -6 8 -7 
8 -7 8 -6 9 -1 8 -2 8 -2 9 -6 8 -4 8 -6 
9 -5 8 -6 8 -5 9 -6 8 -6 8 -7 9 -5 8 -4 
8 -1 9 -4 8 -1 8 -4 9 -3 8 -2 8 -4 8 -4 
9 -3 8 -6 8 -6 9 -4 8 -8 8 -7 9 -5 8 -1 
8 -6 9 -4 8 -6 1024 3942 300 MP stroke
8 -8 9 -4 8 -4 8 -6 9 -2 8 -1 8 -6 9 -8 
8 -1 8 -2 8 -2 9 0 8 -1 8 -2 9 0 8 -2 
8 -2 9 0 8 -1 8 -2 9 0 8 1 8 -2 9 1 
8 -3 8 2 9 -1 8 0 8 0 9 -1 8 1 8 1 
8 -2 750 3999 34 MP stroke
/c9 { 0.000000 0.000000 1.000000 sr} bdef
c9
-8 1 -9 2 -8 5 -8 12 -9 22 -8 34 -8 41 -9 44 
-8 43 -8 46 -9 65 -8 89 -8 79 -9 51 -8 93 -8 148 
-9 85 -8 64 -8 206 -8 148 -9 28 -8 330 -8 79 -9 124 
-8 461 -8 -166 -9 668 -8 -34 -8 432 8 -28 8 -16 9 -9 
8 -32 8 -43 9 -39 8 -13 8 -6 9 -31 8 -37 8 -8 
8 -18 9 -26 8 -30 8 -11 9 -30 8 -22 8 -31 9 -10 
8 -35 8 -25 9 -10 8 -22 8 -27 9 -18 8 -31 8 -25 
9 -39 8 6 8 -7 9 -25 8 -24 8 -17 8 -24 9 -30 
8 -48 8 -11 9 -13 8 8 8 -27 9 -28 8 -15 8 -23 
9 -34 8 -23 8 -27 9 -11 8 -2 8 -22 9 -11 8 -23 
8 -23 9 -32 8 -21 8 -9 8 -23 9 -7 8 -18 8 -20 
9 -13 8 -17 8 -17 9 -17 8 -27 8 -21 9 -13 8 -34 
8 -10 9 -17 8 -17 8 -14 9 -21 8 -28 8 -3 9 10 
8 -27 8 -16 9 -31 8 -20 8 1 8 -4 9 -10 8 -16 
8 -28 9 -2 8 -22 8 -25 9 -25 8 12 8 -11 9 -18 
8 -30 8 -22 9 1 8 5 8 -4 9 -16 8 -17 8 -19 
9 -16 8 -9 8 -14 8 -14 9 -25 8 -7 8 6 9 -15 
8 -3 8 -11 9 -32 8 -11 8 -6 9 -4 8 -13 8 -20 
9 -13 8 -14 8 -9 9 -14 8 -10 8 -11 9 -16 8 -21 
8 -5 8 -6 9 -18 8 -21 8 -9 9 -12 8 -9 8 -7 
9 -6 8 -13 8 -19 9 -7 8 -8 8 -3 9 -10 8 -18 
8 -14 9 -16 8 -13 8 2 9 -10 8 -17 8 -16 8 -11 
9 -6 8 3 8 -8 9 -14 8 -10 8 -9 9 -11 8 -11 
8 -7 9 -3 8 -5 8 -12 9 -15 8 -15 8 -2 9 -6 
8 -14 8 -10 9 -11 8 -13 8 -7 8 -10 9 -7 8 -5 
8 -8 9 -2 8 -8 8 -7 9 -7 8 1 8 -5 9 -9 
8 -13 8 -19 9 -16 8 -2 8 0 9 -5 8 -5 8 -8 
9 -8 8 -14 8 -7 8 -1 9 -4 8 -10 8 -7 9 -7 
8 -5 8 -7 9 -7 8 -6 8 -9 9 -8 8 -3 8 -9 
9 -5 8 -5 8 -7 9 -7 8 -8 8 -13 9 -11 8 -5 
8 -6 9 -1 8 8 8 -3 8 -8 9 -12 8 -11 8 -12 
9 -5 8 -7 8 -7 9 -1 8 -4 8 -4 9 -5 8 -7 
8 -6 9 -6 8 -6 8 -8 9 -8 8 -5 8 -2 9 -3 
8 -3 8 -5 8 -5 9 -5 8 -5 8 -3 9 -7 8 -12 
8 -10 9 -3 8 -7 8 -5 9 -10 8 -8 8 -3 9 1 
8 -3 8 -5 9 -5 8 -6 8 -7 9 -4 8 -3 8 -5 
8 -2 9 -3 8 0 8 0 9 -3 8 -5 8 -2 9 0 
8 1 8 0 9 -2 849 3994 300 MP stroke
8 -1 8 -1 9 -1 8 -2 8 0 9 0 8 1 8 1 
9 0 8 0 8 -1 8 -1 750 3999 13 MP stroke
gr

c9
0 sg
%%IncludeResource: font Helvetica
/Helvetica /WindowsLatin1Encoding 83.3333 FMSR

 732 4037 mt 
( ) s
4483  536 mt 
( ) s
8.33333 w
DO
SO
12.5 w
0.1 sg
 750  500 mt 4500  500 L
 750 4000 mt 4500 4000 L
4500 4000 mt 4500  500 L
 750 4000 mt  750  500 L
 750 4000 mt 4500 4000 L
 750 4000 mt  750  500 L
 750 4000 mt  750 3943 L
 750  500 mt  750  556 L
%%IncludeResource: font Helvetica
/Helvetica /WindowsLatin1Encoding 133.333 FMSR

 713 4148 mt 
(0) s
1285 4000 mt 1285 3943 L
1285  500 mt 1285  556 L
1156 4148 mt 
(0.05) s
1821 4000 mt 1821 3943 L
1821  500 mt 1821  556 L
1729 4148 mt 
(0.1) s
2357 4000 mt 2357 3943 L
2357  500 mt 2357  556 L
2228 4148 mt 
(0.15) s
2892 4000 mt 2892 3943 L
2892  500 mt 2892  556 L
2800 4148 mt 
(0.2) s
3428 4000 mt 3428 3943 L
3428  500 mt 3428  556 L
3299 4148 mt 
(0.25) s
3964 4000 mt 3964 3943 L
3964  500 mt 3964  556 L
3872 4148 mt 
(0.3) s
4500 4000 mt 4500 3943 L
4500  500 mt 4500  556 L
4371 4148 mt 
(0.35) s
 750 4000 mt  806 4000 L
4500 4000 mt 4443 4000 L
 652 4049 mt 
(0) s
 750 3681 mt  806 3681 L
4500 3681 mt 4443 3681 L
 578 3730 mt 
(10) s
 750 3363 mt  806 3363 L
4500 3363 mt 4443 3363 L
 578 3412 mt 
(20) s
 750 3045 mt  806 3045 L
4500 3045 mt 4443 3045 L
 578 3094 mt 
(30) s
 750 2727 mt  806 2727 L
4500 2727 mt 4443 2727 L
 578 2776 mt 
(40) s
 750 2409 mt  806 2409 L
4500 2409 mt 4443 2409 L
 578 2458 mt 
(50) s
 750 2090 mt  806 2090 L
4500 2090 mt 4443 2090 L
 578 2139 mt 
(60) s
 750 1772 mt  806 1772 L
4500 1772 mt 4443 1772 L
 578 1821 mt 
(70) s
 750 1454 mt  806 1454 L
4500 1454 mt 4443 1454 L
 578 1503 mt 
(80) s
 750 1136 mt  806 1136 L
4500 1136 mt 4443 1136 L
 578 1185 mt 
(90) s
 750  818 mt  806  818 L
4500  818 mt 4443  818 L
 504  867 mt 
(100) s
 750  500 mt  806  500 L
4500  500 mt 4443  500 L
 504  549 mt 
(110) s
 750  500 mt 4500  500 L
 750 4000 mt 4500 4000 L
4500 4000 mt 4500  500 L
 750 4000 mt  750  500 L
0 sg
%%IncludeResource: font Symbol
/Symbol /WindowsLatin1Encoding 125 FMSR

2076  736 mt 
(m) s
%%IncludeResource: font Helvetica-Bold
/Helvetica-Bold /WindowsLatin1Encoding 100 FMSR

2148  798 mt 
(s) s
%%IncludeResource: font Helvetica-Bold
/Helvetica-Bold /WindowsLatin1Encoding 125 FMSR

2203  736 mt 
( = 0.2) s
gs 1750 589 814 698 rc
16.6667 w
250 0 1800 714 2 MP stroke
gr

16.6667 w
%%IncludeResource: font Symbol
/Symbol /WindowsLatin1Encoding 125 FMSR

2076  959 mt 
(m) s
%%IncludeResource: font Helvetica-Bold
/Helvetica-Bold /WindowsLatin1Encoding 100 FMSR

2148 1021 mt 
(s) s
%%IncludeResource: font Helvetica-Bold
/Helvetica-Bold /WindowsLatin1Encoding 125 FMSR

2203  959 mt 
( = 0.5) s
gs 1750 589 814 698 rc
c8
250 0 1800 937 2 MP stroke
gr

c8
0 sg
%%IncludeResource: font Symbol
/Symbol /WindowsLatin1Encoding 125 FMSR

2076 1182 mt 
(m) s
%%IncludeResource: font Helvetica-Bold
/Helvetica-Bold /WindowsLatin1Encoding 100 FMSR

2148 1244 mt 
(s) s
%%IncludeResource: font Helvetica-Bold
/Helvetica-Bold /WindowsLatin1Encoding 125 FMSR

2203 1182 mt 
( = 0.8) s
gs 1750 589 814 698 rc
c9
250 0 1800 1160 2 MP stroke
12.5 w
gr

12.5 w
c9

end %%Color Dict

eplot
%%EndObject

epage
end

showpage

%%Trailer
%%EOF
