%!PS-Adobe-3.0 EPSF-3.0
%%Creator: MATLAB, The MathWorks, Inc. Version 8.1.0.604 (R2013a). Operating System: Microsoft Windows 7.
%%Title: .\Tangential_UC_StressStain_Spherical.eps
%%CreationDate: 08/17/2013  18:26:17
%%DocumentNeededFonts: Helvetica-Bold
%%+ Helvetica
%%DocumentProcessColors: Cyan Magenta Yellow Black
%%LanguageLevel: 2
%%Pages: 1
%%BoundingBox:    54    93   564   572
%%EndComments

%%BeginProlog
% MathWorks dictionary
/MathWorks 160 dict begin
% definition operators
/bdef {bind def} bind def
/ldef {load def} bind def
/xdef {exch def} bdef
/xstore {exch store} bdef
% operator abbreviations
/c  /clip ldef
/cc /concat ldef
/cp /closepath ldef
/gr /grestore ldef
/gs /gsave ldef
/mt /moveto ldef
/np /newpath ldef
/cm /currentmatrix ldef
/sm /setmatrix ldef
/rm /rmoveto ldef
/rl /rlineto ldef
/s {show newpath} bdef
/sc {setcmykcolor} bdef
/sr /setrgbcolor ldef
/sg /setgray ldef
/w /setlinewidth ldef
/j /setlinejoin ldef
/cap /setlinecap ldef
/rc {rectclip} bdef
/rf {rectfill} bdef
% page state control
/pgsv () def
/bpage {/pgsv save def} bdef
/epage {pgsv restore} bdef
/bplot /gsave ldef
/eplot {stroke grestore} bdef
% orientation switch
/portraitMode 0 def /landscapeMode 1 def /rotateMode 2 def
% coordinate system mappings
/dpi2point 0 def
% font control
/FontSize 0 def
/FMS {/FontSize xstore findfont [FontSize 0 0 FontSize neg 0 0]
  makefont setfont} bdef
/ISOLatin1Encoding where {pop /WindowsLatin1Encoding 256 array bdef
ISOLatin1Encoding WindowsLatin1Encoding copy pop
/.notdef/.notdef/quotesinglbase/florin/quotedblbase/ellipsis/dagger
/daggerdbl/circumflex/perthousand/Scaron/guilsinglleft/OE/.notdef/.notdef
/.notdef/.notdef/quoteleft/quoteright/quotedblleft/quotedblright/bullet
/endash/emdash/tilde/trademark/scaron/guilsinglright/oe/.notdef/.notdef
/Ydieresis WindowsLatin1Encoding 128 32 getinterval astore pop}
{/WindowsLatin1Encoding StandardEncoding bdef} ifelse
/reencode {exch dup where {pop load} {pop StandardEncoding} ifelse
  exch dup 3 1 roll findfont dup length dict begin
  { 1 index /FID ne {def}{pop pop} ifelse } forall
  /Encoding exch def currentdict end definefont pop} bdef
/isroman {findfont /CharStrings get /Agrave known} bdef
/FMSR {3 1 roll 1 index dup isroman {reencode} {pop pop} ifelse
  exch FMS} bdef
/csm {1 dpi2point div -1 dpi2point div scale neg translate
 dup landscapeMode eq {pop -90 rotate}
  {rotateMode eq {90 rotate} if} ifelse} bdef
% line types: solid, dotted, dashed, dotdash
/SO { [] 0 setdash } bdef
/DO { [.5 dpi2point mul 4 dpi2point mul] 0 setdash } bdef
/DA { [6 dpi2point mul] 0 setdash } bdef
/DD { [.5 dpi2point mul 4 dpi2point mul 6 dpi2point mul 4
  dpi2point mul] 0 setdash } bdef
% macros for lines and objects
/L {lineto stroke} bdef
/MP {3 1 roll moveto 1 sub {rlineto} repeat} bdef
/AP {{rlineto} repeat} bdef
/PDlw -1 def
/W {/PDlw currentlinewidth def setlinewidth} def
/PP {closepath eofill} bdef
/DP {closepath stroke} bdef
/MR {4 -2 roll moveto dup  0 exch rlineto exch 0 rlineto
  neg 0 exch rlineto closepath} bdef
/FR {MR stroke} bdef
/PR {MR fill} bdef
/L1i {{currentfile picstr readhexstring pop} image} bdef
/tMatrix matrix def
/MakeOval {newpath tMatrix currentmatrix pop translate scale
0 0 1 0 360 arc tMatrix setmatrix} bdef
/FO {MakeOval stroke} bdef
/PO {MakeOval fill} bdef
/PD {currentlinewidth 2 div 0 360 arc fill
   PDlw -1 eq not {PDlw w /PDlw -1 def} if} def
/FA {newpath tMatrix currentmatrix pop translate scale
  0 0 1 5 -2 roll arc tMatrix setmatrix stroke} bdef
/PA {newpath tMatrix currentmatrix pop	translate 0 0 moveto scale
  0 0 1 5 -2 roll arc closepath tMatrix setmatrix fill} bdef
/FAn {newpath tMatrix currentmatrix pop translate scale
  0 0 1 5 -2 roll arcn tMatrix setmatrix stroke} bdef
/PAn {newpath tMatrix currentmatrix pop translate 0 0 moveto scale
  0 0 1 5 -2 roll arcn closepath tMatrix setmatrix fill} bdef
/vradius 0 def /hradius 0 def /lry 0 def
/lrx 0 def /uly 0 def /ulx 0 def /rad 0 def
/MRR {/vradius xdef /hradius xdef /lry xdef /lrx xdef /uly xdef
  /ulx xdef newpath tMatrix currentmatrix pop ulx hradius add uly
  vradius add translate hradius vradius scale 0 0 1 180 270 arc 
  tMatrix setmatrix lrx hradius sub uly vradius add translate
  hradius vradius scale 0 0 1 270 360 arc tMatrix setmatrix
  lrx hradius sub lry vradius sub translate hradius vradius scale
  0 0 1 0 90 arc tMatrix setmatrix ulx hradius add lry vradius sub
  translate hradius vradius scale 0 0 1 90 180 arc tMatrix setmatrix
  closepath} bdef
/FRR {MRR stroke } bdef
/PRR {MRR fill } bdef
/MlrRR {/lry xdef /lrx xdef /uly xdef /ulx xdef /rad lry uly sub 2 div def
  newpath tMatrix currentmatrix pop ulx rad add uly rad add translate
  rad rad scale 0 0 1 90 270 arc tMatrix setmatrix lrx rad sub lry rad
  sub translate rad rad scale 0 0 1 270 90 arc tMatrix setmatrix
  closepath} bdef
/FlrRR {MlrRR stroke } bdef
/PlrRR {MlrRR fill } bdef
/MtbRR {/lry xdef /lrx xdef /uly xdef /ulx xdef /rad lrx ulx sub 2 div def
  newpath tMatrix currentmatrix pop ulx rad add uly rad add translate
  rad rad scale 0 0 1 180 360 arc tMatrix setmatrix lrx rad sub lry rad
  sub translate rad rad scale 0 0 1 0 180 arc tMatrix setmatrix
  closepath} bdef
/FtbRR {MtbRR stroke } bdef
/PtbRR {MtbRR fill } bdef
/stri 6 array def /dtri 6 array def
/smat 6 array def /dmat 6 array def
/tmat1 6 array def /tmat2 6 array def /dif 3 array def
/asub {/ind2 exch def /ind1 exch def dup dup
  ind1 get exch ind2 get sub exch } bdef
/tri_to_matrix {
  2 0 asub 3 1 asub 4 0 asub 5 1 asub
  dup 0 get exch 1 get 7 -1 roll astore } bdef
/compute_transform {
  dmat dtri tri_to_matrix tmat1 invertmatrix 
  smat stri tri_to_matrix tmat2 concatmatrix } bdef
/ds {stri astore pop} bdef
/dt {dtri astore pop} bdef
/db {2 copy /cols xdef /rows xdef mul dup 3 mul string
  currentfile 
  3 index 0 eq {/ASCIIHexDecode filter}
  {/ASCII85Decode filter 3 index 2 eq {/RunLengthDecode filter} if }
  ifelse exch readstring pop
  dup 0 3 index getinterval /rbmap xdef
  dup 2 index dup getinterval /gbmap xdef
  1 index dup 2 mul exch getinterval /bbmap xdef pop pop}bdef
/it {gs np dtri aload pop moveto lineto lineto cp c
  cols rows 8 compute_transform 
  rbmap gbmap bbmap true 3 colorimage gr}bdef
/il {newpath moveto lineto stroke}bdef
currentdict end def
%%EndProlog

%%BeginSetup
MathWorks begin

0 cap

end
%%EndSetup

%%Page: 1 1
%%BeginPageSetup
%%PageBoundingBox:    54    93   564   572
MathWorks begin
bpage
%%EndPageSetup

%%BeginObject: obj1
bplot

/dpi2point 8.33333 def
portraitMode 0150 5158 csm

  305   390  4251  3990 rc
84 dict begin %Colortable dictionary
/c0 { 0.000000 0.000000 0.000000 sr} bdef
/c1 { 1.000000 1.000000 1.000000 sr} bdef
/c2 { 0.900000 0.000000 0.000000 sr} bdef
/c3 { 0.000000 0.820000 0.000000 sr} bdef
/c4 { 0.000000 0.000000 0.800000 sr} bdef
/c5 { 0.910000 0.820000 0.320000 sr} bdef
/c6 { 1.000000 0.260000 0.820000 sr} bdef
/c7 { 0.000000 0.820000 0.820000 sr} bdef
c0
1 j
1 sg
   0    0 5001 5001 rf
12.5 w
0 3500 3750 0 0 -3500 750 4000 4 MP
PP
-3750 0 0 3500 3750 0 0 -3500 750 4000 5 MP stroke
gs 750 500 3751 3501 rc
16.6667 w
0 sg
2 -1 2 0 3 0 2 1 2 1 3 0 2 0 2 0 
3 0 2 -1 2 0 2 1 3 0 2 -1 2 1 3 0 
2 0 2 -1 3 0 2 0 2 1 3 0 2 1 2 0 
3 1 2 0 2 0 2 0 3 1 2 0 2 1 3 0 
2 1 2 0 3 0 2 0 2 0 3 1 2 0 2 2 
3 -1 2 1 2 1 3 0 2 1 2 0 2 0 3 1 
2 0 2 0 3 0 2 1 2 0 3 1 2 2 2 1 
3 0 2 2 2 1 3 0 2 1 2 1 2 1 3 1 
2 1 2 1 3 1 2 1 2 1 3 2 2 1 2 0 
3 2 2 1 2 0 3 1 2 1 2 1 2 2 3 0 
2 2 2 0 3 1 2 1 2 1 3 1 2 1 2 1 
3 0 2 2 2 1 3 1 2 1 2 1 3 1 2 1 
2 1 2 2 3 1 2 1 2 1 3 0 2 1 2 1 
3 1 2 0 2 1 3 0 2 2 2 1 3 0 2 0 
2 0 2 2 3 0 2 1 2 0 3 2 2 1 2 0 
3 1 2 2 2 1 3 0 2 1 2 2 3 2 2 0 
2 0 3 2 2 2 2 0 2 2 3 1 2 1 2 0 
3 2 2 1 2 1 3 0 2 1 2 2 3 -1 2 -1 
2 1 3 1 2 1 2 -2 2 1 3 0 2 2 2 -1 
3 1 2 0 2 1 3 0 2 -1 2 1 3 0 2 0 
2 0 3 0 2 1 2 -1 3 0 2 0 2 -1 2 -1 
3 0 2 1 2 -3 3 -2 2 1 2 0 3 -3 2 1 
2 -1 3 -1 2 0 2 -1 3 -2 2 0 2 0 2 0 
3 0 2 1 2 0 3 -1 2 0 2 0 3 0 2 -1 
2 0 3 0 2 -1 2 0 3 1 2 0 2 -1 3 1 
2 1 2 -1 2 1 3 2 2 1 2 2 3 1 2 1 
2 0 3 1 2 1 2 1 3 1 2 1 2 0 3 0 
2 0 2 1 2 1 3 -1 2 0 2 0 3 0 2 -1 
2 0 3 0 2 0 2 -1 3 -1 2 0 2 -1 3 -1 
2 0 2 0 3 -1 2 0 2 1 2 0 3 -1 2 0 
2 0 3 0 2 -1 2 1 3 0 2 0 2 0 3 -1 
2 0 2 -1 3 0 2 -1 2 -1 2 0 3 -1 2 0 
2 -2 3 -1 2 0 2 -1 3 -1 2 0 2 0 3 0 
2 -1 2 -1 3 0 2 1 2 -1 3 2 2 -1 2 -1 
2 1 3 0 2 1 2 -2 3 -1 2 1 2 -1 3 -2 
2 0 2 1 3 -2 2 -1 2 0 3 0 2 1 2 -2 
2 1 3 0 2 -1 2 -1 3 1 2 0 2 -1 3 -1 
2 0 2 0 3 -2 1367 1151 300 MP stroke
2 -2 2 0 3 1 2 -2 2 -2 3 -1 2 0 2 -1 
2 -1 3 -1 2 1 2 -1 3 -2 2 0 2 0 3 0 
2 -1 2 0 3 0 2 -1 2 -1 3 0 2 -1 2 0 
2 -1 3 -1 2 0 2 0 3 -2 2 -1 2 -1 3 -1 
2 -1 2 -1 3 -2 2 -1 2 -1 3 -1 2 -2 2 -2 
2 -1 3 -2 2 -3 2 -2 3 -1 2 -2 2 -1 3 -2 
2 -1 2 -1 3 -2 2 -2 2 -2 3 -1 2 -3 2 -1 
3 -1 2 -3 2 -2 2 -2 3 -3 2 -2 2 -3 3 -2 
2 0 2 -2 3 -2 2 -2 2 -3 3 -2 2 -3 2 -2 
3 -3 2 -2 2 -4 2 -3 3 -2 2 -3 2 -4 3 -3 
2 -2 2 -4 3 -4 2 -4 2 -3 3 -4 2 -4 2 -5 
3 -3 2 -4 2 -3 3 -6 2 -3 2 -4 2 -5 3 -4 
2 -3 2 -4 3 -5 2 -4 2 -5 3 -5 2 -4 2 -5 
3 -6 2 -6 2 -5 3 -6 2 -6 2 -7 2 -7 3 -6 
2 -7 2 -9 3 -7 2 -7 2 -8 3 -9 2 -9 2 -10 
3 -8 2 -9 2 -9 3 -10 2 -10 2 -11 3 -10 2 -11 
2 -11 2 -11 3 -11 2 -12 2 -11 3 -13 2 -13 2 -13 
3 -12 2 -13 2 -14 3 -13 2 -14 2 -13 3 -16 2 -13 
2 -15 2 -16 3 -15 2 -16 2 -16 3 -16 2 -17 2 -16 
3 -17 2 -17 2 -18 3 -19 2 -18 2 -18 3 -19 2 -19 
2 -19 3 -19 2 -19 2 -19 2 -20 3 -20 2 -21 2 -21 
3 -20 2 -21 2 -21 3 -22 2 -21 2 -21 3 -22 2 -22 
2 -22 3 -23 2 -23 2 -23 2 -24 3 -23 2 -23 2 -25 
3 -24 2 -25 2 -25 3 -24 2 -25 2 -26 3 -25 2 -25 
2 -25 3 -26 2 -26 2 -26 3 -25 2 -24 2 -26 2 -26 
3 -26 2 -24 2 -25 3 -24 2 -26 2 -25 3 -25 2 -24 
2 -24 3 -26 2 -26 2 -25 3 -24 2 -24 2 -24 2 -26 
3 -24 2 -24 2 -23 3 -23 2 -23 2 -24 3 -23 2 -22 
2 -20 3 -21 2 -21 2 -21 3 -20 2 -20 2 -19 3 -18 
2 -18 2 -18 2 -18 3 -17 2 -16 2 -15 3 -14 2 -14 
2 -14 3 -13 2 -12 2 -11 3 -11 2 -9 2 -10 3 -9 
2 -9 2 -8 2 -9 3 -7 2 -7 2 -6 3 -6 2 -5 
2 -4 3 -4 2 -4 2 -3 3 -2 2 -1 2 -2 3 -1 
2 -1 2 -1 2 -1 750 3995 268 MP stroke
gr

16.6667 w
0 sg
0.1 sg
%%IncludeResource: font Helvetica-Bold
/Helvetica-Bold /WindowsLatin1Encoding 183.333 FMSR

2010 4322 mt 
(Vertical Strain) s
 498 3132 mt  -90 rotate
(Vertical Stress [kPa]) s
90 rotate
gs 750 500 3751 3501 rc
/c8 { 1.000000 0.000000 0.000000 sr} bdef
c8
3 2 2 0 2 0 3 0 2 2 2 -1 3 0 2 0 
2 0 2 0 3 2 2 -1 2 -1 3 3 2 1 2 0 
3 2 2 -1 2 2 3 0 2 0 2 1 3 1 2 -1 
2 1 2 1 3 0 2 1 2 0 3 0 2 1 2 0 
3 0 2 2 2 -2 3 0 2 2 2 2 3 -2 2 0 
2 3 3 0 2 1 2 -2 2 2 3 0 2 1 2 -1 
3 0 2 1 2 1 3 2 2 -4 2 2 3 1 2 -1 
2 -1 3 1 2 -1 2 0 2 -1 3 1 2 1 2 -2 
3 0 2 1 2 2 3 -1 2 -2 2 3 3 2 2 -3 
2 0 3 0 2 1 2 0 2 -1 3 1 2 0 2 0 
3 0 2 0 2 0 3 0 2 -1 2 0 3 -1 2 2 
2 0 3 0 2 2 2 0 2 1 3 -2 2 1 2 2 
3 0 2 1 2 -1 3 1 2 2 2 -2 3 -1 2 3 
2 1 3 0 2 0 2 1 2 1 3 -1 2 -1 2 0 
3 1 2 1 2 -1 3 1 2 -1 2 3 3 2 2 -1 
2 2 3 -1 2 2 2 1 3 -1 2 1 2 0 2 1 
3 1 2 -1 2 3 3 1 2 -1 2 0 3 2 2 -1 
2 -1 3 3 2 -2 2 2 3 -1 2 0 2 1 2 1 
3 -2 2 1 2 1 3 0 2 -2 2 1 3 -3 2 2 
2 -1 3 0 2 -1 2 -1 3 2 2 -2 2 -1 2 1 
3 -1 2 0 2 2 3 1 2 -1 2 1 3 0 2 2 
2 -1 3 -1 2 2 2 -1 3 -2 2 0 2 0 2 0 
3 -1 2 2 2 1 3 -2 2 2 2 2 3 0 2 0 
2 1 3 1 2 0 2 -1 3 1 2 -1 2 1 2 3 
3 -1 2 0 2 1 3 2 2 1 2 0 3 1 2 0 
2 0 3 1 2 0 2 2 3 0 2 -1 2 0 2 1 
3 1 2 1 2 -1 3 1 2 3 2 -1 3 0 2 0 
2 0 3 4 2 -2 2 0 3 2 2 0 2 0 3 1 
2 0 2 2 2 -2 3 0 2 1 2 2 3 -2 2 -1 
2 2 3 0 2 -3 2 1 3 2 2 0 2 -1 3 -2 
2 1 2 -1 2 1 3 -1 2 0 2 1 3 1 2 -2 
2 1 3 -1 2 -1 2 1 3 -1 2 1 2 2 3 -1 
2 0 2 1 2 1 3 0 2 -2 2 0 3 1 2 0 
2 -1 3 0 2 1 2 -1 3 -2 2 -1 2 1 3 -2 
2 -2 2 -1 2 -1 3 -3 2 1 2 -1 3 0 2 1 
2 -1 3 0 2 2 2 0 3 -1 2 -1 2 2 3 0 
2 0 2 1 2 0 3 0 2 1 2 0 3 0 2 -1 
2 0 3 -2 2 -1 1573 1030 300 MP stroke
2 1 3 -1 2 -1 2 -2 3 -1 2 0 2 -1 3 1 
2 -4 2 -1 2 0 3 -2 2 -3 2 0 3 -1 2 0 
2 1 3 -2 2 0 2 -1 3 -2 2 0 2 -2 3 -1 
2 -1 2 -3 2 0 3 -3 2 1 2 -1 3 -1 2 -1 
2 -1 3 0 2 -3 2 -2 3 -1 2 1 2 -2 3 -1 
2 1 2 0 2 -1 3 -3 2 -1 2 0 3 -1 2 0 
2 -1 3 0 2 -2 2 -1 3 -1 2 -2 2 -2 3 -1 
2 0 2 0 2 -3 3 -3 2 3 2 0 3 -2 2 -1 
2 0 3 1 2 -2 2 -1 3 -2 2 1 2 -2 3 -3 
2 1 2 0 2 -3 3 -1 2 -2 2 -1 3 -1 2 -2 
2 -3 3 -1 2 -1 2 -3 3 -1 2 -4 2 -2 3 0 
2 -2 2 -3 3 -1 2 -2 2 -3 2 -3 3 1 2 -2 
2 -2 3 -3 2 -2 2 0 3 -3 2 -4 2 -3 3 0 
2 -2 2 -6 3 -3 2 3 2 -2 2 -2 3 -3 2 -2 
2 -2 3 -2 2 -1 2 -3 3 0 2 -2 2 -2 3 0 
2 -1 2 -2 3 0 2 -2 2 -3 2 0 3 -3 2 -2 
2 -4 3 -2 2 -1 2 -2 3 -3 2 -2 2 -2 3 -4 
2 -3 2 -4 3 -2 2 -5 2 -5 2 -4 3 -4 2 -4 
2 -5 3 -4 2 -5 2 -6 3 -4 2 -6 2 -5 3 -6 
2 -5 2 -6 3 -4 2 -5 2 -6 2 -4 3 -6 2 -5 
2 -5 3 -6 2 -3 2 -3 3 -6 2 -7 2 -5 3 -3 
2 -6 2 -8 3 -5 2 -5 2 -6 2 -6 3 -6 2 -6 
2 -7 3 -7 2 -7 2 -6 3 -6 2 -7 2 -7 3 -8 
2 -8 2 -8 3 -8 2 -6 2 -8 3 -10 2 -7 2 -8 
2 -9 3 -10 2 -8 2 -9 3 -8 2 -8 2 -9 3 -8 
2 -9 2 -9 3 -12 2 -11 2 -9 3 -8 2 -10 2 -10 
2 -10 3 -10 2 -9 2 -11 3 -10 2 -11 2 -9 3 -12 
2 -12 2 -10 3 -12 2 -12 2 -13 3 -12 2 -11 2 -12 
2 -13 3 -11 2 -13 2 -13 3 -15 2 -12 2 -15 3 -13 
2 -14 2 -14 3 -16 2 -17 2 -14 3 -14 2 -16 2 -16 
2 -17 3 -16 2 -15 2 -16 3 -15 2 -18 2 -16 3 -17 
2 -16 2 -17 3 -17 2 -17 2 -17 3 -18 2 -18 2 -19 
2 -17 3 -19 2 -18 2 -19 3 -20 2 -19 2 -18 3 -20 
2 -19 2 -21 3 -19 2 -19 2 -19 3 -21 2 -21 2 -19 
3 -19 2 -21 2 -21 2 -22 3 -20 2 -20 2 -21 3 -22 
2 -23 2 -21 3 -20 2 -20 2 -22 3 -23 2 -24 2 -21 
3 -20 2 -22 2 -23 2 -24 3 -22 2 -20 2 -20 3 -23 
2 -24 2 -23 3 -21 881 3242 300 MP stroke
2 -19 2 -20 3 -22 2 -24 2 -22 3 -19 2 -18 2 -19 
2 -22 3 -22 2 -21 2 -18 3 -16 2 -18 2 -20 3 -20 
2 -20 2 -18 3 -15 2 -16 2 -16 3 -19 2 -18 2 -18 
2 -15 3 -14 2 -13 2 -14 3 -16 2 -16 2 -14 3 -13 
2 -11 2 -10 3 -11 2 -12 2 -12 3 -12 2 -10 2 -9 
2 -8 3 -7 2 -7 2 -7 3 -8 2 -7 2 -6 3 -6 
2 -5 2 -5 3 -4 2 -4 2 -4 3 -4 2 -4 2 -3 
2 -2 750 3995 58 MP stroke
/c9 { 0.000000 0.000000 1.000000 sr} bdef
c9
3 -2 2 0 2 0 2 0 3 1 2 -3 2 5 3 0 
2 0 2 1 3 -2 2 0 2 3 3 0 2 1 2 -2 
3 -4 2 2 2 -1 2 0 3 -1 2 -2 2 4 3 2 
2 -2 2 1 3 1 2 2 2 0 3 0 2 2 2 -3 
3 1 2 -1 2 1 3 4 2 -1 2 0 2 3 3 2 
2 1 2 1 3 -1 2 -1 2 5 3 1 2 1 2 -2 
3 3 2 4 2 2 3 0 2 1 2 -1 2 -1 3 1 
2 -1 2 -4 3 1 2 4 2 0 3 -3 2 1 2 2 
3 5 2 -3 2 1 3 1 2 0 2 -6 2 5 3 2 
2 -4 2 0 3 -2 2 1 2 -2 3 0 2 2 2 2 
3 -5 2 2 2 -2 3 1 2 2 2 2 2 1 3 -2 
2 -1 2 2 3 0 2 -1 2 1 3 2 2 2 2 -1 
3 -1 2 4 2 1 3 4 2 1 2 -1 2 -2 3 2 
2 3 2 1 3 0 2 2 2 -1 3 -2 2 -1 2 11 
3 0 2 1 2 -1 3 1 2 3 2 -2 2 3 3 -2 
2 2 2 3 3 0 2 -2 2 1 3 1 2 3 2 0 
3 0 2 -2 2 -1 3 4 2 -4 2 0 3 0 2 4 
2 -4 2 -2 3 5 2 -2 2 0 3 0 2 -4 2 4 
3 1 2 -4 2 2 3 3 2 -4 2 0 3 3 2 0 
2 -2 2 1 3 -3 2 3 2 2 3 0 2 1 2 7 
3 -1 2 -3 2 3 3 2 2 0 2 6 3 0 2 -1 
2 0 2 0 3 3 2 -2 2 0 3 3 2 1 2 -1 
3 -6 2 5 2 -5 3 4 2 -1 2 -2 3 1 2 -1 
2 3 2 1 3 0 2 -2 2 -3 3 5 2 0 2 1 
3 1 2 -3 2 3 3 -4 2 0 2 8 3 -4 2 -3 
2 1 2 0 3 -5 2 -6 2 6 3 6 2 -5 2 -4 
3 3 2 3 2 3 3 -3 2 -1 2 6 3 5 2 -3 
2 -4 2 4 3 4 2 -1 2 -7 3 7 2 1 2 5 
3 -3 2 -1 2 3 3 -2 2 -3 2 -2 3 4 2 1 
2 -1 3 -2 2 -2 2 -1 2 -1 3 -4 2 0 2 -2 
3 3 2 -3 2 1 3 -6 2 5 2 -1 3 -2 2 -1 
2 -2 3 0 2 2 2 -2 2 -3 3 3 2 -3 2 -5 
3 -6 2 1 2 1 3 -10 2 -3 2 0 3 1 2 1 
2 -5 3 -2 2 1 2 0 2 -2 3 2 2 -2 2 0 
3 -3 2 3 2 3 3 -2 2 1 2 2 3 -1 2 -2 
2 1 3 3 2 0 2 -4 2 0 3 3 2 4 2 -2 
3 -4 2 -2 2 3 3 0 2 -3 2 1 3 4 2 -1 
2 -5 3 0 2 0 1552 1032 300 MP stroke
2 -2 2 -2 3 2 2 0 2 -3 3 -1 2 -3 2 -1 
3 2 2 -5 2 -3 3 -2 2 6 2 -2 3 -4 2 2 
2 2 2 3 3 0 2 -3 2 1 3 0 2 0 2 2 
3 -2 2 -4 2 3 3 -3 2 -1 2 -2 3 -3 2 1 
2 -4 2 -2 3 3 2 -4 2 -1 3 -6 2 -1 2 -1 
3 -2 2 1 2 1 3 -5 2 -3 2 7 3 -8 2 0 
2 0 3 -3 2 -2 2 -4 2 1 3 -5 2 -6 2 -1 
3 -3 2 -7 2 0 3 -1 2 -3 2 -1 3 -5 2 -3 
2 2 3 -3 2 -3 2 1 2 -4 3 -1 2 -1 2 -3 
3 -5 2 2 2 -7 3 -3 2 -3 2 -4 3 -3 2 -6 
2 -4 3 2 2 -6 2 -2 2 -8 3 -3 2 -3 2 -8 
3 -2 2 -5 2 -6 3 -3 2 -3 2 -6 3 -3 2 -7 
2 -2 3 -7 2 -8 2 -2 2 -3 3 -4 2 -3 2 -4 
3 -6 2 -1 2 -4 3 -8 2 -4 2 -5 3 -4 2 -9 
2 -4 3 -4 2 -8 2 -7 2 -2 3 -3 2 -6 2 -3 
3 -4 2 -6 2 -4 3 -5 2 -3 2 -8 3 0 2 -5 
2 -8 3 -5 2 -5 2 -5 2 -7 3 -8 2 -3 2 -1 
3 -6 2 -7 2 -8 3 -4 2 -2 2 -10 3 -9 2 -4 
2 -2 3 -6 2 -9 2 -11 3 -4 2 -1 2 -11 2 -8 
3 -5 2 -4 2 -8 3 -8 2 -6 2 -4 3 -9 2 -9 
2 -5 3 -7 2 -9 2 -9 3 -9 2 -4 2 -8 2 -10 
3 -8 2 -8 2 -7 3 -10 2 -9 2 -7 3 -8 2 -10 
2 -8 3 -9 2 -11 2 -5 3 -7 2 -12 2 -7 2 -6 
3 -11 2 -10 2 -10 3 -9 2 -11 2 -18 3 -11 2 -8 
2 -7 3 -14 2 -17 2 -14 3 -8 2 -10 2 -14 2 -11 
3 -11 2 -10 2 -13 3 -12 2 -14 2 -13 3 -8 2 -13 
2 -16 3 -15 2 -10 2 -11 3 -12 2 -14 2 -15 2 -10 
3 -13 2 -15 2 -15 3 -13 2 -13 2 -11 3 -15 2 -13 
2 -13 3 -14 2 -14 2 -14 3 -15 2 -15 2 -16 2 -14 
3 -11 2 -15 2 -15 3 -13 2 -12 2 -13 3 -16 2 -16 
2 -16 3 -15 2 -13 2 -16 3 -17 2 -16 2 -14 3 -16 
2 -17 2 -16 2 -17 3 -15 2 -15 2 -19 3 -17 2 -15 
2 -17 3 -16 2 -18 2 -18 3 -18 2 -17 2 -17 3 -17 
2 -19 2 -20 2 -19 3 -16 2 -18 2 -18 3 -19 2 -20 
2 -18 3 -17 2 -18 2 -18 3 -19 2 -19 2 -19 3 -17 
2 -17 2 -18 2 -19 3 -20 2 -18 2 -17 3 -17 2 -19 
2 -20 3 -19 2 -18 2 -16 3 -17 2 -18 2 -20 3 -20 
2 -17 2 -16 2 -16 861 3508 300 MP stroke
3 -17 2 -19 2 -20 3 -18 2 -16 2 -15 3 -15 2 -18 
2 -18 3 -18 2 -17 2 -14 3 -14 2 -14 2 -15 2 -17 
3 -15 2 -14 2 -13 3 -11 2 -11 2 -12 3 -12 2 -12 
2 -12 3 -10 2 -10 2 -9 3 -8 2 -8 2 -9 2 -8 
3 -7 2 -7 2 -5 3 -5 2 -3 2 -3 3 -3 2 -3 
2 -2 3 -3 2 -2 2 -1 3 -1 2 -1 2 -1 2 -1 
750 3995 49 MP stroke
/c10 { 1.000000 0.000000 1.000000 sr} bdef
c10
2 1 3 -9 2 9 2 3 3 3 2 8 2 -4 2 -3 
3 -1 2 0 2 -2 3 -1 2 6 2 0 3 -7 2 3 
2 4 3 -9 2 -2 2 9 3 -1 2 -4 2 1 3 1 
2 -7 2 7 2 5 3 -4 2 1 2 2 3 -8 2 -5 
2 16 3 -1 2 -8 2 -1 3 5 2 1 2 -6 3 -1 
2 5 2 0 3 2 2 -2 2 2 2 -5 3 -1 2 5 
2 -1 3 -2 2 2 2 0 3 9 2 0 2 -14 3 6 
2 2 2 3 3 -4 2 -7 2 4 3 5 2 -4 2 -9 
2 5 3 -7 2 -1 2 5 3 7 2 -2 2 -8 3 2 
2 9 2 5 3 -6 2 -7 2 -2 3 5 2 7 2 -6 
3 -8 2 -1 2 9 2 -1 3 -10 2 1 2 5 3 6 
2 4 2 -4 3 0 2 3 2 -2 3 3 2 1 2 -6 
3 1 2 2 2 -12 3 -1 2 7 2 2 2 -3 3 3 
2 5 2 -7 3 2 2 -4 2 -3 3 5 2 4 2 -2 
3 -3 2 -4 2 7 3 4 2 -2 2 -2 2 -1 3 5 
2 1 2 -5 3 -7 2 4 2 10 3 -2 2 -3 2 2 
3 -1 2 1 2 1 3 -3 2 0 2 10 3 -6 2 -2 
2 5 2 4 3 -5 2 -10 2 3 3 8 2 1 2 -6 
3 -3 2 4 2 -1 3 -7 2 2 2 -3 3 6 2 1 
2 2 3 -8 2 8 2 6 2 -5 3 -6 2 5 2 1 
3 -4 2 -1 2 8 3 -2 2 -7 2 6 3 7 2 2 
2 5 3 -3 2 4 2 0 3 4 2 -1 2 -8 2 -4 
3 3 2 -1 2 -4 3 4 2 4 2 -7 3 7 2 4 
2 2 3 -8 2 -4 2 7 3 -3 2 -6 2 7 3 1 
2 -6 2 2 2 -2 3 -10 2 4 2 0 3 -3 2 4 
2 -1 3 2 2 0 2 1 3 1 2 -5 2 -6 3 3 
2 0 2 -5 2 6 3 -2 2 0 2 -5 3 4 2 4 
2 -2 3 -9 2 2 2 1 3 -2 2 2 2 4 3 -10 
2 -1 2 11 3 0 2 0 2 -5 2 -1 3 3 2 1 
2 -4 3 -4 2 5 2 1 3 1 2 -6 2 7 3 2 
2 4 2 2 3 -13 2 -8 2 9 3 9 2 -4 2 -6 
2 5 3 -5 2 0 2 6 3 -5 2 3 2 9 3 -2 
2 1 2 -2 3 -4 2 0 2 3 3 -6 2 -3 2 6 
3 0 2 -4 2 -1 2 3 3 0 2 -1 2 -2 3 -3 
2 -1 2 3 3 2 2 -6 2 -3 3 2 2 11 2 -7 
3 -2 2 2 2 -1 3 0 2 4 2 -1 2 -6 3 -2 
2 -2 2 -1 3 2 2 0 2 3 3 7 2 -8 2 -3 
3 4 2 8 2 -3 2294 1043 300 MP stroke
3 2 2 -5 2 1 2 3 3 -2 2 -8 2 7 3 9 
2 -3 2 -7 3 3 2 6 2 -4 3 2 2 7 2 -6 
3 -12 2 6 2 1 3 2 2 -4 2 -7 2 4 3 8 
2 -8 2 -10 3 6 2 1 2 -2 3 -2 2 -6 2 3 
3 5 2 -1 2 -5 3 -7 2 -1 2 3 3 4 2 0 
2 -7 2 10 3 -3 2 -1 2 -4 3 -3 2 1 2 0 
3 -1 2 -4 2 0 3 4 2 2 2 -4 3 -3 2 -3 
2 2 3 2 2 -14 2 2 2 8 3 -6 2 -2 2 3 
3 3 2 1 2 2 3 -5 2 5 2 -5 3 -8 2 1 
2 2 3 -1 2 5 2 -4 3 -1 2 5 2 -1 2 -7 
3 8 2 0 2 -3 3 -5 2 -4 2 5 3 -4 2 -7 
2 -3 3 -1 2 11 2 4 3 -9 2 -8 2 4 2 2 
3 6 2 0 2 -6 3 -2 2 4 2 -1 3 0 2 -6 
2 -13 3 13 2 11 2 -2 3 -8 2 -7 2 9 3 -1 
2 -1 2 2 2 -1 3 -7 2 -3 2 2 3 -1 2 3 
2 -2 3 -2 2 -6 2 3 3 -4 2 4 2 7 3 -2 
2 -7 2 -2 3 0 2 -3 2 -1 2 -2 3 -2 2 2 
2 8 3 -6 2 -4 2 4 3 -5 2 -7 2 5 3 4 
2 -8 2 -2 3 -1 2 9 2 3 3 -11 2 -2 2 -2 
2 -6 3 8 2 -3 2 0 3 2 2 2 2 6 3 3 
2 -10 2 -4 3 2 2 -2 2 -8 3 0 2 -1 2 2 
3 6 2 -3 2 -10 2 -3 3 4 2 2 2 -5 3 -3 
2 3 2 -4 3 2 2 0 2 -1 3 1 2 0 2 -5 
3 1 2 -7 2 -4 2 -4 3 1 2 2 2 -2 3 -8 
2 -1 2 4 3 -2 2 3 2 -1 3 -7 2 -2 2 3 
3 2 2 -2 2 -7 3 -4 2 6 2 9 2 -9 3 -2 
2 -6 2 -5 3 6 2 -1 2 0 3 0 2 -4 2 -3 
3 5 2 -11 2 9 3 -5 2 -1 2 6 3 2 2 -1 
2 3 2 -4 3 -9 2 1 2 2 3 -2 2 -2 2 -4 
3 -6 2 -5 2 2 3 -3 2 -8 2 -3 3 3 2 -1 
2 -1 3 -1 2 1 2 -3 2 -10 3 -3 2 4 2 1 
3 -1 2 -7 2 -6 3 1 2 3 2 0 3 -6 2 -8 
2 4 3 -7 2 1 2 5 3 -15 2 -12 2 6 2 1 
3 -3 2 -3 2 6 3 0 2 -4 2 5 3 -8 2 -13 
2 5 3 -3 2 -4 2 -7 3 -2 2 11 2 -5 3 -4 
2 2 2 -10 2 -3 3 7 2 -1 2 -6 3 8 2 -2 
2 -4 3 -6 2 -6 2 5 3 -1 2 -2 2 -5 3 -1 
2 -3 2 0 2 -9 1602 1360 300 MP stroke
3 -5 2 0 2 1 3 -3 2 -16 2 -6 3 1 2 -3 
2 -4 3 -6 2 -8 2 4 3 -2 2 -1 2 -7 3 0 
2 -1 2 3 2 1 3 -8 2 1 2 2 3 -5 2 5 
2 3 3 -4 2 -2 2 -7 3 -1 2 4 2 -8 3 -4 
2 -4 2 -10 3 5 2 1 2 -11 2 -1 3 3 2 -5 
2 -15 3 -2 2 4 2 1 3 -4 2 -4 2 4 3 -10 
2 -7 2 3 3 -4 2 -6 2 3 3 -2 2 -8 2 -7 
2 -3 3 4 2 -7 2 -18 3 -5 2 4 2 1 3 -6 
2 -11 2 -4 3 -1 2 -4 2 -10 3 2 2 -2 2 -5 
3 -8 2 -3 2 -3 2 -3 3 -6 2 -10 2 -3 3 -6 
2 1 2 0 3 -9 2 -16 2 0 3 -1 2 -3 2 -7 
3 -11 2 -1 2 5 2 -5 3 -9 2 -10 2 -4 3 1 
2 -4 2 -5 3 -5 2 0 2 2 3 -6 2 -7 2 -3 
3 -8 2 9 2 1 3 -14 2 -9 2 1 2 -1 3 -7 
2 -9 2 -5 3 -8 2 0 2 -1 3 -8 2 -11 2 -5 
3 -3 2 -1 2 -3 3 -3 2 -13 2 -18 3 -3 2 2 
2 1 2 -6 3 -14 2 -11 2 1 3 -6 2 -10 2 -6 
3 -4 2 -4 2 -3 3 -8 2 -4 2 -3 3 -7 2 -8 
2 -1 3 2 2 -7 2 -9 2 -7 3 -5 2 -2 2 -8 
3 -9 2 -1 2 -10 3 -11 2 -4 2 -8 3 -6 2 -11 
2 -11 3 -8 2 -2 2 -3 3 -15 2 -8 2 -7 2 1 
3 -9 2 -13 2 -3 3 -6 2 -4 2 -4 3 -7 2 -7 
2 -11 3 -6 2 1 2 -6 3 -17 2 -15 2 -5 2 -2 
3 -7 2 -7 2 -7 3 -9 2 -7 2 -7 3 -9 2 -9 
2 -9 3 -10 2 -6 2 -7 3 -11 2 -8 2 -5 3 -14 
2 -2 2 -6 2 -11 3 -12 2 -11 2 -6 3 -8 2 -9 
2 -2 3 -10 2 -12 2 -7 3 -9 2 -11 2 -12 3 -9 
2 -12 2 -6 3 -5 2 -8 2 -9 2 -13 3 -7 2 -6 
2 -6 3 -11 2 -14 2 -10 3 -7 2 -8 2 -6 3 -11 
2 -10 2 -9 3 -11 2 -10 2 -7 3 -7 2 -12 2 -14 
2 -11 3 -7 2 -9 2 -9 3 -4 2 -12 2 -17 3 -17 
2 -5 2 -4 3 -10 2 -14 2 -14 3 -10 2 -6 2 -5 
3 -11 2 -9 2 -9 2 -12 3 -17 2 -8 2 -7 3 -11 
2 -11 2 -11 3 -12 2 -13 2 -10 3 -11 2 -12 2 -7 
3 -9 2 -15 2 -14 2 -10 3 -10 2 -10 2 -12 3 -13 
2 -12 2 -11 3 -9 2 -11 2 -12 3 -12 2 -11 2 -11 
3 -9 2 -11 2 -15 3 -14 2 -12 2 -12 2 -8 3 -11 
2 -16 2 -14 3 -12 909 3318 300 MP stroke
2 -12 2 -9 3 -9 2 -11 2 -14 3 -15 2 -15 2 -14 
3 -9 2 -7 2 -11 3 -15 2 -17 2 -18 2 -14 3 -7 
2 -5 2 -9 3 -16 2 -20 2 -17 3 -12 2 -5 2 -6 
3 -9 2 -15 2 -21 3 -18 2 -13 2 -8 3 -4 2 -5 
2 -9 2 -16 3 -20 2 -18 2 -13 3 -7 2 -3 2 -4 
3 -8 2 -15 2 -17 3 -18 2 -13 2 -8 3 -3 2 -2 
2 -5 3 -9 2 -13 2 -15 2 -13 3 -10 2 -5 2 -3 
3 -1 2 -3 2 -6 3 -8 2 -8 2 -8 3 -6 2 -4 
2 -2 3 -1 2 -1 2 -1 2 -1 750 3995 70 MP stroke
/c11 { 0.000000 1.000000 0.000000 sr} bdef
c11
2 -4 3 2 2 2 2 0 3 -1 2 -1 2 4 2 1 
3 -5 2 -5 2 -9 3 -2 2 5 2 8 3 -5 2 -7 
2 1 3 -4 2 7 2 8 3 -1 2 -8 2 -16 3 -1 
2 8 2 6 3 -3 2 -10 2 -4 3 -5 2 9 2 -1 
3 1 2 5 2 0 2 -6 3 -1 2 -3 2 5 3 1 
2 -3 2 -8 3 -1 2 7 2 0 3 -2 2 -7 2 -11 
3 5 2 1 2 1 3 2 2 -5 2 -6 3 -7 2 4 
2 11 3 -4 2 -9 2 3 3 -1 2 -2 2 2 2 -3 
3 -5 2 -4 2 -2 3 -1 2 -2 2 0 3 2 2 -2 
2 1 3 -3 2 -6 2 5 3 0 2 -1 2 -5 3 -3 
2 1 2 -1 3 -4 2 -3 2 1 3 2 2 4 2 -1 
3 -6 2 -4 2 -5 2 1 3 -4 2 -7 2 6 3 2 
2 3 2 0 3 -7 2 1 2 7 3 0 2 -2 2 -5 
3 2 2 1 2 -6 3 -6 2 -1 2 6 3 2 2 2 
2 0 3 -5 2 4 2 1 3 0 2 -2 2 -2 3 1 
2 5 2 -2 2 -5 3 -6 2 -8 2 2 3 5 2 -1 
2 -4 3 -8 2 -2 2 -7 3 -1 2 4 2 5 3 3 
2 -1 2 -8 3 -9 2 -1 2 6 3 -5 2 -8 2 6 
3 6 2 -6 2 -15 3 2 2 12 2 3 2 2 3 2 
2 -6 2 -8 3 0 2 4 2 -2 3 -5 2 -4 2 -2 
3 3 2 -1 2 -7 3 -8 2 -4 2 7 3 -2 2 -2 
2 -2 3 2 2 1 2 -6 3 -7 2 -3 2 4 3 2 
2 -6 2 4 2 5 3 -5 2 -5 2 0 3 -3 2 4 
2 -3 3 -3 2 4 2 1 3 -2 2 -3 2 -9 3 -4 
2 -1 2 -3 3 3 2 -2 2 -5 3 -5 2 -7 2 0 
3 3 2 5 2 -4 3 -3 2 1 2 -6 2 1 3 1 
2 -5 2 -3 3 5 2 -12 2 -3 3 4 2 7 2 2 
3 -5 2 -1 2 1 3 -8 2 5 2 -6 3 1 2 1 
2 -4 3 1 2 1 2 -7 3 -2 2 -3 2 1 3 5 
2 -2 2 -15 3 -14 2 0 2 10 2 0 3 -7 2 -4 
2 2 3 1 2 5 2 -4 3 -7 2 -2 2 0 3 0 
2 -5 2 -5 3 1 2 -6 2 -3 3 -7 2 -4 2 5 
3 3 2 -7 2 -6 3 -3 2 4 2 4 3 -2 2 -5 
2 -8 2 -4 3 0 2 -2 2 -3 3 -1 2 -6 2 -5 
3 -4 2 0 2 9 3 -1 2 -14 2 -11 3 9 2 12 
2 2 3 -6 2 -6 2 -7 3 3 2 -4 2 0 3 2 
2 -7 2 -5 3 -7 2 -3 2 7 2 2 3 -4 2 -7 
2 -6 3 8 2 1 3726 1736 300 MP stroke
2 -12 3 -8 2 3 2 3 3 1 2 -3 2 -7 3 -5 
2 -5 2 -1 3 2 2 1 2 -5 3 -15 2 1 2 5 
3 -1 2 -10 2 -4 3 -1 2 3 2 3 2 -7 3 -10 
2 -9 2 3 3 8 2 3 2 -3 3 -9 2 -9 2 -4 
3 1 2 0 2 -1 3 -1 2 -3 2 -6 3 -9 2 1 
2 -4 3 6 2 -1 2 -11 3 -10 2 0 2 7 3 3 
2 2 2 -4 2 1 3 -4 2 2 2 -5 3 -5 2 -3 
2 -5 3 -9 2 1 2 -3 3 -6 2 -6 2 2 3 4 
2 -10 2 -9 3 6 2 1 2 -2 3 -1 2 -7 2 -5 
3 -4 2 -4 2 4 3 1 2 -3 2 -8 3 -6 2 4 
2 -4 2 -4 3 -2 2 -3 2 -4 3 -7 2 -4 2 7 
3 2 2 -8 2 -7 3 -5 2 -5 2 0 3 -1 2 0 
2 -1 3 -8 2 -3 2 -11 3 -8 2 5 2 -3 3 -1 
2 -4 2 0 3 -2 2 -8 2 -2 2 0 3 -4 2 -9 
2 -2 3 -1 2 2 2 -2 3 1 2 -8 2 -7 3 -5 
2 3 2 -2 3 -4 2 -8 2 -1 3 6 2 -1 2 -13 
3 -4 2 3 2 2 3 -2 2 -3 2 -6 3 -9 2 1 
2 -4 2 -8 3 -3 2 -4 2 -4 3 -5 2 -9 2 4 
3 0 2 -3 2 -5 3 -7 2 -12 2 -3 3 4 2 -6 
2 -8 3 0 2 1 2 -2 3 -4 2 0 2 1 3 -1 
2 -9 2 -10 3 0 2 5 2 -4 2 -7 3 -3 2 -6 
2 1 3 0 2 -5 2 -3 3 -8 2 -6 2 -5 3 -6 
2 0 2 0 3 -8 2 -8 2 -5 3 -6 2 -4 2 -1 
3 -2 2 0 2 -1 3 -6 2 -6 2 -8 3 1 2 0 
2 -2 2 -5 3 -12 2 -5 2 6 3 -5 2 -14 2 9 
3 -2 2 -6 2 -5 3 -4 2 -2 2 -6 3 -8 2 -7 
2 3 3 -1 2 -4 2 -9 3 -8 2 -7 2 3 3 1 
2 -2 2 -8 3 -5 2 -2 2 -1 3 -10 2 -5 2 0 
2 -4 3 -5 2 -2 2 -12 3 -12 2 -1 2 4 3 -5 
2 -7 2 -7 3 -9 2 -10 2 3 3 6 2 -4 2 -12 
3 0 2 -2 2 -6 3 -4 2 -5 2 -5 3 -6 2 -5 
2 -4 3 -4 2 -4 2 -7 2 -4 3 -2 2 -5 2 -6 
3 -8 2 -4 2 0 3 -3 2 -11 2 -4 3 -3 2 -5 
2 -8 3 -3 2 -1 2 -3 3 -8 2 -8 2 -5 3 -4 
2 -4 2 0 3 -12 2 -13 2 -4 3 -1 2 -3 2 -3 
2 -3 3 -7 2 -6 2 -1 3 -7 2 -5 2 -3 3 -2 
2 -3 2 -9 3 -9 2 -9 2 -5 3 -4 2 -3 2 -1 
3 -4 2 -11 2 -6 3032 2784 300 MP stroke
3 0 2 1 2 -5 3 -10 2 -10 2 -1 3 -4 2 -6 
2 -5 2 -1 3 -4 2 -8 2 -11 3 -7 2 -2 2 -4 
3 -5 2 -4 2 -6 3 -8 2 -9 2 -8 3 -2 2 -4 
2 -5 3 -6 2 -6 2 -3 3 -3 2 -4 2 -8 3 -9 
2 -4 2 -7 3 -4 2 -5 2 -8 3 -6 2 -6 2 -5 
2 -4 3 -5 2 -6 2 -8 3 -9 2 -7 2 -4 3 -3 
2 -6 2 -8 3 -10 2 -8 2 -7 3 -4 2 -4 2 -6 
3 -6 2 -9 2 -8 3 -3 2 -3 2 -6 3 -8 2 -10 
2 -9 3 -6 2 -4 2 -1 2 -3 3 -13 2 -17 2 -9 
3 -4 2 1 2 0 3 -6 2 -11 2 -17 3 -14 2 -3 
2 8 3 8 2 -7 2 -24 3 -30 2 -13 2 11 3 17 
2 6 2 -19 3 -39 2 -34 2 -2 3 28 2 30 2 -3 
2 -45 3 -60 2 -25 2 25 3 53 2 28 2 -33 3 -80 
2 -60 2 -1 3 60 2 74 2 9 3 -84 2 -105 2 -45 
3 38 2 94 2 82 3 -24 2 -132 2 -120 3 -27 2 73 
2 138 3 86 2 -79 2 -172 2 -112 3 -15 2 80 2 171 
3 137 2 -107 2 -245 3 -120 2 -4 2 86 3 178 2 183 
2 -38 3 -269 2 -184 2 -44 3 17 2 147 2 348 3 105 
2 -337 2 -206 3 -71 2 -25 2 -2 3 28 2 330 2 2095 
2 -8 3 -10 2 3 2 3 3 -1 2 4 2 -4 3 -9 
2 -5 2 -3 3 -1 2 5 2 -8 3 -8 2 11 2 2 
3 2 2 3 2 -2 3 1 2 -2 2 -4 3 5 2 4 
2 -3 3 -5 2 -3 2 0 3 -7 2 -1 2 2 2 -5 
3 8 2 -4 2 -17 3 -3 2 -1 2 5 3 4 2 -5 
2 -12 3 -4 2 3 2 1 3 -1 2 1 2 -4 3 -4 
2 -2 2 0 3 -1 2 -5 2 3 3 3 2 -2 2 -3 
3 -15 2 -9 2 17 2 14 3 2 2 -6 2 1 3 4 
2 -2 2 0 3 -1 2 -1 2 -7 3 -12 2 -1 2 7 
3 -5 2 -5 2 2 3 6 2 -1 2 -5 3 -2 2 -3 
2 0 3 0 2 -8 2 -4 3 3 2 -11 2 -5 2 -3 
3 9 2 5 2 -5 3 -8 2 -1 2 7 3 3 2 -7 
2 0 3 0 2 -7 2 -12 3 -3 2 5 2 -3 3 -14 
2 -3 2 -4 3 12 2 7 2 -9 3 3 2 -9 2 -12 
3 1 2 23 2 1 2 -15 3 -3 2 4 2 2 3 -8 
2 -11 2 2 3 -4 2 2 2 4 3 3 2 -4 2 1 
3 -1 2 -4 2 -3 3 -7 2 2 2 1 3 3 2 2 
2 -4 3 1 2 -4 2 -7 3 -5 2 -1 2 4 2 -4 
3 -3 2 -7 2 -7 2338 1759 300 MP stroke
3 7 2 6 2 4 3 -5 2 -16 2 -7 3 13 2 8 
2 -4 3 -7 2 -9 2 -6 3 0 2 1 2 4 3 -6 
2 -2 2 -2 3 6 2 5 2 -1 3 -1 2 -3 2 -6 
3 2 2 1 2 -5 2 -7 3 -6 2 -4 2 -5 3 0 
2 -1 2 -3 3 2 2 -1 2 -10 3 -6 2 2 2 6 
3 3 2 -7 2 -5 3 2 2 -6 2 -7 3 1 2 -2 
2 -4 3 -2 2 3 2 0 3 -2 2 -6 2 -5 2 -1 
3 5 2 7 2 -6 3 -4 2 -8 2 1 3 6 2 10 
2 -3 3 -8 2 1 2 -1 3 -4 2 -7 2 -3 3 -10 
2 -6 2 6 3 7 2 -4 2 1 3 3 2 -5 2 -9 
3 -2 2 2 2 -3 2 -8 3 -5 2 10 2 -12 3 -3 
2 4 2 -2 3 -7 2 -2 2 4 3 0 2 -2 2 -2 
3 -7 2 -8 2 -2 3 3 2 -6 2 -5 3 -2 2 0 
2 0 3 2 2 -1 2 -8 3 3 2 11 2 5 2 1 
3 -3 2 -2 2 -8 3 -2 2 -2 2 -1 3 -4 2 -3 
2 -10 3 0 2 4 2 -4 3 -5 2 -10 2 5 3 2 
2 -7 2 -5 3 3 2 -1 2 -10 3 -9 2 10 2 -1 
3 -6 2 0 2 -5 2 2 3 -4 2 -4 2 -8 3 -1 
2 10 2 -1 3 -11 2 -6 2 11 3 1 2 -2 2 1 
3 -3 2 -3 2 -6 3 -10 2 -2 2 -2 3 3 2 -9 
2 0 3 7 2 2 2 -1 3 -7 2 -9 2 -4 3 0 
2 -2 2 3 2 5 3 -10 2 -4 2 -6 3 -2 2 0 
2 0 3 -5 2 2 2 -2 3 0 2 -3 2 -1 3 -8 
2 0 2 -2 3 -5 2 -5 2 -4 3 -5 2 -5 2 -6 
3 8 2 -2 2 -3 3 3 2 -4 2 -2 2 -1 3 -1 
2 -1 2 -4 3 -6 2 -2 2 -1 3 -1 2 3 2 -5 
3 -8 2 -4 2 4 3 -9 2 -13 2 2 3 9 2 -1 
2 -10 3 -13 2 4 2 -2 3 -5 2 0 2 0 3 -6 
2 -13 2 -6 2 8 3 3 2 4 2 0 3 -4 2 -3 
2 -6 3 -2 2 -7 2 -3 3 2 2 0 2 -4 3 -3 
2 -5 2 -10 3 1 2 6 2 -5 3 -7 2 -2 2 -6 
3 -12 2 -2 2 7 3 4 2 -5 2 -8 2 -3 3 -10 
2 -7 2 4 3 7 2 -4 2 -5 3 -3 2 -5 2 2 
3 2 2 1 2 -5 3 -6 2 -8 2 -4 3 -5 2 7 
2 2 3 -4 2 -2 2 2 3 -7 2 -2 2 -3 3 -3 
2 -4 2 -5 3 -6 2 -9 2 -2 2 -1 3 -1 2 2 
2 -7 3 -12 2 6 2 2 3 -3 2 -4 2 -7 3 -1 
2 1 2 -4 3 -14 1643 2398 300 MP stroke
2 -11 2 3 3 -3 2 2 2 0 3 -6 2 -11 2 -5 
3 6 2 -1 2 -7 3 -6 2 -9 2 -4 2 2 3 4 
2 -5 2 -6 3 -8 2 -1 2 -4 3 1 2 -2 2 -2 
3 -4 2 -1 2 -5 3 -8 2 -5 2 -3 3 2 2 4 
2 -7 3 -1 2 0 2 -2 3 -5 2 -4 2 -7 3 -4 
2 -3 2 -2 2 -2 3 -6 2 -9 2 -8 3 -6 2 -7 
2 -4 3 -2 2 2 2 -7 3 -14 2 -7 2 -1 3 -2 
2 2 2 -1 3 -7 2 1 2 0 3 -3 2 -7 2 -7 
3 -2 2 -4 2 -2 3 -5 2 -3 2 1 2 -4 3 -5 
2 2 2 -2 3 -12 2 -11 2 -1 3 0 2 -4 2 1 
3 4 2 -6 2 -10 3 -5 2 1 2 1 3 -4 2 -11 
2 -6 3 0 2 2 2 -2 3 -7 2 0 2 -5 3 -7 
2 -6 2 -2 2 -6 3 -9 2 -3 2 0 3 -7 2 -7 
2 -3 3 -2 2 -6 2 -11 3 -6 2 3 2 0 3 -4 
2 -5 2 -7 3 -9 2 -4 2 1 3 0 2 -5 2 -2 
3 -2 2 -9 2 -8 3 -8 2 -4 2 3 3 -5 2 -12 
2 -7 2 -7 3 -10 2 -4 2 2 3 0 2 -3 2 0 
3 -5 2 -5 2 -8 3 -4 2 0 2 1 3 -6 2 -8 
2 -8 3 -8 2 -3 2 -2 3 -5 2 -3 2 -6 3 -10 
2 -10 2 -5 3 3 2 2 2 -1 2 -5 3 -6 2 -8 
2 -4 3 0 2 0 2 -7 3 -5 2 -7 2 -7 3 -5 
2 -3 2 -3 3 -3 2 -3 2 -7 3 -10 2 -9 2 -9 
3 -6 2 -2 2 -1 3 -4 2 -6 2 -1 3 -4 2 -7 
2 -9 2 -2 3 -7 2 -5 2 -2 3 -2 2 -7 2 -9 
3 -8 2 -4 2 -3 3 -5 2 -3 2 1 3 -3 2 -5 
2 -6 3 -6 2 -8 2 -5 3 -4 2 -3 2 -4 3 -5 
2 -5 2 -7 3 -6 2 -7 2 -7 2 -7 3 -4 2 -4 
2 -4 3 -7 2 -7 2 -5 3 -3 2 -4 2 -5 3 -4 
2 -7 2 -7 3 -4 2 -8 2 -6 3 -4 2 -5 2 -7 
3 -4 2 -1 2 -2 3 -8 2 -7 2 -7 3 -7 2 -7 
2 -7 2 -3 3 -3 2 -6 2 -7 3 -5 2 -4 2 -7 
3 -7 2 -11 2 -6 3 -7 2 -4 2 -3 3 -3 2 -6 
2 -8 3 -7 2 -8 2 -3 3 -5 2 -4 2 -7 3 -8 
2 -7 2 -5 3 -6 2 -7 2 -5 3 -4 2 -7 2 -8 
2 -7 3 -5 2 -3 2 -6 3 -5 2 -4 2 -5 3 -5 
2 -7 2 -9 3 -8 2 -7 2 -5 3 -6 2 -4 2 -4 
3 -6 2 -6 2 -7 3 -9 2 -9 2 -6 3 -4 2 -5 
2 -2 3 -3 2 -4 949 3754 300 MP stroke
2 -5 2 -9 3 -8 2 -9 2 -9 3 -7 2 -4 2 -1 
3 1 2 0 2 -4 3 -7 2 -9 2 -12 3 -12 2 -10 
2 -4 3 -1 2 1 2 2 3 0 2 -4 2 -8 3 -10 
2 -11 2 -9 3 -7 2 -4 2 -2 2 1 3 2 2 2 
2 -1 3 -3 2 -6 2 -8 3 -9 2 -9 2 -6 3 -5 
2 -1 2 1 3 3 2 1 2 1 3 -2 2 -5 2 -6 
3 -7 2 -4 2 -1 3 -2 2 -1 2 0 3 0 2 1 
2 1 2 0 3 -1 2 0 2 -2 3 -1 2 -2 2 -2 
3 -1 2 -1 2 -1 3 0 2 1 2 0 3 1 2 0 
2 0 3 -1 2 -1 2 -2 3 -2 2 -2 2 -1 3 -1 
2 0 2 0 3 1 2 0 2 1 2 0 750 3996 87 MP stroke
/c12 { 0.000000 1.000000 1.000000 sr} bdef
c12
1 0 2 1 2 3 3 4 2 4 2 -5 3 -10 2 -5 
2 0 3 5 2 4 2 -6 3 -12 2 -6 2 -3 3 6 
2 7 2 6 3 0 2 -5 2 -1 3 -1 2 -6 2 -7 
3 1 2 -3 2 6 3 2 2 0 2 -3 3 -2 2 -4 
2 -6 3 -1 2 0 3 4 2 1 2 -6 3 -9 2 -5 
2 0 3 8 2 6 2 -8 3 -3 2 -2 2 -2 3 1 
2 -3 2 -5 3 -1 2 2 2 11 3 1 2 -4 2 -11 
3 2 2 8 2 5 3 -2 2 -7 2 0 3 -1 2 -2 
2 -3 3 -2 2 -5 2 -4 3 -2 2 2 3 0 2 -5 
2 -4 3 3 2 2 2 -3 3 -5 2 -4 2 8 3 13 
2 -10 2 -9 3 1 2 10 2 7 3 6 2 -7 2 -7 
3 -7 2 2 2 4 3 3 2 2 2 6 3 0 2 -3 
2 -6 3 1 2 0 2 1 3 5 2 -5 2 -1 3 4 
2 1 3 -4 2 -5 2 0 3 3 2 4 2 -2 3 -6 
2 -4 2 -4 3 -7 2 1 2 3 3 2 2 -5 2 -11 
3 -6 2 4 2 4 3 7 2 0 2 -8 3 -5 2 4 
2 2 3 1 2 -4 2 -8 3 -7 2 -3 2 5 3 8 
2 -7 2 -7 3 -16 2 14 3 13 2 -4 2 -7 3 3 
2 0 2 8 3 1 2 -5 2 1 3 0 2 3 2 5 
3 0 2 1 2 -5 3 3 2 2 2 -3 3 -1 2 -2 
2 1 3 3 2 0 2 -8 3 -5 2 -1 2 2 3 0 
2 -2 2 -3 3 -5 2 -5 2 0 3 0 2 -1 3 1 
2 0 2 0 3 0 2 -7 2 -11 3 -12 2 4 2 8 
3 -1 2 5 2 5 3 -2 2 4 2 -3 3 -1 2 -4 
2 -3 3 0 2 -2 2 -1 3 -1 2 -3 2 -3 3 0 
2 2 2 -2 3 -6 2 -9 2 -3 3 -4 2 -1 2 5 
3 4 2 4 3 -3 2 0 2 -8 3 -3 2 5 2 5 
3 8 2 -3 2 1 3 2 2 1 2 -1 3 -9 2 13 
2 1 3 -6 2 -1 2 0 3 -3 2 -3 2 -5 3 -1 
2 4 2 -2 3 -3 2 -2 2 -12 3 -6 2 -2 2 10 
3 6 2 -11 2 -5 3 6 2 5 3 -4 2 -5 2 -5 
3 -5 2 2 2 8 3 5 2 0 2 -11 3 -8 2 0 
2 7 3 6 2 4 2 0 3 0 2 -5 2 -6 3 -2 
2 2 2 1 3 0 2 -3 2 -3 3 1 2 2 2 1 
3 -1 2 3 2 -2 3 -8 2 5 2 -9 3 -5 2 3 
3 1 2 -1 2 -7 3 5 2 -4 2 -8 3 -6 2 -3 
2 -1 3 1 2 4 2 5 3 -11 2 2 2 -4 3 11 
2 7 2 1 3 -7 3802 1644 300 MP stroke
2 -9 2 3 3 5 2 3 2 -1 3 -1 2 -3 2 -8 
3 -1 2 2 2 -1 3 -2 2 -1 2 -5 3 -5 2 -2 
3 2 2 -1 2 -3 3 -7 2 -5 2 -4 3 -3 2 3 
2 5 3 0 2 -4 2 -2 3 -4 2 -4 2 1 3 -3 
2 1 2 5 3 -1 2 -9 2 -6 3 -5 2 0 2 2 
3 3 2 1 2 -1 3 2 2 0 2 -3 3 -4 2 -4 
2 2 3 -2 2 -4 3 -3 2 3 2 -8 3 -3 2 4 
2 2 3 -2 2 4 2 2 3 -1 2 -2 2 0 3 7 
2 3 2 -4 3 -5 2 -8 2 -4 3 3 2 -5 2 -3 
3 -3 2 2 2 -7 3 -7 2 -1 2 3 3 5 2 -3 
2 -1 3 1 2 1 2 3 3 -1 2 -2 3 -3 2 -6 
2 5 3 0 2 9 2 -3 3 -5 2 1 2 2 3 -3 
2 1 2 1 3 -4 2 0 2 2 3 -2 2 -6 2 -1 
3 -6 2 4 2 -4 3 -3 2 -6 2 -8 3 -1 2 -2 
2 -3 3 1 2 1 2 -4 3 2 2 3 2 7 3 6 
2 3 3 -5 2 -13 2 6 3 0 2 3 2 -3 3 -4 
2 0 2 2 3 1 2 -12 2 -11 3 -1 2 4 2 5 
3 -2 2 -2 2 3 3 9 2 9 2 -7 3 -1 2 -1 
2 -3 3 0 2 2 2 0 3 -3 2 -7 2 -7 3 -9 
2 -2 3 3 2 5 2 5 3 1 2 -3 2 -1 3 -1 
2 -3 2 -1 3 0 2 0 2 -1 3 -3 2 -9 2 -9 
3 -3 2 1 2 -1 3 0 2 2 2 1 3 -7 2 1 
2 7 3 -3 2 -8 2 -7 3 4 2 7 2 4 3 1 
2 -5 2 -5 3 -3 2 -2 3 -1 2 -2 2 -4 3 -7 
2 4 2 1 3 0 2 0 2 2 3 6 2 3 2 -1 
3 -3 2 -4 2 -5 3 -1 2 3 2 2 3 -6 2 -7 
2 2 3 3 2 -1 2 1 3 -7 2 -4 2 -1 3 6 
2 0 2 -1 3 -5 2 -8 2 -2 3 2 2 2 3 -1 
2 -2 2 -3 3 -3 2 1 2 -5 3 -12 2 -5 2 3 
3 8 2 -1 2 0 3 3 2 -2 2 -5 3 -8 2 9 
2 3 3 2 2 -4 2 -4 3 -4 2 2 2 -2 3 -3 
2 -3 2 3 3 1 2 -4 2 -6 3 -8 2 -8 2 1 
3 7 2 -2 3 -5 2 1 2 4 3 -6 2 -4 2 -1 
3 0 2 2 2 1 3 3 2 -3 2 -6 3 1 2 -2 
2 -1 3 -2 2 0 2 4 3 -1 2 -8 2 -1 3 -7 
2 -3 2 5 3 -1 2 2 2 4 3 5 2 -3 2 -10 
3 2 2 3 2 -3 3 -8 2 -8 3 -3 2 4 2 0 
3 -4 2 -3 2 1 3102 1992 300 MP stroke
3 -2 2 -3 2 -1 3 -7 2 1 2 -9 3 -2 2 2 
2 8 3 0 2 1 2 -4 3 0 2 1 2 -2 3 -3 
2 -4 2 1 3 1 2 -3 2 -9 3 -3 2 4 2 0 
3 -3 2 1 2 5 3 -1 2 -7 3 1 2 1 2 -5 
3 0 2 2 2 1 3 -11 2 -11 2 0 3 2 2 4 
2 1 3 -2 2 -3 2 1 3 0 2 -1 2 -4 3 0 
2 -1 2 -4 3 -6 2 0 2 7 3 4 2 -4 2 -3 
3 -2 2 -2 2 -3 3 -3 2 -3 2 2 3 2 2 1 
3 -5 2 -6 2 -11 3 0 2 6 2 4 3 1 2 -5 
2 -6 3 -6 2 -3 2 -3 3 -1 2 2 2 6 3 10 
2 0 2 -12 3 0 2 -10 2 3 3 -2 2 1 2 5 
3 2 2 -4 2 -8 3 -4 2 -4 2 -9 3 3 2 14 
2 2 3 -5 2 -4 3 -6 2 0 2 -3 3 -10 2 0 
2 16 3 8 2 -7 2 -9 3 1 2 -1 2 -5 3 -5 
2 4 2 3 3 -2 2 -4 2 -2 3 0 2 -3 2 -6 
3 -6 2 1 2 3 3 1 2 -4 2 -11 3 7 2 6 
2 -1 3 0 2 -3 2 -7 3 -4 2 1 3 -4 2 -2 
2 2 3 3 2 -3 2 -3 3 3 2 -3 2 -8 3 0 
2 5 2 -3 3 -5 2 -1 2 0 3 0 2 4 2 3 
3 -4 2 -11 2 -17 3 2 2 3 2 -5 3 2 2 9 
2 5 3 2 2 1 2 -4 3 -8 2 -7 2 5 3 -1 
2 -4 3 0 2 -2 2 -5 3 -6 2 2 2 -5 3 4 
2 -4 2 -6 3 0 2 5 2 4 3 -1 2 -6 2 -5 
3 -6 2 -2 2 2 3 2 2 4 2 3 3 -4 2 -8 
2 -4 3 4 2 -1 2 -4 3 -3 2 1 2 0 3 -4 
2 -3 2 -4 3 -2 2 1 3 -6 2 -6 2 -4 3 -1 
2 2 2 -2 3 -4 2 -4 2 -3 3 -3 2 -3 2 -4 
3 -1 2 1 2 -4 3 -4 2 2 2 -4 3 -3 2 0 
2 8 3 5 2 -4 2 -10 3 -8 2 -2 2 1 3 -2 
2 0 2 0 3 -3 2 -3 2 1 3 2 2 -3 3 -4 
2 2 2 4 3 -1 2 -7 2 -13 3 -6 2 -3 2 2 
3 2 2 0 2 1 3 -7 2 -7 2 -4 3 4 2 8 
2 -1 3 4 2 5 2 -1 3 -2 2 -7 2 -6 3 -1 
2 0 2 1 3 -2 2 -6 2 -4 3 -2 2 -2 2 -6 
3 0 2 5 3 -1 2 -12 2 -7 3 0 2 5 2 -1 
3 -3 2 0 2 4 3 0 2 -5 2 -6 3 -4 2 -4 
2 -3 3 -2 2 4 2 2 3 -6 2 -3 2 1 3 -1 
2 2 2 0 3 5 2401 2421 300 MP stroke
2 -6 2 -2 3 4 2 0 2 -6 3 -1 2 -5 2 -5 
3 1 2 0 3 -4 2 -8 2 2 3 2 2 2 2 1 
3 -7 2 -4 2 -1 3 -2 2 -5 2 -3 3 2 2 0 
2 -3 3 -4 2 -3 2 -5 3 -9 2 -7 2 -1 3 6 
2 7 2 -8 3 -9 2 1 2 3 3 -5 2 -4 2 0 
3 0 2 0 2 -2 3 -5 2 -2 3 -2 2 -3 2 -4 
3 7 2 1 2 -5 3 -1 2 4 2 -4 3 0 2 0 
2 -1 3 -3 2 1 2 1 3 2 2 0 2 -3 3 -6 
2 -5 2 1 3 1 2 -4 2 -9 3 2 2 -4 2 -1 
3 -1 2 2 2 -3 3 0 2 -5 2 -4 3 -1 2 -6 
3 -6 2 -2 2 5 3 6 2 -2 2 -7 3 0 2 7 
2 1 3 -3 2 1 2 -3 3 -4 2 -3 2 -2 3 -1 
2 -2 2 -4 3 -2 2 0 2 -5 3 -6 2 -3 2 0 
3 0 2 -3 2 0 3 -3 2 -4 2 -7 3 -6 2 -5 
2 0 3 -2 2 5 3 8 2 2 2 -7 3 -9 2 -8 
2 5 3 -1 2 0 2 -2 3 -1 2 -2 2 -1 3 -5 
2 -10 2 -2 3 1 2 2 2 -1 3 -2 2 1 2 3 
3 -2 2 -8 2 -9 3 -4 2 0 2 1 3 -3 2 -2 
2 -4 3 -4 2 -3 3 -7 2 -5 2 0 3 2 2 1 
2 2 3 0 2 -4 2 -1 3 3 2 3 2 -2 3 -7 
2 -7 2 -3 3 -5 2 -3 2 3 3 1 2 -1 2 -5 
3 -6 2 -2 2 2 3 -4 2 -7 2 -1 3 -5 2 1 
2 -3 3 -3 2 0 2 0 3 -2 2 1 3 -2 2 -1 
2 -1 3 -5 2 -1 2 2 3 -2 2 -6 2 -7 3 -2 
2 3 2 2 3 -1 2 -6 2 -2 3 -2 2 -3 2 -5 
3 -1 2 0 2 0 3 0 2 0 2 -7 3 -9 2 -7 
2 1 3 3 2 -2 2 -7 3 -4 2 3 2 1 3 -2 
2 -4 3 2 2 -3 2 -4 3 1 2 -5 2 -6 3 -5 
2 0 2 2 3 1 2 3 2 3 3 -3 2 -7 2 -8 
3 -3 2 4 2 0 3 0 2 -2 2 -3 3 -4 2 -7 
2 -6 3 -6 2 -5 2 -7 3 4 2 6 2 4 3 -6 
2 -10 2 -8 3 -1 2 1 3 -3 2 -6 2 1 3 7 
2 1 2 -8 3 -7 2 -3 2 0 3 4 2 3 2 -2 
3 -2 2 1 2 -2 3 0 2 0 2 -3 3 -5 2 -5 
2 -7 3 -7 2 0 2 1 3 -2 2 1 2 1 3 -2 
2 -4 2 -3 3 -4 2 -2 2 0 3 -5 2 -3 3 -2 
2 -1 2 -4 3 -5 2 -4 2 -4 3 1 2 0 2 0 
3 -1 2 -1 2 -4 1701 3002 300 MP stroke
3 -6 2 -2 2 -3 3 -5 2 -5 2 -3 3 1 2 -3 
2 -2 3 0 2 -3 2 -4 3 -1 2 -2 2 -1 3 1 
2 -3 2 -6 3 -6 2 -4 2 2 3 3 2 -10 3 -6 
2 -8 2 -2 3 -1 2 1 2 2 3 0 2 1 2 0 
3 -1 2 -5 2 -6 3 -4 2 -1 2 -4 3 -4 2 0 
2 -3 3 -2 2 0 2 -1 3 -3 2 -6 2 -8 3 -1 
2 4 2 -3 3 -6 2 1 2 -1 3 -6 2 -7 2 0 
3 4 2 -1 3 -1 2 -3 2 -4 3 -4 2 -2 2 -3 
3 -4 2 -3 2 0 3 -1 2 -1 2 0 3 -3 2 -7 
2 -7 3 -8 2 -6 2 2 3 -5 2 1 2 4 3 0 
2 -5 2 -5 3 -4 2 -2 2 0 3 -3 2 -2 2 -2 
3 -3 2 -6 2 -5 3 -5 2 -3 3 -3 2 -4 2 -3 
3 -1 2 0 2 -1 3 -3 2 -4 2 -3 3 -1 2 0 
2 -1 3 -1 2 -1 2 -4 3 -7 2 -4 2 -3 3 -3 
2 -1 2 0 3 0 2 0 2 -1 3 -5 2 -7 2 -5 
3 3 2 4 2 -2 3 -1 2 -5 2 -5 3 -4 2 -3 
3 -5 2 -7 2 -5 3 0 2 0 2 -1 3 -3 2 -1 
2 0 3 -4 2 -6 2 -5 3 -4 2 -4 2 -2 3 -2 
2 0 2 2 3 0 2 -1 2 -4 3 -6 2 -8 2 -4 
3 -4 2 -3 2 -2 3 1 2 4 2 -5 3 -4 2 -5 
2 -6 3 -4 2 -2 3 0 2 -3 2 -4 3 -2 2 0 
2 -1 3 -5 2 -6 2 -5 3 -1 2 0 2 -5 3 -7 
2 -5 2 2 3 4 2 1 2 -4 3 -2 2 -2 2 -3 
3 -4 2 -2 2 -4 3 -4 2 -4 2 -3 3 -2 2 -1 
2 -4 3 -4 2 -3 2 0 3 -1 2 -3 3 -2 2 -1 
2 0 3 0 2 -3 2 -2 3 -2 2 -5 2 -4 3 -4 
2 -4 2 -3 3 -2 2 -3 2 -3 3 -3 2 -3 2 1 
3 -4 2 -5 2 -5 3 -4 2 -2 2 -3 3 -1 2 -1 
2 -1 3 -2 2 -3 2 -4 3 -5 2 -7 2 -4 3 -5 
2 -5 3 -2 2 1 2 1 3 -1 2 -1 2 -4 3 -3 
2 -4 2 -4 3 -5 2 -6 2 -5 3 -4 2 -1 2 -1 
3 -3 2 -2 2 -2 3 0 2 0 2 -5 3 -6 2 -3 
2 -3 3 -2 2 -3 2 -2 3 -2 2 -2 2 -1 3 -2 
2 -4 2 -4 3 -5 2 -4 3 -3 2 -3 2 -4 3 -2 
2 -1 2 -1 3 -1 2 -3 2 -5 3 -4 2 -4 2 -5 
3 -4 2 -3 2 -3 3 -3 2 -3 2 -2 3 -1 2 -3 
2 -2 3 -3 2 -4 2 -5 3 -3 2 -2 2 -2 3 -4 
2 -3 2 -2 3 -1 1000 3794 300 MP stroke
2 -2 2 -2 3 -3 2 -3 3 -4 2 -2 2 -2 3 -4 
2 -2 2 -3 3 -2 2 -3 2 -2 3 -2 2 -2 2 -1 
3 -1 2 -2 2 -2 3 -2 2 -3 2 -3 3 -3 2 -3 
2 -4 3 -4 2 0 2 -2 3 -2 2 -2 2 -2 3 -2 
2 -3 2 -2 3 -2 2 -2 2 -3 3 -2 2 -3 3 -3 
2 -4 2 -2 3 -3 2 -3 2 -1 3 -3 2 -2 2 -3 
3 -2 2 -1 2 -2 3 -3 2 -2 2 -2 3 -2 2 -3 
2 -3 3 -2 2 -2 2 -2 3 -2 2 -1 2 -2 3 -2 
2 -2 2 -1 3 -2 2 -2 2 0 3 -2 2 -2 2 -2 
3 -2 2 -2 3 -2 2 -1 2 -2 3 -2 2 -2 2 -1 
3 -2 2 -2 2 -1 3 -2 2 -1 2 -1 3 -1 2 -1 
2 -1 3 -1 2 -2 2 -1 3 0 2 -1 2 -1 3 0 
2 -1 2 0 3 0 2 -1 2 0 3 -1 2 -1 2 0 
3 -1 2 -1 2 -1 750 3996 108 MP stroke
gr

c12
0 sg
%%IncludeResource: font Helvetica
/Helvetica /WindowsLatin1Encoding 83.3333 FMSR

 732 4037 mt 
( ) s
4483  536 mt 
( ) s
8.33333 w
DO
SO
12.5 w
0.1 sg
 750  500 mt 4500  500 L
 750 4000 mt 4500 4000 L
4500 4000 mt 4500  500 L
 750 4000 mt  750  500 L
 750 4000 mt 4500 4000 L
 750 4000 mt  750  500 L
 750 4000 mt  750 3943 L
 750  500 mt  750  556 L
%%IncludeResource: font Helvetica
/Helvetica /WindowsLatin1Encoding 133.333 FMSR

 713 4148 mt 
(0) s
1250 4000 mt 1250 3943 L
1250  500 mt 1250  556 L
1121 4148 mt 
(0.01) s
1750 4000 mt 1750 3943 L
1750  500 mt 1750  556 L
1621 4148 mt 
(0.02) s
2250 4000 mt 2250 3943 L
2250  500 mt 2250  556 L
2121 4148 mt 
(0.03) s
2750 4000 mt 2750 3943 L
2750  500 mt 2750  556 L
2621 4148 mt 
(0.04) s
3250 4000 mt 3250 3943 L
3250  500 mt 3250  556 L
3121 4148 mt 
(0.05) s
3750 4000 mt 3750 3943 L
3750  500 mt 3750  556 L
3621 4148 mt 
(0.06) s
4250 4000 mt 4250 3943 L
4250  500 mt 4250  556 L
4121 4148 mt 
(0.07) s
 750 4000 mt  806 4000 L
4500 4000 mt 4443 4000 L
 652 4049 mt 
(0) s
 750 3650 mt  806 3650 L
4500 3650 mt 4443 3650 L
 652 3699 mt 
(1) s
 750 3300 mt  806 3300 L
4500 3300 mt 4443 3300 L
 652 3349 mt 
(2) s
 750 2950 mt  806 2950 L
4500 2950 mt 4443 2950 L
 652 2999 mt 
(3) s
 750 2600 mt  806 2600 L
4500 2600 mt 4443 2600 L
 652 2649 mt 
(4) s
 750 2250 mt  806 2250 L
4500 2250 mt 4443 2250 L
 652 2299 mt 
(5) s
 750 1900 mt  806 1900 L
4500 1900 mt 4443 1900 L
 652 1949 mt 
(6) s
 750 1550 mt  806 1550 L
4500 1550 mt 4443 1550 L
 652 1599 mt 
(7) s
 750 1200 mt  806 1200 L
4500 1200 mt 4443 1200 L
 652 1249 mt 
(8) s
 750  850 mt  806  850 L
4500  850 mt 4443  850 L
 652  899 mt 
(9) s
 750  500 mt  806  500 L
4500  500 mt 4443  500 L
 578  549 mt 
(10) s
 750  500 mt 4500  500 L
 750 4000 mt 4500 4000 L
4500 4000 mt 4500  500 L
 750 4000 mt  750  500 L
0 sg
%%IncludeResource: font Helvetica-Bold
/Helvetica-Bold /WindowsLatin1Encoding 125 FMSR

3757 3046 mt 
(Kt = 1) s
gs 3431 2902 889 1030 rc
16.6667 w
250 0 3481 2999 2 MP stroke
gr

16.6667 w
3757 3213 mt 
(Kt = 0.75) s
gs 3431 2902 889 1030 rc
c8
250 0 3481 3166 2 MP stroke
gr

c8
0 sg
3757 3380 mt 
(Kt = 0.5) s
gs 3431 2902 889 1030 rc
c9
250 0 3481 3333 2 MP stroke
gr

c9
0 sg
3757 3546 mt 
(Kt = 0.25) s
gs 3431 2902 889 1030 rc
c10
250 0 3481 3499 2 MP stroke
gr

c10
0 sg
3757 3713 mt 
(Kt = 0.1) s
gs 3431 2902 889 1030 rc
c11
250 0 3481 3666 2 MP stroke
gr

c11
0 sg
3757 3880 mt 
(Kt = 0.05) s
gs 3431 2902 889 1030 rc
c12
250 0 3481 3833 2 MP stroke
12.5 w
gr

12.5 w
c12

end %%Color Dict

eplot
%%EndObject

epage
end

showpage

%%Trailer
%%EOF
