%!PS-Adobe-3.0 EPSF-3.0
%%Creator: MATLAB, The MathWorks, Inc. Version 8.1.0.604 (R2013a). Operating System: Microsoft Windows 7.
%%Title: .\Tangential_ConfinedPorosity_Paired.eps
%%CreationDate: 08/17/2013  18:26:20
%%DocumentNeededFonts: Helvetica-Bold
%%+ Helvetica
%%DocumentProcessColors: Cyan Magenta Yellow Black
%%LanguageLevel: 2
%%Pages: 1
%%BoundingBox:    41    88   565   572
%%EndComments

%%BeginProlog
% MathWorks dictionary
/MathWorks 160 dict begin
% definition operators
/bdef {bind def} bind def
/ldef {load def} bind def
/xdef {exch def} bdef
/xstore {exch store} bdef
% operator abbreviations
/c  /clip ldef
/cc /concat ldef
/cp /closepath ldef
/gr /grestore ldef
/gs /gsave ldef
/mt /moveto ldef
/np /newpath ldef
/cm /currentmatrix ldef
/sm /setmatrix ldef
/rm /rmoveto ldef
/rl /rlineto ldef
/s {show newpath} bdef
/sc {setcmykcolor} bdef
/sr /setrgbcolor ldef
/sg /setgray ldef
/w /setlinewidth ldef
/j /setlinejoin ldef
/cap /setlinecap ldef
/rc {rectclip} bdef
/rf {rectfill} bdef
% page state control
/pgsv () def
/bpage {/pgsv save def} bdef
/epage {pgsv restore} bdef
/bplot /gsave ldef
/eplot {stroke grestore} bdef
% orientation switch
/portraitMode 0 def /landscapeMode 1 def /rotateMode 2 def
% coordinate system mappings
/dpi2point 0 def
% font control
/FontSize 0 def
/FMS {/FontSize xstore findfont [FontSize 0 0 FontSize neg 0 0]
  makefont setfont} bdef
/ISOLatin1Encoding where {pop /WindowsLatin1Encoding 256 array bdef
ISOLatin1Encoding WindowsLatin1Encoding copy pop
/.notdef/.notdef/quotesinglbase/florin/quotedblbase/ellipsis/dagger
/daggerdbl/circumflex/perthousand/Scaron/guilsinglleft/OE/.notdef/.notdef
/.notdef/.notdef/quoteleft/quoteright/quotedblleft/quotedblright/bullet
/endash/emdash/tilde/trademark/scaron/guilsinglright/oe/.notdef/.notdef
/Ydieresis WindowsLatin1Encoding 128 32 getinterval astore pop}
{/WindowsLatin1Encoding StandardEncoding bdef} ifelse
/reencode {exch dup where {pop load} {pop StandardEncoding} ifelse
  exch dup 3 1 roll findfont dup length dict begin
  { 1 index /FID ne {def}{pop pop} ifelse } forall
  /Encoding exch def currentdict end definefont pop} bdef
/isroman {findfont /CharStrings get /Agrave known} bdef
/FMSR {3 1 roll 1 index dup isroman {reencode} {pop pop} ifelse
  exch FMS} bdef
/csm {1 dpi2point div -1 dpi2point div scale neg translate
 dup landscapeMode eq {pop -90 rotate}
  {rotateMode eq {90 rotate} if} ifelse} bdef
% line types: solid, dotted, dashed, dotdash
/SO { [] 0 setdash } bdef
/DO { [.5 dpi2point mul 4 dpi2point mul] 0 setdash } bdef
/DA { [6 dpi2point mul] 0 setdash } bdef
/DD { [.5 dpi2point mul 4 dpi2point mul 6 dpi2point mul 4
  dpi2point mul] 0 setdash } bdef
% macros for lines and objects
/L {lineto stroke} bdef
/MP {3 1 roll moveto 1 sub {rlineto} repeat} bdef
/AP {{rlineto} repeat} bdef
/PDlw -1 def
/W {/PDlw currentlinewidth def setlinewidth} def
/PP {closepath eofill} bdef
/DP {closepath stroke} bdef
/MR {4 -2 roll moveto dup  0 exch rlineto exch 0 rlineto
  neg 0 exch rlineto closepath} bdef
/FR {MR stroke} bdef
/PR {MR fill} bdef
/L1i {{currentfile picstr readhexstring pop} image} bdef
/tMatrix matrix def
/MakeOval {newpath tMatrix currentmatrix pop translate scale
0 0 1 0 360 arc tMatrix setmatrix} bdef
/FO {MakeOval stroke} bdef
/PO {MakeOval fill} bdef
/PD {currentlinewidth 2 div 0 360 arc fill
   PDlw -1 eq not {PDlw w /PDlw -1 def} if} def
/FA {newpath tMatrix currentmatrix pop translate scale
  0 0 1 5 -2 roll arc tMatrix setmatrix stroke} bdef
/PA {newpath tMatrix currentmatrix pop	translate 0 0 moveto scale
  0 0 1 5 -2 roll arc closepath tMatrix setmatrix fill} bdef
/FAn {newpath tMatrix currentmatrix pop translate scale
  0 0 1 5 -2 roll arcn tMatrix setmatrix stroke} bdef
/PAn {newpath tMatrix currentmatrix pop translate 0 0 moveto scale
  0 0 1 5 -2 roll arcn closepath tMatrix setmatrix fill} bdef
/vradius 0 def /hradius 0 def /lry 0 def
/lrx 0 def /uly 0 def /ulx 0 def /rad 0 def
/MRR {/vradius xdef /hradius xdef /lry xdef /lrx xdef /uly xdef
  /ulx xdef newpath tMatrix currentmatrix pop ulx hradius add uly
  vradius add translate hradius vradius scale 0 0 1 180 270 arc 
  tMatrix setmatrix lrx hradius sub uly vradius add translate
  hradius vradius scale 0 0 1 270 360 arc tMatrix setmatrix
  lrx hradius sub lry vradius sub translate hradius vradius scale
  0 0 1 0 90 arc tMatrix setmatrix ulx hradius add lry vradius sub
  translate hradius vradius scale 0 0 1 90 180 arc tMatrix setmatrix
  closepath} bdef
/FRR {MRR stroke } bdef
/PRR {MRR fill } bdef
/MlrRR {/lry xdef /lrx xdef /uly xdef /ulx xdef /rad lry uly sub 2 div def
  newpath tMatrix currentmatrix pop ulx rad add uly rad add translate
  rad rad scale 0 0 1 90 270 arc tMatrix setmatrix lrx rad sub lry rad
  sub translate rad rad scale 0 0 1 270 90 arc tMatrix setmatrix
  closepath} bdef
/FlrRR {MlrRR stroke } bdef
/PlrRR {MlrRR fill } bdef
/MtbRR {/lry xdef /lrx xdef /uly xdef /ulx xdef /rad lrx ulx sub 2 div def
  newpath tMatrix currentmatrix pop ulx rad add uly rad add translate
  rad rad scale 0 0 1 180 360 arc tMatrix setmatrix lrx rad sub lry rad
  sub translate rad rad scale 0 0 1 0 180 arc tMatrix setmatrix
  closepath} bdef
/FtbRR {MtbRR stroke } bdef
/PtbRR {MtbRR fill } bdef
/stri 6 array def /dtri 6 array def
/smat 6 array def /dmat 6 array def
/tmat1 6 array def /tmat2 6 array def /dif 3 array def
/asub {/ind2 exch def /ind1 exch def dup dup
  ind1 get exch ind2 get sub exch } bdef
/tri_to_matrix {
  2 0 asub 3 1 asub 4 0 asub 5 1 asub
  dup 0 get exch 1 get 7 -1 roll astore } bdef
/compute_transform {
  dmat dtri tri_to_matrix tmat1 invertmatrix 
  smat stri tri_to_matrix tmat2 concatmatrix } bdef
/ds {stri astore pop} bdef
/dt {dtri astore pop} bdef
/db {2 copy /cols xdef /rows xdef mul dup 3 mul string
  currentfile 
  3 index 0 eq {/ASCIIHexDecode filter}
  {/ASCII85Decode filter 3 index 2 eq {/RunLengthDecode filter} if }
  ifelse exch readstring pop
  dup 0 3 index getinterval /rbmap xdef
  dup 2 index dup getinterval /gbmap xdef
  1 index dup 2 mul exch getinterval /bbmap xdef pop pop}bdef
/it {gs np dtri aload pop moveto lineto lineto cp c
  cols rows 8 compute_transform 
  rbmap gbmap bbmap true 3 colorimage gr}bdef
/il {newpath moveto lineto stroke}bdef
currentdict end def
%%EndProlog

%%BeginSetup
MathWorks begin

0 cap

end
%%EndSetup

%%Page: 1 1
%%BeginPageSetup
%%PageBoundingBox:    41    88   565   572
MathWorks begin
bpage
%%EndPageSetup

%%BeginObject: obj1
bplot

/dpi2point 8.33333 def
portraitMode 0150 5158 csm

  194   389  4368  4030 rc
84 dict begin %Colortable dictionary
/c0 { 0.000000 0.000000 0.000000 sr} bdef
/c1 { 1.000000 1.000000 1.000000 sr} bdef
/c2 { 0.900000 0.000000 0.000000 sr} bdef
/c3 { 0.000000 0.820000 0.000000 sr} bdef
/c4 { 0.000000 0.000000 0.800000 sr} bdef
/c5 { 0.910000 0.820000 0.320000 sr} bdef
/c6 { 1.000000 0.260000 0.820000 sr} bdef
/c7 { 0.000000 0.820000 0.820000 sr} bdef
c0
1 j
1 sg
   0    0 5001 5001 rf
12.5 w
0 3501 3750 0 0 -3501 750 4000 4 MP
PP
-3750 0 0 3501 3750 0 0 -3501 750 4000 5 MP stroke
gs 750 500 3751 3501 rc
16.6667 w
0 sg
-105 -1 -467 -6 -378 -6 -308 -6 -253 -7 -206 -6 -176 -6 -162 -6 
-149 -7 -127 -6 -112 -6 -108 -7 -102 -6 -87 -6 -80 -7 -88 -6 
-75 -7 -64 -6 -75 -6 -64 -7 -57 -6 -68 -7 -52 -6 -63 -7 
-53 -6 -61 -7 -40 -6 -37 -7 -16 7 -13 6 3 7 4 6 
3 7 4 6 3 7 4 6 4 7 3 6 4 6 4 7 
3 6 4 7 4 6 4 6 3 7 4 6 4 6 3 7 
4 6 4 6 3 6 4 7 4 6 4 6 3 6 4 7 
4 6 4 6 4 6 3 6 4 7 4 6 4 6 3 6 
4 6 3 6 4 6 4 6 3 6 4 6 4 7 4 6 
3 6 4 6 4 6 4 6 3 6 4 6 4 6 4 6 
4 5 4 6 4 6 4 6 4 6 3 6 4 6 4 6 
4 6 4 5 4 6 3 6 4 6 4 6 4 6 4 5 
4 6 4 6 4 6 4 5 4 6 4 6 4 6 4 5 
4 6 4 6 3 5 4 6 4 6 4 5 4 6 4 6 
4 5 3 6 4 5 4 6 4 6 4 5 3 6 4 5 
4 6 4 5 4 6 4 5 4 6 4 5 4 6 4 5 
3 6 4 5 4 6 4 5 4 6 4 5 4 5 3 6 
4 5 4 6 4 5 4 5 3 6 4 5 4 5 4 6 
3 5 4 5 4 6 3 5 4 5 4 6 4 5 3 5 
4 5 4 6 3 5 4 5 4 5 3 6 4 5 3 5 
4 5 4 5 3 5 4 6 4 5 4 5 4 5 4 5 
4 5 3 5 4 5 4 6 4 5 3 5 4 5 4 5 
4 5 4 5 5 5 3 5 4 5 4 5 4 5 4 5 
3 5 4 5 5 5 3 5 4 5 4 5 4 5 4 5 
4 5 5 4 4 5 3 5 4 5 4 5 4 5 4 5 
4 5 5 4 4 5 4 5 4 5 3 5 4 5 4 4 
4 5 4 5 5 5 4 5 4 4 4 5 4 5 4 5 
5 4 4 5 4 5 4 4 5 5 4 5 4 5 4 4 
4 5 4 5 4 4 5 5 4 5 4 4 5 5 4 4 
5 5 4 5 5 4 4 5 5 4 5 5 4 5 5 4 
5 5 5 4 4 5 5 4 5 5 4 4 5 5 4 4 
5 5 5 4 5 5 4 4 4 5 5 4 5 5 5 4 
5 5 4 4 5 5 5 4 5 5 5 4 5 4 5 5 
5 4 5 5 5 4 5 4 6 5 4 4 5 4 5 5 
5 4 6 4 5 5 5 4 5 4 5 5 4 4 5 4 
5 5 5 4 5 4 5 4 4 5 4 4 5 4 4 4 
5 5 4 4 5 4 4 4 4 5 4 4 4 4 4 4 
4 4 4 5 4 4 3302 1463 300 MP stroke
4 4 4 4 5 4 4 4 5 4 5 5 4 4 5 4 
5 4 4 4 5 4 6 4 5 4 6 5 5 4 5 4 
5 4 5 4 6 4 6 4 5 4 5 4 5 4 6 4 
5 4 6 4 6 4 5 4 6 4 5 4 5 4 5 4 
5 4 6 4 5 4 5 4 5 4 4 4 5 4 5 4 
6 4 6 4 7 4 7 4 6 3 6 4 7 4 5 4 
6 4 6 4 6 4 6 4 7 4 6 3 7 4 6 4 
5 4 6 4 6 4 6 3 6 4 6 4 6 4 6 4 
5 4 6 3 5 4 6 4 6 4 7 3 6 4 7 4 
6 4 6 4 6 3 7 4 7 4 8 3 8 4 9 4 
8 4 8 3 8 4 7 4 6 3 7 4 6 4 7 4 
8 3 9 4 8 4 8 3 8 4 7 3 6 4 5 4 
6 3 5 4 5 4 5 3 5 4 5 4 6 3 7 4 
6 3 8 4 9 3 8 4 8 4 8 3 8 4 7 3 
7 4 6 3 5 4 4 4 5 3 5 4 7 3 10 4 
12 3 15 4 14 3 15 4 13 3 10 4 7 3 6 4 
4 3 3 4 4 3 3 4 4 3 6 3 8 4 8 3 
12 4 11 3 11 4 12 3 15 4 14 3 15 3 15 4 
13 3 10 4 10 3 8 3 6 4 6 3 5 4 5 3 
6 3 12 4 19 3 25 3 29 4 31 3 30 3 26 4 
26 3 20 3 16 4 14 3 11 3 7 4 10 3 14 3 
13 4 9 3 10 3 10 3 7 4 8 3 12 3 15 4 
23 3 32 3 39 3 40 4 36 3 27 3 18 3 9 4 
8 3 8 3 10 3 10 3 8 4 9 3 7 3 7 3 
15 3 21 4 29 3 36 3 42 3 49 3 59 4 63 3 
65 3 65 3 61 3 54 3 60 3 75 4 96 3 65 1 
750 713 209 MP stroke
gr

16.6667 w
0 sg
0.1 sg
%%IncludeResource: font Helvetica-Bold
/Helvetica-Bold /WindowsLatin1Encoding 183.333 FMSR

1903 4361 mt 
(Log Stress [kPa]) s
 387 2612 mt  -90 rotate
(Porosity) s
90 rotate
gs 750 500 3751 3501 rc
/c8 { 1.000000 0.000000 0.000000 sr} bdef
c8
-678 -5 -379 -6 -308 -6 -253 -7 -208 -6 -168 -6 -142 -7 -129 -6 
-119 -6 -103 -7 -93 -6 -93 -7 -88 -6 -72 -6 -72 -7 -77 -6 
-63 -7 -58 -6 -69 -7 -53 -6 -54 -7 -61 -6 -46 -7 -58 -6 
-49 -7 -54 -6 -39 -7 -35 -7 -14 7 -13 7 4 6 4 7 
3 6 4 7 3 6 3 7 4 6 3 7 4 6 3 7 
4 6 4 7 3 6 4 6 4 7 3 6 4 7 3 6 
4 6 4 7 3 6 3 6 4 7 3 6 4 6 3 6 
4 7 3 6 4 6 3 6 3 7 4 6 3 6 4 6 
3 6 3 7 4 6 3 6 3 6 4 6 3 6 4 6 
3 6 4 6 3 6 4 7 4 6 3 6 4 6 4 6 
3 6 3 6 4 6 3 6 4 5 3 6 4 6 3 6 
4 6 3 6 4 6 4 6 4 6 4 6 4 5 4 6 
3 6 3 6 4 6 4 6 3 5 4 6 4 6 4 6 
3 5 4 6 4 6 4 6 3 5 4 6 4 6 4 5 
4 6 3 6 4 5 4 6 4 6 4 5 4 6 4 5 
4 6 4 6 4 5 3 6 4 5 5 6 4 5 4 6 
4 5 4 6 4 5 4 6 4 5 4 6 4 5 4 6 
4 5 4 6 4 5 4 5 4 6 4 5 4 6 4 5 
4 5 4 6 4 5 4 5 4 6 4 5 3 5 4 6 
4 5 4 5 4 6 4 5 4 5 5 5 4 6 4 5 
4 5 4 5 4 6 5 5 4 5 4 5 5 5 4 5 
4 6 5 5 4 5 4 5 4 5 5 5 4 5 4 5 
4 6 4 5 4 5 4 5 4 5 4 5 5 5 4 5 
3 5 4 5 4 5 4 5 4 5 4 5 4 5 4 5 
4 5 4 5 4 5 4 5 4 5 4 5 4 4 4 5 
4 5 4 5 5 5 4 5 4 5 4 5 5 4 4 5 
5 5 4 5 5 5 4 5 4 4 5 5 5 5 4 5 
5 5 5 4 4 5 5 5 5 5 5 4 4 5 5 5 
5 4 5 5 4 5 5 5 5 4 4 5 5 5 5 4 
4 5 5 5 6 4 5 5 5 4 5 5 5 5 5 4 
5 5 5 4 5 5 5 5 5 4 5 5 5 4 4 5 
5 4 5 5 4 4 6 5 5 4 5 5 4 4 5 5 
5 4 5 5 6 4 5 5 6 4 5 5 5 4 4 5 
5 4 4 5 5 4 5 4 5 5 5 4 4 5 5 4 
5 4 5 5 4 4 5 4 6 5 5 4 5 4 6 5 
5 4 5 4 6 5 5 4 6 4 5 5 6 4 5 4 
6 4 5 5 6 4 5 4 5 4 5 5 5 4 6 4 
5 4 5 5 5 4 3265 1484 300 MP stroke
5 4 6 4 5 4 5 5 6 4 6 4 5 4 5 4 
5 4 5 4 5 5 4 4 5 4 5 4 6 4 6 4 
5 4 6 4 6 5 5 4 6 4 5 4 5 4 6 4 
6 4 5 4 6 4 6 4 5 4 5 4 6 4 5 4 
6 4 5 4 6 4 5 4 4 4 4 4 4 4 5 4 
5 4 6 4 7 4 6 4 5 4 5 4 5 4 5 4 
4 4 4 3 5 4 5 4 6 4 5 4 5 4 5 4 
4 4 4 4 5 3 5 4 6 4 6 4 6 4 7 4 
7 3 7 4 6 4 6 4 7 4 6 4 7 3 7 4 
7 4 7 4 6 3 7 4 6 4 6 4 5 4 5 3 
6 4 6 4 6 3 7 4 9 4 9 4 10 3 11 4 
11 4 9 3 9 4 7 4 7 4 5 3 5 4 5 4 
4 3 5 4 7 3 8 4 9 4 11 3 11 4 11 4 
10 3 10 4 8 4 7 3 6 4 4 3 4 4 4 3 
4 4 5 4 6 3 7 4 8 3 10 4 10 3 10 4 
9 4 9 3 8 4 8 3 9 4 11 3 9 4 11 3 
11 4 10 3 10 4 11 3 10 4 10 3 12 4 13 3 
15 4 15 3 16 3 16 4 16 3 16 4 16 3 17 4 
16 3 18 4 18 3 17 3 19 4 22 3 21 4 23 3 
24 3 22 4 22 3 22 4 22 3 20 3 23 4 24 3 
22 3 23 4 25 3 23 3 19 4 21 3 26 3 15 4 
15 3 21 3 22 4 23 3 41 3 43 4 40 3 41 3 
36 3 25 4 28 3 7 3 5 4 3 3 11 3 23 3 
56 4 58 3 65 3 63 3 47 4 19 3 13 3 6 3 
-5 3 1 4 -3 3 -1 3 3 3 12 3 8 4 35 3 
47 3 24 3 17 3 13 4 -1 3 -7 3 19 3 28 3 
34 3 41 3 4 1 750 720 212 MP stroke
/c9 { 0.000000 0.000000 1.000000 sr} bdef
c9
-454 -3 -359 -7 -300 -6 -249 -6 -205 -6 -172 -7 -149 -6 -136 -6 
-123 -7 -112 -6 -99 -6 -92 -7 -89 -6 -82 -7 -73 -6 -75 -6 
-74 -7 -64 -6 -61 -7 -66 -6 -57 -7 -52 -6 -61 -7 -49 -6 
-49 -7 -55 -6 -43 -7 -54 -6 -47 -7 -51 -7 -36 -6 -34 -7 
-12 7 -12 6 4 7 3 7 4 6 4 7 4 6 4 7 
3 6 4 7 4 6 3 7 4 6 4 7 3 6 4 7 
4 6 4 6 3 7 4 6 4 7 4 6 4 6 3 7 
4 6 4 6 3 7 4 6 4 6 3 6 3 7 4 6 
3 6 4 6 4 7 4 6 3 6 4 6 3 6 4 7 
3 6 4 6 4 6 3 6 4 6 3 6 4 6 4 6 
3 6 4 7 4 6 4 6 3 6 4 6 4 6 3 6 
4 6 4 6 3 6 4 5 4 6 4 6 3 6 4 6 
4 6 4 6 3 6 4 6 4 5 4 6 4 6 4 6 
3 6 4 6 4 5 4 6 4 6 3 6 4 5 4 6 
4 6 4 6 3 5 4 6 4 6 4 5 4 6 4 6 
4 5 4 6 4 6 4 5 4 6 4 5 4 6 4 6 
4 5 4 6 5 5 4 6 4 5 4 6 5 5 4 6 
4 5 4 6 5 5 4 6 5 5 4 6 4 5 4 6 
4 5 4 5 4 6 4 5 4 6 4 5 5 5 4 6 
4 5 5 5 4 6 4 5 5 5 4 6 4 5 5 5 
4 6 4 5 4 5 4 5 5 6 4 5 4 5 5 5 
4 6 4 5 5 5 4 5 4 5 4 5 4 6 4 5 
4 5 5 5 4 5 4 5 4 5 4 5 4 6 4 5 
4 5 4 5 4 5 4 5 5 5 4 5 4 5 4 5 
4 5 4 5 4 5 4 5 4 5 4 5 5 5 4 5 
4 5 4 5 4 5 4 5 4 4 4 5 5 5 3 5 
4 5 3 5 3 5 3 5 4 4 4 5 4 5 4 5 
4 5 4 5 4 4 4 5 4 5 4 5 5 5 4 4 
4 5 4 5 4 5 4 4 4 5 5 5 4 4 4 5 
5 5 4 5 4 4 4 5 5 5 5 4 4 5 4 5 
4 4 4 5 5 4 4 5 5 5 5 4 4 5 4 4 
5 5 4 5 5 4 5 5 5 4 4 5 5 4 5 5 
5 4 5 5 5 4 5 5 5 4 4 5 5 4 4 5 
5 4 5 5 5 4 4 5 6 4 5 5 4 4 5 5 
5 4 4 4 6 5 5 4 5 5 5 4 5 4 6 5 
5 4 5 4 5 5 5 4 5 4 5 5 6 4 5 4 
5 5 5 4 5 4 5 5 5 4 5 4 5 4 5 5 
6 4 5 4 5 4 3292 1510 300 MP stroke
5 5 4 4 5 4 5 4 4 5 5 4 5 4 5 4 
5 4 5 5 5 4 4 4 6 4 5 4 5 4 5 4 
5 5 5 4 4 4 5 4 5 4 5 4 6 4 6 4 
5 5 5 4 5 4 4 4 4 4 5 4 6 4 5 4 
6 4 6 4 6 4 5 4 5 4 4 4 4 4 3 4 
5 4 5 4 7 4 9 4 8 4 7 4 5 4 3 4 
2 4 3 4 4 4 4 4 5 4 5 4 5 4 6 3 
7 4 6 4 5 4 5 4 2 4 4 4 5 4 4 4 
4 3 8 4 7 4 5 4 7 4 6 4 6 3 5 4 
5 4 5 4 5 4 5 4 6 3 5 4 6 4 7 4 
6 3 6 4 6 4 7 4 5 4 6 3 6 4 7 4 
6 3 7 4 7 4 7 4 7 3 6 4 6 4 6 3 
6 4 6 4 7 4 6 3 7 4 5 4 6 3 7 4 
8 3 7 4 9 4 8 3 8 4 8 4 8 3 7 4 
7 4 6 3 6 4 5 3 7 4 7 3 6 4 8 4 
7 3 8 4 9 3 9 4 10 3 10 4 10 4 9 3 
9 4 7 3 7 4 7 3 6 4 6 3 6 4 9 3 
10 4 11 3 13 4 13 3 15 4 15 3 16 4 14 3 
14 3 12 4 10 3 11 4 11 3 11 4 11 3 10 4 
10 3 10 3 12 4 14 3 16 4 17 3 18 3 19 4 
20 3 21 4 19 3 18 3 16 4 15 3 10 3 15 4 
17 3 18 3 19 4 25 3 26 3 26 4 24 3 26 3 
24 4 24 3 27 3 29 4 34 3 39 3 45 3 45 4 
46 3 45 3 45 4 43 3 50 3 61 3 78 4 90 3 
96 3 100 3 95 4 80 3 13 1 750 783 198 MP stroke
/c10 { 1.000000 0.000000 1.000000 sr} bdef
c10
-402 -3 -356 -6 -282 -7 -229 -6 -187 -7 -158 -6 -136 -7 -118 -6 
-105 -7 -95 -6 -88 -7 -81 -6 -76 -7 -70 -6 -65 -7 -63 -7 
-61 -6 -57 -7 -55 -6 -54 -7 -54 -7 -50 -6 -48 -7 -51 -7 
-49 -6 -43 -7 -46 -7 -50 -7 -40 -6 -43 -7 -48 -7 -38 -7 
-43 -7 -46 -6 -36 -7 -48 -7 -42 -7 -45 -7 -35 -7 -31 -7 
-11 7 -12 7 4 7 3 7 4 7 4 7 3 6 3 7 
4 7 4 7 3 7 4 6 3 7 4 7 3 7 4 6 
4 7 3 7 4 6 4 7 4 7 3 6 4 7 3 6 
3 7 4 7 4 6 3 7 4 6 3 7 4 6 3 7 
4 6 3 7 4 6 3 7 4 6 4 7 3 6 4 6 
3 7 4 6 4 7 3 6 4 6 3 7 4 6 4 6 
3 7 4 6 4 6 4 6 3 7 4 6 4 6 3 6 
4 7 4 6 4 6 4 6 3 6 4 7 4 6 4 6 
4 6 4 6 3 6 4 6 4 6 4 6 3 6 4 7 
4 6 3 6 4 6 4 6 4 6 4 6 3 6 4 6 
3 5 4 6 4 6 4 6 4 6 3 6 4 6 4 6 
4 6 4 6 4 5 4 6 3 6 4 6 4 6 4 6 
3 5 4 6 4 6 4 6 4 5 4 6 3 6 4 6 
3 5 4 6 4 6 4 5 4 6 3 6 4 5 4 6 
4 6 4 5 4 6 4 5 3 6 4 6 4 5 3 6 
4 5 4 6 4 5 4 6 4 5 4 6 4 5 4 6 
4 5 4 6 4 5 3 6 5 5 4 6 4 5 3 5 
4 6 3 5 4 6 3 5 4 5 4 6 4 5 3 5 
4 6 3 5 4 5 5 6 4 5 4 5 3 6 4 5 
3 5 3 5 4 6 4 5 4 5 4 5 3 6 4 5 
4 5 3 5 4 5 4 5 3 6 4 5 3 5 4 5 
4 5 4 5 4 5 3 5 5 6 4 5 4 5 4 5 
4 5 4 5 4 5 4 5 4 5 4 5 4 5 3 5 
4 5 4 5 4 5 4 5 4 5 4 5 4 5 4 5 
3 5 4 5 4 4 4 5 5 5 4 5 3 5 4 5 
4 5 5 5 4 4 4 5 5 5 4 5 4 5 4 5 
4 4 5 5 4 5 4 5 4 5 4 4 4 5 4 5 
5 5 4 4 4 5 4 5 5 4 4 5 4 5 5 5 
4 4 5 5 4 5 5 4 4 5 4 5 5 4 4 5 
5 4 4 5 5 5 5 4 4 5 5 4 4 5 5 5 
5 4 5 5 5 4 5 5 5 4 5 5 5 4 5 5 
5 4 5 5 5 4 5 5 5 4 4 5 5 4 5 5 
5 4 4 5 5 4 3387 1640 300 MP stroke
4 5 5 4 5 5 4 4 5 4 5 5 5 4 5 5 
5 4 4 4 5 5 5 4 5 4 4 5 5 4 5 4 
5 5 5 4 5 4 6 5 5 4 5 4 5 5 6 4 
4 4 5 4 5 5 6 4 5 4 5 4 6 5 5 4 
6 4 5 4 6 5 5 4 5 4 5 4 5 4 5 5 
5 4 6 4 5 4 6 4 5 4 5 4 5 5 5 4 
6 4 6 4 6 4 6 4 5 4 6 4 5 5 5 4 
5 4 5 4 6 4 6 4 7 4 6 4 5 4 6 4 
5 4 4 4 5 4 5 4 5 4 5 4 5 4 6 4 
6 4 6 4 6 4 6 4 5 4 6 4 5 4 5 4 
5 4 4 4 5 4 5 4 6 4 6 3 7 4 7 4 
6 4 6 4 5 4 4 4 4 4 5 4 5 3 5 4 
5 4 6 4 7 4 6 4 7 3 6 4 5 4 5 4 
5 4 4 4 4 3 3 4 4 4 4 4 5 3 4 4 
6 4 8 4 9 4 9 3 10 4 11 4 9 3 8 4 
8 4 6 4 6 3 6 4 5 4 6 3 6 4 6 4 
9 4 9 3 12 4 11 4 13 3 14 4 13 3 13 4 
12 4 11 3 10 4 9 4 9 3 8 4 8 4 7 3 
8 4 8 3 10 4 11 3 13 4 15 4 15 3 16 4 
16 3 15 4 14 3 14 4 12 4 12 3 11 4 10 3 
10 4 11 3 10 4 9 3 10 4 10 3 10 4 13 3 
16 4 16 3 18 4 20 3 19 4 18 3 20 3 19 4 
19 3 18 4 19 3 19 4 19 3 18 4 14 3 13 3 
13 4 10 3 10 4 13 3 14 3 15 4 16 3 16 4 
17 3 21 3 22 4 25 3 28 3 25 4 23 3 23 3 
18 4 14 3 14 3 13 4 12 3 16 3 25 4 25 3 
26 3 29 4 30 3 26 3 32 3 32 4 32 3 34 3 
32 4 21 3 16 3 14 3 18 4 30 3 47 3 69 3 
96 4 119 3 67 1 750 783 228 MP stroke
/c11 { 0.000000 1.000000 0.000000 sr} bdef
c11
-45 -1 -307 -6 -264 -7 -223 -7 -188 -6 -161 -7 -135 -7 -120 -7 
-107 -6 -97 -7 -86 -7 -77 -7 -72 -7 -66 -6 -62 -7 -59 -7 
-57 -7 -54 -7 -53 -7 -51 -7 -49 -6 -48 -7 -45 -7 -42 -7 
-41 -7 -40 -7 -39 -7 -39 -7 -37 -7 -37 -7 -37 -7 -36 -7 
-37 -7 -36 -7 -35 -8 -35 -7 -36 -7 -34 -7 -34 -7 -37 -7 
-34 -7 -33 -8 -38 -7 -35 -7 -34 -7 -40 -8 -35 -7 -35 -7 
-43 -7 -35 -8 -46 -7 -41 -7 -49 -8 -35 -7 -32 -7 -14 7 
-12 7 3 8 4 7 3 7 4 8 4 7 3 7 4 7 
3 8 3 7 4 7 3 7 4 8 4 7 3 7 4 7 
3 7 4 7 4 7 3 8 4 7 3 7 4 7 4 7 
3 7 4 7 3 7 4 7 4 7 4 7 3 7 4 7 
4 7 4 6 3 7 4 7 4 7 3 7 3 7 4 7 
3 6 4 7 4 7 3 7 4 7 3 6 4 7 4 7 
3 7 4 6 4 7 3 7 3 6 4 7 3 7 4 6 
4 7 3 6 4 7 4 7 3 6 4 7 4 6 3 7 
4 6 3 7 3 6 4 7 3 6 4 7 4 6 3 7 
4 6 4 6 3 7 4 6 4 7 3 6 4 6 4 7 
4 6 3 6 4 7 4 6 3 6 4 6 4 7 4 6 
3 6 4 6 4 7 4 6 4 6 3 6 4 6 3 7 
4 6 3 6 4 6 4 6 4 6 3 6 4 6 3 6 
4 6 4 7 3 6 4 6 4 6 3 6 4 6 3 6 
3 6 4 6 3 5 3 6 4 6 3 6 4 6 4 6 
3 6 4 6 4 6 3 6 4 5 3 6 4 6 4 6 
4 6 3 6 4 5 4 6 4 6 3 6 4 5 4 6 
3 6 4 6 4 5 4 6 4 6 4 5 4 6 3 6 
4 5 4 6 4 6 4 5 4 6 3 5 4 6 4 6 
4 5 4 6 4 5 4 6 5 5 4 6 3 5 4 6 
4 5 4 6 4 5 4 6 4 5 4 6 4 5 4 6 
3 5 4 5 4 6 4 5 3 6 4 5 4 5 4 6 
4 5 4 5 4 6 4 5 4 5 4 6 4 5 3 5 
4 6 4 5 5 5 4 5 5 6 4 5 4 5 3 5 
4 6 4 5 5 5 5 5 5 5 4 5 4 6 2 5 
3 5 3 5 4 5 4 5 4 5 4 5 4 6 4 5 
3 5 4 5 4 5 4 5 4 5 3 5 4 5 3 5 
4 5 5 5 4 5 4 5 4 5 3 5 3 5 3 5 
4 5 5 5 5 5 5 5 4 4 4 5 4 5 3 5 
4 5 3 5 4 5 5 5 5 4 5 5 4 5 3 5 
3 5 4 5 3 4 3493 1871 300 MP stroke
4 5 5 5 4 5 4 5 4 4 4 5 3 5 4 5 
4 4 4 5 4 5 5 4 4 5 4 5 5 5 4 4 
4 5 4 5 4 4 4 5 4 5 5 4 5 5 4 4 
4 5 4 5 5 4 4 5 4 4 5 5 5 5 5 4 
4 5 5 4 5 5 4 4 4 5 5 4 4 5 4 4 
5 5 5 4 6 5 5 4 6 5 5 4 5 5 4 4 
5 5 4 4 5 5 5 4 5 5 6 4 5 4 6 5 
6 4 6 5 6 4 5 4 5 5 5 4 5 4 4 5 
5 4 6 4 5 5 7 4 6 4 6 5 6 4 6 4 
5 5 5 4 5 4 5 4 6 5 5 4 5 4 6 4 
5 5 5 4 6 4 6 4 5 5 6 4 5 4 5 4 
6 4 5 5 5 4 6 4 5 4 6 4 6 4 6 4 
6 5 5 4 6 4 5 4 5 4 6 4 5 4 5 4 
6 5 6 4 6 4 7 4 8 4 7 4 7 4 7 4 
7 4 6 4 6 4 6 4 6 4 6 4 5 4 6 4 
7 4 7 4 8 4 8 4 9 4 10 4 9 4 9 4 
9 4 9 4 8 4 7 4 6 4 6 4 5 4 5 3 
6 4 7 4 9 4 9 4 11 4 11 4 12 4 12 4 
11 3 12 4 11 4 9 4 9 4 7 4 7 3 7 4 
7 4 8 4 8 4 8 4 7 3 8 4 9 4 8 4 
11 3 11 4 11 4 12 4 12 4 11 3 11 4 11 4 
13 3 12 4 14 4 13 4 13 3 12 4 11 4 10 3 
10 4 9 4 9 4 8 3 8 4 9 4 9 3 12 4 
12 3 13 4 15 4 15 3 16 4 17 4 19 3 18 4 
20 4 19 3 21 4 21 3 22 4 22 3 21 4 20 4 
19 3 20 4 19 3 18 4 19 3 20 4 20 4 21 3 
21 4 22 3 21 4 22 3 23 4 26 3 27 4 29 3 
31 4 34 3 37 4 40 3 43 4 43 3 47 4 42 3 
48 3 49 4 53 3 52 4 59 3 56 4 51 3 54 4 
58 3 66 3 28 2 750 922 236 MP stroke
/c12 { 0.000000 1.000000 1.000000 sr} bdef
c12
-183 -7 -163 -7 -149 -7 -148 -7 -140 -7 -133 -8 -125 -7 -117 -7 
-106 -7 -96 -7 -88 -7 -78 -7 -69 -8 -61 -7 -54 -7 -49 -7 
-48 -8 -50 -7 -50 -7 -48 -7 -47 -8 -42 -7 -38 -7 -35 -8 
-37 -7 -37 -7 -37 -8 -37 -7 -35 -8 -35 -7 -33 -8 -32 -7 
-31 -8 -31 -7 -30 -8 -29 -7 -29 -8 -29 -7 -29 -8 -28 -7 
-28 -8 -28 -8 -28 -7 -29 -8 -29 -7 -29 -8 -30 -8 -30 -8 
-30 -7 -31 -8 -30 -8 -32 -8 -34 -7 -31 -8 -35 -8 -39 -8 
-35 -8 -40 -8 -43 -7 -38 -8 -49 -8 -41 -8 -53 -8 -47 -8 
-61 -8 -42 -8 -37 -8 -20 8 -14 8 4 8 4 8 4 8 
3 8 4 8 3 8 4 7 4 8 4 8 4 8 4 8 
3 8 4 7 3 8 4 8 4 8 3 7 4 8 4 8 
3 8 4 7 4 8 3 7 4 8 4 8 3 7 4 8 
4 7 3 8 4 7 4 8 3 7 4 8 3 7 3 8 
4 7 4 8 3 7 4 8 4 7 3 7 4 8 3 7 
4 7 4 8 3 7 4 7 3 7 4 8 3 7 4 7 
4 7 3 8 3 7 4 7 3 7 4 7 4 7 3 7 
4 8 3 7 4 7 4 7 3 7 4 7 3 7 4 7 
4 7 3 7 4 7 4 7 3 7 4 7 3 6 4 7 
4 7 3 7 4 7 4 7 4 7 3 6 4 7 4 7 
4 7 4 7 3 6 4 7 4 7 4 7 4 6 3 7 
4 7 4 6 4 7 4 7 4 6 3 7 4 6 3 7 
4 7 4 6 4 7 4 6 4 7 3 6 4 7 3 6 
4 7 3 6 4 7 4 6 4 7 4 6 3 6 4 7 
4 6 4 7 4 6 4 6 4 7 4 6 3 6 4 7 
4 6 4 6 4 6 3 7 4 6 4 6 4 6 4 7 
4 6 4 6 4 6 4 6 4 7 4 6 4 6 4 6 
4 6 4 6 4 6 4 6 5 6 3 6 4 7 4 6 
4 6 4 6 5 6 4 6 4 6 3 6 4 6 3 5 
4 6 3 6 4 6 4 6 4 6 4 6 3 6 4 6 
4 6 4 5 4 6 4 6 3 6 4 6 4 6 4 5 
4 6 4 6 4 6 4 5 4 6 4 6 4 6 4 5 
4 6 4 6 4 5 4 6 5 6 4 5 4 6 4 6 
4 5 4 6 4 5 5 6 4 6 5 5 4 6 5 5 
4 6 4 5 3 6 4 5 4 6 4 5 5 6 5 5 
5 6 4 5 4 6 4 5 3 6 4 5 5 5 5 6 
5 5 5 6 5 5 4 5 3 6 4 5 3 5 4 6 
4 5 4 5 5 6 4 5 4 5 4 6 4 5 5 5 
4 5 4 6 3 5 3514 2136 300 MP stroke
3 5 3 5 4 6 5 5 5 5 6 5 5 5 5 5 
4 6 3 5 3 5 2 5 3 5 4 5 5 5 4 5 
4 6 5 5 3 5 4 5 3 5 4 5 4 5 5 5 
4 5 5 5 4 5 5 5 4 5 4 5 4 5 4 5 
5 5 5 5 5 5 5 5 4 5 4 5 4 4 4 5 
4 5 4 5 5 5 4 5 5 5 5 5 5 4 6 5 
4 5 5 5 4 5 4 5 5 4 4 5 4 5 4 5 
4 5 4 4 5 5 6 5 5 5 5 4 5 5 5 5 
4 4 4 5 5 5 3 5 4 4 4 5 4 5 5 4 
5 5 5 5 5 4 4 5 5 4 5 5 5 5 5 4 
5 5 4 4 4 5 4 5 4 4 4 5 5 4 4 5 
5 4 5 5 4 4 4 5 4 4 4 5 4 4 5 5 
5 4 5 5 6 4 6 5 5 4 6 5 5 4 5 5 
5 4 5 5 4 4 5 4 5 5 5 4 5 5 5 4 
6 4 6 5 7 4 6 4 7 5 6 4 6 4 5 5 
6 4 5 4 6 5 5 4 6 4 6 5 6 4 5 4 
6 4 6 5 7 4 7 4 7 4 7 5 7 4 7 4 
6 4 7 5 7 4 7 4 7 4 6 4 6 5 5 4 
6 4 5 4 6 4 5 4 6 4 5 5 6 4 7 4 
7 4 7 4 8 4 9 4 8 4 9 5 9 4 9 4 
8 4 6 4 6 4 4 4 3 4 5 4 6 4 7 4 
7 4 9 4 8 4 9 4 9 4 10 4 9 4 10 4 
10 4 8 4 9 4 8 4 9 4 7 4 9 4 8 4 
8 4 9 4 9 4 9 4 8 3 9 4 9 4 9 4 
8 4 8 4 9 4 10 4 10 4 9 3 11 4 12 4 
12 4 12 4 14 4 16 3 14 4 15 4 17 4 16 4 
16 4 16 3 15 4 15 4 16 4 15 3 16 4 17 4 
17 4 16 4 16 3 16 4 15 4 16 3 15 4 15 4 
15 4 15 3 15 4 18 4 20 3 24 4 28 4 31 4 
36 3 37 4 33 4 32 3 29 4 23 3 21 4 24 4 
24 3 24 4 25 4 26 3 29 4 30 4 32 3 33 4 
34 3 33 4 35 3 35 4 32 4 31 3 29 4 22 3 
19 4 21 3 21 4 22 4 23 3 22 4 24 3 18 4 
24 3 27 4 31 3 32 4 42 3 40 4 13 1 750 981 272 MP stroke
gr

c12
0 sg
%%IncludeResource: font Helvetica
/Helvetica /WindowsLatin1Encoding 83.3333 FMSR

 738 4031 mt 
( ) s
4489  530 mt 
( ) s
8.33333 w
DO
SO
12.5 w
0.1 sg
 750  499 mt 4500  499 L
 750 4000 mt 4500 4000 L
4500 4000 mt 4500  499 L
 750 4000 mt  750  499 L
 750 4000 mt 4500 4000 L
 750 4000 mt  750  499 L
 750 4000 mt  750 3971 L
 750  499 mt  750  528 L
 750 4000 mt  750 3943 L
 750  499 mt  750  556 L
%%IncludeResource: font Helvetica
/Helvetica /WindowsLatin1Encoding 133.333 FMSR

 626 4187 mt 
(10) s
%%IncludeResource: font Helvetica
/Helvetica /WindowsLatin1Encoding 88.8889 FMSR

 774 4105 mt 
(-1) s
1116 4000 mt 1116 3971 L
1116  499 mt 1116  528 L
1331 4000 mt 1331 3971 L
1331  499 mt 1331  528 L
1483 4000 mt 1483 3971 L
1483  499 mt 1483  528 L
1601 4000 mt 1601 3971 L
1601  499 mt 1601  528 L
1697 4000 mt 1697 3971 L
1697  499 mt 1697  528 L
1779 4000 mt 1779 3971 L
1779  499 mt 1779  528 L
1849 4000 mt 1849 3971 L
1849  499 mt 1849  528 L
1912 4000 mt 1912 3971 L
1912  499 mt 1912  528 L
1967 4000 mt 1967 3971 L
1967  499 mt 1967  528 L
1967 4000 mt 1967 3943 L
1967  499 mt 1967  556 L
%%IncludeResource: font Helvetica
/Helvetica /WindowsLatin1Encoding 133.333 FMSR

1869 4187 mt 
(10) s
%%IncludeResource: font Helvetica
/Helvetica /WindowsLatin1Encoding 88.8889 FMSR

2017 4105 mt 
(0) s
2334 4000 mt 2334 3971 L
2334  499 mt 2334  528 L
2548 4000 mt 2548 3971 L
2548  499 mt 2548  528 L
2701 4000 mt 2701 3971 L
2701  499 mt 2701  528 L
2819 4000 mt 2819 3971 L
2819  499 mt 2819  528 L
2915 4000 mt 2915 3971 L
2915  499 mt 2915  528 L
2997 4000 mt 2997 3971 L
2997  499 mt 2997  528 L
3067 4000 mt 3067 3971 L
3067  499 mt 3067  528 L
3129 4000 mt 3129 3971 L
3129  499 mt 3129  528 L
3185 4000 mt 3185 3971 L
3185  499 mt 3185  528 L
3185 4000 mt 3185 3943 L
3185  499 mt 3185  556 L
%%IncludeResource: font Helvetica
/Helvetica /WindowsLatin1Encoding 133.333 FMSR

3087 4187 mt 
(10) s
%%IncludeResource: font Helvetica
/Helvetica /WindowsLatin1Encoding 88.8889 FMSR

3235 4105 mt 
(1) s
3552 4000 mt 3552 3971 L
3552  499 mt 3552  528 L
3766 4000 mt 3766 3971 L
3766  499 mt 3766  528 L
3918 4000 mt 3918 3971 L
3918  499 mt 3918  528 L
4036 4000 mt 4036 3971 L
4036  499 mt 4036  528 L
4133 4000 mt 4133 3971 L
4133  499 mt 4133  528 L
4214 4000 mt 4214 3971 L
4214  499 mt 4214  528 L
4285 4000 mt 4285 3971 L
4285  499 mt 4285  528 L
4347 4000 mt 4347 3971 L
4347  499 mt 4347  528 L
4403 4000 mt 4403 3971 L
4403  499 mt 4403  528 L
4403 4000 mt 4403 3943 L
4403  499 mt 4403  556 L
%%IncludeResource: font Helvetica
/Helvetica /WindowsLatin1Encoding 133.333 FMSR

4305 4187 mt 
(10) s
%%IncludeResource: font Helvetica
/Helvetica /WindowsLatin1Encoding 88.8889 FMSR

4453 4105 mt 
(2) s
 750 3999 mt  806 3999 L
4500 3999 mt 4443 3999 L
%%IncludeResource: font Helvetica
/Helvetica /WindowsLatin1Encoding 133.333 FMSR

 541 4048 mt 
(0.3) s
 750 3416 mt  806 3416 L
4500 3416 mt 4443 3416 L
 467 3465 mt 
(0.35) s
 750 2833 mt  806 2833 L
4500 2833 mt 4443 2833 L
 541 2882 mt 
(0.4) s
 750 2249 mt  806 2249 L
4500 2249 mt 4443 2249 L
 467 2298 mt 
(0.45) s
 750 1666 mt  806 1666 L
4500 1666 mt 4443 1666 L
 541 1715 mt 
(0.5) s
 750 1083 mt  806 1083 L
4500 1083 mt 4443 1083 L
 467 1132 mt 
(0.55) s
 750  499 mt  806  499 L
4500  499 mt 4443  499 L
 541  548 mt 
(0.6) s
 750  499 mt 4500  499 L
 750 4000 mt 4500 4000 L
4500 4000 mt 4500  499 L
 750 4000 mt  750  499 L
0 sg
%%IncludeResource: font Helvetica-Bold
/Helvetica-Bold /WindowsLatin1Encoding 125 FMSR

3909  679 mt 
(Kt = 1) s
gs 3590 542 870 955 rc
16.6667 w
245 0 3638 632 2 MP stroke
gr

16.6667 w
3909  834 mt 
(Kt = 0.75) s
gs 3590 542 870 955 rc
c8
245 0 3638 787 2 MP stroke
gr

c8
0 sg
3909  988 mt 
(Kt = 0.5) s
gs 3590 542 870 955 rc
c9
245 0 3638 941 2 MP stroke
gr

c9
0 sg
3909 1143 mt 
(Kt = 0.25) s
gs 3590 542 870 955 rc
c10
245 0 3638 1096 2 MP stroke
gr

c10
0 sg
3909 1297 mt 
(Kt = 0.1) s
gs 3590 542 870 955 rc
c11
245 0 3638 1250 2 MP stroke
gr

c11
0 sg
3909 1452 mt 
(Kt = 0.05) s
gs 3590 542 870 955 rc
c12
245 0 3638 1405 2 MP stroke
12.5 w
gr

12.5 w
c12

end %%Color Dict

eplot
%%EndObject

epage
end

showpage

%%Trailer
%%EOF
