%!PS-Adobe-3.0 EPSF-3.0
%%Creator: MATLAB, The MathWorks, Inc. Version 8.1.0.604 (R2013a). Operating System: Microsoft Windows 7.
%%Title: .\Tangential_UC_StressStain_Paired.eps
%%CreationDate: 08/17/2013  18:26:19
%%DocumentNeededFonts: Helvetica-Bold
%%+ Helvetica
%%DocumentProcessColors: Cyan Magenta Yellow Black
%%LanguageLevel: 2
%%Pages: 1
%%BoundingBox:    54    93   573   572
%%EndComments

%%BeginProlog
% MathWorks dictionary
/MathWorks 160 dict begin
% definition operators
/bdef {bind def} bind def
/ldef {load def} bind def
/xdef {exch def} bdef
/xstore {exch store} bdef
% operator abbreviations
/c  /clip ldef
/cc /concat ldef
/cp /closepath ldef
/gr /grestore ldef
/gs /gsave ldef
/mt /moveto ldef
/np /newpath ldef
/cm /currentmatrix ldef
/sm /setmatrix ldef
/rm /rmoveto ldef
/rl /rlineto ldef
/s {show newpath} bdef
/sc {setcmykcolor} bdef
/sr /setrgbcolor ldef
/sg /setgray ldef
/w /setlinewidth ldef
/j /setlinejoin ldef
/cap /setlinecap ldef
/rc {rectclip} bdef
/rf {rectfill} bdef
% page state control
/pgsv () def
/bpage {/pgsv save def} bdef
/epage {pgsv restore} bdef
/bplot /gsave ldef
/eplot {stroke grestore} bdef
% orientation switch
/portraitMode 0 def /landscapeMode 1 def /rotateMode 2 def
% coordinate system mappings
/dpi2point 0 def
% font control
/FontSize 0 def
/FMS {/FontSize xstore findfont [FontSize 0 0 FontSize neg 0 0]
  makefont setfont} bdef
/ISOLatin1Encoding where {pop /WindowsLatin1Encoding 256 array bdef
ISOLatin1Encoding WindowsLatin1Encoding copy pop
/.notdef/.notdef/quotesinglbase/florin/quotedblbase/ellipsis/dagger
/daggerdbl/circumflex/perthousand/Scaron/guilsinglleft/OE/.notdef/.notdef
/.notdef/.notdef/quoteleft/quoteright/quotedblleft/quotedblright/bullet
/endash/emdash/tilde/trademark/scaron/guilsinglright/oe/.notdef/.notdef
/Ydieresis WindowsLatin1Encoding 128 32 getinterval astore pop}
{/WindowsLatin1Encoding StandardEncoding bdef} ifelse
/reencode {exch dup where {pop load} {pop StandardEncoding} ifelse
  exch dup 3 1 roll findfont dup length dict begin
  { 1 index /FID ne {def}{pop pop} ifelse } forall
  /Encoding exch def currentdict end definefont pop} bdef
/isroman {findfont /CharStrings get /Agrave known} bdef
/FMSR {3 1 roll 1 index dup isroman {reencode} {pop pop} ifelse
  exch FMS} bdef
/csm {1 dpi2point div -1 dpi2point div scale neg translate
 dup landscapeMode eq {pop -90 rotate}
  {rotateMode eq {90 rotate} if} ifelse} bdef
% line types: solid, dotted, dashed, dotdash
/SO { [] 0 setdash } bdef
/DO { [.5 dpi2point mul 4 dpi2point mul] 0 setdash } bdef
/DA { [6 dpi2point mul] 0 setdash } bdef
/DD { [.5 dpi2point mul 4 dpi2point mul 6 dpi2point mul 4
  dpi2point mul] 0 setdash } bdef
% macros for lines and objects
/L {lineto stroke} bdef
/MP {3 1 roll moveto 1 sub {rlineto} repeat} bdef
/AP {{rlineto} repeat} bdef
/PDlw -1 def
/W {/PDlw currentlinewidth def setlinewidth} def
/PP {closepath eofill} bdef
/DP {closepath stroke} bdef
/MR {4 -2 roll moveto dup  0 exch rlineto exch 0 rlineto
  neg 0 exch rlineto closepath} bdef
/FR {MR stroke} bdef
/PR {MR fill} bdef
/L1i {{currentfile picstr readhexstring pop} image} bdef
/tMatrix matrix def
/MakeOval {newpath tMatrix currentmatrix pop translate scale
0 0 1 0 360 arc tMatrix setmatrix} bdef
/FO {MakeOval stroke} bdef
/PO {MakeOval fill} bdef
/PD {currentlinewidth 2 div 0 360 arc fill
   PDlw -1 eq not {PDlw w /PDlw -1 def} if} def
/FA {newpath tMatrix currentmatrix pop translate scale
  0 0 1 5 -2 roll arc tMatrix setmatrix stroke} bdef
/PA {newpath tMatrix currentmatrix pop	translate 0 0 moveto scale
  0 0 1 5 -2 roll arc closepath tMatrix setmatrix fill} bdef
/FAn {newpath tMatrix currentmatrix pop translate scale
  0 0 1 5 -2 roll arcn tMatrix setmatrix stroke} bdef
/PAn {newpath tMatrix currentmatrix pop translate 0 0 moveto scale
  0 0 1 5 -2 roll arcn closepath tMatrix setmatrix fill} bdef
/vradius 0 def /hradius 0 def /lry 0 def
/lrx 0 def /uly 0 def /ulx 0 def /rad 0 def
/MRR {/vradius xdef /hradius xdef /lry xdef /lrx xdef /uly xdef
  /ulx xdef newpath tMatrix currentmatrix pop ulx hradius add uly
  vradius add translate hradius vradius scale 0 0 1 180 270 arc 
  tMatrix setmatrix lrx hradius sub uly vradius add translate
  hradius vradius scale 0 0 1 270 360 arc tMatrix setmatrix
  lrx hradius sub lry vradius sub translate hradius vradius scale
  0 0 1 0 90 arc tMatrix setmatrix ulx hradius add lry vradius sub
  translate hradius vradius scale 0 0 1 90 180 arc tMatrix setmatrix
  closepath} bdef
/FRR {MRR stroke } bdef
/PRR {MRR fill } bdef
/MlrRR {/lry xdef /lrx xdef /uly xdef /ulx xdef /rad lry uly sub 2 div def
  newpath tMatrix currentmatrix pop ulx rad add uly rad add translate
  rad rad scale 0 0 1 90 270 arc tMatrix setmatrix lrx rad sub lry rad
  sub translate rad rad scale 0 0 1 270 90 arc tMatrix setmatrix
  closepath} bdef
/FlrRR {MlrRR stroke } bdef
/PlrRR {MlrRR fill } bdef
/MtbRR {/lry xdef /lrx xdef /uly xdef /ulx xdef /rad lrx ulx sub 2 div def
  newpath tMatrix currentmatrix pop ulx rad add uly rad add translate
  rad rad scale 0 0 1 180 360 arc tMatrix setmatrix lrx rad sub lry rad
  sub translate rad rad scale 0 0 1 0 180 arc tMatrix setmatrix
  closepath} bdef
/FtbRR {MtbRR stroke } bdef
/PtbRR {MtbRR fill } bdef
/stri 6 array def /dtri 6 array def
/smat 6 array def /dmat 6 array def
/tmat1 6 array def /tmat2 6 array def /dif 3 array def
/asub {/ind2 exch def /ind1 exch def dup dup
  ind1 get exch ind2 get sub exch } bdef
/tri_to_matrix {
  2 0 asub 3 1 asub 4 0 asub 5 1 asub
  dup 0 get exch 1 get 7 -1 roll astore } bdef
/compute_transform {
  dmat dtri tri_to_matrix tmat1 invertmatrix 
  smat stri tri_to_matrix tmat2 concatmatrix } bdef
/ds {stri astore pop} bdef
/dt {dtri astore pop} bdef
/db {2 copy /cols xdef /rows xdef mul dup 3 mul string
  currentfile 
  3 index 0 eq {/ASCIIHexDecode filter}
  {/ASCII85Decode filter 3 index 2 eq {/RunLengthDecode filter} if }
  ifelse exch readstring pop
  dup 0 3 index getinterval /rbmap xdef
  dup 2 index dup getinterval /gbmap xdef
  1 index dup 2 mul exch getinterval /bbmap xdef pop pop}bdef
/it {gs np dtri aload pop moveto lineto lineto cp c
  cols rows 8 compute_transform 
  rbmap gbmap bbmap true 3 colorimage gr}bdef
/il {newpath moveto lineto stroke}bdef
currentdict end def
%%EndProlog

%%BeginSetup
MathWorks begin

0 cap

end
%%EndSetup

%%Page: 1 1
%%BeginPageSetup
%%PageBoundingBox:    54    93   573   572
MathWorks begin
bpage
%%EndPageSetup

%%BeginObject: obj1
bplot

/dpi2point 8.33333 def
portraitMode 0150 5158 csm

  305   390  4324  3990 rc
84 dict begin %Colortable dictionary
/c0 { 0.000000 0.000000 0.000000 sr} bdef
/c1 { 1.000000 1.000000 1.000000 sr} bdef
/c2 { 0.900000 0.000000 0.000000 sr} bdef
/c3 { 0.000000 0.820000 0.000000 sr} bdef
/c4 { 0.000000 0.000000 0.800000 sr} bdef
/c5 { 0.910000 0.820000 0.320000 sr} bdef
/c6 { 1.000000 0.260000 0.820000 sr} bdef
/c7 { 0.000000 0.820000 0.820000 sr} bdef
c0
1 j
1 sg
   0    0 5001 5001 rf
12.5 w
0 3500 3750 0 0 -3500 750 4000 4 MP
PP
-3750 0 0 3500 3750 0 0 -3500 750 4000 5 MP stroke
gs 750 500 3751 3501 rc
16.6667 w
0 sg
1 1 2 1 2 1 2 0 1 1 2 0 2 1 1 1 
2 0 2 1 1 1 2 0 2 1 2 1 1 0 2 2 
2 0 1 1 2 1 2 1 1 1 2 1 2 0 1 1 
2 1 2 0 2 1 1 0 2 1 2 1 1 0 2 1 
2 0 1 1 2 0 2 0 2 1 1 1 2 0 2 1 
1 1 2 1 2 1 1 2 2 0 2 1 2 1 1 1 
2 2 2 0 1 1 2 1 2 1 1 1 2 0 2 2 
1 0 2 1 2 1 2 1 1 0 2 2 2 1 1 1 
2 1 2 1 1 0 2 1 2 1 2 2 1 1 2 0 
2 1 1 1 2 1 2 0 1 1 2 1 2 1 1 1 
2 0 2 2 2 0 1 1 2 2 2 1 1 0 2 1 
2 1 1 0 2 1 2 0 2 1 1 1 2 1 2 1 
1 1 2 1 2 0 1 1 2 1 2 1 1 0 2 1 
2 1 2 1 1 0 2 0 2 1 1 1 2 0 2 1 
1 1 2 1 2 0 2 2 1 1 2 0 2 1 1 1 
2 1 2 1 1 0 2 1 2 1 2 1 1 -1 2 0 
2 1 1 1 2 0 2 1 1 1 2 1 2 0 1 0 
2 0 2 1 2 0 1 0 2 0 2 0 1 -1 2 -1 
2 0 1 -1 2 -1 2 -2 2 0 1 0 2 -2 2 -2 
1 1 2 0 2 -3 1 -2 2 2 2 0 1 0 2 -1 
2 0 2 0 1 -1 2 0 2 0 1 0 2 -1 2 0 
1 1 2 0 2 -1 2 0 1 1 2 1 2 1 1 0 
2 1 2 1 1 0 2 1 2 0 1 1 2 0 2 -1 
2 1 1 0 2 1 2 0 1 1 2 -1 2 0 1 1 
2 0 2 0 2 0 1 1 2 0 2 -1 1 1 2 1 
2 -1 1 2 2 1 2 1 2 1 1 1 2 1 2 2 
1 1 2 1 2 1 1 2 2 1 2 1 1 1 2 1 
2 2 2 1 1 1 2 2 2 2 1 1 2 1 2 1 
1 2 2 2 2 0 2 2 1 2 2 2 2 1 1 2 
2 2 2 1 1 1 2 2 2 2 1 2 2 2 2 1 
2 2 1 1 2 1 2 2 1 1 2 2 2 1 1 2 
2 2 2 2 2 2 1 1 2 1 2 2 1 1 2 1 
2 1 1 1 2 1 2 2 2 1 1 0 2 1 2 1 
1 1 2 1 2 1 1 0 2 2 2 0 1 1 2 2 
2 1 2 1 1 0 2 1 2 1 1 2 2 1 2 2 
1 1 2 1 2 1 2 1 1 0 2 0 2 2 1 2 
2 0 2 0 1 0 2 1 2 -1 1 0 2 1 2 1 
2 0 1 0 2 -1 1986 1373 300 MP stroke
2 0 1 0 2 0 2 0 1 0 2 1 2 0 2 -1 
1 1 2 0 2 -1 1 0 2 1 2 0 1 -1 2 0 
2 1 1 0 2 1 2 0 2 1 1 1 2 2 2 1 
1 2 2 1 2 1 1 2 2 2 2 2 2 2 1 1 
2 2 2 2 1 1 2 2 2 2 1 2 2 1 2 3 
2 2 1 2 2 2 2 2 1 2 2 2 2 2 1 2 
2 2 2 2 1 1 2 2 2 2 2 1 1 1 2 2 
2 1 1 2 2 2 2 1 1 1 2 2 2 1 2 1 
1 2 2 1 2 2 1 2 2 1 2 1 1 1 2 0 
2 1 1 0 2 1 2 0 2 0 1 2 2 0 2 0 
1 1 2 0 2 0 1 0 2 0 2 0 2 0 1 -1 
2 0 2 0 1 -1 2 -1 2 0 1 0 2 -2 2 0 
1 1 2 -1 2 1 2 -1 1 0 2 -1 2 0 1 -1 
2 -1 2 0 1 -1 2 -1 2 -1 2 -2 1 -1 2 -1 
2 -2 1 -1 2 -1 2 -1 1 -1 2 1 2 1 2 1 
1 0 2 1 2 1 1 1 2 1 2 1 1 1 2 1 
2 2 1 2 2 1 2 1 2 1 1 1 2 2 2 1 
1 1 2 1 2 1 1 1 2 1 2 3 2 1 1 0 
2 1 2 2 1 1 2 0 2 0 1 2 2 1 2 1 
1 2 2 2 2 1 2 1 1 2 2 1 2 1 1 1 
2 2 2 1 1 1 2 1 2 2 2 1 1 1 2 1 
2 2 1 2 2 1 2 1 1 2 2 1 2 0 1 1 
2 2 2 1 2 0 1 1 2 2 2 2 1 1 2 1 
2 2 1 1 2 2 2 2 2 1 1 2 2 1 2 2 
1 1 2 1 2 2 1 1 2 1 2 1 2 1 1 1 
2 2 2 1 1 0 2 3 2 2 1 1 2 1 2 2 
1 1 2 2 2 1 2 1 1 1 2 1 2 1 1 0 
2 1 2 0 1 1 2 1 2 1 2 0 1 1 2 1 
2 1 1 0 2 1 2 1 1 -1 2 0 2 1 1 1 
2 0 2 0 2 0 1 0 2 1 2 1 1 0 2 0 
2 -1 1 0 2 1 2 0 2 -1 1 0 2 -1 2 -1 
1 0 2 -1 2 0 1 -1 2 0 2 0 1 -1 2 -1 
2 0 2 1 1 1 2 1 2 1 1 1 2 1 2 1 
1 0 2 1 2 2 2 1 1 0 2 1 2 1 1 1 
2 1 2 1 1 1 2 0 2 0 2 1 1 1 2 0 
2 -1 1 0 2 0 2 -1 1 0 2 -1 2 0 1 0 
2 0 2 -2 2 0 1 1 2 0 2 -3 1 3 2 1 
2 1 1 1 2 1 1479 1159 300 MP stroke
2 2 2 1 1 2 2 1 2 2 1 2 2 1 2 2 
1 2 2 1 2 3 1 2 2 2 2 1 2 3 1 2 
2 2 2 0 1 2 2 3 2 1 1 1 2 2 2 1 
2 0 1 1 2 2 2 1 1 0 2 1 2 1 1 1 
2 1 2 1 1 1 2 0 2 1 2 1 1 -1 2 0 
2 0 1 0 2 -3 2 -1 1 1 2 -1 2 -3 2 -1 
1 1 2 2 2 -1 1 0 2 2 2 1 1 0 2 1 
2 1 2 2 1 2 2 0 2 1 1 2 2 1 2 0 
1 1 2 3 2 1 1 0 2 1 2 2 2 1 1 1 
2 2 2 2 1 1 2 2 2 2 1 2 2 0 2 1 
2 2 1 0 2 2 2 0 1 2 2 1 2 0 1 1 
2 2 2 0 1 0 2 0 2 1 2 0 1 0 2 0 
2 -1 1 0 2 -1 2 -2 1 -3 2 0 2 -1 2 -4 
1 -3 2 1 2 -1 1 0 2 0 2 1 1 -1 2 0 
2 1 1 1 2 -1 2 1 2 2 1 0 2 -1 2 1 
1 1 2 -1 2 -2 1 0 2 0 2 -1 2 0 1 1 
2 -1 2 -2 1 0 2 2 2 -3 1 -3 2 2 2 1 
2 0 1 0 2 0 2 0 1 -1 2 1 2 0 1 -1 
2 -1 2 1 1 0 2 -2 2 -1 2 0 1 -1 2 -2 
2 -2 1 -2 2 0 2 -2 1 -4 2 -1 2 -2 2 -1 
1 -2 2 -1 2 -1 1 -1 2 -2 2 -2 1 -1 2 -2 
2 -1 1 -2 2 -2 2 -2 2 -3 1 -3 2 -2 2 -3 
1 -3 2 -3 2 -4 1 -5 2 -3 2 -4 2 -5 1 -6 
2 -4 2 -5 1 -6 2 -8 2 -5 1 -6 2 -9 2 -9 
1 -4 2 -4 2 -4 2 -5 1 -5 2 -5 2 -5 1 -5 
2 -6 2 -5 1 -6 2 -6 2 -6 2 -6 1 -7 2 -4 
2 -6 1 -7 2 -6 2 -6 1 -7 2 -7 2 -8 2 -7 
1 -7 2 -7 2 -9 1 -7 2 -8 2 -8 1 -9 2 -9 
2 -9 1 -8 2 -9 2 -9 2 -9 1 -8 2 -9 2 -9 
1 -9 2 -9 2 -9 1 -10 2 -9 2 -10 2 -10 1 -11 
2 -10 2 -10 1 -10 2 -11 2 -10 1 -11 2 -11 2 -11 
1 -11 2 -12 2 -11 2 -12 1 -12 2 -13 2 -12 1 -12 
2 -13 2 -13 1 -12 2 -14 2 -13 2 -14 1 -14 2 -14 
2 -14 1 -15 2 -14 2 -15 1 -15 2 -14 2 -15 1 -15 
2 -16 2 -15 2 -15 1 -16 2 -15 2 -16 1 -16 2 -17 
2 -16 1 -17 2 -17 2 -17 2 -18 1 -17 2 -18 2 -18 
1 -19 2 -18 2 -19 1 -19 2 -18 2 -19 2 -20 1 -19 
2 -19 2 -19 1 -20 972 2444 300 MP stroke
2 -19 2 -20 1 -20 2 -19 2 -20 1 -20 2 -20 2 -21 
2 -20 1 -20 2 -21 2 -20 1 -21 2 -21 2 -20 1 -21 
2 -21 2 -20 2 -21 1 -21 2 -21 2 -20 1 -21 2 -21 
2 -21 1 -20 2 -20 2 -21 1 -20 2 -21 2 -21 2 -20 
1 -19 2 -20 2 -20 1 -20 2 -20 2 -19 1 -19 2 -19 
2 -20 2 -19 1 -19 2 -18 2 -18 1 -19 2 -18 2 -18 
1 -17 2 -17 2 -16 1 -17 2 -17 2 -16 2 -16 1 -15 
2 -15 2 -14 1 -15 2 -14 2 -14 1 -13 2 -13 2 -12 
2 -12 1 -12 2 -12 2 -12 1 -12 2 -10 2 -11 1 -10 
2 -10 2 -11 2 -9 1 -10 2 -9 2 -8 1 -9 2 -8 
2 -9 1 -9 2 -8 2 -8 1 -8 2 -8 2 -7 2 -7 
1 -8 2 -7 2 -7 1 -7 2 -7 2 -6 1 -6 2 -6 
2 -6 2 -5 1 -5 2 -4 2 -4 1 -3 2 -2 2 -2 
1 -3 2 -2 2 -2 1 -2 2 -2 2 -1 2 -2 1 -1 
2 -2 2 -1 1 -2 2 -1 2 -2 1 -1 2 -1 2 -2 
2 -1 1 -1 2 -2 2 -1 1 -1 2 -1 2 -1 1 -1 
2 -1 2 -1 1 -1 750 3996 132 MP stroke
gr

16.6667 w
0 sg
0.1 sg
%%IncludeResource: font Helvetica-Bold
/Helvetica-Bold /WindowsLatin1Encoding 183.333 FMSR

2010 4322 mt 
(Vertical Strain) s
 498 3132 mt  -90 rotate
(Vertical Stress [kPa]) s
90 rotate
gs 750 500 3751 3501 rc
/c8 { 1.000000 0.000000 0.000000 sr} bdef
c8
0 727 2 1 2 0 1 1 2 1 2 1 1 0 2 1 
2 2 2 1 1 1 2 0 2 2 1 0 2 1 2 1 
2 1 1 1 2 0 2 1 1 0 2 0 2 1 1 1 
2 1 2 1 2 1 1 1 2 2 2 1 1 1 2 1 
2 1 1 1 2 1 2 0 2 0 1 1 2 1 2 -1 
1 0 2 0 2 1 1 0 2 -1 2 2 2 0 1 1 
2 0 2 2 1 0 2 0 2 0 2 2 1 -1 2 0 
2 0 1 1 2 -1 2 -1 1 0 2 1 2 -1 2 -1 
1 0 2 0 2 0 1 -1 2 0 2 1 1 -2 2 -1 
2 1 2 1 1 -3 2 -2 2 1 1 2 2 -6 2 2 
1 2 2 0 2 -1 2 0 1 0 2 0 2 0 1 1 
2 1 2 1 2 -1 1 1 2 2 2 0 1 1 2 1 
2 0 1 0 2 0 2 1 2 2 1 0 2 0 2 1 
1 1 2 0 2 1 1 1 2 2 2 0 2 2 1 1 
2 2 2 0 1 1 2 1 2 1 1 1 2 0 2 1 
2 1 1 0 2 1 2 1 1 -1 2 0 2 0 2 2 
1 -1 2 1 2 1 1 0 2 -1 2 2 1 2 2 1 
2 0 2 1 1 1 2 1 2 0 1 1 2 1 2 0 
1 1 2 0 2 1 2 0 1 0 2 0 2 1 1 1 
2 1 2 0 1 0 2 1 2 0 2 1 1 0 2 1 
2 0 1 0 2 1 2 0 2 0 1 0 2 1 2 1 
1 0 2 1 2 2 1 0 2 0 2 2 2 1 1 2 
2 1 2 1 1 2 2 3 2 1 1 1 2 2 2 1 
2 1 1 2 2 1 2 1 1 1 2 1 2 2 1 1 
2 1 2 0 2 1 1 1 2 2 2 0 1 1 2 1 
2 1 2 0 1 1 2 2 2 0 1 1 2 1 2 2 
1 0 2 1 2 1 2 2 1 1 2 1 2 2 1 2 
2 1 2 1 1 2 2 0 2 1 2 1 1 0 2 1 
2 1 1 2 2 1 2 1 1 2 2 4 2 1 2 0 
1 1 2 1 2 0 1 0 2 2 2 1 2 0 1 0 
2 -1 2 1 1 1 2 0 2 0 1 2 2 0 2 0 
2 1 1 1 2 1 2 1 1 1 2 1 2 1 1 1 
2 1 2 1 2 0 1 0 2 0 2 1 1 -1 2 1 
2 1 1 0 2 0 2 1 2 0 1 1 2 1 2 0 
1 1 2 1 2 1 2 0 1 1 2 0 2 1 1 0 
2 1 2 1 1 1 2 1 2 1 2 0 1 1 2 1 
2 1 1 1 2 1 2 1 1 2 2 2 2 1 2 2 
1 0 2 2 2 1 1781 1405 300 MP stroke
1 2 2 2 2 1 1 0 2 1 2 2 2 1 1 0 
2 1 2 1 1 0 2 1 2 0 2 1 1 1 2 1 
2 0 1 1 2 1 2 1 1 0 2 1 2 1 2 0 
1 0 2 0 2 1 1 0 2 -1 2 3 1 1 2 0 
2 1 2 3 1 1 2 -1 2 1 1 4 2 0 2 -1 
1 2 2 3 2 1 2 -1 1 2 2 1 2 1 1 2 
2 0 2 -1 2 -1 1 3 2 0 2 -3 1 -2 2 4 
2 1 1 1 2 1 2 0 2 2 1 2 2 1 2 1 
1 1 2 2 2 1 1 1 2 2 2 2 2 1 1 0 
2 2 2 1 1 1 2 0 2 1 1 0 2 2 2 0 
2 1 1 1 2 0 2 1 1 0 2 2 2 1 2 -1 
1 1 2 1 2 0 1 -1 2 0 2 0 1 1 2 -1 
2 0 2 1 1 1 2 0 2 0 1 0 2 0 2 0 
1 0 2 -1 2 0 2 1 1 0 2 0 2 0 1 0 
2 0 2 1 1 -1 2 0 2 1 2 0 1 0 2 1 
2 1 1 0 2 1 2 1 2 -1 1 1 2 2 2 1 
1 -1 2 -1 2 3 1 2 2 0 2 -1 2 0 1 1 
2 0 2 -1 1 1 2 0 2 0 1 0 2 0 2 1 
2 0 1 -1 2 0 2 0 1 0 2 0 2 0 1 1 
2 -1 2 0 2 1 1 0 2 -2 2 0 1 1 2 0 
2 -1 2 1 1 2 2 1 2 0 1 -1 2 0 2 1 
1 1 2 -1 2 0 2 0 1 0 2 0 2 0 1 0 
2 0 2 0 1 1 2 0 2 1 2 0 1 0 2 1 
2 0 1 -1 2 1 2 1 1 -1 2 0 2 0 2 1 
1 -1 2 0 2 0 1 1 2 0 2 0 2 2 1 1 
2 0 2 0 1 1 2 0 2 0 1 0 2 1 2 1 
2 0 1 0 2 1 2 1 1 0 2 0 2 1 1 0 
2 1 2 0 2 1 1 0 2 1 2 -1 1 1 2 1 
2 -1 1 0 2 1 2 0 2 1 1 0 2 1 2 1 
1 0 2 1 2 0 2 1 1 0 2 0 2 0 1 1 
2 1 2 0 1 1 2 0 2 0 2 1 1 0 2 0 
2 0 1 1 2 0 2 -1 1 1 2 0 2 0 2 -1 
1 0 2 0 2 -1 1 0 2 0 2 -1 1 -1 2 -1 
2 0 2 0 1 -1 2 0 2 0 1 0 2 -1 2 0 
2 0 1 0 2 0 2 0 1 1 2 0 2 1 1 1 
2 2 2 1 2 0 1 0 2 2 2 1 1 1 2 0 
2 -1 1 0 2 1 2 0 2 0 1 -1 2 0 2 0 
1 -1 2 -1 2 -1 1272 1288 300 MP stroke
1 0 2 0 2 0 2 0 1 -1 2 0 2 -1 1 0 
2 0 2 -1 2 -2 1 -1 2 0 2 -2 1 0 2 -1 
2 -2 1 -1 2 -2 2 -1 2 -1 1 -1 2 -3 2 -2 
1 0 2 0 2 -2 1 -2 2 -1 2 0 2 -3 1 -2 
2 -1 2 0 1 -1 2 -2 2 0 1 0 2 -1 2 -1 
2 -1 1 0 2 -1 2 0 1 -1 2 -1 2 0 2 0 
1 -1 2 -1 2 0 1 -1 2 -1 2 -1 1 0 2 -1 
2 -2 2 -1 1 -2 2 -2 2 -1 1 -1 2 -2 2 -2 
1 -1 2 -3 2 -2 2 -2 1 -3 2 -2 2 -3 1 -3 
2 -3 2 -2 1 -3 2 -3 2 -3 2 -4 1 -3 2 -4 
2 -4 1 -4 2 -4 2 -3 2 -4 1 -3 2 -4 2 -3 
1 -3 2 -3 2 -4 1 -4 2 -4 2 -4 2 -3 1 -3 
2 -4 2 -4 1 -3 2 -5 2 -5 1 -5 2 -4 2 -5 
2 -5 1 -4 2 -5 2 -5 1 -5 2 -5 2 -5 1 -6 
2 -6 2 -5 2 -6 1 -6 2 -6 2 -6 1 -5 2 -7 
2 -6 2 -7 1 -6 2 -7 2 -7 1 -7 2 -7 2 -8 
1 -7 2 -9 2 -7 2 -8 1 -8 2 -8 2 -8 1 -8 
2 -8 2 -8 1 -9 2 -8 2 -9 2 -10 1 -8 2 -10 
2 -9 1 -9 2 -10 2 -10 1 -10 2 -11 2 -11 2 -11 
1 -11 2 -12 2 -11 1 -12 2 -11 2 -12 2 -13 1 -11 
2 -12 2 -12 1 -12 2 -13 2 -12 1 -13 2 -13 2 -13 
2 -13 1 -13 2 -14 2 -14 1 -14 2 -13 2 -14 1 -15 
2 -15 2 -15 2 -14 1 -16 2 -15 2 -15 1 -16 2 -15 
2 -15 1 -16 2 -15 2 -16 2 -15 1 -16 2 -15 2 -16 
1 -17 2 -16 2 -17 2 -16 1 -17 2 -17 2 -16 1 -17 
2 -17 2 -18 1 -17 2 -17 2 -17 2 -18 1 -17 2 -18 
2 -18 1 -18 2 -18 2 -17 1 -19 2 -18 2 -18 2 -18 
1 -18 2 -18 2 -19 1 -19 2 -18 2 -19 1 -20 2 -19 
2 -19 2 -19 1 -20 2 -19 2 -19 1 -19 2 -19 2 -19 
2 -19 1 -19 2 -18 2 -19 1 -18 2 -19 2 -18 1 -18 
2 -18 2 -18 2 -18 1 -18 2 -17 2 -18 1 -17 2 -18 
2 -17 1 -17 2 -17 2 -17 2 -17 1 -17 2 -17 2 -16 
1 -16 2 -16 2 -16 1 -15 2 -16 2 -15 2 -14 1 -15 
2 -15 2 -15 1 -14 2 -14 2 -13 2 -14 1 -13 2 -13 
2 -13 1 -12 2 -11 2 -12 1 -10 2 -11 2 -9 2 -9 
1 -10 2 -8 2 -8 1 -8 2 -8 2 -8 1 -7 2 -8 
2 -7 2 -7 1 -6 2 -7 2 -6 1 -5 2 -6 2 -5 
1 -4 2 -4 2 -3 763 3979 300 MP stroke
2 -3 1 -3 2 -3 2 -2 1 -2 2 -2 2 -1 1 -1 
750 3996 9 MP stroke
/c9 { 0.000000 0.000000 1.000000 sr} bdef
c9
2 0 1 0 2 -1 2 -1 1 0 2 -1 2 -1 2 0 
1 -1 2 0 2 0 1 -1 2 -1 2 1 1 -1 2 0 
2 0 2 2 1 1 2 0 2 -1 1 0 2 0 2 0 
1 -1 2 0 2 -1 2 1 1 0 2 0 2 -1 1 2 
2 1 2 0 1 0 2 0 2 1 1 0 2 0 2 0 
2 0 1 0 2 1 2 -1 1 0 2 1 2 0 1 -1 
2 0 2 1 2 0 1 -2 2 1 2 1 1 1 2 0 
2 1 1 0 2 1 2 0 2 2 1 0 2 -1 2 2 
1 1 2 1 2 1 1 2 2 1 2 2 2 0 1 1 
2 1 2 1 1 1 2 1 2 1 1 -1 2 1 2 1 
2 0 1 0 2 1 2 2 1 1 2 0 2 1 1 1 
2 0 2 1 2 1 1 1 2 0 2 1 1 0 2 4 
2 0 1 1 2 1 2 1 2 0 1 1 2 2 2 0 
1 1 2 2 2 1 1 1 2 1 2 1 2 2 1 1 
2 1 2 1 1 1 2 2 2 0 1 1 2 1 2 1 
1 1 2 2 2 1 2 1 1 1 2 1 2 1 1 1 
2 1 2 -1 1 2 2 2 2 0 2 0 1 2 2 0 
2 0 1 0 2 1 2 0 1 -1 2 0 2 1 2 0 
1 -1 2 0 2 2 1 0 2 -1 2 2 1 2 2 1 
2 0 2 0 1 2 2 1 2 0 1 1 2 1 2 1 
1 2 2 -1 2 1 2 1 1 1 2 0 2 1 1 0 
2 -1 2 0 1 2 2 -1 2 0 2 0 1 0 2 1 
2 0 1 1 2 1 2 -2 1 -2 2 2 2 2 2 1 
1 -1 2 3 2 0 1 -1 2 3 2 1 1 1 2 1 
2 1 2 2 1 0 2 0 2 1 1 0 2 1 2 1 
1 0 2 0 2 2 1 2 2 1 2 0 2 0 1 1 
2 2 2 0 1 -1 2 2 2 2 1 -2 2 2 2 1 
2 2 1 1 2 -1 2 3 1 1 2 0 2 1 1 2 
2 1 2 0 2 0 1 1 2 1 2 0 1 0 2 1 
2 2 1 0 2 1 2 0 2 1 1 0 2 0 2 0 
1 1 2 1 2 0 1 0 2 1 2 0 2 -1 1 0 
2 2 2 1 1 1 2 1 2 0 1 1 2 1 2 2 
2 0 1 0 2 -1 2 2 1 1 2 -1 2 0 1 2 
2 0 2 -1 2 0 1 1 2 2 2 -1 1 -1 2 1 
2 1 1 -1 2 0 2 2 2 -1 1 -1 2 0 2 1 
1 -1 2 2 2 -1 1 0 2 0 2 -1 1 -1 2 -2 
2 -1 2 1 1 -1 2 -1 2 0 1 0 2 -1 2 -1 
1 0 2 -1 2 -2 2032 1409 300 MP stroke
2 1 1 1 2 -2 2 1 1 1 2 1 2 0 1 1 
2 -2 2 2 2 1 1 0 2 0 2 1 1 1 2 0 
2 0 1 1 2 1 2 1 2 0 1 0 2 1 2 0 
1 0 2 1 2 1 1 -1 2 1 2 0 2 1 1 0 
2 0 2 2 1 0 2 0 2 1 1 -1 2 1 2 1 
2 1 1 -1 2 0 2 0 1 1 2 0 2 0 1 3 
2 1 2 0 2 0 1 -1 2 0 2 0 1 0 2 1 
2 -1 1 1 2 -1 2 2 2 -1 1 -1 2 3 2 1 
1 1 2 0 2 -1 1 1 2 2 2 2 2 1 1 1 
2 1 2 0 1 0 2 0 2 2 1 2 2 0 2 1 
1 1 2 2 2 0 2 1 1 3 2 3 2 1 1 0 
2 0 2 1 1 2 2 1 2 0 2 0 1 0 2 0 
2 1 1 -1 2 1 2 1 1 0 2 0 2 0 2 0 
1 0 2 0 2 1 1 0 2 0 2 0 1 1 2 0 
2 -1 2 0 1 -1 2 0 2 0 1 0 2 1 2 2 
1 -2 2 2 2 0 2 1 1 2 2 1 2 0 1 -1 
2 0 2 1 1 -2 2 2 2 1 2 0 1 1 2 0 
2 0 1 0 2 1 2 1 1 -1 2 0 2 0 2 0 
1 0 2 1 2 0 1 1 2 2 2 0 1 1 2 0 
2 0 2 1 1 0 2 0 2 1 1 1 2 1 2 -1 
1 1 2 2 2 0 1 0 2 1 2 1 2 0 1 0 
2 1 2 1 1 1 2 1 2 0 1 0 2 2 2 1 
2 0 1 1 2 1 2 2 1 0 2 1 2 2 1 1 
2 2 2 1 2 2 1 -1 2 3 2 3 1 1 2 0 
2 1 1 2 2 2 2 1 2 0 1 3 2 1 2 0 
1 1 2 2 2 3 1 -3 2 4 2 6 2 0 1 1 
2 2 2 1 1 2 2 1 2 1 1 2 2 2 2 0 
2 0 1 1 2 1 2 1 1 1 2 0 2 2 1 1 
2 2 2 1 2 1 1 0 2 2 2 3 1 0 2 -1 
2 0 1 2 2 2 2 -1 2 0 1 1 2 1 2 1 
1 0 2 1 2 1 1 0 2 1 2 0 1 -1 2 1 
2 1 2 2 1 0 2 1 2 2 1 1 2 2 2 2 
1 2 2 1 2 1 2 2 1 1 2 0 2 0 1 2 
2 1 2 -1 1 0 2 3 2 1 2 -1 1 1 2 1 
2 0 1 1 2 2 2 0 1 2 2 0 2 0 2 0 
1 1 2 0 2 -1 1 -1 2 2 2 0 1 -3 2 0 
2 2 2 1 1 -1 2 0 2 1 1 1 2 -1 2 -1 
1 1 2 0 2 -1 1524 1215 300 MP stroke
2 -1 1 -2 2 1 2 0 1 -1 2 0 2 -1 1 0 
2 -1 2 -2 2 -1 1 -2 2 -3 2 1 1 1 2 -3 
2 1 1 3 2 1 2 1 2 0 1 0 2 -1 2 2 
1 1 2 0 2 1 1 0 2 0 2 -1 1 0 2 0 
2 -1 2 -1 1 -1 2 0 2 -1 1 -1 2 -1 2 -1 
1 -1 2 -3 2 -1 2 0 1 -1 2 1 2 0 1 -1 
2 0 2 1 1 0 2 0 2 1 2 1 1 0 2 0 
2 0 1 1 2 0 2 -1 1 -1 2 -1 2 0 2 0 
1 0 2 -1 2 -1 1 -1 2 -1 2 -1 1 0 2 0 
2 -1 2 0 1 -2 2 -2 2 -1 1 0 2 -1 2 -2 
1 1 2 -1 2 -3 2 -2 1 -1 2 0 2 -1 1 0 
2 -1 2 -1 1 -2 2 -1 2 -1 2 -2 1 -1 2 -1 
2 -1 1 -1 2 -2 2 -2 1 -1 2 -2 2 0 2 -1 
1 -2 2 -2 2 -1 1 -1 2 -2 2 -1 1 -1 2 0 
2 -2 2 -1 1 -1 2 -2 2 -2 1 -2 2 -2 2 -2 
1 -2 2 -3 2 -1 1 -2 2 -3 2 -2 2 -2 1 -3 
2 -4 2 -3 1 -4 2 -5 2 -3 1 -2 2 -2 2 -1 
2 -2 1 -3 2 -1 2 -2 1 -2 2 -2 2 -2 1 -3 
2 -3 2 -3 2 -2 1 -3 2 -2 2 -3 1 -2 2 -2 
2 -3 1 -4 2 -3 2 -2 2 -3 1 -4 2 -4 2 -3 
1 -1 2 -4 2 -3 1 -4 2 -4 2 -4 2 -3 1 -4 
2 -4 2 -4 1 -4 2 -5 2 -4 1 -3 2 -4 2 -3 
2 -5 1 -1 2 -4 2 -4 1 -3 2 -2 2 -2 1 -2 
2 -3 2 -4 2 -2 1 -4 2 -4 2 -3 1 -3 2 -4 
2 -3 1 -4 2 -4 2 -5 2 -5 1 -4 2 -5 2 -5 
1 -5 2 -6 2 -5 1 -5 2 -6 2 -5 1 -6 2 -6 
2 -5 2 -5 1 -7 2 -6 2 -5 1 -6 2 -5 2 -6 
1 -6 2 -6 2 -6 2 -7 1 -7 2 -6 2 -7 1 -6 
2 -7 2 -6 1 -7 2 -6 2 -8 2 -7 1 -6 2 -7 
2 -7 1 -7 2 -7 2 -8 1 -7 2 -8 2 -8 2 -7 
1 -8 2 -8 2 -8 1 -7 2 -8 2 -9 1 -8 2 -8 
2 -8 2 -9 1 -8 2 -9 2 -9 1 -9 2 -9 2 -9 
1 -9 2 -9 2 -9 2 -10 1 -10 2 -9 2 -10 1 -9 
2 -9 2 -10 1 -10 2 -9 2 -9 2 -12 1 -9 2 -9 
2 -10 1 -10 2 -10 2 -10 1 -10 2 -9 2 -10 2 -11 
1 -10 2 -10 2 -11 1 -11 2 -11 2 -9 1 -11 2 -12 
2 -11 1 -10 2 -11 2 -11 2 -11 1 -12 2 -11 2 -11 
1 -12 2 -12 2 -12 1016 2374 300 MP stroke
1 -12 2 -13 2 -12 2 -14 1 -13 2 -13 2 -13 1 -13 
2 -14 2 -14 1 -14 2 -13 2 -14 2 -15 1 -14 2 -14 
2 -13 1 -14 2 -14 2 -15 1 -14 2 -15 2 -14 2 -15 
1 -15 2 -14 2 -15 1 -15 2 -15 2 -14 1 -15 2 -14 
2 -15 2 -14 1 -15 2 -15 2 -14 1 -15 2 -14 2 -15 
1 -15 2 -14 2 -15 2 -14 1 -15 2 -15 2 -14 1 -14 
2 -15 2 -14 1 -15 2 -14 2 -15 2 -14 1 -14 2 -15 
2 -14 1 -15 2 -14 2 -15 1 -14 2 -14 2 -15 2 -14 
1 -14 2 -14 2 -14 1 -14 2 -14 2 -14 1 -14 2 -14 
2 -14 1 -13 2 -14 2 -13 2 -14 1 -13 2 -13 2 -13 
1 -13 2 -13 2 -13 1 -13 2 -12 2 -12 2 -12 1 -12 
2 -11 2 -12 1 -11 2 -12 2 -11 1 -10 2 -11 2 -10 
2 -11 1 -10 2 -10 2 -10 1 -9 2 -10 2 -9 1 -9 
2 -9 2 -9 2 -8 1 -8 2 -8 2 -7 1 -8 2 -8 
2 -8 1 -7 2 -7 2 -6 2 -7 1 -6 2 -7 2 -6 
1 -5 2 -6 2 -5 1 -5 2 -6 2 -5 2 -5 1 -4 
2 -5 2 -5 1 -4 2 -4 2 -4 1 -4 2 -3 2 -4 
2 -3 1 -2 2 -3 2 -2 1 -2 2 -2 2 -2 1 -2 
2 -2 2 -2 2 -1 1 -1 2 -1 2 -2 1 -1 2 -1 
2 -1 1 -1 2 -1 2 -1 1 -1 750 3996 158 MP stroke
/c10 { 1.000000 0.000000 1.000000 sr} bdef
c10
2 -4 2 2 2 4 1 -1 2 -2 2 2 1 1 2 -2 
2 0 2 2 1 0 2 -2 2 0 1 2 2 0 2 -3 
2 -2 1 2 2 2 2 -2 2 0 1 2 2 1 2 1 
1 0 2 -1 2 -2 2 0 1 2 2 -1 2 -6 1 3 
2 3 2 -2 2 0 1 5 2 2 2 -2 1 -2 2 3 
2 5 2 0 1 -3 2 2 2 4 2 1 1 2 2 0 
2 0 1 1 2 0 2 -2 2 0 1 1 2 -1 2 1 
1 0 2 -2 2 -1 2 1 1 0 2 -3 2 -3 1 3 
2 3 2 1 2 1 1 -1 2 0 2 -1 2 1 1 1 
2 -1 2 0 1 0 2 3 2 0 2 -3 1 -2 2 3 
2 5 1 2 2 1 2 -1 2 -1 1 1 2 1 2 1 
1 0 2 2 2 -1 2 -1 1 1 2 0 2 0 2 1 
1 -1 2 0 2 1 1 0 2 -2 2 -1 2 3 1 3 
2 -1 2 -6 1 2 2 3 2 1 2 0 1 0 2 -1 
2 2 1 2 2 0 2 -1 2 -1 1 1 2 2 2 1 
2 0 1 0 2 1 2 1 1 -1 2 -1 2 2 2 1 
1 -1 2 -5 2 1 1 7 2 0 2 -1 2 1 1 1 
2 1 2 -2 1 0 2 1 2 1 2 -1 1 -1 2 1 
2 1 2 -1 1 0 2 -1 2 2 1 2 2 -3 2 -5 
2 3 1 1 2 0 2 1 1 1 2 0 2 -2 2 -1 
1 0 2 0 2 0 1 -2 2 -1 2 1 2 -1 1 -3 
2 -1 2 4 2 0 1 -6 2 -6 2 6 1 4 2 -4 
2 -4 2 4 1 3 2 -6 2 -10 1 6 2 9 2 1 
2 -1 1 -1 2 0 2 1 1 1 2 -1 2 0 2 0 
1 0 2 -1 2 0 2 1 1 0 2 1 2 -1 1 0 
2 2 2 1 2 1 1 0 2 0 2 3 1 2 2 0 
2 2 2 6 1 2 2 -3 2 4 1 6 2 1 2 2 
2 0 1 1 2 0 2 1 2 0 1 2 2 2 2 1 
1 2 2 3 2 2 2 1 1 2 2 2 2 2 1 1 
2 1 2 1 2 1 1 2 2 1 2 1 1 -1 2 3 
2 1 2 0 1 1 2 2 2 2 2 2 1 2 2 1 
2 1 1 2 2 1 2 2 2 1 1 1 2 2 2 1 
1 1 2 1 2 2 2 3 1 2 2 0 2 0 1 1 
2 3 2 1 2 2 1 5 2 0 2 2 2 2 1 1 
2 1 2 -2 1 2 2 2 2 1 2 1 1 1 2 2 
2 0 1 0 2 2 2 1 2 1 1 0 2 1 2 2 
1 -1 2 -2 2 4 2 1 1 0 2 2 2 1 2 -5 
1 0 2 6 2 3 2691 1344 300 MP stroke
1 0 2 -1 2 1 2 1 1 -2 2 -1 2 2 1 1 
2 1 2 -2 2 1 1 1 2 -2 2 1 1 0 2 3 
2 3 2 1 1 0 2 -1 2 -1 2 1 1 1 2 -3 
2 -3 1 5 2 3 2 -8 2 -5 1 8 2 7 2 0 
1 2 2 1 2 2 2 0 1 -1 2 0 2 1 1 0 
2 0 2 0 2 0 1 -1 2 0 2 2 2 0 1 2 
2 -2 2 0 1 3 2 1 2 -1 2 1 1 2 2 -1 
2 0 1 0 2 1 2 -1 2 0 1 1 2 2 2 2 
1 -2 2 -1 2 5 2 1 1 0 2 2 2 1 2 0 
1 1 2 4 2 0 1 -3 2 3 2 4 2 2 1 -1 
2 1 2 2 1 0 2 0 2 3 2 -1 1 -2 2 7 
2 -1 1 0 2 2 2 1 2 -1 1 -1 2 1 2 -1 
2 0 1 1 2 -2 2 -2 1 0 2 -1 2 2 2 0 
1 0 2 1 2 1 1 -1 2 1 2 -1 2 -3 1 1 
2 2 2 -2 1 -2 2 3 2 1 2 0 1 2 2 -1 
2 2 2 1 1 -1 2 0 2 2 1 -1 2 -1 2 1 
2 1 1 0 2 0 2 0 1 1 2 0 2 0 2 1 
1 3 2 4 2 -2 1 -2 2 4 2 4 2 4 1 2 
2 1 2 1 2 -1 1 2 2 2 2 1 1 2 2 -1 
2 -1 2 2 1 1 2 1 2 0 1 1 2 -1 2 -1 
2 2 1 0 2 0 2 -1 1 1 2 0 2 0 2 1 
1 2 2 0 2 1 2 3 1 0 2 0 2 1 1 0 
2 0 2 0 2 0 1 -1 2 -1 2 1 1 2 2 -4 
2 2 2 3 1 -1 2 -1 2 0 1 0 2 1 2 3 
2 0 1 0 2 1 2 0 2 -1 1 0 2 1 2 0 
1 -1 2 1 2 2 2 -2 1 1 2 1 2 -1 1 0 
2 0 2 2 2 1 1 1 2 1 2 1 1 0 2 -1 
2 2 2 2 1 -2 2 -1 2 5 2 0 1 0 2 0 
2 1 1 0 2 1 2 1 2 0 1 0 2 0 2 1 
1 -1 2 1 2 0 2 -2 1 1 2 1 2 -2 1 0 
2 -1 2 3 2 1 1 1 2 1 2 0 2 0 1 1 
2 1 2 -2 1 -1 2 2 2 2 2 0 1 0 2 2 
2 -1 1 0 2 -1 2 0 2 0 1 -1 2 0 2 1 
1 0 2 1 2 -3 2 0 1 1 2 0 2 -1 2 -1 
1 0 2 0 2 -2 1 -2 2 -1 2 0 2 -3 1 -1 
2 0 2 0 1 0 2 0 2 -1 2 2 1 2 2 -1 
2 -2 1 0 2 2 2 0 2 1 1 2 2 0 2 0 
2 1 1 -1 2 1 2177 1227 300 MP stroke
2 -2 1 0 2 -1 2 0 2 -2 1 -2 2 0 2 -1 
1 -1 2 0 2 1 2 0 1 2 2 0 2 -1 1 1 
2 -1 2 -1 2 0 1 0 2 1 2 1 2 -1 1 -1 
2 0 2 1 1 0 2 1 2 -1 2 -1 1 1 2 0 
2 -1 1 1 2 0 2 -1 2 1 1 1 2 1 2 1 
1 0 2 1 2 -1 2 -1 1 0 2 1 2 0 2 1 
1 -3 2 -1 2 2 1 3 2 0 2 4 2 1 1 -1 
2 2 2 2 1 0 2 -1 2 2 2 1 1 -1 2 -1 
2 4 1 0 2 2 2 3 2 0 1 -1 2 0 2 0 
2 2 1 1 2 0 2 1 1 0 2 -2 2 1 2 0 
1 -1 2 -2 2 2 1 2 2 -1 2 0 2 1 1 1 
2 -3 2 -1 1 0 2 2 2 -1 2 -2 1 0 2 2 
2 -1 1 -1 2 -1 2 1 2 -2 1 -2 2 3 2 -1 
2 -4 1 2 2 0 2 1 1 0 2 -3 2 1 2 1 
1 -2 2 -1 2 1 1 2 2 -1 2 -4 2 -1 1 4 
2 -1 2 -1 1 2 2 2 2 0 2 -1 1 1 2 -2 
2 1 2 2 1 0 2 -1 2 0 1 0 2 0 2 -1 
2 2 1 1 2 -1 2 2 1 2 2 -2 2 0 2 1 
1 -1 2 -1 2 0 1 -1 2 -1 2 0 2 0 1 -2 
2 0 2 1 2 -1 1 0 2 -1 2 1 1 0 2 0 
2 -3 2 -2 1 4 2 0 2 0 1 0 2 1 2 0 
2 -1 1 1 2 1 2 -3 1 -1 2 2 2 2 2 0 
1 -1 2 2 2 0 2 -1 1 -1 2 2 2 5 1 0 
2 0 2 1 2 -2 1 1 2 0 2 0 1 -1 2 -1 
2 -3 2 -2 1 0 2 -1 2 0 1 -2 2 -1 2 1 
2 -1 1 0 2 0 2 1 2 1 1 -1 2 1 2 0 
1 -2 2 1 2 3 2 1 1 0 2 0 2 -1 1 -1 
2 1 2 -1 2 0 1 0 2 0 2 -1 1 -1 2 0 
2 0 2 -1 1 -2 2 0 2 -1 2 1 1 1 2 -2 
2 1 1 1 2 0 2 3 2 4 1 1 2 -1 2 0 
1 2 2 0 2 -1 2 1 1 2 2 0 2 0 1 -1 
2 1 2 1 2 -1 1 0 2 1 2 1 2 0 1 0 
2 -1 2 -1 1 0 2 -2 2 -1 2 0 1 0 2 -3 
2 0 1 2 2 -1 2 1 2 0 1 -1 2 -1 2 1 
1 1 2 -1 2 -2 2 1 1 2 2 2 2 -2 2 2 
1 2 2 0 2 1 1 -1 2 -1 2 2 2 -3 1 1 
2 0 2 -2 1 1 2 -1 2 -2 2 2 1 1 2 1 
2 0 1 -2 2 0 1663 1216 300 MP stroke
2 1 2 -1 1 -1 2 1 2 0 2 -1 1 0 2 -1 
2 -2 1 0 2 -1 2 -1 2 -1 1 0 2 -2 2 -1 
1 -2 2 0 2 0 2 -1 1 2 2 0 2 -3 1 -2 
2 3 2 3 2 0 1 -4 2 -3 2 3 2 -1 1 0 
2 0 2 -1 1 -2 2 0 2 -2 2 -2 1 1 2 -1 
2 -1 1 -2 2 -2 2 -3 2 -2 1 1 2 0 2 -2 
1 -1 2 0 2 0 2 -2 1 0 2 0 2 -1 2 0 
1 -1 2 -1 2 -1 1 0 2 -3 2 -2 2 -2 1 0 
2 -3 2 -2 1 -2 2 -3 2 -2 2 -3 1 0 2 -3 
2 -3 1 -3 2 -1 2 -2 2 -1 1 -4 2 -1 2 0 
2 0 1 -2 2 -1 2 2 1 2 2 -3 2 -2 2 0 
1 0 2 -5 2 -2 1 -2 2 0 2 -1 2 -6 1 -3 
2 2 2 1 1 -2 2 -2 2 -1 2 0 1 -1 2 -3 
2 -3 2 -1 1 -1 2 -3 2 -4 1 0 2 -2 2 1 
2 0 1 -5 2 -3 2 -3 1 -1 2 -2 2 -3 2 -2 
1 -2 2 -3 2 -4 1 -3 2 -2 2 -3 2 -4 1 -4 
2 0 2 -1 2 -3 1 -6 2 0 2 -1 1 -3 2 -3 
2 -2 2 -2 1 2 2 -2 2 -2 1 -3 2 -3 2 -2 
2 0 1 -3 2 -1 2 -2 1 -2 2 -3 2 -2 2 -2 
1 -4 2 -4 2 0 2 -1 1 -4 2 -2 2 -3 1 -2 
2 -3 2 -4 2 -4 1 -1 2 -3 2 -5 1 -4 2 -4 
2 -2 2 -3 1 -3 2 -3 2 -3 1 -4 2 -4 2 -3 
2 -2 1 -2 2 -4 2 -4 2 -1 1 -2 2 -5 2 -3 
1 -3 2 -3 2 -3 2 -5 1 -3 2 -2 2 -4 1 -3 
2 -4 2 -3 2 -3 1 -4 2 -2 2 -4 1 -5 2 -1 
2 -1 2 -2 1 -5 2 -2 2 -3 2 -2 1 -2 2 -4 
2 -5 1 -2 2 -2 2 -4 2 -2 1 -5 2 -4 2 -2 
1 -2 2 -4 2 -4 2 -5 1 -2 2 -3 2 -5 1 -4 
2 -3 2 -4 2 -3 1 -4 2 -3 2 -5 2 -6 1 -3 
2 -4 2 -4 1 -5 2 -6 2 -5 2 -4 1 -4 2 -5 
2 -7 1 -1 2 -5 2 -5 2 -4 1 -5 2 -5 2 -4 
1 -5 2 -5 2 -6 2 -4 1 -5 2 -3 2 -6 2 -4 
1 -3 2 -5 2 -5 1 -5 2 -5 2 -4 2 -5 1 -5 
2 -5 2 -6 1 -5 2 -5 2 -6 2 -7 1 -4 2 -5 
2 -6 1 -7 2 -6 2 -5 2 -6 1 -5 2 -6 2 -7 
2 -6 1 -8 2 -5 2 -6 1 -8 2 -7 2 -7 2 -6 
1 -8 2 -8 2 -7 1 -6 2 -6 2 -10 2 -10 1 -3 
2 -3 2 -7 1 -8 1149 2051 300 MP stroke
2 -5 2 -7 2 -8 1 -8 2 -8 2 -5 2 -7 1 -8 
2 -8 2 -7 1 -5 2 -6 2 -8 2 -7 1 -3 2 -4 
2 -8 1 -9 2 -6 2 -3 2 -6 1 -7 2 -9 2 -7 
1 -7 2 -7 2 -8 2 -7 1 -9 2 -6 2 -6 2 -8 
1 -8 2 -8 2 -7 1 -7 2 -8 2 -9 2 -8 1 -8 
2 -8 2 -9 1 -8 2 -8 2 -8 2 -9 1 -10 2 -9 
2 -9 1 -7 2 -8 2 -9 2 -9 1 -7 2 -9 2 -8 
2 -8 1 -9 2 -9 2 -8 1 -9 2 -6 2 -9 2 -8 
1 -8 2 -9 2 -7 1 -9 2 -9 2 -7 2 -9 1 -8 
2 -8 2 -8 1 -9 2 -9 2 -8 2 -8 1 -9 2 -10 
2 -9 2 -9 1 -7 2 -10 2 -10 1 -8 2 -10 2 -8 
2 -9 1 -9 2 -9 2 -10 1 -9 2 -9 2 -10 2 -9 
1 -10 2 -9 2 -9 1 -9 2 -10 2 -9 2 -10 1 -10 
2 -9 2 -10 2 -10 1 -9 2 -10 2 -10 1 -9 2 -10 
2 -9 2 -10 1 -10 2 -10 2 -10 1 -9 2 -10 2 -10 
2 -10 1 -10 2 -10 2 -9 1 -10 2 -11 2 -9 2 -10 
1 -10 2 -10 2 -9 2 -11 1 -10 2 -10 2 -10 1 -9 
2 -9 2 -11 2 -10 1 -10 2 -11 2 -10 1 -10 2 -10 
2 -10 2 -10 1 -10 2 -10 2 -10 1 -10 2 -9 2 -10 
2 -11 1 -9 2 -10 2 -10 2 -10 1 -10 2 -10 2 -9 
1 -10 2 -10 2 -10 2 -10 1 -10 2 -10 2 -10 1 -10 
2 -9 2 -10 2 -10 1 -10 2 -9 2 -10 1 -10 2 -10 
2 -10 2 -10 1 -9 2 -10 2 -9 2 -10 1 -9 2 -10 
2 -9 1 -9 2 -9 2 -9 2 -9 1 -9 2 -9 2 -8 
1 -9 2 -8 2 -9 2 -8 1 -9 2 -8 2 -9 1 -8 
2 -8 2 -7 2 -8 1 -8 2 -7 2 -8 2 -7 1 -7 
2 -7 2 -7 1 -7 2 -7 2 -7 2 -6 1 -7 2 -6 
2 -6 1 -6 2 -5 2 -6 2 -5 1 -5 2 -5 2 -4 
1 -4 2 -5 2 -3 2 -4 1 -4 2 -2 2 -3 1 -1 
750 3996 233 MP stroke
/c11 { 0.000000 1.000000 0.000000 sr} bdef
c11
2 -2 2 -3 1 0 2 5 2 1 2 -1 1 0 2 -1 
2 -2 2 1 1 1 2 0 2 -2 2 0 1 2 2 -1 
2 -1 2 0 1 -1 2 -2 2 -1 2 1 1 0 2 -1 
2 0 2 0 1 1 2 -1 2 1 2 1 1 1 2 0 
2 6 2 0 1 1 2 1 2 -1 2 -1 1 2 2 2 
2 -2 2 -2 1 2 2 2 2 -2 2 1 1 0 2 0 
2 2 1 0 2 -3 2 -2 2 2 1 8 2 5 2 -1 
2 -2 1 6 2 2 2 -3 2 -1 1 -1 2 3 2 2 
2 -3 1 -2 2 4 2 1 2 -1 1 1 2 2 2 0 
2 -2 1 2 2 4 2 4 2 1 1 -1 2 3 2 2 
2 1 1 -1 2 1 2 0 2 -1 1 3 2 1 2 -1 
2 -2 1 1 2 -2 2 -2 2 1 1 0 2 -1 2 -3 
2 1 1 -1 2 2 2 4 2 -1 1 3 2 4 2 0 
1 -1 2 2 2 -2 2 -1 1 2 2 2 2 0 2 -1 
1 1 2 1 2 2 2 1 1 -1 2 1 2 -1 2 0 
1 0 2 1 2 1 2 0 1 0 2 -1 2 -1 2 -2 
1 -1 2 1 2 1 2 0 1 0 2 3 2 0 2 3 
1 2 2 0 2 -3 2 -1 1 2 2 1 2 1 2 1 
1 0 2 0 2 1 2 -1 1 -1 2 0 2 -1 2 -1 
1 2 2 2 2 0 1 -1 2 -1 2 1 2 -1 1 -2 
2 1 2 0 2 -2 1 1 2 1 2 0 2 1 1 0 
2 2 2 0 2 -1 1 0 2 -2 2 1 2 7 1 4 
2 -1 2 1 2 2 1 -1 2 -4 2 -1 2 4 1 1 
2 2 2 2 2 -1 1 1 2 -2 2 -3 2 0 1 4 
2 3 2 1 2 1 1 1 2 -1 2 -1 2 0 1 0 
2 -3 2 2 2 1 1 -2 2 5 2 0 1 1 2 0 
2 -2 2 -1 1 -1 2 1 2 -1 2 -1 1 -1 2 -2 
2 1 2 0 1 -2 2 0 2 0 2 0 1 -3 2 -2 
2 0 2 2 1 1 2 -2 2 -3 2 -1 1 0 2 0 
2 -3 2 -2 1 -1 2 2 2 4 2 3 1 0 2 -5 
2 -4 2 3 1 2 2 2 2 0 2 1 1 1 2 1 
2 -1 2 0 1 0 2 -1 2 0 2 -1 1 -3 2 -1 
2 -1 2 -1 1 -2 2 0 2 3 1 0 2 -1 2 -2 
2 -1 1 2 2 2 2 -1 2 -2 1 3 2 2 2 -1 
2 -2 1 1 2 -1 2 -3 2 0 1 -3 2 -1 2 4 
2 2 1 -2 2 3 2 -2 2 0 1 -1 2 -1 2 2 
2 0 1 -3 2 2 2 -3 2 -3 1 4 2 -1 2 -3 
2 1 1 1 2 1 3521 1462 300 MP stroke
2 -1 2 -2 1 -5 2 1 2 4 2 -1 1 -1 2 -2 
2 1 2 1 1 4 2 2 2 -2 1 6 2 3 2 0 
2 4 1 2 2 1 2 -1 2 -3 1 2 2 0 2 0 
2 0 1 -1 2 -3 2 -2 2 -1 1 0 2 -4 2 -2 
2 6 1 3 2 -6 2 -2 2 7 1 2 2 1 2 -1 
2 1 1 5 2 2 2 -1 2 -2 1 -2 2 -1 2 1 
2 -1 1 1 2 0 2 1 2 0 1 0 2 0 2 -1 
2 1 1 2 2 -1 2 -1 2 -1 1 -1 2 -1 2 0 
1 1 2 0 2 0 2 3 1 2 2 -2 2 -4 2 1 
1 3 2 0 2 -4 2 -2 1 4 2 5 2 4 2 -2 
1 2 2 4 2 1 2 -2 1 0 2 0 2 1 2 -1 
1 0 2 3 2 2 2 -1 1 -1 2 0 2 0 2 2 
1 0 2 -2 2 0 2 2 1 0 2 0 2 -6 2 5 
1 6 2 5 2 0 2 -2 1 3 2 0 2 -1 2 -2 
1 0 2 2 2 1 2 -1 1 0 2 0 2 0 1 -1 
2 -1 2 -5 2 4 1 1 2 -1 2 1 2 -2 1 0 
2 0 2 0 2 -1 1 -3 2 0 2 2 2 -4 1 2 
2 4 2 1 2 -1 1 -3 2 2 2 5 2 0 1 -1 
2 -1 2 -1 2 1 1 0 2 1 2 2 2 1 1 0 
2 0 2 1 2 0 1 0 2 3 2 -1 2 -2 1 0 
2 2 2 0 2 -2 1 -1 2 2 2 -1 2 -4 1 0 
2 4 2 6 1 6 2 1 2 -1 2 2 1 -3 2 1 
2 1 2 -1 1 -1 2 2 2 1 2 -1 1 -3 2 1 
2 5 2 2 1 -5 2 3 2 2 2 5 1 -2 2 -2 
2 2 2 1 1 0 2 -2 2 1 2 0 1 0 2 1 
2 -4 2 -5 1 2 2 5 2 3 2 -2 1 1 2 2 
2 1 2 -2 1 -1 2 1 2 -2 2 -1 1 0 2 0 
2 0 2 -4 1 -1 2 4 2 4 2 2 1 2 2 -3 
2 -2 1 4 2 4 2 1 2 0 1 -1 2 1 2 0 
2 -1 1 0 2 0 2 -2 2 -2 1 -1 2 2 2 -1 
2 -2 1 1 2 1 2 -1 2 -1 1 -2 2 1 2 2 
2 0 1 1 2 -1 2 -4 2 -1 1 2 2 1 2 1 
2 -2 1 -3 2 0 2 2 2 0 1 -1 2 1 2 0 
2 0 1 -2 2 -2 2 -1 2 0 1 1 2 -2 2 -2 
2 1 1 1 2 -1 2 -2 1 -2 2 0 2 2 2 0 
1 -9 2 -3 2 8 2 3 1 0 2 -1 2 -1 2 0 
1 -1 2 0 2 -1 2 0 1 -1 2 0 2 4 2 3 
1 -4 2 -3 2 6 2999 1407 300 MP stroke
2 8 1 2 2 0 2 4 2 3 1 2 2 5 2 3 
2 0 1 2 2 2 2 1 2 -1 1 0 2 0 2 -2 
2 1 1 3 2 -2 2 0 2 -2 1 0 2 -1 2 0 
2 -1 1 -3 2 3 2 1 1 -3 2 4 2 1 2 -1 
1 0 2 0 2 -4 2 0 1 3 2 6 2 3 2 0 
1 -1 2 -1 2 1 2 -2 1 3 2 3 2 0 2 -3 
1 0 2 5 2 3 2 -1 1 -1 2 4 2 1 2 0 
1 0 2 -2 2 1 2 1 1 -1 2 2 2 0 2 -1 
1 -2 2 -1 2 -1 2 -4 1 1 2 0 2 -1 2 -2 
1 0 2 2 2 0 2 0 1 3 2 2 2 -2 2 0 
1 -1 2 -1 2 -5 1 -2 2 6 2 1 2 -2 1 1 
2 0 2 -2 2 1 1 -1 2 -1 2 0 2 -2 1 -1 
2 0 2 0 2 -1 1 2 2 2 2 2 2 3 1 3 
2 -1 2 -2 2 0 1 0 2 2 2 -1 2 -2 1 -1 
2 2 2 -2 2 -1 1 2 2 1 2 -1 2 -1 1 0 
2 1 2 -1 2 -3 1 2 2 4 2 2 2 0 1 -1 
2 4 2 4 2 -2 1 1 2 1 2 1 1 1 2 1 
2 -3 2 -3 1 2 2 3 2 -1 2 -2 1 -2 2 2 
2 -1 2 -2 1 -4 2 1 2 5 2 0 1 -1 2 2 
2 -1 2 1 1 3 2 -1 2 1 2 -1 1 0 2 -2 
2 -3 2 2 1 -1 2 -2 2 0 2 -1 1 0 2 1 
2 -6 2 -3 1 6 2 0 2 -3 2 5 1 6 2 2 
2 0 2 -2 1 1 2 -1 2 -6 2 2 1 4 2 -1 
2 -2 2 -3 1 -1 2 2 2 1 1 0 2 0 2 2 
2 -1 1 0 2 -1 2 -2 2 1 1 0 2 1 2 1 
2 -1 1 -2 2 -2 2 2 2 7 1 1 2 3 2 1 
2 1 1 -1 2 1 2 -2 2 -1 1 -2 2 1 2 -1 
2 1 1 0 2 -2 2 0 2 0 1 1 2 0 2 -2 
2 1 1 0 2 -1 2 -1 2 -1 1 -1 2 2 2 -4 
2 1 1 1 2 -1 2 1 2 -1 1 -3 2 3 2 3 
1 2 2 -1 2 -1 2 1 1 -1 2 0 2 1 2 0 
1 0 2 1 2 0 2 1 1 1 2 1 2 1 2 -1 
1 -1 2 1 2 1 2 -2 1 -3 2 -1 2 3 2 2 
1 -2 2 -2 2 1 2 2 1 -4 2 -1 2 2 2 0 
1 -1 2 1 2 3 2 0 1 -4 2 2 2 6 2 4 
1 3 2 2 2 1 2 3 1 3 2 1 2 -3 2 -1 
1 2 2 0 2 -1 1 -1 2 0 2 -2 2 -4 1 2 
2 0 2 -3 2 -1 2477 1343 300 MP stroke
1 2 2 0 2 0 2 -1 1 0 2 0 2 -1 2 2 
1 4 2 0 2 0 2 0 1 0 2 0 2 -3 2 2 
1 0 2 0 2 -1 2 -1 1 0 2 1 2 -1 2 -2 
1 -2 2 1 2 1 2 1 1 -2 2 0 2 -1 2 0 
1 -2 2 0 2 1 2 0 1 -1 2 -2 2 -2 2 0 
1 -2 2 -2 2 -1 2 1 1 -1 2 -1 2 -1 1 0 
2 -1 2 0 2 -2 1 -3 2 0 2 -1 2 -1 1 0 
2 -1 2 0 2 -1 1 -3 2 0 2 0 2 -1 1 -1 
2 -3 2 -1 2 0 1 -4 2 -3 2 6 2 2 1 1 
2 -1 2 0 2 0 1 -2 2 -2 2 1 2 -1 1 -2 
2 -1 2 3 2 0 1 -2 2 -1 2 -1 2 1 1 0 
2 -1 2 -1 2 -3 1 0 2 -1 2 -3 2 -2 1 0 
2 -3 2 -3 1 0 2 1 2 0 2 -1 1 0 2 -2 
2 -1 2 -3 1 -3 2 -2 2 -2 2 -1 1 -1 2 -3 
2 -1 2 -1 1 -2 2 -5 2 2 2 1 1 -3 2 0 
2 1 2 -2 1 -4 2 0 2 -1 2 -1 1 0 2 -7 
2 2 2 6 1 1 2 -3 2 -1 2 -1 1 0 2 -2 
2 -2 2 -3 1 -2 2 0 2 -3 2 -4 1 -4 2 1 
2 0 2 1 1 -2 2 -2 2 -1 1 -3 2 -2 2 -1 
2 1 1 -1 2 -1 2 -2 2 -2 1 -3 2 -2 2 6 
2 -3 1 -4 2 1 2 2 2 1 1 0 2 -2 2 -1 
2 1 1 -1 2 -2 2 -2 2 -1 1 1 2 -1 2 -5 
2 0 1 5 2 1 2 1 2 -5 1 -2 2 4 2 1 
2 2 1 1 2 0 2 -1 2 -1 1 -2 2 -1 2 -1 
2 -2 1 0 2 -1 2 -3 2 -1 1 -1 2 -1 2 -3 
2 -2 1 2 2 -1 2 -1 1 -3 2 0 2 -2 2 -2 
1 -1 2 -1 2 -3 2 0 1 1 2 -1 2 -1 2 -1 
1 2 2 -2 2 -2 2 4 1 1 2 -1 2 -2 2 4 
1 2 2 0 2 -1 2 -1 1 0 2 -2 2 -3 2 -2 
1 -1 2 -1 2 -2 2 -3 1 0 2 -1 2 -1 2 0 
1 -2 2 0 2 -3 2 -2 1 -3 2 -5 2 3 2 -2 
1 -3 2 -3 2 -2 2 -1 1 0 2 -1 2 -4 1 1 
2 -2 2 1 2 -3 1 -1 2 0 2 -1 2 -2 1 -2 
2 -1 2 -1 2 -3 1 -1 2 0 2 -2 2 -3 1 -3 
2 -1 2 -2 2 1 1 0 2 -1 2 0 2 -2 1 -3 
2 -3 2 -1 2 -1 1 -4 2 -1 2 -1 2 -3 1 -2 
2 0 2 -2 2 -1 1 0 2 -2 2 -2 2 -3 1 1 
2 -1 2 -4 2 -2 1955 1614 300 MP stroke
1 2 2 -1 2 -2 2 -5 1 -1 2 1 2 1 2 0 
1 0 2 -3 2 -2 1 -1 2 -2 2 -3 2 -2 1 -3 
2 -2 2 -2 2 -3 1 -2 2 -2 2 -2 2 0 1 -1 
2 -4 2 -5 2 1 1 0 2 -2 2 -2 2 -2 1 -3 
2 -2 2 -3 2 -2 1 -1 2 -4 2 -4 2 0 1 -1 
2 -2 2 -4 2 0 1 -4 2 3 2 2 2 -3 1 -2 
2 0 2 -2 2 -3 1 -3 2 -1 2 -3 2 0 1 1 
2 1 2 1 2 -2 1 -4 2 -1 2 1 1 -2 2 -2 
2 -1 2 -2 1 -4 2 -3 2 -2 2 -2 1 -2 2 -5 
2 -4 2 -1 1 -2 2 -4 2 -2 2 -2 1 -3 2 -2 
2 -1 2 -2 1 -2 2 0 2 -1 2 -2 1 -4 2 -2 
2 -5 2 -5 1 1 2 -4 2 -2 2 0 1 -3 2 -1 
2 -3 2 -3 1 -1 2 -4 2 0 2 2 1 -2 2 -3 
2 -7 2 -2 1 0 2 0 2 -3 2 0 1 -3 2 0 
2 -1 1 -3 2 -1 2 -1 2 -2 1 -1 2 -3 2 -2 
2 -3 1 0 2 -2 2 -1 2 -1 1 -4 2 -1 2 -3 
2 -4 1 -1 2 -4 2 -3 2 -2 1 -2 2 -5 2 -3 
2 0 1 -3 2 -4 2 -5 2 -2 1 0 2 0 2 -3 
2 -1 1 -3 2 -3 2 -4 2 -3 1 -4 2 -2 2 -1 
2 -3 1 -5 2 -1 2 -2 2 -4 1 -3 2 -3 2 -1 
2 -3 1 -4 2 -5 2 -2 2 -2 1 0 2 -3 2 -3 
1 -2 2 -1 2 -2 2 -4 1 -4 2 -2 2 -4 2 -2 
1 -3 2 -3 2 -2 2 -3 1 -2 2 -4 2 -5 2 -1 
1 -3 2 -2 2 -2 2 -3 1 -3 2 -3 2 -2 2 -4 
1 -7 2 -3 2 -2 2 -1 1 -1 2 -3 2 -3 2 -5 
1 -2 2 -1 2 -3 2 -4 1 -4 2 0 2 -2 2 -3 
1 -3 2 -4 2 -3 2 -2 1 -4 2 -4 2 -2 2 -3 
1 -4 2 -3 2 -3 1 -2 2 -2 2 -3 2 -4 1 -2 
2 -1 2 0 2 -3 1 -4 2 -1 2 -2 2 -4 1 -3 
2 -2 2 -3 2 -3 1 -5 2 -2 2 -3 2 -3 1 -3 
2 -3 2 -3 2 -3 1 -4 2 -2 2 -3 2 -4 1 -3 
2 -5 2 -4 2 -3 1 -3 2 -6 2 -4 2 -3 1 -3 
2 -2 2 -5 2 -4 1 -3 2 -3 2 -4 2 -5 1 -4 
2 -3 2 -4 2 -4 1 -2 2 -3 2 -3 1 -5 2 -3 
2 -5 2 -3 1 -3 2 -4 2 -4 2 -5 1 -4 2 -2 
2 0 2 -1 1 -5 2 -1 2 -1 2 -2 1 -3 2 -4 
2 -3 2 -3 1 -2 2 -3 2 -4 2 -2 1 -3 2 -4 
2 -4 2 -4 1 -4 1434 2346 300 MP stroke
2 -4 2 -4 2 -3 1 -6 2 -3 2 -1 2 -2 1 -2 
2 -5 2 -5 2 -3 1 -2 2 -2 2 -2 2 -4 1 -4 
2 -4 2 -4 2 -3 1 -4 2 -5 2 -3 2 -4 1 -2 
2 -4 2 -6 1 -4 2 -4 2 -2 2 -4 1 -4 2 -4 
2 -4 2 -4 1 -4 2 -5 2 0 2 -2 1 -3 2 -3 
2 -4 2 -5 1 -4 2 -3 2 -4 2 -4 1 -4 2 -4 
2 -5 2 -5 1 -6 2 -3 2 -5 2 -5 1 -5 2 -4 
2 -4 2 -4 1 -5 2 -5 2 -4 2 -5 1 -5 2 -6 
2 -4 2 -3 1 -4 2 -6 2 -5 2 -4 1 -3 2 -4 
2 -5 2 -4 1 -2 2 -2 2 -5 1 -3 2 -1 2 -5 
2 -4 1 -5 2 -4 2 -4 2 -5 1 -3 2 -7 2 -1 
2 -4 1 -6 2 -2 2 -2 2 -3 1 -4 2 -5 2 -4 
2 -5 1 -4 2 -3 2 -4 2 -5 1 -3 2 -4 2 -4 
2 -4 1 -4 2 -4 2 -5 2 -4 1 -5 2 -4 2 -5 
2 -4 1 -5 2 -4 2 -5 2 -6 1 -3 2 -3 2 -5 
2 -4 1 -5 2 -5 2 -4 2 -4 1 -6 2 -4 2 -6 
2 -4 1 -4 2 -4 2 -4 1 -6 2 -3 2 -4 2 -5 
1 -5 2 -6 2 -5 2 -4 1 -5 2 -5 2 -5 2 -5 
1 -5 2 -4 2 -5 2 -5 1 -5 2 -5 2 -5 2 -4 
1 -4 2 -4 2 -5 2 -5 1 -4 2 -5 2 -4 2 -5 
1 -5 2 -5 2 -6 2 -4 1 -5 2 -5 2 -5 2 -4 
1 -5 2 -6 2 -5 2 -5 1 -5 2 -4 2 -6 2 -5 
1 -6 2 -3 2 -5 2 -4 1 -5 2 -6 2 -5 1 -4 
2 -6 2 -5 2 -5 1 -5 2 -5 2 -4 2 -5 1 -5 
2 -5 2 -5 2 -6 1 -5 2 -5 2 -5 2 -5 1 -5 
2 -6 2 -5 2 -4 1 -6 2 -5 2 -5 2 -5 1 -5 
2 -5 2 -5 2 -5 1 -6 2 -6 2 -5 2 -5 1 -4 
2 -6 2 -6 2 -5 1 -5 2 -5 2 -5 2 -6 1 -5 
2 -5 2 -5 2 -5 1 -5 2 -6 2 -5 2 -5 1 -6 
2 -5 2 -6 1 -6 2 -5 2 -6 2 -6 1 -6 2 -6 
2 -5 2 -6 1 -5 2 -6 2 -5 2 -6 1 -6 2 -6 
2 -5 2 -5 1 -5 2 -6 2 -6 2 -6 1 -6 2 -5 
2 -6 2 -6 1 -6 2 -6 2 -7 2 -5 1 -6 2 -5 
2 -7 2 -6 1 -5 2 -6 2 -6 2 -6 1 -7 2 -6 
2 -7 2 -5 1 -6 2 -6 2 -6 2 -6 1 -6 2 -6 
2 -6 2 -6 1 -6 2 -6 2 -6 2 -6 1 -6 2 -6 
2 -6 1 -6 2 -7 2 -6 2 -7 1 -6 2 -6 2 -6 
2 -7 1 -6 2 -7 912 3766 300 MP stroke
2 -6 2 -7 1 -6 2 -7 2 -6 2 -7 1 -6 2 -7 
2 -6 2 -7 1 -6 2 -6 2 -6 2 -6 1 -6 2 -6 
2 -6 2 -6 1 -5 2 -5 2 -5 2 -4 1 -5 2 -4 
2 -4 2 -3 1 -4 2 -2 2 -3 2 -3 1 -2 2 -3 
2 -3 2 -2 1 -2 2 -2 2 -2 2 -2 1 -2 2 -2 
2 -1 1 -2 2 -2 2 -2 2 -1 1 -1 2 -2 2 -2 
2 -1 1 -2 2 -2 2 -1 2 -2 1 -1 2 -1 2 -1 
2 -2 1 -1 2 -1 2 -1 2 0 1 -1 2 0 2 -1 
2 -1 1 0 2 -1 2 0 2 -1 1 0 2 -1 2 -1 
2 0 1 -1 2 0 2 -1 2 -1 1 0 2 -1 2 0 
2 -1 1 -1 2 0 2 -1 2 0 1 -1 2 -1 2 0 
2 -1 1 -1 2 0 2 -1 1 0 750 3996 94 MP stroke
/c12 { 0.000000 1.000000 1.000000 sr} bdef
c12
1 0 2 3 2 1 2 -1 1 -2 2 0 2 1 2 -2 
1 0 2 0 2 -3 2 -4 2 5 1 5 2 1 2 2 
2 5 2 5 1 3 2 2 2 2 2 4 2 2 1 -1 
2 0 2 0 2 -1 1 -1 2 0 2 -1 2 -1 2 0 
1 0 2 -2 2 0 2 -1 2 -1 1 -3 2 -2 2 5 
2 0 2 0 1 -1 2 1 2 1 2 1 1 4 2 1 
2 -2 2 -2 2 0 1 1 2 -2 2 -6 2 0 2 7 
1 2 2 -3 2 -2 2 6 2 5 1 0 2 0 2 -1 
2 0 1 -1 2 -1 2 -1 2 0 2 0 1 -2 2 -3 
2 2 2 0 2 4 1 4 2 -1 2 0 2 -1 1 -2 
2 2 2 0 2 -3 2 1 1 1 2 -1 2 -3 2 1 
2 1 1 0 2 -2 2 -1 2 -2 2 0 1 -1 2 3 
2 -1 2 1 1 0 2 -1 2 -1 2 -1 2 -1 1 -1 
2 -1 2 1 2 0 2 -3 1 -3 2 3 2 1 2 -3 
2 0 1 4 2 2 2 3 2 1 1 0 2 -1 2 -1 
2 -2 2 0 1 1 2 -1 2 -2 2 0 2 3 1 0 
2 -1 2 1 2 0 2 -1 1 0 2 0 2 0 2 0 
1 0 2 -2 2 1 2 1 2 0 1 0 2 -1 2 0 
2 0 2 -1 1 -1 2 0 2 0 2 0 2 0 1 1 
2 1 2 1 2 -1 1 1 2 0 2 1 2 0 2 -1 
1 -1 2 -1 2 -1 2 -3 2 -1 1 0 2 1 2 -4 
2 -4 2 6 1 9 2 5 2 -1 2 1 1 6 2 2 
2 0 2 0 2 0 1 -1 2 -1 2 -1 2 0 2 -1 
1 -2 2 0 2 -1 2 1 2 0 1 0 2 -2 2 -1 
2 1 1 0 2 -4 2 3 2 6 2 -1 1 -3 2 8 
2 1 2 -1 2 1 1 2 2 1 2 3 2 0 2 1 
1 -1 2 -1 2 -1 2 -1 1 -2 2 -1 2 -2 2 -1 
2 2 1 -1 2 0 2 -2 2 -2 2 -1 1 -1 2 -1 
2 1 2 -1 2 -1 1 -1 2 0 2 0 2 -2 1 -2 
2 1 2 0 2 -2 2 -4 1 4 2 3 2 1 2 0 
2 5 1 4 2 2 2 1 2 0 2 -3 1 2 2 -2 
2 1 2 2 1 -1 2 -3 2 -1 2 0 2 1 1 -1 
2 -1 2 0 2 -1 2 0 1 -4 2 -2 2 7 2 2 
2 -1 1 -1 2 1 2 -2 2 -1 1 0 2 -2 2 -1 
2 -2 2 -1 1 -2 2 -2 2 -2 2 -2 2 -3 1 -1 
2 5 2 1 2 0 2 3 1 2 2 3 2 -1 2 2 
1 4 2 2 2 -1 2 0 2 -2 1 -3 2 0 2 8 
2 -3 2 -2 1 2 3967 1325 300 MP stroke
2 -1 2 -1 2 -1 2 -1 1 -2 2 1 2 -1 2 -3 
1 0 2 1 2 1 2 -1 2 -1 1 -1 2 -2 2 -1 
2 -2 2 0 1 0 2 -1 2 -3 2 -1 2 1 1 0 
2 -1 2 -4 2 1 1 2 2 1 2 2 2 1 2 2 
1 0 2 2 2 -2 2 0 2 2 1 -1 2 0 2 0 
2 -4 2 -1 1 2 2 1 2 -2 2 -3 1 1 2 4 
2 2 2 0 2 -2 1 -1 2 2 2 1 2 0 2 -3 
1 -4 2 2 2 3 2 -1 2 0 1 -3 2 1 2 -2 
2 -1 1 2 2 1 2 -2 2 -4 2 1 1 4 2 2 
2 0 2 0 2 2 1 -1 2 0 2 6 2 2 1 0 
2 0 2 1 2 2 2 -1 1 0 2 1 2 3 2 2 
2 -1 1 -2 2 2 2 4 2 -3 2 -3 1 -2 2 4 
2 -8 2 7 1 9 2 3 2 -1 2 0 2 0 1 0 
2 -3 2 -3 2 2 2 1 1 -1 2 1 2 0 2 -1 
2 0 1 0 2 -2 2 -2 2 1 1 2 2 -2 2 -1 
2 2 2 0 1 2 2 -1 2 -2 2 1 2 -2 1 0 
2 -1 2 -2 2 -1 2 -1 1 -2 2 -2 2 -2 2 -2 
1 2 2 1 2 -1 2 -2 2 -1 1 0 2 0 2 0 
2 0 2 1 1 0 2 -3 2 1 2 1 2 -1 1 0 
2 0 2 -1 2 0 1 3 2 0 2 -2 2 -1 2 1 
1 0 2 0 2 -1 2 -2 2 -1 1 0 2 0 2 1 
2 2 2 0 1 0 2 3 2 -2 2 -1 1 3 2 -1 
2 -1 2 -1 2 -1 1 -2 2 -1 2 0 2 -1 2 -1 
1 0 2 -2 2 -1 2 -1 2 -1 1 -3 2 -2 2 0 
2 2 1 3 2 -1 2 -2 2 -1 2 0 1 -2 2 -2 
2 1 2 1 2 -1 1 -1 2 0 2 0 2 0 2 0 
1 -4 2 -4 2 5 2 2 1 2 2 0 2 -2 2 0 
2 2 1 1 2 0 2 0 2 3 2 1 1 -1 2 -1 
2 0 2 0 2 -2 1 1 2 2 2 0 2 0 1 -1 
2 -1 2 -1 2 0 2 -2 1 -2 2 -1 2 -1 2 -1 
2 -3 1 -2 2 0 2 -1 2 0 2 -1 1 -1 2 -1 
2 -2 2 -1 1 -1 2 1 2 1 2 -1 2 -2 1 4 
2 4 2 0 2 2 2 1 1 1 2 0 2 1 2 0 
2 -1 1 -1 2 -4 2 0 2 6 1 1 2 0 2 3 
2 -1 2 -1 1 1 2 1 2 -3 2 -4 2 -1 1 1 
2 -1 2 -1 2 0 2 1 1 2 2 -1 2 -2 2 0 
1 1 2 -1 2 -1 2 3 2 2 1 -2 2 -1 2 0 
2 -3 2 0 1 0 3432 1373 300 MP stroke
2 -2 2 -3 2 -1 2 1 1 0 2 -5 2 -5 2 3 
1 5 2 1 2 2 2 -1 2 -1 1 -1 2 -1 2 -2 
2 0 2 -1 1 0 2 -1 2 1 2 1 2 0 1 -1 
2 -2 2 0 2 -1 1 -3 2 1 2 -1 2 3 2 2 
1 -1 2 -2 2 -2 2 -1 2 5 1 1 2 -8 2 6 
2 12 2 6 1 -1 2 0 2 3 2 1 1 -2 2 0 
2 -1 2 0 2 -1 1 -2 2 1 2 2 2 -5 2 2 
1 7 2 4 2 0 2 -2 1 1 2 2 2 -1 2 -2 
2 -2 1 1 2 1 2 0 2 -1 2 0 1 -3 2 -1 
2 4 2 6 2 0 1 1 2 2 2 0 2 0 1 0 
2 0 2 0 2 -1 2 -1 1 -4 2 -1 2 0 2 0 
2 -5 1 -5 2 3 2 3 2 1 2 -10 1 3 2 5 
2 2 2 -2 1 -2 2 0 2 -1 2 -2 2 -2 1 -2 
2 -1 2 1 2 -1 2 -2 1 -1 2 -2 2 -2 2 -2 
2 0 1 -3 2 0 2 1 2 -1 1 -1 2 -2 2 -3 
2 -2 2 0 1 0 2 -4 2 -6 2 5 2 3 1 -1 
2 -1 2 -2 2 -2 2 -2 1 -3 2 -2 2 1 2 -2 
1 -2 2 -2 2 -2 2 1 2 -1 1 -1 2 -1 2 -3 
2 -3 2 -1 1 0 2 0 2 -1 2 -1 2 0 1 1 
2 2 2 -1 2 2 1 -1 2 -4 2 1 2 0 2 -4 
1 0 2 0 2 1 2 -1 2 -2 1 -3 2 0 2 1 
2 -3 2 -1 1 -3 2 -1 2 2 2 1 1 0 2 1 
2 0 2 -5 2 2 1 4 2 -1 2 1 2 0 2 0 
1 -2 2 -1 2 1 2 -1 2 -1 1 3 2 -2 2 -1 
2 2 1 -3 2 1 2 -2 2 -1 2 0 1 -3 2 -2 
2 -1 2 1 2 -3 1 -1 2 0 2 0 2 -1 2 -2 
1 -1 2 0 2 -1 2 1 1 1 2 -2 2 0 2 1 
2 -1 1 -2 2 0 2 1 2 0 2 -2 1 -2 2 1 
2 0 2 -4 2 -2 1 3 2 0 2 -2 2 -1 1 -1 
2 -1 2 -4 2 -2 2 1 1 0 2 -1 2 -4 2 0 
2 5 1 -1 2 -6 2 9 2 -3 2 -3 1 7 2 -1 
2 -4 2 -2 1 0 2 -1 2 -1 2 -2 2 -3 1 -2 
2 1 2 0 2 0 2 -4 1 0 2 0 2 0 2 -2 
2 1 1 0 2 1 2 0 2 -2 1 2 2 2 2 -4 
2 -5 2 3 1 1 2 -3 2 0 2 3 2 -2 1 -3 
2 0 2 -2 2 -2 2 -1 1 -2 2 -1 2 5 2 -1 
1 1 2 1 2 0 2 -2 2 2 1 4 2 1 2 0 
2 1 2 0 1 -2 2897 1501 300 MP stroke
2 -2 2 3 2 -1 2 0 1 3 2 0 2 1 2 0 
1 1 2 0 2 0 2 2 2 0 1 -2 2 3 2 3 
2 -1 2 -2 1 -1 2 0 2 -2 2 -3 2 1 1 3 
2 2 2 0 2 0 1 -1 2 -1 2 -1 2 -1 2 -1 
1 1 2 0 2 -3 2 -1 2 2 1 -1 2 -1 2 0 
2 3 2 -1 1 -2 2 2 2 0 2 -1 1 -1 2 -2 
2 -2 2 -1 2 -1 1 -2 2 -2 2 -1 2 -1 2 -1 
1 -2 2 -3 2 -2 2 1 1 -1 2 -1 2 -4 2 1 
2 5 1 1 2 0 2 -1 2 0 2 -1 1 1 2 -3 
2 -2 2 1 2 -1 1 -1 2 -3 2 0 2 0 1 0 
2 -1 2 -3 2 -1 2 5 1 2 2 -1 2 -2 2 -1 
2 0 1 0 2 -1 2 -1 2 -1 2 -1 1 -2 2 -1 
2 -3 2 -2 1 -2 2 -3 2 -3 2 -2 2 -4 1 -2 
2 -3 2 -4 2 4 2 -2 1 -2 2 -1 2 -1 2 -1 
2 -2 1 -1 2 -1 2 -2 2 -3 1 -1 2 0 2 -2 
2 0 2 -2 1 0 2 0 2 -1 2 0 2 -1 1 -2 
2 -2 2 -2 2 -2 2 -3 1 -3 2 -1 2 -1 2 -2 
1 -4 2 2 2 0 2 -2 2 -3 1 -2 2 -2 2 -2 
2 -4 2 -2 1 -1 2 2 2 -4 2 0 2 7 1 0 
2 -2 2 -2 2 0 1 -1 2 -1 2 -5 2 -4 2 2 
1 1 2 -1 2 -2 2 -2 2 0 1 -1 2 -3 2 -2 
2 -1 2 1 1 1 2 0 2 3 2 6 1 -2 2 3 
2 -1 2 -1 2 0 1 -2 2 -4 2 -1 2 -1 2 -3 
1 -1 2 -4 2 -2 2 0 2 -7 1 -5 2 11 2 -1 
2 0 1 -1 2 -1 2 -1 2 0 2 -2 1 1 2 0 
2 1 2 -1 2 -5 1 -1 2 0 2 -2 2 -4 2 0 
1 0 2 0 2 0 2 -1 1 -1 2 -1 2 0 2 -3 
2 -1 1 -3 2 -2 2 -2 2 -2 2 -4 1 -4 2 3 
2 -2 2 -2 2 -3 1 -2 2 -2 2 -2 2 -2 1 -3 
2 -3 2 0 2 -1 2 1 1 -1 2 -1 2 5 2 4 
2 0 1 -1 2 -2 2 0 2 -2 2 -2 1 -3 2 1 
2 0 2 -1 1 -2 2 0 2 0 2 -1 2 -1 1 -1 
2 -1 2 -2 2 1 2 -1 1 -2 2 -3 2 -1 2 0 
2 -2 1 -3 2 -4 2 -2 2 2 1 1 2 -1 2 -2 
2 -2 2 -2 1 -3 2 -4 2 -2 2 -1 2 -2 1 -2 
2 -2 2 -4 2 2 2 0 1 -4 2 -6 2 0 2 1 
1 -5 2 -2 2 0 2 -1 2 -3 1 -2 2 0 2 -1 
2 -2 2 -2 1 0 2362 1787 300 MP stroke
2 0 2 0 2 -3 2 -2 1 -2 2 -2 2 -4 2 -3 
1 0 2 -2 2 -3 2 -1 2 -2 1 0 2 -1 2 -2 
2 -2 2 -1 1 1 2 0 2 -2 2 -3 2 -2 1 -1 
2 -1 2 -3 2 -1 1 -3 2 -3 2 2 2 -2 2 -2 
1 -2 2 -3 2 -1 2 -2 2 -3 1 -1 2 -1 2 -3 
2 -2 1 -3 2 -1 2 -2 2 -2 2 -1 1 -2 2 -1 
2 1 2 -4 2 1 1 -1 2 -2 2 -2 2 -2 2 -1 
1 -3 2 -2 2 -2 2 -2 1 -1 2 -1 2 -3 2 0 
2 -1 1 -2 2 0 2 -3 2 0 2 -1 1 -2 2 -3 
2 -4 2 -1 2 -1 1 -4 2 -1 2 -5 2 3 1 -3 
2 2 2 -1 2 -2 2 -1 1 -2 2 -1 2 -5 2 0 
2 0 1 -3 2 -1 2 -1 2 -1 2 -2 1 -2 2 -3 
2 -2 2 -3 1 -2 2 -3 2 -1 2 -2 2 -2 1 -2 
2 -3 2 -2 2 -2 2 -3 1 -2 2 -1 2 -4 2 -2 
2 -1 1 -3 2 -2 2 -3 2 -3 1 1 2 -2 2 -3 
2 -3 2 -2 1 -2 2 -3 2 -3 2 -4 2 -2 1 -3 
2 -4 2 0 2 -1 2 -3 1 -3 2 -1 2 -2 2 -1 
1 -3 2 -3 2 2 2 -1 2 -3 1 -4 2 -1 2 3 
2 0 2 -1 1 -3 2 -1 2 -1 2 -1 2 -3 1 -2 
2 -2 2 1 2 -2 1 -2 2 0 2 0 2 -1 2 -2 
1 -2 2 -1 2 -2 2 -1 2 -6 1 -4 2 5 2 0 
2 -2 2 -2 1 -2 2 -3 2 -2 2 -2 1 -3 2 -3 
2 -1 2 -2 2 -1 1 -2 2 -2 2 -2 2 -3 2 -4 
1 0 2 -3 2 -1 2 -2 2 -3 1 -3 2 -2 2 -2 
2 -3 1 -3 2 -1 2 -2 2 -1 2 -4 1 -2 2 -1 
2 -3 2 -2 2 -2 1 -1 2 -1 2 -1 2 -5 2 -2 
1 -1 2 -3 2 -3 2 -2 1 -1 2 -3 2 -4 2 0 
2 1 1 0 2 -1 2 -1 2 -2 2 -3 1 -2 2 -1 
2 -4 2 0 2 -2 1 -2 2 -2 2 -2 2 -2 1 -3 
2 -2 2 -2 2 -2 2 -2 1 -2 2 -2 2 -3 2 -3 
2 -2 1 -1 2 -3 2 -2 2 -4 2 -1 1 -2 2 -3 
2 -2 2 -1 1 -2 2 -2 2 -3 2 -2 2 -2 1 -1 
2 -1 2 -4 2 -3 2 1 1 2 2 -1 2 -3 2 0 
2 -2 1 -2 2 -3 2 -3 2 -3 1 0 2 -1 2 -3 
2 -2 2 -2 1 -2 2 -3 2 0 2 -3 2 -3 1 -2 
2 -2 2 -2 2 -4 2 -3 1 -3 2 -2 2 -2 2 -5 
1 -3 2 -2 2 -2 2 -2 2 -4 1 -2 2 -3 2 -2 
2 -3 2 -5 1 0 1827 2346 300 MP stroke
2 -2 2 -2 2 -1 2 -4 1 -6 2 4 2 -2 2 -3 
1 -2 2 -4 2 -3 2 -3 2 -3 1 -4 2 -4 2 -3 
2 -2 2 -5 1 -2 2 3 2 -3 2 -2 2 -2 1 -3 
2 -3 2 -3 2 -2 1 -3 2 -3 2 -2 2 -3 2 -2 
1 -3 2 -3 2 -3 2 -2 2 -3 1 -2 2 -3 2 0 
2 -2 1 -2 2 -1 2 -2 2 -2 2 -2 1 -1 2 -2 
2 -1 2 -3 2 -2 1 -1 2 -1 2 -2 2 -3 2 -1 
1 -2 2 -1 2 -1 2 -1 1 -1 2 -1 2 -2 2 -2 
2 -3 1 -2 2 -2 2 -2 2 -2 2 -3 1 -2 2 -3 
2 -2 2 -2 2 -3 1 -3 2 -3 2 -2 2 -2 1 -3 
2 -3 2 -3 2 -3 2 -3 1 -2 2 -3 2 -2 2 -4 
2 -3 1 -3 2 -3 2 -2 2 -4 2 -4 1 -2 2 -3 
2 -1 2 -2 1 -2 2 -2 2 -2 2 -3 2 -3 1 -2 
2 -3 2 -2 2 -3 2 -3 1 -2 2 -2 2 -4 2 -1 
2 -3 1 -1 2 0 2 -1 2 -2 1 -3 2 -2 2 -2 
2 -1 2 -2 1 -2 2 -3 2 -3 2 -3 2 -2 1 -3 
2 -2 2 -2 2 -3 2 -3 1 -2 2 -2 2 -2 2 -3 
1 -3 2 -2 2 -2 2 -2 2 -2 1 -3 2 -3 2 -3 
2 -3 2 -2 1 -3 2 -3 2 -3 2 -3 2 -3 1 -3 
2 -4 2 -3 2 -3 1 -3 2 -3 2 -4 2 -3 2 -3 
1 -3 2 -3 2 -5 2 -2 2 -3 1 -3 2 -3 2 -2 
2 -3 2 -3 1 -3 2 -4 2 -3 2 -3 1 -3 2 -2 
2 -3 2 -4 2 -3 1 -2 2 -2 2 -2 2 -3 2 -4 
1 1 2 -2 2 -3 2 -4 2 -2 1 -2 2 -3 2 -2 
2 -3 1 -1 2 -2 2 -2 2 -1 2 -2 1 -2 2 -3 
2 -4 2 -1 2 -1 1 -3 2 -3 2 -2 2 -3 2 -1 
1 -3 2 -4 2 -3 2 -2 1 -2 2 -3 2 -6 2 0 
2 -2 1 -3 2 -3 2 -4 2 -4 2 -2 1 -2 2 -5 
2 -1 2 -1 2 -3 1 -2 2 -4 2 -3 2 -2 1 -2 
2 -2 2 -4 2 -3 2 -4 1 -3 2 -3 2 -3 2 -4 
2 -4 1 -2 2 -3 2 -4 2 -3 2 -3 1 -4 2 -3 
2 -3 2 -4 1 -3 2 -4 2 -2 2 -3 2 -4 1 -3 
2 -3 2 -3 2 -4 2 -3 1 -3 2 -3 2 -2 2 -3 
2 -3 1 -3 2 -3 2 -2 2 -2 1 -3 2 -2 2 -2 
2 -1 2 -2 1 -3 2 -2 2 -4 2 -2 2 -3 1 -2 
2 -4 2 -3 2 -3 2 -3 1 -2 2 -4 2 -4 2 -3 
1 -4 2 -1 2 -4 2 -3 2 -4 1 -3 2 -3 2 -4 
2 -4 2 -3 1 -3 1292 3118 300 MP stroke
2 -3 2 -3 2 -4 2 -5 1 -4 2 -2 2 -2 2 -4 
1 -2 2 -1 2 -3 2 -3 2 -3 1 -3 2 -4 2 -4 
2 -3 2 -3 1 -3 2 -3 2 -3 2 -4 1 -3 2 -3 
2 -4 2 -3 2 -3 1 -3 2 -4 2 -3 2 -4 2 -3 
1 -3 2 -4 2 -3 2 -3 2 -3 1 -3 2 -4 2 -3 
2 -3 1 -4 2 -3 2 -3 2 -4 2 -3 1 -4 2 -3 
2 -4 2 -3 2 -4 1 -4 2 -3 2 -4 2 -3 2 -4 
1 -4 2 -3 2 -3 2 -3 1 -4 2 -3 2 -3 2 -3 
2 -3 1 -3 2 -3 2 -4 2 -3 2 -4 1 -3 2 -3 
2 -3 2 -4 2 -3 1 -3 2 -4 2 -3 2 -3 1 -4 
2 -3 2 -3 2 -3 2 -4 1 -3 2 -4 2 -3 2 -3 
2 -4 1 -3 2 -3 2 -4 2 -4 2 -3 1 -3 2 -4 
2 -3 2 -3 1 -4 2 -3 2 -3 2 -3 2 -3 1 -3 
2 -3 2 -4 2 -3 2 -3 1 -3 2 -4 2 -4 2 -3 
2 -4 1 -3 2 -4 2 -4 2 -4 1 -3 2 -4 2 -3 
2 -4 2 -4 1 -3 2 -4 2 -3 2 -4 2 -3 1 -4 
2 -3 2 -4 2 -3 2 -3 1 -4 2 -3 2 -4 2 -4 
1 -3 2 -4 2 -3 2 -4 2 -4 1 -3 2 -3 2 -4 
2 -3 2 -3 1 -4 2 -3 2 -2 2 -2 2 -3 1 -3 
2 -3 2 -3 2 -3 1 -3 2 -3 2 -3 2 -3 2 -3 
1 -3 2 -3 2 -3 2 -3 2 -3 1 -3 2 -3 2 -3 
2 -3 2 -4 1 -4 2 -3 2 -3 2 -4 1 -3 2 -3 
2 -3 2 -4 2 -3 1 -3 2 -3 2 -3 2 -3 2 -3 
1 -3 2 -4 2 -3 2 -3 2 -3 1 -3 2 -3 2 -4 
2 -3 1 -3 2 -3 2 -3 2 -3 2 -3 1 -3 2 -3 
2 -3 2 -2 2 -3 1 -3 2 -3 2 -3 2 -3 2 -3 
1 -2 2 -3 2 -3 2 -2 1 -3 2 -3 2 -2 2 -3 
2 -3 1 -2 2 -3 2 -2 2 -3 2 -3 1 -3 2 -2 
2 -3 2 -3 2 -3 1 -3 2 -3 2 -4 2 -3 1 -3 
2 -3 2 -4 2 -3 2 -4 1 -3 2 -3 2 -4 2 -3 
2 -4 1 -3 2 -4 2 -3 2 -3 2 -4 1 -3 2 -2 
2 -3 2 -3 1 -3 2 -3 2 -3 2 -3 2 -3 1 -2 
2 -3 2 -2 2 -3 2 -2 1 -2 2 -2 2 -2 2 -2 
2 -2 1 -2 2 -2 2 -2 2 -2 1 -2 2 -2 2 -2 
2 -2 2 -2 1 -2 2 -1 2 -1 2 -2 2 -1 1 0 
2 -1 2 0 2 -1 2 0 1 -1 2 0 2 -1 2 0 
1 -1 2 0 2 0 2 0 2 -1 1 0 2 -1 2 0 
2 -1 2 0 1 -1 757 3994 300 MP stroke
2 -1 2 0 2 -1 1 0 750 3996 5 MP stroke
gr

c12
0 sg
%%IncludeResource: font Helvetica
/Helvetica /WindowsLatin1Encoding 83.3333 FMSR

 732 4037 mt 
( ) s
4483  536 mt 
( ) s
8.33333 w
DO
SO
12.5 w
0.1 sg
 750  500 mt 4500  500 L
 750 4000 mt 4500 4000 L
4500 4000 mt 4500  500 L
 750 4000 mt  750  500 L
 750 4000 mt 4500 4000 L
 750 4000 mt  750  500 L
 750 4000 mt  750 3943 L
 750  500 mt  750  556 L
%%IncludeResource: font Helvetica
/Helvetica /WindowsLatin1Encoding 133.333 FMSR

 713 4148 mt 
(0) s
1500 4000 mt 1500 3943 L
1500  500 mt 1500  556 L
1371 4148 mt 
(0.02) s
2250 4000 mt 2250 3943 L
2250  500 mt 2250  556 L
2121 4148 mt 
(0.04) s
3000 4000 mt 3000 3943 L
3000  500 mt 3000  556 L
2871 4148 mt 
(0.06) s
3749 4000 mt 3749 3943 L
3749  500 mt 3749  556 L
3620 4148 mt 
(0.08) s
4500 4000 mt 4500 3943 L
4500  500 mt 4500  556 L
4408 4148 mt 
(0.1) s
 750 4000 mt  806 4000 L
4500 4000 mt 4443 4000 L
 652 4049 mt 
(0) s
 750 3416 mt  806 3416 L
4500 3416 mt 4443 3416 L
 652 3465 mt 
(2) s
 750 2833 mt  806 2833 L
4500 2833 mt 4443 2833 L
 652 2882 mt 
(4) s
 750 2250 mt  806 2250 L
4500 2250 mt 4443 2250 L
 652 2299 mt 
(6) s
 750 1666 mt  806 1666 L
4500 1666 mt 4443 1666 L
 652 1715 mt 
(8) s
 750 1083 mt  806 1083 L
4500 1083 mt 4443 1083 L
 578 1132 mt 
(10) s
 750  500 mt  806  500 L
4500  500 mt 4443  500 L
 578  549 mt 
(12) s
 750  500 mt 4500  500 L
 750 4000 mt 4500 4000 L
4500 4000 mt 4500  500 L
 750 4000 mt  750  500 L
0 sg
%%IncludeResource: font Helvetica-Bold
/Helvetica-Bold /WindowsLatin1Encoding 125 FMSR

3757 1879 mt 
(Kt = 1) s
gs 3431 1735 889 1031 rc
16.6667 w
250 0 3481 1832 2 MP stroke
gr

16.6667 w
3757 2046 mt 
(Kt = 0.75) s
gs 3431 1735 889 1031 rc
c8
250 0 3481 1999 2 MP stroke
gr

c8
0 sg
3757 2213 mt 
(Kt = 0.5) s
gs 3431 1735 889 1031 rc
c9
250 0 3481 2166 2 MP stroke
gr

c9
0 sg
3757 2380 mt 
(Kt = 0.25) s
gs 3431 1735 889 1031 rc
c10
250 0 3481 2333 2 MP stroke
gr

c10
0 sg
3757 2547 mt 
(Kt = 0.1) s
gs 3431 1735 889 1031 rc
c11
250 0 3481 2500 2 MP stroke
gr

c11
0 sg
3757 2714 mt 
(Kt = 0.05) s
gs 3431 1735 889 1031 rc
c12
250 0 3481 2667 2 MP stroke
12.5 w
gr

12.5 w
c12

end %%Color Dict

eplot
%%EndObject

epage
end

showpage

%%Trailer
%%EOF
