%!PS-Adobe-3.0 EPSF-3.0
%%Creator: MATLAB, The MathWorks, Inc. Version 8.1.0.604 (R2013a). Operating System: Microsoft Windows 7.
%%Title: .\Tangential_ConfinedPorosity_Spherical.eps
%%CreationDate: 08/17/2013  18:26:18
%%DocumentNeededFonts: Helvetica-Bold
%%+ Helvetica
%%DocumentProcessColors: Cyan Magenta Yellow Black
%%LanguageLevel: 2
%%Pages: 1
%%BoundingBox:    41    88   564   572
%%EndComments

%%BeginProlog
% MathWorks dictionary
/MathWorks 160 dict begin
% definition operators
/bdef {bind def} bind def
/ldef {load def} bind def
/xdef {exch def} bdef
/xstore {exch store} bdef
% operator abbreviations
/c  /clip ldef
/cc /concat ldef
/cp /closepath ldef
/gr /grestore ldef
/gs /gsave ldef
/mt /moveto ldef
/np /newpath ldef
/cm /currentmatrix ldef
/sm /setmatrix ldef
/rm /rmoveto ldef
/rl /rlineto ldef
/s {show newpath} bdef
/sc {setcmykcolor} bdef
/sr /setrgbcolor ldef
/sg /setgray ldef
/w /setlinewidth ldef
/j /setlinejoin ldef
/cap /setlinecap ldef
/rc {rectclip} bdef
/rf {rectfill} bdef
% page state control
/pgsv () def
/bpage {/pgsv save def} bdef
/epage {pgsv restore} bdef
/bplot /gsave ldef
/eplot {stroke grestore} bdef
% orientation switch
/portraitMode 0 def /landscapeMode 1 def /rotateMode 2 def
% coordinate system mappings
/dpi2point 0 def
% font control
/FontSize 0 def
/FMS {/FontSize xstore findfont [FontSize 0 0 FontSize neg 0 0]
  makefont setfont} bdef
/ISOLatin1Encoding where {pop /WindowsLatin1Encoding 256 array bdef
ISOLatin1Encoding WindowsLatin1Encoding copy pop
/.notdef/.notdef/quotesinglbase/florin/quotedblbase/ellipsis/dagger
/daggerdbl/circumflex/perthousand/Scaron/guilsinglleft/OE/.notdef/.notdef
/.notdef/.notdef/quoteleft/quoteright/quotedblleft/quotedblright/bullet
/endash/emdash/tilde/trademark/scaron/guilsinglright/oe/.notdef/.notdef
/Ydieresis WindowsLatin1Encoding 128 32 getinterval astore pop}
{/WindowsLatin1Encoding StandardEncoding bdef} ifelse
/reencode {exch dup where {pop load} {pop StandardEncoding} ifelse
  exch dup 3 1 roll findfont dup length dict begin
  { 1 index /FID ne {def}{pop pop} ifelse } forall
  /Encoding exch def currentdict end definefont pop} bdef
/isroman {findfont /CharStrings get /Agrave known} bdef
/FMSR {3 1 roll 1 index dup isroman {reencode} {pop pop} ifelse
  exch FMS} bdef
/csm {1 dpi2point div -1 dpi2point div scale neg translate
 dup landscapeMode eq {pop -90 rotate}
  {rotateMode eq {90 rotate} if} ifelse} bdef
% line types: solid, dotted, dashed, dotdash
/SO { [] 0 setdash } bdef
/DO { [.5 dpi2point mul 4 dpi2point mul] 0 setdash } bdef
/DA { [6 dpi2point mul] 0 setdash } bdef
/DD { [.5 dpi2point mul 4 dpi2point mul 6 dpi2point mul 4
  dpi2point mul] 0 setdash } bdef
% macros for lines and objects
/L {lineto stroke} bdef
/MP {3 1 roll moveto 1 sub {rlineto} repeat} bdef
/AP {{rlineto} repeat} bdef
/PDlw -1 def
/W {/PDlw currentlinewidth def setlinewidth} def
/PP {closepath eofill} bdef
/DP {closepath stroke} bdef
/MR {4 -2 roll moveto dup  0 exch rlineto exch 0 rlineto
  neg 0 exch rlineto closepath} bdef
/FR {MR stroke} bdef
/PR {MR fill} bdef
/L1i {{currentfile picstr readhexstring pop} image} bdef
/tMatrix matrix def
/MakeOval {newpath tMatrix currentmatrix pop translate scale
0 0 1 0 360 arc tMatrix setmatrix} bdef
/FO {MakeOval stroke} bdef
/PO {MakeOval fill} bdef
/PD {currentlinewidth 2 div 0 360 arc fill
   PDlw -1 eq not {PDlw w /PDlw -1 def} if} def
/FA {newpath tMatrix currentmatrix pop translate scale
  0 0 1 5 -2 roll arc tMatrix setmatrix stroke} bdef
/PA {newpath tMatrix currentmatrix pop	translate 0 0 moveto scale
  0 0 1 5 -2 roll arc closepath tMatrix setmatrix fill} bdef
/FAn {newpath tMatrix currentmatrix pop translate scale
  0 0 1 5 -2 roll arcn tMatrix setmatrix stroke} bdef
/PAn {newpath tMatrix currentmatrix pop translate 0 0 moveto scale
  0 0 1 5 -2 roll arcn closepath tMatrix setmatrix fill} bdef
/vradius 0 def /hradius 0 def /lry 0 def
/lrx 0 def /uly 0 def /ulx 0 def /rad 0 def
/MRR {/vradius xdef /hradius xdef /lry xdef /lrx xdef /uly xdef
  /ulx xdef newpath tMatrix currentmatrix pop ulx hradius add uly
  vradius add translate hradius vradius scale 0 0 1 180 270 arc 
  tMatrix setmatrix lrx hradius sub uly vradius add translate
  hradius vradius scale 0 0 1 270 360 arc tMatrix setmatrix
  lrx hradius sub lry vradius sub translate hradius vradius scale
  0 0 1 0 90 arc tMatrix setmatrix ulx hradius add lry vradius sub
  translate hradius vradius scale 0 0 1 90 180 arc tMatrix setmatrix
  closepath} bdef
/FRR {MRR stroke } bdef
/PRR {MRR fill } bdef
/MlrRR {/lry xdef /lrx xdef /uly xdef /ulx xdef /rad lry uly sub 2 div def
  newpath tMatrix currentmatrix pop ulx rad add uly rad add translate
  rad rad scale 0 0 1 90 270 arc tMatrix setmatrix lrx rad sub lry rad
  sub translate rad rad scale 0 0 1 270 90 arc tMatrix setmatrix
  closepath} bdef
/FlrRR {MlrRR stroke } bdef
/PlrRR {MlrRR fill } bdef
/MtbRR {/lry xdef /lrx xdef /uly xdef /ulx xdef /rad lrx ulx sub 2 div def
  newpath tMatrix currentmatrix pop ulx rad add uly rad add translate
  rad rad scale 0 0 1 180 360 arc tMatrix setmatrix lrx rad sub lry rad
  sub translate rad rad scale 0 0 1 0 180 arc tMatrix setmatrix
  closepath} bdef
/FtbRR {MtbRR stroke } bdef
/PtbRR {MtbRR fill } bdef
/stri 6 array def /dtri 6 array def
/smat 6 array def /dmat 6 array def
/tmat1 6 array def /tmat2 6 array def /dif 3 array def
/asub {/ind2 exch def /ind1 exch def dup dup
  ind1 get exch ind2 get sub exch } bdef
/tri_to_matrix {
  2 0 asub 3 1 asub 4 0 asub 5 1 asub
  dup 0 get exch 1 get 7 -1 roll astore } bdef
/compute_transform {
  dmat dtri tri_to_matrix tmat1 invertmatrix 
  smat stri tri_to_matrix tmat2 concatmatrix } bdef
/ds {stri astore pop} bdef
/dt {dtri astore pop} bdef
/db {2 copy /cols xdef /rows xdef mul dup 3 mul string
  currentfile 
  3 index 0 eq {/ASCIIHexDecode filter}
  {/ASCII85Decode filter 3 index 2 eq {/RunLengthDecode filter} if }
  ifelse exch readstring pop
  dup 0 3 index getinterval /rbmap xdef
  dup 2 index dup getinterval /gbmap xdef
  1 index dup 2 mul exch getinterval /bbmap xdef pop pop}bdef
/it {gs np dtri aload pop moveto lineto lineto cp c
  cols rows 8 compute_transform 
  rbmap gbmap bbmap true 3 colorimage gr}bdef
/il {newpath moveto lineto stroke}bdef
currentdict end def
%%EndProlog

%%BeginSetup
MathWorks begin

0 cap

end
%%EndSetup

%%Page: 1 1
%%BeginPageSetup
%%PageBoundingBox:    41    88   564   572
MathWorks begin
bpage
%%EndPageSetup

%%BeginObject: obj1
bplot

/dpi2point 8.33333 def
portraitMode 0150 5158 csm

  194   389  4362  4030 rc
84 dict begin %Colortable dictionary
/c0 { 0.000000 0.000000 0.000000 sr} bdef
/c1 { 1.000000 1.000000 1.000000 sr} bdef
/c2 { 0.900000 0.000000 0.000000 sr} bdef
/c3 { 0.000000 0.820000 0.000000 sr} bdef
/c4 { 0.000000 0.000000 0.800000 sr} bdef
/c5 { 0.910000 0.820000 0.320000 sr} bdef
/c6 { 1.000000 0.260000 0.820000 sr} bdef
/c7 { 0.000000 0.820000 0.820000 sr} bdef
c0
1 j
1 sg
   0    0 5001 5001 rf
12.5 w
0 3501 3750 0 0 -3501 750 4000 4 MP
PP
-3750 0 0 3501 3750 0 0 -3501 750 4000 5 MP stroke
gs 750 500 3751 3501 rc
16.6667 w
0 sg
-950 -6 -369 -7 -271 -6 -206 -7 -176 -6 -164 -7 -143 -7 -116 -6 
-106 -7 -110 -6 -93 -7 -74 -7 -83 -6 -85 -7 -60 -7 -65 -6 
-74 -7 -52 -7 -57 -7 -62 -6 -45 -7 -57 -7 -49 -7 -48 -7 
-36 -6 -33 -7 -10 7 -12 6 3 7 4 7 3 7 3 7 
3 6 4 7 3 7 3 7 3 6 4 7 3 7 3 6 
3 7 4 7 3 6 3 7 4 6 3 7 3 7 3 6 
4 7 3 6 4 7 3 6 3 7 3 6 4 7 3 6 
3 7 4 6 3 7 3 6 4 6 3 7 4 6 3 7 
3 6 4 6 3 7 4 6 3 6 4 7 3 6 3 6 
4 6 3 7 4 6 3 6 3 6 4 7 3 6 4 6 
3 6 3 6 4 7 3 6 3 6 4 6 3 6 4 6 
3 6 3 6 4 6 3 6 4 7 3 6 3 6 4 6 
3 6 3 6 4 6 3 6 4 6 3 5 3 6 4 6 
3 6 4 6 3 6 4 6 3 6 3 6 4 6 3 5 
4 6 3 6 4 6 3 6 4 6 3 5 4 6 4 6 
3 6 4 5 4 6 4 6 3 6 4 5 4 6 4 6 
3 5 4 6 4 6 4 5 4 6 3 6 4 5 3 6 
4 5 4 6 4 6 4 5 4 6 4 5 4 6 4 5 
4 6 4 5 4 6 4 5 4 6 5 5 4 6 4 5 
4 6 3 5 4 6 4 5 4 5 4 6 4 5 4 6 
4 5 4 5 4 6 4 5 4 5 4 6 4 5 5 5 
4 6 4 5 3 5 4 6 4 5 5 5 4 5 4 6 
4 5 4 5 4 5 4 6 4 5 5 5 4 5 4 5 
4 5 4 6 5 5 4 5 5 5 4 5 4 5 5 5 
4 5 5 6 4 5 5 5 4 5 4 5 5 5 4 5 
4 5 5 5 4 5 5 5 4 5 5 5 4 5 5 5 
4 5 4 5 4 5 5 5 5 5 4 5 4 5 4 4 
4 5 4 5 5 5 4 5 5 5 4 5 4 5 4 4 
5 5 5 5 5 5 4 5 5 5 4 4 4 5 5 5 
5 5 5 5 4 4 5 5 5 5 4 5 5 4 4 5 
5 5 5 4 5 5 4 5 4 5 4 4 4 5 4 5 
4 4 5 5 4 5 5 4 4 5 5 4 4 5 5 5 
4 4 4 5 5 4 4 5 5 5 5 4 5 5 5 4 
5 5 5 4 5 5 5 4 5 5 5 4 6 5 5 4 
5 5 5 4 5 5 6 4 5 5 6 4 5 5 5 4 
5 5 4 4 5 5 4 4 5 4 5 5 5 4 5 5 
5 4 5 4 5 5 5 4 4 4 5 5 6 4 5 4 
5 5 5 4 6 4 3301 1557 300 MP stroke
5 5 5 4 5 4 5 5 5 4 6 4 5 4 6 5 
5 4 6 4 5 4 5 5 5 4 6 4 5 4 5 5 
5 4 5 4 6 4 5 4 6 5 5 4 6 4 6 4 
6 4 6 4 7 4 6 5 7 4 5 4 6 4 5 4 
6 4 5 4 7 4 6 5 7 4 8 4 6 4 6 4 
5 4 6 4 4 4 7 4 7 4 9 4 9 4 7 4 
6 4 7 4 5 4 4 4 7 4 7 4 6 4 5 4 
7 4 6 4 7 4 7 4 8 4 8 4 8 4 7 4 
7 4 8 4 8 3 7 4 9 4 8 4 8 4 7 4 
7 4 7 4 8 4 8 3 9 4 8 4 8 4 7 4 
6 4 5 3 5 4 5 4 6 4 7 4 8 4 10 3 
10 4 10 4 9 4 7 3 7 4 4 4 4 4 5 4 
5 3 5 4 6 4 8 3 9 4 12 4 13 4 15 3 
14 4 15 4 13 3 11 4 9 4 8 4 5 3 4 4 
4 4 4 3 5 4 7 3 8 4 11 4 12 3 13 4 
15 4 16 3 14 4 13 4 11 3 9 4 7 3 9 4 
9 3 8 4 9 4 10 3 10 4 11 3 14 4 16 3 
15 4 15 4 16 3 14 4 14 3 14 4 17 3 18 4 
22 3 27 4 30 3 34 4 35 3 38 4 36 3 38 4 
34 3 37 4 36 3 38 3 39 4 47 3 45 4 45 3 
48 4 45 3 37 4 37 3 32 3 27 4 23 3 20 4 
14 3 15 3 20 4 21 3 25 4 30 3 35 3 43 4 
54 3 69 3 63 4 52 3 38 3 20 4 -4 3 -1 3 
4 4 5 3 7 3 12 4 20 3 21 2 750 841 191 MP stroke
gr

16.6667 w
0 sg
0.1 sg
%%IncludeResource: font Helvetica-Bold
/Helvetica-Bold /WindowsLatin1Encoding 183.333 FMSR

1903 4361 mt 
(Log Stress [kPa]) s
 387 2612 mt  -90 rotate
(Porosity) s
90 rotate
gs 750 500 3751 3501 rc
/c8 { 1.000000 0.000000 0.000000 sr} bdef
c8
-735 -7 -342 -6 -298 -7 -259 -6 -215 -7 -172 -6 -139 -7 -125 -7 
-117 -6 -103 -7 -88 -6 -87 -7 -88 -7 -73 -6 -64 -7 -74 -7 
-70 -6 -51 -7 -61 -7 -64 -7 -44 -6 -55 -7 -55 -7 -40 -7 
-54 -7 -45 -6 -43 -7 -35 -7 -30 -7 -10 7 -11 7 3 7 
3 6 4 7 3 7 3 7 4 7 3 6 3 7 3 7 
4 7 3 6 3 7 4 7 3 6 3 7 3 7 4 6 
3 7 3 6 3 7 4 7 3 6 3 7 3 6 4 7 
3 6 3 7 4 6 3 7 3 6 3 7 4 6 3 7 
3 6 3 6 4 7 3 6 3 7 4 6 3 6 4 7 
3 6 3 6 4 7 3 6 3 6 4 6 3 7 4 6 
3 6 3 6 4 7 3 6 3 6 4 6 3 6 4 7 
3 6 3 6 4 6 3 6 4 6 3 6 4 6 3 6 
4 6 3 7 3 6 4 6 3 6 4 6 3 6 3 6 
4 6 3 6 4 5 3 6 3 6 4 6 3 6 4 6 
3 6 4 6 3 6 3 6 3 5 4 6 3 6 3 6 
4 6 3 6 3 5 4 6 3 6 4 6 3 5 4 6 
4 6 3 6 4 5 4 6 4 6 3 5 4 6 4 6 
3 5 4 6 4 6 4 5 3 6 4 5 3 6 4 6 
4 5 4 6 4 5 4 6 4 5 4 6 4 5 4 6 
4 5 4 6 4 5 4 6 4 5 4 6 4 5 4 6 
4 5 4 5 4 6 4 5 4 6 5 5 4 5 4 6 
4 5 4 5 4 6 4 5 4 5 4 6 4 5 4 5 
4 6 4 5 5 5 4 5 4 6 4 5 4 5 4 5 
5 6 4 5 4 5 4 5 5 5 4 5 5 6 4 5 
5 5 4 5 4 5 4 5 5 5 5 5 5 6 4 5 
5 5 4 5 4 5 5 5 4 5 5 5 4 5 5 5 
4 5 5 5 4 5 5 5 5 5 4 5 5 5 4 5 
4 5 4 5 5 5 4 5 4 4 5 5 4 5 4 5 
5 5 4 5 4 5 5 5 4 4 5 5 5 5 4 5 
4 5 5 5 4 4 5 5 4 5 5 5 4 5 5 4 
5 5 4 5 5 5 5 4 4 5 5 5 4 4 3 5 
4 5 4 5 4 4 5 5 4 5 5 4 4 5 5 5 
4 4 5 5 4 4 4 5 5 5 5 4 4 5 5 4 
5 5 4 5 5 4 5 5 5 4 5 5 6 4 5 5 
5 4 5 5 5 4 5 5 5 4 6 5 5 4 5 5 
5 4 5 5 4 4 5 5 5 4 5 5 6 4 6 5 
5 4 5 4 5 5 5 4 5 5 5 4 4 4 5 5 
5 4 5 4 6 5 3319 1578 300 MP stroke
5 4 6 4 4 5 5 4 5 4 4 5 5 4 5 4 
6 5 6 4 5 4 6 4 6 5 5 4 4 4 5 4 
5 5 5 4 5 4 6 4 6 5 6 4 6 4 6 4 
5 4 6 5 5 4 5 4 6 4 6 4 6 4 7 4 
6 5 7 4 5 4 5 4 6 4 5 4 5 4 6 4 
8 5 7 4 9 4 9 4 7 4 7 4 6 4 4 4 
4 4 5 4 6 4 8 4 10 4 12 4 9 4 7 4 
5 4 4 4 2 4 4 4 6 4 7 4 8 4 8 4 
9 4 9 4 8 4 8 4 8 4 7 4 7 4 6 3 
7 4 7 4 7 4 8 4 9 4 8 4 9 4 9 4 
9 3 8 4 7 4 4 4 4 4 3 4 5 3 6 4 
7 4 8 4 10 4 10 4 11 3 11 4 10 4 7 4 
6 3 3 4 3 4 2 4 3 4 4 3 6 4 9 4 
11 3 14 4 15 4 15 4 16 3 13 4 12 4 11 3 
8 4 7 4 5 4 5 3 4 4 6 4 8 3 8 4 
8 3 11 4 12 4 13 3 15 4 15 4 15 3 12 4 
10 4 9 3 8 4 7 3 10 4 9 3 9 4 11 4 
10 3 13 4 14 3 15 4 16 3 18 4 18 4 17 3 
17 4 16 3 17 4 19 3 23 4 24 3 29 4 31 3 
34 4 33 3 35 4 33 3 33 4 34 3 37 4 38 3 
43 3 45 4 49 3 49 4 47 3 42 4 40 3 31 4 
30 3 27 3 25 4 21 3 17 4 18 3 20 3 22 4 
24 3 28 4 34 3 39 3 53 4 68 3 62 3 53 4 
41 3 21 3 -2 4 2 3 4 3 7 4 10 3 11 3 
19 4 1 0 750 846 195 MP stroke
/c9 { 0.000000 0.000000 1.000000 sr} bdef
c9
-473 -3 -407 -6 -327 -7 -267 -6 -214 -7 -169 -6 -138 -7 -122 -7 
-112 -6 -104 -7 -92 -6 -83 -7 -80 -7 -77 -6 -67 -7 -62 -7 
-65 -6 -63 -7 -53 -7 -52 -7 -60 -6 -51 -7 -43 -7 -53 -7 
-50 -7 -36 -6 -50 -7 -45 -7 -33 -7 -49 -7 -39 -7 -37 -7 
-31 -6 -27 -7 -8 7 -10 6 3 7 3 7 4 7 3 7 
3 7 3 7 4 6 3 7 3 7 4 7 3 7 4 6 
3 7 3 7 3 7 4 6 3 7 4 7 3 6 4 7 
3 7 3 6 3 7 3 6 3 7 3 7 4 6 3 7 
3 6 4 7 3 6 3 7 4 6 3 7 3 6 3 7 
4 6 3 7 3 6 4 6 3 7 3 6 4 7 3 6 
3 6 3 7 4 6 3 6 3 7 4 6 3 6 3 6 
3 7 4 6 3 6 4 6 3 7 3 6 3 6 3 6 
4 6 3 7 3 6 4 6 3 6 3 6 4 6 3 6 
4 6 3 6 4 6 3 7 3 6 4 6 3 6 4 6 
3 6 4 6 3 6 4 6 3 5 3 6 4 6 3 6 
4 6 4 6 3 6 3 6 4 6 3 6 4 5 3 6 
4 6 3 6 4 6 3 6 4 5 4 6 3 6 3 6 
4 5 3 6 4 6 3 6 4 5 4 6 3 6 4 5 
4 6 4 6 4 5 3 6 4 6 3 5 4 6 4 5 
4 6 4 6 4 5 3 6 4 5 4 6 4 5 4 6 
4 5 4 6 4 5 4 6 4 5 4 6 4 5 5 6 
4 5 4 6 4 5 4 5 4 6 4 5 4 6 4 5 
4 5 4 6 4 5 4 5 5 6 4 5 5 5 4 6 
4 5 4 5 4 6 4 5 5 5 4 5 4 6 4 5 
4 5 4 5 4 6 4 5 5 5 4 5 4 5 4 5 
5 6 4 5 5 5 5 5 4 5 4 5 5 5 4 5 
5 6 4 5 5 5 4 5 5 5 4 5 5 5 4 5 
5 5 5 5 4 5 5 5 4 5 5 5 4 5 5 5 
4 5 5 5 5 5 4 5 4 5 5 5 4 4 4 5 
4 5 4 5 5 5 4 5 5 5 5 5 4 4 4 5 
4 5 5 5 5 5 5 5 4 4 5 5 4 5 5 5 
4 5 5 4 5 5 5 5 4 5 5 4 4 5 5 5 
4 4 4 5 5 5 4 5 5 4 4 5 4 5 4 4 
5 5 4 5 5 4 4 5 5 4 4 5 5 5 4 4 
4 5 5 4 5 5 4 5 5 4 5 5 5 4 5 5 
5 4 6 5 5 4 4 5 5 4 5 5 5 4 5 5 
6 4 5 5 4 4 5 5 5 4 5 5 5 4 6 5 
5 4 5 5 6 4 3351 1622 300 MP stroke
5 4 5 5 5 4 5 5 5 4 4 4 5 5 5 4 
6 4 5 5 6 4 6 4 5 5 5 4 5 4 4 5 
4 4 6 4 6 5 5 4 7 4 6 4 6 5 5 4 
5 4 4 4 5 5 5 4 6 4 6 4 6 5 6 4 
6 4 6 4 5 4 6 5 5 4 6 4 5 4 5 4 
7 4 6 4 6 5 7 4 6 4 6 4 5 4 7 4 
6 4 5 4 7 5 7 4 7 4 7 4 6 4 8 4 
6 4 7 4 7 4 8 4 5 4 7 4 8 4 8 4 
6 4 7 4 7 4 7 4 6 4 7 4 7 4 7 4 
7 4 7 4 7 4 9 4 8 4 10 4 8 4 10 4 
9 4 9 3 9 4 8 4 7 4 5 4 6 4 5 4 
6 4 6 4 7 3 6 4 7 4 8 4 9 4 10 4 
10 3 8 4 8 4 7 4 7 4 6 4 7 3 7 4 
5 4 5 4 6 3 4 4 5 4 7 4 9 4 8 3 
9 4 11 4 11 3 12 4 12 4 13 4 11 3 11 4 
11 4 11 3 11 4 10 4 10 4 9 3 8 4 6 4 
7 3 6 4 8 3 8 4 10 4 13 3 14 4 15 4 
13 3 12 4 11 4 9 3 9 4 11 3 12 4 14 3 
17 4 17 4 18 3 19 4 18 3 17 4 17 3 16 4 
15 4 15 3 14 4 15 3 16 4 17 3 19 4 21 3 
25 4 26 3 31 4 38 3 41 4 44 3 52 4 52 3 
49 4 52 3 54 3 46 4 42 3 41 4 33 3 29 4 
30 3 25 4 22 3 21 3 16 4 13 3 16 4 19 3 
23 3 29 4 37 3 46 4 58 3 70 3 64 4 56 3 
41 3 21 4 0 3 1 3 2 4 4 3 5 3 750 860 200 MP stroke
/c10 { 1.000000 0.000000 1.000000 sr} bdef
c10
-268 -1 -395 -7 -305 -6 -242 -7 -198 -6 -162 -7 -132 -7 -115 -6 
-103 -7 -93 -6 -85 -7 -79 -7 -73 -6 -67 -7 -64 -7 -60 -6 
-56 -7 -53 -7 -51 -7 -49 -6 -47 -7 -45 -7 -45 -7 -43 -7 
-44 -6 -42 -7 -42 -7 -40 -7 -40 -7 -39 -7 -36 -7 -35 -6 
-39 -7 -35 -7 -31 -7 -35 -7 -38 -7 -30 -7 -31 -7 -40 -7 
-29 -7 -28 -7 -41 -7 -28 -7 -30 -7 -29 -8 -21 -7 -7 7 
-9 8 3 7 3 7 4 7 3 7 3 7 3 7 4 7 
3 7 3 7 3 7 3 7 3 7 3 7 4 6 3 7 
3 7 3 7 4 7 3 7 3 7 3 6 4 7 3 7 
3 7 3 7 3 6 4 7 3 7 3 7 3 6 4 7 
3 7 3 6 4 7 3 7 3 6 3 7 4 6 3 7 
4 7 3 6 3 7 3 6 4 7 3 6 4 7 3 6 
3 7 3 6 4 7 3 6 4 7 3 6 3 6 4 7 
3 6 4 7 3 6 4 6 3 7 4 6 3 6 4 7 
3 6 4 6 3 6 4 7 3 6 4 6 4 6 3 7 
4 6 3 6 4 6 3 6 4 7 4 6 3 6 4 6 
3 6 4 6 3 6 4 6 4 6 3 6 4 7 3 6 
4 6 3 6 4 6 3 6 4 6 3 6 4 6 3 5 
4 6 3 6 4 6 4 6 4 6 3 6 4 6 3 6 
4 6 4 5 4 6 3 6 3 6 4 6 3 6 4 5 
4 6 3 6 4 6 3 5 3 6 4 6 4 6 4 5 
4 6 3 6 4 5 3 6 4 6 4 5 4 6 4 6 
3 5 4 6 3 5 4 6 4 6 4 5 4 6 4 5 
4 6 3 5 4 6 4 5 5 6 4 5 3 6 4 5 
4 6 4 5 4 6 5 5 4 6 4 5 4 5 3 6 
4 5 4 6 4 5 5 5 5 6 4 5 4 5 3 6 
4 5 4 5 5 6 6 5 4 5 5 6 4 5 3 5 
3 5 4 6 4 5 4 5 4 5 5 6 5 5 4 5 
4 5 4 5 4 5 4 6 4 5 5 5 5 5 4 5 
4 5 5 5 4 5 4 6 4 5 5 5 4 5 5 5 
5 5 5 5 4 5 4 5 4 5 4 5 5 5 4 5 
5 5 5 5 4 5 5 5 4 5 4 5 5 5 4 5 
5 5 4 4 5 5 5 5 4 5 5 5 4 5 5 5 
4 5 5 4 5 5 5 5 4 5 4 5 4 5 4 4 
5 5 4 5 5 5 5 5 4 4 5 5 4 5 4 5 
5 4 4 5 5 5 5 4 5 5 5 5 4 5 4 4 
5 5 4 5 5 4 5 5 6 5 6 4 5 5 5 4 
4 5 4 5 4 4 3429 1744 300 MP stroke
4 5 5 4 6 5 6 5 7 4 5 5 5 4 5 5 
4 4 4 5 5 4 4 5 6 4 6 5 7 4 6 5 
6 4 5 5 4 4 4 5 5 4 5 5 5 4 6 5 
5 4 6 5 5 4 6 4 5 5 6 4 5 5 5 4 
5 4 5 5 5 4 6 4 5 5 5 4 5 4 5 5 
5 4 7 4 5 5 6 4 5 4 5 5 5 4 4 4 
5 4 4 5 5 4 5 4 6 4 7 5 8 4 7 4 
6 4 5 5 5 4 4 4 5 4 6 4 6 5 6 4 
7 4 6 4 7 4 7 4 7 4 6 5 6 4 6 4 
7 4 5 4 7 4 5 4 6 4 7 5 7 4 8 4 
8 4 9 4 7 4 8 4 7 4 6 4 7 4 5 4 
6 4 6 4 6 4 6 4 8 4 8 4 9 4 9 4 
11 4 10 4 10 4 10 4 8 4 7 4 6 4 6 4 
5 4 5 4 6 4 6 4 7 3 7 4 8 4 9 4 
9 4 10 4 9 4 10 4 9 4 10 3 10 4 10 4 
9 4 6 4 5 4 5 3 3 4 5 4 6 4 7 4 
7 4 8 3 9 4 9 4 11 4 13 3 13 4 13 4 
13 4 12 4 11 3 9 4 10 4 9 3 8 4 6 4 
6 4 5 3 5 4 6 4 8 3 9 4 11 4 13 4 
14 3 16 4 16 4 18 3 18 4 17 3 14 4 12 4 
9 3 10 4 10 4 11 3 12 4 12 4 11 3 12 4 
11 3 12 4 12 3 14 4 15 4 17 3 19 4 22 3 
24 4 24 3 27 4 29 4 30 3 32 4 34 3 38 4 
38 3 38 4 38 3 37 4 32 3 32 4 34 3 33 4 
34 3 33 4 34 3 36 4 38 3 36 3 34 4 32 3 
30 4 28 3 28 4 29 3 34 4 34 3 39 3 45 4 
53 3 58 4 62 3 64 3 16 1 750 906 214 MP stroke
/c11 { 0.000000 1.000000 0.000000 sr} bdef
c11
-91 -3 -244 -6 -225 -7 -191 -6 -168 -7 -146 -7 -133 -6 -127 -7 
-107 -7 -95 -6 -80 -7 -74 -7 -64 -7 -58 -6 -52 -7 -49 -7 
-48 -7 -45 -7 -45 -6 -44 -7 -44 -7 -42 -7 -40 -7 -38 -7 
-37 -7 -36 -6 -35 -7 -32 -7 -33 -7 -32 -7 -33 -7 -30 -7 
-29 -7 -29 -7 -28 -7 -26 -7 -28 -7 -27 -7 -27 -7 -28 -8 
-25 -7 -25 -7 -25 -7 -25 -7 -24 -7 -25 -7 -24 -8 -24 -7 
-24 -7 -24 -7 -23 -8 -24 -7 -23 -7 -22 -7 -22 -8 -23 -7 
-22 -7 -23 -8 -22 -7 -22 -7 -22 -8 -23 -7 -23 -8 -22 -7 
-23 -8 -25 -7 -25 -8 -22 -7 -25 -8 -30 -7 -22 -8 -24 -7 
-35 -8 -24 -7 -29 -8 -26 -8 -20 -7 -7 7 -9 8 4 8 
3 7 3 8 4 7 3 8 3 7 3 8 3 7 3 8 
3 7 4 8 2 7 4 8 3 7 3 8 4 7 3 7 
4 8 3 7 3 7 3 8 4 7 3 7 3 7 3 8 
3 7 3 7 4 7 3 8 4 7 3 7 4 7 3 7 
3 7 3 7 4 8 4 7 3 7 3 7 3 7 3 7 
4 7 4 7 3 7 3 7 3 7 4 7 3 7 3 7 
3 6 3 7 3 7 3 7 4 7 3 7 3 7 3 6 
4 7 3 7 4 7 3 7 4 6 3 7 3 7 4 7 
3 6 3 7 4 7 3 6 3 7 4 7 3 6 3 7 
4 6 3 7 4 7 3 6 4 7 3 6 3 7 3 6 
4 7 3 6 4 7 4 6 3 7 4 6 3 7 3 6 
4 6 4 7 4 6 3 7 4 6 3 6 3 7 4 6 
3 6 4 7 4 6 4 6 3 6 4 7 3 6 3 6 
4 6 4 7 4 6 4 6 3 6 4 6 3 7 4 6 
4 6 4 6 4 6 4 6 4 6 3 6 4 6 3 6 
4 7 4 6 5 6 4 6 3 6 4 6 3 6 4 6 
4 6 4 5 4 6 4 6 4 6 3 6 4 6 4 6 
4 6 4 6 4 6 5 5 3 6 4 6 4 6 3 6 
4 6 5 5 4 6 4 6 4 6 4 5 3 6 4 6 
3 6 4 5 5 6 4 6 4 5 4 6 4 6 3 5 
4 6 4 6 4 5 4 6 4 5 4 6 4 6 4 5 
4 6 4 5 4 6 4 5 5 6 4 5 4 6 4 5 
4 6 3 5 4 6 4 5 4 6 5 5 4 6 4 5 
4 5 4 6 4 5 4 6 4 5 4 5 4 6 5 5 
4 5 4 6 4 5 4 5 4 6 4 5 4 5 5 6 
4 5 4 5 4 5 4 6 4 5 5 5 4 5 5 6 
4 5 4 5 4 5 4 5 5 5 4 6 4 5 5 5 
5 5 5 5 4 5 3584 2064 300 MP stroke
5 5 4 5 3 6 5 5 4 5 5 5 5 5 5 5 
6 5 5 5 5 5 5 5 4 5 3 5 4 5 5 5 
5 5 5 5 6 5 5 5 5 5 5 5 4 5 5 5 
3 4 4 5 4 5 4 5 4 5 5 5 5 5 5 5 
6 4 5 5 5 5 5 5 4 5 5 5 4 4 5 5 
4 5 5 5 6 5 5 4 6 5 5 5 6 5 5 4 
4 5 4 5 5 4 5 5 5 5 5 5 5 4 5 5 
5 5 5 4 5 5 5 5 6 4 5 5 5 4 5 5 
5 5 6 4 5 5 6 4 6 5 5 5 5 4 5 5 
4 4 5 5 5 4 5 5 5 4 5 5 6 4 6 5 
6 4 6 5 6 4 5 5 5 4 5 5 6 4 6 5 
5 4 7 5 5 4 6 5 5 4 5 4 5 5 5 4 
6 5 5 4 5 4 5 5 6 4 6 4 7 5 6 4 
6 4 5 5 5 4 4 4 7 5 6 4 7 4 6 5 
6 4 6 4 6 4 6 5 6 4 6 4 7 4 5 5 
5 4 5 4 5 4 5 5 7 4 8 4 8 4 9 4 
9 5 8 4 7 4 7 4 6 4 4 4 4 4 4 5 
4 4 4 4 5 4 7 4 8 4 9 4 10 4 11 5 
10 4 11 4 12 4 11 4 12 4 10 4 9 4 6 4 
4 4 3 4 1 4 2 4 2 4 3 4 4 4 5 4 
6 4 8 4 11 4 13 4 17 4 18 4 19 4 19 4 
18 4 17 4 14 4 11 4 8 4 4 4 1 3 -1 4 
-3 4 -2 4 -3 4 0 4 1 4 4 4 6 4 10 3 
13 4 16 4 19 4 23 4 25 4 25 3 25 4 24 4 
20 4 18 4 18 4 16 3 13 4 12 4 8 4 4 3 
0 4 -2 4 -4 4 -6 4 -5 3 -5 4 -4 4 -1 3 
3 4 8 4 11 4 16 3 21 4 27 4 32 3 36 4 
37 4 39 4 38 3 36 4 36 4 38 3 36 4 36 3 
35 4 30 4 24 3 16 4 8 4 -1 3 -8 4 -14 4 
-16 3 -16 4 -14 3 -11 4 -5 3 0 4 7 4 14 3 
22 4 30 3 39 4 49 3 60 4 69 4 77 3 82 4 
81 3 77 4 71 3 67 4 58 3 53 4 50 3 43 4 
43 3 33 3 750 976 259 MP stroke
/c12 { 0.000000 1.000000 1.000000 sr} bdef
c12
-128 -4 -183 -6 -167 -7 -142 -7 -125 -7 -116 -7 -101 -6 -83 -7 
-80 -7 -75 -7 -60 -7 -65 -7 -64 -7 -59 -6 -56 -7 -57 -7 
-50 -7 -46 -7 -43 -7 -45 -7 -43 -7 -40 -7 -39 -7 -34 -7 
-32 -7 -30 -7 -29 -7 -28 -8 -29 -7 -28 -7 -30 -7 -29 -7 
-29 -7 -29 -7 -28 -8 -24 -7 -21 -7 -21 -7 -20 -8 -21 -7 
-21 -7 -23 -7 -22 -8 -23 -7 -22 -7 -23 -8 -20 -7 -20 -7 
-19 -8 -18 -7 -17 -8 -19 -7 -19 -8 -19 -7 -19 -8 -18 -7 
-18 -8 -18 -7 -17 -8 -17 -7 -17 -8 -17 -7 -16 -8 -16 -8 
-17 -7 -17 -8 -16 -7 -17 -8 -16 -8 -17 -8 -18 -7 -17 -8 
-16 -8 -17 -8 -17 -7 -16 -8 -17 -8 -17 -8 -17 -8 -17 -8 
-17 -7 -18 -8 -17 -8 -17 -8 -18 -8 -17 -8 -17 -8 -17 -8 
-18 -8 -18 -8 -17 -8 -19 -8 -19 -8 -19 -8 -20 -9 -22 -8 
-22 -8 -21 -8 -26 -8 -28 -8 -22 -9 -39 -8 -31 -8 -37 -8 
-30 -9 -27 -8 -9 8 -11 9 4 8 3 8 3 8 4 9 
3 8 3 8 4 8 3 8 3 8 4 9 3 8 4 8 
3 8 3 8 3 8 4 8 3 8 4 8 3 8 4 8 
4 8 3 8 3 8 4 7 4 8 3 8 4 8 3 8 
4 8 3 7 4 8 3 8 4 8 3 7 3 8 4 8 
3 8 4 7 3 8 4 7 3 8 4 8 4 7 3 8 
4 7 3 8 4 7 4 8 4 7 3 8 4 7 4 8 
3 7 4 8 3 7 4 8 3 7 4 7 4 8 4 7 
3 7 4 8 3 7 4 7 3 7 4 8 4 7 4 7 
3 7 4 8 4 7 4 7 4 7 3 7 4 7 4 7 
3 8 4 7 3 7 4 7 4 7 3 7 4 7 4 7 
3 7 4 7 3 7 4 7 4 7 4 7 3 6 4 7 
3 7 4 7 3 7 4 7 3 7 4 6 4 7 3 7 
4 7 3 7 3 6 4 7 3 7 4 7 3 6 4 7 
3 7 4 6 4 7 3 7 4 6 3 7 4 6 3 7 
4 7 4 6 3 7 4 6 4 7 4 6 4 7 3 6 
4 7 3 6 3 7 4 6 4 7 4 6 4 6 4 7 
3 6 4 7 3 6 4 6 3 7 4 6 4 6 4 7 
4 6 4 6 4 6 3 7 4 6 3 6 3 6 4 7 
5 6 4 6 5 6 4 6 3 7 3 6 3 6 4 6 
4 6 4 6 5 6 4 6 5 6 4 6 3 7 3 6 
4 6 4 6 4 6 4 6 5 6 5 6 5 6 4 5 
3 6 4 6 3 6 4 6 4 6 4 6 4 6 4 6 
5 6 4 5 4 6 4 6 4 6 4 6 5 6 4 5 
4 6 4 6 4 6 3695 2443 300 MP stroke
4 5 4 6 4 6 4 6 4 5 4 6 5 6 4 5 
4 6 5 6 4 5 5 6 4 6 5 5 4 6 4 5 
4 6 4 6 5 5 4 6 5 5 4 6 5 5 5 6 
4 5 4 6 5 5 4 6 4 5 4 6 5 5 4 6 
5 5 5 6 5 5 5 5 5 6 4 5 4 6 5 5 
4 5 5 6 4 5 5 5 4 6 5 5 5 5 5 6 
4 5 5 5 4 6 4 5 3 5 4 5 5 6 4 5 
5 5 4 5 5 6 4 5 4 5 5 5 4 5 5 5 
5 6 4 5 5 5 4 5 4 5 5 5 4 5 5 5 
4 6 5 5 4 5 4 5 4 5 5 5 4 5 5 5 
6 5 5 5 5 5 5 5 4 5 5 5 4 5 5 5 
4 5 4 5 5 5 5 5 5 5 5 5 6 4 6 5 
5 5 6 5 5 5 4 5 5 5 4 5 4 4 5 5 
3 5 4 5 5 5 5 5 6 4 6 5 8 5 7 5 
6 5 7 4 5 5 5 5 5 5 3 4 3 5 3 5 
3 4 2 5 5 5 5 5 7 4 7 5 9 5 9 4 
8 5 8 5 8 4 6 5 5 4 4 5 2 5 2 4 
1 5 2 4 3 5 5 5 6 4 7 5 8 4 9 5 
10 4 10 5 10 4 10 5 8 4 7 5 5 4 3 5 
1 4 1 5 1 4 1 5 3 4 3 5 5 4 6 5 
8 4 10 5 11 4 13 4 13 5 13 4 10 5 9 4 
7 4 5 5 3 4 2 4 1 5 0 13 2 4 3 4 
4 5 6 4 9 4 11 5 12 4 14 4 14 4 15 5 
13 4 12 4 10 4 9 5 6 4 6 4 4 4 2 5 
1 4 0 4 -1 4 -1 4 -1 5 1 4 2 4 6 4 
9 4 12 4 15 4 17 5 19 4 19 4 20 4 20 4 
17 4 16 4 13 4 10 5 7 4 5 4 3 4 -1 4 
-3 4 -5 4 -6 4 -5 4 -5 4 -2 4 0 4 3 4 
8 4 11 4 16 4 21 4 23 4 26 4 27 4 27 4 
27 4 28 4 28 4 27 4 25 4 22 4 17 4 12 4 
5 4 -2 4 -7 3 -12 4 -15 4 -17 4 -18 4 -15 4 
-13 4 -8 4 -5 4 0 3 5 4 12 4 19 4 26 4 
33 4 36 3 39 4 43 4 45 4 51 4 52 4 57 3 
56 4 56 4 52 4 50 3 43 4 35 4 25 4 15 4 
3 3 -9 4 -19 4 -25 3 -29 4 -31 4 -31 4 -29 3 
-28 4 -24 4 -20 3 -13 4 -7 4 -2 4 7 3 15 4 
23 4 33 3 39 4 50 3 60 4 67 4 68 3 78 4 
89 4 84 3 99 4 1051 1071 300 MP stroke
112 4 120 3 69 3 750 1061 4 MP stroke
gr

c12
0 sg
%%IncludeResource: font Helvetica
/Helvetica /WindowsLatin1Encoding 83.3333 FMSR

 732 4037 mt 
( ) s
4483  536 mt 
( ) s
8.33333 w
DO
SO
12.5 w
0.1 sg
 750  499 mt 4500  499 L
 750 4000 mt 4500 4000 L
4500 4000 mt 4500  499 L
 750 4000 mt  750  499 L
 750 4000 mt 4500 4000 L
 750 4000 mt  750  499 L
 750 4000 mt  750 3971 L
 750  499 mt  750  528 L
 750 4000 mt  750 3943 L
 750  499 mt  750  556 L
%%IncludeResource: font Helvetica
/Helvetica /WindowsLatin1Encoding 133.333 FMSR

 626 4187 mt 
(10) s
%%IncludeResource: font Helvetica
/Helvetica /WindowsLatin1Encoding 88.8889 FMSR

 774 4105 mt 
(-1) s
1116 4000 mt 1116 3971 L
1116  499 mt 1116  528 L
1331 4000 mt 1331 3971 L
1331  499 mt 1331  528 L
1483 4000 mt 1483 3971 L
1483  499 mt 1483  528 L
1601 4000 mt 1601 3971 L
1601  499 mt 1601  528 L
1697 4000 mt 1697 3971 L
1697  499 mt 1697  528 L
1779 4000 mt 1779 3971 L
1779  499 mt 1779  528 L
1849 4000 mt 1849 3971 L
1849  499 mt 1849  528 L
1912 4000 mt 1912 3971 L
1912  499 mt 1912  528 L
1967 4000 mt 1967 3971 L
1967  499 mt 1967  528 L
1967 4000 mt 1967 3943 L
1967  499 mt 1967  556 L
%%IncludeResource: font Helvetica
/Helvetica /WindowsLatin1Encoding 133.333 FMSR

1869 4187 mt 
(10) s
%%IncludeResource: font Helvetica
/Helvetica /WindowsLatin1Encoding 88.8889 FMSR

2017 4105 mt 
(0) s
2334 4000 mt 2334 3971 L
2334  499 mt 2334  528 L
2548 4000 mt 2548 3971 L
2548  499 mt 2548  528 L
2701 4000 mt 2701 3971 L
2701  499 mt 2701  528 L
2819 4000 mt 2819 3971 L
2819  499 mt 2819  528 L
2915 4000 mt 2915 3971 L
2915  499 mt 2915  528 L
2997 4000 mt 2997 3971 L
2997  499 mt 2997  528 L
3067 4000 mt 3067 3971 L
3067  499 mt 3067  528 L
3129 4000 mt 3129 3971 L
3129  499 mt 3129  528 L
3185 4000 mt 3185 3971 L
3185  499 mt 3185  528 L
3185 4000 mt 3185 3943 L
3185  499 mt 3185  556 L
%%IncludeResource: font Helvetica
/Helvetica /WindowsLatin1Encoding 133.333 FMSR

3087 4187 mt 
(10) s
%%IncludeResource: font Helvetica
/Helvetica /WindowsLatin1Encoding 88.8889 FMSR

3235 4105 mt 
(1) s
3552 4000 mt 3552 3971 L
3552  499 mt 3552  528 L
3766 4000 mt 3766 3971 L
3766  499 mt 3766  528 L
3918 4000 mt 3918 3971 L
3918  499 mt 3918  528 L
4036 4000 mt 4036 3971 L
4036  499 mt 4036  528 L
4133 4000 mt 4133 3971 L
4133  499 mt 4133  528 L
4214 4000 mt 4214 3971 L
4214  499 mt 4214  528 L
4285 4000 mt 4285 3971 L
4285  499 mt 4285  528 L
4347 4000 mt 4347 3971 L
4347  499 mt 4347  528 L
4403 4000 mt 4403 3971 L
4403  499 mt 4403  528 L
4403 4000 mt 4403 3943 L
4403  499 mt 4403  556 L
%%IncludeResource: font Helvetica
/Helvetica /WindowsLatin1Encoding 133.333 FMSR

4305 4187 mt 
(10) s
%%IncludeResource: font Helvetica
/Helvetica /WindowsLatin1Encoding 88.8889 FMSR

4453 4105 mt 
(2) s
 750 3999 mt  806 3999 L
4500 3999 mt 4443 3999 L
%%IncludeResource: font Helvetica
/Helvetica /WindowsLatin1Encoding 133.333 FMSR

 541 4048 mt 
(0.3) s
 750 3416 mt  806 3416 L
4500 3416 mt 4443 3416 L
 467 3465 mt 
(0.35) s
 750 2833 mt  806 2833 L
4500 2833 mt 4443 2833 L
 541 2882 mt 
(0.4) s
 750 2249 mt  806 2249 L
4500 2249 mt 4443 2249 L
 467 2298 mt 
(0.45) s
 750 1666 mt  806 1666 L
4500 1666 mt 4443 1666 L
 541 1715 mt 
(0.5) s
 750 1083 mt  806 1083 L
4500 1083 mt 4443 1083 L
 467 1132 mt 
(0.55) s
 750  499 mt  806  499 L
4500  499 mt 4443  499 L
 541  548 mt 
(0.6) s
 750  499 mt 4500  499 L
 750 4000 mt 4500 4000 L
4500 4000 mt 4500  499 L
 750 4000 mt  750  499 L
0 sg
%%IncludeResource: font Helvetica-Bold
/Helvetica-Bold /WindowsLatin1Encoding 125 FMSR

1257 1879 mt 
(Kt = 1) s
gs 931 1735 889 1031 rc
16.6667 w
250 0 981 1832 2 MP stroke
gr

16.6667 w
1257 2046 mt 
(Kt = 0.75) s
gs 931 1735 889 1031 rc
c8
250 0 981 1999 2 MP stroke
gr

c8
0 sg
1257 2213 mt 
(Kt = 0.5) s
gs 931 1735 889 1031 rc
c9
250 0 981 2166 2 MP stroke
gr

c9
0 sg
1257 2380 mt 
(Kt = 0.25) s
gs 931 1735 889 1031 rc
c10
250 0 981 2333 2 MP stroke
gr

c10
0 sg
1257 2547 mt 
(Kt = 0.1) s
gs 931 1735 889 1031 rc
c11
250 0 981 2500 2 MP stroke
gr

c11
0 sg
1257 2714 mt 
(Kt = 0.05) s
gs 931 1735 889 1031 rc
c12
250 0 981 2667 2 MP stroke
12.5 w
gr

12.5 w
c12

end %%Color Dict

eplot
%%EndObject

epage
end

showpage

%%Trailer
%%EOF
