%!PS-Adobe-3.0 EPSF-3.0
%%Creator: MATLAB, The MathWorks, Inc. Version 8.1.0.604 (R2013a). Operating System: Microsoft Windows 7.
%%Title: .\Tangential_Confined_StressStain_Spherical.eps
%%CreationDate: 08/17/2013  18:26:17
%%DocumentNeededFonts: Helvetica-Bold
%%+ Helvetica
%%DocumentProcessColors: Cyan Magenta Yellow Black
%%LanguageLevel: 2
%%Pages: 1
%%BoundingBox:    45    93   573   572
%%EndComments

%%BeginProlog
% MathWorks dictionary
/MathWorks 160 dict begin
% definition operators
/bdef {bind def} bind def
/ldef {load def} bind def
/xdef {exch def} bdef
/xstore {exch store} bdef
% operator abbreviations
/c  /clip ldef
/cc /concat ldef
/cp /closepath ldef
/gr /grestore ldef
/gs /gsave ldef
/mt /moveto ldef
/np /newpath ldef
/cm /currentmatrix ldef
/sm /setmatrix ldef
/rm /rmoveto ldef
/rl /rlineto ldef
/s {show newpath} bdef
/sc {setcmykcolor} bdef
/sr /setrgbcolor ldef
/sg /setgray ldef
/w /setlinewidth ldef
/j /setlinejoin ldef
/cap /setlinecap ldef
/rc {rectclip} bdef
/rf {rectfill} bdef
% page state control
/pgsv () def
/bpage {/pgsv save def} bdef
/epage {pgsv restore} bdef
/bplot /gsave ldef
/eplot {stroke grestore} bdef
% orientation switch
/portraitMode 0 def /landscapeMode 1 def /rotateMode 2 def
% coordinate system mappings
/dpi2point 0 def
% font control
/FontSize 0 def
/FMS {/FontSize xstore findfont [FontSize 0 0 FontSize neg 0 0]
  makefont setfont} bdef
/ISOLatin1Encoding where {pop /WindowsLatin1Encoding 256 array bdef
ISOLatin1Encoding WindowsLatin1Encoding copy pop
/.notdef/.notdef/quotesinglbase/florin/quotedblbase/ellipsis/dagger
/daggerdbl/circumflex/perthousand/Scaron/guilsinglleft/OE/.notdef/.notdef
/.notdef/.notdef/quoteleft/quoteright/quotedblleft/quotedblright/bullet
/endash/emdash/tilde/trademark/scaron/guilsinglright/oe/.notdef/.notdef
/Ydieresis WindowsLatin1Encoding 128 32 getinterval astore pop}
{/WindowsLatin1Encoding StandardEncoding bdef} ifelse
/reencode {exch dup where {pop load} {pop StandardEncoding} ifelse
  exch dup 3 1 roll findfont dup length dict begin
  { 1 index /FID ne {def}{pop pop} ifelse } forall
  /Encoding exch def currentdict end definefont pop} bdef
/isroman {findfont /CharStrings get /Agrave known} bdef
/FMSR {3 1 roll 1 index dup isroman {reencode} {pop pop} ifelse
  exch FMS} bdef
/csm {1 dpi2point div -1 dpi2point div scale neg translate
 dup landscapeMode eq {pop -90 rotate}
  {rotateMode eq {90 rotate} if} ifelse} bdef
% line types: solid, dotted, dashed, dotdash
/SO { [] 0 setdash } bdef
/DO { [.5 dpi2point mul 4 dpi2point mul] 0 setdash } bdef
/DA { [6 dpi2point mul] 0 setdash } bdef
/DD { [.5 dpi2point mul 4 dpi2point mul 6 dpi2point mul 4
  dpi2point mul] 0 setdash } bdef
% macros for lines and objects
/L {lineto stroke} bdef
/MP {3 1 roll moveto 1 sub {rlineto} repeat} bdef
/AP {{rlineto} repeat} bdef
/PDlw -1 def
/W {/PDlw currentlinewidth def setlinewidth} def
/PP {closepath eofill} bdef
/DP {closepath stroke} bdef
/MR {4 -2 roll moveto dup  0 exch rlineto exch 0 rlineto
  neg 0 exch rlineto closepath} bdef
/FR {MR stroke} bdef
/PR {MR fill} bdef
/L1i {{currentfile picstr readhexstring pop} image} bdef
/tMatrix matrix def
/MakeOval {newpath tMatrix currentmatrix pop translate scale
0 0 1 0 360 arc tMatrix setmatrix} bdef
/FO {MakeOval stroke} bdef
/PO {MakeOval fill} bdef
/PD {currentlinewidth 2 div 0 360 arc fill
   PDlw -1 eq not {PDlw w /PDlw -1 def} if} def
/FA {newpath tMatrix currentmatrix pop translate scale
  0 0 1 5 -2 roll arc tMatrix setmatrix stroke} bdef
/PA {newpath tMatrix currentmatrix pop	translate 0 0 moveto scale
  0 0 1 5 -2 roll arc closepath tMatrix setmatrix fill} bdef
/FAn {newpath tMatrix currentmatrix pop translate scale
  0 0 1 5 -2 roll arcn tMatrix setmatrix stroke} bdef
/PAn {newpath tMatrix currentmatrix pop translate 0 0 moveto scale
  0 0 1 5 -2 roll arcn closepath tMatrix setmatrix fill} bdef
/vradius 0 def /hradius 0 def /lry 0 def
/lrx 0 def /uly 0 def /ulx 0 def /rad 0 def
/MRR {/vradius xdef /hradius xdef /lry xdef /lrx xdef /uly xdef
  /ulx xdef newpath tMatrix currentmatrix pop ulx hradius add uly
  vradius add translate hradius vradius scale 0 0 1 180 270 arc 
  tMatrix setmatrix lrx hradius sub uly vradius add translate
  hradius vradius scale 0 0 1 270 360 arc tMatrix setmatrix
  lrx hradius sub lry vradius sub translate hradius vradius scale
  0 0 1 0 90 arc tMatrix setmatrix ulx hradius add lry vradius sub
  translate hradius vradius scale 0 0 1 90 180 arc tMatrix setmatrix
  closepath} bdef
/FRR {MRR stroke } bdef
/PRR {MRR fill } bdef
/MlrRR {/lry xdef /lrx xdef /uly xdef /ulx xdef /rad lry uly sub 2 div def
  newpath tMatrix currentmatrix pop ulx rad add uly rad add translate
  rad rad scale 0 0 1 90 270 arc tMatrix setmatrix lrx rad sub lry rad
  sub translate rad rad scale 0 0 1 270 90 arc tMatrix setmatrix
  closepath} bdef
/FlrRR {MlrRR stroke } bdef
/PlrRR {MlrRR fill } bdef
/MtbRR {/lry xdef /lrx xdef /uly xdef /ulx xdef /rad lrx ulx sub 2 div def
  newpath tMatrix currentmatrix pop ulx rad add uly rad add translate
  rad rad scale 0 0 1 180 360 arc tMatrix setmatrix lrx rad sub lry rad
  sub translate rad rad scale 0 0 1 0 180 arc tMatrix setmatrix
  closepath} bdef
/FtbRR {MtbRR stroke } bdef
/PtbRR {MtbRR fill } bdef
/stri 6 array def /dtri 6 array def
/smat 6 array def /dmat 6 array def
/tmat1 6 array def /tmat2 6 array def /dif 3 array def
/asub {/ind2 exch def /ind1 exch def dup dup
  ind1 get exch ind2 get sub exch } bdef
/tri_to_matrix {
  2 0 asub 3 1 asub 4 0 asub 5 1 asub
  dup 0 get exch 1 get 7 -1 roll astore } bdef
/compute_transform {
  dmat dtri tri_to_matrix tmat1 invertmatrix 
  smat stri tri_to_matrix tmat2 concatmatrix } bdef
/ds {stri astore pop} bdef
/dt {dtri astore pop} bdef
/db {2 copy /cols xdef /rows xdef mul dup 3 mul string
  currentfile 
  3 index 0 eq {/ASCIIHexDecode filter}
  {/ASCII85Decode filter 3 index 2 eq {/RunLengthDecode filter} if }
  ifelse exch readstring pop
  dup 0 3 index getinterval /rbmap xdef
  dup 2 index dup getinterval /gbmap xdef
  1 index dup 2 mul exch getinterval /bbmap xdef pop pop}bdef
/it {gs np dtri aload pop moveto lineto lineto cp c
  cols rows 8 compute_transform 
  rbmap gbmap bbmap true 3 colorimage gr}bdef
/il {newpath moveto lineto stroke}bdef
currentdict end def
%%EndProlog

%%BeginSetup
MathWorks begin

0 cap

end
%%EndSetup

%%Page: 1 1
%%BeginPageSetup
%%PageBoundingBox:    45    93   573   572
MathWorks begin
bpage
%%EndPageSetup

%%BeginObject: obj1
bplot

/dpi2point 8.33333 def
portraitMode 0150 5158 csm

  231   390  4398  3990 rc
84 dict begin %Colortable dictionary
/c0 { 0.000000 0.000000 0.000000 sr} bdef
/c1 { 1.000000 1.000000 1.000000 sr} bdef
/c2 { 0.900000 0.000000 0.000000 sr} bdef
/c3 { 0.000000 0.820000 0.000000 sr} bdef
/c4 { 0.000000 0.000000 0.800000 sr} bdef
/c5 { 0.910000 0.820000 0.320000 sr} bdef
/c6 { 1.000000 0.260000 0.820000 sr} bdef
/c7 { 0.000000 0.820000 0.820000 sr} bdef
c0
1 j
1 sg
   0    0 5001 5001 rf
12.5 w
0 3500 3750 0 0 -3500 750 4000 4 MP
PP
-3750 0 0 3500 3750 0 0 -3500 750 4000 5 MP stroke
gs 750 500 3751 3501 rc
16.6667 w
0 sg
-6 2 -6 8 -6 20 -7 34 -6 41 -6 36 -6 34 -6 58 
-6 92 -7 84 -6 46 -6 76 -6 152 -6 106 -6 47 -6 179 
-7 185 -6 29 -6 221 -6 246 -6 -2 -6 346 -7 190 -6 26 
-6 577 -6 -68 -6 423 6 -19 6 -18 6 -17 6 -21 7 -23 
6 -15 6 -17 6 -20 6 -22 6 -16 7 -19 6 -16 6 -22 
6 -19 6 -15 6 -16 6 -19 7 -20 6 -18 6 -16 6 -15 
6 -19 6 -21 7 -16 6 -14 6 -18 6 -21 6 -17 6 -11 
7 -18 6 -21 6 -12 6 -20 6 -14 6 -18 7 -16 6 -15 
6 -16 6 -17 6 -16 6 -17 6 -19 7 -11 6 -16 6 -16 
6 -15 6 -15 6 -15 7 -18 6 -14 6 -15 6 -14 6 -16 
6 -15 7 -14 6 -13 6 -13 6 -16 6 -15 6 -12 7 -15 
6 -12 6 -17 6 -14 6 -13 6 -13 6 -13 7 -12 6 -15 
6 -13 6 -13 6 -13 6 -12 7 -13 6 -14 6 -12 6 -11 
6 -14 6 -12 7 -15 6 -10 6 -12 6 -14 6 -12 6 -10 
6 -14 7 -10 6 -15 6 -13 6 -6 6 -18 6 -8 7 -14 
6 -14 6 -12 6 -12 6 -6 6 -12 7 -17 6 -18 6 -8 
6 -9 6 -8 6 -12 7 -19 6 -16 6 -4 6 -10 6 -8 
6 -13 6 -15 7 -9 6 -12 6 -10 6 -11 6 -12 6 -12 
7 -11 6 -12 6 -9 6 -12 6 -12 6 -10 7 -13 6 -10 
6 -9 6 -11 6 -11 6 -10 7 -9 6 -10 6 -11 6 -9 
6 -10 6 -10 6 -11 7 -9 6 -10 6 -9 6 -8 6 -11 
6 -12 7 -6 6 -10 6 -10 6 -7 6 -10 6 -9 7 -9 
6 -10 6 -8 6 -7 6 -10 6 -9 7 -9 6 -10 6 -8 
6 -8 6 -8 6 -9 6 -10 7 -10 6 -8 6 -8 6 -7 
6 -10 6 -8 7 -10 6 -8 6 -7 6 -8 6 -8 6 -8 
7 -8 6 -9 6 -7 6 -7 6 -9 6 -6 7 -10 6 -8 
6 -7 6 -6 6 -5 6 -7 6 -8 7 -10 6 -10 6 -3 
6 -5 6 -6 6 -7 7 -7 6 -8 6 -7 6 -7 6 -5 
6 -5 7 -7 6 -8 6 -8 6 -7 6 -5 6 -6 6 -6 
7 -6 6 -7 6 -6 6 -8 6 -6 6 -5 7 -5 6 -7 
6 -6 6 -7 6 -6 6 -6 7 -4 6 -5 6 -5 6 -5 
6 -5 6 -5 7 -5 6 -6 6 -5 6 -5 6 -6 6 -5 
6 -5 7 -4 6 -5 6 -5 6 -5 6 -5 6 -6 7 -6 
6 -5 6 -4 6 -5 6 -5 6 -5 7 -6 6 -5 6 -6 
6 -4 6 -5 6 -5 7 -4 6 -5 6 -6 6 -6 6 -4 
6 -5 6 -5 7 -3 6 -3 6 -4 6 -4 6 -5 6 -4 
7 -4 6 -4 6 -4 6 -4 6 -4 6 -5 7 -3 6 -3 
6 -5 6 -4 6 -4 1957 3599 300 MP stroke
6 -4 7 -5 6 -3 6 -4 6 -3 6 -3 6 -4 6 -5 
7 -3 6 -5 6 -3 6 -3 6 -4 6 -4 7 -3 6 -3 
6 -4 6 -2 6 -4 6 -3 7 -4 6 -3 6 -4 6 -3 
6 -3 6 -4 7 -3 6 -5 6 -3 6 -4 6 -3 6 -4 
6 -1 7 -4 6 -2 6 -4 6 -3 6 -4 6 -3 7 -4 
6 -5 6 0 6 -2 6 -3 6 -2 7 -4 6 -4 6 -4 
6 -5 6 -4 6 2 6 -3 7 -4 6 -2 6 -3 6 -3 
6 -2 6 -2 7 -2 6 -3 6 -3 6 -3 6 -3 6 -3 
7 -3 6 -3 6 -1 6 -3 6 -3 6 -4 7 -2 6 -3 
6 -2 6 -2 6 -2 6 -2 6 -3 7 -3 6 -3 6 -1 
6 -3 6 -2 6 -1 7 -1 6 -1 6 -2 6 -1 6 -3 
6 -2 7 -3 6 -3 6 -3 6 -1 6 -1 6 -1 7 -1 
6 -1 6 -1 6 -1 6 -2 6 -1 6 -2 7 -3 6 -3 
6 -4 6 -3 6 -2 6 -3 7 -2 6 -1 6 -2 6 -1 
6 0 6 -1 7 0 6 -1 6 -1 6 -2 6 -1 6 -3 
7 -1 6 -2 6 -4 6 -2 6 -2 6 0 6 -2 7 -1 
6 -1 6 -1 6 -1 6 -2 6 0 7 -1 6 -2 6 -1 
6 -2 6 -2 6 -2 7 -1 6 -1 6 -2 6 -2 6 0 
6 -2 7 -2 6 -2 6 -3 6 -2 6 -2 6 -3 6 -2 
7 -3 6 -1 6 -2 6 -1 6 -2 6 -2 7 -1 6 -2 
6 -2 6 -1 6 -1 6 -1 7 0 6 -1 6 -1 6 0 
6 0 6 0 6 -1 7 0 6 0 6 -1 6 0 6 -1 
6 0 7 -1 6 0 6 -1 6 -1 6 0 6 0 7 0 
6 0 6 0 6 0 6 0 6 0 7 0 6 0 6 -1 
6 0 6 -1 6 0 6 0 750 3998 197 MP stroke
gr

16.6667 w
0 sg
0.1 sg
%%IncludeResource: font Helvetica-Bold
/Helvetica-Bold /WindowsLatin1Encoding 183.333 FMSR

2010 4322 mt 
(Vertical Strain) s
 424 3132 mt  -90 rotate
(Vertical Stress [kPa]) s
90 rotate
gs 750 500 3751 3501 rc
/c8 { 1.000000 0.000000 0.000000 sr} bdef
c8
-6 2 -6 6 -6 12 -6 16 -7 23 -6 36 -6 49 -6 51 
-6 42 -6 41 -7 68 -6 95 -6 75 -6 47 -6 99 -6 145 
-6 77 -7 68 -6 196 -6 138 -6 37 -6 246 -6 188 -7 10 
-6 365 -6 127 -6 43 -6 554 -6 -80 -7 409 7 -21 6 -19 
6 -16 6 -22 6 -17 6 -23 7 -16 6 -19 6 -19 6 -20 
6 -17 6 -18 7 -17 6 -22 6 -17 6 -18 6 -17 6 -18 
6 -17 7 -17 6 -19 6 -14 6 -17 6 -19 6 -17 7 -15 
6 -18 6 -17 6 -16 6 -16 6 -16 7 -21 6 -15 6 -11 
6 -16 6 -22 6 -13 7 -12 6 -18 6 -16 6 -20 6 -14 
6 -13 6 -16 7 -14 6 -17 6 -16 6 -14 6 -14 6 -16 
7 -15 6 -17 6 -12 6 -14 6 -16 6 -13 7 -16 6 -14 
6 -12 6 -15 6 -15 6 -14 7 -14 6 -13 6 -12 6 -16 
6 -15 6 -14 6 -12 7 -12 6 -15 6 -14 6 -13 6 -11 
6 -11 7 -15 6 -14 6 -12 6 -11 6 -10 6 -15 7 -14 
6 -15 6 -9 6 -10 6 -12 6 -12 6 -14 7 -9 6 -10 
6 -12 6 -10 6 -15 6 -12 7 -8 6 -10 6 -13 6 -12 
6 -14 6 -10 7 -9 6 -14 6 -12 6 -14 6 -13 6 -7 
7 -10 6 -12 6 -11 6 -16 6 -11 6 -6 6 -11 7 -10 
6 -12 6 -10 6 -13 6 -11 6 -11 7 -11 6 -11 6 -10 
6 -12 6 -11 6 -12 7 -10 6 -9 6 -12 6 -9 6 -12 
6 -10 7 -10 6 -10 6 -10 6 -8 6 -14 6 -8 6 -10 
7 -10 6 -9 6 -9 6 -11 6 -10 6 -10 7 -9 6 -7 
6 -10 6 -9 6 -11 6 -9 7 -9 6 -8 6 -7 6 -10 
6 -10 6 -9 7 -9 6 -9 6 -8 6 -8 6 -10 6 -11 
6 -8 7 -8 6 -8 6 -7 6 -9 6 -10 6 -9 7 -10 
6 -8 6 -7 6 -8 6 -8 6 -8 7 -9 6 -7 6 -8 
6 -7 6 -9 6 -8 7 -6 6 -9 6 -9 6 -7 6 -7 
6 -7 6 -6 7 -6 6 -7 6 -9 6 -5 6 -7 6 -7 
7 -6 6 -7 6 -6 6 -6 6 -7 6 -8 7 -7 6 -5 
6 -6 6 -7 6 -6 6 -6 6 -7 7 -5 6 -6 6 -7 
6 -6 6 -6 6 -5 7 -7 6 -7 6 -6 6 -5 6 -4 
6 -5 7 -5 6 -5 6 -5 6 -4 6 -6 6 -6 7 -5 
6 -6 6 -6 6 -3 6 -5 6 -5 6 -5 7 -6 6 -5 
6 -6 6 -4 6 -5 6 -4 7 -6 6 -4 6 -6 6 -6 
6 -6 6 -6 7 -4 6 -5 6 -5 6 -4 6 -5 6 -6 
7 -5 6 -4 6 -4 6 -4 6 -4 6 -4 6 -5 7 -6 
6 -5 6 -4 6 -5 6 -4 6 -4 7 -3 6 -4 6 -5 
6 -4 6 -3 6 -4 1988 3585 300 MP stroke
7 -5 6 -5 6 -3 6 -4 6 -3 6 -3 7 -4 6 -3 
6 -4 6 -4 6 -4 6 -4 6 -5 7 -3 6 -3 6 -4 
6 -2 6 -4 6 -3 7 -3 6 -4 6 -4 6 -4 6 -4 
6 -3 7 -3 6 -4 6 -3 6 -2 6 -3 6 -5 7 -3 
6 -4 6 -5 6 -2 6 -3 6 -4 6 -1 7 -3 6 -4 
6 -1 6 -4 6 -5 6 -4 7 -4 6 -6 6 -2 6 -3 
6 -1 6 -2 7 0 6 -3 6 -5 6 -4 6 -6 6 -5 
6 -6 7 2 6 1 6 -2 6 -3 6 -1 6 -3 7 -3 
6 -4 6 -4 6 -2 6 -3 6 -3 7 -3 6 -3 6 -2 
6 -2 6 -2 6 -2 7 -3 6 -2 6 -4 6 -2 6 -2 
6 -3 6 -3 7 -3 6 -2 6 -1 6 0 6 0 6 -2 
7 -2 6 -2 6 -2 6 -2 6 -3 6 -3 7 -4 6 -2 
6 -2 6 -1 6 -1 6 0 7 0 6 -1 6 -1 6 -1 
6 -2 6 -2 6 -3 7 -4 6 -4 6 -2 6 -3 6 -2 
6 -2 7 -2 6 -1 6 0 6 -1 6 -1 6 -1 7 -1 
6 -1 6 -2 6 -2 6 -1 6 -2 7 -2 6 -3 6 -3 
6 -1 6 -2 6 0 6 -1 7 -1 6 -1 6 -2 6 -1 
6 0 6 -2 7 -2 6 -1 6 -2 6 -1 6 -2 6 -2 
7 -2 6 -2 6 -1 6 -1 6 -1 6 -2 7 -2 6 -3 
6 -2 6 -2 6 -2 6 -3 6 -1 7 -2 6 -1 6 -2 
6 -2 6 -1 6 -2 7 -1 6 -2 6 -1 6 -1 6 -1 
6 0 7 -1 6 -1 6 0 6 0 6 -1 6 0 6 0 
7 -1 6 0 6 0 6 -1 6 0 6 -1 7 -1 6 0 
6 -1 6 0 6 0 6 0 7 0 6 0 6 0 6 0 
6 0 6 0 7 0 6 -1 6 0 6 0 6 -1 6 0 
6 -1 750 3999 202 MP stroke
/c9 { 0.000000 0.000000 1.000000 sr} bdef
c9
-7 1 -6 2 -6 8 -6 14 -6 21 -6 27 -7 33 -6 34 
-6 31 -6 34 -6 47 -6 59 -6 63 -7 46 -6 51 -6 80 
-6 93 -6 62 -6 59 -7 115 -6 123 -6 57 -6 101 -6 189 
-6 86 -7 71 -6 250 -6 113 -6 43 -6 358 -6 65 -7 75 
-6 499 -6 -87 -6 370 6 -16 6 -15 6 -18 7 -22 6 -25 
6 -19 6 -11 6 -16 6 -24 7 -27 6 -17 6 -13 6 -14 
6 -27 6 -20 7 -20 6 -12 6 -14 6 -20 6 -31 6 -11 
7 -14 6 -15 6 -20 6 -23 6 -8 6 -15 6 -18 7 -18 
6 -19 6 -14 6 -17 6 -14 6 -20 7 -15 6 -15 6 -15 
6 -12 6 -20 6 -17 7 -18 6 -11 6 -11 6 -21 6 -14 
6 -20 7 -9 6 -14 6 -15 6 -17 6 -16 6 -14 7 -16 
6 -12 6 -12 6 -14 6 -14 6 -22 7 -8 6 -14 6 -12 
6 -13 6 -14 6 -13 7 -14 6 -15 6 -13 6 -8 6 -17 
6 -15 7 -17 6 -12 6 -7 6 -14 6 -16 6 -12 7 -13 
6 -14 6 -9 6 -15 6 -14 6 -14 6 -10 7 -10 6 -9 
6 -17 6 -15 6 -13 6 -10 7 -10 6 -10 6 -15 6 -13 
6 -11 6 -12 7 -9 6 -9 6 -18 6 -11 6 -11 6 -11 
7 -11 6 -7 6 -10 6 -13 6 -13 6 -12 7 -11 6 -9 
6 -10 6 -12 6 -13 6 -13 7 -10 6 -10 6 -7 6 -10 
6 -15 6 -14 7 -12 6 -5 6 -9 6 -12 6 -11 6 -11 
7 -11 6 -11 6 -9 6 -13 6 -8 6 -10 7 -12 6 -11 
6 -11 6 -11 6 -9 6 -8 6 -10 7 -10 6 -12 6 -10 
6 -9 6 -10 6 -9 7 -8 6 -10 6 -10 6 -11 6 -10 
6 -10 7 -7 6 -8 6 -10 6 -9 6 -11 6 -8 7 -9 
6 -9 6 -6 6 -9 6 -8 6 -9 7 -10 6 -7 6 -9 
6 -8 6 -9 6 -10 7 -9 6 -6 6 -10 6 -9 6 -6 
6 -8 7 -11 6 -6 6 -8 6 -9 6 -9 6 -6 7 -8 
6 -8 6 -8 6 -8 6 -7 6 -8 7 -8 6 -6 6 -7 
6 -9 6 -7 6 -6 6 -7 7 -8 6 -8 6 -3 6 -9 
6 -6 6 -4 7 -7 6 -7 6 -7 6 -7 6 -6 6 -6 
7 -6 6 -5 6 -6 6 -8 6 -6 6 -7 7 -6 6 -6 
6 -5 6 -5 6 -7 6 -7 7 -5 6 -6 6 -6 6 -6 
6 -5 6 -4 7 -5 6 -6 6 -7 6 -5 6 -3 6 -6 
7 -5 6 -5 6 -3 6 -6 6 -6 6 -5 7 -4 6 -4 
6 -5 6 -6 6 -4 6 -5 7 -4 6 -6 6 -4 6 -5 
6 -6 6 -6 7 -4 6 -5 6 -4 6 -5 6 -4 6 -5 
6 -5 7 -5 6 -5 6 -4 6 -4 6 -4 6 -4 7 -5 
6 -4 6 -5 6 -5 2044 3560 300 MP stroke
6 -4 6 -4 7 -5 6 -4 6 -4 6 -3 6 -3 6 -4 
7 -4 6 -4 6 -5 6 -4 6 -5 6 -4 7 -2 6 -3 
6 -4 6 -4 6 -2 6 -3 7 -5 6 -6 6 -4 6 -5 
6 -1 6 -3 7 -3 6 -4 6 -3 6 -2 6 -4 6 -4 
7 -5 6 -3 6 -3 6 -3 6 -4 6 -3 7 -2 6 -3 
6 -4 6 -3 6 -3 6 -4 6 -4 7 -2 6 -3 6 -5 
6 -1 6 -3 6 -4 7 -1 6 -4 6 -4 6 -5 6 -2 
6 -2 7 -3 6 -5 6 -1 6 -4 6 -3 6 -4 7 -1 
6 -3 6 -4 6 -4 6 -1 6 -2 7 -3 6 -3 6 -3 
6 -2 6 -2 6 -3 7 -3 6 -2 6 -3 6 -4 6 -3 
6 -3 7 -2 6 -3 6 -4 6 -3 6 -2 6 0 7 -2 
6 -1 6 -2 6 -2 6 -2 6 -2 7 -2 6 -1 6 -3 
6 -3 6 -3 6 -2 6 -2 7 0 6 -2 6 -3 6 -1 
6 -1 6 -2 7 -1 6 -1 6 -1 6 -1 6 -2 6 -1 
7 -3 6 -2 6 -1 6 -2 6 -3 6 -3 7 -2 6 -2 
6 -2 6 -2 6 -1 6 -3 7 -2 6 -1 6 -1 6 -2 
6 -1 6 -1 7 0 6 -1 6 -2 6 -1 6 -2 6 -2 
7 -2 6 -3 6 -1 6 -1 6 -1 6 -1 7 -1 6 -1 
6 -2 6 -2 6 -2 6 -2 7 -2 6 -2 6 -1 6 -2 
6 -1 6 -1 6 -1 7 -2 6 -1 6 -1 6 -1 6 -2 
6 -1 7 -2 6 -1 6 -2 6 -2 6 -2 6 -3 7 -2 
6 -2 6 -2 6 -2 6 -1 6 -1 7 -2 6 0 6 -1 
6 0 6 -1 6 0 7 -1 6 0 6 0 6 0 6 -1 
6 0 7 0 6 0 6 -1 6 -1 6 0 6 -1 7 -1 
6 0 6 0 6 0 6 0 6 0 7 0 6 0 6 0 
6 0 6 0 6 -1 7 0 6 0 6 0 6 -1 6 0 
6 0 6 -1 750 3999 211 MP stroke
/c10 { 1.000000 0.000000 1.000000 sr} bdef
c10
-6 1 -6 2 -6 5 -6 9 -6 13 -7 14 -6 16 -6 19 
-6 20 -6 19 -7 22 -6 27 -6 27 -6 29 -6 31 -6 31 
-7 34 -6 38 -6 40 -6 36 -6 40 -7 46 -6 51 -6 48 
-6 49 -6 53 -7 66 -6 70 -6 68 -6 63 -6 72 -6 92 
-7 86 -6 60 -6 89 -6 130 -6 92 -7 56 -6 148 -6 166 
-6 29 -6 153 -6 261 -7 -17 -6 166 -6 362 -6 -86 -6 352 
6 -20 6 -18 6 -25 6 -12 7 -21 6 -19 6 -18 6 -23 
6 -15 6 -18 7 -20 6 -17 6 -19 6 -19 6 -14 7 -15 
6 -18 6 -20 6 -18 6 -18 6 -16 7 -14 6 -21 6 -15 
6 -22 6 -14 7 -15 6 -11 6 -21 6 -20 6 -19 7 -6 
6 -21 6 -14 6 -20 6 -20 6 -12 7 -12 6 -14 6 -19 
6 -23 6 -11 7 -12 6 -16 6 -16 6 -15 6 -21 6 -13 
7 -12 6 -15 6 -13 6 -15 6 -17 7 -15 6 -13 6 -16 
6 -14 6 -13 6 -19 7 -13 6 -14 6 -13 6 -12 6 -16 
7 -18 6 -13 6 -14 6 -12 6 -11 6 -16 7 -18 6 -12 
6 -16 6 -12 6 -9 7 -14 6 -17 6 -13 6 -18 6 -7 
7 -11 6 -12 6 -16 6 -14 6 -12 6 -12 7 -13 6 -10 
6 -13 6 -15 6 -11 7 -11 6 -12 6 -11 6 -11 6 -12 
6 -11 7 -12 6 -11 6 -12 6 -13 6 -13 7 -9 6 -11 
6 -12 6 -12 6 -9 6 -15 7 -8 6 -10 6 -9 6 -11 
6 -11 7 -14 6 -11 6 -6 6 -8 6 -10 7 -12 6 -11 
6 -12 6 -10 6 -9 6 -8 7 -10 6 -9 6 -10 6 -12 
6 -13 7 -8 6 -6 6 -11 6 -9 6 -10 6 -12 7 -9 
6 -10 6 -8 6 -8 6 -10 7 -11 6 -9 6 -10 6 -10 
6 -9 6 -7 7 -9 6 -10 6 -10 6 -11 6 -11 7 -7 
6 -6 6 -6 6 -8 6 -11 7 -12 6 -10 6 -9 6 -8 
6 -7 6 -5 7 -8 6 -11 6 -13 6 -11 6 -10 7 -3 
6 -6 6 -7 6 -7 6 -6 6 -9 7 -8 6 -10 6 -10 
6 -6 6 -7 7 -6 6 -7 6 -7 6 -9 6 -8 6 -7 
7 -8 6 -8 6 -8 6 -5 6 -6 7 -8 6 -9 6 -6 
6 -7 6 -8 6 -9 7 -7 6 -5 6 -5 6 -7 6 -7 
7 -6 6 -7 6 -8 6 -7 6 -6 7 -7 6 -5 6 -5 
6 -8 6 -5 6 -6 7 -8 6 -5 6 -6 6 -7 6 -6 
7 -5 6 -6 6 -6 6 -6 6 -7 6 -6 7 -4 6 -4 
6 -5 6 -6 6 -5 7 -6 6 -5 6 -6 6 -6 6 -5 
6 -3 7 -4 6 -6 6 -6 6 -5 6 -6 7 -6 6 -4 
6 -5 6 -4 6 -3 7 -5 6 -7 6 -6 6 -5 6 -6 
6 -5 7 -4 6 -4 2184 3492 300 MP stroke
6 -2 6 -4 6 -5 7 -6 6 -5 6 -7 6 -6 6 -5 
6 -2 7 -3 6 -4 6 -4 6 -4 6 -5 7 -5 6 -6 
6 -6 6 -5 6 -1 6 -5 7 -3 6 -4 6 -3 6 -5 
6 -3 7 -4 6 -6 6 -3 6 -4 6 -4 7 -4 6 -4 
6 -4 6 -3 6 -3 6 -3 7 -4 6 -4 6 -5 6 0 
6 -4 7 -4 6 -4 6 -4 6 -4 6 -2 6 -3 7 -3 
6 -3 6 -4 6 -1 6 -2 7 -3 6 -3 6 -5 6 -4 
6 -5 6 -4 7 -1 6 -2 6 -2 6 -3 6 -3 7 -4 
6 -2 6 -4 6 -3 6 -3 7 -4 6 -4 6 -2 6 -3 
6 -2 6 -3 7 -4 6 -2 6 -2 6 -3 6 -2 7 -3 
6 -5 6 -2 6 -4 6 -3 6 -3 7 -2 6 -3 6 -2 
6 -2 6 -3 7 -1 6 -2 6 -3 6 -3 6 -2 6 -4 
7 -2 6 -3 6 -5 6 -3 6 -3 7 -2 6 -2 6 -2 
6 -2 6 -1 6 -1 7 -2 6 -2 6 -2 6 -2 6 -2 
7 -2 6 -2 6 -4 6 -1 6 -3 7 -2 6 -2 6 -3 
6 -2 6 -3 6 -2 7 0 6 0 6 -1 6 -2 6 -1 
7 -1 6 -1 6 -2 6 -2 6 -2 6 -2 7 -2 6 -3 
6 -3 6 -2 6 -2 7 -1 6 -2 6 -2 6 -1 6 -1 
6 -1 7 -1 6 -1 6 0 6 -1 6 -1 7 -2 6 -1 
6 -2 6 -2 6 -2 7 -2 6 -2 6 -3 6 -2 6 -2 
6 -1 7 0 6 -1 6 -1 6 -2 6 -1 7 -1 6 -1 
6 -1 6 -1 6 -1 6 -1 7 -1 6 -1 6 -2 6 -1 
6 -2 7 -2 6 -1 6 -2 6 -2 6 -2 6 -2 7 -1 
6 -2 6 -2 6 -2 6 -1 7 -1 6 -1 6 -1 6 -1 
6 -1 7 -1 6 -1 6 -1 6 0 6 -1 6 -1 7 -1 
6 0 6 0 6 -1 6 0 7 -1 6 0 6 0 6 -1 
6 0 6 -1 7 0 6 -1 6 0 6 -1 6 0 7 0 
6 0 6 0 6 0 6 0 6 0 7 0 6 0 6 0 
6 0 6 0 7 0 6 0 6 -1 6 0 6 0 6 -1 
750 3999 233 MP stroke
/c11 { 0.000000 1.000000 0.000000 sr} bdef
c11
-6 1 -7 0 -6 1 -6 2 -6 1 -6 4 -7 4 -6 5 
-6 6 -6 6 -7 7 -6 10 -6 13 -6 8 -6 9 -7 7 
-6 12 -6 13 -6 9 -7 9 -6 9 -6 15 -6 15 -6 13 
-7 13 -6 15 -6 18 -6 17 -7 15 -6 17 -6 17 -6 21 
-6 18 -7 20 -6 22 -6 25 -6 16 -7 23 -6 25 -6 22 
-6 26 -7 28 -6 28 -6 30 -6 30 -6 24 -7 32 -6 34 
-6 38 -6 31 -7 37 -6 35 -6 42 -6 44 -6 42 -7 40 
-6 44 -6 52 -6 42 -7 51 -6 52 -6 56 -6 63 -6 56 
-7 49 -6 71 -6 77 -6 79 -7 59 -6 76 -6 128 -6 92 
-6 40 -7 140 -6 194 -6 -1 -6 140 -7 338 -6 -71 -6 332 
6 -23 6 -19 7 -14 6 -16 6 -25 6 -24 7 -24 6 -13 
6 -6 6 -19 6 -24 7 -17 6 -20 6 -17 6 -9 7 -18 
6 -21 6 -22 6 -20 6 -16 7 -17 6 -20 6 -13 6 -18 
7 -18 6 -17 6 -16 6 -13 6 -16 7 -15 6 -18 6 -21 
6 -21 7 -12 6 -14 6 -11 6 -19 6 -21 7 -19 6 -17 
6 -10 6 -11 7 -17 6 -16 6 -19 6 -20 7 -15 6 -9 
6 -9 6 -16 6 -25 7 -6 6 -11 6 -13 6 -16 7 -14 
6 -16 6 -13 6 -11 6 -13 7 -17 6 -14 6 -13 6 -18 
7 -12 6 -10 6 -12 6 -15 6 -17 7 -13 6 -12 6 -13 
6 -12 7 -9 6 -12 6 -14 6 -19 6 -12 7 -13 6 -10 
6 -10 6 -11 7 -13 6 -12 6 -13 6 -15 7 -14 6 -12 
6 -11 6 -11 6 -9 7 -14 6 -12 6 -14 6 -14 7 -11 
6 -11 6 -6 6 -12 6 -14 7 -12 6 -11 6 -15 6 -10 
7 -7 6 -10 6 -13 6 -11 6 -11 7 -15 6 -12 6 -8 
6 -9 7 -9 6 -10 6 -13 6 -14 6 -12 7 -11 6 -11 
6 -7 6 -11 7 -8 6 -10 6 -13 6 -12 7 -11 6 -9 
6 -8 6 -8 6 -9 7 -11 6 -11 6 -12 6 -9 7 -10 
6 -8 6 -8 6 -8 6 -11 7 -12 6 -11 6 -9 6 -9 
7 -8 6 -7 6 -9 6 -10 6 -8 7 -12 6 -12 6 -7 
6 -6 7 -7 6 -8 6 -7 6 -9 6 -9 7 -10 6 -9 
6 -8 6 -8 7 -7 6 -7 6 -8 6 -9 7 -7 6 -9 
6 -8 6 -7 6 -7 7 -6 6 -7 6 -8 6 -10 7 -8 
6 -7 6 -9 6 -7 6 -5 7 -6 6 -7 6 -8 6 -8 
7 -7 6 -7 6 -8 6 -7 6 -7 7 -4 6 -5 6 -8 
6 -8 7 -8 6 -5 6 -7 6 -7 6 -7 7 -5 6 -6 
6 -6 6 -7 7 -7 6 -6 6 -5 6 -6 7 -6 6 -6 
6 -6 6 -8 6 -6 7 -5 6 -6 6 -7 6 -5 7 -5 
6 -5 6 -6 6 -7 2555 3305 300 MP stroke
6 -7 7 -7 6 -6 6 -4 6 -5 7 -5 6 -5 6 -5 
6 -6 6 -6 7 -7 6 -8 6 -6 6 -6 7 -4 6 -4 
6 -6 6 -4 6 -3 7 -5 6 -6 6 -8 6 -7 7 -5 
6 -5 6 -3 6 -5 7 -4 6 -4 6 -3 6 -4 6 -5 
7 -4 6 -5 6 -5 6 -6 7 -6 6 -5 6 -4 6 -3 
6 -4 7 -4 6 -4 6 -4 6 -5 7 -4 6 -6 6 -5 
6 -5 6 -4 7 -3 6 -5 6 -4 6 -2 7 -4 6 -5 
6 -4 6 -4 7 -3 6 -4 6 -4 6 -4 6 -4 7 -4 
6 -4 6 -3 6 -3 7 -4 6 -4 6 -5 6 -4 6 -3 
7 -4 6 -4 6 -3 6 -2 7 -3 6 -3 6 -4 6 -4 
6 -3 7 -2 6 -4 6 -5 6 -6 7 1 6 -4 6 -4 
6 -2 6 -3 7 -3 6 -4 6 -4 6 -3 7 -3 6 -2 
6 -3 6 -2 7 -3 6 -3 6 -3 6 -3 6 -2 7 -2 
6 -3 6 -3 6 -4 7 -5 6 1 6 -3 6 -2 6 -3 
7 -3 6 -4 6 -2 6 -2 7 -3 6 -3 6 -2 6 -3 
6 -2 7 -2 6 -3 6 -4 6 2 7 -3 6 -3 6 -2 
6 -3 6 -3 7 -3 6 -4 6 -3 6 -2 7 -2 6 -2 
6 -2 6 -1 7 -1 6 -1 6 -1 6 -2 6 -2 7 -2 
6 -4 6 -3 6 -4 7 -2 6 -3 6 -3 6 -4 6 -3 
7 -3 6 -2 6 -2 6 -1 7 0 6 0 6 0 6 -1 
6 -1 7 -1 6 -1 6 -1 6 -2 7 -2 6 -3 6 -4 
6 -5 6 -4 7 -4 6 -3 6 -3 6 -3 7 -2 6 -1 
6 -1 6 0 7 0 6 1 6 1 6 0 6 0 7 0 
6 0 6 -1 6 -2 7 -2 6 -3 6 -3 6 -3 6 -4 
7 -4 6 -4 6 -2 6 -2 7 -2 6 -2 6 -2 6 -2 
6 -1 7 -1 6 0 6 0 6 0 7 1 6 1 6 0 
6 1 6 0 7 0 6 0 6 0 6 -2 7 -2 6 -1 
6 -3 6 -3 7 -3 6 -3 6 -2 6 -3 6 -2 7 -2 
6 -2 6 -2 6 -1 7 -2 6 -1 6 -1 6 -1 6 0 
7 0 6 0 6 1 6 1 7 0 6 1 6 1 6 0 
6 0 7 0 6 -1 6 -1 6 -1 7 -1 6 -2 6 -2 
6 -2 6 -2 7 -1 6 -2 6 -1 6 -1 7 0 6 -1 
6 0 6 -1 7 0 6 0 6 0 6 -1 6 0 7 0 
6 0 6 0 6 0 7 0 6 0 6 0 6 0 6 0 
7 0 6 0 6 0 6 0 7 0 6 0 6 0 6 -1 
6 0 7 0 6 0 6 0 6 0 7 0 6 0 6 0 
6 -1 6 0 750 3999 291 MP stroke
/c12 { 0.000000 1.000000 1.000000 sr} bdef
c12
-6 1 -6 0 -7 1 -6 1 -6 1 -6 2 -7 2 -6 2 
-6 3 -6 3 -7 4 -6 4 -6 3 -6 3 -7 5 -6 5 
-6 2 -7 8 -6 5 -6 6 -6 6 -7 6 -6 8 -6 4 
-6 7 -7 10 -6 8 -6 8 -7 5 -6 6 -6 8 -6 9 
-7 9 -6 6 -6 9 -6 10 -7 12 -6 12 -6 8 -7 11 
-6 11 -6 8 -6 7 -7 10 -6 12 -6 12 -6 12 -7 14 
-6 11 -6 16 -7 13 -6 15 -6 11 -6 12 -7 14 -6 13 
-6 15 -6 17 -7 19 -6 14 -6 15 -7 16 -6 18 -6 24 
-6 14 -7 12 -6 22 -6 19 -6 21 -7 21 -6 18 -6 21 
-6 25 -7 24 -6 22 -6 26 -7 28 -6 26 -6 25 -6 28 
-7 29 -6 33 -6 29 -6 34 -7 33 -6 34 -6 37 -7 42 
-6 34 -6 43 -6 44 -7 42 -6 39 -6 46 -6 57 -7 48 
-6 56 -6 61 -7 59 -6 63 -6 79 -6 103 -7 62 -6 72 
-6 179 -6 125 -7 25 -6 445 -6 -53 -7 397 7 -20 6 -29 
6 -21 7 -21 6 -9 6 -19 6 -20 7 -26 6 -19 6 -14 
6 -21 7 -17 6 -21 6 -19 7 -22 6 -17 6 -16 6 -13 
7 -19 6 -18 6 -28 6 -20 7 -15 6 -17 6 -17 7 -17 
6 -20 6 -23 6 -14 7 -12 6 -20 6 -21 6 -14 7 -21 
6 -14 6 -14 7 -18 6 -18 6 -13 6 -17 7 -15 6 -18 
6 -16 6 -19 7 -14 6 -14 6 -20 6 -16 7 -15 6 -13 
6 -18 7 -22 6 -12 6 -12 6 -16 7 -16 6 -18 6 -14 
6 -11 7 -15 6 -16 6 -21 7 -14 6 -10 6 -11 6 -14 
7 -15 6 -19 6 -13 6 -14 7 -12 6 -13 6 -16 7 -13 
6 -15 6 -15 6 -13 7 -14 6 -11 6 -12 6 -11 7 -13 
6 -16 6 -13 7 -13 6 -10 6 -11 6 -11 7 -15 6 -11 
6 -11 6 -15 7 -15 6 -9 6 -10 7 -9 6 -11 6 -12 
6 -12 7 -12 6 -11 6 -11 6 -9 7 -10 6 -12 6 -9 
6 -12 7 -9 6 -10 6 -11 7 -9 6 -11 6 -11 6 -9 
7 -10 6 -10 6 -11 6 -9 7 -9 6 -10 6 -11 7 -11 
6 -9 6 -11 6 -11 7 -7 6 -10 6 -7 6 -8 7 -9 
6 -10 6 -10 7 -10 6 -11 6 -8 6 -10 7 -7 6 -8 
6 -8 6 -9 7 -9 6 -10 6 -10 6 -10 7 -8 6 -9 
6 -6 7 -5 6 -8 6 -9 6 -9 7 -11 6 -12 6 -8 
6 -7 7 -5 6 -6 6 -6 7 -8 6 -10 6 -11 6 -11 
7 -7 6 -7 6 -7 6 -6 7 -6 6 -7 6 -10 7 -6 
6 -10 6 -11 6 -8 7 -9 6 -5 6 -6 6 -5 7 -7 
6 -6 6 -9 7 -7 6 -7 6 -8 6 -7 7 -6 6 -6 
6 -8 6 -8 7 -6 2944 3139 300 MP stroke
6 -7 6 -8 6 -6 7 -5 6 -6 6 -7 7 -6 6 -6 
6 -7 6 -6 7 -6 6 -6 6 -7 6 -7 7 -7 6 -5 
6 -7 7 -7 6 -6 6 -5 6 -6 7 -5 6 -6 6 -6 
6 -6 7 -7 6 -6 6 -6 7 -6 6 -5 6 -5 6 -5 
7 -5 6 -6 6 -6 6 -5 7 -6 6 -5 6 -7 7 -6 
6 -6 6 -5 6 -4 7 -5 6 -5 6 -5 6 -5 7 -6 
6 -4 6 -5 6 -5 7 -6 6 -5 6 -4 7 -4 6 -4 
6 -4 6 -4 7 -4 6 -4 6 -5 6 -5 7 -4 6 -5 
6 -3 7 -3 6 -5 6 -6 6 -4 7 -4 6 -3 6 -5 
6 -4 7 -3 6 -4 6 -4 7 -4 6 -4 6 -4 6 -3 
7 -3 6 -3 6 -5 6 -4 7 -4 6 -4 6 -4 7 -4 
6 -4 6 -3 6 -4 7 -2 6 -4 6 -3 6 -4 7 -2 
6 -4 6 -5 7 -4 6 -4 6 -4 6 -4 7 -3 6 -3 
6 -3 6 -3 7 -3 6 -2 6 -2 6 -4 7 -1 6 -3 
6 -5 7 -4 6 -4 6 -5 6 -4 7 -4 6 -3 6 -3 
6 -2 7 -3 6 -1 6 -1 7 -1 6 -2 6 -2 6 -2 
7 -4 6 -5 6 -5 6 -4 7 -4 6 -5 6 -4 7 -3 
6 -2 6 -2 6 -1 7 -1 6 1 6 -1 6 -1 7 -3 
6 -3 6 -3 7 -3 6 -5 6 -4 6 -4 7 -5 6 -4 
6 -4 6 -2 7 -2 6 -1 6 0 6 0 7 -1 6 0 
6 -1 7 -1 6 -1 6 -3 6 -3 7 -4 6 -3 6 -5 
6 -5 7 -5 6 -3 6 -4 7 0 6 -2 6 -2 6 0 
7 0 6 0 6 0 6 0 7 0 6 -1 6 -1 7 -2 
6 -2 6 -3 6 -5 7 -3 6 -4 6 -4 6 -4 7 -3 
6 -2 6 -2 7 -2 6 -1 6 -1 6 0 7 0 6 0 
6 0 6 0 7 1 6 0 6 0 6 -2 7 -1 6 -4 
6 -3 7 -4 6 -4 6 -3 6 -4 7 -4 6 -3 6 -3 
6 -2 7 -1 6 -1 6 -1 7 -1 6 0 6 1 6 1 
7 1 6 1 6 1 6 1 7 0 6 -1 6 -1 7 -2 
6 -3 6 -2 6 -4 7 -4 6 -3 6 -4 6 -3 7 -3 
6 -3 6 -3 7 -2 6 -2 6 -2 6 -1 7 0 6 0 
6 1 6 1 7 1 6 2 6 2 6 1 7 2 6 1 
6 0 7 0 6 0 6 -1 6 -2 7 -3 6 -3 6 -4 
6 -2 7 -3 6 -3 6 -4 7 -2 6 -3 6 -3 6 -2 
7 -2 6 -1 6 -2 6 -1 7 0 6 -1 6 0 7 1 
6 0 6 1 6 1 7 0 6 2 6 1 6 1 7 1 
6 0 6 1 7 0 6 0 6 0 6 0 7 -1 6 -2 
6 -1 6 -2 7 -1 1069 3985 300 MP stroke
6 -2 6 -2 6 -1 7 -1 6 -1 6 -3 7 0 6 -1 
6 -1 6 0 7 0 6 0 6 -1 6 0 7 0 6 0 
6 0 7 0 6 -1 6 0 6 0 7 0 6 0 6 0 
6 0 7 1 6 0 6 0 7 0 6 0 6 0 6 0 
7 0 6 0 6 0 6 0 7 0 6 0 6 0 7 0 
6 0 6 0 6 0 7 0 6 0 6 0 6 0 7 -1 
6 0 6 0 6 0 750 3999 52 MP stroke
gr

c12
0 sg
%%IncludeResource: font Helvetica
/Helvetica /WindowsLatin1Encoding 83.3333 FMSR

 732 4037 mt 
( ) s
4483  536 mt 
( ) s
8.33333 w
DO
SO
12.5 w
0.1 sg
 750  500 mt 4500  500 L
 750 4000 mt 4500 4000 L
4500 4000 mt 4500  500 L
 750 4000 mt  750  500 L
 750 4000 mt 4500 4000 L
 750 4000 mt  750  500 L
 750 4000 mt  750 3943 L
 750  500 mt  750  556 L
%%IncludeResource: font Helvetica
/Helvetica /WindowsLatin1Encoding 133.333 FMSR

 713 4148 mt 
(0) s
1218 4000 mt 1218 3943 L
1218  500 mt 1218  556 L
1089 4148 mt 
(0.05) s
1687 4000 mt 1687 3943 L
1687  500 mt 1687  556 L
1595 4148 mt 
(0.1) s
2156 4000 mt 2156 3943 L
2156  500 mt 2156  556 L
2027 4148 mt 
(0.15) s
2625 4000 mt 2625 3943 L
2625  500 mt 2625  556 L
2533 4148 mt 
(0.2) s
3093 4000 mt 3093 3943 L
3093  500 mt 3093  556 L
2964 4148 mt 
(0.25) s
3562 4000 mt 3562 3943 L
3562  500 mt 3562  556 L
3470 4148 mt 
(0.3) s
4031 4000 mt 4031 3943 L
4031  500 mt 4031  556 L
3902 4148 mt 
(0.35) s
4500 4000 mt 4500 3943 L
4500  500 mt 4500  556 L
4408 4148 mt 
(0.4) s
 750 4000 mt  806 4000 L
4500 4000 mt 4443 4000 L
 652 4049 mt 
(0) s
 750 3681 mt  806 3681 L
4500 3681 mt 4443 3681 L
 578 3730 mt 
(10) s
 750 3363 mt  806 3363 L
4500 3363 mt 4443 3363 L
 578 3412 mt 
(20) s
 750 3045 mt  806 3045 L
4500 3045 mt 4443 3045 L
 578 3094 mt 
(30) s
 750 2727 mt  806 2727 L
4500 2727 mt 4443 2727 L
 578 2776 mt 
(40) s
 750 2409 mt  806 2409 L
4500 2409 mt 4443 2409 L
 578 2458 mt 
(50) s
 750 2090 mt  806 2090 L
4500 2090 mt 4443 2090 L
 578 2139 mt 
(60) s
 750 1772 mt  806 1772 L
4500 1772 mt 4443 1772 L
 578 1821 mt 
(70) s
 750 1454 mt  806 1454 L
4500 1454 mt 4443 1454 L
 578 1503 mt 
(80) s
 750 1136 mt  806 1136 L
4500 1136 mt 4443 1136 L
 578 1185 mt 
(90) s
 750  818 mt  806  818 L
4500  818 mt 4443  818 L
 504  867 mt 
(100) s
 750  500 mt  806  500 L
4500  500 mt 4443  500 L
 504  549 mt 
(110) s
 750  500 mt 4500  500 L
 750 4000 mt 4500 4000 L
4500 4000 mt 4500  500 L
 750 4000 mt  750  500 L
0 sg
%%IncludeResource: font Helvetica-Bold
/Helvetica-Bold /WindowsLatin1Encoding 125 FMSR

2507  713 mt 
(Kt = 1) s
gs 2181 569 889 1030 rc
16.6667 w
250 0 2231 666 2 MP stroke
gr

16.6667 w
2507  880 mt 
(Kt = 0.75) s
gs 2181 569 889 1030 rc
c8
250 0 2231 833 2 MP stroke
gr

c8
0 sg
2507 1047 mt 
(Kt = 0.5) s
gs 2181 569 889 1030 rc
c9
250 0 2231 1000 2 MP stroke
gr

c9
0 sg
2507 1213 mt 
(Kt = 0.25) s
gs 2181 569 889 1030 rc
c10
250 0 2231 1166 2 MP stroke
gr

c10
0 sg
2507 1380 mt 
(Kt = 0.1) s
gs 2181 569 889 1030 rc
c11
250 0 2231 1333 2 MP stroke
gr

c11
0 sg
2507 1547 mt 
(Kt = 0.05) s
gs 2181 569 889 1030 rc
c12
250 0 2231 1500 2 MP stroke
12.5 w
gr

12.5 w
c12

end %%Color Dict

eplot
%%EndObject

epage
end

showpage

%%Trailer
%%EOF
