%!PS-Adobe-3.0 EPSF-3.0
%%Creator: MATLAB, The MathWorks, Inc. Version 8.1.0.604 (R2013a). Operating System: Microsoft Windows 7.
%%Title: .\Force-Overlap.eps
%%CreationDate: 08/15/2013  23:13:35
%%DocumentNeededFonts: Helvetica-Bold
%%+ Helvetica
%%DocumentProcessColors: Cyan Magenta Yellow Black
%%LanguageLevel: 2
%%Pages: 1
%%BoundingBox:    36    93   566   572
%%EndComments

%%BeginProlog
% MathWorks dictionary
/MathWorks 160 dict begin
% definition operators
/bdef {bind def} bind def
/ldef {load def} bind def
/xdef {exch def} bdef
/xstore {exch store} bdef
% operator abbreviations
/c  /clip ldef
/cc /concat ldef
/cp /closepath ldef
/gr /grestore ldef
/gs /gsave ldef
/mt /moveto ldef
/np /newpath ldef
/cm /currentmatrix ldef
/sm /setmatrix ldef
/rm /rmoveto ldef
/rl /rlineto ldef
/s {show newpath} bdef
/sc {setcmykcolor} bdef
/sr /setrgbcolor ldef
/sg /setgray ldef
/w /setlinewidth ldef
/j /setlinejoin ldef
/cap /setlinecap ldef
/rc {rectclip} bdef
/rf {rectfill} bdef
% page state control
/pgsv () def
/bpage {/pgsv save def} bdef
/epage {pgsv restore} bdef
/bplot /gsave ldef
/eplot {stroke grestore} bdef
% orientation switch
/portraitMode 0 def /landscapeMode 1 def /rotateMode 2 def
% coordinate system mappings
/dpi2point 0 def
% font control
/FontSize 0 def
/FMS {/FontSize xstore findfont [FontSize 0 0 FontSize neg 0 0]
  makefont setfont} bdef
/ISOLatin1Encoding where {pop /WindowsLatin1Encoding 256 array bdef
ISOLatin1Encoding WindowsLatin1Encoding copy pop
/.notdef/.notdef/quotesinglbase/florin/quotedblbase/ellipsis/dagger
/daggerdbl/circumflex/perthousand/Scaron/guilsinglleft/OE/.notdef/.notdef
/.notdef/.notdef/quoteleft/quoteright/quotedblleft/quotedblright/bullet
/endash/emdash/tilde/trademark/scaron/guilsinglright/oe/.notdef/.notdef
/Ydieresis WindowsLatin1Encoding 128 32 getinterval astore pop}
{/WindowsLatin1Encoding StandardEncoding bdef} ifelse
/reencode {exch dup where {pop load} {pop StandardEncoding} ifelse
  exch dup 3 1 roll findfont dup length dict begin
  { 1 index /FID ne {def}{pop pop} ifelse } forall
  /Encoding exch def currentdict end definefont pop} bdef
/isroman {findfont /CharStrings get /Agrave known} bdef
/FMSR {3 1 roll 1 index dup isroman {reencode} {pop pop} ifelse
  exch FMS} bdef
/csm {1 dpi2point div -1 dpi2point div scale neg translate
 dup landscapeMode eq {pop -90 rotate}
  {rotateMode eq {90 rotate} if} ifelse} bdef
% line types: solid, dotted, dashed, dotdash
/SO { [] 0 setdash } bdef
/DO { [.5 dpi2point mul 4 dpi2point mul] 0 setdash } bdef
/DA { [6 dpi2point mul] 0 setdash } bdef
/DD { [.5 dpi2point mul 4 dpi2point mul 6 dpi2point mul 4
  dpi2point mul] 0 setdash } bdef
% macros for lines and objects
/L {lineto stroke} bdef
/MP {3 1 roll moveto 1 sub {rlineto} repeat} bdef
/AP {{rlineto} repeat} bdef
/PDlw -1 def
/W {/PDlw currentlinewidth def setlinewidth} def
/PP {closepath eofill} bdef
/DP {closepath stroke} bdef
/MR {4 -2 roll moveto dup  0 exch rlineto exch 0 rlineto
  neg 0 exch rlineto closepath} bdef
/FR {MR stroke} bdef
/PR {MR fill} bdef
/L1i {{currentfile picstr readhexstring pop} image} bdef
/tMatrix matrix def
/MakeOval {newpath tMatrix currentmatrix pop translate scale
0 0 1 0 360 arc tMatrix setmatrix} bdef
/FO {MakeOval stroke} bdef
/PO {MakeOval fill} bdef
/PD {currentlinewidth 2 div 0 360 arc fill
   PDlw -1 eq not {PDlw w /PDlw -1 def} if} def
/FA {newpath tMatrix currentmatrix pop translate scale
  0 0 1 5 -2 roll arc tMatrix setmatrix stroke} bdef
/PA {newpath tMatrix currentmatrix pop	translate 0 0 moveto scale
  0 0 1 5 -2 roll arc closepath tMatrix setmatrix fill} bdef
/FAn {newpath tMatrix currentmatrix pop translate scale
  0 0 1 5 -2 roll arcn tMatrix setmatrix stroke} bdef
/PAn {newpath tMatrix currentmatrix pop translate 0 0 moveto scale
  0 0 1 5 -2 roll arcn closepath tMatrix setmatrix fill} bdef
/vradius 0 def /hradius 0 def /lry 0 def
/lrx 0 def /uly 0 def /ulx 0 def /rad 0 def
/MRR {/vradius xdef /hradius xdef /lry xdef /lrx xdef /uly xdef
  /ulx xdef newpath tMatrix currentmatrix pop ulx hradius add uly
  vradius add translate hradius vradius scale 0 0 1 180 270 arc 
  tMatrix setmatrix lrx hradius sub uly vradius add translate
  hradius vradius scale 0 0 1 270 360 arc tMatrix setmatrix
  lrx hradius sub lry vradius sub translate hradius vradius scale
  0 0 1 0 90 arc tMatrix setmatrix ulx hradius add lry vradius sub
  translate hradius vradius scale 0 0 1 90 180 arc tMatrix setmatrix
  closepath} bdef
/FRR {MRR stroke } bdef
/PRR {MRR fill } bdef
/MlrRR {/lry xdef /lrx xdef /uly xdef /ulx xdef /rad lry uly sub 2 div def
  newpath tMatrix currentmatrix pop ulx rad add uly rad add translate
  rad rad scale 0 0 1 90 270 arc tMatrix setmatrix lrx rad sub lry rad
  sub translate rad rad scale 0 0 1 270 90 arc tMatrix setmatrix
  closepath} bdef
/FlrRR {MlrRR stroke } bdef
/PlrRR {MlrRR fill } bdef
/MtbRR {/lry xdef /lrx xdef /uly xdef /ulx xdef /rad lrx ulx sub 2 div def
  newpath tMatrix currentmatrix pop ulx rad add uly rad add translate
  rad rad scale 0 0 1 180 360 arc tMatrix setmatrix lrx rad sub lry rad
  sub translate rad rad scale 0 0 1 0 180 arc tMatrix setmatrix
  closepath} bdef
/FtbRR {MtbRR stroke } bdef
/PtbRR {MtbRR fill } bdef
/stri 6 array def /dtri 6 array def
/smat 6 array def /dmat 6 array def
/tmat1 6 array def /tmat2 6 array def /dif 3 array def
/asub {/ind2 exch def /ind1 exch def dup dup
  ind1 get exch ind2 get sub exch } bdef
/tri_to_matrix {
  2 0 asub 3 1 asub 4 0 asub 5 1 asub
  dup 0 get exch 1 get 7 -1 roll astore } bdef
/compute_transform {
  dmat dtri tri_to_matrix tmat1 invertmatrix 
  smat stri tri_to_matrix tmat2 concatmatrix } bdef
/ds {stri astore pop} bdef
/dt {dtri astore pop} bdef
/db {2 copy /cols xdef /rows xdef mul dup 3 mul string
  currentfile 
  3 index 0 eq {/ASCIIHexDecode filter}
  {/ASCII85Decode filter 3 index 2 eq {/RunLengthDecode filter} if }
  ifelse exch readstring pop
  dup 0 3 index getinterval /rbmap xdef
  dup 2 index dup getinterval /gbmap xdef
  1 index dup 2 mul exch getinterval /bbmap xdef pop pop}bdef
/it {gs np dtri aload pop moveto lineto lineto cp c
  cols rows 8 compute_transform 
  rbmap gbmap bbmap true 3 colorimage gr}bdef
/il {newpath moveto lineto stroke}bdef
currentdict end def
%%EndProlog

%%BeginSetup
MathWorks begin

0 cap

end
%%EndSetup

%%Page: 1 1
%%BeginPageSetup
%%PageBoundingBox:    36    93   566   572
MathWorks begin
bpage
%%EndPageSetup

%%BeginObject: obj1
bplot

/dpi2point 8.33333 def
portraitMode 0150 5158 csm

  153   390  4420  3990 rc
85 dict begin %Colortable dictionary
/c0 { 0.000000 0.000000 0.000000 sr} bdef
/c1 { 1.000000 1.000000 1.000000 sr} bdef
/c2 { 0.900000 0.000000 0.000000 sr} bdef
/c3 { 0.000000 0.820000 0.000000 sr} bdef
/c4 { 0.000000 0.000000 0.800000 sr} bdef
/c5 { 0.910000 0.820000 0.320000 sr} bdef
/c6 { 1.000000 0.260000 0.820000 sr} bdef
/c7 { 0.000000 0.820000 0.820000 sr} bdef
c0
1 j
1 sg
   0    0 5001 5001 rf
12.5 w
0 3500 3750 0 0 -3500 750 4000 4 MP
PP
-3750 0 0 3500 3750 0 0 -3500 750 4000 5 MP stroke
gs 750 500 3751 3501 rc
16.6667 w
/c8 { 1.000000 0.000000 0.000000 sr} bdef
c8
-32 -30 -38 -35 -37 -35 -37 -35 -38 -35 -37 -35 -38 -35 -37 -35 
-38 -34 -37 -35 -37 -35 -37 -35 -38 -35 -37 -34 -37 -35 -37 -34 
-37 -35 -37 -34 -36 -35 -37 -34 -37 -34 -36 -34 -37 -34 -36 -34 
-37 -34 -36 -34 -36 -33 -36 -34 -36 -34 -35 -33 -36 -33 -35 -33 
-36 -33 -35 -33 -35 -33 -35 -33 -35 -32 -35 -32 -34 -33 -34 -32 
-35 -32 -34 -31 -34 -32 -33 -31 -34 -32 -33 -31 -33 -31 -33 -31 
-33 -30 -33 -31 -32 -30 -32 -30 -32 -30 -32 -29 -32 -30 -31 -29 
-31 -29 -31 -29 -31 -29 -30 -28 -30 -28 -30 -28 -30 -28 -30 -28 
-29 -27 -29 -27 -29 -27 -28 -27 -29 -26 -28 -26 -28 -26 -27 -26 
-27 -25 -27 -25 -27 -25 -26 -25 -26 -24 -26 -24 -26 -24 -25 -24 
-25 -23 -25 -23 -24 -23 -24 -22 -24 -23 -23 -22 -24 -21 -22 -22 
-23 -21 -22 -20 -22 -21 -22 -20 -21 -20 -21 -19 -21 -20 -20 -19 
-20 -18 -19 -18 -20 -18 -19 -18 -18 -18 -19 -17 -17 -16 -18 -17 
-17 -16 -17 -16 -17 -15 -16 -15 -16 -15 -15 -14 -15 -14 -15 -14 
-14 -14 -14 -13 -14 -12 -13 -13 -13 -12 -13 -12 -12 -11 -12 -11 
-11 -11 -11 -10 -11 -10 -10 -9 -10 -10 -10 -9 -9 -8 -9 -8 
-8 -8 -8 -8 -8 -7 -7 -7 -7 -6 -6 -6 -6 -6 -6 -5 
-5 -5 -5 -5 -5 -4 -4 -4 -4 -3 -3 -3 -3 -3 -3 -2 
-2 -3 -2 -1 -1 -2 -1 0 -1 -1 1 0 1 1 1 2 
2 1 2 2 3 3 2 2 4 3 4 4 4 4 4 4 
5 4 5 5 6 6 6 5 6 6 7 7 7 6 8 7 
8 8 8 8 9 8 9 8 10 9 9 9 11 10 10 10 
11 10 12 11 11 11 13 11 12 12 13 12 13 12 14 13 
14 13 14 13 15 14 15 14 15 14 16 15 16 15 17 15 
17 16 17 16 17 17 18 16 18 17 19 18 19 17 19 18 
20 18 20 19 20 19 20 19 21 20 21 19 22 21 22 20 
22 21 23 21 22 21 24 22 23 21 24 23 24 22 24 23 
25 23 25 23 25 24 25 23 26 25 26 24 27 24 26 25 
27 25 27 26 28 26 28 25 28 27 28 26 28 26 29 27 
29 27 29 28 30 27 30 28 30 28 30 28 30 29 31 28 
31 29 31 29 31 29 32 30 32 29 32 30 32 30 32 31 
33 30 33 31 32 30 34 31 33 31 33 32 34 31 34 32 
34 31 34 32 34 32 35 32 35 33 34 32 35 33 35 33 
36 33 35 32 35 34 36 33 36 33 36 34 36 33 36 34 
36 34 36 33 36 34 37 34 36 35 37 34 37 34 37 34 
37 35 36 34 37 35 38 34 37 35 37 35 37 34 37 35 
38 35 37 35 37 35 38 35 37 35 38 35 37 35 38 35 
37 35 37 34 750 500 299 MP stroke
gr

16.6667 w
c8
0.1 sg
%%IncludeResource: font Helvetica-Bold
/Helvetica-Bold /WindowsLatin1Encoding 183.333 FMSR

1773 4322 mt 
(Normal Overlap [m]) s
 346 2993 mt  -90 rotate
(Normal Force [N]) s
90 rotate
gs 750 500 3751 3501 rc
/c9 { 0.000000 0.000000 1.000000 sr} bdef
c9
-18 -17 -30 -28 -30 -28 -30 -28 -31 -28 -30 -29 -30 -28 -30 -28 
-30 -28 -31 -28 -30 -29 -30 -28 -31 -28 -30 -29 -30 -28 -31 -28 
-30 -28 -30 -29 -30 -28 -31 -28 -30 -28 -30 -29 -30 -28 -30 -28 
-31 -28 -30 -28 -30 -28 -30 -28 -30 -28 -30 -28 -29 -28 -30 -28 
-30 -27 -30 -28 -29 -28 -30 -27 -29 -28 -29 -27 -30 -27 -29 -28 
-29 -27 -29 -27 -29 -27 -29 -27 -29 -27 -28 -26 -29 -27 -28 -27 
-29 -26 -28 -26 -28 -27 -28 -26 -28 -26 -27 -25 -28 -26 -27 -26 
-28 -25 -27 -26 -27 -25 -26 -25 -27 -25 -27 -24 -26 -25 -26 -24 
-26 -25 -26 -24 -26 -24 -25 -24 -26 -23 -25 -24 -25 -23 -25 -23 
-24 -23 -25 -23 -24 -23 -24 -22 -24 -22 -24 -23 -23 -21 -23 -22 
-23 -21 -23 -22 -22 -21 -23 -21 -22 -20 -22 -21 -21 -20 -22 -20 
-21 -20 -21 -19 -21 -20 -20 -19 -20 -19 -20 -18 -20 -19 -20 -18 
-19 -18 -19 -17 -19 -18 -18 -17 -18 -17 -18 -17 -18 -16 -17 -16 
-17 -16 -17 -16 -16 -15 -17 -16 -16 -15 -15 -14 -16 -15 -15 -14 
-15 -13 -14 -14 -14 -13 -14 -13 -14 -13 -13 -12 -13 -12 -13 -12 
-12 -12 -12 -11 -12 -11 -12 -11 -11 -10 -10 -10 -11 -10 -10 -10 
-10 -9 -10 -9 -9 -8 -9 -9 -8 -8 -8 -7 -8 -8 -8 -7 
-7 -7 -7 -6 -7 -6 -6 -6 -6 -5 -5 -6 -5 -4 -5 -5 
-5 -4 -4 -4 -4 -4 -3 -3 -4 -3 -2 -2 -3 -3 -2 -2 
-2 -1 -1 -2 -1 -1 -1 0 1 0 0 0 1 1 1 2 
2 1 2 2 3 3 3 2 3 3 4 4 3 3 5 4 
4 5 5 4 6 5 5 6 6 5 7 6 7 7 7 6 
7 7 8 8 8 7 9 8 9 9 9 8 10 9 10 9 
10 10 11 10 11 10 11 11 12 11 12 11 12 12 13 12 
13 12 13 12 14 13 14 13 15 14 15 14 15 14 15 14 
16 15 16 15 17 16 17 15 17 17 17 16 18 17 18 16 
19 18 19 17 19 18 19 18 20 19 20 19 21 19 20 19 
22 20 21 20 22 20 22 20 22 21 22 21 23 22 24 21 
23 22 24 22 24 23 24 23 25 23 25 23 25 23 26 24 
25 24 26 25 27 24 26 25 27 25 27 26 28 25 28 26 
28 26 28 26 28 27 29 27 29 27 29 27 29 27 30 28 
30 28 30 28 31 29 30 28 31 29 31 29 31 29 32 29 
32 30 31 30 33 30 32 30 32 30 33 31 33 31 33 30 
33 32 34 31 34 31 33 32 34 31 35 32 34 32 34 33 
35 32 35 32 35 33 35 33 35 33 36 33 35 33 36 33 
36 34 35 33 36 34 37 34 36 33 36 34 37 34 36 35 
37 34 37 34 37 35 37 34 37 35 37 34 37 35 37 35 
38 35 37 35 37 34 750 500 300 MP stroke
0 sg
-18 -16 -22 -22 -23 -21 -23 -21 -22 -21 -23 -22 -23 -21 -23 -21 
-23 -22 -23 -21 -24 -22 -23 -22 -23 -21 -23 -22 -24 -22 -23 -22 
-24 -22 -23 -22 -23 -22 -24 -21 -24 -22 -23 -22 -24 -23 -23 -22 
-24 -22 -24 -22 -23 -22 -24 -22 -24 -22 -23 -22 -24 -22 -24 -22 
-24 -23 -23 -22 -24 -22 -24 -22 -23 -22 -24 -22 -24 -22 -23 -22 
-24 -22 -23 -22 -24 -22 -24 -22 -23 -22 -23 -22 -24 -22 -23 -22 
-24 -21 -23 -22 -23 -22 -23 -21 -23 -22 -23 -22 -23 -21 -23 -21 
-23 -22 -23 -21 -23 -21 -22 -21 -23 -21 -22 -21 -23 -21 -22 -21 
-22 -21 -23 -21 -22 -20 -22 -21 -22 -20 -21 -20 -22 -21 -21 -20 
-22 -20 -21 -20 -21 -20 -22 -19 -21 -20 -20 -19 -21 -20 -21 -19 
-20 -19 -20 -19 -21 -19 -20 -18 -20 -19 -19 -18 -20 -19 -19 -18 
-20 -18 -19 -18 -19 -18 -19 -17 -18 -18 -19 -17 -18 -17 -18 -17 
-18 -17 -18 -16 -18 -17 -17 -16 -18 -16 -17 -16 -17 -16 -16 -16 
-17 -15 -16 -15 -16 -15 -16 -15 -16 -15 -15 -14 -16 -15 -15 -14 
-15 -13 -14 -14 -15 -14 -14 -13 -14 -13 -14 -13 -13 -12 -14 -13 
-13 -12 -13 -12 -12 -12 -13 -11 -12 -12 -12 -11 -11 -11 -12 -10 
-11 -11 -11 -10 -10 -10 -11 -10 -10 -9 -10 -9 -9 -9 -10 -9 
-9 -8 -9 -9 -8 -8 -8 -7 -8 -8 -8 -7 -8 -7 -7 -7 
-7 -6 -6 -6 -7 -6 -6 -6 -5 -5 -6 -5 -5 -5 -5 -5 
-5 -4 -4 -4 -4 -4 -4 -3 -3 -3 -3 -3 -3 -3 -3 -2 
-2 -2 -2 -2 -1 -2 -2 -1 -1 -1 -1 -1 1 0 -1 0 
2 2 1 1 2 1 2 2 2 2 2 2 3 3 3 3 
4 3 3 3 4 4 5 4 5 5 5 5 5 5 6 5 
6 5 6 6 7 7 7 6 7 7 8 7 8 8 8 7 
9 9 9 8 9 9 10 9 10 9 10 9 11 10 10 11 
12 10 11 11 12 11 13 12 12 11 13 12 13 13 14 12 
14 13 14 14 15 13 15 14 15 14 15 15 16 15 16 15 
17 15 17 16 17 16 17 16 18 17 18 17 19 17 18 17 
19 18 20 18 19 19 20 18 21 19 20 20 21 19 22 20 
21 20 22 20 22 21 23 21 22 21 23 22 24 22 23 22 
24 22 25 23 24 22 25 24 25 23 25 24 26 24 26 24 
26 24 27 25 27 25 27 25 27 26 28 26 27 26 29 26 
28 27 29 26 29 27 29 28 29 27 30 28 30 28 30 28 
30 28 31 29 31 29 31 29 32 29 31 30 32 29 32 30 
32 30 33 31 33 30 33 31 33 31 33 31 34 31 33 32 
34 32 35 32 34 32 35 32 34 32 35 33 35 33 36 33 
35 33 36 33 36 34 36 33 36 34 36 34 36 34 37 34 
37 34 37 35 37 34 861 604 300 MP stroke
37 35 37 35 37 34 750 500 4 MP stroke
/c10 { 1.000000 0.000000 1.000000 sr} bdef
c10
-1 -1 -19 -17 -19 -18 -19 -18 -19 -18 -19 -17 -19 -18 -19 -18 
-20 -18 -19 -18 -19 -19 -20 -18 -20 -18 -19 -19 -20 -18 -20 -18 
-20 -19 -20 -19 -20 -18 -20 -19 -20 -19 -20 -18 -20 -19 -20 -19 
-20 -19 -21 -19 -20 -19 -20 -19 -21 -19 -20 -19 -21 -19 -20 -19 
-21 -19 -20 -19 -21 -20 -20 -19 -21 -19 -20 -19 -21 -19 -21 -20 
-20 -19 -21 -19 -21 -19 -20 -20 -21 -19 -20 -19 -21 -19 -21 -20 
-20 -19 -21 -19 -20 -19 -21 -20 -21 -19 -20 -19 -21 -19 -20 -19 
-20 -19 -21 -19 -20 -19 -21 -19 -20 -19 -20 -19 -20 -19 -21 -19 
-20 -19 -20 -18 -20 -19 -20 -19 -20 -18 -19 -19 -20 -18 -20 -19 
-19 -18 -20 -18 -20 -18 -19 -18 -19 -18 -20 -18 -19 -18 -19 -18 
-19 -18 -19 -18 -19 -17 -18 -18 -19 -17 -18 -17 -19 -17 -18 -18 
-18 -17 -19 -16 -18 -17 -17 -17 -18 -16 -18 -17 -17 -16 -18 -17 
-17 -16 -17 -16 -17 -15 -17 -16 -17 -16 -16 -15 -17 -16 -16 -15 
-16 -15 -16 -15 -16 -15 -16 -14 -15 -15 -16 -14 -15 -14 -15 -14 
-15 -14 -14 -14 -15 -14 -14 -13 -14 -13 -14 -13 -14 -13 -14 -13 
-13 -12 -14 -13 -13 -12 -13 -12 -12 -12 -13 -12 -12 -11 -12 -11 
-12 -11 -12 -11 -11 -11 -11 -11 -12 -10 -10 -10 -11 -10 -10 -10 
-11 -9 -10 -9 -9 -9 -10 -9 -9 -9 -9 -8 -9 -9 -8 -8 
-9 -7 -8 -8 -8 -7 -7 -7 -8 -7 -7 -7 -7 -6 -6 -6 
-7 -6 -6 -6 -5 -5 -6 -6 -5 -5 -5 -4 -5 -5 -5 -4 
-4 -4 -4 -4 -4 -3 -3 -3 -3 -3 -3 -3 -3 -3 -2 -2 
-2 -2 -2 -1 -2 -2 -1 -1 -1 -1 -1 -1 1 1 1 1 
1 1 1 1 2 2 2 2 3 2 2 2 3 3 3 3 
4 3 4 4 4 4 4 4 5 4 5 5 5 5 6 5 
6 6 6 6 7 6 7 7 7 6 8 7 8 8 8 7 
8 8 9 9 9 8 10 9 10 9 10 10 10 9 11 10 
11 11 11 10 12 11 12 11 12 12 13 12 13 12 13 12 
14 13 14 13 14 13 15 14 15 14 15 14 16 15 15 14 
17 16 16 15 17 16 17 16 18 16 17 17 18 16 19 18 
19 17 19 18 19 18 20 18 20 19 20 19 21 19 20 20 
22 19 21 21 22 20 22 21 23 21 22 21 24 21 23 22 
24 22 24 23 24 22 24 23 25 23 25 24 26 24 26 24 
26 24 26 25 27 24 26 25 28 26 27 25 28 26 28 26 
28 27 29 27 28 26 30 28 29 27 30 28 29 28 31 28 
30 28 31 29 31 29 31 29 31 29 32 30 32 30 32 30 
33 30 32 30 33 31 33 31 34 31 33 32 34 31 34 32 
35 32 34 32 35 32 35 33 35 33 35 33 36 33 35 33 
36 34 36 34 37 34 971 706 300 MP stroke
36 34 37 34 37 34 37 35 37 35 37 34 750 500 7 MP stroke
/c11 { 1.000000 1.000000 0.000000 sr} bdef
c11
-5 -5 -15 -14 -15 -14 -15 -14 -16 -14 -15 -15 -16 -14 -15 -15 
-16 -14 -16 -15 -15 -15 -16 -15 -16 -14 -16 -15 -16 -15 -17 -16 
-16 -15 -16 -15 -17 -15 -16 -16 -16 -15 -17 -15 -17 -16 -16 -16 
-17 -15 -17 -16 -17 -16 -17 -15 -17 -16 -17 -16 -17 -16 -17 -16 
-17 -16 -17 -16 -17 -16 -18 -16 -17 -16 -17 -16 -18 -17 -17 -16 
-17 -16 -18 -17 -17 -16 -18 -16 -17 -17 -18 -16 -18 -16 -17 -17 
-18 -16 -18 -17 -17 -16 -18 -17 -18 -16 -17 -17 -18 -16 -18 -17 
-17 -16 -18 -17 -18 -16 -17 -17 -18 -16 -18 -17 -17 -16 -18 -17 
-18 -16 -17 -17 -18 -16 -18 -17 -17 -16 -18 -16 -17 -17 -18 -16 
-17 -16 -18 -17 -17 -16 -17 -16 -18 -16 -17 -16 -17 -17 -17 -16 
-18 -16 -17 -16 -17 -15 -17 -16 -17 -16 -17 -16 -16 -16 -17 -15 
-17 -16 -16 -15 -17 -16 -16 -15 -17 -15 -16 -16 -16 -15 -17 -15 
-16 -15 -16 -15 -16 -15 -15 -14 -16 -15 -16 -15 -15 -14 -16 -15 
-15 -14 -15 -14 -16 -14 -15 -14 -14 -14 -15 -14 -15 -14 -15 -13 
-14 -14 -14 -13 -15 -14 -14 -13 -14 -13 -13 -13 -14 -12 -14 -13 
-13 -13 -13 -12 -14 -12 -13 -12 -12 -12 -13 -12 -13 -12 -12 -12 
-12 -11 -12 -11 -12 -11 -12 -11 -12 -11 -11 -11 -11 -10 -11 -11 
-11 -10 -11 -10 -11 -10 -10 -10 -10 -9 -10 -9 -10 -10 -10 -9 
-9 -8 -9 -9 -9 -8 -9 -9 -9 -8 -8 -8 -9 -7 -8 -8 
-8 -7 -7 -7 -8 -7 -7 -7 -7 -7 -7 -6 -6 -6 -6 -6 
-7 -6 -5 -5 -6 -5 -6 -5 -5 -5 -5 -5 -4 -4 -5 -4 
-4 -4 -4 -4 -4 -4 -3 -3 -4 -3 -3 -3 -2 -2 -3 -3 
-2 -2 -2 -2 -2 -1 -1 -2 -1 -1 -1 -1 -1 0 -1 -1 
1 0 1 1 1 1 1 1 1 2 2 2 2 1 2 3 
3 2 3 3 3 3 4 3 3 4 4 3 5 4 4 5 
5 4 6 5 5 5 6 6 6 6 7 6 6 6 7 6 
8 7 7 7 8 8 8 7 9 8 9 9 9 8 9 9 
10 9 10 10 11 9 10 10 11 11 12 10 11 11 12 11 
13 12 12 11 13 12 13 13 14 12 14 13 14 14 14 13 
15 14 15 14 16 14 16 15 16 15 16 15 17 16 17 16 
17 16 18 17 18 16 18 18 19 17 19 18 19 18 20 18 
19 18 21 19 20 19 21 20 21 20 22 20 21 20 23 21 
22 21 23 21 23 21 23 22 24 22 24 23 24 22 25 23 
25 23 25 24 25 24 26 24 26 24 27 25 26 25 27 25 
28 26 27 25 28 26 29 27 28 26 29 27 29 27 29 28 
30 28 30 28 30 28 31 28 30 29 32 29 31 29 32 30 
31 30 33 30 32 30 33 30 33 31 33 31 34 32 33 31 
34 32 35 32 34 32 1183 904 300 MP stroke
35 33 35 32 35 33 36 33 36 34 36 33 36 34 36 34 
37 35 37 34 37 35 37 34 750 500 13 MP stroke
/c12 { 0.000000 1.000000 1.000000 sr} bdef
c12
-6 -6 -8 -7 -8 -7 -7 -7 -8 -8 -8 -7 -8 -8 -8 -7 
-8 -8 -8 -7 -9 -8 -8 -8 -8 -8 -9 -7 -8 -8 -9 -8 
-9 -8 -8 -9 -9 -8 -9 -8 -9 -8 -9 -9 -9 -8 -9 -9 
-9 -8 -9 -9 -10 -9 -9 -8 -10 -9 -9 -9 -10 -9 -9 -9 
-10 -9 -10 -9 -10 -9 -9 -10 -10 -9 -10 -9 -10 -10 -11 -9 
-10 -9 -10 -10 -10 -10 -11 -9 -10 -10 -10 -10 -11 -10 -11 -9 
-10 -10 -11 -10 -11 -10 -10 -10 -11 -10 -11 -11 -11 -10 -11 -10 
-11 -10 -11 -11 -11 -10 -11 -10 -11 -11 -12 -10 -11 -11 -11 -10 
-12 -11 -11 -11 -12 -10 -11 -11 -12 -11 -11 -11 -12 -11 -11 -10 
-12 -11 -12 -11 -11 -11 -12 -11 -12 -11 -12 -11 -12 -11 -12 -11 
-11 -11 -12 -12 -12 -11 -12 -11 -12 -11 -12 -11 -12 -12 -12 -11 
-13 -11 -12 -11 -12 -12 -12 -11 -12 -11 -12 -12 -12 -11 -12 -11 
-13 -12 -12 -11 -12 -11 -12 -12 -12 -11 -12 -11 -13 -12 -12 -11 
-12 -12 -12 -11 -12 -11 -12 -12 -13 -11 -12 -11 -12 -12 -12 -11 
-12 -11 -12 -11 -12 -12 -12 -11 -12 -11 -12 -11 -12 -12 -12 -11 
-12 -11 -12 -11 -12 -11 -12 -11 -12 -11 -11 -11 -12 -11 -12 -11 
-11 -11 -12 -11 -12 -11 -11 -10 -12 -11 -11 -11 -12 -10 -11 -11 
-11 -10 -11 -11 -12 -10 -11 -11 -11 -10 -11 -10 -11 -10 -10 -11 
-11 -10 -11 -10 -11 -10 -10 -9 -11 -10 -10 -10 -10 -10 -11 -9 
-10 -10 -10 -9 -10 -10 -10 -9 -10 -9 -10 -9 -9 -9 -10 -9 
-9 -9 -10 -9 -9 -8 -9 -9 -9 -8 -9 -8 -9 -9 -8 -8 
-9 -8 -9 -8 -8 -8 -8 -7 -8 -8 -8 -7 -8 -8 -8 -7 
-7 -7 -8 -7 -7 -7 -7 -7 -8 -6 -6 -7 -7 -6 -7 -6 
-6 -6 -7 -6 -6 -6 -6 -5 -6 -6 -5 -5 -6 -5 -5 -5 
-6 -5 -5 -5 -5 -5 -4 -4 -5 -4 -4 -4 -4 -4 -4 -4 
-4 -4 -4 -3 -3 -3 -4 -3 -3 -3 -3 -3 -2 -2 -3 -3 
-2 -2 -2 -2 -2 -2 -2 -1 -1 -2 -1 -1 -2 -1 -1 -1 
-1 -1 1 1 1 1 1 1 1 1 2 1 1 2 2 2 
2 2 3 2 2 2 3 3 3 3 4 3 3 3 4 4 
4 4 5 4 5 4 4 5 6 5 5 5 6 5 6 6 
6 6 7 6 7 6 7 7 7 7 8 7 8 8 8 7 
9 8 9 9 9 8 9 9 10 9 10 10 10 9 11 10 
11 10 11 11 12 11 12 11 12 11 12 12 13 12 13 12 
14 13 14 12 14 14 14 13 15 14 15 14 15 14 16 15 
16 15 16 15 17 16 17 16 18 16 17 16 18 17 19 17 
18 18 19 18 20 18 20 18 20 19 20 19 21 19 21 20 
22 20 21 21 23 20 22 21 23 22 23 21 24 22 24 23 
24 22 25 24 25 23 1815 1494 300 MP stroke
25 24 26 24 26 24 26 25 27 25 27 25 28 26 28 26 
28 26 29 27 29 27 29 27 30 28 30 28 30 28 31 29 
31 29 32 30 32 30 32 30 33 30 33 31 33 31 34 31 
34 32 34 32 35 33 35 33 36 33 36 33 36 34 36 34 
37 35 37 34 750 500 35 MP stroke
/c13 { 0.000000 1.000000 0.000000 sr} bdef
c13
-2 -2 -4 -4 -4 -3 -4 -4 -4 -4 -4 -3 -4 -4 -4 -4 
-4 -4 -4 -4 -5 -4 -4 -4 -4 -4 -5 -4 -4 -4 -5 -4 
-4 -4 -5 -5 -4 -4 -5 -4 -5 -5 -4 -4 -5 -5 -5 -4 
-5 -5 -5 -5 -5 -4 -5 -5 -5 -5 -5 -5 -6 -4 -5 -5 
-5 -5 -6 -5 -5 -5 -5 -5 -6 -6 -6 -5 -5 -5 -6 -5 
-6 -6 -5 -5 -6 -5 -6 -6 -6 -5 -6 -6 -6 -6 -6 -5 
-6 -6 -6 -6 -6 -6 -7 -5 -6 -6 -6 -6 -7 -6 -6 -6 
-7 -6 -6 -6 -7 -7 -7 -6 -6 -6 -7 -6 -7 -7 -7 -6 
-7 -7 -6 -6 -7 -7 -7 -6 -8 -7 -7 -6 -7 -7 -7 -7 
-7 -7 -8 -6 -7 -7 -7 -7 -8 -7 -7 -7 -8 -7 -8 -7 
-7 -7 -8 -8 -8 -7 -7 -7 -8 -7 -8 -8 -8 -7 -8 -7 
-8 -8 -8 -7 -8 -8 -8 -7 -8 -8 -8 -8 -9 -7 -8 -8 
-8 -8 -9 -8 -8 -7 -8 -8 -9 -8 -8 -8 -9 -8 -8 -8 
-9 -8 -9 -8 -8 -8 -9 -8 -9 -9 -8 -8 -9 -8 -9 -8 
-9 -8 -9 -9 -9 -8 -9 -8 -9 -9 -9 -8 -9 -9 -9 -8 
-9 -9 -9 -8 -9 -9 -9 -8 -9 -9 -10 -8 -9 -9 -9 -8 
-9 -9 -10 -9 -9 -8 -9 -9 -9 -9 -10 -9 -9 -8 -10 -9 
-9 -9 -9 -9 -10 -8 -9 -9 -10 -9 -9 -9 -10 -9 -9 -8 
-9 -9 -10 -9 -9 -9 -10 -9 -9 -9 -10 -8 -9 -9 -10 -9 
-9 -9 -10 -9 -9 -9 -10 -8 -9 -9 -10 -9 -9 -9 -9 -9 
-10 -9 -9 -8 -10 -9 -9 -9 -9 -9 -10 -8 -9 -9 -9 -9 
-10 -8 -9 -9 -9 -9 -9 -8 -9 -9 -10 -8 -9 -9 -9 -8 
-9 -9 -9 -8 -9 -9 -9 -8 -9 -8 -9 -9 -9 -8 -8 -8 
-9 -8 -9 -8 -9 -9 -8 -8 -9 -8 -8 -8 -9 -7 -8 -8 
-9 -8 -8 -8 -8 -8 -8 -7 -8 -8 -8 -7 -8 -8 -8 -7 
-8 -7 -8 -8 -8 -7 -7 -7 -8 -7 -7 -7 -8 -7 -7 -7 
-7 -7 -8 -6 -7 -7 -7 -6 -7 -7 -6 -6 -7 -6 -7 -7 
-6 -6 -7 -6 -6 -6 -6 -5 -6 -6 -6 -6 -6 -5 -6 -6 
-5 -5 -6 -5 -5 -5 -6 -5 -5 -5 -5 -5 -5 -4 -5 -5 
-4 -4 -5 -4 -4 -4 -5 -4 -4 -4 -4 -4 -4 -3 -3 -4 
-4 -3 -3 -3 -3 -3 -3 -3 -3 -3 -3 -3 -3 -2 -2 -2 
-2 -2 -3 -2 -1 -2 -2 -2 -2 -1 -1 -2 -1 -1 -2 -1 
-1 -1 -1 -1 1 0 -1 0 2 2 1 0 1 2 1 1 
2 1 1 2 2 2 3 2 2 2 3 3 3 2 3 3 
3 3 4 4 4 3 4 4 4 4 5 4 5 5 5 5 
5 5 6 5 5 5 7 6 6 6 7 6 7 7 7 7 
7 7 8 7 8 7 8 8 9 8 9 8 9 9 10 9 
9 9 11 9 10 10 2343 1987 300 MP stroke
11 10 11 10 11 11 12 11 12 11 12 11 12 12 13 12 
14 13 13 12 14 13 14 14 15 13 15 14 15 14 16 15 
16 15 16 15 16 15 17 16 18 17 18 16 18 17 18 17 
19 18 19 18 20 18 20 19 20 18 21 20 21 19 21 21 
22 20 22 21 23 21 23 21 23 22 24 22 24 23 25 23 
25 23 25 24 26 24 27 25 26 25 27 25 28 26 28 26 
28 26 29 27 29 27 30 28 30 28 30 28 31 29 32 30 
32 29 32 30 33 31 33 31 33 31 34 32 35 32 35 33 
35 33 36 34 37 34 36 34 37 34 750 500 70 MP stroke
gr

c13
0 sg
%%IncludeResource: font Helvetica
/Helvetica /WindowsLatin1Encoding 83.3333 FMSR

 732 4037 mt 
( ) s
4483  536 mt 
( ) s
8.33333 w
DO
SO
12.5 w
0.1 sg
 750  500 mt 4500  500 L
 750 4000 mt 4500 4000 L
4500 4000 mt 4500  500 L
 750 4000 mt  750  500 L
 750 4000 mt 4500 4000 L
 750 4000 mt  750  500 L
 750 4000 mt  750 3943 L
 750  500 mt  750  556 L
%%IncludeResource: font Helvetica
/Helvetica /WindowsLatin1Encoding 133.333 FMSR

 713 4148 mt 
(0) s
2625 4000 mt 2625 3943 L
2625  500 mt 2625  556 L
2588 4148 mt 
(1) s
4500 4000 mt 4500 3943 L
4500  500 mt 4500  556 L
4463 4148 mt 
(2) s
4147 4349 mt 
(x 10) s
%%IncludeResource: font Helvetica
/Helvetica /WindowsLatin1Encoding 88.8889 FMSR

4399 4267 mt 
(-4) s
 750 4000 mt  806 4000 L
4500 4000 mt 4443 4000 L
%%IncludeResource: font Helvetica
/Helvetica /WindowsLatin1Encoding 133.333 FMSR

 426 4049 mt 
(-200) s
 750 3650 mt  806 3650 L
4500 3650 mt 4443 3650 L
 426 3699 mt 
(-180) s
 750 3300 mt  806 3300 L
4500 3300 mt 4443 3300 L
 426 3349 mt 
(-160) s
 750 2950 mt  806 2950 L
4500 2950 mt 4443 2950 L
 426 2999 mt 
(-140) s
 750 2600 mt  806 2600 L
4500 2600 mt 4443 2600 L
 426 2649 mt 
(-120) s
 750 2250 mt  806 2250 L
4500 2250 mt 4443 2250 L
 426 2299 mt 
(-100) s
 750 1900 mt  806 1900 L
4500 1900 mt 4443 1900 L
 500 1949 mt 
(-80) s
 750 1550 mt  806 1550 L
4500 1550 mt 4443 1550 L
 500 1599 mt 
(-60) s
 750 1200 mt  806 1200 L
4500 1200 mt 4443 1200 L
 500 1249 mt 
(-40) s
 750  850 mt  806  850 L
4500  850 mt 4443  850 L
 500  899 mt 
(-20) s
 750  500 mt  806  500 L
4500  500 mt 4443  500 L
 652  549 mt 
(0) s
 750  500 mt 4500  500 L
 750 4000 mt 4500 4000 L
4500 4000 mt 4500  500 L
 750 4000 mt  750  500 L
0 sg
%%IncludeResource: font Helvetica-Bold
/Helvetica-Bold /WindowsLatin1Encoding 125 FMSR

3732  921 mt 
(CoR = 1) s
gs 3406 777 939 1197 rc
16.6667 w
c8
250 0 3456 874 2 MP stroke
gr

16.6667 w
c8
0 sg
3732 1088 mt 
(CoR = 0.8) s
gs 3406 777 939 1197 rc
c9
250 0 3456 1041 2 MP stroke
gr

c9
0 sg
3732 1255 mt 
(CoR = 0.6) s
gs 3406 777 939 1197 rc
250 0 3456 1208 2 MP stroke
gr

3732 1421 mt 
(CoR = 0.5) s
gs 3406 777 939 1197 rc
c10
250 0 3456 1375 2 MP stroke
gr

c10
0 sg
3732 1588 mt 
(CoR = 0.4) s
gs 3406 777 939 1197 rc
c11
250 0 3456 1541 2 MP stroke
gr

c11
0 sg
3732 1755 mt 
(CoR = 0.2) s
gs 3406 777 939 1197 rc
c12
250 0 3456 1708 2 MP stroke
gr

c12
0 sg
3732 1922 mt 
(CoR = 0.1) s
gs 3406 777 939 1197 rc
c13
250 0 3456 1875 2 MP stroke
12.5 w
gr

12.5 w
c13

end %%Color Dict

eplot
%%EndObject

epage
end

showpage

%%Trailer
%%EOF
