%!PS-Adobe-3.0 EPSF-3.0
%%Creator: MATLAB, The MathWorks, Inc. Version 8.1.0.604 (R2013a). Operating System: Microsoft Windows 7.
%%Title: .\Force-Time_UnLoadingZoom_0_4N.eps
%%CreationDate: 08/15/2013  23:03:38
%%DocumentNeededFonts: Helvetica-Bold
%%+ Helvetica
%%DocumentProcessColors: Cyan Magenta Yellow Black
%%LanguageLevel: 2
%%Pages: 1
%%BoundingBox:    31    93   577   572
%%EndComments

%%BeginProlog
% MathWorks dictionary
/MathWorks 160 dict begin
% definition operators
/bdef {bind def} bind def
/ldef {load def} bind def
/xdef {exch def} bdef
/xstore {exch store} bdef
% operator abbreviations
/c  /clip ldef
/cc /concat ldef
/cp /closepath ldef
/gr /grestore ldef
/gs /gsave ldef
/mt /moveto ldef
/np /newpath ldef
/cm /currentmatrix ldef
/sm /setmatrix ldef
/rm /rmoveto ldef
/rl /rlineto ldef
/s {show newpath} bdef
/sc {setcmykcolor} bdef
/sr /setrgbcolor ldef
/sg /setgray ldef
/w /setlinewidth ldef
/j /setlinejoin ldef
/cap /setlinecap ldef
/rc {rectclip} bdef
/rf {rectfill} bdef
% page state control
/pgsv () def
/bpage {/pgsv save def} bdef
/epage {pgsv restore} bdef
/bplot /gsave ldef
/eplot {stroke grestore} bdef
% orientation switch
/portraitMode 0 def /landscapeMode 1 def /rotateMode 2 def
% coordinate system mappings
/dpi2point 0 def
% font control
/FontSize 0 def
/FMS {/FontSize xstore findfont [FontSize 0 0 FontSize neg 0 0]
  makefont setfont} bdef
/ISOLatin1Encoding where {pop /WindowsLatin1Encoding 256 array bdef
ISOLatin1Encoding WindowsLatin1Encoding copy pop
/.notdef/.notdef/quotesinglbase/florin/quotedblbase/ellipsis/dagger
/daggerdbl/circumflex/perthousand/Scaron/guilsinglleft/OE/.notdef/.notdef
/.notdef/.notdef/quoteleft/quoteright/quotedblleft/quotedblright/bullet
/endash/emdash/tilde/trademark/scaron/guilsinglright/oe/.notdef/.notdef
/Ydieresis WindowsLatin1Encoding 128 32 getinterval astore pop}
{/WindowsLatin1Encoding StandardEncoding bdef} ifelse
/reencode {exch dup where {pop load} {pop StandardEncoding} ifelse
  exch dup 3 1 roll findfont dup length dict begin
  { 1 index /FID ne {def}{pop pop} ifelse } forall
  /Encoding exch def currentdict end definefont pop} bdef
/isroman {findfont /CharStrings get /Agrave known} bdef
/FMSR {3 1 roll 1 index dup isroman {reencode} {pop pop} ifelse
  exch FMS} bdef
/csm {1 dpi2point div -1 dpi2point div scale neg translate
 dup landscapeMode eq {pop -90 rotate}
  {rotateMode eq {90 rotate} if} ifelse} bdef
% line types: solid, dotted, dashed, dotdash
/SO { [] 0 setdash } bdef
/DO { [.5 dpi2point mul 4 dpi2point mul] 0 setdash } bdef
/DA { [6 dpi2point mul] 0 setdash } bdef
/DD { [.5 dpi2point mul 4 dpi2point mul 6 dpi2point mul 4
  dpi2point mul] 0 setdash } bdef
% macros for lines and objects
/L {lineto stroke} bdef
/MP {3 1 roll moveto 1 sub {rlineto} repeat} bdef
/AP {{rlineto} repeat} bdef
/PDlw -1 def
/W {/PDlw currentlinewidth def setlinewidth} def
/PP {closepath eofill} bdef
/DP {closepath stroke} bdef
/MR {4 -2 roll moveto dup  0 exch rlineto exch 0 rlineto
  neg 0 exch rlineto closepath} bdef
/FR {MR stroke} bdef
/PR {MR fill} bdef
/L1i {{currentfile picstr readhexstring pop} image} bdef
/tMatrix matrix def
/MakeOval {newpath tMatrix currentmatrix pop translate scale
0 0 1 0 360 arc tMatrix setmatrix} bdef
/FO {MakeOval stroke} bdef
/PO {MakeOval fill} bdef
/PD {currentlinewidth 2 div 0 360 arc fill
   PDlw -1 eq not {PDlw w /PDlw -1 def} if} def
/FA {newpath tMatrix currentmatrix pop translate scale
  0 0 1 5 -2 roll arc tMatrix setmatrix stroke} bdef
/PA {newpath tMatrix currentmatrix pop	translate 0 0 moveto scale
  0 0 1 5 -2 roll arc closepath tMatrix setmatrix fill} bdef
/FAn {newpath tMatrix currentmatrix pop translate scale
  0 0 1 5 -2 roll arcn tMatrix setmatrix stroke} bdef
/PAn {newpath tMatrix currentmatrix pop translate 0 0 moveto scale
  0 0 1 5 -2 roll arcn closepath tMatrix setmatrix fill} bdef
/vradius 0 def /hradius 0 def /lry 0 def
/lrx 0 def /uly 0 def /ulx 0 def /rad 0 def
/MRR {/vradius xdef /hradius xdef /lry xdef /lrx xdef /uly xdef
  /ulx xdef newpath tMatrix currentmatrix pop ulx hradius add uly
  vradius add translate hradius vradius scale 0 0 1 180 270 arc 
  tMatrix setmatrix lrx hradius sub uly vradius add translate
  hradius vradius scale 0 0 1 270 360 arc tMatrix setmatrix
  lrx hradius sub lry vradius sub translate hradius vradius scale
  0 0 1 0 90 arc tMatrix setmatrix ulx hradius add lry vradius sub
  translate hradius vradius scale 0 0 1 90 180 arc tMatrix setmatrix
  closepath} bdef
/FRR {MRR stroke } bdef
/PRR {MRR fill } bdef
/MlrRR {/lry xdef /lrx xdef /uly xdef /ulx xdef /rad lry uly sub 2 div def
  newpath tMatrix currentmatrix pop ulx rad add uly rad add translate
  rad rad scale 0 0 1 90 270 arc tMatrix setmatrix lrx rad sub lry rad
  sub translate rad rad scale 0 0 1 270 90 arc tMatrix setmatrix
  closepath} bdef
/FlrRR {MlrRR stroke } bdef
/PlrRR {MlrRR fill } bdef
/MtbRR {/lry xdef /lrx xdef /uly xdef /ulx xdef /rad lrx ulx sub 2 div def
  newpath tMatrix currentmatrix pop ulx rad add uly rad add translate
  rad rad scale 0 0 1 180 360 arc tMatrix setmatrix lrx rad sub lry rad
  sub translate rad rad scale 0 0 1 0 180 arc tMatrix setmatrix
  closepath} bdef
/FtbRR {MtbRR stroke } bdef
/PtbRR {MtbRR fill } bdef
/stri 6 array def /dtri 6 array def
/smat 6 array def /dmat 6 array def
/tmat1 6 array def /tmat2 6 array def /dif 3 array def
/asub {/ind2 exch def /ind1 exch def dup dup
  ind1 get exch ind2 get sub exch } bdef
/tri_to_matrix {
  2 0 asub 3 1 asub 4 0 asub 5 1 asub
  dup 0 get exch 1 get 7 -1 roll astore } bdef
/compute_transform {
  dmat dtri tri_to_matrix tmat1 invertmatrix 
  smat stri tri_to_matrix tmat2 concatmatrix } bdef
/ds {stri astore pop} bdef
/dt {dtri astore pop} bdef
/db {2 copy /cols xdef /rows xdef mul dup 3 mul string
  currentfile 
  3 index 0 eq {/ASCIIHexDecode filter}
  {/ASCII85Decode filter 3 index 2 eq {/RunLengthDecode filter} if }
  ifelse exch readstring pop
  dup 0 3 index getinterval /rbmap xdef
  dup 2 index dup getinterval /gbmap xdef
  1 index dup 2 mul exch getinterval /bbmap xdef pop pop}bdef
/it {gs np dtri aload pop moveto lineto lineto cp c
  cols rows 8 compute_transform 
  rbmap gbmap bbmap true 3 colorimage gr}bdef
/il {newpath moveto lineto stroke}bdef
currentdict end def
%%EndProlog

%%BeginSetup
MathWorks begin

0 cap

end
%%EndSetup

%%Page: 1 1
%%BeginPageSetup
%%PageBoundingBox:    31    93   577   572
MathWorks begin
bpage
%%EndPageSetup

%%BeginObject: obj1
bplot

/dpi2point 8.33333 def
portraitMode 0150 5158 csm

  116   390  4550  3990 rc
84 dict begin %Colortable dictionary
/c0 { 0.000000 0.000000 0.000000 sr} bdef
/c1 { 1.000000 1.000000 1.000000 sr} bdef
/c2 { 0.900000 0.000000 0.000000 sr} bdef
/c3 { 0.000000 0.820000 0.000000 sr} bdef
/c4 { 0.000000 0.000000 0.800000 sr} bdef
/c5 { 0.910000 0.820000 0.320000 sr} bdef
/c6 { 1.000000 0.260000 0.820000 sr} bdef
/c7 { 0.000000 0.820000 0.820000 sr} bdef
c0
1 j
1 sg
   0    0 5001 5001 rf
12.5 w
0 3500 3750 0 0 -3500 750 4000 4 MP
PP
-3750 0 0 3500 3750 0 0 -3500 750 4000 5 MP stroke
gs 750 500 3751 3501 rc
16.6667 w
0 sg
1 0 3 0 3 0 2 0 3 0 2 0 3 0 2 0 
2 0 3 0 2 0 3 0 2 0 3 0 2 0 3 0 
2 0 3 0 2 0 3 0 3 0 2 0 3 0 2 0 
3 0 2 0 2 0 3 0 2 0 3 0 2 0 3 0 
2 0 3 0 2 0 3 0 3 0 2 0 3 0 2 0 
3 0 2 0 2 0 3 0 2 0 3 0 2 0 3 0 
2 0 3 0 2 1 3 0 2 0 3 0 3 0 2 0 
3 0 2 0 3 0 2 0 2 0 3 0 2 0 3 0 
2 0 3 0 2 0 3 0 2 0 3 0 3 1 2 0 
3 0 2 0 3 0 2 0 2 0 3 0 2 0 3 0 
2 0 3 0 2 0 3 0 2 0 3 0 2 0 3 0 
3 0 2 0 3 0 2 0 3 0 2 0 2 0 3 0 
2 0 3 0 2 0 3 0 2 0 3 0 2 0 3 0 
3 0 2 0 3 0 2 0 3 0 2 0 2 0 3 0 
2 0 3 0 2 0 3 0 2 0 3 0 2 0 3 0 
2 0 3 0 3 0 2 0 3 0 2 0 3 0 2 -1 
2 0 3 0 2 0 3 0 2 0 3 0 2 0 3 0 
2 0 3 0 3 0 2 0 3 -1 2 0 3 0 2 0 
3 0 2 0 2 0 3 0 2 0 3 0 2 0 3 -1 
2 0 3 0 2 0 3 0 3 0 2 0 3 0 2 0 
3 0 2 -1 3 0 2 0 3 0 2 0 2 0 3 0 
2 0 3 0 2 0 3 0 2 0 3 0 3 -1 2 0 
3 0 2 0 3 0 2 0 3 0 2 0 3 0 2 0 
2 0 3 0 2 0 3 0 2 0 3 0 3 0 2 0 
3 0 2 0 3 0 2 0 3 0 2 0 3 0 2 0 
2 0 3 0 2 0 3 0 2 0 3 1 2 0 3 0 
3 0 2 0 3 0 2 0 3 0 2 0 3 0 2 0 
3 1 2 0 2 0 3 0 2 0 3 0 2 0 3 1 
3 0 2 0 3 0 2 0 3 0 2 0 3 1 2 0 
3 0 2 0 2 0 3 1 2 0 3 0 2 0 3 0 
2 0 3 1 3 0 2 0 3 0 2 0 3 0 2 1 
3 0 2 0 3 0 2 0 2 1 3 0 2 0 3 0 
2 0 3 0 3 0 2 1 3 0 2 0 3 0 2 0 
3 0 2 0 3 0 2 1 3 0 2 0 2 0 3 0 
2 0 3 0 2 0 3 0 3 0 2 0 3 0 2 0 
3 0 2 0 3 0 2 0 3 0 2 0 2 0 3 0 
2 0 3 0 2 0 3 0 3 0 2 -1 3 0 2 0 
3 0 2 0 3 0 3754 3294 300 MP stroke
2 0 3 -1 2 0 3 0 2 0 2 0 3 -1 2 0 
3 0 2 0 3 -1 3 0 2 0 3 0 2 -1 3 0 
2 0 3 -1 2 0 3 0 2 -1 2 0 3 0 2 0 
3 -1 2 0 3 0 3 -1 2 0 3 -1 2 0 3 0 
2 -1 3 0 2 0 3 -1 2 0 3 0 2 -1 2 0 
3 0 2 -1 3 0 2 0 3 0 3 -1 2 0 3 0 
2 -1 3 0 2 0 3 0 2 -1 3 0 2 0 2 0 
3 -1 2 0 3 0 2 0 3 0 3 0 2 -1 3 0 
2 0 3 0 2 0 3 0 2 0 3 0 2 0 3 0 
2 0 2 0 3 0 2 0 3 0 2 0 3 0 3 0 
2 1 3 0 2 0 3 0 2 0 3 1 2 0 3 0 
2 0 2 1 3 0 2 0 3 1 2 0 3 1 3 0 
2 0 3 1 2 0 3 1 2 0 3 1 2 0 3 1 
2 0 3 1 2 0 2 1 3 0 2 1 3 1 2 0 
3 1 3 0 2 1 3 1 2 0 3 1 2 1 3 0 
2 1 3 1 2 0 2 1 3 1 2 0 3 1 2 0 
3 1 3 1 2 0 3 1 2 1 3 0 2 1 3 0 
2 1 3 0 2 1 3 0 2 1 2 0 3 1 2 0 
3 1 2 0 3 1 3 0 2 0 3 1 2 0 3 0 
2 0 3 1 2 0 3 0 2 0 2 0 3 0 2 0 
3 1 2 0 3 -1 3 0 2 0 3 0 2 0 3 0 
2 0 3 -1 2 0 3 0 2 -1 3 0 2 0 2 -1 
3 0 2 -1 3 0 2 -1 3 -1 3 0 2 -1 3 -1 
2 0 3 -1 2 -1 3 -1 2 -1 3 -1 2 -1 3 -1 
2 0 2 -1 3 -1 2 -2 3 -1 3 -1 2 -1 3 -1 
2 -1 3 -1 2 -1 3 -1 2 -2 3 -1 2 -1 3 -1 
2 -2 2 -1 3 -1 2 -1 3 -1 2 -2 3 -1 3 -1 
2 -1 3 -2 2 -1 3 -1 2 -1 3 -1 2 -1 3 -1 
2 -2 3 -1 2 -1 2 -1 3 -1 2 -1 3 -1 3 -1 
2 0 3 -1 2 -1 3 -1 2 -1 3 0 2 -1 3 -1 
2 0 3 -1 2 0 2 -1 3 0 2 0 3 0 2 -1 
3 0 3 0 2 0 3 0 2 0 3 0 2 0 3 1 
2 0 3 0 2 1 3 0 2 1 2 1 3 0 2 1 
3 1 3 1 2 1 3 1 2 1 3 1 2 1 3 1 
2 2 3 1 2 1 3 2 2 1 2 2 3 2 2 1 
3 2 2 2 3 2 3 2 2 1 3 2 2 2 3 2 
2 3 3 2 2 2 3 2 2 2 3 2 2 3 2 2 
3 2 2 3 3 2 3007 3280 300 MP stroke
3 2 2 3 3 2 2 2 3 3 2 2 3 2 2 2 
3 3 2 2 3 2 2 3 2 2 3 2 2 3 3 2 
2 2 3 3 3 2 2 2 3 3 2 2 3 2 2 3 
3 2 2 2 3 3 2 2 3 2 2 3 2 2 3 2 
2 3 3 2 3 2 2 3 3 2 2 2 3 3 2 2 
3 2 2 3 3 2 2 2 3 3 2 2 2 2 3 3 
2 2 3 2 2 3 3 2 3 2 2 3 3 2 2 2 
3 3 2 2 3 2 2 3 3 2 2 2 3 3 2 2 
2 2 3 3 2 2 3 2 3 3 2 2 3 2 2 3 
3 2 2 2 3 3 2 2 3 2 2 3 3 2 2 2 
2 3 3 2 2 2 3 3 2 2 3 2 3 3 2 2 
3 2 2 3 3 2 2 2 3 3 2 2 3 2 2 3 
2 2 3 3 2 2 3 2 2 3 3 2 3 2 2 3 
3 2 2 2 3 3 2 2 3 2 2 3 3 2 2 2 
3 3 2 2 2 2 3 3 2 2 3 2 2 3 3 2 
3 2 2 3 3 2 2 2 3 3 2 2 3 2 2 3 
3 2 2 2 3 3 2 2 2 2 3 3 2 2 3 2 
3 3 2 2 3 2 2 3 3 2 2 2 3 3 2 2 
3 2 2 3 3 2 2 2 2 3 3 2 2 2 3 3 
2 2 3 2 3 3 2 2 3 2 2 3 3 2 2 2 
3 3 2 2 3 2 2 3 3 2 2 2 2 3 3 2 
2 2 3 3 2 2 3 2 3 3 2 2 3 2 2 2 
3 3 2 2 3 2 2 3 3 2 2 2 2 3 3 2 
2 2 3 3 2 2 3 2 3 3 2 2 3 2 2 3 
3 2 2 2 3 3 2 2 3 2 2 3 3 2 2 2 
2 2 3 3 2 2 3 2 2 3 3 2 3 2 2 3 
3 2 2 2 3 3 2 2 3 2 2 3 3 2 2 2 
2 3 3 2 2 2 3 3 2 2 3 2 3 3 2 2 
3 2 2 3 3 2 2 2 3 3 2 2 3 2 2 3 
3 2 2 2 2 3 3 2 2 2 3 3 2 2 3 2 
3 3 2 2 3 2 2 3 3 2 2 2 3 3 2 2 
3 2 2 3 2 2 3 2 2 3 3 2 2 2 3 3 
3 2 2 2 3 3 2 2 3 3 2 2 3 2 2 3 
3 2 2 2 3 3 2 2 2 2 3 3 2 2 3 2 
2 3 3 2 3 2 2 3 3 2 2 3 3 2 2 2 
3 3 2 2 3 2 2 3 2 2 3 2 2 3 3 2 
2 3 3 2 3 2 2 3 3 2 2 2 3 3 2 2 
3 2 2 3 3 2 2259 2582 300 MP stroke
2 2 3 3 2 2 2 2 3 3 2 2 3 3 2 2 
3 2 3 3 2 2 3 2 2 3 3 2 2 2 3 3 
2 2 3 2 2 3 2 2 3 2 2 3 3 2 2 2 
3 3 3 2 2 2 3 3 2 2 3 2 2 3 3 2 
2 2 3 3 2 2 3 2 2 2 2 3 3 2 2 2 
3 3 2 2 3 2 3 3 2 2 3 2 2 3 3 2 
2 2 3 2 2 3 3 2 2 2 3 3 2 2 2 2 
3 2 2 3 3 2 3 2 2 3 3 2 2 2 3 2 
2 3 3 2 2 2 3 3 2 2 3 2 2 2 2 3 
3 2 2 2 3 3 2 2 3 2 3 2 2 3 3 2 
2 2 3 3 2 2 3 2 2 2 3 3 2 2 3 2 
2 3 3 2 2 2 2 3 3 2 3 2 2 2 3 3 
2 2 3 2 2 3 3 2 2 2 3 3 2 2 3 2 
2 3 3 2 2 2 2 3 3 2 2 2 3 2 3 3 
2 2 3 3 2 2 3 2 2 3 3 2 2 2 3 3 
2 2 3 2 2 3 3 2 2 2 2 3 3 2 3 3 
2 2 3 2 2 3 3 2 2 2 3 3 2 2 3 3 
2 2 3 2 2 3 3 2 2 3 2 2 3 2 2 3 
3 2 3 3 2 2 3 2 2 3 3 2 2 3 3 2 
2 3 3 2 2 2 3 3 2 2 3 3 2 2 2 3 
3 2 3 2 2 3 3 2 2 3 3 2 2 3 3 2 
2 2 3 3 2 2 3 3 2 2 3 2 2 3 2 2 
3 3 2 2 3 3 3 2 2 2 3 3 2 2 3 3 
2 2 3 2 2 3 3 2 2 2 3 3 2 2 3 3 
2 2 2 2 3 3 3 2 2 2 3 3 2 2 3 2 
2 3 3 2 2 2 3 3 2 2 3 2 2 3 3 2 
2 2 2 2 3 3 2 2 3 2 3 3 2 2 3 2 
2 2 3 3 2 2 3 2 2 2 3 3 2 2 3 2 
2 2 3 2 2 3 2 2 3 2 3 2 2 2 3 3 
2 2 3 2 2 2 3 2 2 2 3 3 2 2 3 2 
2 2 3 2 2 2 2 3 3 2 2 2 3 2 3 2 
2 2 3 3 2 2 3 2 2 2 3 2 2 2 3 2 
2 3 3 2 2 2 3 2 2 2 2 2 3 3 3 2 
2 2 3 2 2 2 3 3 2 2 3 2 2 2 3 2 
2 3 3 2 2 2 3 2 2 3 2 2 3 2 2 2 
3 3 3 2 2 2 3 2 2 3 3 2 2 2 3 3 
2 2 3 2 2 3 3 2 2 2 3 3 2 2 2 3 
3 2 3 2 2 3 1512 1891 300 MP stroke
3 2 2 3 3 2 2 3 3 2 2 3 3 2 2 3 
3 2 2 3 3 2 2 3 2 2 3 3 2 2 3 3 
3 2 2 3 3 3 2 2 3 3 2 2 3 3 2 3 
3 2 2 3 3 2 2 3 3 3 2 2 2 3 3 3 
3 2 2 3 3 3 2 2 3 3 2 3 3 2 2 3 
3 3 2 2 3 3 2 3 3 2 2 3 3 3 2 2 
2 3 3 3 3 2 2 3 3 3 2 2 3 3 2 2 
3 3 2 3 3 2 2 3 3 2 2 3 3 3 2 2 
2 3 3 2 3 3 2 2 3 3 2 2 3 3 2 2 
3 2 2 3 3 2 2 3 3 2 2 2 3 3 2 2 
3 2 2 2 2 3 3 2 3 2 2 2 3 3 2 2 
3 2 2 2 3 2 2 2 3 2 2 2 3 2 2 3 
3 2 2 2 2 2 3 1 3 2 2 2 3 2 2 2 
3 2 2 2 3 2 2 2 3 1 2 2 3 2 2 2 
3 2 2 1 3 2 2 2 2 2 3 1 3 2 2 2 
3 2 2 1 3 2 2 2 3 1 2 2 3 2 2 1 
3 2 2 2 3 2 2 1 2 2 3 2 2 1 3 2 
3 2 2 1 3 2 2 2 3 2 2 1 3 2 2 2 
3 2 2 2 3 2 2 1 3 2 2 2 2 2 3 2 
3 2 2 2 3 2 2 2 3 2 2 2 3 2 2 2 
3 2 2 3 3 2 2 2 3 2 2 3 2 2 3 2 
2 3 3 2 3 3 2 2 3 3 2 2 3 3 2 2 
3 3 2 3 3 2 2 3 3 3 2 3 3 3 2 2 
2 3 3 3 3 3 2 3 3 3 2 3 3 4 2 3 
3 3 2 3 3 3 2 3 3 4 2 3 3 3 2 4 
3 3 2 4 2 3 3 3 3 4 2 3 3 4 2 3 
3 4 2 3 3 4 2 3 3 4 2 3 3 4 2 4 
3 3 2 4 2 3 3 4 3 3 2 4 3 3 2 4 
3 3 2 4 3 3 2 4 3 3 2 4 3 3 2 3 
3 4 2 3 3 3 2 4 2 3 3 3 3 3 2 3 
3 3 2 3 3 3 2 3 3 3 2 3 3 3 2 3 
3 2 2 3 3 3 2 2 3 3 2 2 3 2 2 3 
3 2 2 2 3 2 2 2 3 2 2 2 3 2 2 2 
3 2 2 2 3 1 2 2 3 1 2 2 2 1 3 1 
3 2 2 1 3 1 2 1 3 1 2 1 3 1 2 1 
3 0 2 1 3 1 2 0 3 1 2 0 3 1 2 0 
3 1 2 0 3 0 2 0 3 1 2 0 3 0 2 0 
3 0 2 0 3 0 764 1200 300 MP stroke
2 0 3 0 2 0 3 0 2 0 2 0 750 1200 7 MP stroke
gr

16.6667 w
0 sg
0.1 sg
%%IncludeResource: font Helvetica-Bold
/Helvetica-Bold /WindowsLatin1Encoding 183.333 FMSR

2273 4322 mt 
(Time [s]) s
 309 2993 mt  -90 rotate
(Normal Force [N]) s
90 rotate
0 sg
%%IncludeResource: font Helvetica
/Helvetica /WindowsLatin1Encoding 83.3333 FMSR

 732 4037 mt 
( ) s
4483  536 mt 
( ) s
8.33333 w
DO
SO
12.5 w
0.1 sg
 750  500 mt 4500  500 L
 750 4000 mt 4500 4000 L
4500 4000 mt 4500  500 L
 750 4000 mt  750  500 L
 750 4000 mt 4500 4000 L
 750 4000 mt  750  500 L
1000 4000 mt 1000 3943 L
1000  500 mt 1000  556 L
%%IncludeResource: font Helvetica
/Helvetica /WindowsLatin1Encoding 133.333 FMSR

 834 4148 mt 
(0.036) s
1500 4000 mt 1500 3943 L
1500  500 mt 1500  556 L
1334 4148 mt 
(0.038) s
1999 4000 mt 1999 3943 L
1999  500 mt 1999  556 L
1870 4148 mt 
(0.04) s
2500 4000 mt 2500 3943 L
2500  500 mt 2500  556 L
2334 4148 mt 
(0.042) s
3000 4000 mt 3000 3943 L
3000  500 mt 3000  556 L
2834 4148 mt 
(0.044) s
3499 4000 mt 3499 3943 L
3499  500 mt 3499  556 L
3333 4148 mt 
(0.046) s
3999 4000 mt 3999 3943 L
3999  500 mt 3999  556 L
3833 4148 mt 
(0.048) s
4500 4000 mt 4500 3943 L
4500  500 mt 4500  556 L
4371 4148 mt 
(0.05) s
 750 4000 mt  806 4000 L
4500 4000 mt 4443 4000 L
 389 4049 mt 
(-0.05) s
 750 3300 mt  806 3300 L
4500 3300 mt 4443 3300 L
 652 3349 mt 
(0) s
 750 2600 mt  806 2600 L
4500 2600 mt 4443 2600 L
 467 2649 mt 
(0.05) s
 750 1899 mt  806 1899 L
4500 1899 mt 4443 1899 L
 541 1948 mt 
(0.1) s
 750 1200 mt  806 1200 L
4500 1200 mt 4443 1200 L
 467 1249 mt 
(0.15) s
 750  500 mt  806  500 L
4500  500 mt 4443  500 L
 541  549 mt 
(0.2) s
 750  500 mt 4500  500 L
 750 4000 mt 4500 4000 L
4500 4000 mt 4500  500 L
 750 4000 mt  750  500 L
0 sg
%%IncludeResource: font Helvetica-Bold
/Helvetica-Bold /WindowsLatin1Encoding 125 FMSR

3728 1429 mt 
(Loading 1) s
gs 3403 1285 945 531 rc
16.6667 w
250 0 3453 1383 2 MP stroke
gr

16.6667 w
3728 1597 mt 
(Loading 2) s
gs 3403 1285 945 531 rc
/c8 { 1.000000 0.000000 0.000000 sr} bdef
c8
250 0 3453 1550 2 MP stroke
gr

c8
0 sg
3728 1764 mt 
(Loading 3) s
gs 3403 1285 945 531 rc
/c9 { 0.000000 0.000000 1.000000 sr} bdef
c9
250 0 3453 1716 2 MP stroke
12.5 w
gr

12.5 w
c9

end %%Color Dict

eplot
%%EndObject

epage
end

showpage

%%Trailer
%%EOF
