%!PS-Adobe-3.0 EPSF-3.0
%%Creator: MATLAB, The MathWorks, Inc. Version 8.1.0.604 (R2013a). Operating System: Microsoft Windows 7.
%%Title: .\Force-Time_LoadingZoom_0_15N_AdhX.eps
%%CreationDate: 08/15/2013  23:10:54
%%DocumentNeededFonts: Helvetica-Bold
%%+ Helvetica
%%DocumentProcessColors: Cyan Magenta Yellow Black
%%LanguageLevel: 2
%%Pages: 1
%%BoundingBox:    31    93   582   572
%%EndComments

%%BeginProlog
% MathWorks dictionary
/MathWorks 160 dict begin
% definition operators
/bdef {bind def} bind def
/ldef {load def} bind def
/xdef {exch def} bdef
/xstore {exch store} bdef
% operator abbreviations
/c  /clip ldef
/cc /concat ldef
/cp /closepath ldef
/gr /grestore ldef
/gs /gsave ldef
/mt /moveto ldef
/np /newpath ldef
/cm /currentmatrix ldef
/sm /setmatrix ldef
/rm /rmoveto ldef
/rl /rlineto ldef
/s {show newpath} bdef
/sc {setcmykcolor} bdef
/sr /setrgbcolor ldef
/sg /setgray ldef
/w /setlinewidth ldef
/j /setlinejoin ldef
/cap /setlinecap ldef
/rc {rectclip} bdef
/rf {rectfill} bdef
% page state control
/pgsv () def
/bpage {/pgsv save def} bdef
/epage {pgsv restore} bdef
/bplot /gsave ldef
/eplot {stroke grestore} bdef
% orientation switch
/portraitMode 0 def /landscapeMode 1 def /rotateMode 2 def
% coordinate system mappings
/dpi2point 0 def
% font control
/FontSize 0 def
/FMS {/FontSize xstore findfont [FontSize 0 0 FontSize neg 0 0]
  makefont setfont} bdef
/ISOLatin1Encoding where {pop /WindowsLatin1Encoding 256 array bdef
ISOLatin1Encoding WindowsLatin1Encoding copy pop
/.notdef/.notdef/quotesinglbase/florin/quotedblbase/ellipsis/dagger
/daggerdbl/circumflex/perthousand/Scaron/guilsinglleft/OE/.notdef/.notdef
/.notdef/.notdef/quoteleft/quoteright/quotedblleft/quotedblright/bullet
/endash/emdash/tilde/trademark/scaron/guilsinglright/oe/.notdef/.notdef
/Ydieresis WindowsLatin1Encoding 128 32 getinterval astore pop}
{/WindowsLatin1Encoding StandardEncoding bdef} ifelse
/reencode {exch dup where {pop load} {pop StandardEncoding} ifelse
  exch dup 3 1 roll findfont dup length dict begin
  { 1 index /FID ne {def}{pop pop} ifelse } forall
  /Encoding exch def currentdict end definefont pop} bdef
/isroman {findfont /CharStrings get /Agrave known} bdef
/FMSR {3 1 roll 1 index dup isroman {reencode} {pop pop} ifelse
  exch FMS} bdef
/csm {1 dpi2point div -1 dpi2point div scale neg translate
 dup landscapeMode eq {pop -90 rotate}
  {rotateMode eq {90 rotate} if} ifelse} bdef
% line types: solid, dotted, dashed, dotdash
/SO { [] 0 setdash } bdef
/DO { [.5 dpi2point mul 4 dpi2point mul] 0 setdash } bdef
/DA { [6 dpi2point mul] 0 setdash } bdef
/DD { [.5 dpi2point mul 4 dpi2point mul 6 dpi2point mul 4
  dpi2point mul] 0 setdash } bdef
% macros for lines and objects
/L {lineto stroke} bdef
/MP {3 1 roll moveto 1 sub {rlineto} repeat} bdef
/AP {{rlineto} repeat} bdef
/PDlw -1 def
/W {/PDlw currentlinewidth def setlinewidth} def
/PP {closepath eofill} bdef
/DP {closepath stroke} bdef
/MR {4 -2 roll moveto dup  0 exch rlineto exch 0 rlineto
  neg 0 exch rlineto closepath} bdef
/FR {MR stroke} bdef
/PR {MR fill} bdef
/L1i {{currentfile picstr readhexstring pop} image} bdef
/tMatrix matrix def
/MakeOval {newpath tMatrix currentmatrix pop translate scale
0 0 1 0 360 arc tMatrix setmatrix} bdef
/FO {MakeOval stroke} bdef
/PO {MakeOval fill} bdef
/PD {currentlinewidth 2 div 0 360 arc fill
   PDlw -1 eq not {PDlw w /PDlw -1 def} if} def
/FA {newpath tMatrix currentmatrix pop translate scale
  0 0 1 5 -2 roll arc tMatrix setmatrix stroke} bdef
/PA {newpath tMatrix currentmatrix pop	translate 0 0 moveto scale
  0 0 1 5 -2 roll arc closepath tMatrix setmatrix fill} bdef
/FAn {newpath tMatrix currentmatrix pop translate scale
  0 0 1 5 -2 roll arcn tMatrix setmatrix stroke} bdef
/PAn {newpath tMatrix currentmatrix pop translate 0 0 moveto scale
  0 0 1 5 -2 roll arcn closepath tMatrix setmatrix fill} bdef
/vradius 0 def /hradius 0 def /lry 0 def
/lrx 0 def /uly 0 def /ulx 0 def /rad 0 def
/MRR {/vradius xdef /hradius xdef /lry xdef /lrx xdef /uly xdef
  /ulx xdef newpath tMatrix currentmatrix pop ulx hradius add uly
  vradius add translate hradius vradius scale 0 0 1 180 270 arc 
  tMatrix setmatrix lrx hradius sub uly vradius add translate
  hradius vradius scale 0 0 1 270 360 arc tMatrix setmatrix
  lrx hradius sub lry vradius sub translate hradius vradius scale
  0 0 1 0 90 arc tMatrix setmatrix ulx hradius add lry vradius sub
  translate hradius vradius scale 0 0 1 90 180 arc tMatrix setmatrix
  closepath} bdef
/FRR {MRR stroke } bdef
/PRR {MRR fill } bdef
/MlrRR {/lry xdef /lrx xdef /uly xdef /ulx xdef /rad lry uly sub 2 div def
  newpath tMatrix currentmatrix pop ulx rad add uly rad add translate
  rad rad scale 0 0 1 90 270 arc tMatrix setmatrix lrx rad sub lry rad
  sub translate rad rad scale 0 0 1 270 90 arc tMatrix setmatrix
  closepath} bdef
/FlrRR {MlrRR stroke } bdef
/PlrRR {MlrRR fill } bdef
/MtbRR {/lry xdef /lrx xdef /uly xdef /ulx xdef /rad lrx ulx sub 2 div def
  newpath tMatrix currentmatrix pop ulx rad add uly rad add translate
  rad rad scale 0 0 1 180 360 arc tMatrix setmatrix lrx rad sub lry rad
  sub translate rad rad scale 0 0 1 0 180 arc tMatrix setmatrix
  closepath} bdef
/FtbRR {MtbRR stroke } bdef
/PtbRR {MtbRR fill } bdef
/stri 6 array def /dtri 6 array def
/smat 6 array def /dmat 6 array def
/tmat1 6 array def /tmat2 6 array def /dif 3 array def
/asub {/ind2 exch def /ind1 exch def dup dup
  ind1 get exch ind2 get sub exch } bdef
/tri_to_matrix {
  2 0 asub 3 1 asub 4 0 asub 5 1 asub
  dup 0 get exch 1 get 7 -1 roll astore } bdef
/compute_transform {
  dmat dtri tri_to_matrix tmat1 invertmatrix 
  smat stri tri_to_matrix tmat2 concatmatrix } bdef
/ds {stri astore pop} bdef
/dt {dtri astore pop} bdef
/db {2 copy /cols xdef /rows xdef mul dup 3 mul string
  currentfile 
  3 index 0 eq {/ASCIIHexDecode filter}
  {/ASCII85Decode filter 3 index 2 eq {/RunLengthDecode filter} if }
  ifelse exch readstring pop
  dup 0 3 index getinterval /rbmap xdef
  dup 2 index dup getinterval /gbmap xdef
  1 index dup 2 mul exch getinterval /bbmap xdef pop pop}bdef
/it {gs np dtri aload pop moveto lineto lineto cp c
  cols rows 8 compute_transform 
  rbmap gbmap bbmap true 3 colorimage gr}bdef
/il {newpath moveto lineto stroke}bdef
currentdict end def
%%EndProlog

%%BeginSetup
MathWorks begin

0 cap

end
%%EndSetup

%%Page: 1 1
%%BeginPageSetup
%%PageBoundingBox:    31    93   582   572
MathWorks begin
bpage
%%EndPageSetup

%%BeginObject: obj1
bplot

/dpi2point 8.33333 def
portraitMode 0150 5158 csm

  116   390  4587  3990 rc
84 dict begin %Colortable dictionary
/c0 { 0.000000 0.000000 0.000000 sr} bdef
/c1 { 1.000000 1.000000 1.000000 sr} bdef
/c2 { 0.900000 0.000000 0.000000 sr} bdef
/c3 { 0.000000 0.820000 0.000000 sr} bdef
/c4 { 0.000000 0.000000 0.800000 sr} bdef
/c5 { 0.910000 0.820000 0.320000 sr} bdef
/c6 { 1.000000 0.260000 0.820000 sr} bdef
/c7 { 0.000000 0.820000 0.820000 sr} bdef
c0
1 j
1 sg
   0    0 5001 5001 rf
12.5 w
0 3501 3750 0 0 -3501 750 4000 4 MP
PP
-3750 0 0 3501 3750 0 0 -3501 750 4000 5 MP stroke
gs 750 500 3751 3501 rc
16.6667 w
0 sg
1 0 1 -1 1 -1 1 0 1 -1 1 -1 1 0 1 -1 
1 -1 1 -1 1 0 1 -1 1 -1 1 -1 1 0 1 -1 
1 -1 1 0 1 -1 1 -1 1 -1 1 0 1 -1 1 -1 
1 0 1 -1 1 -1 1 -1 1 0 1 -1 1 -1 1 -1 
1 0 1 -1 1 -1 1 0 1 -1 1 -1 1 -1 1 0 
1 -1 1 -1 1 0 1 -1 1 -1 1 -1 1 0 1 -1 
1 -1 1 -1 1 0 1 -1 1 -1 1 0 1 -1 1 -1 
1 -1 1 0 1 -1 1 -1 1 -1 1 0 1 -1 1 -1 
1 0 1 -1 1 -1 1 -1 1 0 1 -1 1 -1 1 0 
1 -1 1 -1 1 -1 1 0 1 -1 1 -1 1 -1 1 0 
1 -1 1 -1 1 0 1 -1 1 -1 1 -1 1 0 1 -1 
1 -1 1 -1 1 0 1 -1 1 -1 1 0 1 -1 1 -1 
1 -1 1 0 1 -1 1 -1 1 -1 1 0 1 -1 1 -1 
1 0 1 -1 1 -1 1 -1 1 0 1 -1 1 -1 1 -1 
1 0 1 -1 1 -1 1 0 1 -1 1 -1 1 -1 1 0 
1 -1 1 -1 1 -1 1 0 1 -1 1 -1 1 0 1 -1 
1 -1 1 -1 1 0 1 -1 1 -1 1 -1 1 0 1 -1 
1 -1 1 0 1 -1 1 -1 1 -1 1 0 1 -1 1 -1 
1 -1 1 0 1 -1 1 -1 1 0 1 -1 1 -1 1 -1 
1 0 1 -1 1 -1 1 -1 1 0 1 -1 1 -1 1 0 
1 -1 1 -1 1 -1 1 0 1 -1 1 -1 1 -1 1 0 
1 -1 1 -1 1 0 1 -1 1 -1 1 -1 1 0 1 -1 
1 -1 1 -1 1 0 1 -1 1 -1 1 -1 1 0 1 -1 
1 -1 1 0 1 -1 1 -1 1 -1 1 0 1 -1 1 -1 
1 -1 1 0 1 -1 1 -1 1 0 1 -1 1 -1 1 -1 
1 0 1 -1 1 -1 1 -1 1 0 1 -1 1 -1 1 -1 
1 0 1 -1 1 -1 1 0 1 -1 1 -1 1 -1 1 0 
1 -1 1 -1 1 -1 1 0 1 -1 1 -1 1 0 1 -1 
1 -1 1 -1 1 0 1 -1 1 -1 1 -1 1 0 1 -1 
1 -1 1 -1 1 0 1 -1 1 -1 1 0 1 -1 1 -1 
1 -1 1 0 1 -1 1 -1 1 -1 1 0 1 -1 1 -1 
1 -1 1 0 1 -1 1 -1 1 0 1 -1 1 -1 1 -1 
1 0 1 -1 1 -1 1 -1 1 0 1 -1 1 -1 1 -1 
1 0 1 -1 1 -1 1 0 1 -1 1 -1 1 -1 1 0 
1 -1 1 -1 1 -1 1 0 1 -1 1 -1 1 0 1 -1 
1 -1 1 -1 1 0 1 -1 1 -1 1 -1 1 0 1 -1 
1 -1 1 -1 1 0 1 -1 1 -1 1 0 1 -1 1 -1 
1 -1 1 0 1 -1 4184 717 300 MP stroke
1 -1 1 -1 1 0 1 -1 1 -1 1 -1 1 0 1 -1 
1 -1 1 0 1 -1 1 -1 1 -1 1 0 1 -1 1 -1 
1 -1 1 0 1 -1 1 -1 1 -1 1 0 1 -1 1 -1 
1 0 1 -1 1 -1 1 -1 1 0 1 -1 1 -1 1 -1 
1 0 1 -1 1 -1 1 -1 1 0 1 -1 1 -1 1 0 
1 -1 1 -1 1 -1 1 0 1 -1 1 -1 1 -1 1 0 
1 -1 1 -1 1 -1 1 0 1 -1 1 -1 1 0 1 -1 
1 -1 1 -1 1 0 1 -1 1 -1 1 -1 1 0 1 -1 
1 -1 1 -1 1 0 1 -1 1 -1 1 0 1 -1 1 -1 
1 -1 1 0 1 -1 1 -1 1 -1 1 0 1 -1 1 -1 
1 -1 1 0 1 -1 1 -1 1 0 1 -1 1 -1 1 -1 
1 0 1 -1 1 -1 1 -1 1 0 1 -1 1 -1 1 0 
1 -1 1 -1 1 -1 1 0 1 -1 1 -1 1 -1 1 0 
1 -1 1 -1 1 -1 1 0 1 -1 1 -1 1 0 1 -1 
1 -1 1 -1 1 0 1 -1 1 -1 1 -1 1 0 1 -1 
1 -1 1 -1 1 0 1 -1 1 -1 1 0 1 -1 1 -1 
1 -1 1 0 1 -1 1 -1 1 -1 1 0 1 -1 1 -1 
1 0 1 -1 1 -1 1 -1 1 0 1 -1 1 -1 1 -1 
1 0 1 -1 1 -1 1 0 1 -1 1 -1 1 -1 1 0 
1 -1 1 -1 1 -1 1 0 1 -1 1 -1 1 -1 1 0 
1 -1 1 -1 1 0 1 -1 1 -1 1 -1 1 0 1 -1 
1 -1 1 -1 1 0 1 -1 1 -1 1 0 1 -1 1 -1 
1 -1 1 0 1 -1 1 -1 1 -1 1 0 1 -1 1 -1 
1 0 1 -1 1 -1 1 -1 1 0 1 -1 1 -1 1 0 
1 -1 1 -1 1 -1 1 0 1 -1 1 -1 1 -1 1 0 
1 -1 1 -1 1 0 1 -1 1 -1 1 -1 1 0 1 -1 
1 -1 1 -1 1 0 1 -1 1 -1 1 0 1 -1 1 -1 
1 -1 1 0 1 -1 1 -1 1 0 1 -1 1 -1 1 -1 
1 0 1 -1 1 -1 1 -1 1 0 1 -1 1 -1 1 0 
1 -1 1 -1 1 -1 1 0 1 -1 1 -1 1 0 1 -1 
1 -1 1 -1 1 0 1 -1 1 -1 1 0 1 -1 1 -1 
1 -1 1 0 1 -1 1 -1 1 -1 1 0 1 -1 1 -1 
1 0 1 -1 1 -1 1 -1 1 0 1 -1 1 -1 1 0 
1 -1 1 -1 1 -1 1 0 1 -1 1 -1 1 0 1 -1 
1 -1 1 -1 1 0 1 -1 1 -1 1 0 1 -1 1 -1 
1 -1 1 0 1 -1 1 -1 1 0 1 -1 1 -1 1 -1 
1 0 1 -1 1 -1 1 0 1 -1 1 -1 1 -1 1 0 
1 -1 1 -1 1 0 3885 934 300 MP stroke
1 -1 1 -1 1 0 1 -1 1 -1 1 -1 1 0 1 -1 
1 -1 1 0 1 -1 1 -1 1 -1 1 0 1 -1 1 -1 
1 0 1 -1 1 -1 1 0 1 -1 1 -1 1 -1 1 0 
1 -1 1 -1 1 0 1 -1 1 -1 1 -1 1 0 1 -1 
1 -1 1 0 1 -1 1 -1 1 0 1 -1 1 -1 1 -1 
1 0 1 -1 1 -1 1 0 1 -1 1 -1 1 0 1 -1 
1 -1 1 -1 1 0 1 -1 1 -1 1 0 1 -1 1 -1 
1 0 1 -1 1 -1 1 0 1 -1 1 -1 1 -1 1 0 
1 -1 1 -1 1 0 1 -1 1 -1 1 0 1 -1 1 -1 
1 -1 1 0 1 -1 1 -1 1 0 1 -1 1 -1 1 0 
1 -1 1 -1 1 0 1 -1 1 -1 1 0 1 -1 1 -1 
1 -1 1 0 1 -1 1 -1 1 0 1 -1 1 -1 1 0 
1 -1 1 -1 1 0 1 -1 1 -1 1 0 1 -1 1 -1 
1 0 1 -1 1 -1 1 -1 1 0 1 -1 1 -1 1 0 
1 -1 1 -1 1 0 1 -1 1 -1 1 0 1 -1 1 -1 
1 0 1 -1 1 -1 1 0 1 -1 1 -1 1 0 1 -1 
1 -1 1 0 1 -1 1 -1 1 0 1 -1 1 -1 1 0 
1 -1 1 -1 1 0 1 -1 1 -1 1 0 1 -1 1 -1 
1 0 1 -1 1 -1 1 0 1 -1 1 -1 1 0 1 -1 
1 -1 1 0 1 -1 1 -1 1 0 1 -1 1 -1 1 0 
1 -1 1 -1 1 0 1 -1 1 -1 1 0 1 -1 1 -1 
1 0 1 -1 1 -1 1 0 1 -1 1 -1 1 0 1 -1 
1 -1 1 0 1 -1 1 -1 1 0 1 -1 1 -1 1 0 
1 -1 1 0 1 -1 1 -1 1 0 1 -1 1 -1 1 0 
1 -1 1 -1 1 0 1 -1 1 -1 1 0 1 -1 1 -1 
1 0 1 -1 1 0 1 -1 1 -1 1 0 1 -1 1 -1 
1 0 1 -1 1 -1 1 0 1 -1 1 0 1 -1 1 -1 
1 0 1 -1 1 -1 1 0 1 -1 1 -1 1 0 1 -1 
1 0 1 -1 1 -1 1 0 1 -1 1 -1 1 0 1 -1 
1 0 1 -1 1 -1 1 0 1 -1 1 -1 1 0 1 -1 
1 0 1 -1 1 -1 1 0 1 -1 1 -1 1 0 1 -1 
1 0 1 -1 1 -1 1 0 1 -1 1 -1 1 0 1 -1 
1 0 1 -1 1 -1 1 0 1 -1 1 0 1 -1 1 -1 
1 0 1 -1 1 0 1 -1 1 -1 1 0 1 -1 1 -1 
1 0 1 -1 1 0 1 -1 1 -1 1 0 1 -1 1 0 
1 -1 1 -1 1 0 1 -1 1 0 1 -1 1 -1 1 0 
1 -1 1 0 1 -1 1 0 1 -1 1 -1 1 0 1 -1 
1 0 1 -1 1 -1 3586 1132 300 MP stroke
1 0 1 -1 1 0 1 -1 1 -1 1 0 1 -1 1 0 
1 -1 1 0 1 -1 1 -1 1 0 1 -1 1 0 1 -1 
1 -1 1 0 1 -1 1 0 1 -1 1 0 1 -1 1 -1 
1 0 1 -1 1 0 1 -1 1 0 1 -1 1 -1 1 0 
1 -1 1 0 1 -1 1 0 1 -1 1 -1 1 0 1 -1 
1 0 1 -1 1 0 1 -1 1 0 1 -1 1 -1 1 0 
1 -1 1 0 1 -1 1 0 1 -1 1 0 1 -1 1 -1 
1 0 1 -1 1 0 1 -1 1 0 1 -1 1 0 1 -1 
1 0 1 -1 1 -1 1 0 1 -1 1 0 1 -1 1 0 
1 -1 1 0 1 -1 1 0 1 -1 1 0 1 -1 1 0 
1 -1 1 -1 1 0 1 -1 1 0 1 -1 1 0 1 -1 
1 0 1 -1 1 0 1 -1 1 0 1 -1 1 0 1 -1 
1 0 1 -1 1 0 1 -1 1 0 1 -1 1 -1 1 0 
1 -1 1 0 1 -1 1 0 1 -1 1 0 1 -1 1 0 
1 -1 1 0 1 -1 1 0 1 -1 1 0 1 -1 1 0 
1 -1 1 0 1 -1 1 0 1 -1 1 0 1 -1 1 0 
1 -1 1 0 1 -1 1 0 1 -1 1 0 1 -1 1 0 
1 0 1 -1 1 0 1 -1 1 0 1 -1 1 0 1 -1 
1 0 1 -1 1 0 1 -1 1 0 1 -1 1 0 1 -1 
1 0 1 -1 1 0 1 -1 1 0 1 0 1 -1 1 0 
1 -1 1 0 1 -1 1 0 1 -1 1 0 1 -1 1 0 
1 -1 1 0 1 0 1 -1 1 0 1 -1 1 0 1 -1 
1 0 1 -1 1 0 1 -1 1 0 1 0 1 -1 1 0 
1 -1 1 0 1 -1 1 0 1 0 1 -1 1 0 1 -1 
1 0 1 -1 1 0 1 -1 1 0 1 0 1 -1 1 0 
1 -1 1 0 1 -1 1 0 1 0 1 -1 1 0 1 -1 
1 0 1 0 1 -1 1 0 1 -1 1 0 1 -1 1 0 
1 0 1 -1 1 0 1 -1 1 0 1 0 1 -1 1 0 
1 -1 1 0 1 0 1 -1 1 0 1 -1 1 0 1 0 
1 -1 1 0 1 -1 1 0 1 0 1 -1 1 0 1 -1 
1 0 1 0 1 -1 1 0 1 0 1 -1 1 0 1 -1 
1 0 1 0 1 -1 1 0 1 0 1 -1 1 0 1 -1 
1 0 1 0 1 -1 1 0 1 0 1 -1 1 0 1 -1 
1 0 1 0 1 -1 1 0 1 0 1 -1 1 0 1 0 
1 -1 1 0 1 0 1 -1 1 0 1 0 1 -1 1 0 
1 -1 1 0 1 0 1 -1 1 0 1 0 1 -1 1 0 
1 0 1 -1 1 0 1 0 1 -1 1 0 1 0 1 -1 
1 0 1 0 1 -1 3287 1272 300 MP stroke
1 0 1 0 1 -1 1 0 1 0 1 -1 1 0 1 0 
1 0 1 -1 1 0 1 0 1 -1 1 0 1 0 1 -1 
1 0 1 0 1 -1 1 0 1 0 1 0 1 -1 1 0 
1 0 1 -1 1 0 1 0 1 -1 1 0 1 0 1 0 
1 -1 1 0 1 0 1 -1 1 0 1 0 1 0 1 -1 
1 0 1 0 1 -1 1 0 1 0 1 0 1 -1 1 0 
1 0 1 -1 1 0 1 0 1 0 1 -1 1 0 1 0 
1 0 1 -1 1 0 1 0 1 0 1 -1 1 0 1 0 
1 -1 1 0 1 0 1 0 1 -1 1 0 1 0 1 0 
1 -1 1 0 1 0 1 0 1 -1 1 0 1 0 1 0 
1 0 1 -1 1 0 1 0 1 0 1 -1 1 0 1 0 
1 0 1 -1 1 0 1 0 1 0 1 -1 1 0 1 0 
1 0 1 0 1 -1 1 0 1 0 1 0 1 -1 1 0 
1 0 1 0 1 0 1 -1 1 0 1 0 1 0 1 0 
1 -1 1 0 1 0 1 0 1 0 1 -1 1 0 1 0 
1 0 1 0 1 -1 1 0 1 0 1 0 1 0 1 -1 
1 0 1 0 1 0 1 0 1 -1 1 0 1 0 1 0 
1 0 1 0 1 -1 1 0 1 0 1 0 1 0 1 -1 
1 0 1 0 1 0 1 0 1 0 1 -1 1 0 1 0 
1 0 1 0 1 0 1 -1 1 0 1 0 1 0 1 0 
1 0 1 -1 1 0 1 0 1 0 1 0 1 0 1 0 
1 -1 1 0 1 0 1 0 1 0 1 0 1 0 1 -1 
1 0 1 0 1 0 1 0 1 0 1 0 1 -1 1 0 
1 0 1 0 1 0 1 0 1 0 1 -1 1 0 1 0 
1 0 1 0 1 0 1 0 1 0 1 -1 1 0 1 0 
1 0 1 0 1 0 1 0 1 0 1 -1 1 0 1 0 
1 0 1 0 1 0 1 0 1 0 1 0 1 -1 1 0 
1 0 1 0 1 0 1 0 1 0 1 0 1 0 1 0 
1 -1 1 0 1 0 1 0 1 0 1 0 1 0 1 0 
1 0 1 0 1 -1 1 0 1 0 1 0 1 0 1 0 
1 0 1 0 1 0 1 0 1 0 1 -1 1 0 1 0 
1 0 1 0 1 0 1 0 1 0 1 0 1 0 1 0 
1 0 1 -1 1 0 1 0 1 0 1 0 1 0 1 0 
1 0 1 0 1 0 1 0 1 0 1 0 1 0 1 -1 
1 0 1 0 1 0 1 0 1 0 1 0 1 0 1 0 
1 0 1 0 1 0 1 0 1 0 1 0 1 0 1 -1 
1 0 1 0 1 0 1 0 1 0 1 0 1 0 1 0 
1 0 1 0 1 0 2988 1324 300 MP stroke
1 0 1 0 1 0 1 0 1 0 1 0 1 -1 1 0 
1 0 1 0 1 0 1 0 1 0 1 0 1 0 1 0 
1 0 1 0 1 0 1 0 1 0 1 0 1 0 1 0 
1 0 1 0 1 0 1 -1 1 0 1 0 1 0 1 0 
1 0 1 0 1 0 1 0 1 0 1 0 1 0 1 0 
1 0 1 0 1 0 1 0 1 0 1 0 1 -1 1 0 
1 -1 1 -1 1 -1 1 -1 1 0 1 -1 1 -1 1 -1 
1 0 1 -1 1 -1 1 -1 1 0 1 -1 1 -1 1 -1 
1 0 1 -1 1 -1 1 -1 1 0 1 -1 1 -1 1 0 
1 -1 1 -1 1 0 1 -1 1 -1 1 -1 1 0 1 -1 
1 -1 1 0 1 -1 1 -1 1 0 1 -1 1 0 1 -1 
1 -1 1 0 1 -1 1 -1 1 0 1 -1 1 -1 1 0 
1 -1 1 0 1 -1 1 -1 1 0 1 -1 1 0 1 -1 
1 0 1 -1 1 -1 1 0 1 -1 1 0 1 -1 1 0 
1 -1 1 0 1 -1 1 -1 1 0 1 -1 1 0 1 -1 
1 0 1 -1 1 0 1 -1 1 0 1 -1 1 0 1 -1 
1 0 1 -1 1 0 1 -1 1 0 1 -1 1 0 1 0 
1 -1 1 0 1 -1 1 0 1 -1 1 0 1 -1 1 0 
1 -1 1 0 1 0 1 -1 1 0 1 -1 1 0 1 -1 
1 0 1 0 1 -1 1 0 1 -1 1 0 1 0 1 -1 
1 0 1 -1 1 0 1 0 1 -1 1 0 1 -1 1 0 
1 0 1 -1 1 0 1 -1 1 0 1 0 1 -1 1 0 
1 -1 1 0 1 0 1 -1 1 0 1 0 1 -1 1 0 
1 -1 1 0 1 0 1 -1 1 0 1 -1 1 0 1 0 
1 -1 1 0 1 0 1 -1 1 0 1 -1 1 0 1 0 
1 -1 1 0 1 -1 1 0 1 0 1 -1 1 0 1 -1 
1 0 1 0 1 -1 1 0 1 -1 1 0 1 0 1 -1 
1 0 1 -1 1 0 1 -1 1 0 1 0 1 -1 1 0 
1 -1 1 0 1 -1 1 0 1 -1 1 0 1 -1 1 0 
1 0 1 -1 1 0 1 -1 1 0 1 -1 1 0 1 -1 
1 0 1 -1 1 0 1 -1 1 0 1 -1 1 -1 1 0 
1 -1 1 0 1 -1 1 0 1 -1 1 0 1 -1 1 -1 
1 0 1 -1 1 0 1 -1 1 -1 1 0 1 -1 1 0 
1 -1 1 -1 1 0 1 -1 1 -1 1 0 1 -1 1 -1 
1 0 1 -1 1 -1 1 0 1 -1 1 -1 1 0 1 -1 
1 -1 1 -1 1 0 1 -1 1 -1 1 -1 1 0 1 -1 
1 -1 1 -1 1 0 1 -1 1 -1 1 -1 1 -1 1 -1 
1 0 1 -1 1 -1 2689 1465 300 MP stroke
1 -1 1 -1 1 -1 1 0 1 -1 1 -1 1 -1 1 -1 
1 -1 1 -1 1 -1 1 -1 1 -1 1 0 1 -1 1 -1 
1 -1 1 -1 1 -1 1 -1 1 -1 1 -1 1 -1 1 -1 
1 -1 1 -1 1 -1 1 -1 1 -1 1 -1 1 -1 1 -1 
1 -1 1 -1 0 -1 2 -2 1 -1 1 -1 1 -1 1 -1 
1 -1 1 -1 1 -1 1 -1 1 -1 0 -1 2 -2 1 -1 
1 -1 1 -1 1 -1 1 -1 1 -1 0 -1 2 -2 1 -1 
1 -1 1 -1 1 -1 0 -1 2 -2 1 -1 1 -1 1 -1 
1 -1 0 -1 2 -2 1 -1 1 -1 1 -1 0 -1 2 -2 
1 -1 1 -1 1 -1 0 -1 2 -2 1 -1 1 -1 1 -1 
0 -1 2 -2 1 -1 1 -1 0 -1 2 -2 1 -1 1 -1 
1 -1 0 -1 2 -2 1 -1 1 -1 0 -1 2 -2 1 -1 
1 -1 1 -1 0 -1 2 -2 1 -1 1 -1 1 -1 0 -1 
2 -2 1 -1 1 -1 1 -1 0 -1 2 -2 1 -1 1 -1 
1 -1 0 -1 2 -2 1 -1 1 -1 1 -1 1 -1 0 -1 
2 -2 1 -1 1 -1 1 -1 1 -1 1 -1 0 -1 2 -2 
1 -1 1 -1 1 -1 1 -1 1 -1 1 -1 1 -1 1 -1 
1 -1 1 -1 0 -1 2 -2 1 -1 1 -1 1 -1 1 -1 
1 -1 1 -1 1 -1 1 -1 1 -1 1 -1 1 -1 1 -1 
1 -1 1 -1 1 0 1 -1 1 -1 1 -1 1 -1 1 -1 
1 -1 1 -1 1 -1 1 -1 1 0 1 -1 1 -1 1 -1 
1 -1 1 -1 1 0 1 -1 1 -1 1 -1 1 0 1 -1 
1 -1 1 -1 1 0 1 -1 1 -1 1 -1 1 0 1 -1 
1 -1 1 0 1 -1 1 0 1 -1 1 -1 1 0 1 -1 
1 0 1 -1 1 -1 1 0 1 -1 1 0 1 -1 1 0 
1 -1 1 0 1 -1 1 0 1 -1 1 0 1 0 1 -1 
1 0 1 -1 1 0 1 0 1 -1 1 0 1 -1 1 0 
1 0 1 -1 1 0 1 0 1 0 1 -1 1 0 1 0 
1 0 1 -1 1 0 1 0 1 0 1 -1 1 0 1 0 
1 0 1 0 1 0 1 0 1 -1 1 0 1 0 1 0 
1 0 1 0 1 0 1 0 1 0 1 0 1 0 1 -1 
1 0 1 0 1 0 1 0 1 0 1 0 1 0 1 0 
1 0 1 0 1 1 1 0 1 0 1 0 1 0 1 0 
1 0 1 0 1 0 1 0 1 0 1 0 1 0 1 1 
1 0 1 0 1 0 1 0 1 0 1 0 1 0 1 0 
1 1 1 0 1 0 1 0 1 0 1 0 1 0 1 1 
1 0 1 0 1 0 1 0 1 0 1 0 1 1 1 0 
1 0 1 0 1 0 2390 1676 300 MP stroke
1 0 1 0 1 1 1 0 1 0 1 0 1 0 1 0 
1 0 1 1 1 0 1 0 1 0 1 0 1 0 1 0 
1 0 1 0 1 0 1 1 1 0 1 0 1 0 1 0 
1 0 1 0 1 0 1 0 1 0 1 0 1 0 1 0 
1 0 1 0 1 0 1 0 1 0 1 0 1 0 1 0 
1 -1 1 0 1 0 1 0 1 0 1 0 1 0 1 0 
1 -1 1 0 1 0 1 0 1 0 1 -1 1 0 1 0 
1 0 1 -1 1 0 1 0 1 -1 1 0 1 0 1 -1 
1 0 1 -1 1 0 1 0 1 -1 1 0 1 -1 1 0 
1 -1 1 0 1 -1 1 0 1 -1 1 0 1 -1 1 -1 
1 0 1 -1 1 -1 1 0 1 -1 1 -1 1 0 1 -1 
1 -1 1 -1 1 0 1 -1 1 -1 1 -1 1 -1 1 -1 
1 -1 1 0 1 -1 1 -1 1 -1 1 -1 1 -1 1 -1 
1 -1 1 -1 1 -1 0 -1 2 -2 1 -1 1 -1 1 -1 
1 -1 0 -1 2 -2 1 -1 1 -1 0 -1 2 -2 1 -1 
1 -1 0 -1 2 -2 1 -1 0 -1 2 -2 0 -1 2 -2 
0 -1 2 -2 0 -1 2 -2 0 -1 2 -2 0 -1 2 -2 
0 -1 2 -2 1 -1 0 -2 2 -2 1 -1 0 -2 2 -2 
1 -1 0 -2 2 -2 0 -1 2 -2 0 -2 2 -2 1 -1 
0 -2 2 -2 0 -2 2 -2 1 -1 0 -2 2 -2 0 -2 
2 -2 0 -2 2 -2 0 -1 1 -1 0 -1 1 -1 0 -1 
2 -2 0 -2 2 -2 0 -2 2 -2 0 -2 2 -2 0 -2 
2 -2 0 -2 2 -2 0 -2 2 -2 0 -2 2 -2 0 -2 
2 -2 0 -2 1 -1 0 -1 1 -1 0 -1 1 -1 0 -1 
1 -1 0 -1 1 -1 0 -2 2 -2 0 -2 2 -2 0 -2 
2 -2 0 -2 2 -2 0 -2 1 -1 0 -1 1 -1 0 -1 
1 -1 0 -1 1 -1 0 -2 2 -2 0 -2 2 -2 0 -2 
2 -2 0 -2 2 -2 0 -2 2 -2 0 -2 1 -1 0 -1 
1 -1 0 -1 1 -1 0 -1 1 -1 0 -1 1 -1 0 -1 
1 -1 0 -1 1 -1 0 -1 1 -1 0 -2 2 -2 0 -1 
1 -1 0 -1 1 -1 0 -1 1 -1 0 -1 1 -1 0 -1 
1 -1 0 -1 1 -1 0 -1 2 -2 0 -2 2 -2 0 -2 
2 -2 0 -2 2 -2 0 -1 1 -1 0 -1 2 -2 0 -2 
2 -2 0 -1 2 -2 0 -2 2 -2 1 -1 0 -2 2 -2 
1 -1 0 -2 2 -2 0 -1 2 -2 0 -1 2 -2 0 -1 
2 -2 0 -1 2 -2 0 -1 2 -2 0 -1 2 -2 1 -1 
0 -1 2 -2 1 -1 1 -1 0 -1 2 -2 1 -1 1 -1 
1 -1 1 -1 0 -1 2118 1996 300 MP stroke
2 -2 1 -1 1 -1 1 -1 1 -1 1 -1 1 -1 1 0 
1 -1 1 -1 1 -1 1 -1 1 -1 1 0 1 -1 1 -1 
1 -1 1 0 1 -1 1 0 1 -1 1 0 1 -1 1 0 
1 -1 1 0 1 -1 1 0 1 0 1 -1 1 0 1 0 
1 -1 1 0 1 0 1 0 1 0 1 0 1 0 1 0 
1 0 1 0 1 0 1 0 1 0 1 0 1 0 1 0 
1 1 1 0 1 0 1 1 1 0 1 0 1 1 1 0 
1 0 1 1 1 0 1 1 1 1 1 0 1 1 1 0 
1 1 1 1 1 0 1 1 1 1 1 1 1 0 1 1 
1 1 1 1 1 1 1 1 1 1 1 1 1 1 1 1 
1 1 1 1 1 1 1 1 1 1 1 1 1 1 0 1 
2 2 1 1 1 1 0 1 2 2 1 1 1 1 0 1 
2 2 1 1 0 1 2 2 0 1 2 2 1 1 0 1 
2 2 0 1 2 2 0 1 2 2 0 1 2 2 0 1 
2 2 0 1 2 2 0 1 2 2 0 1 2 2 0 1 
2 2 0 1 2 2 1 1 0 2 2 2 0 1 2 2 
0 1 2 2 1 1 0 2 2 2 0 1 2 2 0 1 
2 2 0 1 2 2 0 1 2 2 0 1 2 2 0 1 
2 2 0 1 2 2 0 1 2 2 1 1 0 1 2 2 
0 1 2 2 1 1 0 1 2 2 1 1 1 1 0 1 
2 2 1 1 1 1 1 1 0 1 2 2 1 1 1 1 
1 1 1 1 1 1 1 1 1 1 1 1 1 1 1 1 
1 1 1 0 1 1 1 1 1 1 1 0 1 1 1 1 
1 0 1 1 1 1 1 0 1 1 1 0 1 1 1 0 
1 0 1 1 1 0 1 0 1 0 1 1 1 0 1 0 
1 0 1 0 1 0 1 0 1 0 1 0 1 -1 1 0 
1 0 1 0 1 -1 1 0 1 -1 1 0 1 -1 1 0 
1 -1 1 0 1 -1 1 -1 1 0 1 -1 1 -1 1 -1 
1 -1 1 -1 1 -1 1 -1 1 -1 0 -1 2 -2 1 -1 
0 -1 2 -2 0 -1 2 -2 0 -1 2 -2 0 -1 2 -2 
1 -1 0 -2 2 -2 0 -2 2 -2 0 -1 1 -1 0 -1 
1 -1 0 -1 1 -1 0 -1 1 -1 0 -1 1 -1 0 -1 
1 -1 0 -2 2 -2 0 -2 1 -1 0 -2 2 -2 0 -2 
1 -1 0 -1 1 -1 0 -2 1 -1 0 -1 1 -1 0 -2 
1 -1 0 -2 1 -1 0 -1 1 -1 0 -2 1 -1 0 -2 
1 -1 0 -1 1 -1 0 -2 1 -1 0 -2 1 -1 0 -2 
1 -1 0 -2 1 -1 0 -2 1 -1 0 -2 1 -1 0 -2 
1 -1 0 -2 1 -1 1843 1969 300 MP stroke
0 -3 1 -1 0 -2 1 -1 0 -2 1 -1 0 -2 1 -1 
0 -3 1 -1 0 -2 1 -1 0 -2 1 -1 0 -3 1 -1 
0 -2 1 -1 0 -3 1 -1 0 -2 1 -1 0 -3 1 -1 
0 -3 1 -1 0 -2 1 -1 0 -3 1 -1 0 -3 1 -1 
0 -2 1 -1 0 -3 1 -1 0 -3 1 -1 0 -3 1 -1 
0 -3 1 -1 0 -2 1 -1 0 -3 1 -1 0 -3 1 -1 
0 -3 1 -1 0 -3 1 -1 0 -3 1 -1 0 -3 1 -1 
0 -3 1 -1 0 -3 1 -1 0 -4 1 -1 0 -3 1 -1 
0 -3 1 -1 0 -3 1 -1 0 -3 1 -1 0 -3 1 -1 
0 -4 1 -1 0 -3 1 -1 0 -3 1 -1 0 -3 1 -1 
0 -4 1 -1 0 -3 1 -1 0 -3 1 -1 0 -4 1 -1 
0 -3 1 -1 0 -3 1 -1 0 -4 1 -1 0 -3 1 -1 
0 -3 1 -1 0 -4 1 -1 0 -3 1 -1 0 -3 1 -1 
0 -4 1 -1 0 -3 1 -1 0 -4 1 -1 0 -3 1 -1 
0 -3 1 -1 0 -4 1 -1 0 -3 1 -1 0 -4 1 -1 
0 -3 1 -1 0 -3 1 -1 0 -4 1 -1 0 -3 1 -1 
0 -3 1 -1 0 -4 1 -1 0 -3 1 -1 0 -4 1 -1 
0 -3 1 -1 0 -3 1 -1 0 -3 1 -1 0 -4 1 -1 
0 -3 1 -1 0 -3 1 -1 0 -4 1 -1 0 -3 1 -1 
0 -3 1 -1 0 -3 1 -1 0 -3 1 -1 0 -4 1 -1 
0 -3 1 -1 0 -3 1 -1 0 -3 1 -1 0 -3 1 -1 
0 -3 1 -1 0 -3 1 -1 0 -3 1 -1 0 -3 1 -1 
0 -3 1 -1 0 -3 1 -1 0 -3 1 -1 0 -2 1 -1 
0 -3 1 -1 0 -3 1 -1 0 -3 1 -1 0 -2 1 -1 
0 -3 1 -1 0 -3 1 -1 0 -2 1 -1 0 -3 1 -1 
0 -2 1 -1 0 -3 1 -1 0 -2 1 -1 0 -2 1 -1 
0 -3 1 -1 0 -2 1 -1 0 -2 1 -1 0 -2 1 -1 
0 -3 1 -1 0 -2 1 -1 0 -2 1 -1 0 -2 1 -1 
0 -2 1 -1 0 -2 1 -1 0 -1 1 -1 0 -2 1 -1 
0 -2 1 -1 0 -2 1 -1 0 -1 1 -1 0 -2 1 -1 
0 -1 1 -1 0 -2 1 -1 0 -2 2 -2 0 -2 1 -1 
0 -2 2 -2 0 -2 2 -2 0 -2 2 -2 0 -2 2 -2 
1 -1 0 -2 2 -2 0 -1 2 -2 1 -1 0 -1 2 -2 
1 -1 1 -1 1 -1 1 -1 1 -1 1 -1 1 0 1 -1 
1 -1 1 0 1 -1 1 0 1 0 1 -1 1 0 1 0 
1 0 1 0 1 0 1 1 1 0 1 0 1 1 1 0 
1 1 1 0 1 1 1 1 1 1 1 1 1 1 1 1 
1 1 0 1 2 2 1667 2470 300 MP stroke
0 1 2 2 1 1 0 2 2 2 0 1 2 2 0 2 
2 2 0 2 2 2 0 2 1 1 0 2 2 2 0 2 
1 1 0 1 1 1 0 2 1 1 0 1 1 1 0 2 
1 1 0 2 1 1 0 2 1 1 0 2 1 1 0 2 
1 1 0 2 1 1 0 2 1 1 0 2 1 1 0 2 
1 1 0 3 1 1 0 2 1 1 0 3 1 1 0 2 
1 1 0 3 1 1 0 2 1 1 0 3 1 1 0 3 
1 1 0 2 1 1 0 3 1 1 0 3 1 1 0 3 
1 1 0 3 1 1 0 3 1 1 0 3 1 1 0 4 
1 1 0 3 1 1 0 3 1 1 0 4 1 1 0 3 
1 1 0 3 1 1 0 4 1 1 0 3 1 1 0 4 
1 1 0 4 1 1 0 3 1 1 0 4 1 1 0 4 
1 1 0 3 1 1 0 4 1 1 0 4 1 1 0 4 
1 1 0 4 1 1 0 4 1 1 0 4 1 1 0 4 
1 1 0 4 1 1 0 4 1 1 0 4 1 1 0 4 
1 1 0 4 1 1 0 4 1 1 0 5 1 1 0 4 
1 1 0 4 1 1 0 4 1 1 0 5 1 1 0 4 
1 1 0 4 1 1 0 4 1 1 0 5 1 1 0 4 
1 1 0 4 1 1 0 5 1 1 0 4 1 1 0 4 
1 1 0 5 1 1 0 4 1 1 0 4 1 1 0 5 
1 1 0 4 1 1 0 4 1 1 0 5 1 1 0 4 
1 1 0 4 1 1 0 4 1 1 0 5 1 1 0 4 
1 1 0 4 1 1 0 4 1 1 0 5 1 1 0 4 
1 1 0 4 1 1 0 4 1 1 0 4 1 1 0 4 
1 1 0 4 1 1 0 4 1 1 0 4 1 1 0 4 
1 1 0 4 1 1 0 4 1 1 0 4 1 1 0 4 
1 1 0 3 1 1 0 4 1 1 0 4 1 1 0 3 
1 1 0 4 1 1 0 4 1 1 0 3 1 1 0 3 
1 1 0 4 1 1 0 3 1 1 0 3 1 1 0 4 
1 1 0 3 1 1 0 3 1 1 0 3 1 1 0 3 
1 1 0 3 1 1 0 3 1 1 0 2 1 1 0 3 
1 1 0 3 1 1 0 2 1 1 0 3 1 1 0 2 
1 1 0 2 1 1 0 3 1 1 0 2 1 1 0 2 
1 1 0 2 1 1 0 2 1 1 0 1 1 1 0 2 
1 1 0 3 2 2 0 3 2 2 0 2 1 1 0 1 
1 1 0 2 2 2 0 2 2 2 0 1 2 2 0 1 
2 2 1 1 0 1 2 2 1 0 1 1 1 1 1 1 
1 0 1 1 1 0 1500 1844 300 MP stroke
1 0 1 1 1 0 1 -1 1 0 1 0 1 -1 1 0 
1 -1 1 -1 1 -1 1 -1 1 -1 0 -1 2 -2 0 -1 
2 -2 1 -1 0 -2 2 -2 0 -2 1 -1 0 -1 1 -1 
0 -1 1 -1 0 -2 1 -1 0 -1 1 -1 0 -2 1 -1 
0 -2 1 -1 0 -2 1 -1 0 -2 1 -1 0 -2 1 -1 
0 -3 1 -1 0 -2 1 -1 0 -3 1 -1 0 -3 1 -1 
0 -2 1 -1 0 -3 1 -1 0 -3 1 -1 0 -4 1 -1 
0 -3 1 -1 0 -4 1 -1 0 -3 1 -1 0 -4 1 -1 
0 -4 1 -1 0 -4 1 -1 0 -4 1 -1 0 -4 1 -1 
0 -4 1 -1 0 -5 1 -1 0 -4 1 -1 0 -5 1 -1 
0 -5 1 -1 0 -5 1 -1 0 -5 1 -1 0 -5 1 -1 
0 -5 1 -1 0 -5 1 -1 0 -6 1 -1 0 -5 1 -1 
0 -6 1 -1 0 -6 1 -1 0 -6 1 -1 0 -6 1 -1 
0 -6 1 -1 0 -6 1 -1 0 -7 1 -1 0 -6 1 -1 
0 -6 1 -1 0 -7 1 -1 0 -7 1 -1 0 -7 1 -1 
0 -7 1 -1 0 -7 1 -1 0 -7 1 -1 0 -7 1 -1 
0 -7 1 -1 0 -8 1 -1 0 -7 1 -1 0 -8 1 -1 
0 -7 1 -1 0 -8 1 -1 0 -8 1 -1 0 -8 1 -1 
0 -8 1 -1 0 -8 1 -1 0 -8 1 -1 0 -8 1 -1 
0 -8 1 -2 0 -8 1 -1 0 -8 1 -1 0 -9 1 -1 
0 -8 1 -1 0 -9 1 -1 0 -8 1 -2 0 -8 1 -1 
0 -9 1 -1 0 -9 1 -1 0 -9 1 -1 0 -9 1 -1 
0 -9 1 -1 0 -9 1 -1 0 -9 1 -1 0 -9 1 -1 
0 -9 1 -1 0 -9 1 -2 0 -9 1 -1 0 -9 1 -1 
0 -9 1 -2 0 -9 1 -1 0 -9 1 -1 0 -9 1 -2 
0 -9 1 -1 0 -9 1 -2 0 -9 1 -1 0 -9 1 -2 
0 -9 1 -1 0 -9 1 -2 0 -9 1 -1 0 -9 1 -2 
0 -9 1 -1 0 -10 1 -1 0 -9 1 -1 0 -10 1 -1 
0 -9 1 -2 0 -9 1 -1 0 -9 1 -2 0 -9 1 -1 
0 -9 1 -2 0 -9 1 -1 0 -9 1 -2 0 -9 1 -1 
0 -9 1 -2 0 -9 1 -1 0 -9 1 -1 0 -9 1 -2 
0 -9 1 -1 0 -9 1 -1 0 -9 1 -1 0 -9 1 -2 
0 -9 1 -1 0 -9 1 -1 0 -9 1 -1 0 -9 1 -1 
0 -9 1 -1 0 -9 1 -1 0 -8 1 -2 0 -8 1 -1 
0 -9 1 -1 0 -9 1 -1 0 -8 1 -1 0 -9 1 -1 
0 -8 1 -1 0 -8 1 -2 0 -8 1 -1 0 -8 1 -1 
0 -8 1 -1 0 -8 1 -1 0 -8 1 -1 0 -8 1 -1 
0 -8 1 -1 0 -7 1341 2992 300 MP stroke
1 -1 0 -8 1 -1 0 -7 1 -1 0 -8 1 -1 0 -7 
1 -1 0 -7 1 -1 0 -7 1 -1 0 -7 1 -1 0 -7 
1 -1 0 -6 1 -1 0 -7 1 -1 0 -6 1 -1 0 -7 
1 -1 0 -6 1 -1 0 -6 1 -1 0 -6 1 -1 0 -6 
1 -1 0 -5 1 -1 0 -6 1 -1 0 -5 1 -1 0 -5 
1 -1 0 -5 1 -1 0 -5 1 -1 0 -5 1 -1 0 -5 
1 -1 0 -4 1 -1 0 -5 1 -1 0 -4 1 -1 0 -4 
1 -1 0 -4 1 -1 0 -3 1 -1 0 -4 1 -1 0 -3 
1 -1 0 -3 1 -1 0 -4 1 -1 0 -2 1 -1 0 -3 
1 -1 0 -3 1 -1 0 -2 1 -1 0 -2 1 -1 0 -2 
1 -1 0 -2 1 -1 0 -2 1 -1 0 -2 2 -2 0 -2 
2 -2 0 -2 2 -2 1 -1 1 -1 1 -1 1 -1 1 -1 
1 0 1 0 1 0 1 0 1 0 1 1 1 1 1 1 
1 1 1 1 0 2 2 2 0 1 1 1 0 2 2 2 
0 2 1 1 0 2 1 1 0 2 1 1 0 2 1 1 
0 2 1 1 0 3 1 1 0 3 1 1 0 2 1 1 
0 4 1 1 0 3 1 1 0 4 1 1 0 3 1 1 
0 4 1 1 0 5 1 1 0 4 1 1 0 5 1 1 
0 4 1 1 0 5 1 1 0 6 1 1 0 5 1 1 
0 6 1 1 0 5 1 1 0 6 1 1 0 6 1 1 
0 7 1 1 0 6 1 1 0 7 1 1 0 7 1 1 
0 7 1 1 0 7 1 1 0 8 1 1 0 7 1 2 
0 7 1 1 0 8 1 1 0 8 1 2 0 8 1 1 
0 8 1 2 0 8 1 1 0 9 1 1 0 9 1 1 
0 9 1 2 0 9 1 1 0 9 1 2 0 9 1 1 
0 10 1 1 0 10 1 1 0 10 1 1 0 10 1 2 
0 10 1 1 0 10 1 2 0 10 1 2 0 10 1 2 
0 10 1 2 0 11 1 1 0 11 1 1 0 11 1 2 
0 11 1 2 0 11 1 1 0 12 1 1 0 12 1 1 
0 12 1 2 0 11 1 2 0 12 1 1 0 12 1 2 
0 12 1 1 0 12 1 2 0 12 1 2 0 12 1 2 
0 12 1 2 0 12 1 2 0 12 1 2 0 13 1 2 
0 12 1 2 0 13 1 1 0 13 1 2 0 13 1 2 
0 12 1 2 0 13 1 2 0 13 1 2 0 13 1 2 
0 13 1 2 0 13 1 2 0 13 1 2 0 13 1 2 
0 13 1 2 0 13 1 2 0 14 1 2 0 13 1 2 
0 13 1 2 0 14 1 2 0 13 1 2 0 13 1 2 
0 14 1 2 0 13 1179 2257 300 MP stroke
1 2 0 14 1 1 0 14 1 2 0 13 1 2 0 14 
1 2 0 13 1 2 0 13 1 2 0 14 1 2 0 13 
1 2 0 13 1 2 0 14 1 2 0 13 1 2 0 13 
1 2 0 13 1 2 0 14 1 1 0 14 1 1 0 14 
1 1 0 14 1 1 0 13 1 2 0 13 1 2 0 13 
1 2 0 13 1 2 0 12 1 2 0 13 1 2 0 12 
1 2 0 13 1 2 0 12 1 2 0 12 1 2 0 12 
1 2 0 12 1 2 0 12 1 2 0 12 1 1 0 12 
1 2 0 12 1 2 0 11 1 2 0 11 1 2 0 12 
1 1 0 11 1 2 0 11 1 2 0 11 1 1 0 11 
1 2 0 11 1 1 0 11 1 1 0 11 1 1 0 11 
1 1 0 11 1 1 0 10 1 1 0 10 1 2 0 10 
1 1 0 10 1 1 0 9 1 2 0 9 1 1 0 9 
1 2 0 8 1 2 0 8 1 2 0 8 1 1 0 9 
1 1 0 8 1 1 0 8 1 1 0 8 1 1 0 8 
1 1 0 7 1 1 0 7 1 1 0 7 1 1 0 7 
1 1 0 7 1 1 0 6 1 1 0 6 1 1 0 5 
1 1 0 6 1 1 0 5 1 1 0 5 1 1 0 5 
1 1 0 4 1 1 0 4 1 1 0 4 1 1 0 4 
1 1 0 3 1 1 0 3 1 1 0 3 1 1 0 2 
1 1 0 2 1 1 0 2 1 1 0 3 2 2 0 2 
2 2 1 1 1 1 1 1 1 1 1 0 1 0 1 0 
1 0 1 0 1 0 1 -1 1 0 1 0 1 0 1 0 
1 0 1 0 1 -1 1 0 1 0 1 0 1 -1 1 0 
1 0 1 0 1 -1 1 0 1 -1 1 0 1 0 1 -1 
1 0 1 -1 1 0 1 -1 1 0 1 -1 1 0 1 -1 
1 0 1 -1 1 -1 1 0 1 -1 1 -1 1 0 1 -1 
1 -1 1 0 1 -1 1 -1 1 -1 1 -1 1 -1 1 0 
1 -1 1 -1 1 -1 1 -1 1 -1 1 -1 1 -1 1 -1 
1 -1 1 -1 0 -1 2 -2 1 -1 1 -1 1 -1 1 -1 
0 -1 2 -2 1 -1 0 -1 2 -2 1 -1 0 -1 2 -2 
1 -1 0 -1 2 -2 0 -1 2 -2 0 -1 2 -2 1 -1 
0 -2 2 -2 1 -1 0 -2 2 -2 0 -1 2 -2 0 -2 
2 -2 0 -1 2 -2 0 -2 2 -2 0 -2 2 -2 0 -1 
1 -1 0 -1 1 -1 0 -1 1 -1 0 -1 1 -1 0 -1 
1 -1 0 -1 1 -1 0 -1 1 -1 0 -2 2 -2 0 -2 
2 -2 0 -2 1 -1 0 -1 1 -1 0 -2 2 -2 0 -3 
2 -2 0 -2 1 -1 972 1452 300 MP stroke
0 -2 2 -2 0 -3 2 -2 0 -3 2 -2 0 -2 1 -1 
0 -2 1 -1 0 -1 1 -1 0 -2 1 -1 0 -1 1 -1 
0 -2 1 -1 0 -2 1 -1 0 -2 1 -1 0 -1 1 -1 
0 -2 1 -1 0 -2 1 -1 0 -2 1 -1 0 -2 1 -1 
0 -2 1 -1 0 -2 1 -1 0 -2 1 -1 0 -2 1 -1 
0 -2 1 -1 0 -2 1 -1 0 -2 1 -1 0 -2 1 -1 
0 -2 1 -1 0 -2 1 -1 0 -3 1 -1 0 -2 1 -1 
0 -2 1 -1 0 -2 1 -1 0 -3 1 -1 0 -2 1 -1 
0 -3 1 -1 0 -2 1 -1 0 -2 1 -1 0 -3 1 -1 
0 -3 1 -1 0 -2 1 -1 0 -3 1 -1 0 -2 1 -1 
0 -3 1 -1 0 -3 1 -1 0 -2 1 -1 0 -3 1 -1 
0 -3 1 -1 0 -3 1 -1 0 -2 1 -1 0 -3 1 -1 
0 -3 1 -1 0 -3 1 -1 0 -3 1 -1 0 -3 1 -1 
0 -3 1 -1 0 -3 1 -1 0 -3 1 -1 0 -3 1 -1 
0 -4 1 -1 0 -3 1 -1 0 -3 1 -1 0 -3 1 -1 
0 -4 1 -1 0 -3 1 -1 0 -3 1 -1 0 -4 1 -1 
0 -3 1 -1 0 -4 1 -1 0 -3 1 -1 0 -4 1 -1 
0 -3 1 -1 0 -4 1 -1 0 -3 1 -1 0 -4 1 -1 
0 -4 1 -1 0 -4 1 -1 0 -3 1 -1 0 -4 1 -1 
0 -4 1 -1 0 -4 1 -1 0 -4 1 -1 0 -4 1 -1 
0 -4 1 -1 0 -4 1 -1 0 -4 1 -1 0 -4 1 -1 
0 -4 1 -1 0 -4 1 -1 0 -5 1 -1 0 -4 1 -1 
0 -4 1 -1 0 -4 1 -1 0 -5 1 -1 0 -4 1 -1 
0 -5 1 -1 0 -4 1 -1 0 -5 1 -1 0 -4 1 -1 
0 -5 1 -1 0 -4 1 -1 0 -5 1 -1 0 -5 1 -1 
0 -4 1 -1 0 -5 1 -1 0 -5 1 -1 0 -5 1 -1 
0 -5 1 -1 0 -5 1 -1 0 -5 1 -1 0 -5 1 -1 
0 -5 1 -1 0 -5 1 -1 0 -5 1 -1 0 -5 1 -1 
0 -5 1 -1 0 -6 1 -1 0 -5 1 -1 0 -5 1 -1 
0 -6 1 -1 0 -5 1 -1 0 -6 1 -1 0 -5 1 -1 
0 -6 1 -1 0 -5 1 -1 0 -6 1 -1 0 -5 1 -1 
0 -6 1 -1 0 -6 1 -1 0 -6 1 -1 0 -5 1 -1 
0 -6 1 -1 0 -6 1 -1 0 -6 1 -1 0 -6 1 -1 
0 -6 1 -1 0 -6 1 -1 0 -6 1 -1 0 -7 1 -1 
0 -6 1 -1 0 -6 1 -1 0 -6 1 -1 0 -7 1 -1 
0 -6 1 -1 0 -7 1 -1 0 -6 1 -1 0 -7 1 -1 
0 -6 1 -1 0 -7 1 -1 0 -6 1 -1 0 -7 1 -1 
0 -7 1 -1 0 -7 820 2195 300 MP stroke
1 -1 0 -6 1 -1 0 -7 1 -1 0 -7 1 -1 0 -7 
1 -1 0 -7 1 -1 0 -7 1 -1 0 -7 1 -1 0 -7 
1 -1 0 -8 1 -1 0 -7 1 -1 0 -7 1 -1 0 -7 
1 -2 0 -7 1 -1 0 -7 1 -1 0 -8 1 -1 0 -7 
1 -1 0 -8 1 -1 0 -7 1 -1 0 -8 1 -1 0 -8 
1 -1 0 -7 1 -2 0 -7 1 -1 0 -8 1 -1 0 -8 
1 -1 0 -8 1 -1 0 -8 1 -1 0 -8 1 -1 0 -8 
1 -1 0 -8 1 -1 0 -8 1 -2 0 -8 1 -1 0 -8 
1 -1 0 -8 1 -1 0 -9 1 -1 0 -8 1 -1 0 -8 
1 -2 0 -8 1 -1 0 -9 1 -1 0 -8 1 -1 0 -9 
1 -1 0 -9 1 -1 0 -8 1 -2 0 -8 1 -1 0 -9 
1 -1 0 -9 1 -1 0 -9 1 -1 0 -9 1 -1 0 -9 
1 -1 0 -9 1 -1 0 -9 1 -2 0 -9 1 -1 0 -9 
1 -1 0 -9 1 -1 0 -10 1 -1 0 -9 1 -1 0 -10 
1 -1 0 -9 1 -1 0 -10 1 -1 0 -9 1 -2 0 -9 
1 -1 0 -10 1 -1 0 -10 1 -1 0 -9 1 -2 0 -9 
1 -2 0 -9 1 -2 0 -9 1 -2 0 -9 1 -2 0 -7 
752 2833 137 MP stroke
gr

16.6667 w
0 sg
0.1 sg
%%IncludeResource: font Helvetica-Bold
/Helvetica-Bold /WindowsLatin1Encoding 183.333 FMSR

2273 4322 mt 
(Time [s]) s
 309 2993 mt  -90 rotate
(Normal Force [N]) s
90 rotate
gs 750 500 3751 3501 rc
/c8 { 1.000000 0.000000 0.000000 sr} bdef
c8
1 0 0 -92 1 -1 0 -92 1 -1 0 -93 1 -1 0 -92 
1 -1 0 -92 1 -1 0 -93 1 -1 0 -92 1 -1 0 -92 
1 -1 0 -344 1 -1 0 -1666 0 1666 -1 1 0 264 0 -13 
1 -1 0 -92 1 -1 0 -92 1 -1 0 -93 1 -1 0 -92 
1 -1 0 -93 1 -1 0 -92 1 -1 0 -92 1 -1 0 -93 
1 -1 0 -92 1 -1 0 -93 1 -1 0 -91 1 -1 0 -93 
1 -1 0 -92 1 -2 0 -92 1 -1 0 -92 1 -1 0 -93 
750 2833 57 MP stroke
0 1456 -1 1 0 1866 -1 1 0 177 787 500 6 MP stroke
-1 0 -1 0 1 0 -2 -2 0 -2 -1 -1 0 -3 -1 -1 
0 -6 -1 -1 0 -8 -1 -1 0 -12 -1 -1 0 -16 -1 -1 
0 -19 -1 -1 0 -25 -1 -1 0 -29 -1 -1 0 -35 -1 -1 
0 -42 -1 -1 0 -47 -1 -1 0 -55 -1 -1 0 -63 -1 -1 
0 -71 -1 -1 0 -79 -1 -1 0 -88 -1 -1 0 -99 -1 -1 
0 -109 -1 -1 0 -119 -1 -1 0 -130 -1 -1 0 -88 774 4001 48 MP stroke
/c9 { 0.000000 0.000000 1.000000 sr} bdef
c9
1 0 0 -92 1 -1 0 -92 1 -1 0 -93 1 -1 0 -92 
1 -1 0 -92 1 -1 0 -93 1 -1 0 -92 1 -1 0 -92 
1 -1 0 -344 1 -1 0 -1666 0 1666 -1 1 0 264 0 -13 
1 -1 0 -92 1 -1 0 -92 1 -1 0 -93 1 -1 0 -92 
1 -1 0 -93 1 -1 0 -92 1 -1 0 -92 1 -1 0 -93 
1 -1 0 -92 1 -1 0 -93 1 -1 0 -91 1 -1 0 -93 
1 -1 0 -92 1 -2 0 -92 1 -1 0 -92 1 -1 0 -93 
750 2833 57 MP stroke
0 1456 -1 1 0 1866 -1 1 0 177 787 500 6 MP stroke
-1 0 -1 0 -1 0 -1 0 -1 0 -1 0 -1 0 -1 -1 
-1 -1 0 -1 -2 -2 0 -3 -1 -1 0 -4 -1 -1 0 -6 
-1 -1 0 -10 -1 -1 0 -12 -1 -1 0 -18 -1 -1 0 -23 
-1 -1 0 -30 -1 -1 0 -38 -1 -1 0 -49 -1 -1 0 -60 
-1 -1 0 -75 -1 -1 0 -93 -1 -1 0 -111 -1 -1 0 -135 
-1 -1 0 -160 -1 -1 0 -191 -1 -1 0 -128 778 4001 47 MP stroke
/c10 { 1.000000 0.000000 1.000000 sr} bdef
c10
1 0 0 -92 1 -1 0 -92 1 -1 0 -93 1 -1 0 -92 
1 -1 0 -92 1 -1 0 -93 1 -1 0 -92 1 -1 0 -92 
1 -1 0 -344 1 -1 0 -1666 0 1666 -1 1 0 264 0 -13 
1 -1 0 -92 1 -1 0 -92 1 -1 0 -93 1 -1 0 -92 
1 -1 0 -93 1 -1 0 -92 1 -1 0 -92 1 -1 0 -93 
1 -1 0 -92 1 -1 0 -93 1 -1 0 -91 1 -1 0 -93 
1 -1 0 -92 1 -2 0 -92 1 -1 0 -92 1 -1 0 -93 
750 2833 57 MP stroke
0 1456 -1 1 0 1866 -1 1 0 177 787 500 6 MP stroke
-1 0 -1 0 -1 0 -1 0 -1 0 -1 0 -1 0 -1 0 
-1 0 -1 0 -1 0 -1 0 -1 0 -1 0 -1 -1 -1 -1 
-1 -1 0 -2 -1 -1 0 -3 -1 -1 0 -6 -1 -1 0 -10 
-1 -1 0 -17 -1 -1 0 -25 -1 -1 0 -39 -1 -1 0 -57 
-1 -1 0 -84 -1 -1 0 -121 -1 -1 0 -171 -1 -1 0 -240 
-1 -1 0 -332 -1 -1 0 -45 781 4001 45 MP stroke
/c11 { 0.000000 1.000000 0.000000 sr} bdef
c11
1 0 0 -92 1 -1 0 -92 1 -1 0 -93 1 -1 0 -92 
1 -1 0 -92 1 -1 0 -93 1 -1 0 -92 1 -1 0 -92 
1 -1 0 -344 1 -1 0 -1666 0 1666 -1 1 0 264 0 -13 
1 -1 0 -92 1 -1 0 -92 1 -1 0 -93 1 -1 0 -92 
1 -1 0 -93 1 -1 0 -92 1 -1 0 -92 1 -1 0 -93 
1 -1 0 -92 1 -1 0 -93 1 -1 0 -91 1 -1 0 -93 
1 -1 0 -92 1 -2 0 -92 1 -1 0 -92 1 -1 0 -93 
750 2833 57 MP stroke
0 1456 -1 1 0 1866 -1 1 0 177 787 500 6 MP stroke
-1 0 -1 0 -1 0 -1 0 -1 0 -1 0 -1 0 -1 0 
-1 0 -1 0 -1 0 -1 0 -1 0 -1 0 -1 0 -1 0 
-1 0 -1 -1 0 -1 -2 -2 0 -5 -1 -1 0 -12 -1 -1 
0 -25 -1 -1 0 -53 -1 -1 0 -106 -1 -1 0 -206 -1 -1 
0 -393 -1 -2 0 -356 782 4001 36 MP stroke
/c12 { 0.000000 1.000000 1.000000 sr} bdef
c12
1 0 0 -92 1 -1 0 -92 1 -1 0 -93 1 -1 0 -92 
1 -1 0 -92 1 -1 0 -93 1 -1 0 -92 1 -1 0 -92 
1 -1 0 -344 1 -1 0 -1666 0 1666 -1 1 0 264 0 -13 
1 -1 0 -92 1 -1 0 -92 1 -1 0 -93 1 -1 0 -92 
1 -1 0 -93 1 -1 0 -92 1 -1 0 -92 1 -1 0 -93 
1 -1 0 -92 1 -1 0 -93 1 -1 0 -91 1 -1 0 -93 
1 -1 0 -92 1 -2 0 -92 1 -1 0 -92 1 -1 0 -93 
750 2833 57 MP stroke
0 1456 -1 1 0 1866 -1 1 0 177 787 500 6 MP stroke
-1 0 -1 0 -1 0 -1 0 -1 0 -1 0 -1 0 -1 0 
-1 0 -1 0 -1 0 -1 0 -1 0 -1 0 0 -1 -2 -2 
0 -11 -1 -1 0 -41 -1 -1 0 -157 -1 -1 0 -552 -1 -2 
0 -399 783 4001 26 MP stroke
gr

c12
0 sg
%%IncludeResource: font Helvetica
/Helvetica /WindowsLatin1Encoding 83.3333 FMSR

 732 4037 mt 
( ) s
4483  536 mt 
( ) s
8.33333 w
DO
SO
12.5 w
0.1 sg
 750  499 mt 4500  499 L
 750 4000 mt 4500 4000 L
4500 4000 mt 4500  499 L
 750 4000 mt  750  499 L
 750 4000 mt 4500 4000 L
 750 4000 mt  750  499 L
 750 4000 mt  750 3943 L
 750  500 mt  750  556 L
%%IncludeResource: font Helvetica
/Helvetica /WindowsLatin1Encoding 133.333 FMSR

 713 4148 mt 
(0) s
2000 4000 mt 2000 3943 L
2000  500 mt 2000  556 L
1834 4148 mt 
(0.005) s
3250 4000 mt 3250 3943 L
3250  500 mt 3250  556 L
3121 4148 mt 
(0.01) s
4500 4000 mt 4500 3943 L
4500  500 mt 4500  556 L
4334 4148 mt 
(0.015) s
 750 4000 mt  806 4000 L
4500 4000 mt 4443 4000 L
 389 4049 mt 
(-0.05) s
 750 2833 mt  806 2833 L
4500 2833 mt 4443 2833 L
 652 2882 mt 
(0) s
 750 1666 mt  806 1666 L
4500 1666 mt 4443 1666 L
 467 1715 mt 
(0.05) s
 750  500 mt  806  500 L
4500  500 mt 4443  500 L
 541  549 mt 
(0.1) s
 750  499 mt 4500  499 L
 750 4000 mt 4500 4000 L
4500 4000 mt 4500  499 L
 750 4000 mt  750  499 L
0 sg
%%IncludeResource: font Helvetica-Bold
/Helvetica-Bold /WindowsLatin1Encoding 125 FMSR

2482 2586 mt 
(k) s
%%IncludeResource: font Helvetica-Bold
/Helvetica-Bold /WindowsLatin1Encoding 100 FMSR

2551 2648 mt 
(2) s
%%IncludeResource: font Helvetica-Bold
/Helvetica-Bold /WindowsLatin1Encoding 125 FMSR

2606 2586 mt 
( = k) s
%%IncludeResource: font Helvetica-Bold
/Helvetica-Bold /WindowsLatin1Encoding 100 FMSR

2818 2648 mt 
(1) s
gs 2156 2442 939 1367 rc
16.6667 w
250 0 2206 2567 2 MP stroke
gr

16.6667 w
%%IncludeResource: font Helvetica-Bold
/Helvetica-Bold /WindowsLatin1Encoding 125 FMSR

2482 2809 mt 
(k) s
%%IncludeResource: font Helvetica-Bold
/Helvetica-Bold /WindowsLatin1Encoding 100 FMSR

2551 2871 mt 
(2) s
%%IncludeResource: font Helvetica-Bold
/Helvetica-Bold /WindowsLatin1Encoding 125 FMSR

2606 2809 mt 
( = 2.5k) s
%%IncludeResource: font Helvetica-Bold
/Helvetica-Bold /WindowsLatin1Encoding 100 FMSR

2991 2871 mt 
(1) s
gs 2156 2442 939 1367 rc
c8
250 0 2206 2790 2 MP stroke
gr

c8
0 sg
%%IncludeResource: font Helvetica-Bold
/Helvetica-Bold /WindowsLatin1Encoding 125 FMSR

2482 3032 mt 
(k) s
%%IncludeResource: font Helvetica-Bold
/Helvetica-Bold /WindowsLatin1Encoding 100 FMSR

2551 3094 mt 
(2) s
%%IncludeResource: font Helvetica-Bold
/Helvetica-Bold /WindowsLatin1Encoding 125 FMSR

2606 3032 mt 
( = 5k) s
%%IncludeResource: font Helvetica-Bold
/Helvetica-Bold /WindowsLatin1Encoding 100 FMSR

2887 3094 mt 
(1) s
gs 2156 2442 939 1367 rc
c9
250 0 2206 3013 2 MP stroke
gr

c9
0 sg
%%IncludeResource: font Helvetica-Bold
/Helvetica-Bold /WindowsLatin1Encoding 125 FMSR

2482 3255 mt 
(k) s
%%IncludeResource: font Helvetica-Bold
/Helvetica-Bold /WindowsLatin1Encoding 100 FMSR

2551 3317 mt 
(2) s
%%IncludeResource: font Helvetica-Bold
/Helvetica-Bold /WindowsLatin1Encoding 125 FMSR

2606 3255 mt 
( = 10k) s
%%IncludeResource: font Helvetica-Bold
/Helvetica-Bold /WindowsLatin1Encoding 100 FMSR

2957 3317 mt 
(1) s
gs 2156 2442 939 1367 rc
c10
250 0 2206 3236 2 MP stroke
gr

c10
0 sg
%%IncludeResource: font Helvetica-Bold
/Helvetica-Bold /WindowsLatin1Encoding 125 FMSR

2482 3478 mt 
(k) s
%%IncludeResource: font Helvetica-Bold
/Helvetica-Bold /WindowsLatin1Encoding 100 FMSR

2551 3540 mt 
(2) s
%%IncludeResource: font Helvetica-Bold
/Helvetica-Bold /WindowsLatin1Encoding 125 FMSR

2606 3478 mt 
( = 20k) s
%%IncludeResource: font Helvetica-Bold
/Helvetica-Bold /WindowsLatin1Encoding 100 FMSR

2957 3540 mt 
(1) s
gs 2156 2442 939 1367 rc
c11
250 0 2206 3459 2 MP stroke
gr

c11
0 sg
%%IncludeResource: font Helvetica-Bold
/Helvetica-Bold /WindowsLatin1Encoding 125 FMSR

2482 3701 mt 
(k) s
%%IncludeResource: font Helvetica-Bold
/Helvetica-Bold /WindowsLatin1Encoding 100 FMSR

2551 3763 mt 
(2) s
%%IncludeResource: font Helvetica-Bold
/Helvetica-Bold /WindowsLatin1Encoding 125 FMSR

2606 3701 mt 
( = 40k) s
%%IncludeResource: font Helvetica-Bold
/Helvetica-Bold /WindowsLatin1Encoding 100 FMSR

2957 3763 mt 
(1) s
gs 2156 2442 939 1367 rc
c12
250 0 2206 3682 2 MP stroke
12.5 w
gr

12.5 w
c12

end %%Color Dict

eplot
%%EndObject

epage
end

showpage

%%Trailer
%%EOF
