%!PS-Adobe-3.0 EPSF-3.0
%%Creator: MATLAB, The MathWorks, Inc. Version 8.1.0.604 (R2013a). Operating System: Microsoft Windows 7.
%%Title: .\multi_Force-Time_0_4N.eps
%%CreationDate: 08/15/2013  23:03:37
%%DocumentNeededFonts: Helvetica-Bold
%%+ Helvetica
%%DocumentProcessColors: Cyan Magenta Yellow Black
%%LanguageLevel: 2
%%Pages: 1
%%BoundingBox:    40    93   564   569
%%EndComments

%%BeginProlog
% MathWorks dictionary
/MathWorks 160 dict begin
% definition operators
/bdef {bind def} bind def
/ldef {load def} bind def
/xdef {exch def} bdef
/xstore {exch store} bdef
% operator abbreviations
/c  /clip ldef
/cc /concat ldef
/cp /closepath ldef
/gr /grestore ldef
/gs /gsave ldef
/mt /moveto ldef
/np /newpath ldef
/cm /currentmatrix ldef
/sm /setmatrix ldef
/rm /rmoveto ldef
/rl /rlineto ldef
/s {show newpath} bdef
/sc {setcmykcolor} bdef
/sr /setrgbcolor ldef
/sg /setgray ldef
/w /setlinewidth ldef
/j /setlinejoin ldef
/cap /setlinecap ldef
/rc {rectclip} bdef
/rf {rectfill} bdef
% page state control
/pgsv () def
/bpage {/pgsv save def} bdef
/epage {pgsv restore} bdef
/bplot /gsave ldef
/eplot {stroke grestore} bdef
% orientation switch
/portraitMode 0 def /landscapeMode 1 def /rotateMode 2 def
% coordinate system mappings
/dpi2point 0 def
% font control
/FontSize 0 def
/FMS {/FontSize xstore findfont [FontSize 0 0 FontSize neg 0 0]
  makefont setfont} bdef
/ISOLatin1Encoding where {pop /WindowsLatin1Encoding 256 array bdef
ISOLatin1Encoding WindowsLatin1Encoding copy pop
/.notdef/.notdef/quotesinglbase/florin/quotedblbase/ellipsis/dagger
/daggerdbl/circumflex/perthousand/Scaron/guilsinglleft/OE/.notdef/.notdef
/.notdef/.notdef/quoteleft/quoteright/quotedblleft/quotedblright/bullet
/endash/emdash/tilde/trademark/scaron/guilsinglright/oe/.notdef/.notdef
/Ydieresis WindowsLatin1Encoding 128 32 getinterval astore pop}
{/WindowsLatin1Encoding StandardEncoding bdef} ifelse
/reencode {exch dup where {pop load} {pop StandardEncoding} ifelse
  exch dup 3 1 roll findfont dup length dict begin
  { 1 index /FID ne {def}{pop pop} ifelse } forall
  /Encoding exch def currentdict end definefont pop} bdef
/isroman {findfont /CharStrings get /Agrave known} bdef
/FMSR {3 1 roll 1 index dup isroman {reencode} {pop pop} ifelse
  exch FMS} bdef
/csm {1 dpi2point div -1 dpi2point div scale neg translate
 dup landscapeMode eq {pop -90 rotate}
  {rotateMode eq {90 rotate} if} ifelse} bdef
% line types: solid, dotted, dashed, dotdash
/SO { [] 0 setdash } bdef
/DO { [.5 dpi2point mul 4 dpi2point mul] 0 setdash } bdef
/DA { [6 dpi2point mul] 0 setdash } bdef
/DD { [.5 dpi2point mul 4 dpi2point mul 6 dpi2point mul 4
  dpi2point mul] 0 setdash } bdef
% macros for lines and objects
/L {lineto stroke} bdef
/MP {3 1 roll moveto 1 sub {rlineto} repeat} bdef
/AP {{rlineto} repeat} bdef
/PDlw -1 def
/W {/PDlw currentlinewidth def setlinewidth} def
/PP {closepath eofill} bdef
/DP {closepath stroke} bdef
/MR {4 -2 roll moveto dup  0 exch rlineto exch 0 rlineto
  neg 0 exch rlineto closepath} bdef
/FR {MR stroke} bdef
/PR {MR fill} bdef
/L1i {{currentfile picstr readhexstring pop} image} bdef
/tMatrix matrix def
/MakeOval {newpath tMatrix currentmatrix pop translate scale
0 0 1 0 360 arc tMatrix setmatrix} bdef
/FO {MakeOval stroke} bdef
/PO {MakeOval fill} bdef
/PD {currentlinewidth 2 div 0 360 arc fill
   PDlw -1 eq not {PDlw w /PDlw -1 def} if} def
/FA {newpath tMatrix currentmatrix pop translate scale
  0 0 1 5 -2 roll arc tMatrix setmatrix stroke} bdef
/PA {newpath tMatrix currentmatrix pop	translate 0 0 moveto scale
  0 0 1 5 -2 roll arc closepath tMatrix setmatrix fill} bdef
/FAn {newpath tMatrix currentmatrix pop translate scale
  0 0 1 5 -2 roll arcn tMatrix setmatrix stroke} bdef
/PAn {newpath tMatrix currentmatrix pop translate 0 0 moveto scale
  0 0 1 5 -2 roll arcn closepath tMatrix setmatrix fill} bdef
/vradius 0 def /hradius 0 def /lry 0 def
/lrx 0 def /uly 0 def /ulx 0 def /rad 0 def
/MRR {/vradius xdef /hradius xdef /lry xdef /lrx xdef /uly xdef
  /ulx xdef newpath tMatrix currentmatrix pop ulx hradius add uly
  vradius add translate hradius vradius scale 0 0 1 180 270 arc 
  tMatrix setmatrix lrx hradius sub uly vradius add translate
  hradius vradius scale 0 0 1 270 360 arc tMatrix setmatrix
  lrx hradius sub lry vradius sub translate hradius vradius scale
  0 0 1 0 90 arc tMatrix setmatrix ulx hradius add lry vradius sub
  translate hradius vradius scale 0 0 1 90 180 arc tMatrix setmatrix
  closepath} bdef
/FRR {MRR stroke } bdef
/PRR {MRR fill } bdef
/MlrRR {/lry xdef /lrx xdef /uly xdef /ulx xdef /rad lry uly sub 2 div def
  newpath tMatrix currentmatrix pop ulx rad add uly rad add translate
  rad rad scale 0 0 1 90 270 arc tMatrix setmatrix lrx rad sub lry rad
  sub translate rad rad scale 0 0 1 270 90 arc tMatrix setmatrix
  closepath} bdef
/FlrRR {MlrRR stroke } bdef
/PlrRR {MlrRR fill } bdef
/MtbRR {/lry xdef /lrx xdef /uly xdef /ulx xdef /rad lrx ulx sub 2 div def
  newpath tMatrix currentmatrix pop ulx rad add uly rad add translate
  rad rad scale 0 0 1 180 360 arc tMatrix setmatrix lrx rad sub lry rad
  sub translate rad rad scale 0 0 1 0 180 arc tMatrix setmatrix
  closepath} bdef
/FtbRR {MtbRR stroke } bdef
/PtbRR {MtbRR fill } bdef
/stri 6 array def /dtri 6 array def
/smat 6 array def /dmat 6 array def
/tmat1 6 array def /tmat2 6 array def /dif 3 array def
/asub {/ind2 exch def /ind1 exch def dup dup
  ind1 get exch ind2 get sub exch } bdef
/tri_to_matrix {
  2 0 asub 3 1 asub 4 0 asub 5 1 asub
  dup 0 get exch 1 get 7 -1 roll astore } bdef
/compute_transform {
  dmat dtri tri_to_matrix tmat1 invertmatrix 
  smat stri tri_to_matrix tmat2 concatmatrix } bdef
/ds {stri astore pop} bdef
/dt {dtri astore pop} bdef
/db {2 copy /cols xdef /rows xdef mul dup 3 mul string
  currentfile 
  3 index 0 eq {/ASCIIHexDecode filter}
  {/ASCII85Decode filter 3 index 2 eq {/RunLengthDecode filter} if }
  ifelse exch readstring pop
  dup 0 3 index getinterval /rbmap xdef
  dup 2 index dup getinterval /gbmap xdef
  1 index dup 2 mul exch getinterval /bbmap xdef pop pop}bdef
/it {gs np dtri aload pop moveto lineto lineto cp c
  cols rows 8 compute_transform 
  rbmap gbmap bbmap true 3 colorimage gr}bdef
/il {newpath moveto lineto stroke}bdef
currentdict end def
%%EndProlog

%%BeginSetup
MathWorks begin

0 cap

end
%%EndSetup

%%Page: 1 1
%%BeginPageSetup
%%PageBoundingBox:    40    93   564   569
MathWorks begin
bpage
%%EndPageSetup

%%BeginObject: obj1
bplot

/dpi2point 8.33333 def
portraitMode 0150 5158 csm

  190   409  4366  3970 rc
84 dict begin %Colortable dictionary
/c0 { 0.000000 0.000000 0.000000 sr} bdef
/c1 { 1.000000 1.000000 1.000000 sr} bdef
/c2 { 0.900000 0.000000 0.000000 sr} bdef
/c3 { 0.000000 0.820000 0.000000 sr} bdef
/c4 { 0.000000 0.000000 0.800000 sr} bdef
/c5 { 0.910000 0.820000 0.320000 sr} bdef
/c6 { 1.000000 0.260000 0.820000 sr} bdef
/c7 { 0.000000 0.820000 0.820000 sr} bdef
c0
1 j
1 sg
   0    0 5001 5001 rf
12.5 w
0 3501 3750 0 0 -3501 750 4000 4 MP
PP
-3750 0 0 3501 3750 0 0 -3501 750 4000 5 MP stroke
gs 750 500 3751 3501 rc
16.6667 w
0 sg
0 -16 1 -4 0 -17 1 -4 0 -16 1 -4 0 -17 1 -4 
0 -15 1 -4 0 -16 1 -4 0 -15 1 -4 0 -11 1 -3 
0 -14 1 -4 0 -14 1 -3 0 -13 1 -3 0 -12 1 -3 
0 -12 1 -3 0 -11 1 -2 0 -10 1 -3 0 -9 1 -2 
0 -8 1 -2 0 -8 1 -1 0 -7 1 -1 0 -6 1 -1 
0 -5 1 -1 0 -4 1 -1 0 -3 1 -1 0 -4 1 -1 
0 -3 1 -1 0 -4 1 -1 0 -3 1 -1 0 -2 1 -1 
0 -3 1 -1 0 -2 1 -1 0 -2 1 -1 0 -2 1 -1 
0 -1 1 -1 0 -2 1 -1 0 -2 2 -2 0 -2 2 -2 
1 -1 0 -2 2 -2 0 -1 2 -2 1 -1 1 -1 0 -1 
2 -2 1 -1 1 -1 1 -1 0 -1 0 1 1 1 0 3 
1 1 0 1 1 1 0 2 1 1 0 3 1 1 0 2 
1 1 0 2 1 1 0 2 1 1 0 3 1 1 0 2 
1 1 0 2 1 1 0 2 1 1 0 3 1 1 0 2 
1 1 0 2 1 1 0 2 1 1 0 3 1 1 0 1 
1 1 0 2 1 1 0 3 1 1 0 2 1 1 0 2 
1 1 0 2 1 1 0 3 1 1 0 2 1 1 0 2 
1 1 0 2 1 1 0 3 1 1 0 2 1 1 0 2 
1 1 0 2 1 1 0 3 1 1 0 1 1 1 0 3 
1 1 0 2 1 1 0 2 1 1 0 2 1 1 0 3 
1 1 0 2 1 1 0 2 1 1 0 2 1 1 0 3 
1 1 0 2 1 1 0 2 1 1 0 2 1 1 0 3 
1 1 0 2 1 1 0 1 1 1 0 3 1 1 0 2 
1 1 0 2 1 1 0 2 1 1 0 3 1 1 0 2 
1 1 0 2 1 1 0 2 1 1 0 3 1 1 0 2 
1 1 0 2 1 1 0 2 1 1 0 3 1 1 0 2 
1 1 0 1 1 1 0 3 1 1 0 2 1 1 0 2 
1 1 0 2 1 1 0 3 1 1 0 2 1 1 0 2 
1 1 0 2 1 1 0 3 1 1 0 2 1 1 0 2 
1 1 0 3 1 1 0 2 1 1 0 2 1 1 0 2 
1 1 0 2 1 1 0 2 1 1 0 3 1 1 0 2 
1 1 0 2 1 1 0 2 1 1 0 3 1 1 0 2 
1 1 0 2 1 1 0 2 1 1 0 2 1 1 0 3 
1 1 0 2 1 1 0 2 1 1 0 2 1 1 0 2 
1 1 0 2 1 1 0 2 1 1 0 2 1 1 0 2 
1 1 0 3 1 1 0 2 1 1 0 2 1 1 0 2 
1 1 0 3 1 1 0 2 1 1 0 2 1 1 0 3 
1 1 0 2 1 1 1859 3051 300 MP stroke
0 2 1 1 0 2 1 1 0 2 1 1 0 3 1 1 
0 2 1 1 0 2 1 1 0 3 1 1 0 2 1 1 
0 3 1 1 0 2 1 1 0 2 1 1 0 2 1 1 
0 3 1 1 0 2 1 1 0 2 1 1 0 2 1 1 
0 2 1 1 0 2 1 1 0 2 1 1 0 2 1 1 
0 2 1 1 0 2 1 1 0 2 1 1 0 2 1 1 
0 2 1 1 0 2 1 1 0 2 1 1 0 2 1 1 
0 2 1 1 0 2 1 1 0 2 1 1 0 2 1 1 
0 3 1 1 0 2 1 1 0 2 1 1 0 3 1 1 
0 3 1 1 0 2 1 1 0 3 1 1 0 3 1 1 
0 2 1 1 0 3 1 1 0 3 1 1 0 2 1 1 
0 3 1 1 0 2 1 1 0 2 1 1 0 3 1 1 
0 2 1 1 0 3 1 1 0 2 1 1 0 2 1 1 
0 2 1 1 0 1 1 1 0 2 1 1 0 2 1 1 
0 1 1 1 0 2 1 1 0 1 1 1 0 1 1 1 
0 2 2 2 0 2 1 1 0 1 1 1 0 2 1 1 
0 2 1 1 0 2 1 1 0 2 1 1 0 3 1 1 
0 2 1 1 0 3 1 1 0 3 1 1 0 3 1 1 
0 4 1 1 0 4 1 1 0 2 1 1 0 4 1 1 
0 4 1 1 0 4 1 1 0 4 1 1 0 4 1 1 
0 4 1 1 0 3 1 1 0 3 1 1 0 3 1 1 
0 2 1 1 0 2 1 1 0 2 1 1 0 2 2 2 
1 1 1 1 1 1 1 0 1 0 1 0 1 0 1 0 
1 0 1 0 1 0 1 0 1 0 1 0 1 0 1 0 
1 1 1 0 1 0 1 0 1 0 1 0 1 0 1 0 
1 0 1 0 1 0 1 0 1 0 1 0 1 0 1 0 
1 0 1 0 1 -1 1 0 1 0 1 0 1 0 1 0 
1 -1 1 0 1 0 1 0 1 0 1 0 1 0 1 0 
1 1 1 0 1 0 1 0 1 1 1 0 1 0 1 1 
1 0 1 0 1 0 1 1 1 0 1 0 1 0 1 0 
1 0 1 0 1 -1 1 0 1 0 1 -1 1 -1 1 0 
1 -1 1 0 1 -1 1 0 1 -1 1 0 1 -1 1 0 
1 0 1 0 1 0 1 1 1 0 1 1 1 0 1 1 
1 1 1 1 1 1 0 1 2 2 1 1 1 1 1 1 
1 0 1 1 1 0 1 0 1 0 1 -1 1 -1 1 -1 
0 -1 2 -2 1 -1 0 -2 1 -1 0 -1 1 -1 0 -1 
1 -1 0 -2 2 -2 0 -2 2 -2 1 -1 1 -1 1 -1 
1 0 1 1 1 1 1649 2764 300 MP stroke
0 1 2 2 0 2 1 1 0 2 1 1 0 2 1 1 
0 3 1 1 0 3 1 1 0 3 1 1 0 3 1 1 
0 3 1 1 0 3 1 1 0 4 1 1 0 3 1 1 
0 3 1 1 0 3 1 1 0 2 1 1 0 4 1 1 
0 3 1 1 0 3 1 1 0 3 1 1 0 3 1 1 
0 3 1 1 0 4 1 1 0 3 1 1 0 3 1 1 
0 3 1 1 0 3 1 1 0 3 1 1 0 4 1 1 
0 3 1 1 0 2 1 1 0 3 1 1 0 3 1 1 
0 4 1 1 0 3 1 1 0 3 1 1 0 3 1 1 
0 3 1 1 0 3 1 1 0 4 1 1 0 3 1 1 
0 3 1 1 0 3 1 1 0 3 1 1 0 3 1 1 
0 3 1 1 0 3 1 1 0 3 1 1 0 3 1 1 
0 3 1 1 0 3 1 1 0 4 1 1 0 3 1 1 
0 3 1 1 0 3 1 1 0 3 1 1 0 3 1 1 
0 4 1 1 0 3 1 1 0 3 1 1 0 2 1 1 
0 4 1 1 0 3 1 1 0 3 1 1 0 3 1 1 
0 3 1 1 0 4 1 1 0 3 1 1 0 3 1 1 
0 3 1 1 0 3 1 1 0 4 1 1 0 3 1 1 
0 3 1 1 0 3 1 1 0 2 1 1 0 3 1 1 
0 4 1 1 0 3 1 1 0 3 1 1 0 3 1 1 
0 3 1 1 0 3 1 1 0 3 1 1 0 3 1 1 
0 3 1 1 0 3 1 1 0 3 1 1 0 4 1 1 
0 3 1 1 0 2 1 1 0 3 1 1 0 3 1 1 
0 4 1 1 0 3 1 1 0 3 1 1 0 3 1 1 
0 4 1 1 0 3 1 1 0 3 1 1 0 4 1 1 
0 3 1 1 0 3 1 1 0 4 1 1 0 3 1 1 
0 2 1 1 0 4 1 1 0 3 1 1 0 3 1 1 
0 3 1 1 0 3 1 1 0 3 1 1 0 3 1 1 
0 3 1 1 0 3 1 1 0 3 1 1 0 3 1 1 
0 3 1 1 0 3 1 1 0 2 1 1 0 3 1 1 
0 2 1 1 0 3 1 1 0 3 1 1 0 3 1 1 
0 3 1 1 0 4 1 1 0 3 1 1 0 3 1 1 
0 4 1 1 0 3 1 1 0 4 1 1 0 3 1 1 
0 4 1 1 0 4 1 1 0 3 1 1 0 3 1 1 
0 4 1 1 0 4 1 1 0 3 1 1 0 4 1 1 
0 4 1 1 0 3 1 1 0 3 1 1 0 4 1 1 
0 3 1 1 0 2 1 1 0 3 1 1 0 3 1 1 
0 2 1 1 0 2 1499 2152 300 MP stroke
1 1 0 2 1 1 0 2 1 1 0 2 1 1 0 2 
1 1 0 2 1 1 0 2 1 1 0 2 1 1 0 3 
1 1 0 2 1 1 0 3 1 1 0 3 1 1 0 3 
1 1 0 3 1 1 0 4 1 1 0 3 1 1 0 4 
1 2 0 4 1 1 0 5 1 1 0 5 1 1 0 5 
1 1 0 5 1 2 0 5 1 1 0 5 1 1 0 5 
1 2 0 4 1 2 0 4 1 1 0 5 1 1 0 4 
1 1 0 3 1 1 0 2 1 1 0 3 1 1 0 2 
1 1 0 2 1 1 0 1 2 2 1 1 1 0 1 0 
1 1 1 0 1 0 1 0 1 0 1 0 1 0 1 0 
1 0 1 0 1 0 1 0 1 0 1 0 1 0 1 0 
1 0 1 0 1 0 1 0 1 0 1 0 1 0 1 0 
1 0 1 0 1 0 1 0 1 0 1 0 1 0 1 0 
1 0 1 0 1 0 1 0 1 0 1 0 1 0 1 0 
1 0 1 0 1 0 1 0 1 0 1 0 1 0 1 0 
1 0 1 0 1 0 1 -1 1 0 1 0 1 0 1 0 
1 0 1 0 1 0 1 0 1 0 1 0 1 0 1 1 
1 0 1 0 1 0 1 0 1 0 1 0 1 0 1 0 
1 0 1 0 1 0 1 0 1 0 1 0 1 0 1 0 
1 0 1 0 1 0 1 0 1 -1 1 0 1 0 1 0 
1 0 1 0 1 0 1 0 1 0 1 0 1 0 1 0 
1 0 1 0 1 0 1 0 1 1 1 0 1 0 1 0 
1 0 1 0 1 0 1 0 1 0 1 0 1 0 1 0 
1 0 1 0 1 0 1 0 1 0 1 0 1 0 1 -1 
1 0 1 0 1 0 1 0 1 0 1 0 1 0 1 0 
1 0 1 0 1 0 1 0 1 0 1 0 1 0 1 0 
1 1 1 0 1 0 1 0 1 0 1 0 1 0 1 0 
1 0 1 0 1 0 1 0 1 0 1 0 1 0 1 0 
1 0 1 0 1 0 1 -1 1 0 1 0 1 0 1 0 
1 0 1 0 1 0 1 0 1 0 1 0 1 0 1 0 
1 0 1 0 1 0 1 0 1 1 1 0 1 0 1 0 
1 0 1 0 1 0 1 0 1 0 1 0 1 0 1 0 
1 0 1 0 1 0 1 0 1 0 1 0 1 -1 1 0 
1 0 1 0 1 0 1 0 1 0 1 0 1 0 1 0 
1 0 1 0 1 0 1 0 1 0 1 0 1 0 1 0 
1 1 1 0 1 0 1 0 1 0 1 1 1 0 1 0 
1 0 1 0 1 0 1 0 1 0 1 0 1 0 1 -1 
1 0 1 0 1 -1 1233 2000 300 MP stroke
1 0 1 0 1 -1 1 0 1 0 1 -1 1 0 1 0 
1 0 1 0 1 0 1 0 1 0 1 1 1 0 1 1 
1 0 1 1 1 1 1 0 1 1 1 1 1 0 1 1 
1 0 1 1 1 0 1 0 1 0 1 0 1 0 1 0 
1 0 1 0 1 -1 1 0 1 0 1 0 1 -1 1 0 
1 0 1 -1 1 0 1 0 1 -1 1 0 1 -1 1 -1 
1 0 1 -1 1 -1 1 -1 1 0 1 -1 1 -1 1 -1 
1 -1 0 -1 2 -2 1 -1 0 -1 2 -2 1 -1 0 -1 
2 -2 0 -1 2 -2 1 -1 0 -2 2 -2 0 -1 2 -2 
0 -2 2 -2 0 -1 1 -1 1 -1 0 -2 2 -2 0 -2 
2 -2 0 -1 1 -1 1 -1 0 -2 2 -2 0 -2 2 -2 
0 -2 2 -2 0 -1 1 -1 0 -1 1 -1 1 -1 0 -2 
2 -2 0 -2 2 -2 0 -1 1 -1 1 -1 0 -2 2 -2 
0 -2 2 -2 0 -2 2 -2 0 -1 1 -1 0 -1 1 -1 
0 -1 1 -1 0 -1 2 -2 0 -2 2 -2 0 -1 1 -1 
1 -1 0 -2 2 -2 0 -2 2 -2 0 -2 2 -2 0 -1 
1 -1 0 -1 1 -1 1 -1 0 -2 2 -2 0 -2 2 -2 
0 -1 1 -1 0 -1 2 -2 0 -2 2 -2 0 -2 2 -2 
0 -1 1 -1 0 -1 1 -1 0 -1 2 -2 0 -2 2 -2 
0 -2 2 -2 0 -1 2 -2 0 -2 2 -2 0 -2 2 -2 
0 -1 1 -1 0 -1 1 -1 0 -1 2 -2 0 -2 2 -2 
0 -2 2 -2 0 -1 2 -2 0 -2 2 -2 0 -2 2 -2 
0 -1 1 -1 0 -1 1 -1 0 -1 1 -1 0 -1 2 -2 
0 -2 2 -2 0 -2 2 -2 1 -1 0 -2 2 -2 0 -2 
2 -2 0 -2 2 -2 0 -2 2 -2 0 -1 1 -1 0 -1 
1 -1 0 -1 1 -1 0 -1 1 -1 0 -1 1 -1 0 -1 
1 -1 0 -1 2 -2 0 -2 2 -2 0 -2 2 -2 0 -2 
2 -2 0 -1 1 -1 0 -1 1 -1 0 -1 1 -1 0 -1 
1 -1 0 -1 1 -1 0 -1 1 -1 0 -1 1 -1 1 -1 
0 -2 1 -1 0 -1 1 -1 0 -1 1 -1 0 -1 1 -1 
0 -1 1 -1 0 -1 1 -1 0 -1 1 -1 0 -1 1 -1 
0 -1 1 -1 0 -1 1 -1 0 -1 1 -1 0 -2 2 -2 
0 -2 2 -2 0 -1 1 -1 0 -1 1 -1 0 -1 1 -1 
0 -1 1 -1 0 -2 2 -2 0 -2 2 -2 0 -2 2 -2 
0 -2 2 -2 0 -2 2 -2 0 -2 2 -2 0 -2 2 -2 
0 -2 2 -2 0 -2 2 -2 0 -1 1 -1 0 -1 1 -1 
0 -1 1 -1 0 -1 1 -1 0 -1 2 -2 0 -2 2 -2 
0 -1 2 -2 0 -2 986 2364 300 MP stroke
2 -2 1 -1 0 -2 2 -2 0 -1 2 -2 1 -1 0 -2 
2 -2 1 -1 0 -1 2 -2 1 -1 0 -1 2 -2 1 -1 
1 -1 1 -1 0 -1 2 -2 1 -1 1 -1 1 -1 1 -1 
1 0 1 -1 1 -1 1 -1 1 -1 1 0 1 -1 1 -1 
1 0 1 -1 1 0 1 -1 1 0 1 -1 1 0 1 0 
1 -1 1 0 1 0 1 0 1 -1 1 0 1 0 1 0 
1 -1 1 -1 0 -2 2 -2 0 -2 1 -1 0 -2 2 -2 
0 -2 1 -1 1 -1 0 -2 1 -1 0 -1 1 -1 0 -1 
1 -1 0 -1 1 -1 0 -1 1 -1 0 -1 1 -1 1 -1 
0 -2 2 -2 0 -1 2 -2 1 -1 0 -1 2 -2 1 -1 
1 -1 1 -1 1 -1 1 -1 1 -1 0 -1 2 -2 0 -1 
2 -2 0 -1 2 -2 0 -2 2 -2 0 -2 1 -1 0 -1 
1 -1 0 -1 1 -1 0 -2 1 -1 0 -2 1 -1 0 -2 
1 -1 0 -2 1 -1 0 -2 1 -1 0 -3 1 -1 0 -2 
1 -1 0 -2 1 -1 0 -2 1 -1 0 -3 1 -1 0 -2 
1 -1 0 -1 1 -1 0 -2 1 -1 0 -2 2 -2 0 -2 
2 -2 1 -1 1 -1 1 0 1 -1 1 0 1 0 1 1 
1 1 1 0 1 1 1 1 1 1 1 0 1 1 1 0 
1 0 1 -1 0 -1 2 -2 0 -1 1 -1 0 -1 1 -1 
0 -3 1 -1 0 -3 1 -1 0 -3 1 -1 0 -4 1 -1 
0 -5 1 -1 0 -4 1 -1 0 -5 1 -1 0 -6 1 -1 
0 -6 1 -1 0 -6 1 -1 0 -5 1 -2 0 -5 1 -2 
0 -5 1 -1 0 -5 1 -1 0 -4 1 -1 0 -4 1 -1 
0 -3 1 -1 0 -2 1 -1 0 -1 1 -1 1 -1 1 0 
-1 0 2 2 0 1 1 1 0 2 1 1 0 4 1 1 
0 4 1 1 0 5 1 2 0 5 1 1 0 6 1 2 
0 6 1 2 0 6 1 1 0 6 1 2 0 6 1 1 
0 5 1 2 0 4 1 1 0 3 1 1 0 2 1 1 
1 1 1 0 -1 0 2 -2 0 -4 1 -1 0 -5 1 -1 
0 -7 1 -2 0 -9 1 -2 0 -10 1 -3 0 -12 1 -3 
0 -13 1 -3 0 -14 1 -4 0 -15 1 -4 0 -16 1 -4 
0 -12 1 -4 0 -15 1 -4 0 -16 1 -4 0 -15 1 -3 
0 -14 1 -3 0 -12 1 -3 0 -10 1 -3 0 -8 1 -2 
0 -5 1 -1 0 -3 1 -1 1 1 0 3 1 1 0 6 
1 2 0 10 1 2 0 13 1 3 0 12 1 4 0 18 
1 5 0 20 1 5 0 23 1 6 0 24 1 6 0 26 
1 6 0 26 1 7 0 26 1 6 0 26 1 6 0 23 
1 6 0 21 1 5 783 2466 300 MP stroke
0 18 1 5 0 14 1 3 0 10 1 2 0 4 1 1 
1 0 1 -1 1 -1 0 -2 1 -1 0 -2 1 -1 0 -3 
1 -1 0 -4 1 -2 0 -4 1 -2 0 -6 1 -1 0 -7 
1 -2 0 -7 1 -2 0 -9 1 -2 0 -9 1 -3 0 -10 
1 -3 0 -11 1 -3 0 -9 1 -3 0 -12 1 -3 0 -14 
1 -3 0 -14 1 -4 0 -15 1 -3 0 -16 1 -4 0 -15 
1 -4 0 -16 1 -4 0 -15 1 -4 0 -16 1 -3 0 -15 
1 -4 0 -13 1 -4 0 -11 1 -3 0 -9 1 -2 0 -4 
750 2750 65 MP stroke
gr

16.6667 w
0 sg
0.1 sg
%%IncludeResource: font Helvetica-Bold
/Helvetica-Bold /WindowsLatin1Encoding 183.333 FMSR

2273 4321 mt 
(Time [s]) s
 383 2993 mt  -90 rotate
(Normal Force [N]) s
90 rotate
gs 750 500 3751 3501 rc
/c8 { 1.000000 0.000000 0.000000 sr} bdef
c8
0 -4 1 -4 0 -15 1 -4 0 -16 1 -4 0 -16 1 -3 
0 -16 1 -4 0 -15 1 -4 0 -15 1 -4 0 -14 1 -4 
0 -14 1 -4 0 -14 1 -3 0 -14 1 -3 0 -13 1 -4 
0 -12 1 -4 0 -9 1 -3 0 -11 1 -3 0 -12 1 -2 
0 -11 1 -3 0 -10 1 -3 0 -9 1 -3 0 -9 1 -2 
0 -9 1 -2 0 -9 1 -2 0 -8 1 -1 0 -8 1 -2 
0 -7 1 -1 0 -7 1 -1 0 -6 1 -2 0 -6 1 -1 
0 -4 1 -1 0 -5 1 -1 0 -5 1 -1 0 -5 1 -1 
0 -3 1 -1 0 -4 1 -1 0 -3 1 -1 0 -3 1 -1 
0 -3 1 -1 0 -2 1 -1 0 -2 1 -1 0 -1 1 -1 
0 -2 1 -1 0 -1 1 -1 0 -1 2 -2 0 -1 2 -2 
1 -1 1 -1 1 -1 1 -1 1 0 1 -1 1 0 1 -1 
1 0 -1 0 2 2 0 2 1 1 0 1 1 1 0 1 
1 1 0 1 1 1 0 1 1 1 0 2 2 2 0 2 
1 1 0 1 1 1 0 1 1 1 0 1 1 1 0 2 
2 2 0 2 1 1 0 1 1 1 0 1 1 1 0 2 
2 2 0 2 2 2 0 2 1 1 0 1 1 1 0 1 
1 1 0 1 1 1 0 2 2 2 0 2 1 1 0 1 
1 1 0 1 1 1 0 2 2 2 0 2 1 1 1 1 
0 2 1 1 0 1 1 1 0 1 1 1 0 1 1 1 
0 2 2 2 0 2 1 1 0 1 1 1 0 1 1 1 
0 2 2 2 0 2 1 1 0 1 1 1 0 2 2 2 
0 1 1 1 0 1 1 1 0 2 2 2 0 2 1 1 
0 1 1 1 0 1 1 1 0 2 2 2 0 2 1 1 
0 1 1 1 0 2 2 2 0 2 2 2 0 2 2 2 
0 2 1 1 0 1 1 1 0 1 1 1 0 2 2 2 
0 2 1 1 0 1 1 1 0 1 1 1 0 2 2 2 
0 2 1 1 0 1 1 1 1 1 0 2 1 1 0 1 
1 1 0 1 1 1 0 2 2 2 0 2 1 1 0 1 
1 1 0 1 1 1 0 2 2 2 0 2 1 1 0 1 
1 1 0 1 1 1 0 2 2 2 0 1 1 1 0 2 
2 2 0 2 1 1 0 1 1 1 0 1 1 1 0 2 
2 2 0 2 1 1 0 1 1 1 0 1 1 1 0 1 
1 1 0 2 2 2 0 2 2 2 0 2 1 1 0 1 
1 1 0 1 1 1 0 2 2 2 0 2 1 1 0 1 
1 1 0 1 1 1 0 1 1 1 0 2 2 2 0 2 
1 1 0 1 1 1 0 1 1 1 0 1 1 1 0 1 
1 1 0 2 2 2 3009 3248 300 MP stroke
0 2 1 1 0 1 1 1 0 1 1 1 0 1 1 1 
0 2 2 2 0 2 1 1 0 1 1 1 0 1 1 1 
0 2 2 2 0 2 2 2 0 2 1 1 0 1 1 1 
0 1 1 1 0 1 1 1 0 2 2 2 0 2 1 1 
0 1 1 1 0 1 1 1 0 2 2 2 0 2 1 1 
1 1 0 2 1 1 0 1 1 1 0 1 1 1 0 1 
1 1 0 2 2 2 0 2 1 1 0 1 1 1 0 1 
1 1 0 2 2 2 0 2 1 1 0 1 1 1 0 2 
2 2 0 1 1 1 0 1 1 1 0 2 2 2 0 2 
1 1 0 1 1 1 0 1 1 1 0 2 2 2 0 2 
1 1 0 1 1 1 0 2 2 2 0 2 2 2 0 2 
2 2 0 2 1 1 0 1 1 1 0 1 1 1 0 2 
2 2 0 2 1 1 0 1 1 1 0 1 1 1 0 2 
2 2 0 2 1 1 0 1 1 1 1 1 0 2 1 1 
0 1 1 1 0 1 1 1 0 2 2 2 0 2 1 1 
0 1 1 1 0 1 1 1 0 2 2 2 0 2 1 1 
0 1 1 1 0 1 1 1 0 2 2 2 0 1 1 1 
0 2 2 2 0 2 1 1 0 1 1 1 0 1 1 1 
0 2 2 2 0 2 1 1 0 1 1 1 0 1 1 1 
0 1 1 1 0 2 2 2 0 2 2 2 0 2 1 1 
0 1 1 1 0 1 1 1 0 1 1 1 0 2 2 2 
0 2 1 1 0 1 1 1 0 1 1 1 0 2 2 2 
0 2 1 1 0 1 1 1 0 1 1 1 0 1 1 1 
0 1 1 1 0 2 2 2 0 2 1 1 0 1 1 1 
0 1 1 1 0 2 2 2 0 2 1 1 0 1 1 1 
0 1 1 1 0 2 2 2 0 2 2 2 0 2 2 2 
0 2 1 1 0 1 1 1 0 1 1 1 0 1 1 1 
0 2 2 2 0 2 1 1 0 1 1 1 0 1 1 1 
0 2 2 2 0 2 2 2 0 2 1 1 0 2 2 2 
0 2 1 1 0 1 1 1 0 2 2 2 0 2 1 1 
0 1 1 1 0 1 1 1 0 2 2 2 0 2 2 2 
0 2 2 2 0 2 2 2 0 2 2 2 0 2 2 2 
0 2 1 1 0 1 1 1 0 1 1 1 0 1 1 1 
0 2 2 2 0 2 2 2 0 2 1 1 0 1 1 1 
0 2 1 1 0 1 1 1 0 1 1 1 0 2 1 1 
0 1 1 1 0 2 1 1 0 1 1 1 0 2 1 1 
0 1 1 1 0 2 1 1 0 1 1 1 0 1 1 1 
0 1 1 1 0 1 2817 2830 300 MP stroke
1 1 0 1 1 1 0 1 2 2 0 2 2 2 0 1 
2 2 1 1 0 2 2 2 1 1 0 2 2 2 0 2 
2 2 0 2 1 1 0 1 1 1 0 2 1 1 0 2 
1 1 0 2 1 1 0 2 1 1 0 2 1 1 0 3 
1 1 0 2 1 1 0 2 1 1 0 2 1 1 0 3 
1 1 0 1 1 1 0 2 1 1 0 2 2 2 0 2 
2 2 1 1 1 1 1 1 1 0 1 1 1 0 1 0 
1 0 1 0 1 0 1 0 1 0 1 0 1 0 1 0 
1 0 1 0 1 0 1 -1 1 0 1 0 1 0 1 0 
1 0 1 0 1 0 1 0 1 0 1 0 1 0 1 0 
1 0 1 0 1 0 1 1 1 0 1 0 1 0 1 0 
1 0 1 0 1 0 1 0 1 0 1 0 1 0 1 0 
1 0 1 0 1 0 1 0 1 -1 1 0 1 0 1 0 
1 -1 1 0 1 0 1 0 1 0 1 0 1 0 1 0 
1 0 1 0 1 1 1 0 1 0 1 1 1 0 1 1 
1 0 1 1 1 0 1 1 1 0 1 0 1 0 1 0 
1 -1 1 0 1 0 1 -1 1 -1 1 -1 1 -1 1 -1 
1 0 1 -1 1 -1 1 -1 1 0 1 -1 1 0 1 0 
1 1 1 0 1 1 1 1 1 1 0 2 2 2 0 1 
2 2 0 2 2 2 1 1 1 1 1 1 1 1 1 0 
1 -1 1 -1 0 -1 2 -2 0 -1 1 -1 0 -2 1 -1 
0 -2 1 -1 0 -2 1 -1 0 -2 1 -1 0 -3 1 -1 
0 -2 1 -1 0 -2 1 -1 0 -2 1 -1 0 -1 1 -1 
1 -1 1 -1 1 1 0 1 2 2 0 2 1 1 0 2 
1 1 0 4 1 1 0 4 1 2 0 4 1 2 0 5 
1 1 0 5 1 1 0 6 1 1 0 5 1 1 0 6 
1 1 0 5 1 2 0 5 1 1 0 5 1 2 0 5 
1 1 0 4 1 1 0 5 1 2 0 5 1 1 0 5 
1 2 0 5 1 1 0 6 1 1 0 5 1 1 0 6 
1 1 0 5 1 1 0 6 1 1 0 5 1 1 0 6 
1 1 0 5 1 1 0 6 1 1 0 5 1 1 0 4 
1 2 0 5 1 1 0 5 1 2 0 5 1 1 0 5 
1 2 0 5 1 1 0 5 1 2 0 5 1 1 0 5 
1 2 0 5 1 1 0 5 1 2 0 5 1 1 0 5 
1 2 0 5 1 1 0 5 1 2 0 4 1 1 0 5 
1 1 0 6 1 1 0 5 1 1 0 6 1 1 0 5 
1 1 0 6 1 1 0 5 1 2 0 5 1 1 0 5 
1 2 0 5 1 1 2598 2425 300 MP stroke
0 5 1 2 0 5 1 1 0 5 1 2 0 5 1 1 
0 4 1 1 0 6 1 1 0 5 1 1 0 6 1 1 
0 5 1 1 0 6 1 1 0 5 1 1 0 6 1 1 
0 5 1 1 0 6 1 1 0 5 1 1 0 5 1 2 
0 5 1 1 0 5 1 2 0 5 1 1 0 4 1 1 
0 6 1 1 0 5 1 1 0 6 1 1 0 5 1 1 
0 6 1 1 0 5 1 1 0 6 1 1 0 5 1 2 
0 5 1 1 0 5 1 2 0 5 1 1 0 6 1 1 
0 5 1 1 0 6 1 1 0 4 1 1 0 6 1 1 
0 5 1 1 0 6 1 1 0 5 1 1 0 6 1 1 
0 5 1 1 0 6 1 1 0 5 1 1 0 5 1 2 
0 5 1 1 0 5 1 2 0 5 1 1 0 5 1 1 
0 5 1 2 0 3 1 2 0 5 1 1 0 5 1 2 
0 5 1 1 0 5 1 1 0 6 1 1 0 5 1 1 
0 6 1 1 0 5 1 2 0 5 1 1 0 6 1 1 
0 5 1 2 0 5 1 1 0 6 1 1 0 6 1 1 
0 4 1 1 0 6 1 1 0 5 1 2 0 5 1 2 
0 5 1 1 0 6 1 1 0 5 1 1 0 6 1 1 
0 5 1 1 0 5 1 2 0 5 1 1 0 5 1 1 
0 5 1 1 0 5 1 2 0 4 1 2 0 3 1 1 
0 5 1 1 0 5 1 1 0 5 1 1 0 5 1 2 
0 4 1 2 0 5 1 1 0 5 1 1 0 5 1 2 
0 5 1 1 0 6 1 1 0 6 1 1 0 5 1 2 
0 6 1 1 0 6 1 1 0 5 1 1 0 6 1 2 
0 6 1 1 0 6 1 1 0 6 1 2 0 6 1 1 
0 6 1 1 0 6 1 2 0 5 1 1 0 6 1 1 
0 5 1 2 0 5 1 1 0 5 1 1 0 4 1 1 
0 5 1 1 0 3 1 1 0 4 1 1 0 4 1 1 
0 4 1 1 0 3 1 1 0 4 1 1 0 4 1 1 
0 4 1 1 0 4 1 1 0 5 1 1 0 5 1 1 
0 5 1 1 0 6 1 1 0 6 1 2 0 6 1 2 
0 5 1 1 0 7 1 2 0 8 1 1 0 8 1 2 
0 8 1 2 0 8 1 2 0 8 1 2 0 7 1 2 
0 8 1 2 0 7 1 2 0 7 1 1 0 6 1 2 
0 6 1 1 0 5 1 1 0 4 1 1 0 2 1 1 
0 2 1 1 0 2 1 1 1 1 1 1 1 0 1 1 
1 0 1 0 1 0 1 0 1 0 1 0 1 0 1 0 
1 0 1 0 1 0 2441 1499 300 MP stroke
1 0 1 0 1 0 1 0 1 0 1 0 1 0 1 0 
1 0 1 0 1 0 1 0 1 0 1 0 1 0 1 0 
1 0 1 0 1 0 1 0 1 0 1 0 1 0 1 0 
1 0 1 0 1 0 1 0 1 0 1 0 1 0 1 0 
1 0 1 0 1 0 1 0 1 0 1 0 1 0 1 0 
1 0 1 0 1 0 1 0 1 0 1 0 1 0 1 0 
1 0 1 0 1 0 1 0 1 0 1 0 1 0 1 0 
1 0 1 0 1 0 1 0 1 0 1 0 1 0 1 0 
1 0 1 0 1 0 1 0 1 0 1 0 1 0 1 0 
1 0 1 0 1 0 1 0 1 0 1 0 1 0 1 0 
1 0 1 0 1 0 1 0 1 0 1 0 1 0 1 0 
1 0 1 0 1 0 1 0 1 0 1 0 1 0 1 0 
1 0 1 0 1 0 1 0 1 0 1 0 1 0 1 0 
1 0 1 0 1 0 1 0 1 0 1 -1 1 0 1 0 
1 0 1 0 1 0 1 0 1 0 1 0 1 0 1 0 
1 1 1 0 1 0 1 0 1 0 1 0 1 0 1 0 
1 0 1 0 1 0 1 0 1 0 1 0 1 0 1 0 
1 0 1 0 1 0 1 0 1 -1 1 0 1 0 1 0 
1 0 1 0 1 0 1 0 1 0 1 0 1 0 1 0 
1 0 1 0 1 0 1 1 1 0 1 0 1 0 1 0 
1 0 1 0 1 0 1 0 1 0 1 0 1 0 1 0 
1 0 1 0 1 0 1 0 1 -1 1 0 1 0 1 0 
1 0 1 0 1 0 1 0 1 0 1 0 1 0 1 0 
1 0 1 0 1 0 1 1 1 0 1 0 1 0 1 0 
1 0 1 0 1 0 1 0 1 0 1 0 1 0 1 0 
1 0 1 0 1 0 1 0 1 -1 1 0 1 0 1 0 
1 0 1 0 1 0 1 0 1 0 1 0 1 0 1 0 
1 0 1 0 1 0 1 0 1 1 1 0 1 0 1 0 
1 0 1 0 1 0 1 0 1 0 1 0 1 0 1 0 
1 0 1 0 1 0 1 0 1 -1 1 0 1 0 1 0 
1 0 1 0 1 0 1 0 1 0 1 0 1 0 1 0 
1 0 1 0 1 0 1 0 1 0 1 1 1 0 1 0 
1 0 1 1 1 0 1 0 1 0 1 0 1 0 1 0 
1 0 1 0 1 -1 1 0 1 0 1 -1 1 0 1 -1 
1 0 1 0 1 -1 1 0 1 0 1 -1 1 0 1 0 
1 1 1 0 1 0 1 1 1 1 1 1 1 0 1 1 
1 1 1 1 1 1 1 0 1 1 1 0 1 0 1 0 
1 0 1 0 1 -1 2142 1495 300 MP stroke
0 -1 2 -2 0 -1 2 -2 1 -1 0 -2 2 -2 0 -1 
2 -2 1 -1 1 0 1 -1 1 0 1 1 1 1 1 1 
0 2 2 2 0 2 1 1 0 2 1 1 0 2 1 1 
0 2 1 1 0 2 1 1 0 2 1 1 0 2 1 1 
0 2 2 2 1 1 1 0 1 -1 1 -1 0 -2 1 -1 
0 -2 1 -1 0 -3 1 -1 0 -4 1 -1 0 -4 1 -1 
0 -5 1 -1 0 -5 1 -1 0 -5 1 -2 0 -4 1 -1 
0 -5 1 -1 0 -3 1 -1 0 -3 2 -2 1 -1 1 1 
0 1 1 1 0 3 1 1 0 5 1 1 0 6 1 1 
0 7 1 2 0 8 1 2 0 9 1 2 0 9 1 3 
0 9 1 2 0 9 1 2 0 9 1 2 0 7 1 2 
0 4 1 1 0 5 1 1 0 1 1 1 1 0 1 0 
1 -1 1 -1 0 -1 2 -2 0 -2 1 -1 0 -1 1 -1 
0 -3 1 -1 0 -3 1 -1 0 -3 1 -1 0 -4 1 -1 
0 -3 1 -1 0 -5 1 -2 0 -5 1 -1 0 -6 1 -2 
0 -6 1 -2 0 -7 1 -2 0 -7 1 -2 0 -9 1 -2 
0 -9 1 -2 0 -9 1 -3 0 -10 1 -2 0 -11 1 -3 
0 -11 1 -3 0 -12 1 -3 0 -13 1 -3 0 -10 1 -3 
0 -14 1 -3 0 -15 1 -3 0 -15 1 -4 0 -16 1 -4 
0 -16 1 -4 0 -16 1 -4 0 -17 1 -5 0 -17 1 -5 
0 -17 1 -5 0 -18 1 -5 0 -18 1 -5 0 -19 1 -5 
0 -19 1 -5 0 -19 1 -5 0 -14 1 -5 0 -20 1 -5 
0 -19 1 -5 0 -19 1 -5 0 -19 1 -5 0 -19 1 -5 
0 -19 1 -5 0 -18 1 -5 0 -18 1 -4 0 -18 1 -4 
0 -17 1 -5 0 -16 1 -4 0 -16 1 -4 0 -75 1 -37 
0 -139 1 -34 0 -95 1 -30 0 -111 1 -25 0 -88 1 -20 
0 -63 1 -12 0 -35 1 -5 0 -5 1 -1 0 -5 1 -2 
0 -12 1 -4 2016 3008 219 MP stroke
/c9 { 0.000000 0.000000 1.000000 sr} bdef
c9
1 -2 0 -12 1 -3 0 -9 1 -3 0 -11 1 -2 0 -11 
1 -2 0 -11 1 -2 0 -10 1 -2 0 -9 1 -3 0 -8 
1 -3 0 -8 1 -2 0 -8 1 -2 0 -7 1 -2 0 -7 
1 -2 0 -7 1 -1 0 -6 1 -2 0 -6 1 -1 0 -6 
1 -1 0 -4 1 -1 0 -5 1 -2 0 -4 1 -1 0 -5 
1 -1 0 -4 1 -1 0 -3 1 -1 0 -4 1 -1 0 -2 
1 -1 0 -3 1 -1 0 -2 1 -1 0 -2 1 -1 0 -2 
1 -1 0 -2 1 -1 0 -1 1 -1 0 -2 2 -2 0 -1 
2 -2 1 -1 1 -1 1 -1 1 -1 1 -1 1 -1 1 0 
1 -1 1 0 1 -1 1 1 0 2 1 1 0 1 1 1 
0 1 1 1 0 2 1 1 0 1 1 1 0 2 1 1 
0 1 1 1 0 2 1 1 0 1 1 1 0 2 1 1 
0 1 1 1 0 2 1 1 0 1 1 1 0 2 1 1 
0 1 1 1 0 2 1 1 0 1 1 1 0 1 1 1 
0 2 1 1 0 1 1 1 0 2 1 1 0 1 1 1 
0 2 1 1 0 1 1 1 0 2 1 1 0 1 1 1 
0 2 1 1 0 1 1 1 0 2 1 1 0 1 1 1 
0 2 1 1 0 1 1 1 0 1 1 1 0 2 1 1 
0 1 1 1 0 2 1 1 0 1 1 1 0 2 1 1 
0 1 1 1 0 2 1 1 0 1 1 1 0 2 1 1 
0 1 1 1 0 2 1 1 0 1 1 1 0 2 1 1 
0 1 1 1 0 1 1 1 0 2 1 1 0 1 1 1 
0 2 1 1 0 1 1 1 0 2 1 1 0 1 1 1 
0 2 1 1 0 1 1 1 0 2 1 1 0 1 1 1 
0 2 1 1 0 1 1 1 0 2 1 1 0 1 1 1 
0 1 1 1 0 2 1 1 0 1 1 1 0 2 1 1 
0 1 1 1 0 2 1 1 0 1 1 1 0 2 1 1 
0 1 1 1 0 2 1 1 0 1 1 1 0 2 1 1 
0 1 1 1 0 2 1 1 0 1 1 1 0 1 1 1 
0 2 1 1 0 1 1 1 0 2 1 1 0 1 1 1 
0 2 1 1 0 1 1 1 0 2 1 1 0 1 1 1 
0 2 1 1 0 1 1 1 0 2 1 1 0 1 1 1 
0 2 1 1 0 1 1 1 0 1 1 1 0 2 1 1 
0 1 1 1 0 2 1 1 0 1 1 1 0 2 1 1 
0 1 1 1 0 2 1 1 0 1 1 1 0 2 1 1 
0 1 1 1 0 2 1 1 0 1 1 1 0 2 1 1 
0 1 1 1 0 1 1 1 0 2 1 1 0 1 1 1 
0 2 1 1 0 1 4344 3361 300 MP stroke
1 1 0 2 1 1 0 1 1 1 0 2 1 1 0 1 
1 1 0 2 1 1 0 1 1 1 0 2 1 1 0 1 
1 1 0 2 1 1 0 1 1 1 0 1 1 1 0 2 
1 1 0 1 1 1 0 2 1 1 0 1 1 1 0 2 
1 1 0 1 1 1 0 2 1 1 0 1 1 1 0 2 
1 1 0 1 1 1 0 2 1 1 0 1 1 1 0 2 
1 1 0 1 1 1 0 1 1 1 0 2 1 1 0 1 
1 1 0 2 1 1 0 1 1 1 0 2 1 1 0 1 
1 1 0 2 1 1 0 1 1 1 0 2 1 1 0 1 
1 1 0 2 1 1 0 1 1 1 0 2 1 1 0 1 
1 1 0 1 1 1 0 2 1 1 0 1 1 1 0 2 
1 1 0 1 1 1 0 2 1 1 0 1 1 1 0 2 
1 1 0 1 1 1 0 2 1 1 0 1 1 1 0 2 
1 1 0 1 1 1 0 2 1 1 0 1 1 1 0 1 
1 1 0 2 1 1 0 1 1 1 0 2 1 1 0 1 
1 1 0 2 1 1 0 1 1 1 0 2 1 1 0 1 
1 1 0 2 1 1 0 1 1 1 0 2 1 1 0 1 
1 1 0 2 1 1 0 1 1 1 0 1 1 1 0 2 
1 1 0 1 1 1 0 2 1 1 0 1 1 1 0 2 
1 1 0 1 1 1 0 2 1 1 0 1 1 1 0 2 
1 1 0 1 1 1 0 2 1 1 0 1 1 1 0 2 
1 1 0 1 1 1 0 1 1 1 0 2 1 1 0 1 
1 1 0 2 1 1 0 1 1 1 0 2 1 1 0 1 
1 1 0 2 1 1 0 1 1 1 0 2 1 1 0 1 
1 1 0 2 1 1 0 1 1 1 0 2 1 1 0 1 
1 1 0 1 1 1 0 2 1 1 0 1 1 1 0 2 
1 1 0 1 1 1 0 2 1 1 0 1 1 1 0 2 
1 1 0 1 1 1 0 2 1 1 0 1 1 1 0 2 
1 1 0 1 1 1 0 2 1 1 0 1 1 1 0 1 
1 1 0 2 1 1 0 1 1 1 0 2 1 1 0 1 
1 1 0 2 1 1 0 1 1 1 0 2 1 1 0 1 
1 1 0 2 1 1 0 1 1 1 0 2 1 1 0 1 
1 1 0 2 1 1 0 1 1 1 0 1 1 1 0 2 
1 1 0 1 1 1 0 2 1 1 0 1 1 1 0 2 
1 1 0 1 1 1 0 2 1 1 0 1 1 1 0 2 
1 1 0 1 1 1 0 2 1 1 0 1 1 1 0 2 
1 1 0 1 1 1 0 1 1 1 0 2 1 1 0 1 
1 1 0 2 1 1 4194 2992 300 MP stroke
0 1 1 1 0 2 1 1 0 1 1 1 0 2 1 1 
0 1 1 1 0 2 1 1 0 1 1 1 0 2 1 1 
0 1 1 1 0 2 1 1 0 1 1 1 0 2 2 2 
0 2 1 1 0 1 1 1 0 2 1 1 0 2 1 1 
0 1 1 1 0 2 1 1 0 1 1 1 0 2 1 1 
0 1 1 1 0 2 1 1 0 2 1 1 0 2 2 2 
0 2 1 1 0 1 1 1 0 2 1 1 0 1 1 1 
0 2 1 1 0 1 1 1 0 2 1 1 0 1 1 1 
0 2 1 1 0 1 1 1 0 1 1 1 0 2 1 1 
0 1 1 1 0 1 1 1 0 2 2 2 0 2 1 1 
0 1 1 1 0 2 1 1 0 1 1 1 0 2 1 1 
0 1 1 1 0 2 1 1 0 2 1 1 0 2 1 1 
0 1 1 1 0 2 1 1 0 2 1 1 0 2 1 1 
0 1 1 1 0 2 1 1 0 2 1 1 0 1 1 1 
0 2 1 1 0 2 1 1 0 1 1 1 0 2 2 2 
0 2 1 1 0 1 1 1 0 1 1 1 0 1 2 2 
0 2 2 2 1 1 0 2 2 2 0 2 1 1 0 1 
1 1 0 2 1 1 0 1 1 1 0 2 1 1 0 2 
1 1 0 3 1 1 0 2 1 1 0 3 1 1 0 3 
1 1 0 3 1 1 0 2 1 1 0 2 1 1 0 3 
1 1 0 2 1 1 0 2 1 1 0 2 1 1 0 2 
1 1 0 2 2 2 1 1 1 1 1 1 1 0 1 1 
1 0 1 0 1 0 1 0 1 0 1 0 1 0 1 0 
1 0 1 0 1 0 1 0 1 -1 1 0 1 0 1 0 
1 0 1 0 1 0 1 0 1 0 1 0 1 0 1 0 
1 0 1 0 1 0 1 0 1 1 1 0 1 0 1 0 
1 1 1 0 1 0 1 0 1 0 1 0 1 0 1 0 
1 -1 1 0 1 0 1 -1 1 0 1 -1 1 0 1 0 
1 -1 1 0 1 0 1 0 1 0 1 0 1 0 1 1 
1 0 1 1 1 1 1 0 1 1 1 1 1 1 1 0 
1 1 1 1 1 0 1 0 1 0 1 -1 1 0 0 -1 
2 -2 1 -1 0 -1 2 -2 0 -1 2 -2 0 -1 2 -2 
1 -1 1 0 1 -1 1 0 1 1 0 1 2 2 0 1 
1 1 0 1 1 1 0 2 1 1 0 2 1 1 0 1 
1 1 0 2 1 1 0 2 1 1 0 2 1 1 0 2 
2 2 1 1 1 0 1 -1 1 -1 0 -2 1 -1 0 -2 
1 -1 0 -4 1 -1 0 -4 1 -1 0 -4 1 -1 0 -4 
1 -1 0 -4 1 -2 3987 2764 300 MP stroke
0 -4 1 -1 0 -5 1 -1 0 -3 1 -1 0 -3 1 -1 
0 -1 1 -1 1 -1 1 0 -1 0 2 2 0 3 1 1 
0 5 1 1 0 6 1 2 0 7 1 1 0 8 1 2 
0 7 1 2 0 9 1 2 0 9 1 2 0 9 1 2 
0 9 1 2 0 9 1 2 0 9 1 2 0 9 1 2 
0 9 1 3 0 8 1 3 0 9 1 2 0 9 1 2 
0 9 1 2 0 9 1 2 0 9 1 2 0 7 1 2 
0 9 1 2 0 9 1 2 0 9 1 3 0 8 1 3 
0 9 1 2 0 9 1 2 0 9 1 2 0 9 1 2 
0 9 1 2 0 9 1 2 0 9 1 2 0 9 1 2 
0 9 1 3 0 8 1 3 0 6 1 3 0 8 1 3 
0 9 1 2 0 9 1 2 0 9 1 2 0 9 1 2 
0 9 1 2 0 9 1 2 0 9 1 2 0 9 1 2 
0 9 1 3 0 8 1 3 0 9 1 2 0 9 1 2 
0 9 1 2 0 7 1 2 0 9 1 2 0 9 1 2 
0 9 1 2 0 9 1 3 0 8 1 3 0 9 1 2 
0 9 1 2 0 9 1 2 0 9 1 2 0 9 1 2 
0 9 1 2 0 9 1 2 0 9 1 2 0 9 1 3 
0 6 1 2 0 9 1 2 0 9 1 2 0 9 1 2 
0 9 1 3 0 8 1 3 0 8 1 3 0 9 1 2 
0 9 1 2 0 9 1 2 0 9 1 2 0 9 1 2 
0 9 1 2 0 9 1 3 0 9 1 2 0 7 1 2 
0 9 1 2 0 9 1 2 0 9 1 3 0 9 1 2 
0 9 1 2 0 9 1 2 0 9 1 2 0 9 1 2 
0 9 1 3 0 8 1 3 0 8 1 3 0 8 1 3 
0 8 1 3 0 8 1 2 0 7 1 2 0 9 1 2 
0 9 1 2 0 9 1 2 0 9 1 2 0 8 1 3 
0 8 1 3 0 8 1 3 0 8 1 3 0 9 1 2 
0 9 1 2 0 9 1 2 0 9 1 3 0 9 1 2 
0 9 1 2 0 7 1 3 0 9 1 2 0 9 1 3 
0 9 1 2 0 9 1 3 0 9 1 2 0 9 1 3 
0 9 1 2 0 9 1 2 0 9 1 2 0 9 1 2 
0 9 1 2 0 9 1 2 0 9 1 2 0 8 1 2 
0 6 1 2 0 9 1 2 0 8 1 2 0 8 1 2 
0 9 1 2 0 8 1 2 0 8 1 2 0 9 1 2 
0 9 1 2 0 9 1 2 0 9 1 2 0 9 1 2 
0 10 1 2 0 10 1 2 0 10 1 2 0 8 1 2 
0 10 1 3 0 10 3837 1238 300 MP stroke
1 3 0 10 1 2 0 11 1 2 0 10 1 3 0 10 
1 2 0 10 1 2 0 10 1 2 0 9 1 2 0 9 
1 2 0 9 1 2 0 8 1 2 0 8 1 2 0 7 
1 2 0 5 1 2 0 6 1 2 0 7 1 1 0 7 
1 1 0 7 1 1 0 7 1 2 0 6 1 2 0 7 
1 2 0 8 1 2 0 8 1 2 0 9 1 2 0 10 
1 2 0 10 1 3 0 11 1 3 0 12 1 3 0 9 
1 3 0 13 1 3 0 13 1 4 0 13 1 4 0 13 
1 4 0 13 1 3 0 13 1 3 0 13 1 3 0 11 
1 3 0 11 1 2 0 9 1 3 0 8 1 1 0 7 
1 1 0 5 1 2 0 3 1 1 0 2 1 1 1 1 
1 1 1 0 1 1 1 0 1 0 1 0 1 0 1 0 
1 0 1 0 1 0 1 0 1 0 1 0 1 0 1 0 
1 0 1 0 1 0 1 0 1 0 1 0 1 0 1 0 
1 0 1 0 1 0 1 0 1 0 1 0 1 0 1 0 
1 0 1 0 1 0 1 0 1 0 1 0 1 0 1 0 
1 0 1 0 1 0 1 0 1 0 1 0 1 0 1 0 
1 0 1 0 1 0 1 0 1 0 1 0 1 0 1 0 
1 0 1 0 1 0 1 0 1 0 1 0 1 0 1 0 
1 0 1 0 1 0 1 0 1 0 1 0 1 0 1 0 
1 0 1 0 1 0 1 0 1 0 1 0 1 0 1 0 
1 0 1 0 1 0 1 0 1 0 1 0 1 0 1 0 
1 0 1 0 1 0 1 0 1 0 1 0 1 0 1 0 
1 0 1 0 1 0 1 0 1 0 1 0 1 0 1 0 
1 0 1 0 1 0 1 0 1 0 1 0 1 0 1 0 
1 0 1 0 1 0 1 0 1 0 1 0 1 0 1 0 
1 0 1 -1 1 0 1 0 1 0 1 0 1 0 1 0 
1 0 1 0 1 1 1 0 1 0 1 0 1 0 1 0 
1 0 1 0 1 0 1 0 1 0 1 0 1 0 1 0 
1 0 1 0 1 0 1 0 1 0 1 -1 1 0 1 0 
1 0 1 0 1 0 1 0 1 0 1 0 1 0 1 0 
1 0 1 0 1 1 1 0 1 0 1 0 1 0 1 0 
1 0 1 0 1 0 1 0 1 0 1 0 1 0 1 0 
1 0 1 0 1 0 1 -1 1 0 1 0 1 0 1 0 
1 0 1 0 1 0 1 0 1 0 1 0 1 0 1 0 
1 0 1 1 1 0 1 0 1 0 1 0 1 0 1 0 
1 0 1 0 1 0 1 0 1 0 1 0 1 0 1 0 
1 0 1 -1 1 0 3581 750 300 MP stroke
1 0 1 0 1 0 1 0 1 0 1 0 1 0 1 0 
1 0 1 0 1 0 1 0 1 0 1 1 1 0 1 0 
1 0 1 0 1 0 1 0 1 0 1 0 1 0 1 0 
1 0 1 0 1 0 1 0 1 -1 1 0 1 0 1 0 
1 0 1 0 1 0 1 0 1 0 1 0 1 0 1 0 
1 0 1 0 1 0 1 1 1 0 1 0 1 0 1 1 
1 0 1 0 1 0 1 0 1 0 1 0 1 0 1 0 
1 0 1 0 1 0 1 0 1 0 1 0 1 0 1 -1 
1 0 1 0 1 0 1 0 1 0 1 -1 1 0 1 0 
1 0 1 -1 1 0 1 0 1 -1 1 0 1 0 1 -1 
1 0 1 -1 1 0 1 -1 1 0 1 -1 1 0 1 -1 
1 0 1 -1 1 0 1 -1 1 -1 1 0 1 -1 1 -1 
1 0 1 -1 1 0 1 -1 1 -1 1 0 1 -1 1 -1 
1 0 1 -1 1 0 1 -1 1 -1 1 0 1 -1 1 -1 
1 0 1 -1 1 -1 1 0 1 -1 1 -1 1 0 1 -1 
1 -1 1 0 1 -1 1 -1 1 0 1 -1 1 -1 1 0 
1 -1 1 -1 1 0 1 -1 1 0 1 -1 1 -1 1 0 
1 -1 1 -1 1 0 1 -1 1 -1 1 0 1 -1 1 -1 
1 0 1 -1 1 0 1 -1 1 -1 1 0 1 -1 1 0 
1 -1 1 0 1 -1 1 0 1 -1 1 0 1 -1 1 0 
1 -1 1 0 1 -1 1 0 1 0 1 -1 1 0 1 0 
1 -1 1 0 1 0 1 -1 1 0 1 0 1 0 1 0 
1 -1 1 0 1 0 1 0 1 0 1 0 1 0 1 0 
1 0 1 0 1 -1 1 0 1 -1 1 0 1 -1 1 -1 
1 0 1 -1 1 0 1 -1 1 -1 1 0 1 -1 1 0 
1 -1 1 0 1 -1 1 0 1 -1 1 -1 1 0 1 -1 
1 0 1 -1 1 -1 1 0 1 -1 1 -1 1 -1 1 0 
1 -1 1 -1 1 -1 1 0 1 -1 1 -1 1 0 1 -1 
1 -1 1 0 1 -1 1 0 1 0 1 -1 1 0 1 0 
1 -1 1 0 1 0 1 -1 1 0 1 -1 1 0 1 -1 
1 -1 1 -1 1 -1 1 -1 1 -1 1 -1 0 -1 2 -2 
1 -1 1 -1 1 -1 1 -1 1 -1 1 0 1 -1 1 0 
1 0 1 0 1 0 1 0 1 1 1 0 1 1 1 0 
1 0 1 1 1 0 1 -1 1 0 1 -1 1 -1 0 -1 
2 -2 0 -2 2 -2 0 -2 1 -1 0 -1 1 -1 0 -2 
1 -1 0 -2 1 -1 0 -1 1 -1 0 -2 1 -1 0 -1 
1 -1 1 -1 1 -1 1 -1 1 0 1 1 0 1 2 2 
0 2 1 1 0 1 3291 873 300 MP stroke
1 1 0 3 1 1 0 2 1 1 0 2 1 1 0 2 
1 1 0 2 1 1 0 1 1 1 1 1 1 1 1 -1 
1 -1 0 -2 1 -1 0 -3 1 -1 0 -4 1 -1 0 -5 
1 -1 0 -5 1 -2 0 -6 1 -1 0 -7 1 -1 0 -7 
1 -1 0 -7 1 -1 0 -6 1 -1 0 -5 1 -2 0 -3 
1 -1 0 -3 2 -2 1 1 0 1 1 1 0 4 1 1 
0 6 1 1 0 8 1 2 0 8 1 3 0 9 1 3 
0 10 1 3 0 11 1 3 0 10 1 3 0 10 1 2 
0 9 1 1 0 6 1 1 0 5 1 1 0 1 1 1 
1 0 1 0 1 -1 0 -2 2 -2 0 -2 1 -1 0 -2 
1 -1 0 -3 1 -1 0 -3 1 -1 0 -5 1 -1 0 -5 
1 -1 0 -6 1 -1 0 -5 1 -1 0 -7 1 -2 0 -7 
1 -2 0 -9 1 -2 0 -9 1 -2 0 -10 1 -3 0 -11 
1 -3 0 -11 1 -3 0 -13 1 -3 0 -14 1 -3 0 -15 
1 -3 0 -16 1 -4 0 -16 1 -4 0 -18 1 -4 0 -18 
1 -5 0 -14 1 -5 0 -20 1 -5 0 -20 1 -6 0 -21 
1 -6 0 -22 1 -6 0 -23 1 -6 0 -24 1 -6 0 -25 
1 -6 0 -25 1 -6 0 -26 1 -7 0 -26 1 -7 0 -27 
1 -6 0 -27 1 -7 0 -28 1 -6 0 -28 1 -7 0 -21 
1 -7 0 -27 1 -7 0 -28 1 -6 0 -28 1 -6 0 -27 
1 -7 0 -26 1 -7 0 -26 1 -6 0 -25 1 -6 0 -127 
1 -60 0 -229 1 -55 0 -207 1 -49 0 -176 1 -40 0 -138 
1 -29 0 -93 1 -17 0 -41 1 -4 0 -1 1 -1 0 -8 
1 -3 0 -7 3192 3062 187 MP stroke
gr

c9
0 sg
%%IncludeResource: font Helvetica
/Helvetica /WindowsLatin1Encoding 83.3333 FMSR

 732 4037 mt 
( ) s
4483  536 mt 
( ) s
8.33333 w
DO
SO
12.5 w
0.1 sg
 750  499 mt 4500  499 L
 750 4000 mt 4500 4000 L
4500 4000 mt 4500  499 L
 750 4000 mt  750  499 L
 750 4000 mt 4500 4000 L
 750 4000 mt  750  499 L
 750 4000 mt  750 3943 L
 750  499 mt  750  556 L
%%IncludeResource: font Helvetica
/Helvetica /WindowsLatin1Encoding 133.333 FMSR

 713 4147 mt 
(0) s
1763 4000 mt 1763 3943 L
1763  499 mt 1763  556 L
1634 4147 mt 
(0.05) s
2777 4000 mt 2777 3943 L
2777  499 mt 2777  556 L
2685 4147 mt 
(0.1) s
3790 4000 mt 3790 3943 L
3790  499 mt 3790  556 L
3661 4147 mt 
(0.15) s
 750 3750 mt  806 3750 L
4500 3750 mt 4443 3750 L
 463 3799 mt 
(-0.2) s
 750 3250 mt  806 3250 L
4500 3250 mt 4443 3250 L
 463 3299 mt 
(-0.1) s
 750 2750 mt  806 2750 L
4500 2750 mt 4443 2750 L
 652 2799 mt 
(0) s
 750 2249 mt  806 2249 L
4500 2249 mt 4443 2249 L
 541 2298 mt 
(0.1) s
 750 1749 mt  806 1749 L
4500 1749 mt 4443 1749 L
 541 1798 mt 
(0.2) s
 750 1249 mt  806 1249 L
4500 1249 mt 4443 1249 L
 541 1298 mt 
(0.3) s
 750  749 mt  806  749 L
4500  749 mt 4443  749 L
 541  798 mt 
(0.4) s
 750  499 mt 4500  499 L
 750 4000 mt 4500 4000 L
4500 4000 mt 4500  499 L
 750 4000 mt  750  499 L
0 sg
%%IncludeResource: font Helvetica-Bold
/Helvetica-Bold /WindowsLatin1Encoding 125 FMSR

1228  729 mt 
(Loading 1) s
gs 903 585 945 531 rc
16.6667 w
250 0 953 683 2 MP stroke
gr

16.6667 w
1228  897 mt 
(Loading 2) s
gs 903 585 945 531 rc
c8
250 0 953 850 2 MP stroke
gr

c8
0 sg
1228 1064 mt 
(Loading 3) s
gs 903 585 945 531 rc
c9
250 0 953 1016 2 MP stroke
12.5 w
gr

12.5 w
c9

end %%Color Dict

eplot
%%EndObject

epage
end

showpage

%%Trailer
%%EOF
