%!PS-Adobe-3.0 EPSF-3.0
%%Creator: MATLAB, The MathWorks, Inc. Version 8.1.0.604 (R2013a). Operating System: Microsoft Windows 7.
%%Title: .\Multi_Force-Overlap_0_4N.eps
%%CreationDate: 08/15/2013  23:03:37
%%DocumentNeededFonts: Helvetica-Bold
%%+ Helvetica
%%DocumentProcessColors: Cyan Magenta Yellow Black
%%LanguageLevel: 2
%%Pages: 1
%%BoundingBox:    40    93   564   569
%%EndComments

%%BeginProlog
% MathWorks dictionary
/MathWorks 160 dict begin
% definition operators
/bdef {bind def} bind def
/ldef {load def} bind def
/xdef {exch def} bdef
/xstore {exch store} bdef
% operator abbreviations
/c  /clip ldef
/cc /concat ldef
/cp /closepath ldef
/gr /grestore ldef
/gs /gsave ldef
/mt /moveto ldef
/np /newpath ldef
/cm /currentmatrix ldef
/sm /setmatrix ldef
/rm /rmoveto ldef
/rl /rlineto ldef
/s {show newpath} bdef
/sc {setcmykcolor} bdef
/sr /setrgbcolor ldef
/sg /setgray ldef
/w /setlinewidth ldef
/j /setlinejoin ldef
/cap /setlinecap ldef
/rc {rectclip} bdef
/rf {rectfill} bdef
% page state control
/pgsv () def
/bpage {/pgsv save def} bdef
/epage {pgsv restore} bdef
/bplot /gsave ldef
/eplot {stroke grestore} bdef
% orientation switch
/portraitMode 0 def /landscapeMode 1 def /rotateMode 2 def
% coordinate system mappings
/dpi2point 0 def
% font control
/FontSize 0 def
/FMS {/FontSize xstore findfont [FontSize 0 0 FontSize neg 0 0]
  makefont setfont} bdef
/ISOLatin1Encoding where {pop /WindowsLatin1Encoding 256 array bdef
ISOLatin1Encoding WindowsLatin1Encoding copy pop
/.notdef/.notdef/quotesinglbase/florin/quotedblbase/ellipsis/dagger
/daggerdbl/circumflex/perthousand/Scaron/guilsinglleft/OE/.notdef/.notdef
/.notdef/.notdef/quoteleft/quoteright/quotedblleft/quotedblright/bullet
/endash/emdash/tilde/trademark/scaron/guilsinglright/oe/.notdef/.notdef
/Ydieresis WindowsLatin1Encoding 128 32 getinterval astore pop}
{/WindowsLatin1Encoding StandardEncoding bdef} ifelse
/reencode {exch dup where {pop load} {pop StandardEncoding} ifelse
  exch dup 3 1 roll findfont dup length dict begin
  { 1 index /FID ne {def}{pop pop} ifelse } forall
  /Encoding exch def currentdict end definefont pop} bdef
/isroman {findfont /CharStrings get /Agrave known} bdef
/FMSR {3 1 roll 1 index dup isroman {reencode} {pop pop} ifelse
  exch FMS} bdef
/csm {1 dpi2point div -1 dpi2point div scale neg translate
 dup landscapeMode eq {pop -90 rotate}
  {rotateMode eq {90 rotate} if} ifelse} bdef
% line types: solid, dotted, dashed, dotdash
/SO { [] 0 setdash } bdef
/DO { [.5 dpi2point mul 4 dpi2point mul] 0 setdash } bdef
/DA { [6 dpi2point mul] 0 setdash } bdef
/DD { [.5 dpi2point mul 4 dpi2point mul 6 dpi2point mul 4
  dpi2point mul] 0 setdash } bdef
% macros for lines and objects
/L {lineto stroke} bdef
/MP {3 1 roll moveto 1 sub {rlineto} repeat} bdef
/AP {{rlineto} repeat} bdef
/PDlw -1 def
/W {/PDlw currentlinewidth def setlinewidth} def
/PP {closepath eofill} bdef
/DP {closepath stroke} bdef
/MR {4 -2 roll moveto dup  0 exch rlineto exch 0 rlineto
  neg 0 exch rlineto closepath} bdef
/FR {MR stroke} bdef
/PR {MR fill} bdef
/L1i {{currentfile picstr readhexstring pop} image} bdef
/tMatrix matrix def
/MakeOval {newpath tMatrix currentmatrix pop translate scale
0 0 1 0 360 arc tMatrix setmatrix} bdef
/FO {MakeOval stroke} bdef
/PO {MakeOval fill} bdef
/PD {currentlinewidth 2 div 0 360 arc fill
   PDlw -1 eq not {PDlw w /PDlw -1 def} if} def
/FA {newpath tMatrix currentmatrix pop translate scale
  0 0 1 5 -2 roll arc tMatrix setmatrix stroke} bdef
/PA {newpath tMatrix currentmatrix pop	translate 0 0 moveto scale
  0 0 1 5 -2 roll arc closepath tMatrix setmatrix fill} bdef
/FAn {newpath tMatrix currentmatrix pop translate scale
  0 0 1 5 -2 roll arcn tMatrix setmatrix stroke} bdef
/PAn {newpath tMatrix currentmatrix pop translate 0 0 moveto scale
  0 0 1 5 -2 roll arcn closepath tMatrix setmatrix fill} bdef
/vradius 0 def /hradius 0 def /lry 0 def
/lrx 0 def /uly 0 def /ulx 0 def /rad 0 def
/MRR {/vradius xdef /hradius xdef /lry xdef /lrx xdef /uly xdef
  /ulx xdef newpath tMatrix currentmatrix pop ulx hradius add uly
  vradius add translate hradius vradius scale 0 0 1 180 270 arc 
  tMatrix setmatrix lrx hradius sub uly vradius add translate
  hradius vradius scale 0 0 1 270 360 arc tMatrix setmatrix
  lrx hradius sub lry vradius sub translate hradius vradius scale
  0 0 1 0 90 arc tMatrix setmatrix ulx hradius add lry vradius sub
  translate hradius vradius scale 0 0 1 90 180 arc tMatrix setmatrix
  closepath} bdef
/FRR {MRR stroke } bdef
/PRR {MRR fill } bdef
/MlrRR {/lry xdef /lrx xdef /uly xdef /ulx xdef /rad lry uly sub 2 div def
  newpath tMatrix currentmatrix pop ulx rad add uly rad add translate
  rad rad scale 0 0 1 90 270 arc tMatrix setmatrix lrx rad sub lry rad
  sub translate rad rad scale 0 0 1 270 90 arc tMatrix setmatrix
  closepath} bdef
/FlrRR {MlrRR stroke } bdef
/PlrRR {MlrRR fill } bdef
/MtbRR {/lry xdef /lrx xdef /uly xdef /ulx xdef /rad lrx ulx sub 2 div def
  newpath tMatrix currentmatrix pop ulx rad add uly rad add translate
  rad rad scale 0 0 1 180 360 arc tMatrix setmatrix lrx rad sub lry rad
  sub translate rad rad scale 0 0 1 0 180 arc tMatrix setmatrix
  closepath} bdef
/FtbRR {MtbRR stroke } bdef
/PtbRR {MtbRR fill } bdef
/stri 6 array def /dtri 6 array def
/smat 6 array def /dmat 6 array def
/tmat1 6 array def /tmat2 6 array def /dif 3 array def
/asub {/ind2 exch def /ind1 exch def dup dup
  ind1 get exch ind2 get sub exch } bdef
/tri_to_matrix {
  2 0 asub 3 1 asub 4 0 asub 5 1 asub
  dup 0 get exch 1 get 7 -1 roll astore } bdef
/compute_transform {
  dmat dtri tri_to_matrix tmat1 invertmatrix 
  smat stri tri_to_matrix tmat2 concatmatrix } bdef
/ds {stri astore pop} bdef
/dt {dtri astore pop} bdef
/db {2 copy /cols xdef /rows xdef mul dup 3 mul string
  currentfile 
  3 index 0 eq {/ASCIIHexDecode filter}
  {/ASCII85Decode filter 3 index 2 eq {/RunLengthDecode filter} if }
  ifelse exch readstring pop
  dup 0 3 index getinterval /rbmap xdef
  dup 2 index dup getinterval /gbmap xdef
  1 index dup 2 mul exch getinterval /bbmap xdef pop pop}bdef
/it {gs np dtri aload pop moveto lineto lineto cp c
  cols rows 8 compute_transform 
  rbmap gbmap bbmap true 3 colorimage gr}bdef
/il {newpath moveto lineto stroke}bdef
currentdict end def
%%EndProlog

%%BeginSetup
MathWorks begin

0 cap

end
%%EndSetup

%%Page: 1 1
%%BeginPageSetup
%%PageBoundingBox:    40    93   564   569
MathWorks begin
bpage
%%EndPageSetup

%%BeginObject: obj1
bplot

/dpi2point 8.33333 def
portraitMode 0150 5158 csm

  190   409  4366  3970 rc
84 dict begin %Colortable dictionary
/c0 { 0.000000 0.000000 0.000000 sr} bdef
/c1 { 1.000000 1.000000 1.000000 sr} bdef
/c2 { 0.900000 0.000000 0.000000 sr} bdef
/c3 { 0.000000 0.820000 0.000000 sr} bdef
/c4 { 0.000000 0.000000 0.800000 sr} bdef
/c5 { 0.910000 0.820000 0.320000 sr} bdef
/c6 { 1.000000 0.260000 0.820000 sr} bdef
/c7 { 0.000000 0.820000 0.820000 sr} bdef
c0
1 j
1 sg
   0    0 5001 5001 rf
12.5 w
0 3501 3750 0 0 -3501 750 4000 4 MP
PP
-3750 0 0 3501 3750 0 0 -3501 750 4000 5 MP stroke
gs 750 500 3751 3501 rc
16.6667 w
0 sg
-4 -4 -4 -4 -4 -4 -4 -4 -4 -4 -4 -5 -3 -4 -4 -4 
-4 -4 -4 -4 -3 -4 -4 -4 -3 -4 -4 -4 -3 -4 -4 -4 
-3 -4 -3 -5 -4 -4 -3 -4 -3 -4 -3 -4 -3 -3 -3 -4 
-4 -4 -3 -4 -2 -4 -3 -4 -3 -4 -3 -4 -3 -4 -3 -3 
-2 -4 -3 -4 -3 -4 -2 -3 -3 -4 -2 -4 -3 -3 -2 -4 
-3 -3 -2 -4 -3 -3 -2 -4 -2 -3 -2 -4 -3 -3 -2 -4 
-2 -3 -2 -3 -2 -3 -2 -4 -2 -3 -2 -3 -2 -3 -2 -3 
-2 -3 -2 -3 -2 -3 -2 -3 -1 -3 -2 -3 -2 -3 -2 -3 
-1 -2 -2 -3 -1 -3 -2 -3 -1 -2 -2 -3 -1 -2 -2 -3 
-1 -2 -2 -3 -1 -2 -1 -2 -2 -3 -1 -2 -1 -2 -1 -2 
-1 -2 -2 -2 -1 -2 -1 -2 -1 -2 -1 -2 -1 -2 -1 -2 
-1 -1 -1 -2 -1 -2 -1 -1 0 -2 -1 -1 -1 -2 -1 -1 
-1 -2 0 -1 -1 -1 -1 -1 0 -1 -1 -2 0 -1 -1 -1 
-1 -1 0 -1 -1 -1 0 -1 -1 -1 0 -1 -1 -1 0 -1 
-1 -1 0 -1 -1 -1 0 -1 -1 -1 0 -1 -1 -1 0 -1 
-1 -1 0 -1 -2 -2 0 -2 -1 -1 -1 -1 0 -2 -1 -1 
-1 -1 0 -1 -1 -1 0 -2 -2 -2 0 -2 -2 -2 0 -1 
-1 -1 0 -2 -2 -2 0 -1 -1 -1 0 -1 -1 -1 0 -2 
-2 -2 0 -1 -1 -1 0 -1 -1 -1 0 -1 -1 -1 0 -1 
-1 -1 0 -2 -2 -2 0 -2 -2 -2 0 -2 -2 -2 0 -1 
0 4 -1 1 0 5 -1 1 0 5 -1 1 0 4 -1 1 
0 6 -1 1 0 5 -1 1 0 5 -1 1 0 4 -1 1 
0 5 -1 1 0 5 -1 1 0 6 -1 1 0 4 -1 1 
0 5 -1 1 0 5 -1 1 0 5 -1 1 0 6 -1 1 
0 4 -1 1 0 5 -1 1 0 5 -1 1 0 5 -1 1 
0 5 -1 1 0 5 -1 1 0 5 -1 1 0 5 -1 1 
0 5 -1 1 0 5 -1 1 0 5 -1 1 0 5 -1 1 
0 5 -1 1 0 5 -1 1 0 5 -1 1 0 5 -1 1 
0 5 -1 1 0 5 -1 1 0 5 -1 1 0 5 -1 1 
0 5 -1 1 0 5 -1 1 0 5 -1 1 0 5 -1 1 
0 5 -1 1 0 5 -1 1 0 5 -1 1 0 5 -1 1 
0 5 -1 1 0 5 -1 1 0 6 -1 1 0 4 -1 1 
0 6 -1 1 0 4 -1 1 0 6 -1 1 0 5 -1 1 
0 5 -1 1 0 5 -1 1 0 5 -1 1 0 5 -1 1 
0 5 -1 1 0 5 -1 1 0 5 -1 1 0 5 -1 1 
0 5 -1 1 0 5 -1 1 0 5 -1 1 0 5 -1 1 
0 5 -1 1 0 6 -1 1 0 4 -1 1 0 5 -1 1 
0 6 -1 1 0 5 2372 2974 300 MP stroke
-1 1 0 5 -1 1 0 5 -1 1 0 5 -1 1 0 5 
-1 1 0 5 -1 1 0 5 -1 1 0 5 -1 1 0 5 
-1 1 0 5 -1 1 0 6 -1 1 0 5 -1 1 0 5 
-1 1 0 5 -1 1 0 5 -1 1 0 5 -1 1 0 5 
-1 1 0 5 -1 1 0 5 -1 1 0 6 -1 1 0 4 
-1 1 0 6 -1 1 0 5 -1 1 0 5 -1 1 0 5 
-1 1 0 5 -1 1 0 6 -1 1 0 5 -1 1 0 4 
-1 1 0 6 -1 1 0 5 -1 1 0 5 -1 1 0 6 
-1 1 0 5 -1 1 0 4 -1 1 0 5 -1 1 0 6 
-1 1 0 5 0 0 0 -5 1 -1 -1 0 0 6 -1 1 
0 5 -1 1 1 0 0 -6 1 -1 0 -5 1 -1 0 -5 
1 -1 0 -6 0 5 -1 1 0 6 -1 1 0 5 -1 1 
0 5 -1 1 0 5 -1 1 0 6 -1 1 0 4 -1 1 
0 5 -1 1 0 6 -1 1 0 5 -1 1 0 5 -1 1 
0 5 -1 1 0 5 -1 1 0 6 -1 1 0 5 -1 1 
0 5 -1 1 0 5 -1 1 0 5 -1 1 0 6 -1 1 
0 4 -1 1 0 6 -1 1 0 5 -1 1 0 5 -1 1 
0 5 -1 1 0 5 -1 1 0 6 -1 1 0 5 -1 1 
0 5 -1 1 0 5 -1 1 0 6 -1 1 0 5 -1 1 
0 5 -1 1 0 5 -1 1 0 5 -1 1 0 6 -1 1 
0 4 -1 1 0 6 -1 1 0 5 -1 1 0 6 -1 1 
0 5 -1 1 0 4 -1 1 0 6 -1 1 0 5 -1 1 
0 6 -1 1 0 5 -1 1 0 5 -1 1 0 5 -1 1 
0 5 -1 1 0 6 -1 1 0 4 -1 1 0 6 -1 1 
0 6 -1 1 0 4 -1 1 0 6 -1 1 0 5 -1 1 
0 5 -1 1 0 6 -1 1 0 4 -1 1 0 6 -1 1 
0 5 -1 1 0 6 -1 1 0 5 -1 1 0 5 -1 1 
0 6 -1 1 0 5 -1 1 0 5 -1 1 0 5 -1 1 
0 6 -1 1 0 5 -1 1 0 5 -1 1 0 5 -1 1 
0 5 -1 1 0 5 -1 1 0 6 -1 1 0 5 -1 1 
0 5 -1 1 0 6 -1 1 0 5 -1 1 0 5 -1 1 
0 5 -1 1 0 6 -1 1 0 5 -1 1 0 5 -1 1 
0 6 -1 1 0 5 -1 1 0 6 -1 1 0 4 -1 1 
0 6 -1 1 0 5 -1 1 0 5 -1 1 0 6 -1 1 
0 5 -1 1 0 6 -1 1 0 5 -1 1 0 5 -1 1 
0 5 -1 1 0 5 -1 1 0 6 -1 1 0 5 -1 1 
0 5 -1 1 0 6 -1 1 0 5 -1 1 0 5 -1 1 
0 6 -1 1 0 5 2511 2112 300 MP stroke
-1 1 0 5 -1 1 0 6 -1 1 0 6 -1 1 0 4 
-1 1 0 6 -1 1 0 5 -1 2 0 5 -1 1 0 5 
-1 1 0 5 -1 2 0 5 -1 1 0 5 -1 1 0 6 
-1 1 0 4 -1 2 0 5 -1 1 0 5 -1 1 0 6 
-1 1 0 5 -1 1 0 5 -1 1 0 2 1 1 1 -1 
1 -1 1 0 1 -1 1 -1 1 0 1 -1 1 0 1 -1 
1 -1 1 0 1 -1 1 -1 1 0 1 -1 1 -1 1 0 
1 -1 1 -1 1 0 1 -1 1 0 1 -1 1 -1 1 0 
1 -1 1 -1 1 0 1 -1 1 -1 1 0 1 -1 1 0 
1 -1 1 -1 1 0 1 -1 1 0 1 -1 1 -1 1 0 
1 -1 1 -1 1 0 1 -1 1 -1 1 0 1 -1 1 -1 
1 0 1 -1 1 0 1 -1 1 -1 1 0 1 -1 1 -1 
1 0 1 -1 1 0 1 -1 1 0 1 -1 1 -1 1 0 
1 -1 1 -1 1 0 1 -1 1 -1 1 0 1 -1 1 -1 
1 0 1 -1 1 -1 1 0 1 -1 1 0 1 -1 1 -1 
1 0 1 -1 1 0 1 -1 1 -1 1 0 1 -1 1 0 
1 -1 1 -1 1 0 1 -1 1 -1 1 0 1 -1 1 0 
1 -1 1 -1 1 0 1 -1 1 0 1 -1 1 -1 1 0 
1 -1 1 0 1 -1 1 -1 1 0 1 -1 1 0 1 -1 
1 -1 1 0 1 -1 1 -1 1 0 1 -1 1 0 1 -1 
1 -1 1 0 1 -1 1 -1 1 0 1 -1 1 0 1 -1 
1 -1 1 0 1 -1 1 -1 1 0 1 -1 1 0 1 -1 
1 -1 1 0 1 -1 1 0 1 -1 1 -1 1 0 1 -1 
1 -1 1 0 1 -1 1 0 1 -1 1 -1 1 0 1 -1 
1 0 1 -1 1 -1 1 0 1 -1 1 0 1 -1 1 -1 
1 0 1 -1 1 0 1 -1 1 -1 1 0 1 -1 1 0 
1 -1 1 -1 1 0 1 -1 1 0 1 -1 1 -1 1 0 
1 -1 1 0 1 -1 1 -1 1 0 1 -1 1 0 1 -1 
1 -1 1 0 1 -1 1 0 1 -1 1 -1 1 0 1 -1 
1 0 1 -1 1 -1 1 0 1 -1 1 0 1 -1 1 -1 
1 0 1 -1 1 0 1 -1 1 -1 1 0 1 -1 1 0 
1 -1 1 -1 1 0 1 -1 1 -1 1 0 1 -1 1 0 
1 -1 1 -1 1 0 1 -1 1 0 1 -1 1 -1 1 0 
1 -1 1 0 1 -1 1 -1 1 0 1 -1 1 0 1 -1 
1 -1 1 0 1 -1 1 0 1 -1 1 -1 1 0 1 -1 
1 0 1 -1 1 0 1 -1 1 -1 1 0 1 -1 1 0 
1 -1 1 0 1 -1 1 -1 1 0 1 -1 1 0 1 -1 
1 0 1 -1 1 -1 2269 2154 300 MP stroke
1 0 1 -1 1 -1 1 0 1 -1 1 0 1 -1 1 -1 
1 0 1 -1 1 0 1 -1 1 -1 1 0 1 -1 1 0 
1 -1 1 0 1 -1 1 -1 1 0 1 -1 1 0 1 -1 
1 0 1 -1 1 0 1 -1 1 -1 1 0 1 -1 1 0 
1 -1 1 -1 1 0 1 -1 1 0 1 -1 1 -1 1 0 
1 -1 1 -1 1 0 1 -1 1 0 1 -1 1 0 1 -1 
1 0 1 -1 1 0 1 -1 1 -1 1 0 1 -1 1 0 
1 -1 1 -1 1 0 1 -1 1 0 1 -1 1 -1 1 0 
1 -1 1 0 1 -1 1 0 1 -1 1 0 1 -1 1 -1 
1 0 1 -1 1 0 1 -1 1 -1 1 0 1 -1 1 0 
1 -1 1 0 1 -1 1 0 1 -1 1 0 1 -1 1 -1 
1 0 1 -1 1 -1 1 0 1 -1 1 0 1 -1 1 0 
1 -1 1 0 1 -1 1 0 1 -1 1 -1 1 0 1 -1 
1 -1 1 0 1 -1 1 0 1 -1 1 0 1 -1 1 0 
1 -1 1 -1 1 0 1 -1 1 0 1 -1 1 0 1 -1 
1 0 1 -1 1 -1 1 0 1 -1 1 0 1 -1 1 -1 
1 0 1 0 1 -1 1 -1 1 0 1 -1 1 -1 1 0 
1 -1 1 0 1 0 1 -1 1 -1 1 0 1 -1 1 -1 
1 0 1 -1 1 0 1 -1 1 0 1 -1 1 0 1 -1 
1 -1 1 0 1 0 1 -1 1 -1 1 0 1 -1 1 0 
1 -1 1 0 1 -1 1 -1 1 0 1 -1 1 0 1 -1 
1 0 1 -1 1 -1 1 0 1 -1 1 0 1 -1 1 0 
1 -1 1 0 1 -1 1 0 1 -1 1 0 1 -1 1 -1 
1 0 1 -1 1 0 1 -1 1 0 1 -1 1 -1 1 0 
1 0 1 -1 1 -1 1 0 1 -1 1 0 1 -1 1 0 
1 -1 1 -1 1 0 1 0 1 -1 1 -1 1 0 1 -1 
1 0 1 -1 1 -1 1 0 1 -1 1 0 1 -1 1 0 
1 -1 1 0 1 -1 1 0 1 -1 1 -1 1 0 1 0 
1 -1 1 -1 1 0 1 -1 1 0 1 -1 1 -1 1 0 
1 0 1 -1 1 -1 1 0 1 -1 1 0 1 -1 1 0 
1 -1 1 0 1 -1 1 0 1 -1 1 0 1 -1 1 -1 
1 0 1 -1 1 0 1 -1 1 0 1 -1 1 0 1 -1 
1 0 1 -1 1 0 1 -1 1 -1 1 0 1 -1 1 0 
1 -1 1 0 1 -1 1 0 1 -1 1 0 1 -1 1 0 
1 -1 1 -1 1 0 1 0 1 -1 1 -1 1 0 1 -1 
1 0 1 -1 1 0 1 -1 1 0 1 -1 1 -1 1 0 
1 0 1 -1 1 -1 1 0 1 0 1 -1 1 -1 1 0 
1 0 1 -1 1 -1 1970 2321 300 MP stroke
1 0 1 -1 1 0 1 -1 1 -1 1 0 1 0 1 -1 
1 -1 1 0 1 0 1 -1 1 -1 1 0 1 0 1 -1 
1 -1 1 0 1 -1 1 0 1 -1 1 0 1 -1 1 0 
1 -1 1 0 1 -1 1 0 1 -1 1 0 1 -1 1 -1 
1 0 1 0 1 -1 1 -1 1 0 1 0 1 -1 1 -1 
1 0 1 -1 1 0 1 0 1 -1 1 -1 1 0 1 -1 
1 0 1 -1 1 0 1 -1 1 0 1 -1 1 0 1 -1 
1 0 1 -1 1 -1 1 0 1 0 1 -1 1 0 1 -1 
1 -1 1 0 1 -1 1 0 1 0 1 -1 1 0 1 -1 
1 -1 1 0 1 -1 1 0 1 -1 1 0 1 0 1 -1 
1 -1 1 0 1 -1 1 0 1 -1 1 0 1 -1 1 0 
1 -1 1 0 1 -1 1 0 1 -1 1 0 1 -1 1 0 
1 -1 1 0 1 -1 1 0 1 -1 1 0 1 -1 1 0 
1 -1 1 0 1 -1 1 0 1 -1 1 0 1 -1 1 0 
1 -1 1 0 1 -1 1 0 1 -1 1 0 1 -1 1 0 
1 -1 1 0 1 -1 1 0 1 -1 1 0 1 -1 1 0 
1 -1 1 0 1 -1 1 0 1 -1 1 0 1 -1 1 0 
1 -1 1 0 1 -1 1 0 1 -1 1 0 1 -1 1 0 
1 -1 1 0 1 -1 1 0 1 -1 1 0 1 -1 1 0 
1 -1 1 0 1 -1 1 0 1 -1 1 0 1 -1 1 0 
1 -1 1 0 1 -1 1 0 1 0 1 -1 1 0 1 -1 
1 0 1 -1 1 0 1 -1 1 0 -1 0 2 -2 0 -4 
1 -1 0 -4 1 -1 0 -4 1 -1 0 -4 1 -1 0 -4 
1 -1 0 -3 1 -1 0 -4 1 -1 0 -4 1 -1 0 -4 
1 -1 0 -4 1 -1 0 -4 1 -1 0 -4 1 -1 0 -4 
1 -1 0 -3 1 -1 0 -4 1 -1 0 -4 1 -1 0 -4 
1 -1 0 -4 1 -1 0 -4 1 -1 0 -4 1 -1 0 -3 
1 -1 0 -4 1 -1 0 -4 1 -1 0 -4 0 0 0 4 
0 0 0 -4 1 -1 0 -3 1 -1 0 -5 1 -1 0 -3 
1 -1 0 -4 1 -1 0 -4 1 -1 0 -3 1 -2 0 -3 
1 -2 0 -4 1 -1 0 -3 1 -1 0 -4 1 -2 0 -2 
1 -2 0 -4 1 -1 0 -3 1 -1 0 -5 1 -1 0 -3 
1 -1 0 -4 1 -1 0 -4 1 -1 0 -3 1 -1 0 -4 
1 -1 0 -4 1 -1 0 -3 1 -1 0 -3 0 2 -1 1 
0 4 -1 1 0 4 -1 1 0 3 -1 1 0 4 -1 1 
0 4 -1 2 0 2 -1 2 0 3 -1 1 0 5 -1 2 
0 3 -1 1 0 3 -1 2 0 3 -1 1 0 3 -1 2 
0 3 -1 1 0 4 1765 2561 300 MP stroke
-1 2 0 4 -1 1 0 3 -1 1 0 3 -1 1 0 4 
0 -3 1 -1 0 -4 1 -1 0 -4 1 -2 0 -2 1 -1 
0 -4 1 -2 0 -2 1 -2 0 -3 1 -2 0 -2 1 -3 
0 -2 1 -3 0 -3 1 -3 0 -3 1 -3 1 -3 0 -3 
1 -3 1 -3 0 -3 1 -4 1 -3 1 -4 0 -3 1 -4 
1 -3 1 -4 0 -4 1 -3 1 -4 1 -4 1 -4 0 -4 
1 -4 1 -4 1 -4 1 -4 0 -4 1 -4 1 -4 1 -4 
1 -4 1 -4 1 -4 0 -3 1 -4 1 -4 1 -4 1 -4 
0 -4 1 -4 1 -4 1 -3 1 -4 0 -4 1 -3 1 -4 
1 -3 0 -3 1 -4 1 -3 0 -3 1 -3 1 -3 0 -3 
1 -3 1 -3 0 -2 1 -3 0 -2 1 -3 0 -2 1 -2 
0 -4 1 -2 0 -3 1 -1 0 -3 1 -1 0 -2 0 2 
-1 1 0 3 -1 2 0 3 -1 2 0 2 -1 2 0 3 
-1 3 0 2 -1 3 -1 3 0 3 -1 4 -1 3 -1 4 
0 4 -1 4 -1 4 -1 4 -1 5 -1 4 -1 5 -1 5 
-1 5 -1 5 -1 5 -1 5 -1 5 -2 6 -1 5 -1 6 
-1 6 -1 6 -2 6 -1 6 -1 6 -1 6 -2 6 -1 7 
-1 6 -2 6 -1 7 -1 6 -2 7 -1 6 -2 7 -1 6 
-1 7 -2 6 -1 7 -1 6 -2 7 -1 6 -1 7 -2 6 
-1 6 -1 7 -2 6 -1 6 -1 6 -1 6 -1 5 -2 6 
-1 5 -1 6 -1 5 -1 5 -1 5 -1 5 -1 5 -1 4 
-1 4 -1 5 0 3 -1 4 -1 4 -1 3 0 3 -1 3 
0 2 -1 3 0 2 -1 2 0 4 -1 1 1 0 1 0 
1 -1 1 0 1 -1 1 -1 1 0 1 -1 1 0 1 -1 
2 0 1 -1 1 -1 2 0 1 -1 2 -1 2 -1 1 0 
2 -1 2 -1 2 -1 2 -1 2 -1 3 -1 2 -2 3 -1 
2 -1 3 -1 2 -1 3 -2 3 -1 3 -2 3 -1 3 -2 
4 -1 3 -2 4 -1 3 -2 4 -2 4 -2 4 -1 4 -2 
4 -2 4 -2 4 -2 5 -2 4 -2 5 -2 5 -3 4 -2 
5 -2 5 -2 6 -3 5 -2 5 -3 6 -2 6 -3 5 -2 
6 -3 6 -3 6 -2 7 -3 6 -3 7 -3 6 -3 7 -3 
7 -3 7 -3 7 -3 7 -3 8 -3 7 -3 8 -3 7 -3 
8 -4 8 -3 9 -3 8 -4 8 -3 9 -4 9 -3 8 -4 
9 -3 10 -4 9 -4 9 -3 10 -4 9 -4 10 -3 10 -4 
10 -4 10 -4 11 -4 10 -4 11 -3 11 -4 11 -4 11 -4 
11 -4 11 -4 12 -4 12 -4 11 -4 12 -4 12 -4 13 -4 
12 -3 13 -4 12 -4 13 -4 13 -4 13 -4 13 -4 14 -3 
13 -4 14 -4 14 -3 1052 2696 300 MP stroke
14 -4 14 -4 14 -3 14 -4 15 -3 14 -3 15 -4 15 -3 
15 -3 15 -3 15 -2 16 -3 15 -3 16 -2 15 -2 16 -2 
16 -2 16 -2 16 -1 16 -1 750 2750 21 MP stroke
gr

16.6667 w
0 sg
0.1 sg
%%IncludeResource: font Helvetica-Bold
/Helvetica-Bold /WindowsLatin1Encoding 183.333 FMSR

1773 4321 mt 
(Normal Overlap [m]) s
 383 2993 mt  -90 rotate
(Normal Force [N]) s
90 rotate
gs 750 500 3751 3501 rc
/c8 { 1.000000 0.000000 0.000000 sr} bdef
c8
-4 -4 -5 -4 -5 -3 -5 -4 -4 -4 -5 -4 -4 -4 -5 -4 
-4 -4 -5 -4 -4 -4 -4 -4 -4 -4 -5 -4 -4 -4 -4 -4 
-4 -3 -4 -4 -4 -4 -4 -4 -4 -4 -4 -4 -4 -4 -4 -3 
-3 -4 -4 -4 -4 -4 -4 -4 -3 -3 -4 -4 -3 -4 -4 -4 
-3 -3 -4 -4 -3 -4 -3 -3 -4 -4 -3 -4 -3 -3 -3 -4 
-4 -3 -3 -4 -3 -3 -3 -4 -3 -3 -3 -4 -3 -3 -3 -4 
-3 -3 -3 -4 -2 -3 -3 -3 -3 -4 -3 -3 -2 -3 -3 -3 
-3 -4 -2 -3 -3 -3 -2 -3 -3 -3 -2 -4 -3 -3 -2 -3 
-3 -3 -2 -3 -2 -3 -3 -3 -2 -3 -2 -2 -2 -3 -2 -3 
-3 -3 -2 -3 -2 -3 -2 -2 -2 -3 -2 -3 -2 -3 -2 -2 
-2 -3 -2 -2 -2 -3 -1 -3 -2 -2 -2 -3 -2 -2 -2 -3 
-1 -2 -2 -2 -2 -3 -2 -2 -1 -3 -2 -2 -1 -2 -2 -2 
-2 -3 -1 -2 -2 -2 -1 -2 -2 -2 -1 -2 -2 -3 -1 -2 
-1 -2 -2 -2 -1 -2 -1 -2 -2 -2 -1 -2 -1 -1 -2 -2 
-1 -2 -1 -2 -1 -2 -1 -2 -2 -1 -1 -2 -1 -2 -1 -2 
-1 -1 -1 -2 -1 -2 -1 -1 -1 -2 -1 -1 -2 -2 -1 -1 
-1 -2 0 -1 -1 -2 -1 -1 -1 -2 -1 -1 -1 -2 -1 -1 
-1 -1 -1 -2 -1 -1 0 -1 -1 -2 -1 -1 -1 -1 -1 -1 
0 -1 -1 -2 -1 -1 -1 -1 0 -1 -1 -1 -1 -1 0 -1 
-1 -1 -1 -2 0 -1 -1 -1 -1 -1 0 -1 -1 -1 -1 -1 
-1 -1 0 -1 -1 -1 0 -1 -1 -1 0 -1 -1 -1 -1 -1 
0 -1 -1 -1 0 -1 -2 -2 0 -1 -1 -1 0 -1 -2 -2 
0 -1 -2 -2 0 -1 -1 -1 0 -1 -2 -2 -1 -1 0 -2 
-2 -2 -1 -1 0 -2 -2 -2 -1 -1 0 -2 -2 -2 0 3 
-1 1 0 6 -1 1 0 7 -1 1 0 6 -1 1 0 6 
-1 1 0 6 -1 1 0 7 -1 1 0 6 -1 1 0 6 
-1 1 0 6 -1 1 0 6 -1 1 0 7 -1 1 0 6 
-1 1 0 6 -1 1 0 7 -1 1 0 6 -1 1 0 6 
-1 1 0 7 -1 1 0 6 -1 1 0 6 -1 1 0 6 
-1 1 0 6 -1 1 0 7 -1 1 0 6 -1 1 0 6 
-1 1 0 7 -1 1 0 6 -1 1 0 6 -1 1 0 7 
-1 1 0 6 -1 1 0 6 -1 1 0 7 -1 1 0 6 
-1 1 0 6 -1 1 0 6 -1 1 0 7 -1 1 0 6 
-1 1 0 6 -1 1 0 7 -1 1 0 6 -1 1 0 6 
-1 1 0 7 -1 1 0 6 -1 1 0 6 -1 1 0 6 
-1 1 0 7 -1 1 0 6 -1 1 0 6 -1 1 0 7 
-1 1 0 6 -1 1 0 7 -1 1 0 6 -1 1 0 6 
-1 1 0 7 -1 1 3114 3133 300 MP stroke
0 6 -1 1 0 6 -1 1 0 6 -1 1 0 7 -1 1 
0 6 -1 1 0 7 -1 1 0 6 -1 1 0 6 -1 1 
0 7 -1 1 0 6 -1 1 0 6 -1 1 0 6 -1 1 
0 7 -1 1 0 6 -1 1 0 7 -1 1 0 6 -1 1 
0 7 -1 1 0 6 -1 1 0 6 -1 1 0 7 -1 1 
0 6 -1 1 0 6 -1 1 0 6 -1 1 0 7 -1 1 
0 6 -1 1 0 7 -1 1 0 6 -1 1 0 7 -1 1 
0 6 -1 1 0 6 -1 1 0 7 -1 1 0 6 -1 1 
0 7 -1 1 0 6 -1 1 0 6 -1 1 0 6 -1 1 
0 7 -1 1 0 6 -1 1 0 7 -1 1 0 6 -1 1 
0 7 -1 1 0 6 -1 1 0 6 -1 1 0 7 -1 1 
0 6 -1 1 0 7 -1 1 0 6 -1 1 0 7 -1 1 
0 6 -1 1 0 6 -1 1 0 7 -1 1 0 6 -1 1 
0 1 0 -1 0 0 0 4 0 -3 1 -1 0 -6 0 5 
-1 1 0 6 -1 1 0 6 0 -5 1 -1 0 -6 1 -1 
0 -7 1 -1 0 -7 1 -1 0 -6 1 -1 -1 1 0 6 
-1 1 0 7 -1 1 0 6 -1 1 0 6 -1 1 0 7 
-1 1 0 7 -1 1 0 5 -1 1 0 7 -1 1 0 7 
-1 1 0 7 -1 1 0 5 -1 1 0 7 -1 1 0 7 
-1 1 0 5 -1 2 0 6 -1 1 0 7 -1 1 0 5 
-1 2 0 6 -1 2 0 6 -1 1 0 7 -1 1 0 5 
-1 2 0 6 -1 2 0 6 -1 1 0 6 -1 1 0 6 
-1 2 0 6 -1 1 0 7 -1 1 0 5 -1 2 0 6 
-1 2 0 6 -1 1 0 7 -1 1 0 5 -1 2 0 6 
-1 1 0 7 -1 1 0 7 -1 1 0 5 -1 2 0 6 
-1 1 0 7 -1 1 0 5 -1 2 0 6 -1 2 0 6 
-1 1 0 7 -1 1 0 5 -1 2 0 6 -1 2 0 6 
-1 1 0 7 -1 1 0 5 -1 2 0 6 -1 2 0 6 
-1 1 0 6 -1 1 0 6 -1 2 0 6 -1 2 0 6 
-1 1 0 6 -1 1 0 6 -1 2 0 6 -1 1 0 7 
-1 1 0 7 -1 1 0 5 -1 1 0 7 -1 1 0 7 
-1 1 0 6 -1 2 0 6 -1 1 0 6 -1 1 0 6 
-1 2 0 6 -1 2 0 6 -1 1 0 6 -1 1 0 6 
-1 2 0 6 -1 2 0 6 -1 2 0 5 -1 1 0 7 
-1 1 0 7 -1 1 0 5 -1 1 0 7 -1 1 0 7 
-1 1 0 7 -1 1 0 5 -1 2 0 6 -1 1 0 7 
-1 1 0 7 -1 1 0 6 -1 2 0 6 -1 1 0 6 
-1 1 0 6 -1 2 3249 2129 300 MP stroke
0 6 -1 1 0 7 -1 1 0 6 -1 1 0 7 -1 1 
0 7 -1 1 0 6 -1 2 0 6 -1 1 0 6 -1 1 
0 6 -1 2 0 6 -1 2 0 6 -1 2 0 5 -1 1 
0 7 -1 1 0 7 -1 1 0 6 -1 1 0 7 -1 1 
0 6 -1 1 0 7 -1 1 0 7 -1 1 0 6 -1 1 
0 6 -1 2 0 6 -1 2 0 6 -1 1 0 5 -1 2 
0 7 -1 2 0 6 -1 1 0 6 -1 1 0 6 -1 2 
0 6 -1 1 0 7 -1 1 0 6 -1 1 0 7 -1 1 
0 6 -1 1 0 6 -1 2 0 6 -1 1 0 7 -1 1 
0 7 -1 1 0 6 -1 1 0 7 -1 2 0 5 -1 2 
0 6 -1 1 0 6 -1 2 0 6 -1 1 0 7 -1 2 
0 6 -1 1 0 6 -1 2 0 6 -1 1 0 6 -1 1 
0 7 -1 1 0 7 -1 2 0 5 -1 1 0 7 -1 1 
0 6 -1 1 0 7 -1 1 0 7 -1 1 0 7 -1 1 
0 6 -1 1 0 7 -1 1 0 6 -1 1 0 6 -1 2 
0 7 -1 1 0 6 -1 2 0 5 -1 2 0 6 -1 1 
0 7 -1 1 0 7 -1 2 0 5 -1 2 0 6 -1 1 
0 6 -1 2 0 6 -1 2 0 6 -1 2 0 6 -1 2 
0 6 -1 2 0 4 -1 2 0 5 -1 2 0 6 -1 2 
0 7 -1 2 0 5 -1 1 0 6 -1 2 0 7 -1 1 
0 7 -1 1 0 6 -1 1 0 7 0 0 0 -4 0 4 
-1 1 0 4 0 -4 1 -1 0 -6 1 -1 0 -5 0 4 
-1 1 0 7 -1 1 0 7 -1 1 0 6 -1 1 0 5 
0 -5 1 -1 0 -6 1 -1 0 -7 1 -1 0 -6 1 -1 
0 -8 1 -1 0 -6 1 -1 0 -7 1 -1 0 -6 1 -1 
0 -3 0 3 -1 1 0 6 -1 2 0 5 -1 2 0 7 
-1 1 0 6 -1 2 0 4 -1 2 0 7 -1 2 0 5 
-1 2 0 7 -1 2 0 5 -1 2 0 5 -1 2 0 7 
-1 2 0 6 -1 2 0 5 -1 2 0 5 -1 2 0 5 
1 1 1 -1 1 -1 1 -1 1 -1 1 0 1 -1 1 -1 
1 -1 1 -1 1 0 1 -1 1 -1 1 0 -1 0 2 -2 
1 0 1 -1 1 -1 1 0 1 -1 1 -1 1 -1 1 -1 
1 0 1 -1 1 -1 2 -1 1 -1 1 -1 1 -1 2 -1 
1 -1 1 -1 2 -1 1 -1 2 -1 1 -1 2 -2 1 -1 
2 -1 2 -1 1 -2 2 -1 2 -1 1 -2 2 -1 2 -1 
2 -2 2 -1 2 -2 2 -1 2 -2 2 -1 2 -2 2 -2 
3 -1 2 -2 2 -2 2 -1 3 -2 2 -2 2 -2 3 -2 
2 -2 3 -1 3 -2 3240 1499 300 MP stroke
2 -2 3 -2 3 -2 2 -3 3 -2 3 -2 3 -2 3 -2 
3 -2 3 -3 3 -2 3 -2 3 -3 3 -2 3 -2 4 -3 
3 -2 3 -3 4 -2 3 -3 4 -2 3 -3 4 -3 4 -2 
3 -3 4 -3 4 -3 3 -2 4 -3 4 -3 4 -3 4 -3 
4 -3 4 -3 4 -3 5 -3 4 -3 4 -3 4 -4 5 -3 
4 -3 5 -3 4 -4 5 -3 4 -3 5 -4 5 -3 4 -3 
5 -4 5 -3 5 -4 5 -4 5 -3 5 -4 5 -3 5 -4 
5 -4 5 -4 6 -3 5 -4 5 -4 6 -4 5 -4 6 -4 
5 -4 6 -3 5 -4 6 -4 6 -5 6 -4 5 -4 6 -4 
6 -4 6 -4 6 -4 6 -5 6 -4 6 -4 6 -4 6 -5 
7 -4 6 -4 6 -5 7 -4 6 -5 6 -4 7 -4 6 -5 
7 -4 6 -5 7 -5 7 -4 6 -5 7 -4 7 -5 7 -4 
6 -5 7 -5 7 -4 7 -5 7 -5 7 -5 7 -4 7 -5 
7 -5 7 -5 7 -4 8 -5 7 -5 7 -5 7 -4 8 -5 
7 -5 7 -5 8 -5 7 -5 7 -5 8 -4 7 -5 8 -5 
7 -5 8 -5 7 -5 8 -5 7 -4 8 -5 7 -5 8 -5 
8 -5 7 -5 8 -5 8 -4 7 -5 8 -5 7 -5 8 -5 
8 -5 7 -4 8 -5 8 -5 8 -5 7 -5 8 -4 8 -5 
7 -5 8 -5 8 -4 7 -5 8 -5 7 -4 8 -5 8 -5 
7 -4 8 -5 7 -4 8 -5 7 -4 8 -5 7 -4 8 -5 
7 -4 8 -5 7 -4 8 -4 7 -5 7 -4 7 -4 8 -4 
7 -5 7 -4 7 -4 7 -4 7 -4 7 -4 7 -4 7 -4 
7 -4 7 -4 7 -4 6 -4 7 -3 7 -31 6 -37 7 -37 
6 -35 6 -36 6 -34 7 -34 6 -34 5 -32 6 -32 6 -31 
5 -30 5 -29 6 -28 5 -28 4 -26 5 -25 4 -24 4 -22 
4 -22 4 -20 4 -20 3 -17 3 -17 3 -15 2 -14 3 -12 
2 -11 1 -9 2 -8 1 -7 1 -5 1 -3 0 -2 -1 -1 
-1 -1 -1 -1 -2 -1 -1 -2 -3 -2 -2 -3 -3 -2 -3 -4 
-4 -3 -4 -4 2044 3008 227 MP stroke
/c9 { 0.000000 0.000000 1.000000 sr} bdef
c9
-14 0 -17 0 -17 0 -16 0 -17 0 -17 0 -16 0 -16 0 
-17 0 -16 0 -16 0 -16 0 -16 0 -16 0 -16 0 -15 0 
-16 0 -16 0 -15 0 -16 0 -15 0 -15 0 -16 0 -15 0 
-15 0 -15 0 -15 0 -15 0 -15 0 -15 0 -15 0 -15 0 
-14 0 -15 0 -15 0 -14 0 -15 0 -14 0 -15 0 -14 0 
-15 0 -14 0 -14 0 -14 0 -15 0 -14 0 -14 0 -14 0 
-14 0 -14 0 -14 0 -13 0 -14 -1 -14 0 -14 0 -13 0 
-14 0 -14 0 -13 0 -14 0 -13 -1 -14 0 -13 0 -13 0 
-14 0 -13 0 -13 -1 -13 0 -13 0 -13 0 -13 0 -13 -1 
-13 0 -13 0 -13 -1 -13 0 -13 0 -13 -1 -12 0 -13 0 
-13 -1 -12 0 -13 0 -12 -1 -13 0 -12 -1 -12 0 -13 -1 
-12 0 -12 -1 -13 0 -12 -1 -12 0 -12 -1 -12 -1 -12 0 
-12 -1 -12 -1 -12 0 -12 -1 -11 -1 -12 -1 -12 0 -11 -1 
-12 -1 -12 -1 -11 -1 -12 -1 -11 -1 -12 -1 -11 -1 -11 -1 
-11 -1 -12 -1 -11 -1 -11 -1 -11 -1 -11 -1 -11 -2 -11 -1 
-11 -1 -11 -1 -11 -2 -11 -1 -10 -1 -11 -2 -11 -1 -10 -2 
-11 -1 -10 -2 -11 -1 -10 -2 -11 -2 -10 -1 -10 -2 -10 -2 
-11 -1 -10 -2 -10 -2 -10 -2 -10 -2 -10 -2 -10 -2 -10 -2 
-9 -2 -10 -2 -10 -2 -9 -2 -10 -2 -10 -2 -9 -2 -10 -3 
-9 -2 -10 -2 -9 -2 -9 -3 -9 -2 -10 -3 -9 -2 -9 -3 
-9 -2 -9 -3 -9 -2 -9 -3 -9 -2 -8 -3 -9 -3 -9 -3 
-8 -2 -9 -3 -9 -3 -8 -3 -9 -3 -8 -3 -8 -3 -9 -2 
-8 -3 -8 -3 -8 -4 -8 -3 -9 -3 -8 -3 -7 -3 -8 -3 
-8 -3 -8 -4 -8 -3 -8 -3 -7 -3 -8 -4 -8 -3 -7 -3 
-8 -4 -7 -3 -7 -4 -8 -3 -7 -4 -7 -3 -7 -4 -8 -3 
-7 -4 -7 -3 -7 -4 -7 -4 -7 -3 -6 -4 -7 -4 -7 -3 
-7 -4 -6 -4 -7 -3 -7 -4 -6 -4 -7 -4 -6 -3 -6 -4 
-7 -4 -6 -4 -6 -4 -7 -3 -6 -4 -6 -4 -6 -4 -6 -4 
-6 -4 -6 -4 -6 -3 -5 -4 -6 -4 -6 -4 -6 -4 -5 -4 
-6 -4 -6 -4 -5 -4 -6 -4 -5 -4 -5 -4 -6 -3 -5 -4 
-5 -4 -6 -4 -5 -4 -5 -4 -5 -4 -5 -4 -5 -4 -5 -4 
-5 -4 -5 -4 -5 -3 -4 -4 -5 -4 -5 -4 -5 -4 -4 -4 
-5 -4 -4 -4 -5 -4 -4 -3 -5 -4 -4 -4 -5 -4 -4 -4 
-4 -3 -5 -4 -4 -4 -4 -4 -4 -4 -4 -3 -4 -4 -4 -4 
-4 -3 -4 -4 -4 -4 -4 -4 -4 -3 -4 -4 -3 -3 -4 -4 
-4 -4 -3 -3 -4 -4 -4 -3 -3 -4 -4 -3 -3 -4 -4 -3 
-3 -4 -4 -3 -3 -4 -3 -3 -4 -4 -3 -3 -3 -3 -3 -4 
-3 -3 -3 -3 -4 -4 3596 3355 300 MP stroke
-3 -3 -3 -3 -3 -3 -3 -4 -3 -3 -3 -3 -2 -3 -3 -3 
-3 -3 -3 -3 -3 -3 -2 -3 -3 -3 -3 -3 -2 -3 -3 -3 
-3 -3 -2 -3 -3 -3 -2 -3 -3 -3 -2 -3 -2 -2 -3 -3 
-2 -3 -2 -3 -3 -2 -2 -3 -2 -3 -3 -2 -2 -3 -2 -2 
-2 -3 -2 -3 -2 -2 -2 -3 -2 -2 -2 -3 -2 -2 -2 -2 
-2 -3 -2 -2 -2 -2 -2 -3 -2 -2 -2 -2 -2 -3 -1 -2 
-2 -2 -2 -2 -2 -2 -1 -3 -2 -2 -2 -2 -1 -2 -2 -2 
-2 -2 -1 -2 -2 -2 -1 -2 -2 -2 -1 -2 -2 -2 -1 -2 
-2 -1 -1 -2 -1 -2 -2 -2 -1 -2 -2 -1 -1 -2 -1 -2 
-1 -2 -2 -1 -1 -2 -1 -2 -2 -1 -1 -2 -1 -1 -1 -2 
-1 -1 -1 -2 -2 -1 -1 -2 -1 -1 -1 -2 -1 -1 -1 -2 
-1 -1 -1 -2 -1 -1 -1 -1 -1 -2 -1 -1 -1 -1 -1 -1 
-1 -2 -1 -1 -1 -1 -1 -1 0 -2 -1 -1 -1 -1 -1 -1 
-1 -1 -1 -1 0 -1 -1 -2 -1 -1 -1 -1 -1 -1 0 -1 
-1 -1 -1 -1 0 -1 -1 -1 -1 -1 -1 -1 -1 -1 0 -1 
-1 -1 -1 -1 0 -1 -1 -1 -1 -1 -1 -1 0 -1 -1 -1 
-1 -1 0 -1 -1 -1 -1 -1 0 -1 -2 -2 -1 -1 0 -1 
-2 -2 0 -1 -2 -2 -1 -1 0 -1 -2 -2 0 -1 -2 -2 
0 -1 -2 -2 -1 -1 0 -1 -2 -2 0 -1 -2 -2 -1 -1 
0 -1 0 2 -1 1 0 8 -1 1 0 7 -1 1 0 8 
-1 1 0 7 -1 1 0 7 -1 1 0 8 -1 1 0 7 
-1 1 0 7 -1 1 0 8 -1 1 0 7 -1 1 0 8 
-1 1 0 7 -1 1 0 7 -1 1 0 8 -1 1 0 7 
-1 1 0 7 -1 1 0 8 -1 1 0 7 -1 1 0 8 
-1 1 0 7 -1 1 0 7 -1 1 0 8 -1 1 0 7 
-1 1 0 8 -1 1 0 7 -1 1 0 7 -1 1 0 8 
-1 1 0 7 -1 1 0 8 -1 1 0 7 -1 1 0 7 
-1 1 0 8 -1 1 0 7 -1 1 0 8 -1 1 0 7 
-1 1 0 7 -1 1 0 8 -1 1 0 7 -1 1 0 8 
-1 1 0 7 -1 1 0 7 -1 1 0 8 -1 1 0 7 
-1 1 0 8 -1 1 0 7 -1 1 0 8 -1 1 0 7 
-1 1 0 7 -1 1 0 8 -1 1 0 7 -1 1 0 8 
-1 1 0 7 -1 1 0 8 -1 1 0 7 -1 1 0 7 
-1 1 0 8 -1 1 0 7 -1 1 0 8 -1 1 0 7 
-1 1 0 8 -1 1 0 7 -1 1 0 8 -1 1 0 7 
-1 1 0 7 -1 1 0 8 -1 1 0 7 -1 1 0 8 
-1 1 0 7 -1 1 0 8 -1 1 0 7 -1 1 0 8 
-1 1 0 7 -1 1 3895 3028 300 MP stroke
0 8 -1 1 0 7 -1 1 0 7 -1 1 0 8 -1 1 
0 7 -1 1 0 8 -1 1 0 7 -1 1 0 8 -1 1 
0 8 -1 1 0 7 -1 1 0 7 -1 1 0 8 -1 1 
0 7 -1 1 0 8 -1 1 0 7 -1 1 0 8 -1 1 
0 7 -1 1 0 8 -1 1 0 7 -1 1 0 7 -1 1 
0 8 -1 1 0 8 -1 1 0 7 -1 1 0 7 -1 1 
0 8 -1 1 0 8 -1 1 0 7 -1 1 0 7 -1 1 
0 8 -1 1 0 8 -1 1 0 7 -1 1 0 7 -1 1 
0 8 -1 1 1 0 0 -4 0 3 -1 1 0 4 0 -3 
1 -1 0 -8 1 -1 0 -3 0 2 -1 1 0 8 -1 1 
0 8 -1 1 0 8 0 0 0 -8 1 -1 0 -8 1 -1 
0 -8 1 -1 0 -7 1 -1 0 -8 1 -1 0 -7 1 -1 
0 -3 0 3 -1 1 0 7 -1 1 0 8 -1 1 0 7 
-1 2 0 6 -1 2 0 7 -1 2 0 6 -1 3 0 6 
-1 3 0 6 -1 2 0 7 -1 2 0 5 -1 2 0 7 
-1 2 0 6 -1 3 0 6 -1 3 0 6 -1 2 0 7 
-1 2 0 5 -1 2 0 7 -1 2 0 7 -1 2 0 6 
-1 3 0 6 -1 3 0 6 -1 2 0 5 -1 2 0 7 
-1 2 0 7 -1 2 0 7 -1 2 0 7 -1 2 0 6 
-1 3 0 4 -1 2 0 7 -1 2 0 7 -1 2 0 7 
-1 2 0 7 -1 2 0 7 -1 2 0 4 -1 2 0 7 
-1 2 0 7 -1 2 0 7 -1 2 0 7 -1 2 0 7 
-1 2 0 6 -1 3 0 4 -1 2 0 7 -1 2 0 7 
-1 2 0 7 -1 2 0 7 -1 2 0 7 -1 2 0 6 
-1 3 0 4 -1 2 0 7 -1 2 0 7 -1 2 0 7 
-1 2 0 7 -1 2 0 6 -1 3 0 6 -1 3 0 4 
-1 2 0 7 -1 2 0 7 -1 2 0 7 -1 2 0 7 
-1 2 0 7 -1 2 0 6 -1 3 0 4 -1 2 0 7 
-1 2 0 7 -1 2 0 7 -1 2 0 7 -1 2 0 7 
-1 2 0 7 -1 2 0 4 -1 2 0 7 -1 2 0 7 
-1 2 0 7 -1 2 0 7 -1 2 0 7 -1 2 0 7 
-1 2 0 4 -1 2 0 7 -1 2 0 7 -1 2 0 7 
-1 2 0 7 -1 2 0 7 -1 2 0 6 -1 3 0 6 
-1 2 0 7 -1 2 0 7 -1 2 0 4 -1 3 0 6 
-1 3 0 6 -1 2 0 7 -1 2 0 7 -1 2 0 7 
-1 2 0 7 -1 2 0 7 -1 2 0 4 -1 2 0 7 
-1 2 0 7 -1 2 0 7 -1 2 0 7 -1 2 0 7 
-1 2 0 7 -1 2 4024 1924 300 MP stroke
0 5 -1 2 0 7 -1 2 0 7 -1 2 0 7 -1 2 
0 7 -1 2 0 7 -1 2 0 7 -1 2 0 4 -1 2 
0 7 -1 2 0 7 -1 2 0 7 -1 2 0 7 -1 2 
0 7 -1 2 0 7 -1 2 0 6 -1 3 0 6 -1 2 
0 7 -1 2 0 5 -1 2 0 6 -1 2 0 7 -1 2 
0 7 -1 2 0 6 -1 3 0 6 -1 2 0 7 -1 2 
0 7 -1 2 0 6 -1 2 0 7 -1 2 0 7 -1 2 
0 7 -1 2 0 6 -1 3 0 6 -1 3 0 6 -1 2 
0 7 -1 2 0 7 -1 2 0 5 -1 2 0 7 -1 2 
0 7 -1 2 0 7 -1 3 0 7 -1 2 0 4 -1 3 
0 7 -1 2 0 7 -1 2 0 7 -1 3 0 4 -1 2 
0 7 -1 3 0 7 -1 2 0 7 -1 2 0 7 -1 2 
0 5 -1 2 0 7 -1 2 0 6 -1 3 0 6 -1 2 
0 7 -1 2 0 7 -1 2 0 6 -1 2 0 7 -1 2 
0 8 -1 2 0 6 -1 2 0 7 -1 2 0 6 -1 2 
0 6 -1 2 0 8 -1 2 0 7 -1 2 0 6 -1 2 
0 6 -1 2 0 7 -1 2 0 6 -1 2 0 7 -1 2 
0 7 -1 2 0 7 -1 2 0 7 -1 2 0 7 -1 2 
0 8 -1 2 0 5 -1 2 0 8 -1 2 0 5 -1 2 
0 8 -1 2 0 5 -1 3 0 8 -1 2 0 5 -1 3 
0 7 -1 3 0 5 -1 3 0 5 -1 2 0 8 -1 2 
0 5 -1 3 0 7 -1 2 0 8 -1 2 0 5 -1 2 
0 7 -1 2 0 7 -1 2 0 7 -1 2 0 6 -1 2 
0 8 -1 2 0 6 -1 2 0 7 -1 2 0 7 -1 1 
0 7 -1 2 0 8 -1 1 0 7 -1 1 0 9 -1 1 
0 7 -1 2 0 7 -1 1 0 8 -1 2 0 6 -1 2 
0 6 -1 2 0 7 -1 2 0 7 -1 3 0 5 -1 2 
0 8 -1 3 0 5 -1 3 0 6 -1 3 0 6 -1 3 
0 6 -1 3 0 6 -1 3 0 4 -1 3 0 6 -1 4 
0 6 -1 4 0 3 -1 3 0 7 -1 4 0 3 -1 3 
0 7 -1 4 0 6 -1 4 0 3 -1 3 0 7 -1 3 
0 6 -1 4 0 6 -1 3 0 6 -1 3 0 5 -1 3 
0 5 -1 3 0 5 -1 3 0 6 -1 3 0 8 -1 1 
0 7 -1 1 0 8 -1 1 0 8 0 -1 -1 1 1 1 
1 -1 1 -1 1 -1 1 -1 1 -1 1 0 1 -1 1 -1 
1 -1 1 -1 1 -1 1 -1 1 -1 1 0 1 -1 1 -1 
1 -1 1 -1 1 -1 1 -1 1 -1 1 0 1 -1 1 -1 
1 -1 1 -1 1 -1 4131 772 300 MP stroke
1 -1 1 -1 1 -1 1 0 1 -1 1 -1 1 -1 1 -1 
1 -1 1 -1 1 0 1 -1 1 -1 1 -1 1 -1 1 -1 
1 -1 1 -1 1 -1 1 0 1 -1 1 -1 1 -1 1 -1 
1 -1 1 -1 1 -1 1 0 1 -1 1 -1 1 -1 1 -1 
1 -1 1 -1 1 0 1 -1 1 -1 1 -1 1 -1 0 -1 
2 -2 0 -7 1 -1 0 -8 1 -1 0 -8 1 -1 0 -7 
1 -1 0 -9 0 0 0 2 0 -1 1 -1 0 -8 1 -1 
0 -8 1 -1 0 -7 1 -1 0 -3 0 2 -1 1 0 8 
-1 1 0 7 -1 1 0 8 -1 1 1 0 0 -9 1 -1 
0 -7 1 -2 0 -6 1 -2 0 -7 1 -2 0 -6 1 -2 
0 -8 1 -2 0 -6 1 -1 0 -8 1 -1 0 -8 1 -1 
0 -2 0 2 -1 1 0 8 -1 1 0 7 -1 2 0 6 
-1 2 0 7 -1 2 0 7 -1 3 0 5 -1 3 0 5 
-1 3 0 8 -1 3 0 5 -1 3 0 5 -1 2 0 8 
-1 2 0 7 -1 2 0 7 -1 1 0 7 -1 1 1 0 
1 -1 1 -1 1 -1 1 0 1 -1 1 -1 1 -1 1 -1 
1 -1 1 -1 1 0 1 -1 0 -1 1 -1 1 0 1 -1 
1 -1 1 -1 1 -1 1 -1 1 -1 1 0 1 -1 1 -1 
2 -2 1 -1 1 -1 1 -1 2 -1 1 -1 2 -1 1 -2 
2 -1 1 -1 2 -2 1 -1 2 -2 2 -1 1 -2 2 -1 
2 -2 2 -1 2 -2 2 -2 2 -1 2 -2 2 -2 2 -2 
2 -2 2 -2 3 -1 2 -2 2 -2 3 -3 2 -2 3 -2 
2 -2 3 -2 2 -2 3 -3 3 -2 3 -2 2 -3 3 -2 
3 -3 3 -2 3 -3 3 -3 3 -2 4 -3 3 -3 3 -3 
3 -3 4 -2 3 -3 4 -3 3 -3 4 -4 4 -3 3 -3 
4 -3 4 -3 4 -4 4 -3 4 -3 4 -4 4 -3 4 -4 
4 -3 5 -4 4 -4 5 -3 4 -4 5 -4 4 -4 5 -4 
4 -4 5 -4 5 -4 5 -4 5 -4 5 -4 5 -5 5 -4 
5 -4 5 -5 6 -4 5 -4 6 -5 5 -5 6 -4 5 -5 
6 -4 6 -5 5 -5 6 -5 6 -5 6 -5 6 -5 6 -5 
6 -5 7 -5 6 -5 6 -5 6 -5 7 -6 6 -5 7 -5 
7 -6 6 -5 7 -6 7 -5 7 -6 7 -5 7 -6 7 -6 
7 -6 7 -5 7 -6 7 -6 8 -6 7 -6 7 -6 8 -6 
7 -6 8 -6 8 -6 7 -6 8 -6 8 -7 8 -6 8 -6 
8 -6 8 -7 8 -6 8 -6 8 -7 8 -6 8 -7 9 -6 
8 -7 8 -6 9 -7 8 -7 9 -6 8 -7 9 -6 9 -7 
8 -7 9 -7 9 -6 9 -7 8 -7 9 -7 9 -6 9 -7 
9 -7 9 -7 9 -7 3281 1469 300 MP stroke
9 -7 9 -6 9 -7 9 -7 10 -7 9 -7 9 -7 9 -7 
9 -7 10 -7 9 -7 9 -6 10 -7 9 -7 9 -7 10 -7 
9 -7 9 -7 10 -7 9 -7 9 -6 10 -7 9 -7 9 -7 
10 -7 9 -6 10 -7 9 -7 9 -7 10 -6 9 -7 9 -7 
10 -6 9 -7 9 -6 9 -7 10 -6 9 -7 9 -6 9 -7 
9 -6 9 -6 9 -7 9 -6 9 -6 9 -6 9 -7 9 -6 
9 -54 8 -60 9 -60 9 -58 8 -58 8 -57 9 -56 8 -55 
8 -54 7 -52 8 -51 7 -50 8 -49 7 -46 6 -45 7 -44 
6 -41 6 -40 6 -37 5 -36 5 -34 5 -31 4 -29 4 -27 
4 -24 3 -22 3 -20 3 -17 2 -14 2 -12 1 -9 1 -6 
1 -4 -1 -1 -1 0 -1 -1 -2 -2 -2 -1 -2 -2 -3 -3 
-4 -3 -4 -3 -5 -4 2676 3062 92 MP stroke
gr

c9
0 sg
%%IncludeResource: font Helvetica
/Helvetica /WindowsLatin1Encoding 83.3333 FMSR

 732 4037 mt 
( ) s
4483  536 mt 
( ) s
8.33333 w
DO
SO
12.5 w
0.1 sg
 750  499 mt 4500  499 L
 750 4000 mt 4500 4000 L
4500 4000 mt 4500  499 L
 750 4000 mt  750  499 L
 750 4000 mt 4500 4000 L
 750 4000 mt  750  499 L
 750 4000 mt  750 3943 L
 750  499 mt  750  556 L
%%IncludeResource: font Helvetica
/Helvetica /WindowsLatin1Encoding 133.333 FMSR

 713 4147 mt 
(0) s
1428 4000 mt 1428 3943 L
1428  499 mt 1428  556 L
1336 4147 mt 
(0.5) s
2106 4000 mt 2106 3943 L
2106  499 mt 2106  556 L
2069 4147 mt 
(1) s
2784 4000 mt 2784 3943 L
2784  499 mt 2784  556 L
2692 4147 mt 
(1.5) s
3462 4000 mt 3462 3943 L
3462  499 mt 3462  556 L
3425 4147 mt 
(2) s
4140 4000 mt 4140 3943 L
4140  499 mt 4140  556 L
4048 4147 mt 
(2.5) s
4147 4348 mt 
(x 10) s
%%IncludeResource: font Helvetica
/Helvetica /WindowsLatin1Encoding 88.8889 FMSR

4399 4266 mt 
(-4) s
 750 3750 mt  806 3750 L
4500 3750 mt 4443 3750 L
%%IncludeResource: font Helvetica
/Helvetica /WindowsLatin1Encoding 133.333 FMSR

 463 3799 mt 
(-0.2) s
 750 3250 mt  806 3250 L
4500 3250 mt 4443 3250 L
 463 3299 mt 
(-0.1) s
 750 2750 mt  806 2750 L
4500 2750 mt 4443 2750 L
 652 2799 mt 
(0) s
 750 2249 mt  806 2249 L
4500 2249 mt 4443 2249 L
 541 2298 mt 
(0.1) s
 750 1749 mt  806 1749 L
4500 1749 mt 4443 1749 L
 541 1798 mt 
(0.2) s
 750 1249 mt  806 1249 L
4500 1249 mt 4443 1249 L
 541 1298 mt 
(0.3) s
 750  749 mt  806  749 L
4500  749 mt 4443  749 L
 541  798 mt 
(0.4) s
 750  499 mt 4500  499 L
 750 4000 mt 4500 4000 L
4500 4000 mt 4500  499 L
 750 4000 mt  750  499 L
0 sg
%%IncludeResource: font Helvetica-Bold
/Helvetica-Bold /WindowsLatin1Encoding 125 FMSR

2478  729 mt 
(Loading 1) s
gs 2153 585 945 531 rc
16.6667 w
250 0 2203 683 2 MP stroke
gr

16.6667 w
2478  897 mt 
(Loading 2) s
gs 2153 585 945 531 rc
c8
250 0 2203 850 2 MP stroke
gr

c8
0 sg
2478 1064 mt 
(Loading 3) s
gs 2153 585 945 531 rc
c9
250 0 2203 1016 2 MP stroke
12.5 w
gr

12.5 w
c9

end %%Color Dict

eplot
%%EndObject

epage
end

showpage

%%Trailer
%%EOF
