%!PS-Adobe-3.0 EPSF-3.0
%%Creator: MATLAB, The MathWorks, Inc. Version 8.1.0.604 (R2013a). Operating System: Microsoft Windows 7.
%%Title: .\Time-NormalForce_NonLinear.eps
%%CreationDate: 08/15/2013  23:13:37
%%DocumentNeededFonts: Helvetica-Bold
%%+ Helvetica
%%DocumentProcessColors: Cyan Magenta Yellow Black
%%LanguageLevel: 2
%%Pages: 1
%%BoundingBox:    36    93   577   572
%%EndComments

%%BeginProlog
% MathWorks dictionary
/MathWorks 160 dict begin
% definition operators
/bdef {bind def} bind def
/ldef {load def} bind def
/xdef {exch def} bdef
/xstore {exch store} bdef
% operator abbreviations
/c  /clip ldef
/cc /concat ldef
/cp /closepath ldef
/gr /grestore ldef
/gs /gsave ldef
/mt /moveto ldef
/np /newpath ldef
/cm /currentmatrix ldef
/sm /setmatrix ldef
/rm /rmoveto ldef
/rl /rlineto ldef
/s {show newpath} bdef
/sc {setcmykcolor} bdef
/sr /setrgbcolor ldef
/sg /setgray ldef
/w /setlinewidth ldef
/j /setlinejoin ldef
/cap /setlinecap ldef
/rc {rectclip} bdef
/rf {rectfill} bdef
% page state control
/pgsv () def
/bpage {/pgsv save def} bdef
/epage {pgsv restore} bdef
/bplot /gsave ldef
/eplot {stroke grestore} bdef
% orientation switch
/portraitMode 0 def /landscapeMode 1 def /rotateMode 2 def
% coordinate system mappings
/dpi2point 0 def
% font control
/FontSize 0 def
/FMS {/FontSize xstore findfont [FontSize 0 0 FontSize neg 0 0]
  makefont setfont} bdef
/ISOLatin1Encoding where {pop /WindowsLatin1Encoding 256 array bdef
ISOLatin1Encoding WindowsLatin1Encoding copy pop
/.notdef/.notdef/quotesinglbase/florin/quotedblbase/ellipsis/dagger
/daggerdbl/circumflex/perthousand/Scaron/guilsinglleft/OE/.notdef/.notdef
/.notdef/.notdef/quoteleft/quoteright/quotedblleft/quotedblright/bullet
/endash/emdash/tilde/trademark/scaron/guilsinglright/oe/.notdef/.notdef
/Ydieresis WindowsLatin1Encoding 128 32 getinterval astore pop}
{/WindowsLatin1Encoding StandardEncoding bdef} ifelse
/reencode {exch dup where {pop load} {pop StandardEncoding} ifelse
  exch dup 3 1 roll findfont dup length dict begin
  { 1 index /FID ne {def}{pop pop} ifelse } forall
  /Encoding exch def currentdict end definefont pop} bdef
/isroman {findfont /CharStrings get /Agrave known} bdef
/FMSR {3 1 roll 1 index dup isroman {reencode} {pop pop} ifelse
  exch FMS} bdef
/csm {1 dpi2point div -1 dpi2point div scale neg translate
 dup landscapeMode eq {pop -90 rotate}
  {rotateMode eq {90 rotate} if} ifelse} bdef
% line types: solid, dotted, dashed, dotdash
/SO { [] 0 setdash } bdef
/DO { [.5 dpi2point mul 4 dpi2point mul] 0 setdash } bdef
/DA { [6 dpi2point mul] 0 setdash } bdef
/DD { [.5 dpi2point mul 4 dpi2point mul 6 dpi2point mul 4
  dpi2point mul] 0 setdash } bdef
% macros for lines and objects
/L {lineto stroke} bdef
/MP {3 1 roll moveto 1 sub {rlineto} repeat} bdef
/AP {{rlineto} repeat} bdef
/PDlw -1 def
/W {/PDlw currentlinewidth def setlinewidth} def
/PP {closepath eofill} bdef
/DP {closepath stroke} bdef
/MR {4 -2 roll moveto dup  0 exch rlineto exch 0 rlineto
  neg 0 exch rlineto closepath} bdef
/FR {MR stroke} bdef
/PR {MR fill} bdef
/L1i {{currentfile picstr readhexstring pop} image} bdef
/tMatrix matrix def
/MakeOval {newpath tMatrix currentmatrix pop translate scale
0 0 1 0 360 arc tMatrix setmatrix} bdef
/FO {MakeOval stroke} bdef
/PO {MakeOval fill} bdef
/PD {currentlinewidth 2 div 0 360 arc fill
   PDlw -1 eq not {PDlw w /PDlw -1 def} if} def
/FA {newpath tMatrix currentmatrix pop translate scale
  0 0 1 5 -2 roll arc tMatrix setmatrix stroke} bdef
/PA {newpath tMatrix currentmatrix pop	translate 0 0 moveto scale
  0 0 1 5 -2 roll arc closepath tMatrix setmatrix fill} bdef
/FAn {newpath tMatrix currentmatrix pop translate scale
  0 0 1 5 -2 roll arcn tMatrix setmatrix stroke} bdef
/PAn {newpath tMatrix currentmatrix pop translate 0 0 moveto scale
  0 0 1 5 -2 roll arcn closepath tMatrix setmatrix fill} bdef
/vradius 0 def /hradius 0 def /lry 0 def
/lrx 0 def /uly 0 def /ulx 0 def /rad 0 def
/MRR {/vradius xdef /hradius xdef /lry xdef /lrx xdef /uly xdef
  /ulx xdef newpath tMatrix currentmatrix pop ulx hradius add uly
  vradius add translate hradius vradius scale 0 0 1 180 270 arc 
  tMatrix setmatrix lrx hradius sub uly vradius add translate
  hradius vradius scale 0 0 1 270 360 arc tMatrix setmatrix
  lrx hradius sub lry vradius sub translate hradius vradius scale
  0 0 1 0 90 arc tMatrix setmatrix ulx hradius add lry vradius sub
  translate hradius vradius scale 0 0 1 90 180 arc tMatrix setmatrix
  closepath} bdef
/FRR {MRR stroke } bdef
/PRR {MRR fill } bdef
/MlrRR {/lry xdef /lrx xdef /uly xdef /ulx xdef /rad lry uly sub 2 div def
  newpath tMatrix currentmatrix pop ulx rad add uly rad add translate
  rad rad scale 0 0 1 90 270 arc tMatrix setmatrix lrx rad sub lry rad
  sub translate rad rad scale 0 0 1 270 90 arc tMatrix setmatrix
  closepath} bdef
/FlrRR {MlrRR stroke } bdef
/PlrRR {MlrRR fill } bdef
/MtbRR {/lry xdef /lrx xdef /uly xdef /ulx xdef /rad lrx ulx sub 2 div def
  newpath tMatrix currentmatrix pop ulx rad add uly rad add translate
  rad rad scale 0 0 1 180 360 arc tMatrix setmatrix lrx rad sub lry rad
  sub translate rad rad scale 0 0 1 0 180 arc tMatrix setmatrix
  closepath} bdef
/FtbRR {MtbRR stroke } bdef
/PtbRR {MtbRR fill } bdef
/stri 6 array def /dtri 6 array def
/smat 6 array def /dmat 6 array def
/tmat1 6 array def /tmat2 6 array def /dif 3 array def
/asub {/ind2 exch def /ind1 exch def dup dup
  ind1 get exch ind2 get sub exch } bdef
/tri_to_matrix {
  2 0 asub 3 1 asub 4 0 asub 5 1 asub
  dup 0 get exch 1 get 7 -1 roll astore } bdef
/compute_transform {
  dmat dtri tri_to_matrix tmat1 invertmatrix 
  smat stri tri_to_matrix tmat2 concatmatrix } bdef
/ds {stri astore pop} bdef
/dt {dtri astore pop} bdef
/db {2 copy /cols xdef /rows xdef mul dup 3 mul string
  currentfile 
  3 index 0 eq {/ASCIIHexDecode filter}
  {/ASCII85Decode filter 3 index 2 eq {/RunLengthDecode filter} if }
  ifelse exch readstring pop
  dup 0 3 index getinterval /rbmap xdef
  dup 2 index dup getinterval /gbmap xdef
  1 index dup 2 mul exch getinterval /bbmap xdef pop pop}bdef
/it {gs np dtri aload pop moveto lineto lineto cp c
  cols rows 8 compute_transform 
  rbmap gbmap bbmap true 3 colorimage gr}bdef
/il {newpath moveto lineto stroke}bdef
currentdict end def
%%EndProlog

%%BeginSetup
MathWorks begin

0 cap

end
%%EndSetup

%%Page: 1 1
%%BeginPageSetup
%%PageBoundingBox:    36    93   577   572
MathWorks begin
bpage
%%EndPageSetup

%%BeginObject: obj1
bplot

/dpi2point 8.33333 def
portraitMode 0150 5158 csm

  153   390  4512  3990 rc
85 dict begin %Colortable dictionary
/c0 { 0.000000 0.000000 0.000000 sr} bdef
/c1 { 1.000000 1.000000 1.000000 sr} bdef
/c2 { 0.900000 0.000000 0.000000 sr} bdef
/c3 { 0.000000 0.820000 0.000000 sr} bdef
/c4 { 0.000000 0.000000 0.800000 sr} bdef
/c5 { 0.910000 0.820000 0.320000 sr} bdef
/c6 { 1.000000 0.260000 0.820000 sr} bdef
/c7 { 0.000000 0.820000 0.820000 sr} bdef
c0
1 j
1 sg
   0    0 5001 5001 rf
12.5 w
0 3500 3750 0 0 -3500 750 4000 4 MP
PP
-3750 0 0 3500 3750 0 0 -3500 750 4000 5 MP stroke
gs 750 500 3751 3501 rc
16.6667 w
/c8 { 1.000000 0.000000 0.000000 sr} bdef
c8
9 0 9 0 10 0 9 0 10 0 9 0 9 0 10 0 
9 0 9 0 10 0 9 0 10 0 9 0 9 0 10 0 
9 0 9 0 10 0 9 0 10 0 9 0 9 0 10 0 
9 0 9 0 10 0 9 0 9 0 10 0 9 0 10 0 
9 0 9 0 10 0 9 0 10 0 9 0 9 0 10 0 
9 0 9 0 10 0 9 0 10 0 9 0 9 0 10 0 
9 0 9 -30 10 -35 9 -35 10 -35 9 -35 9 -35 10 -35 
9 -35 9 -34 10 -35 9 -35 10 -35 9 -35 9 -34 10 -35 
9 -34 9 -35 10 -34 9 -35 9 -34 10 -34 9 -34 10 -34 
9 -34 9 -34 10 -34 9 -33 10 -34 9 -34 9 -33 10 -33 
9 -33 9 -33 10 -33 9 -33 10 -33 9 -32 9 -32 10 -33 
9 -32 9 -32 10 -31 9 -32 9 -31 10 -32 9 -31 10 -31 
9 -31 9 -30 10 -31 9 -30 10 -30 9 -30 9 -29 10 -30 
9 -29 9 -29 10 -29 9 -29 9 -28 10 -28 9 -28 10 -28 
9 -28 9 -27 10 -27 9 -27 10 -27 9 -26 9 -26 10 -26 
9 -26 9 -25 10 -25 9 -25 10 -25 9 -24 9 -24 10 -24 
9 -24 9 -23 10 -23 9 -23 9 -22 10 -23 9 -22 10 -21 
9 -22 9 -21 10 -20 9 -21 10 -20 9 -20 9 -19 10 -20 
9 -19 9 -18 10 -18 9 -18 9 -18 10 -18 9 -17 10 -16 
9 -17 9 -16 10 -16 9 -15 10 -15 9 -15 9 -14 10 -14 
9 -14 9 -14 10 -13 9 -12 10 -13 9 -12 9 -12 10 -11 
9 -11 9 -11 10 -10 9 -10 9 -9 10 -10 9 -9 10 -8 
9 -8 9 -8 10 -8 9 -7 10 -7 9 -6 9 -6 10 -6 
9 -5 9 -5 10 -5 9 -4 9 -4 10 -3 9 -3 10 -3 
9 -2 9 -3 10 -1 9 -2 9 0 10 -1 9 0 10 0 
9 0 9 1 10 2 9 1 10 2 9 3 9 2 10 3 
9 4 9 4 10 4 9 4 9 5 10 6 9 5 10 6 
9 7 9 6 10 7 9 8 10 8 9 8 9 8 10 9 
9 9 9 10 10 10 9 10 9 11 10 11 9 11 10 12 
9 12 9 12 10 13 9 13 9 13 10 14 9 14 10 14 
9 15 9 15 10 15 9 16 10 16 9 17 9 16 10 17 
9 18 9 17 10 18 9 18 9 19 10 19 9 19 10 20 
9 19 9 21 10 20 9 21 10 21 9 21 9 22 10 21 
9 23 9 22 10 23 9 23 9 23 10 24 9 23 10 25 
9 24 9 24 10 25 9 25 9 26 10 26 9 25 10 27 
9 26 9 26 10 27 9 27 10 28 9 27 9 28 10 28 
9 28 9 29 10 28 9 29 9 29 10 29 9 30 10 29 
9 30 9 30 10 31 1218 2170 300 MP stroke
9 30 10 31 9 30 9 31 10 31 9 32 9 31 10 32 
9 31 9 32 10 32 9 32 10 33 9 32 9 33 10 33 
9 33 9 32 10 34 9 33 10 33 9 34 9 33 10 34 
9 34 10 33 9 34 9 34 10 35 9 34 9 34 10 34 
9 35 9 34 10 35 9 34 10 35 9 35 9 34 10 35 
9 35 9 35 10 35 9 35 10 35 9 35 9 35 10 35 
9 35 9 34 750 500 51 MP stroke
gr

16.6667 w
c8
0.1 sg
%%IncludeResource: font Helvetica-Bold
/Helvetica-Bold /WindowsLatin1Encoding 183.333 FMSR

2273 4322 mt 
(Time [s]) s
 346 2993 mt  -90 rotate
(Normal Force [N]) s
90 rotate
gs 750 500 3751 3501 rc
/c9 { 0.000000 0.000000 1.000000 sr} bdef
c9
10 0 9 0 9 0 10 0 9 0 10 0 9 0 9 0 
10 0 9 0 9 0 10 0 9 0 10 0 9 0 9 0 
10 0 9 0 9 0 10 0 9 0 10 0 9 0 9 0 
10 0 9 0 9 0 10 0 9 0 9 0 10 0 9 0 
10 0 9 0 9 0 10 0 9 0 10 0 9 0 9 0 
10 0 9 0 9 0 10 0 9 0 10 0 9 0 9 0 
10 0 9 -17 9 -28 10 -28 9 -28 10 -28 9 -29 9 -28 
10 -28 9 -28 9 -28 10 -29 9 -28 10 -28 9 -29 9 -28 
10 -28 9 -28 9 -29 10 -28 9 -28 9 -28 10 -29 9 -28 
10 -28 9 -28 9 -28 10 -28 9 -28 10 -28 9 -28 9 -28 
10 -28 9 -27 9 -28 10 -28 9 -27 10 -28 9 -27 9 -27 
10 -28 9 -27 9 -27 10 -27 9 -27 9 -27 10 -26 9 -27 
10 -27 9 -26 9 -26 10 -27 9 -26 10 -26 9 -25 9 -26 
10 -26 9 -25 9 -26 10 -25 9 -25 9 -25 10 -24 9 -25 
10 -24 9 -25 9 -24 10 -24 9 -24 10 -23 9 -24 9 -23 
10 -23 9 -23 9 -23 10 -23 9 -22 10 -22 9 -23 9 -21 
10 -22 9 -21 9 -22 10 -21 9 -21 9 -20 10 -21 9 -20 
10 -20 9 -20 9 -19 10 -20 9 -19 10 -19 9 -18 9 -19 
10 -18 9 -18 9 -17 10 -18 9 -17 9 -17 10 -17 9 -16 
10 -16 9 -16 9 -16 10 -15 9 -16 10 -15 9 -14 9 -15 
10 -14 9 -13 9 -14 10 -13 9 -13 10 -13 9 -12 9 -12 
10 -12 9 -12 9 -11 10 -11 9 -11 9 -10 10 -10 9 -10 
10 -10 9 -9 9 -9 10 -8 9 -9 10 -8 9 -7 9 -8 
10 -7 9 -7 9 -6 10 -6 9 -6 9 -5 10 -6 9 -4 
10 -5 9 -4 9 -4 10 -4 9 -3 9 -3 10 -2 9 -3 
10 -2 9 -1 9 -2 10 -1 9 0 10 -1 9 0 9 1 
10 0 9 1 9 2 10 1 9 2 9 3 10 2 9 3 
10 4 9 3 9 4 10 5 9 4 10 5 9 6 9 5 
10 6 9 7 9 6 10 7 9 8 9 7 10 8 9 9 
10 8 9 9 9 9 10 10 9 10 9 10 10 11 9 11 
10 11 9 12 9 12 10 12 9 12 10 13 9 13 9 14 
10 14 9 14 9 14 10 15 9 15 9 16 10 15 9 17 
10 16 9 17 9 16 10 18 9 17 10 18 9 18 9 19 
10 19 9 19 9 19 10 20 9 20 9 20 10 20 9 21 
10 21 9 22 9 21 10 22 9 22 9 23 10 23 9 23 
10 23 9 23 9 24 10 24 9 25 10 24 9 25 9 25 
10 26 9 25 9 26 10 26 9 26 9 27 10 27 9 27 
10 27 9 27 9 28 1228 2138 300 MP stroke
10 28 9 28 10 29 9 28 9 29 10 29 9 29 9 29 
10 30 9 30 9 30 10 30 9 30 10 31 9 31 9 30 
10 32 9 31 9 31 10 32 9 31 10 32 9 32 9 33 
10 32 9 32 10 33 9 33 9 33 10 33 9 33 9 33 
10 34 9 33 9 34 10 34 9 33 10 34 9 34 9 35 
10 34 9 34 9 35 10 34 9 35 10 34 9 35 9 35 
10 35 9 35 9 34 750 500 52 MP stroke
0 sg
10 0 9 0 9 0 10 0 9 0 9 0 10 0 9 0 
10 0 9 0 9 0 10 0 9 0 9 0 10 0 9 0 
10 0 9 0 9 0 10 0 9 0 9 0 10 0 9 0 
10 0 9 0 9 0 10 0 9 0 9 0 10 0 9 0 
9 0 10 0 9 0 10 0 9 0 9 0 10 0 9 0 
10 0 9 0 9 0 10 0 9 0 9 0 10 0 9 0 
10 0 9 -16 9 -22 10 -21 9 -21 9 -21 10 -22 9 -21 
10 -21 9 -22 9 -21 10 -22 9 -22 9 -21 10 -22 9 -22 
10 -22 9 -22 9 -22 10 -22 9 -21 9 -22 10 -22 9 -23 
9 -22 10 -22 9 -22 10 -22 9 -22 9 -22 10 -22 9 -22 
10 -22 9 -23 9 -22 10 -22 9 -22 9 -22 10 -22 9 -22 
10 -22 9 -22 9 -22 10 -22 9 -22 9 -22 10 -22 9 -22 
9 -22 10 -21 9 -22 10 -22 9 -21 9 -22 10 -22 9 -21 
10 -21 9 -22 9 -21 10 -21 9 -21 9 -21 10 -21 9 -21 
9 -21 10 -21 9 -21 10 -20 9 -21 9 -20 10 -20 9 -21 
10 -20 9 -20 9 -20 10 -20 9 -19 9 -20 10 -19 9 -20 
10 -19 9 -19 9 -19 10 -19 9 -18 9 -19 10 -18 9 -19 
9 -18 10 -18 9 -18 10 -18 9 -17 9 -18 10 -17 9 -17 
10 -17 9 -17 9 -16 10 -17 9 -16 9 -16 10 -16 9 -16 
9 -16 10 -15 9 -15 10 -15 9 -15 9 -15 10 -14 9 -15 
10 -14 9 -13 9 -14 10 -14 9 -13 9 -13 10 -13 9 -12 
10 -13 9 -12 9 -12 10 -12 9 -11 9 -12 10 -11 9 -11 
9 -10 10 -11 9 -10 10 -10 9 -10 9 -9 10 -9 9 -9 
10 -9 9 -8 9 -9 10 -8 9 -7 9 -8 10 -7 9 -7 
9 -7 10 -6 9 -6 10 -6 9 -6 9 -5 10 -5 9 -5 
9 -5 10 -4 9 -4 10 -4 9 -3 9 -3 10 -3 9 -3 
10 -2 9 -2 9 -2 10 -2 9 -1 9 -1 10 -1 9 0 
9 0 10 0 9 1 10 1 9 1 9 1 10 2 9 2 
10 2 9 3 9 3 10 3 9 3 9 4 10 4 9 5 
9 5 10 5 9 5 10 5 9 6 9 7 10 6 9 7 
9 7 10 8 9 7 10 9 9 8 9 9 10 9 9 9 
10 9 9 10 9 11 10 10 9 11 9 11 10 12 9 11 
9 12 10 13 9 12 10 13 9 14 9 13 10 14 9 14 
10 15 9 15 9 15 10 15 9 16 9 16 10 16 9 17 
9 17 10 17 9 17 10 18 9 18 9 19 10 18 9 19 
9 20 10 19 9 20 10 20 9 20 9 21 10 21 9 21 
10 22 9 22 9 22 10 22 9 23 9 22 10 24 9 23 
9 24 10 24 9 24 1256 2137 300 MP stroke
10 24 9 25 9 25 10 25 9 26 10 26 9 26 9 26 
10 27 9 26 9 27 10 28 9 27 9 28 10 28 9 28 
10 28 9 29 9 29 10 29 9 29 9 30 10 29 9 30 
10 30 9 31 9 30 10 31 9 31 10 31 9 31 9 32 
10 32 9 32 9 32 10 32 9 32 9 33 10 33 9 33 
10 33 9 33 9 34 10 33 9 34 9 34 10 34 9 34 
10 34 9 35 9 34 10 35 9 35 9 34 750 500 55 MP stroke
/c10 { 1.000000 0.000000 1.000000 sr} bdef
c10
9 0 9 0 10 0 9 0 10 0 9 0 9 0 10 0 
9 0 9 0 10 0 9 0 10 0 9 0 9 0 10 0 
9 0 9 0 10 0 9 0 10 0 9 0 9 0 10 0 
9 0 9 0 10 0 9 0 10 0 9 0 9 0 10 0 
9 0 9 0 10 0 9 0 9 0 10 0 9 0 10 0 
9 0 9 0 10 0 9 0 10 0 9 0 9 0 10 0 
9 0 9 -1 10 -17 9 -18 10 -18 9 -18 9 -17 10 -18 
9 -18 9 -18 10 -18 9 -19 10 -18 9 -18 9 -19 10 -18 
9 -18 9 -19 10 -19 9 -18 10 -19 9 -19 9 -18 10 -19 
9 -19 9 -19 10 -19 9 -19 9 -19 10 -19 9 -19 10 -19 
9 -19 9 -19 10 -19 9 -20 10 -19 9 -19 9 -19 10 -19 
9 -20 9 -19 10 -19 9 -19 10 -20 9 -19 9 -19 10 -19 
9 -20 9 -19 10 -19 9 -19 9 -20 10 -19 9 -19 10 -19 
9 -19 9 -19 10 -19 9 -19 10 -19 9 -19 9 -19 10 -19 
9 -19 9 -19 10 -18 9 -19 9 -19 10 -18 9 -19 10 -18 
9 -19 9 -18 10 -18 9 -18 10 -18 9 -18 9 -18 10 -18 
9 -18 9 -18 10 -18 9 -17 10 -18 9 -17 9 -17 10 -17 
9 -18 9 -17 10 -16 9 -17 9 -17 10 -16 9 -17 10 -16 
9 -17 9 -16 10 -16 9 -15 10 -16 9 -16 9 -15 10 -16 
9 -15 9 -15 10 -15 9 -15 9 -14 10 -15 9 -14 10 -14 
9 -14 9 -14 10 -14 9 -14 10 -13 9 -13 9 -13 10 -13 
9 -13 9 -12 10 -13 9 -12 10 -12 9 -12 9 -12 10 -11 
9 -11 9 -11 10 -11 9 -11 9 -11 10 -10 9 -10 10 -10 
9 -10 9 -9 10 -9 9 -9 10 -9 9 -9 9 -8 10 -9 
9 -8 9 -7 10 -8 9 -7 9 -7 10 -7 9 -7 10 -6 
9 -6 9 -6 10 -6 9 -5 9 -6 10 -5 9 -4 10 -5 
9 -4 9 -4 10 -4 9 -3 10 -3 9 -3 9 -3 10 -3 
9 -2 9 -2 10 -1 9 -2 9 -1 10 -1 9 0 10 -1 
9 0 9 1 10 0 9 1 10 1 9 1 9 2 10 2 
9 2 9 2 10 3 9 3 9 3 10 4 9 4 10 4 
9 4 9 5 10 5 9 5 9 6 10 6 9 6 10 7 
9 6 9 7 10 8 9 7 10 8 9 9 9 8 10 9 
9 9 9 10 10 9 9 10 9 11 10 10 9 11 10 11 
9 12 9 12 10 12 9 12 10 13 9 13 9 13 10 14 
9 14 9 14 10 15 9 14 9 16 10 15 9 16 10 16 
9 16 9 17 10 16 9 18 9 17 10 18 9 18 10 18 
9 19 9 19 10 19 9 20 10 19 9 21 9 20 10 21 
9 21 9 21 10 21 1293 2178 300 MP stroke
9 22 9 22 10 23 9 22 10 23 9 23 9 24 10 24 
9 24 10 24 9 25 9 24 10 25 9 26 9 25 10 26 
9 26 9 27 10 27 9 26 10 28 9 27 9 28 10 28 
9 28 9 28 10 29 9 29 10 29 9 29 9 30 10 30 
9 30 10 30 9 30 9 31 10 31 9 31 9 32 10 31 
9 32 9 32 10 32 9 32 10 33 9 33 9 33 10 33 
9 33 9 34 10 34 9 34 10 34 9 34 9 34 10 35 
9 35 9 34 750 500 59 MP stroke
/c11 { 1.000000 1.000000 0.000000 sr} bdef
c11
9 0 9 0 10 0 9 0 10 0 9 0 9 0 10 0 
9 0 10 0 9 0 9 0 10 0 9 0 9 0 10 0 
9 0 10 0 9 0 9 0 10 0 9 0 9 0 10 0 
9 0 10 0 9 0 9 0 10 0 9 0 9 0 10 0 
9 0 10 0 9 0 9 0 10 0 9 0 9 0 10 0 
9 0 9 0 10 0 9 0 10 0 9 0 9 0 10 0 
9 0 10 -5 9 -14 9 -14 10 -14 9 -14 9 -15 10 -14 
9 -15 10 -14 9 -15 9 -15 10 -15 9 -14 9 -15 10 -15 
9 -16 10 -15 9 -15 9 -15 10 -16 9 -15 9 -15 10 -16 
9 -16 10 -15 9 -16 9 -16 10 -15 9 -16 9 -16 10 -16 
9 -16 9 -16 10 -16 9 -16 10 -16 9 -16 9 -16 10 -17 
9 -16 10 -16 9 -17 9 -16 10 -16 9 -17 9 -16 10 -16 
9 -17 10 -16 9 -17 9 -16 10 -17 9 -16 9 -17 10 -16 
9 -17 9 -16 10 -17 9 -16 10 -17 9 -16 9 -17 10 -16 
9 -17 10 -16 9 -17 9 -16 10 -17 9 -16 9 -16 10 -17 
9 -16 9 -16 10 -17 9 -16 10 -16 9 -16 9 -16 10 -17 
9 -16 10 -16 9 -16 9 -15 10 -16 9 -16 9 -16 10 -16 
9 -15 10 -16 9 -15 9 -16 10 -15 9 -15 9 -16 10 -15 
9 -15 9 -15 10 -15 9 -15 10 -14 9 -15 9 -15 10 -14 
9 -15 10 -14 9 -14 9 -14 10 -14 9 -14 9 -14 10 -14 
9 -13 9 -14 10 -13 9 -14 10 -13 9 -13 9 -13 10 -12 
9 -13 10 -13 9 -12 9 -12 10 -12 9 -12 9 -12 10 -12 
9 -12 10 -11 9 -11 9 -11 10 -11 9 -11 9 -11 10 -10 
9 -11 9 -10 10 -10 9 -10 10 -10 9 -9 9 -9 10 -10 
9 -9 10 -8 9 -9 9 -8 10 -9 9 -8 9 -8 10 -7 
9 -8 9 -7 10 -7 9 -7 10 -7 9 -7 9 -6 10 -6 
9 -6 9 -6 10 -5 9 -5 10 -5 9 -5 9 -5 10 -4 
9 -4 10 -4 9 -4 9 -4 10 -3 9 -3 9 -3 10 -2 
9 -3 9 -2 10 -2 9 -1 10 -2 9 -1 9 -1 10 0 
9 -1 10 0 9 0 9 1 10 0 9 1 9 1 10 2 
9 2 9 1 10 3 9 2 10 3 9 3 9 3 10 4 
9 3 9 4 10 5 9 4 10 5 9 5 9 6 10 6 
9 6 10 6 9 6 9 7 10 7 9 8 9 7 10 8 
9 9 9 8 10 9 9 9 10 10 9 9 9 10 10 11 
9 10 10 11 9 11 9 12 10 11 9 12 9 13 10 12 
9 13 9 14 10 13 9 14 10 14 9 14 9 15 10 15 
9 15 9 16 10 16 9 16 10 17 9 16 9 18 10 17 
9 18 10 18 9 18 1340 2212 300 MP stroke
9 18 10 19 9 19 9 20 10 20 9 20 9 20 10 21 
9 21 10 21 9 21 9 22 10 22 9 23 10 22 9 23 
9 23 10 24 9 24 9 24 10 24 9 25 9 25 10 25 
9 26 10 25 9 26 9 27 10 26 9 27 9 27 10 28 
9 28 10 28 9 28 9 28 10 29 9 29 10 29 9 30 
9 30 10 30 9 30 9 30 10 31 9 31 9 32 10 31 
9 32 10 32 9 32 9 33 10 32 9 33 9 33 10 34 
9 33 10 34 9 34 9 35 10 34 9 35 9 34 750 500 64 MP stroke
/c12 { 0.000000 1.000000 1.000000 sr} bdef
c12
9 0 10 0 9 0 9 0 10 0 9 0 9 0 10 0 
9 0 10 0 9 0 9 0 10 0 9 0 9 0 10 0 
9 0 10 0 9 0 9 0 10 0 9 0 9 0 10 0 
9 0 9 0 10 0 9 0 10 0 9 0 9 0 10 0 
9 0 10 0 9 0 9 0 10 0 9 0 9 0 10 0 
9 0 10 0 9 0 9 0 10 0 9 0 9 0 10 0 
9 0 10 -6 9 -7 9 -7 10 -7 9 -8 9 -7 10 -8 
9 -7 10 -8 9 -7 9 -8 10 -8 9 -8 9 -7 10 -8 
9 -8 9 -8 10 -9 9 -8 10 -8 9 -8 9 -9 10 -8 
9 -9 10 -8 9 -9 9 -9 10 -8 9 -9 9 -9 10 -9 
9 -9 10 -9 9 -9 9 -9 10 -10 9 -9 9 -9 10 -10 
9 -9 10 -9 9 -10 9 -10 10 -9 9 -10 9 -10 10 -10 
9 -9 10 -10 9 -10 9 -10 10 -10 9 -10 9 -11 10 -10 
9 -10 9 -10 10 -11 9 -10 10 -10 9 -11 9 -10 10 -11 
9 -10 10 -11 9 -11 9 -10 10 -11 9 -11 9 -11 10 -11 
9 -10 10 -11 9 -11 9 -11 10 -11 9 -11 9 -11 10 -11 
9 -11 9 -11 10 -12 9 -11 10 -11 9 -11 9 -11 10 -12 
9 -11 10 -11 9 -11 9 -12 10 -11 9 -11 9 -12 10 -11 
9 -11 9 -12 10 -11 9 -11 10 -12 9 -11 9 -11 10 -12 
9 -11 10 -12 9 -11 9 -11 10 -12 9 -11 9 -11 10 -12 
9 -11 10 -11 9 -11 9 -12 10 -11 9 -11 9 -11 10 -12 
9 -11 9 -11 10 -11 9 -11 10 -11 9 -11 9 -11 10 -11 
9 -11 10 -11 9 -11 9 -11 10 -10 9 -11 9 -11 10 -10 
9 -11 9 -10 10 -11 9 -10 10 -11 9 -10 9 -10 10 -10 
9 -11 10 -10 9 -10 9 -10 10 -9 9 -10 9 -10 10 -10 
9 -9 10 -10 9 -9 9 -10 10 -9 9 -9 9 -9 10 -9 
9 -9 9 -9 10 -9 9 -8 10 -9 9 -8 9 -8 10 -9 
9 -8 10 -8 9 -8 9 -8 10 -7 9 -8 9 -7 10 -8 
9 -7 9 -7 10 -7 9 -7 10 -7 9 -6 9 -7 10 -6 
9 -6 9 -6 10 -6 9 -6 10 -5 9 -6 9 -5 10 -5 
9 -5 10 -5 9 -5 9 -5 10 -4 9 -4 9 -4 10 -4 
9 -4 9 -4 10 -3 9 -3 10 -3 9 -3 9 -3 10 -2 
9 -3 10 -2 9 -2 9 -2 10 -1 9 -2 9 -1 10 -1 
9 0 9 -1 10 0 9 -1 10 0 9 1 9 0 10 1 
9 1 9 1 10 1 9 2 10 2 9 2 9 2 10 2 
9 3 10 3 9 3 9 3 10 4 9 4 9 4 10 4 
9 5 9 5 10 5 9 5 10 6 9 6 9 6 10 6 
9 7 10 7 9 7 1565 2296 300 MP stroke
9 8 10 7 9 8 9 9 10 8 9 9 9 9 10 10 
9 9 10 10 9 10 9 11 10 11 9 11 9 11 10 12 
9 12 10 12 9 13 9 12 10 14 9 13 10 14 9 14 
9 14 10 15 9 15 9 15 10 16 9 16 9 16 10 16 
9 17 10 17 9 18 9 18 10 18 9 18 10 19 9 19 
9 19 10 20 9 20 9 21 10 20 9 21 9 22 10 21 
9 22 10 23 9 22 9 24 10 23 9 24 9 24 10 24 
9 25 10 25 9 25 9 26 10 26 9 26 10 27 9 27 
9 27 10 28 9 28 9 28 10 29 9 29 9 30 10 30 
9 30 10 30 9 31 9 31 10 31 9 32 9 32 10 33 
9 33 10 33 9 33 9 34 10 34 9 35 9 34 750 500 88 MP stroke
/c13 { 0.000000 1.000000 0.000000 sr} bdef
c13
1 0 10 0 9 0 10 0 9 0 9 0 10 0 9 0 
10 0 9 0 9 0 10 0 9 0 9 0 10 0 9 0 
10 0 9 0 9 0 10 0 9 0 9 0 10 0 9 0 
10 0 9 0 9 0 10 0 9 0 9 -2 10 -4 9 -3 
10 -4 9 -4 9 -3 10 -4 9 -4 9 -4 10 -4 9 -4 
9 -4 10 -4 9 -4 10 -4 9 -4 9 -4 10 -5 9 -4 
10 -4 9 -5 9 -4 10 -5 9 -4 9 -5 10 -5 9 -4 
10 -5 9 -5 9 -5 10 -4 9 -5 9 -5 10 -5 9 -5 
10 -5 9 -6 9 -5 10 -5 9 -5 9 -6 10 -5 9 -5 
10 -6 9 -5 9 -6 10 -6 9 -5 9 -6 10 -6 9 -6 
9 -5 10 -6 9 -6 10 -6 9 -6 9 -6 10 -6 9 -7 
10 -6 9 -6 9 -6 10 -7 9 -6 9 -7 10 -6 9 -7 
10 -6 9 -7 9 -6 10 -7 9 -7 9 -7 10 -6 9 -7 
10 -7 9 -7 9 -7 10 -7 9 -7 9 -7 10 -8 9 -7 
10 -7 9 -7 9 -8 10 -7 9 -7 9 -8 10 -7 9 -8 
9 -7 10 -8 9 -8 10 -7 9 -8 9 -8 10 -8 9 -7 
10 -8 9 -8 9 -8 10 -8 9 -8 9 -8 10 -8 9 -8 
10 -8 9 -9 9 -8 10 -8 9 -8 9 -8 10 -9 9 -8 
9 -8 10 -9 9 -8 10 -9 9 -8 9 -9 10 -8 9 -9 
10 -8 9 -9 9 -8 10 -9 9 -8 9 -9 10 -9 9 -8 
9 -9 10 -9 9 -9 10 -8 9 -9 9 -9 10 -9 9 -8 
10 -9 9 -9 9 -9 10 -9 9 -8 9 -9 10 -9 9 -9 
10 -9 9 -9 9 -8 10 -9 9 -9 9 -9 10 -9 9 -9 
9 -8 10 -9 9 -9 10 -9 9 -9 9 -9 10 -8 9 -9 
10 -9 9 -9 9 -8 10 -9 9 -9 9 -8 10 -9 9 -9 
9 -8 10 -9 9 -8 10 -9 9 -8 9 -9 10 -8 9 -9 
10 -8 9 -8 9 -9 10 -8 9 -8 9 -8 10 -8 9 -9 
10 -8 9 -8 9 -8 10 -7 9 -8 9 -8 10 -8 9 -8 
9 -7 10 -8 9 -7 10 -8 9 -7 9 -7 10 -8 9 -7 
10 -7 9 -7 9 -7 10 -7 9 -7 9 -7 10 -6 9 -7 
9 -6 10 -7 9 -6 10 -6 9 -7 9 -6 10 -6 9 -6 
9 -5 10 -6 9 -6 10 -5 9 -6 9 -5 10 -5 9 -5 
10 -5 9 -5 9 -5 10 -4 9 -5 9 -4 10 -4 9 -4 
9 -4 10 -4 9 -4 10 -3 9 -4 9 -3 10 -3 9 -3 
10 -3 9 -3 9 -3 10 -2 9 -2 9 -2 10 -2 9 -2 
9 -2 10 -1 9 -2 10 -1 9 -1 9 -1 10 0 9 -1 
9 0 10 0 9 0 10 0 9 1 9 1 10 0 9 2 
10 1 9 1 9 2 1706 2171 300 MP stroke
10 2 9 2 9 2 10 3 9 2 9 3 10 3 9 4 
10 3 9 4 9 4 10 4 9 5 10 5 9 5 9 5 
10 5 9 6 9 6 10 6 9 7 9 7 10 7 9 7 
10 7 9 8 9 8 10 8 9 9 9 9 10 9 9 9 
10 10 9 10 9 10 10 11 9 11 10 11 9 11 9 12 
10 12 9 13 9 12 10 13 9 14 9 13 10 14 9 14 
10 15 9 15 9 15 10 15 9 16 10 17 9 16 9 17 
10 17 9 18 9 18 10 18 9 19 9 18 10 20 9 19 
10 21 9 20 9 21 10 21 9 21 9 22 10 22 9 23 
10 23 9 23 9 24 10 24 9 25 10 25 9 25 9 26 
10 26 9 26 9 27 10 27 9 28 9 28 10 28 9 29 
10 30 9 29 9 30 10 31 9 31 9 31 10 32 9 32 
10 33 9 33 9 34 10 34 9 34 9 34 750 500 103 MP stroke
gr

c13
0 sg
%%IncludeResource: font Helvetica
/Helvetica /WindowsLatin1Encoding 83.3333 FMSR

 732 4037 mt 
( ) s
4483  536 mt 
( ) s
8.33333 w
DO
SO
12.5 w
0.1 sg
 750  500 mt 4500  500 L
 750 4000 mt 4500 4000 L
4500 4000 mt 4500  500 L
 750 4000 mt  750  500 L
 750 4000 mt 4500 4000 L
 750 4000 mt  750  500 L
 750 4000 mt  750 3943 L
 750  500 mt  750  556 L
%%IncludeResource: font Helvetica
/Helvetica /WindowsLatin1Encoding 133.333 FMSR

 621 4148 mt 
(4.75) s
1687 4000 mt 1687 3943 L
1687  500 mt 1687  556 L
1595 4148 mt 
(4.8) s
2625 4000 mt 2625 3943 L
2625  500 mt 2625  556 L
2496 4148 mt 
(4.85) s
3562 4000 mt 3562 3943 L
3562  500 mt 3562  556 L
3470 4148 mt 
(4.9) s
4499 4000 mt 4499 3943 L
4499  500 mt 4499  556 L
4370 4148 mt 
(4.95) s
4147 4349 mt 
(x 10) s
%%IncludeResource: font Helvetica
/Helvetica /WindowsLatin1Encoding 88.8889 FMSR

4399 4267 mt 
(-3) s
 750 4000 mt  806 4000 L
4500 4000 mt 4443 4000 L
%%IncludeResource: font Helvetica
/Helvetica /WindowsLatin1Encoding 133.333 FMSR

 426 4049 mt 
(-200) s
 750 3650 mt  806 3650 L
4500 3650 mt 4443 3650 L
 426 3699 mt 
(-180) s
 750 3300 mt  806 3300 L
4500 3300 mt 4443 3300 L
 426 3349 mt 
(-160) s
 750 2950 mt  806 2950 L
4500 2950 mt 4443 2950 L
 426 2999 mt 
(-140) s
 750 2600 mt  806 2600 L
4500 2600 mt 4443 2600 L
 426 2649 mt 
(-120) s
 750 2250 mt  806 2250 L
4500 2250 mt 4443 2250 L
 426 2299 mt 
(-100) s
 750 1900 mt  806 1900 L
4500 1900 mt 4443 1900 L
 500 1949 mt 
(-80) s
 750 1550 mt  806 1550 L
4500 1550 mt 4443 1550 L
 500 1599 mt 
(-60) s
 750 1200 mt  806 1200 L
4500 1200 mt 4443 1200 L
 500 1249 mt 
(-40) s
 750  850 mt  806  850 L
4500  850 mt 4443  850 L
 500  899 mt 
(-20) s
 750  500 mt  806  500 L
4500  500 mt 4443  500 L
 652  549 mt 
(0) s
 750  500 mt 4500  500 L
 750 4000 mt 4500 4000 L
4500 4000 mt 4500  500 L
 750 4000 mt  750  500 L
0 sg
%%IncludeResource: font Helvetica-Bold
/Helvetica-Bold /WindowsLatin1Encoding 125 FMSR

3732 2671 mt 
(CoR = 1) s
gs 3406 2527 939 1197 rc
16.6667 w
c8
250 0 3456 2624 2 MP stroke
gr

16.6667 w
c8
0 sg
3732 2838 mt 
(CoR = 0.8) s
gs 3406 2527 939 1197 rc
c9
250 0 3456 2791 2 MP stroke
gr

c9
0 sg
3732 3005 mt 
(CoR = 0.6) s
gs 3406 2527 939 1197 rc
250 0 3456 2958 2 MP stroke
gr

3732 3171 mt 
(CoR = 0.5) s
gs 3406 2527 939 1197 rc
c10
250 0 3456 3125 2 MP stroke
gr

c10
0 sg
3732 3338 mt 
(CoR = 0.4) s
gs 3406 2527 939 1197 rc
c11
250 0 3456 3291 2 MP stroke
gr

c11
0 sg
3732 3505 mt 
(CoR = 0.2) s
gs 3406 2527 939 1197 rc
c12
250 0 3456 3458 2 MP stroke
gr

c12
0 sg
3732 3672 mt 
(CoR = 0.1) s
gs 3406 2527 939 1197 rc
c13
250 0 3456 3625 2 MP stroke
12.5 w
gr

12.5 w
c13

end %%Color Dict

eplot
%%EndObject

epage
end

showpage

%%Trailer
%%EOF
