%!PS-Adobe-3.0 EPSF-3.0
%%Creator: MATLAB, The MathWorks, Inc. Version 8.1.0.604 (R2013a). Operating System: Microsoft Windows 7.
%%Title: .\Velocity-Time_UnLoadingZoom_0_4N.eps
%%CreationDate: 08/15/2013  23:03:39
%%DocumentNeededFonts: Helvetica-Bold
%%+ Helvetica
%%DocumentProcessColors: Cyan Magenta Yellow Black
%%LanguageLevel: 2
%%Pages: 1
%%BoundingBox:    45    93   577   587
%%EndComments

%%BeginProlog
% MathWorks dictionary
/MathWorks 160 dict begin
% definition operators
/bdef {bind def} bind def
/ldef {load def} bind def
/xdef {exch def} bdef
/xstore {exch store} bdef
% operator abbreviations
/c  /clip ldef
/cc /concat ldef
/cp /closepath ldef
/gr /grestore ldef
/gs /gsave ldef
/mt /moveto ldef
/np /newpath ldef
/cm /currentmatrix ldef
/sm /setmatrix ldef
/rm /rmoveto ldef
/rl /rlineto ldef
/s {show newpath} bdef
/sc {setcmykcolor} bdef
/sr /setrgbcolor ldef
/sg /setgray ldef
/w /setlinewidth ldef
/j /setlinejoin ldef
/cap /setlinecap ldef
/rc {rectclip} bdef
/rf {rectfill} bdef
% page state control
/pgsv () def
/bpage {/pgsv save def} bdef
/epage {pgsv restore} bdef
/bplot /gsave ldef
/eplot {stroke grestore} bdef
% orientation switch
/portraitMode 0 def /landscapeMode 1 def /rotateMode 2 def
% coordinate system mappings
/dpi2point 0 def
% font control
/FontSize 0 def
/FMS {/FontSize xstore findfont [FontSize 0 0 FontSize neg 0 0]
  makefont setfont} bdef
/ISOLatin1Encoding where {pop /WindowsLatin1Encoding 256 array bdef
ISOLatin1Encoding WindowsLatin1Encoding copy pop
/.notdef/.notdef/quotesinglbase/florin/quotedblbase/ellipsis/dagger
/daggerdbl/circumflex/perthousand/Scaron/guilsinglleft/OE/.notdef/.notdef
/.notdef/.notdef/quoteleft/quoteright/quotedblleft/quotedblright/bullet
/endash/emdash/tilde/trademark/scaron/guilsinglright/oe/.notdef/.notdef
/Ydieresis WindowsLatin1Encoding 128 32 getinterval astore pop}
{/WindowsLatin1Encoding StandardEncoding bdef} ifelse
/reencode {exch dup where {pop load} {pop StandardEncoding} ifelse
  exch dup 3 1 roll findfont dup length dict begin
  { 1 index /FID ne {def}{pop pop} ifelse } forall
  /Encoding exch def currentdict end definefont pop} bdef
/isroman {findfont /CharStrings get /Agrave known} bdef
/FMSR {3 1 roll 1 index dup isroman {reencode} {pop pop} ifelse
  exch FMS} bdef
/csm {1 dpi2point div -1 dpi2point div scale neg translate
 dup landscapeMode eq {pop -90 rotate}
  {rotateMode eq {90 rotate} if} ifelse} bdef
% line types: solid, dotted, dashed, dotdash
/SO { [] 0 setdash } bdef
/DO { [.5 dpi2point mul 4 dpi2point mul] 0 setdash } bdef
/DA { [6 dpi2point mul] 0 setdash } bdef
/DD { [.5 dpi2point mul 4 dpi2point mul 6 dpi2point mul 4
  dpi2point mul] 0 setdash } bdef
% macros for lines and objects
/L {lineto stroke} bdef
/MP {3 1 roll moveto 1 sub {rlineto} repeat} bdef
/AP {{rlineto} repeat} bdef
/PDlw -1 def
/W {/PDlw currentlinewidth def setlinewidth} def
/PP {closepath eofill} bdef
/DP {closepath stroke} bdef
/MR {4 -2 roll moveto dup  0 exch rlineto exch 0 rlineto
  neg 0 exch rlineto closepath} bdef
/FR {MR stroke} bdef
/PR {MR fill} bdef
/L1i {{currentfile picstr readhexstring pop} image} bdef
/tMatrix matrix def
/MakeOval {newpath tMatrix currentmatrix pop translate scale
0 0 1 0 360 arc tMatrix setmatrix} bdef
/FO {MakeOval stroke} bdef
/PO {MakeOval fill} bdef
/PD {currentlinewidth 2 div 0 360 arc fill
   PDlw -1 eq not {PDlw w /PDlw -1 def} if} def
/FA {newpath tMatrix currentmatrix pop translate scale
  0 0 1 5 -2 roll arc tMatrix setmatrix stroke} bdef
/PA {newpath tMatrix currentmatrix pop	translate 0 0 moveto scale
  0 0 1 5 -2 roll arc closepath tMatrix setmatrix fill} bdef
/FAn {newpath tMatrix currentmatrix pop translate scale
  0 0 1 5 -2 roll arcn tMatrix setmatrix stroke} bdef
/PAn {newpath tMatrix currentmatrix pop translate 0 0 moveto scale
  0 0 1 5 -2 roll arcn closepath tMatrix setmatrix fill} bdef
/vradius 0 def /hradius 0 def /lry 0 def
/lrx 0 def /uly 0 def /ulx 0 def /rad 0 def
/MRR {/vradius xdef /hradius xdef /lry xdef /lrx xdef /uly xdef
  /ulx xdef newpath tMatrix currentmatrix pop ulx hradius add uly
  vradius add translate hradius vradius scale 0 0 1 180 270 arc 
  tMatrix setmatrix lrx hradius sub uly vradius add translate
  hradius vradius scale 0 0 1 270 360 arc tMatrix setmatrix
  lrx hradius sub lry vradius sub translate hradius vradius scale
  0 0 1 0 90 arc tMatrix setmatrix ulx hradius add lry vradius sub
  translate hradius vradius scale 0 0 1 90 180 arc tMatrix setmatrix
  closepath} bdef
/FRR {MRR stroke } bdef
/PRR {MRR fill } bdef
/MlrRR {/lry xdef /lrx xdef /uly xdef /ulx xdef /rad lry uly sub 2 div def
  newpath tMatrix currentmatrix pop ulx rad add uly rad add translate
  rad rad scale 0 0 1 90 270 arc tMatrix setmatrix lrx rad sub lry rad
  sub translate rad rad scale 0 0 1 270 90 arc tMatrix setmatrix
  closepath} bdef
/FlrRR {MlrRR stroke } bdef
/PlrRR {MlrRR fill } bdef
/MtbRR {/lry xdef /lrx xdef /uly xdef /ulx xdef /rad lrx ulx sub 2 div def
  newpath tMatrix currentmatrix pop ulx rad add uly rad add translate
  rad rad scale 0 0 1 180 360 arc tMatrix setmatrix lrx rad sub lry rad
  sub translate rad rad scale 0 0 1 0 180 arc tMatrix setmatrix
  closepath} bdef
/FtbRR {MtbRR stroke } bdef
/PtbRR {MtbRR fill } bdef
/stri 6 array def /dtri 6 array def
/smat 6 array def /dmat 6 array def
/tmat1 6 array def /tmat2 6 array def /dif 3 array def
/asub {/ind2 exch def /ind1 exch def dup dup
  ind1 get exch ind2 get sub exch } bdef
/tri_to_matrix {
  2 0 asub 3 1 asub 4 0 asub 5 1 asub
  dup 0 get exch 1 get 7 -1 roll astore } bdef
/compute_transform {
  dmat dtri tri_to_matrix tmat1 invertmatrix 
  smat stri tri_to_matrix tmat2 concatmatrix } bdef
/ds {stri astore pop} bdef
/dt {dtri astore pop} bdef
/db {2 copy /cols xdef /rows xdef mul dup 3 mul string
  currentfile 
  3 index 0 eq {/ASCIIHexDecode filter}
  {/ASCII85Decode filter 3 index 2 eq {/RunLengthDecode filter} if }
  ifelse exch readstring pop
  dup 0 3 index getinterval /rbmap xdef
  dup 2 index dup getinterval /gbmap xdef
  1 index dup 2 mul exch getinterval /bbmap xdef pop pop}bdef
/it {gs np dtri aload pop moveto lineto lineto cp c
  cols rows 8 compute_transform 
  rbmap gbmap bbmap true 3 colorimage gr}bdef
/il {newpath moveto lineto stroke}bdef
currentdict end def
%%EndProlog

%%BeginSetup
MathWorks begin

0 cap

end
%%EndSetup

%%Page: 1 1
%%BeginPageSetup
%%PageBoundingBox:    45    93   577   587
MathWorks begin
bpage
%%EndPageSetup

%%BeginObject: obj1
bplot

/dpi2point 8.33333 def
portraitMode 0150 5158 csm

  227   264  4439  4116 rc
84 dict begin %Colortable dictionary
/c0 { 0.000000 0.000000 0.000000 sr} bdef
/c1 { 1.000000 1.000000 1.000000 sr} bdef
/c2 { 0.900000 0.000000 0.000000 sr} bdef
/c3 { 0.000000 0.820000 0.000000 sr} bdef
/c4 { 0.000000 0.000000 0.800000 sr} bdef
/c5 { 0.910000 0.820000 0.320000 sr} bdef
/c6 { 1.000000 0.260000 0.820000 sr} bdef
/c7 { 0.000000 0.820000 0.820000 sr} bdef
c0
1 j
1 sg
   0    0 5001 5001 rf
12.5 w
0 3501 3751 0 0 -3501 749 4000 4 MP
PP
-3751 0 0 3501 3751 0 0 -3501 749 4000 5 MP stroke
gs 750 500 3751 3501 rc
16.6667 w
0 sg
1 0 3 0 3 0 2 0 3 0 2 0 3 0 2 0 
2 0 3 -1 2 0 3 0 2 0 3 0 2 0 3 0 
2 0 3 0 2 0 3 0 3 -1 2 0 3 0 2 0 
3 0 2 0 2 0 3 0 2 0 3 0 2 0 3 -1 
2 0 3 0 2 0 3 0 3 0 2 0 3 0 2 0 
3 0 2 0 2 0 3 0 2 -1 3 0 2 0 3 0 
2 0 3 0 2 0 3 0 2 0 3 0 3 0 2 0 
3 0 2 0 3 0 2 0 2 0 3 0 2 0 3 0 
2 0 3 0 2 0 3 0 2 0 3 0 3 0 2 0 
3 0 2 0 3 0 2 0 3 0 2 0 2 1 3 0 
2 0 3 0 2 0 3 0 2 0 3 0 2 0 3 0 
3 1 2 0 3 0 2 0 3 0 2 0 2 0 3 1 
2 0 3 0 2 0 3 0 2 0 3 0 2 1 3 0 
3 0 2 0 3 0 2 0 3 1 2 0 3 0 2 0 
2 0 3 1 2 0 3 0 2 0 3 0 2 0 3 1 
2 0 3 0 3 0 2 0 3 0 2 1 3 0 2 0 
2 0 3 0 2 0 3 0 2 1 3 0 2 0 3 0 
2 0 3 0 3 0 2 0 3 0 2 0 3 1 2 0 
3 0 2 0 2 0 3 0 2 0 3 0 2 0 3 0 
2 0 3 0 2 0 3 0 3 0 2 0 3 0 2 0 
3 -1 2 0 2 0 3 0 2 0 3 0 2 0 3 0 
2 0 3 -1 2 0 3 0 2 0 3 0 3 -1 2 0 
3 0 2 0 3 0 2 -1 2 0 3 0 2 0 3 -1 
2 0 3 0 2 0 3 -1 2 0 3 0 3 -1 2 0 
3 0 2 -1 3 0 2 0 3 -1 2 0 2 0 3 -1 
2 0 3 0 2 -1 3 0 2 0 3 -1 2 0 3 0 
3 -1 2 0 3 0 2 -1 3 0 2 0 2 0 3 -1 
2 0 3 0 2 -1 3 0 2 0 3 0 2 -1 3 0 
3 0 2 0 3 0 2 -1 3 0 2 0 3 0 2 0 
2 0 3 -1 2 0 3 0 2 0 3 0 2 0 3 0 
2 0 3 0 3 0 2 0 3 0 2 0 3 0 2 0 
2 0 3 1 2 0 3 0 2 0 3 0 2 0 3 1 
2 0 3 0 3 0 2 1 3 0 2 0 3 1 2 0 
3 1 2 0 2 0 3 1 2 0 3 1 2 0 3 1 
2 0 3 1 2 0 3 1 3 0 2 1 3 0 2 1 
3 0 2 1 2 1 3 0 2 1 3 0 2 1 3 1 
2 0 3 1 2 1 3 0 3 1 2 0 3 1 2 1 
3 0 2 1 3 1 3754 806 300 MP stroke
2 0 2 1 3 0 2 1 3 1 2 0 3 1 2 0 
3 1 2 0 3 1 3 0 2 1 3 0 2 1 3 0 
2 0 2 1 3 0 2 1 3 0 2 0 3 0 2 1 
3 0 2 0 3 0 3 0 2 0 3 1 2 0 3 0 
2 0 3 0 2 0 2 -1 3 0 2 0 3 0 2 0 
3 0 2 -1 3 0 2 0 3 -1 3 0 2 -1 3 0 
2 -1 3 0 2 -1 3 0 2 -1 2 -1 3 0 2 -1 
3 -1 2 -1 3 0 2 -1 3 -1 3 -1 2 -1 3 -1 
2 -1 3 -1 2 -1 3 -1 2 -1 2 -1 3 -1 2 -1 
3 -1 2 -1 3 -1 2 -2 3 -1 2 -1 3 -1 3 -1 
2 -2 3 -1 2 -1 3 -1 2 -1 3 -1 2 -2 2 -1 
3 -1 2 -1 3 -1 2 -1 3 -2 2 -1 3 -1 3 -1 
2 -1 3 -1 2 -1 3 -1 2 -1 3 -1 2 -1 2 -1 
3 0 2 -1 3 -1 2 -1 3 0 2 -1 3 -1 2 0 
3 -1 3 0 2 0 3 -1 2 0 3 0 2 -1 3 0 
2 0 2 0 3 0 2 0 3 0 2 0 3 1 2 0 
3 0 3 1 2 0 3 1 2 0 3 1 2 1 3 1 
2 0 2 1 3 1 2 1 3 2 2 1 3 1 2 1 
3 1 2 2 3 1 3 2 2 1 3 2 2 2 3 1 
2 2 3 2 2 2 2 1 3 2 2 2 3 2 2 2 
3 2 2 2 3 3 3 2 2 2 3 2 2 2 3 3 
2 2 3 2 2 2 3 3 2 2 2 2 3 2 2 3 
3 2 2 2 3 2 2 2 3 3 3 2 2 2 3 2 
2 2 3 2 2 2 3 2 2 2 2 2 3 2 2 1 
3 2 2 2 3 1 2 2 3 1 3 1 2 2 3 1 
2 1 3 1 2 1 3 1 2 1 3 0 2 1 2 0 
3 1 2 0 3 0 2 0 3 0 2 0 3 0 3 -1 
2 0 3 -1 2 -1 3 0 2 -1 3 -1 2 -2 2 -1 
3 -1 2 -2 3 -1 2 -2 3 -2 2 -2 3 -2 3 -2 
2 -3 3 -2 2 -2 3 -3 2 -3 3 -3 2 -3 3 -3 
2 -3 2 -3 3 -3 2 -4 3 -3 2 -4 3 -3 2 -4 
3 -4 3 -4 2 -4 3 -4 2 -4 3 -4 2 -4 3 -4 
2 -4 2 -4 3 -5 2 -4 3 -4 2 -4 3 -5 2 -4 
3 -4 3 -5 2 -4 3 -4 2 -4 3 -4 2 -4 3 -5 
2 -4 3 -4 2 -3 2 -4 3 -4 2 -4 3 -3 2 -4 
3 -3 2 -3 3 -4 3 -3 2 -2 3 -3 2 -3 3 -2 
2 -3 3 -2 2 -2 2 -2 3 -2 2 -1 3 -2 2 -1 
3 -1 2 -1 3 -1 3007 976 300 MP stroke
3 0 2 0 3 0 2 0 3 0 2 0 3 0 2 0 
3 0 2 0 2 0 3 0 2 0 3 0 2 0 3 0 
2 0 3 0 3 0 2 0 3 0 2 0 3 0 2 0 
3 0 2 0 3 0 2 0 2 0 3 0 2 0 3 0 
2 0 3 0 3 0 2 0 3 0 2 0 3 0 2 0 
3 0 2 0 3 0 2 0 2 0 3 0 2 0 3 0 
2 0 3 0 2 0 3 0 3 0 2 0 3 0 2 0 
3 0 2 0 3 0 2 0 3 0 2 0 2 0 3 0 
2 0 3 0 2 0 3 0 3 0 2 0 3 0 2 0 
3 0 2 0 3 0 2 0 3 0 2 -1 2 0 3 0 
2 0 3 0 2 0 3 0 2 0 3 0 3 0 2 0 
3 0 2 0 3 0 2 0 3 0 2 0 3 0 2 0 
2 0 3 0 2 0 3 0 2 0 3 0 3 1 2 0 
3 0 2 0 3 0 2 0 3 0 2 0 3 0 2 0 
3 0 2 0 2 0 3 0 2 0 3 0 2 0 3 0 
3 0 2 0 3 0 2 0 3 0 2 0 3 0 2 0 
3 0 2 0 3 0 2 0 2 0 3 0 2 0 3 0 
3 0 2 0 3 0 2 0 3 0 2 0 3 0 2 0 
3 0 2 0 3 0 2 0 2 0 3 0 2 1 3 0 
2 0 3 0 3 0 2 0 3 0 2 0 3 0 2 0 
3 0 2 0 3 0 2 0 3 0 2 0 2 0 3 0 
2 0 3 0 2 0 3 0 3 0 2 0 3 0 2 0 
3 0 2 0 3 0 2 0 3 0 2 0 2 0 3 0 
2 0 3 0 2 0 3 0 3 0 2 0 3 0 2 0 
3 0 2 0 3 0 2 0 3 0 2 0 3 0 2 0 
2 0 3 0 2 0 3 0 2 0 3 0 3 0 2 0 
3 0 2 0 3 0 2 0 3 0 2 0 3 0 2 0 
2 0 3 0 2 0 3 0 2 0 3 0 3 0 2 0 
3 0 2 0 3 0 2 0 3 0 2 0 3 0 2 0 
3 0 2 0 2 0 3 0 2 0 3 0 2 -1 3 0 
3 0 2 0 3 0 2 0 3 0 2 0 3 0 2 0 
3 0 2 0 3 0 2 0 2 0 3 0 2 0 3 0 
3 0 2 0 3 0 2 0 3 0 2 0 3 0 2 0 
3 0 2 0 3 -1 2 0 2 0 3 0 2 0 3 0 
2 0 3 0 3 0 2 0 3 0 2 0 3 0 2 0 
3 0 2 0 3 0 2 0 3 0 2 0 2 0 3 0 
2 0 3 0 3 1 2 0 3 0 2 0 3 0 2 0 
3 0 2 0 3 0 2259 976 300 MP stroke
2 0 3 0 2 0 2 0 3 0 2 0 3 0 2 0 
3 0 3 0 2 0 3 1 2 0 3 0 2 0 3 0 
2 0 3 0 2 0 3 0 2 0 2 0 3 0 2 1 
3 0 3 0 2 0 3 0 2 0 3 0 2 0 3 0 
2 0 3 1 2 0 3 0 2 0 2 0 3 0 2 0 
3 0 2 0 3 0 3 0 2 1 3 0 2 0 3 0 
2 0 3 0 2 0 3 0 2 0 3 0 2 0 2 0 
3 0 2 1 3 0 3 0 2 0 3 0 2 0 3 0 
2 0 3 0 2 0 3 0 2 0 3 0 2 0 2 0 
3 0 2 0 3 0 2 0 3 0 3 0 2 0 3 0 
2 0 3 0 2 0 3 0 2 0 3 0 2 0 3 -1 
2 0 3 0 2 0 2 0 3 0 3 0 2 0 3 0 
2 0 3 0 2 -1 3 0 2 0 3 0 2 0 3 0 
2 0 3 0 2 -1 3 0 2 0 2 0 3 0 3 0 
2 0 3 -1 2 0 3 0 2 0 3 0 2 0 3 -1 
2 0 3 0 2 0 3 0 2 0 2 -1 3 0 3 0 
2 0 3 0 2 0 3 -1 2 0 3 0 2 0 3 0 
2 0 3 0 2 -1 3 0 2 0 3 0 2 0 2 0 
3 0 3 0 2 0 3 -1 2 0 3 0 2 0 3 0 
2 0 3 0 2 0 3 0 2 0 3 0 2 0 2 0 
3 0 3 0 2 0 3 0 2 0 3 0 2 0 3 0 
2 0 3 0 2 0 3 1 2 0 3 0 2 0 3 0 
2 0 2 0 3 0 3 1 2 0 3 0 2 0 3 0 
2 1 3 0 2 0 3 0 2 0 3 1 2 0 3 0 
2 1 3 0 2 0 3 0 2 1 3 0 2 0 3 1 
2 0 3 0 2 0 3 1 2 0 3 0 2 1 3 0 
2 0 3 1 2 0 2 0 3 1 3 0 2 0 3 1 
2 0 3 0 2 1 3 0 2 0 3 1 2 0 3 0 
2 0 3 1 2 0 2 0 3 1 3 0 2 0 3 0 
2 1 3 0 2 0 3 0 2 0 3 1 2 0 3 0 
2 0 3 0 2 0 3 0 2 0 2 0 3 1 3 0 
2 0 3 0 2 0 3 0 2 0 3 -1 2 0 3 0 
2 0 3 0 2 0 3 0 2 0 3 -1 2 0 3 0 
2 0 3 0 2 -1 3 0 2 0 3 -1 2 0 3 0 
2 -1 3 0 2 0 3 -1 2 0 3 -1 2 0 2 -1 
3 0 3 -1 2 0 3 -1 2 0 3 -1 2 0 3 -1 
2 0 3 -1 2 0 3 -1 2 -1 3 0 2 -1 3 0 
2 -1 3 -1 2 0 1512 979 300 MP stroke
3 -1 2 0 3 -1 2 -1 3 0 2 -1 3 0 2 -1 
3 -1 2 0 3 -1 2 0 3 -1 2 0 2 -1 3 -1 
3 0 2 -1 3 0 2 0 3 -1 2 0 3 -1 2 0 
3 -1 2 0 3 0 2 -1 3 0 2 0 3 0 2 -1 
3 0 2 0 3 0 2 0 3 0 2 0 3 0 2 0 
3 0 2 0 3 0 2 0 3 0 2 0 3 1 2 0 
2 0 3 0 3 1 2 0 3 1 2 0 3 1 2 0 
3 1 2 0 3 1 2 0 3 1 2 1 3 0 2 1 
3 1 2 1 3 1 2 0 3 1 2 1 3 1 2 1 
3 1 2 1 3 1 2 1 3 1 2 1 3 1 2 1 
3 2 2 1 2 1 3 1 3 1 2 1 3 1 2 2 
3 1 2 1 3 1 2 1 3 2 2 1 3 1 2 1 
3 1 2 1 3 1 2 1 3 2 2 1 3 1 2 1 
3 1 2 1 3 1 2 0 3 1 2 1 3 1 2 1 
3 1 2 0 3 1 2 1 3 0 2 1 3 0 2 1 
3 0 2 0 3 1 2 0 3 0 2 0 3 0 2 0 
3 0 2 0 3 0 2 0 3 0 2 0 2 -1 3 0 
3 -1 2 0 3 -1 2 -1 3 0 2 -1 3 -1 2 -1 
3 -1 2 -1 3 -1 2 -1 3 -1 2 -2 3 -1 2 -1 
3 -2 2 -1 3 -2 2 -1 3 -2 2 -2 3 -1 2 -2 
3 -2 2 -2 3 -2 2 -2 3 -1 2 -2 3 -3 2 -2 
2 -2 3 -2 3 -2 2 -2 3 -2 2 -2 3 -3 2 -2 
3 -2 2 -2 3 -2 2 -3 3 -2 2 -2 3 -2 2 -2 
3 -3 2 -2 3 -2 2 -2 3 -2 2 -2 3 -2 2 -2 
3 -2 2 -2 3 -1 2 -2 3 -2 2 -2 3 -1 2 -2 
3 -1 2 -1 3 -2 2 -1 3 -1 2 -1 3 -1 2 -1 
3 -1 2 0 3 -1 2 -1 3 0 2 0 3 -1 2 0 
3 0 2 0 3 1 2 0 3 0 2 1 3 1 2 0 
3 1 2 1 3 1 2 2 3 1 2 1 3 2 2 2 
3 1 2 2 3 2 2 3 3 2 2 2 3 3 2 2 
3 3 2 3 3 3 2 3 3 3 2 3 3 3 2 3 
3 4 2 3 3 4 2 4 3 3 2 4 3 4 2 4 
3 4 2 4 3 4 2 4 3 4 2 4 3 4 2 5 
3 4 2 4 3 4 2 5 3 4 2 4 3 4 2 4 
3 4 2 4 3 5 2 3 3 4 2 4 3 4 2 4 
3 3 2 4 3 4 2 3 3 3 2 3 3 3 2 3 
3 3 2 3 3 2 2 3 3 2 2 2 3 2 2 2 
3 1 2 2 3 1 764 821 300 MP stroke
2 1 3 1 2 0 3 1 2 0 2 0 750 818 7 MP stroke
gr

16.6667 w
0 sg
0.1 sg
%%IncludeResource: font Helvetica-Bold
/Helvetica-Bold /WindowsLatin1Encoding 183.333 FMSR

2273 4322 mt 
(Time [s]) s
 420 2842 mt  -90 rotate
(Velocity [m/s]) s
90 rotate
0 sg
%%IncludeResource: font Helvetica
/Helvetica /WindowsLatin1Encoding 83.3333 FMSR

 732 4037 mt 
( ) s
4483  536 mt 
( ) s
8.33333 w
DO
SO
12.5 w
0.1 sg
 749  499 mt 4500  499 L
 749 4000 mt 4500 4000 L
4500 4000 mt 4500  499 L
 749 4000 mt  749  499 L
 749 4000 mt 4500 4000 L
 749 4000 mt  749  499 L
1000 4000 mt 1000 3943 L
1000  500 mt 1000  556 L
%%IncludeResource: font Helvetica
/Helvetica /WindowsLatin1Encoding 133.333 FMSR

 834 4148 mt 
(0.036) s
1500 4000 mt 1500 3943 L
1500  500 mt 1500  556 L
1334 4148 mt 
(0.038) s
1999 4000 mt 1999 3943 L
1999  500 mt 1999  556 L
1870 4148 mt 
(0.04) s
2500 4000 mt 2500 3943 L
2500  500 mt 2500  556 L
2334 4148 mt 
(0.042) s
3000 4000 mt 3000 3943 L
3000  500 mt 3000  556 L
2834 4148 mt 
(0.044) s
3499 4000 mt 3499 3943 L
3499  500 mt 3499  556 L
3333 4148 mt 
(0.046) s
4000 4000 mt 4000 3943 L
4000  500 mt 4000  556 L
3834 4148 mt 
(0.048) s
4500 4000 mt 4500 3943 L
4500  500 mt 4500  556 L
4371 4148 mt 
(0.05) s
 749 4000 mt  806 4000 L
4500 4000 mt 4443 4000 L
 500 4049 mt 
(-10) s
 749 3681 mt  806 3681 L
4500 3681 mt 4443 3681 L
 574 3730 mt 
(-9) s
 749 3363 mt  806 3363 L
4500 3363 mt 4443 3363 L
 574 3412 mt 
(-8) s
 749 3045 mt  806 3045 L
4500 3045 mt 4443 3045 L
 574 3094 mt 
(-7) s
 749 2727 mt  806 2727 L
4500 2727 mt 4443 2727 L
 574 2776 mt 
(-6) s
 749 2409 mt  806 2409 L
4500 2409 mt 4443 2409 L
 574 2458 mt 
(-5) s
 749 2090 mt  806 2090 L
4500 2090 mt 4443 2090 L
 574 2139 mt 
(-4) s
 749 1772 mt  806 1772 L
4500 1772 mt 4443 1772 L
 574 1821 mt 
(-3) s
 749 1454 mt  806 1454 L
4500 1454 mt 4443 1454 L
 574 1503 mt 
(-2) s
 749 1136 mt  806 1136 L
4500 1136 mt 4443 1136 L
 574 1185 mt 
(-1) s
 749  818 mt  806  818 L
4500  818 mt 4443  818 L
 652  867 mt 
(0) s
 749  500 mt  806  500 L
4500  500 mt 4443  500 L
 652  549 mt 
(1) s
 749  463 mt 
(x 10) s
%%IncludeResource: font Helvetica
/Helvetica /WindowsLatin1Encoding 88.8889 FMSR

1001  381 mt 
(-3) s
 749  499 mt 4500  499 L
 749 4000 mt 4500 4000 L
4500 4000 mt 4500  499 L
 749 4000 mt  749  499 L
0 sg
%%IncludeResource: font Helvetica-Bold
/Helvetica-Bold /WindowsLatin1Encoding 125 FMSR

3728 2129 mt 
(Loading 1) s
gs 3403 1985 945 531 rc
16.6667 w
250 0 3453 2083 2 MP stroke
gr

16.6667 w
3728 2297 mt 
(Loading 2) s
gs 3403 1985 945 531 rc
/c8 { 1.000000 0.000000 0.000000 sr} bdef
c8
250 0 3453 2250 2 MP stroke
gr

c8
0 sg
3728 2464 mt 
(Loading 3) s
gs 3403 1985 945 531 rc
/c9 { 0.000000 0.000000 1.000000 sr} bdef
c9
250 0 3453 2416 2 MP stroke
12.5 w
gr

12.5 w
c9

end %%Color Dict

eplot
%%EndObject

epage
end

showpage

%%Trailer
%%EOF
