%!PS-Adobe-3.0 EPSF-3.0
%%Creator: MATLAB, The MathWorks, Inc. Version 7.12.0.635 (R2011a). Operating System: Linux 2.6.32-358.6.2.el6.x86_64 #1 SMP Thu May 16 11:21:38 CDT 2013 x86_64.
%%Title: ./Bulk_Stiffness_Confined_Porosity.eps
%%CreationDate: 08/15/2013  14:20:36
%%DocumentNeededFonts: Helvetica-Bold
%%+ Helvetica
%%DocumentProcessColors: Cyan Magenta Yellow Black
%%LanguageLevel: 2
%%Pages: 1
%%BoundingBox:    16    64   599   605
%%EndComments

%%BeginProlog
% MathWorks dictionary
/MathWorks 160 dict begin
% definition operators
/bdef {bind def} bind def
/ldef {load def} bind def
/xdef {exch def} bdef
/xstore {exch store} bdef
% operator abbreviations
/c  /clip ldef
/cc /concat ldef
/cp /closepath ldef
/gr /grestore ldef
/gs /gsave ldef
/mt /moveto ldef
/np /newpath ldef
/cm /currentmatrix ldef
/sm /setmatrix ldef
/rm /rmoveto ldef
/rl /rlineto ldef
/s {show newpath} bdef
/sc {setcmykcolor} bdef
/sr /setrgbcolor ldef
/sg /setgray ldef
/w /setlinewidth ldef
/j /setlinejoin ldef
/cap /setlinecap ldef
/rc {rectclip} bdef
/rf {rectfill} bdef
% page state control
/pgsv () def
/bpage {/pgsv save def} bdef
/epage {pgsv restore} bdef
/bplot /gsave ldef
/eplot {stroke grestore} bdef
% orientation switch
/portraitMode 0 def /landscapeMode 1 def /rotateMode 2 def
% coordinate system mappings
/dpi2point 0 def
% font control
/FontSize 0 def
/FMS {/FontSize xstore findfont [FontSize 0 0 FontSize neg 0 0]
  makefont setfont} bdef
/reencode {exch dup where {pop load} {pop StandardEncoding} ifelse
  exch dup 3 1 roll findfont dup length dict begin
  { 1 index /FID ne {def}{pop pop} ifelse } forall
  /Encoding exch def currentdict end definefont pop} bdef
/isroman {findfont /CharStrings get /Agrave known} bdef
/FMSR {3 1 roll 1 index dup isroman {reencode} {pop pop} ifelse
  exch FMS} bdef
/csm {1 dpi2point div -1 dpi2point div scale neg translate
 dup landscapeMode eq {pop -90 rotate}
  {rotateMode eq {90 rotate} if} ifelse} bdef
% line types: solid, dotted, dashed, dotdash
/SO { [] 0 setdash } bdef
/DO { [.5 dpi2point mul 4 dpi2point mul] 0 setdash } bdef
/DA { [6 dpi2point mul] 0 setdash } bdef
/DD { [.5 dpi2point mul 4 dpi2point mul 6 dpi2point mul 4
  dpi2point mul] 0 setdash } bdef
% macros for lines and objects
/L {lineto stroke} bdef
/MP {3 1 roll moveto 1 sub {rlineto} repeat} bdef
/AP {{rlineto} repeat} bdef
/PDlw -1 def
/W {/PDlw currentlinewidth def setlinewidth} def
/PP {closepath eofill} bdef
/DP {closepath stroke} bdef
/MR {4 -2 roll moveto dup  0 exch rlineto exch 0 rlineto
  neg 0 exch rlineto closepath} bdef
/FR {MR stroke} bdef
/PR {MR fill} bdef
/L1i {{currentfile picstr readhexstring pop} image} bdef
/tMatrix matrix def
/MakeOval {newpath tMatrix currentmatrix pop translate scale
0 0 1 0 360 arc tMatrix setmatrix} bdef
/FO {MakeOval stroke} bdef
/PO {MakeOval fill} bdef
/PD {currentlinewidth 2 div 0 360 arc fill
   PDlw -1 eq not {PDlw w /PDlw -1 def} if} def
/FA {newpath tMatrix currentmatrix pop translate scale
  0 0 1 5 -2 roll arc tMatrix setmatrix stroke} bdef
/PA {newpath tMatrix currentmatrix pop	translate 0 0 moveto scale
  0 0 1 5 -2 roll arc closepath tMatrix setmatrix fill} bdef
/FAn {newpath tMatrix currentmatrix pop translate scale
  0 0 1 5 -2 roll arcn tMatrix setmatrix stroke} bdef
/PAn {newpath tMatrix currentmatrix pop translate 0 0 moveto scale
  0 0 1 5 -2 roll arcn closepath tMatrix setmatrix fill} bdef
/vradius 0 def /hradius 0 def /lry 0 def
/lrx 0 def /uly 0 def /ulx 0 def /rad 0 def
/MRR {/vradius xdef /hradius xdef /lry xdef /lrx xdef /uly xdef
  /ulx xdef newpath tMatrix currentmatrix pop ulx hradius add uly
  vradius add translate hradius vradius scale 0 0 1 180 270 arc 
  tMatrix setmatrix lrx hradius sub uly vradius add translate
  hradius vradius scale 0 0 1 270 360 arc tMatrix setmatrix
  lrx hradius sub lry vradius sub translate hradius vradius scale
  0 0 1 0 90 arc tMatrix setmatrix ulx hradius add lry vradius sub
  translate hradius vradius scale 0 0 1 90 180 arc tMatrix setmatrix
  closepath} bdef
/FRR {MRR stroke } bdef
/PRR {MRR fill } bdef
/MlrRR {/lry xdef /lrx xdef /uly xdef /ulx xdef /rad lry uly sub 2 div def
  newpath tMatrix currentmatrix pop ulx rad add uly rad add translate
  rad rad scale 0 0 1 90 270 arc tMatrix setmatrix lrx rad sub lry rad
  sub translate rad rad scale 0 0 1 270 90 arc tMatrix setmatrix
  closepath} bdef
/FlrRR {MlrRR stroke } bdef
/PlrRR {MlrRR fill } bdef
/MtbRR {/lry xdef /lrx xdef /uly xdef /ulx xdef /rad lrx ulx sub 2 div def
  newpath tMatrix currentmatrix pop ulx rad add uly rad add translate
  rad rad scale 0 0 1 180 360 arc tMatrix setmatrix lrx rad sub lry rad
  sub translate rad rad scale 0 0 1 0 180 arc tMatrix setmatrix
  closepath} bdef
/FtbRR {MtbRR stroke } bdef
/PtbRR {MtbRR fill } bdef
/stri 6 array def /dtri 6 array def
/smat 6 array def /dmat 6 array def
/tmat1 6 array def /tmat2 6 array def /dif 3 array def
/asub {/ind2 exch def /ind1 exch def dup dup
  ind1 get exch ind2 get sub exch } bdef
/tri_to_matrix {
  2 0 asub 3 1 asub 4 0 asub 5 1 asub
  dup 0 get exch 1 get 7 -1 roll astore } bdef
/compute_transform {
  dmat dtri tri_to_matrix tmat1 invertmatrix 
  smat stri tri_to_matrix tmat2 concatmatrix } bdef
/ds {stri astore pop} bdef
/dt {dtri astore pop} bdef
/db {2 copy /cols xdef /rows xdef mul dup 3 mul string
  currentfile 
  3 index 0 eq {/ASCIIHexDecode filter}
  {/ASCII85Decode filter 3 index 2 eq {/RunLengthDecode filter} if }
  ifelse exch readstring pop
  dup 0 3 index getinterval /rbmap xdef
  dup 2 index dup getinterval /gbmap xdef
  1 index dup 2 mul exch getinterval /bbmap xdef pop pop}bdef
/it {gs np dtri aload pop moveto lineto lineto cp c
  cols rows 8 compute_transform 
  rbmap gbmap bbmap true 3 colorimage gr}bdef
/il {newpath moveto lineto stroke}bdef
currentdict end def
%%EndProlog

%%BeginSetup
MathWorks begin

0 cap

end
%%EndSetup

%%Page: 1 1
%%BeginPageSetup
%%PageBoundingBox:    16    64   599   605
MathWorks begin
bpage
%%EndPageSetup

%%BeginObject: obj1
bplot

/dpi2point 8.33333 def
portraitMode -0158 5475 csm

  292   426  4860  4514 rc
84 dict begin %Colortable dictionary
/c0 { 0.000000 0.000000 0.000000 sr} bdef
/c1 { 1.000000 1.000000 1.000000 sr} bdef
/c2 { 0.900000 0.000000 0.000000 sr} bdef
/c3 { 0.000000 0.820000 0.000000 sr} bdef
/c4 { 0.000000 0.000000 0.800000 sr} bdef
/c5 { 0.910000 0.820000 0.320000 sr} bdef
/c6 { 1.000000 0.260000 0.820000 sr} bdef
/c7 { 0.000000 0.820000 0.820000 sr} bdef
c0
1 j
1 sg
   0    0 5651 5651 rf
12.5 w
0 3955 4237 0 0 -3955 848 4520 4 MP
PP
-4237 0 0 3955 4237 0 0 -3955 848 4520 5 MP stroke
8.33333 w
DO
SO
12.5 w
0.1 sg
 848 4520 mt 5085 4520 L
 848  565 mt 5085  565 L
 848 4520 mt  848  565 L
5085 4520 mt 5085  565 L
 848 4520 mt 5085 4520 L
 848 4520 mt  848  565 L
 848 4520 mt  848 4488 L
 848  565 mt  848  596 L
 848 4520 mt  848 4456 L
 848  565 mt  848  628 L
%%IncludeResource: font Helvetica
/Helvetica /ISOLatin1Encoding 133.333 FMSR

 724 4708 mt 
(10) s
%%IncludeResource: font Helvetica
/Helvetica /ISOLatin1Encoding 88.8889 FMSR

 872 4626 mt 
(-2) s
1153 4520 mt 1153 4488 L
1153  565 mt 1153  596 L
1332 4520 mt 1332 4488 L
1332  565 mt 1332  596 L
1458 4520 mt 1458 4488 L
1458  565 mt 1458  596 L
1557 4520 mt 1557 4488 L
1557  565 mt 1557  596 L
1637 4520 mt 1637 4488 L
1637  565 mt 1637  596 L
1705 4520 mt 1705 4488 L
1705  565 mt 1705  596 L
1764 4520 mt 1764 4488 L
1764  565 mt 1764  596 L
1816 4520 mt 1816 4488 L
1816  565 mt 1816  596 L
1862 4520 mt 1862 4488 L
1862  565 mt 1862  596 L
1862 4520 mt 1862 4456 L
1862  565 mt 1862  628 L
%%IncludeResource: font Helvetica
/Helvetica /ISOLatin1Encoding 133.333 FMSR

1738 4708 mt 
(10) s
%%IncludeResource: font Helvetica
/Helvetica /ISOLatin1Encoding 88.8889 FMSR

1886 4626 mt 
(-1) s
2168 4520 mt 2168 4488 L
2168  565 mt 2168  596 L
2346 4520 mt 2346 4488 L
2346  565 mt 2346  596 L
2473 4520 mt 2473 4488 L
2473  565 mt 2473  596 L
2571 4520 mt 2571 4488 L
2571  565 mt 2571  596 L
2652 4520 mt 2652 4488 L
2652  565 mt 2652  596 L
2720 4520 mt 2720 4488 L
2720  565 mt 2720  596 L
2778 4520 mt 2778 4488 L
2778  565 mt 2778  596 L
2830 4520 mt 2830 4488 L
2830  565 mt 2830  596 L
2877 4520 mt 2877 4488 L
2877  565 mt 2877  596 L
2877 4520 mt 2877 4456 L
2877  565 mt 2877  628 L
%%IncludeResource: font Helvetica
/Helvetica /ISOLatin1Encoding 133.333 FMSR

2779 4708 mt 
(10) s
%%IncludeResource: font Helvetica
/Helvetica /ISOLatin1Encoding 88.8889 FMSR

2927 4626 mt 
(0) s
3182 4520 mt 3182 4488 L
3182  565 mt 3182  596 L
3361 4520 mt 3361 4488 L
3361  565 mt 3361  596 L
3488 4520 mt 3488 4488 L
3488  565 mt 3488  596 L
3586 4520 mt 3586 4488 L
3586  565 mt 3586  596 L
3666 4520 mt 3666 4488 L
3666  565 mt 3666  596 L
3734 4520 mt 3734 4488 L
3734  565 mt 3734  596 L
3793 4520 mt 3793 4488 L
3793  565 mt 3793  596 L
3845 4520 mt 3845 4488 L
3845  565 mt 3845  596 L
3891 4520 mt 3891 4488 L
3891  565 mt 3891  596 L
3891 4520 mt 3891 4456 L
3891  565 mt 3891  628 L
%%IncludeResource: font Helvetica
/Helvetica /ISOLatin1Encoding 133.333 FMSR

3793 4708 mt 
(10) s
%%IncludeResource: font Helvetica
/Helvetica /ISOLatin1Encoding 88.8889 FMSR

3941 4626 mt 
(1) s
4197 4520 mt 4197 4488 L
4197  565 mt 4197  596 L
4375 4520 mt 4375 4488 L
4375  565 mt 4375  596 L
4502 4520 mt 4502 4488 L
4502  565 mt 4502  596 L
4600 4520 mt 4600 4488 L
4600  565 mt 4600  596 L
4681 4520 mt 4681 4488 L
4681  565 mt 4681  596 L
4749 4520 mt 4749 4488 L
4749  565 mt 4749  596 L
4808 4520 mt 4808 4488 L
4808  565 mt 4808  596 L
4859 4520 mt 4859 4488 L
4859  565 mt 4859  596 L
4906 4520 mt 4906 4488 L
4906  565 mt 4906  596 L
4906 4520 mt 4906 4456 L
4906  565 mt 4906  628 L
%%IncludeResource: font Helvetica
/Helvetica /ISOLatin1Encoding 133.333 FMSR

4808 4708 mt 
(10) s
%%IncludeResource: font Helvetica
/Helvetica /ISOLatin1Encoding 88.8889 FMSR

4956 4626 mt 
(2) s
 848 4520 mt  911 4520 L
5085 4520 mt 5021 4520 L
%%IncludeResource: font Helvetica
/Helvetica /ISOLatin1Encoding 133.333 FMSR

 639 4569 mt 
(0.3) s
 848 4124 mt  911 4124 L
5085 4124 mt 5021 4124 L
 565 4173 mt 
(0.32) s
 848 3729 mt  911 3729 L
5085 3729 mt 5021 3729 L
 565 3778 mt 
(0.34) s
 848 3333 mt  911 3333 L
5085 3333 mt 5021 3333 L
 565 3382 mt 
(0.36) s
 848 2938 mt  911 2938 L
5085 2938 mt 5021 2938 L
 565 2987 mt 
(0.38) s
 848 2542 mt  911 2542 L
5085 2542 mt 5021 2542 L
 639 2591 mt 
(0.4) s
 848 2147 mt  911 2147 L
5085 2147 mt 5021 2147 L
 565 2196 mt 
(0.42) s
 848 1751 mt  911 1751 L
5085 1751 mt 5021 1751 L
 565 1800 mt 
(0.44) s
 848 1356 mt  911 1356 L
5085 1356 mt 5021 1356 L
 565 1405 mt 
(0.46) s
 848  960 mt  911  960 L
5085  960 mt 5021  960 L
 565 1009 mt 
(0.48) s
 848  565 mt  911  565 L
5085  565 mt 5021  565 L
 639  614 mt 
(0.5) s
 848 4520 mt 5085 4520 L
 848  565 mt 5085  565 L
 848 4520 mt  848  565 L
5085 4520 mt 5085  565 L
gs 848 565 4238 3956 rc
16.6667 w
0 sg
-134 -1 -282 -2 -226 -3 -187 -3 -153 -2 -130 -3 -112 -2 -96 -3 
-84 -3 -74 -2 -66 -3 -61 -3 -57 -2 -54 -3 -52 -3 -49 -2 
-47 -3 -45 -3 -43 -2 -39 -3 -38 -3 -36 -2 -35 -3 -34 -3 
-34 -2 -33 -3 -34 -3 -32 -2 -32 -3 -31 -3 -30 -2 -29 -3 
-28 -3 -28 -2 -28 -3 -27 -3 -28 -2 -26 -3 -27 -3 -26 -2 
-25 -3 -23 -3 -25 -2 -24 -3 -23 -3 -24 -2 -23 -3 -21 -3 
-21 -3 -22 -2 -22 -3 -23 -3 -24 -2 -24 -3 -24 -3 -24 -2 
-24 -3 -23 -3 -24 -2 -24 -3 -23 -3 -24 -3 -24 -2 -25 -3 
-24 -3 -24 -2 -24 -3 -24 -3 -23 -3 -25 -2 -24 -3 -23 -3 
-24 -2 -23 -3 -24 -3 -23 -3 -23 -2 -24 -3 -24 -3 -24 -2 
-26 -3 -27 -3 -28 -3 -31 -2 -33 -3 -39 -3 -48 -3 -60 -2 
-71 -3 -55 -3 -43 -2 -29 13 -15 14 3 13 4 14 4 14 
3 13 4 14 4 13 3 14 5 13 3 13 4 14 4 13 
3 13 4 14 4 13 3 13 4 13 4 14 3 13 4 13 
5 13 4 13 4 13 4 13 4 13 4 13 4 13 4 13 
5 13 4 13 4 13 4 13 4 12 5 13 4 13 4 13 
5 12 4 13 3 13 4 12 4 13 4 13 4 12 5 13 
3 12 4 13 4 12 5 13 4 12 5 12 4 13 4 12 
5 12 4 13 4 12 5 12 5 12 4 13 4 12 5 12 
4 12 4 12 4 12 5 12 4 12 4 13 5 12 4 12 
5 11 5 12 5 12 5 12 5 12 5 12 5 12 5 12 
4 11 5 12 4 12 5 12 5 11 5 12 4 12 5 11 
5 12 5 11 5 12 5 12 5 11 5 12 5 11 5 11 
5 12 5 11 5 12 6 11 5 11 5 12 6 11 5 11 
6 12 5 11 6 11 5 11 6 12 5 11 6 11 6 11 
5 11 6 11 6 11 6 11 7 11 6 11 6 11 5 11 
6 11 6 11 6 11 6 11 6 11 5 11 6 11 6 10 
6 11 6 11 7 11 6 11 6 10 7 11 6 11 6 10 
6 11 6 11 6 10 7 11 6 10 8 11 6 10 7 11 
7 10 7 11 7 10 7 11 6 10 7 11 8 10 7 10 
8 11 9 10 6 10 6 11 6 10 6 10 5 11 7 10 
7 10 7 10 7 10 7 10 8 11 8 10 8 10 9 10 
8 10 7 10 7 10 9 10 7 10 8 10 8 10 8 10 
9 10 9 10 9 10 9 10 9 9 10 10 9 10 9 10 
9 10 10 10 9 9 10 10 9 10 10 10 8 9 8 10 
9 10 9 9 7 10 9 9 8 10 9 10 8 9 10 10 
9 9 11 10 10 9 11 10 10 9 10 10 12 9 12 10 
12 9 13 9 11 10 3662 1993 300 MP stroke
11 9 13 10 13 9 12 9 13 10 11 9 9 9 8 9 
9 10 11 9 12 9 13 9 12 9 12 10 11 9 12 9 
12 9 14 9 14 9 15 9 14 9 15 9 13 9 14 9 
14 9 17 9 16 9 17 9 17 9 15 9 15 9 16 9 
18 9 18 9 21 9 19 8 18 9 18 9 16 9 15 9 
18 9 19 8 18 9 20 9 21 8 20 9 20 9 22 9 
23 8 24 9 26 8 27 9 28 9 30 8 27 9 23 8 
24 9 27 9 25 8 29 9 33 8 34 9 29 8 30 9 
33 8 35 8 34 9 33 8 35 9 28 8 32 8 30 9 
38 8 34 8 32 9 18 8 25 8 29 9 33 8 38 8 
43 8 44 9 43 8 48 8 58 8 67 8 53 8 47 9 
39 8 54 8 90 8 117 8 145 8 203 8 96 4 848 1172 96 MP stroke
gr

16.6667 w
0 sg
0.1 sg
%%IncludeResource: font Helvetica-Bold
/Helvetica-Bold /ISOLatin1Encoding 183.333 FMSR

2244 4882 mt 
(Log Stress [kPa]) s
 485 2904 mt  -90 rotate
(Porosity) s
90 rotate
gs 848 565 4238 3956 rc
/c8 { 1.000000 0.000000 0.000000 sr} bdef
c8
-440 -1 -314 -2 -251 -3 -201 -2 -167 -2 -140 -2 -120 -3 -105 -2 
-95 -2 -86 -2 -78 -3 -71 -2 -66 -2 -59 -2 -58 -3 -56 -2 
-56 -2 -54 -3 -53 -2 -49 -2 -48 -2 -47 -3 -46 -2 -43 -2 
-43 -2 -40 -3 -39 -2 -38 -2 -38 -3 -37 -2 -36 -2 -34 -2 
-32 -3 -32 -2 -31 -2 -32 -3 -31 -2 -31 -2 -29 -2 -29 -3 
-27 -2 -26 -2 -26 -3 -26 -2 -27 -2 -28 -2 -33 -3 -42 -2 
-57 -2 -86 -3 -144 -2 -103 -2 -77 -2 -57 11 -35 11 5 12 
5 11 6 12 5 11 6 11 5 12 6 11 5 11 6 12 
5 11 6 11 5 11 5 12 5 11 6 11 6 11 5 11 
6 11 6 11 5 11 6 11 5 11 6 11 5 11 6 11 
6 11 6 11 6 11 6 11 6 11 6 11 6 10 5 11 
6 11 6 11 6 11 5 10 7 11 6 11 5 10 6 11 
7 11 6 10 6 11 6 10 7 11 6 10 6 11 7 10 
6 11 7 10 7 11 7 10 7 11 7 10 7 10 6 11 
7 10 7 10 8 11 7 10 6 10 7 11 7 10 7 10 
7 10 8 10 8 10 7 11 7 10 7 10 7 10 6 10 
7 10 8 10 8 10 7 10 8 10 7 10 7 10 8 10 
8 10 8 10 9 10 9 9 8 10 9 10 9 10 7 10 
9 10 8 9 8 10 9 10 10 10 9 9 10 10 8 10 
8 9 8 10 8 9 8 10 9 10 11 9 10 10 10 9 
11 10 11 9 10 10 11 9 11 10 11 9 11 10 10 9 
11 9 11 10 10 9 11 10 10 9 11 9 10 10 11 9 
12 9 13 9 13 10 13 9 13 9 14 9 13 9 12 10 
13 9 13 9 12 9 13 9 15 9 15 9 15 9 16 9 
15 9 16 9 15 9 16 9 16 9 15 9 15 9 14 9 
17 9 17 9 18 9 19 9 19 9 17 8 20 9 21 9 
20 9 22 9 20 9 18 8 19 9 20 9 23 8 25 9 
26 9 26 9 25 8 25 9 24 8 23 9 24 9 26 8 
24 9 26 8 25 9 27 9 26 8 25 9 25 8 25 9 
26 8 27 9 26 8 27 8 29 9 26 8 24 9 26 8 
30 8 32 9 35 8 37 8 39 9 33 8 33 8 35 9 
36 8 38 8 52 8 54 9 58 8 50 8 50 8 42 8 
42 8 39 9 49 8 36 8 34 8 35 8 45 8 46 8 
46 8 35 8 32 8 29 8 13 8 34 8 74 8 69 8 
60 8 97 8 119 8 66 8 137 8 103 5 848 1067 279 MP stroke
/c9 { 0.000000 0.000000 1.000000 sr} bdef
c9
-4 0 4 1 848 1024 3 MP stroke
-813 -2 -336 -2 -265 -2 -231 -2 -190 -2 -150 -2 -142 -1 -120 -2 
-111 -2 -99 -2 -95 -2 -90 -2 -88 -2 -173 -2 -113 -1 -81 -2 
-59 9 -41 9 13 10 13 9 13 10 14 9 14 9 14 10 
14 9 15 9 14 9 15 10 14 9 16 9 15 9 16 9 
16 10 16 9 16 9 16 9 18 9 17 9 18 9 18 9 
19 9 17 9 17 9 18 9 19 9 17 9 19 9 21 9 
20 9 20 9 21 9 23 9 18 9 20 9 21 8 20 9 
20 9 24 9 24 9 24 9 27 8 24 9 27 9 26 8 
28 9 29 9 30 9 28 8 31 9 31 8 30 9 31 9 
31 8 34 9 32 8 37 9 36 9 38 8 34 9 40 8 
37 9 36 8 40 9 39 8 35 8 36 9 34 8 37 9 
34 8 36 8 31 9 37 8 30 8 38 9 32 8 38 8 
33 9 41 8 25 8 43 8 43 9 45 8 40 8 47 8 
46 8 34 8 40 9 49 8 59 8 38 8 45 8 41 8 
46 8 46 8 46 8 70 8 64 8 56 8 46 8 53 8 
52 8 40 8 36 8 69 8 94 8 85 8 142 8 124 8 
134 8 167 8 68 3 848 1037 132 MP stroke
gr

c9
0 sg
%%IncludeResource: font Helvetica
/Helvetica /ISOLatin1Encoding 166.667 FMSR

 818 4587 mt 
( ) s
5056  631 mt 
( ) s
12.5 w
%%IncludeResource: font Helvetica-Bold
/Helvetica-Bold /ISOLatin1Encoding 125 FMSR

2675 2380 mt 
(G = 2.5 E06 Pa) s
gs 2350 2215 1233 657 rc
16.6667 w
250 0 2399 2334 2 MP stroke
gr

16.6667 w
2675 2590 mt 
(G = 7.5 E06 Pa) s
gs 2350 2215 1233 657 rc
c8
250 0 2399 2543 2 MP stroke
gr

c8
0 sg
2675 2799 mt 
(G = 5 E07 Pa) s
gs 2350 2215 1233 657 rc
c9
250 0 2399 2751 2 MP stroke
12.5 w
gr

12.5 w
c9

end %%Color Dict

eplot
%%EndObject

epage
end

showpage

%%Trailer
%%EOF
