%!PS-Adobe-3.0 EPSF-3.0
%%Creator: MATLAB, The MathWorks, Inc. Version 7.12.0.635 (R2011a). Operating System: Linux 2.6.32-358.6.2.el6.x86_64 #1 SMP Thu May 16 11:21:38 CDT 2013 x86_64.
%%Title: ./Bulk_Stiffness_Confined_SS.eps
%%CreationDate: 08/15/2013  14:20:33
%%DocumentNeededFonts: Helvetica-Bold
%%+ Helvetica
%%DocumentProcessColors: Cyan Magenta Yellow Black
%%LanguageLevel: 2
%%Pages: 1
%%BoundingBox:    20    69   611   605
%%EndComments

%%BeginProlog
% MathWorks dictionary
/MathWorks 160 dict begin
% definition operators
/bdef {bind def} bind def
/ldef {load def} bind def
/xdef {exch def} bdef
/xstore {exch store} bdef
% operator abbreviations
/c  /clip ldef
/cc /concat ldef
/cp /closepath ldef
/gr /grestore ldef
/gs /gsave ldef
/mt /moveto ldef
/np /newpath ldef
/cm /currentmatrix ldef
/sm /setmatrix ldef
/rm /rmoveto ldef
/rl /rlineto ldef
/s {show newpath} bdef
/sc {setcmykcolor} bdef
/sr /setrgbcolor ldef
/sg /setgray ldef
/w /setlinewidth ldef
/j /setlinejoin ldef
/cap /setlinecap ldef
/rc {rectclip} bdef
/rf {rectfill} bdef
% page state control
/pgsv () def
/bpage {/pgsv save def} bdef
/epage {pgsv restore} bdef
/bplot /gsave ldef
/eplot {stroke grestore} bdef
% orientation switch
/portraitMode 0 def /landscapeMode 1 def /rotateMode 2 def
% coordinate system mappings
/dpi2point 0 def
% font control
/FontSize 0 def
/FMS {/FontSize xstore findfont [FontSize 0 0 FontSize neg 0 0]
  makefont setfont} bdef
/reencode {exch dup where {pop load} {pop StandardEncoding} ifelse
  exch dup 3 1 roll findfont dup length dict begin
  { 1 index /FID ne {def}{pop pop} ifelse } forall
  /Encoding exch def currentdict end definefont pop} bdef
/isroman {findfont /CharStrings get /Agrave known} bdef
/FMSR {3 1 roll 1 index dup isroman {reencode} {pop pop} ifelse
  exch FMS} bdef
/csm {1 dpi2point div -1 dpi2point div scale neg translate
 dup landscapeMode eq {pop -90 rotate}
  {rotateMode eq {90 rotate} if} ifelse} bdef
% line types: solid, dotted, dashed, dotdash
/SO { [] 0 setdash } bdef
/DO { [.5 dpi2point mul 4 dpi2point mul] 0 setdash } bdef
/DA { [6 dpi2point mul] 0 setdash } bdef
/DD { [.5 dpi2point mul 4 dpi2point mul 6 dpi2point mul 4
  dpi2point mul] 0 setdash } bdef
% macros for lines and objects
/L {lineto stroke} bdef
/MP {3 1 roll moveto 1 sub {rlineto} repeat} bdef
/AP {{rlineto} repeat} bdef
/PDlw -1 def
/W {/PDlw currentlinewidth def setlinewidth} def
/PP {closepath eofill} bdef
/DP {closepath stroke} bdef
/MR {4 -2 roll moveto dup  0 exch rlineto exch 0 rlineto
  neg 0 exch rlineto closepath} bdef
/FR {MR stroke} bdef
/PR {MR fill} bdef
/L1i {{currentfile picstr readhexstring pop} image} bdef
/tMatrix matrix def
/MakeOval {newpath tMatrix currentmatrix pop translate scale
0 0 1 0 360 arc tMatrix setmatrix} bdef
/FO {MakeOval stroke} bdef
/PO {MakeOval fill} bdef
/PD {currentlinewidth 2 div 0 360 arc fill
   PDlw -1 eq not {PDlw w /PDlw -1 def} if} def
/FA {newpath tMatrix currentmatrix pop translate scale
  0 0 1 5 -2 roll arc tMatrix setmatrix stroke} bdef
/PA {newpath tMatrix currentmatrix pop	translate 0 0 moveto scale
  0 0 1 5 -2 roll arc closepath tMatrix setmatrix fill} bdef
/FAn {newpath tMatrix currentmatrix pop translate scale
  0 0 1 5 -2 roll arcn tMatrix setmatrix stroke} bdef
/PAn {newpath tMatrix currentmatrix pop translate 0 0 moveto scale
  0 0 1 5 -2 roll arcn closepath tMatrix setmatrix fill} bdef
/vradius 0 def /hradius 0 def /lry 0 def
/lrx 0 def /uly 0 def /ulx 0 def /rad 0 def
/MRR {/vradius xdef /hradius xdef /lry xdef /lrx xdef /uly xdef
  /ulx xdef newpath tMatrix currentmatrix pop ulx hradius add uly
  vradius add translate hradius vradius scale 0 0 1 180 270 arc 
  tMatrix setmatrix lrx hradius sub uly vradius add translate
  hradius vradius scale 0 0 1 270 360 arc tMatrix setmatrix
  lrx hradius sub lry vradius sub translate hradius vradius scale
  0 0 1 0 90 arc tMatrix setmatrix ulx hradius add lry vradius sub
  translate hradius vradius scale 0 0 1 90 180 arc tMatrix setmatrix
  closepath} bdef
/FRR {MRR stroke } bdef
/PRR {MRR fill } bdef
/MlrRR {/lry xdef /lrx xdef /uly xdef /ulx xdef /rad lry uly sub 2 div def
  newpath tMatrix currentmatrix pop ulx rad add uly rad add translate
  rad rad scale 0 0 1 90 270 arc tMatrix setmatrix lrx rad sub lry rad
  sub translate rad rad scale 0 0 1 270 90 arc tMatrix setmatrix
  closepath} bdef
/FlrRR {MlrRR stroke } bdef
/PlrRR {MlrRR fill } bdef
/MtbRR {/lry xdef /lrx xdef /uly xdef /ulx xdef /rad lrx ulx sub 2 div def
  newpath tMatrix currentmatrix pop ulx rad add uly rad add translate
  rad rad scale 0 0 1 180 360 arc tMatrix setmatrix lrx rad sub lry rad
  sub translate rad rad scale 0 0 1 0 180 arc tMatrix setmatrix
  closepath} bdef
/FtbRR {MtbRR stroke } bdef
/PtbRR {MtbRR fill } bdef
/stri 6 array def /dtri 6 array def
/smat 6 array def /dmat 6 array def
/tmat1 6 array def /tmat2 6 array def /dif 3 array def
/asub {/ind2 exch def /ind1 exch def dup dup
  ind1 get exch ind2 get sub exch } bdef
/tri_to_matrix {
  2 0 asub 3 1 asub 4 0 asub 5 1 asub
  dup 0 get exch 1 get 7 -1 roll astore } bdef
/compute_transform {
  dmat dtri tri_to_matrix tmat1 invertmatrix 
  smat stri tri_to_matrix tmat2 concatmatrix } bdef
/ds {stri astore pop} bdef
/dt {dtri astore pop} bdef
/db {2 copy /cols xdef /rows xdef mul dup 3 mul string
  currentfile 
  3 index 0 eq {/ASCIIHexDecode filter}
  {/ASCII85Decode filter 3 index 2 eq {/RunLengthDecode filter} if }
  ifelse exch readstring pop
  dup 0 3 index getinterval /rbmap xdef
  dup 2 index dup getinterval /gbmap xdef
  1 index dup 2 mul exch getinterval /bbmap xdef pop pop}bdef
/it {gs np dtri aload pop moveto lineto lineto cp c
  cols rows 8 compute_transform 
  rbmap gbmap bbmap true 3 colorimage gr}bdef
/il {newpath moveto lineto stroke}bdef
currentdict end def
%%EndProlog

%%BeginSetup
MathWorks begin

0 cap

end
%%EndSetup

%%Page: 1 1
%%BeginPageSetup
%%PageBoundingBox:    20    69   611   605
MathWorks begin
bpage
%%EndPageSetup

%%BeginObject: obj1
bplot

/dpi2point 8.33333 def
portraitMode -0158 5475 csm

  329   426  4922  4474 rc
84 dict begin %Colortable dictionary
/c0 { 0.000000 0.000000 0.000000 sr} bdef
/c1 { 1.000000 1.000000 1.000000 sr} bdef
/c2 { 0.900000 0.000000 0.000000 sr} bdef
/c3 { 0.000000 0.820000 0.000000 sr} bdef
/c4 { 0.000000 0.000000 0.800000 sr} bdef
/c5 { 0.910000 0.820000 0.320000 sr} bdef
/c6 { 1.000000 0.260000 0.820000 sr} bdef
/c7 { 0.000000 0.820000 0.820000 sr} bdef
c0
1 j
1 sg
   0    0 5651 5651 rf
12.5 w
0 3955 4237 0 0 -3955 848 4520 4 MP
PP
-4237 0 0 3955 4237 0 0 -3955 848 4520 5 MP stroke
8.33333 w
DO
SO
12.5 w
0.1 sg
 848 4520 mt 5085 4520 L
 848  565 mt 5085  565 L
 848 4520 mt  848  565 L
5085 4520 mt 5085  565 L
 848 4520 mt 5085 4520 L
 848 4520 mt  848  565 L
 848 4520 mt  848 4456 L
 848  565 mt  848  628 L
%%IncludeResource: font Helvetica
/Helvetica /ISOLatin1Encoding 133.333 FMSR

 811 4668 mt 
(0) s
1695 4520 mt 1695 4456 L
1695  565 mt 1695  628 L
1566 4668 mt 
(0.05) s
2542 4520 mt 2542 4456 L
2542  565 mt 2542  628 L
2450 4668 mt 
(0.1) s
3390 4520 mt 3390 4456 L
3390  565 mt 3390  628 L
3261 4668 mt 
(0.15) s
4237 4520 mt 4237 4456 L
4237  565 mt 4237  628 L
4145 4668 mt 
(0.2) s
5085 4520 mt 5085 4456 L
5085  565 mt 5085  628 L
4956 4668 mt 
(0.25) s
 848 4520 mt  911 4520 L
5085 4520 mt 5021 4520 L
 750 4569 mt 
(0) s
 848 3955 mt  911 3955 L
5085 3955 mt 5021 3955 L
 676 4004 mt 
(20) s
 848 3390 mt  911 3390 L
5085 3390 mt 5021 3390 L
 676 3439 mt 
(40) s
 848 2825 mt  911 2825 L
5085 2825 mt 5021 2825 L
 676 2874 mt 
(60) s
 848 2260 mt  911 2260 L
5085 2260 mt 5021 2260 L
 676 2309 mt 
(80) s
 848 1695 mt  911 1695 L
5085 1695 mt 5021 1695 L
 602 1744 mt 
(100) s
 848 1130 mt  911 1130 L
5085 1130 mt 5021 1130 L
 602 1179 mt 
(120) s
 848  565 mt  911  565 L
5085  565 mt 5021  565 L
 602  614 mt 
(140) s
 848 4520 mt 5085 4520 L
 848  565 mt 5085  565 L
 848 4520 mt  848  565 L
5085 4520 mt 5085  565 L
gs 848 565 4238 3956 rc
16.6667 w
0 sg
-3 1 -2 0 -3 0 -3 0 -2 1 -3 0 -2 1 -3 1 
-2 1 -3 1 -3 1 -2 2 -3 1 -2 1 -3 2 -3 1 
-2 2 -3 2 -2 2 -3 2 -3 2 -2 2 -3 3 -2 2 
-3 3 -3 2 -2 3 -3 3 -2 3 -3 4 -3 4 -2 3 
-3 4 -2 4 -3 5 -3 4 -2 5 -3 5 -2 5 -3 5 
-3 6 -2 6 -3 7 -2 6 -3 6 -2 6 -3 8 -3 8 
-2 8 -3 8 -2 7 -3 7 -3 10 -2 10 -3 12 -2 12 
-3 11 -3 12 -2 14 -3 15 -2 15 -3 16 -3 16 -2 17 
-3 19 -2 21 -3 22 -3 21 -2 23 -3 24 -2 27 -3 28 
-3 29 -2 31 -3 32 -2 33 -3 35 -3 35 -2 41 -3 39 
-2 44 -3 50 -2 52 -3 57 -3 63 -2 76 -3 86 -2 104 
-3 127 -3 181 -2 282 -3 394 -2 530 13 -26 13 -2 12 -22 
13 -35 13 -9 13 -36 13 -15 13 -24 13 -24 13 -21 13 -26 
13 -33 13 -2 13 -29 13 -18 13 -26 13 -15 13 -25 13 -15 
13 -27 13 -18 13 -22 13 -25 13 -20 13 -27 13 -14 13 -25 
13 -16 13 -24 13 -28 13 -11 13 -26 13 -15 13 -25 13 -17 
13 -23 13 -24 13 -11 13 -30 13 -16 12 -6 13 -20 13 -24 
13 -14 13 -22 13 -13 13 -23 13 -11 13 -19 13 -17 13 -22 
13 -21 13 -13 13 -21 13 -7 13 -32 13 -9 13 -11 13 -26 
13 -14 13 -16 13 -15 13 -17 13 -15 13 -14 13 -21 13 -12 
13 -10 13 -18 13 -17 13 -16 13 -19 13 -16 13 -14 13 -24 
13 -11 13 -17 13 -8 12 -17 13 -12 13 -17 13 -15 13 -17 
13 -7 13 -17 13 -11 13 -12 13 -21 13 -13 13 -13 13 -14 
13 -11 13 -13 13 -14 13 -13 13 -13 13 -14 13 -15 13 -10 
13 -13 13 -16 13 -14 13 -11 13 -12 13 -12 13 -13 13 -18 
13 -7 13 -12 13 -13 13 -11 13 -14 13 -14 13 -11 13 -13 
13 -18 12 -3 13 -9 13 -12 13 -17 13 -7 13 -15 13 -7 
13 -10 13 -9 13 -13 13 -10 13 -10 13 -10 13 -14 13 -6 
13 -12 13 -10 13 -9 13 -6 13 -10 13 -11 13 -10 13 -11 
13 -9 13 -10 13 -6 13 -15 13 -8 13 -7 13 -10 13 -6 
13 -9 13 -13 13 -10 13 -7 13 -7 13 -13 13 -1 12 -5 
13 -8 13 -9 13 -6 13 -9 13 -6 13 -6 13 -8 13 -10 
13 -9 13 -7 13 -4 13 -12 13 -4 13 -6 13 -7 13 -7 
13 -7 13 -7 13 -6 13 -8 13 -7 13 -7 13 -6 13 -9 
13 -5 13 -6 13 -6 13 -7 13 -7 13 -6 13 -6 13 -4 
13 -6 13 -9 13 0 13 -5 13 -6 12 -5 13 -4 13 -5 
13 -3 13 -4 13 -6 13 -6 13 -5 13 -4 13 -5 13 -4 
13 -5 13 -5 13 -5 2158 4342 300 MP stroke
13 -5 13 -5 13 -5 13 -2 13 -4 13 -7 13 -5 13 -4 
13 -1 13 -2 13 -3 13 -3 13 -4 13 -4 13 -4 13 -3 
13 -2 13 -3 13 -3 13 -3 13 -4 13 -4 13 -3 13 -3 
12 -2 13 -3 13 -3 13 -3 13 -3 13 -4 13 -1 13 -3 
13 -3 13 -1 13 -3 13 -3 13 -3 13 -3 13 -2 13 -1 
13 -2 13 -2 13 -1 13 -2 13 -3 13 -1 13 -2 13 -1 
13 -2 13 -2 13 -2 13 -1 13 -2 13 -2 13 -1 13 -2 
13 -1 13 -2 13 0 13 -1 13 -1 13 -2 12 -1 13 -1 
13 -1 13 -1 13 0 13 -1 13 -1 13 -1 13 0 13 -1 
13 0 13 -1 13 -1 13 0 13 0 13 -1 13 0 13 0 
13 0 13 -1 13 0 13 0 13 0 13 -1 13 0 13 -1 
13 0 13 0 13 0 13 0 13 0 13 -1 13 0 13 0 
13 0 13 0 13 0 13 0 12 0 848 4519 102 MP stroke
gr

16.6667 w
0 sg
0.1 sg
%%IncludeResource: font Helvetica-Bold
/Helvetica-Bold /ISOLatin1Encoding 183.333 FMSR

2705 4842 mt 
(Strain) s
 522 3424 mt  -90 rotate
(Vertical Stress [kPa]) s
90 rotate
gs 848 565 4238 3956 rc
/c8 { 1.000000 0.000000 0.000000 sr} bdef
c8
-2 1 -3 0 -3 1 -2 1 -3 1 -2 3 -3 2 -2 3 
-3 3 -3 3 -2 4 -3 4 -2 5 -3 5 -2 5 -3 6 
-2 5 -3 8 -3 8 -2 9 -3 9 -2 10 -3 9 -2 13 
-3 13 -3 13 -2 13 -3 14 -2 16 -3 16 -2 19 -3 20 
-3 19 -2 20 -3 19 -2 21 -3 25 -2 27 -3 28 -2 26 
-3 28 -3 29 -2 33 -3 30 -2 30 -3 34 -2 39 -3 46 
-3 55 -2 81 -3 132 -2 224 -3 468 -2 1176 12 -40 13 -25 
13 -31 13 -29 13 -29 13 -39 12 -32 13 -32 13 -36 13 -31 
13 -26 13 -37 12 -33 13 -21 13 -27 13 -25 13 -39 12 -24 
13 -33 13 -26 13 -23 13 -34 13 -29 12 -22 13 -28 13 -25 
13 -25 13 -31 13 -23 12 -25 13 -27 13 -37 13 -13 13 -30 
13 -21 12 -28 13 -15 13 -28 13 -31 13 -14 12 -21 13 -30 
13 -19 13 -22 13 -21 13 -26 12 -19 13 -29 13 -14 13 -23 
13 -22 13 -23 12 -23 13 -18 13 -25 13 -27 13 -12 13 -25 
12 -13 13 -25 13 -26 13 -11 13 -26 12 -16 13 -17 13 -17 
13 -15 13 -30 13 -12 12 -18 13 -26 13 -17 13 -7 13 -17 
13 -17 12 -19 13 -9 13 -21 13 -22 13 -11 13 -13 12 -16 
13 -13 13 -15 13 -21 13 -17 12 -9 13 -25 13 -12 13 -12 
13 -16 13 -14 12 -11 13 -16 13 -13 13 -14 13 -16 13 -15 
12 -13 13 -14 13 -2 13 -12 13 -15 13 -13 12 -11 13 -14 
13 -16 13 -11 13 -12 13 -14 12 -9 13 -13 13 -13 13 -12 
13 -11 12 -8 13 -10 13 -12 13 -12 13 -8 13 -8 12 -7 
13 -11 13 -11 13 -9 13 -10 13 -10 12 -11 13 -9 13 -9 
13 -10 13 -7 13 -5 12 -11 13 -6 13 -9 13 -8 13 -9 
12 -9 13 -7 13 -7 13 -7 13 -8 13 -7 12 -6 13 -7 
13 -5 13 -4 13 -7 13 -10 12 -5 13 -5 13 -5 13 -5 
13 -7 13 -8 12 -4 13 -5 13 -4 13 -3 13 -5 12 -4 
13 -6 13 -6 13 -4 13 -4 13 -3 12 -4 13 -4 13 -2 
13 -3 13 -3 13 -3 12 -3 13 -3 13 -1 13 -3 13 -2 
13 -2 12 -2 13 -1 13 -2 13 -3 13 -1 12 -1 13 -1 
13 -1 13 -2 13 -1 13 -2 12 -1 13 -1 13 -2 13 -1 
13 0 13 -1 12 -1 13 -1 13 -1 13 -1 13 -1 13 0 
12 -1 13 0 13 -1 13 0 13 0 12 -1 13 0 13 0 
13 0 13 -1 13 0 12 0 13 0 13 0 13 0 13 0 
13 0 12 -1 13 0 13 0 13 0 13 0 13 0 12 0 
13 0 13 0 13 0 13 0 12 0 848 4519 286 MP stroke
/c9 { 0.000000 0.000000 1.000000 sr} bdef
c9
-3 1 -2 5 -3 11 -3 22 -2 31 -3 37 -2 62 -3 63 
-2 56 -3 109 -2 85 -3 132 -3 124 -2 156 -3 209 -2 234 
-3 1519 13 -82 13 -72 13 -72 12 -84 13 -78 13 -93 13 -42 
13 -74 12 -90 13 -75 13 -58 13 -62 13 -60 13 -80 12 -52 
13 -72 13 -59 13 -50 13 -72 12 -48 13 -50 13 -56 13 -69 
13 -48 13 -46 12 -45 13 -63 13 -24 13 -41 13 -55 12 -44 
13 -32 13 -36 13 -53 13 -33 13 -35 12 -38 13 -40 13 -9 
13 -37 13 -29 12 -30 13 -35 13 -27 13 -30 13 -22 13 -33 
12 -19 13 -30 13 -18 13 -24 13 -26 12 -18 13 -15 13 -22 
13 -17 13 -15 12 -17 13 -8 13 -23 13 -8 13 -18 13 -11 
12 -7 13 -10 13 -12 13 -9 13 -7 12 -7 13 -6 13 -5 
13 -7 13 -2 13 -7 12 -3 13 -4 13 -1 13 -6 13 -1 
12 -6 13 1 13 -4 13 -2 13 -3 13 0 12 -4 13 -2 
13 -2 13 -1 13 0 12 -3 13 0 13 -2 13 -1 13 -1 
13 0 12 0 13 -1 13 -2 13 0 13 0 12 -1 13 -1 
13 0 13 0 13 0 13 -1 12 0 13 0 13 0 13 -1 
13 0 12 0 13 0 13 0 13 0 13 0 12 0 848 4519 136 MP stroke
DO
/c10 { 1.000000 0.000000 1.000000 sr} bdef
c10
-35 461 0 2780 70 -558 60 -557 87 -546 104 -563 78 -277 95 -278 
174 -271 216 -155 848 4484 11 MP stroke
gr

c10
DO
SO
0 j
41 54 -41 54 -41 -54 41 -54 848 4538 5 MP
gs
PP
gr
DP
41 54 -41 54 -41 -54 41 -54 1064 4383 5 MP
gs
PP
gr
DP
41 54 -41 54 -41 -54 41 -54 1238 4112 5 MP
gs
PP
gr
DP
41 54 -41 54 -41 -54 41 -54 1333 3834 5 MP
gs
PP
gr
DP
41 54 -41 54 -41 -54 41 -54 1411 3557 5 MP
gs
PP
gr
DP
41 54 -41 54 -41 -54 41 -54 1515 2994 5 MP
gs
PP
gr
DP
41 54 -41 54 -41 -54 41 -54 1602 2448 5 MP
gs
PP
gr
DP
41 54 -41 54 -41 -54 41 -54 1662 1891 5 MP
gs
PP
gr
DP
41 54 -41 54 -41 -54 41 -54 1732 1333 5 MP
gs
PP
gr
DP
41 54 -41 54 -41 -54 41 -54 1732 4113 5 MP
gs
PP
gr
DP
41 54 -41 54 -41 -54 41 -54 1697 4574 5 MP
gs
PP
gr
DP
DO
gs 848 565 4238 3956 rc
gr

0 sg
%%IncludeResource: font Helvetica
/Helvetica /ISOLatin1Encoding 166.667 FMSR

 818 4587 mt 
( ) s
5056  631 mt 
( ) s
SO
12.5 w
%%IncludeResource: font Helvetica-Bold
/Helvetica-Bold /ISOLatin1Encoding 125 FMSR

2230  792 mt 
(G = 2.5 E06 Pa) s
gs 1905 627 2123 866 rc
16.6667 w
250 0 1955 746 2 MP stroke
gr

16.6667 w
2230 1001 mt 
(G = 7.5 E06 Pa) s
gs 1905 627 2123 866 rc
c8
250 0 1955 955 2 MP stroke
gr

c8
0 sg
2230 1211 mt 
(G = 5 E07 Pa) s
gs 1905 627 2123 866 rc
c9
250 0 1955 1163 2 MP stroke
gr

c9
0 sg
2230 1420 mt 
(Iron Ore fines - 120kPa - Dry) s
gs 1905 627 2123 866 rc
DO
c10
250 0 1955 1372 2 MP stroke
SO
gs 1978 1270 205 205 rc
41 54 -41 54 -41 -54 41 -54 2080 1426 5 MP
gs
PP
gr
DP
gr

12.5 w
gr

12.5 w
c10

end %%Color Dict

eplot
%%EndObject

epage
end

showpage

%%Trailer
%%EOF
