%!PS-Adobe-3.0 EPSF-3.0
%%Creator: MATLAB, The MathWorks, Inc. Version 7.12.0.635 (R2011a). Operating System: Linux 2.6.32-358.6.2.el6.x86_64 #1 SMP Thu May 16 11:21:38 CDT 2013 x86_64.
%%Title: ./Bulk_Stiffness_Confined_Density.eps
%%CreationDate: 08/15/2013  14:20:36
%%DocumentNeededFonts: Helvetica-Bold
%%+ Helvetica
%%DocumentProcessColors: Cyan Magenta Yellow Black
%%LanguageLevel: 2
%%Pages: 1
%%BoundingBox:     5    64   599   605
%%EndComments

%%BeginProlog
% MathWorks dictionary
/MathWorks 160 dict begin
% definition operators
/bdef {bind def} bind def
/ldef {load def} bind def
/xdef {exch def} bdef
/xstore {exch store} bdef
% operator abbreviations
/c  /clip ldef
/cc /concat ldef
/cp /closepath ldef
/gr /grestore ldef
/gs /gsave ldef
/mt /moveto ldef
/np /newpath ldef
/cm /currentmatrix ldef
/sm /setmatrix ldef
/rm /rmoveto ldef
/rl /rlineto ldef
/s {show newpath} bdef
/sc {setcmykcolor} bdef
/sr /setrgbcolor ldef
/sg /setgray ldef
/w /setlinewidth ldef
/j /setlinejoin ldef
/cap /setlinecap ldef
/rc {rectclip} bdef
/rf {rectfill} bdef
% page state control
/pgsv () def
/bpage {/pgsv save def} bdef
/epage {pgsv restore} bdef
/bplot /gsave ldef
/eplot {stroke grestore} bdef
% orientation switch
/portraitMode 0 def /landscapeMode 1 def /rotateMode 2 def
% coordinate system mappings
/dpi2point 0 def
% font control
/FontSize 0 def
/FMS {/FontSize xstore findfont [FontSize 0 0 FontSize neg 0 0]
  makefont setfont} bdef
/reencode {exch dup where {pop load} {pop StandardEncoding} ifelse
  exch dup 3 1 roll findfont dup length dict begin
  { 1 index /FID ne {def}{pop pop} ifelse } forall
  /Encoding exch def currentdict end definefont pop} bdef
/isroman {findfont /CharStrings get /Agrave known} bdef
/FMSR {3 1 roll 1 index dup isroman {reencode} {pop pop} ifelse
  exch FMS} bdef
/csm {1 dpi2point div -1 dpi2point div scale neg translate
 dup landscapeMode eq {pop -90 rotate}
  {rotateMode eq {90 rotate} if} ifelse} bdef
% line types: solid, dotted, dashed, dotdash
/SO { [] 0 setdash } bdef
/DO { [.5 dpi2point mul 4 dpi2point mul] 0 setdash } bdef
/DA { [6 dpi2point mul] 0 setdash } bdef
/DD { [.5 dpi2point mul 4 dpi2point mul 6 dpi2point mul 4
  dpi2point mul] 0 setdash } bdef
% macros for lines and objects
/L {lineto stroke} bdef
/MP {3 1 roll moveto 1 sub {rlineto} repeat} bdef
/AP {{rlineto} repeat} bdef
/PDlw -1 def
/W {/PDlw currentlinewidth def setlinewidth} def
/PP {closepath eofill} bdef
/DP {closepath stroke} bdef
/MR {4 -2 roll moveto dup  0 exch rlineto exch 0 rlineto
  neg 0 exch rlineto closepath} bdef
/FR {MR stroke} bdef
/PR {MR fill} bdef
/L1i {{currentfile picstr readhexstring pop} image} bdef
/tMatrix matrix def
/MakeOval {newpath tMatrix currentmatrix pop translate scale
0 0 1 0 360 arc tMatrix setmatrix} bdef
/FO {MakeOval stroke} bdef
/PO {MakeOval fill} bdef
/PD {currentlinewidth 2 div 0 360 arc fill
   PDlw -1 eq not {PDlw w /PDlw -1 def} if} def
/FA {newpath tMatrix currentmatrix pop translate scale
  0 0 1 5 -2 roll arc tMatrix setmatrix stroke} bdef
/PA {newpath tMatrix currentmatrix pop	translate 0 0 moveto scale
  0 0 1 5 -2 roll arc closepath tMatrix setmatrix fill} bdef
/FAn {newpath tMatrix currentmatrix pop translate scale
  0 0 1 5 -2 roll arcn tMatrix setmatrix stroke} bdef
/PAn {newpath tMatrix currentmatrix pop translate 0 0 moveto scale
  0 0 1 5 -2 roll arcn closepath tMatrix setmatrix fill} bdef
/vradius 0 def /hradius 0 def /lry 0 def
/lrx 0 def /uly 0 def /ulx 0 def /rad 0 def
/MRR {/vradius xdef /hradius xdef /lry xdef /lrx xdef /uly xdef
  /ulx xdef newpath tMatrix currentmatrix pop ulx hradius add uly
  vradius add translate hradius vradius scale 0 0 1 180 270 arc 
  tMatrix setmatrix lrx hradius sub uly vradius add translate
  hradius vradius scale 0 0 1 270 360 arc tMatrix setmatrix
  lrx hradius sub lry vradius sub translate hradius vradius scale
  0 0 1 0 90 arc tMatrix setmatrix ulx hradius add lry vradius sub
  translate hradius vradius scale 0 0 1 90 180 arc tMatrix setmatrix
  closepath} bdef
/FRR {MRR stroke } bdef
/PRR {MRR fill } bdef
/MlrRR {/lry xdef /lrx xdef /uly xdef /ulx xdef /rad lry uly sub 2 div def
  newpath tMatrix currentmatrix pop ulx rad add uly rad add translate
  rad rad scale 0 0 1 90 270 arc tMatrix setmatrix lrx rad sub lry rad
  sub translate rad rad scale 0 0 1 270 90 arc tMatrix setmatrix
  closepath} bdef
/FlrRR {MlrRR stroke } bdef
/PlrRR {MlrRR fill } bdef
/MtbRR {/lry xdef /lrx xdef /uly xdef /ulx xdef /rad lrx ulx sub 2 div def
  newpath tMatrix currentmatrix pop ulx rad add uly rad add translate
  rad rad scale 0 0 1 180 360 arc tMatrix setmatrix lrx rad sub lry rad
  sub translate rad rad scale 0 0 1 0 180 arc tMatrix setmatrix
  closepath} bdef
/FtbRR {MtbRR stroke } bdef
/PtbRR {MtbRR fill } bdef
/stri 6 array def /dtri 6 array def
/smat 6 array def /dmat 6 array def
/tmat1 6 array def /tmat2 6 array def /dif 3 array def
/asub {/ind2 exch def /ind1 exch def dup dup
  ind1 get exch ind2 get sub exch } bdef
/tri_to_matrix {
  2 0 asub 3 1 asub 4 0 asub 5 1 asub
  dup 0 get exch 1 get 7 -1 roll astore } bdef
/compute_transform {
  dmat dtri tri_to_matrix tmat1 invertmatrix 
  smat stri tri_to_matrix tmat2 concatmatrix } bdef
/ds {stri astore pop} bdef
/dt {dtri astore pop} bdef
/db {2 copy /cols xdef /rows xdef mul dup 3 mul string
  currentfile 
  3 index 0 eq {/ASCIIHexDecode filter}
  {/ASCII85Decode filter 3 index 2 eq {/RunLengthDecode filter} if }
  ifelse exch readstring pop
  dup 0 3 index getinterval /rbmap xdef
  dup 2 index dup getinterval /gbmap xdef
  1 index dup 2 mul exch getinterval /bbmap xdef pop pop}bdef
/it {gs np dtri aload pop moveto lineto lineto cp c
  cols rows 8 compute_transform 
  rbmap gbmap bbmap true 3 colorimage gr}bdef
/il {newpath moveto lineto stroke}bdef
currentdict end def
%%EndProlog

%%BeginSetup
MathWorks begin

0 cap

end
%%EndSetup

%%Page: 1 1
%%BeginPageSetup
%%PageBoundingBox:     5    64   599   605
MathWorks begin
bpage
%%EndPageSetup

%%BeginObject: obj1
bplot

/dpi2point 8.33333 def
portraitMode -0158 5475 csm

  204   426  4948  4514 rc
84 dict begin %Colortable dictionary
/c0 { 0.000000 0.000000 0.000000 sr} bdef
/c1 { 1.000000 1.000000 1.000000 sr} bdef
/c2 { 0.900000 0.000000 0.000000 sr} bdef
/c3 { 0.000000 0.820000 0.000000 sr} bdef
/c4 { 0.000000 0.000000 0.800000 sr} bdef
/c5 { 0.910000 0.820000 0.320000 sr} bdef
/c6 { 1.000000 0.260000 0.820000 sr} bdef
/c7 { 0.000000 0.820000 0.820000 sr} bdef
c0
1 j
1 sg
   0    0 5651 5651 rf
12.5 w
0 3956 4237 0 0 -3956 848 4520 4 MP
PP
-4237 0 0 3956 4237 0 0 -3956 848 4520 5 MP stroke
8.33333 w
DO
SO
12.5 w
0.1 sg
 848 4520 mt 5085 4520 L
 848  564 mt 5085  564 L
 848 4520 mt  848  564 L
5085 4520 mt 5085  564 L
 848 4520 mt 5085 4520 L
 848 4520 mt  848  564 L
 848 4520 mt  848 4488 L
 848  565 mt  848  596 L
 848 4520 mt  848 4456 L
 848  565 mt  848  628 L
%%IncludeResource: font Helvetica
/Helvetica /ISOLatin1Encoding 133.333 FMSR

 750 4708 mt 
(10) s
%%IncludeResource: font Helvetica
/Helvetica /ISOLatin1Encoding 88.8889 FMSR

 898 4626 mt 
(0) s
1402 4520 mt 1402 4488 L
1402  565 mt 1402  596 L
1726 4520 mt 1726 4488 L
1726  565 mt 1726  596 L
1956 4520 mt 1956 4488 L
1956  565 mt 1956  596 L
2135 4520 mt 2135 4488 L
2135  565 mt 2135  596 L
2280 4520 mt 2280 4488 L
2280  565 mt 2280  596 L
2404 4520 mt 2404 4488 L
2404  565 mt 2404  596 L
2510 4520 mt 2510 4488 L
2510  565 mt 2510  596 L
2605 4520 mt 2605 4488 L
2605  565 mt 2605  596 L
2689 4520 mt 2689 4488 L
2689  565 mt 2689  596 L
2689 4520 mt 2689 4456 L
2689  565 mt 2689  628 L
%%IncludeResource: font Helvetica
/Helvetica /ISOLatin1Encoding 133.333 FMSR

2591 4708 mt 
(10) s
%%IncludeResource: font Helvetica
/Helvetica /ISOLatin1Encoding 88.8889 FMSR

2739 4626 mt 
(1) s
3243 4520 mt 3243 4488 L
3243  565 mt 3243  596 L
3567 4520 mt 3567 4488 L
3567  565 mt 3567  596 L
3797 4520 mt 3797 4488 L
3797  565 mt 3797  596 L
3976 4520 mt 3976 4488 L
3976  565 mt 3976  596 L
4122 4520 mt 4122 4488 L
4122  565 mt 4122  596 L
4245 4520 mt 4245 4488 L
4245  565 mt 4245  596 L
4352 4520 mt 4352 4488 L
4352  565 mt 4352  596 L
4446 4520 mt 4446 4488 L
4446  565 mt 4446  596 L
4530 4520 mt 4530 4488 L
4530  565 mt 4530  596 L
4530 4520 mt 4530 4456 L
4530  565 mt 4530  628 L
%%IncludeResource: font Helvetica
/Helvetica /ISOLatin1Encoding 133.333 FMSR

4432 4708 mt 
(10) s
%%IncludeResource: font Helvetica
/Helvetica /ISOLatin1Encoding 88.8889 FMSR

4580 4626 mt 
(2) s
5085 4520 mt 5085 4488 L
5085  565 mt 5085  596 L
 848 4520 mt  911 4520 L
5085 4520 mt 5021 4520 L
%%IncludeResource: font Helvetica
/Helvetica /ISOLatin1Encoding 133.333 FMSR

 528 4569 mt 
(2100) s
 848 4025 mt  911 4025 L
5085 4025 mt 5021 4025 L
 528 4074 mt 
(2200) s
 848 3531 mt  911 3531 L
5085 3531 mt 5021 3531 L
 528 3580 mt 
(2300) s
 848 3036 mt  911 3036 L
5085 3036 mt 5021 3036 L
 528 3085 mt 
(2400) s
 848 2542 mt  911 2542 L
5085 2542 mt 5021 2542 L
 528 2591 mt 
(2500) s
 848 2048 mt  911 2048 L
5085 2048 mt 5021 2048 L
 528 2097 mt 
(2600) s
 848 1553 mt  911 1553 L
5085 1553 mt 5021 1553 L
 528 1602 mt 
(2700) s
 848 1059 mt  911 1059 L
5085 1059 mt 5021 1059 L
 528 1108 mt 
(2800) s
 848  565 mt  911  565 L
5085  565 mt 5021  565 L
 528  614 mt 
(2900) s
 848 4520 mt 5085 4520 L
 848  564 mt 5085  564 L
 848 4520 mt  848  564 L
5085 4520 mt 5085  564 L
gs 848 565 4238 3956 rc
16.6667 w
0 sg
-61 2 -65 3 -62 3 -58 3 -63 2 -61 3 -59 3 -61 2 
-54 3 -55 3 -52 2 -51 3 -51 3 -50 3 -49 2 -49 3 
-50 3 -50 2 -47 3 -46 3 -43 3 -39 2 -43 3 -48 3 
-45 2 -41 3 -39 3 -34 3 -35 2 -42 3 -44 3 -46 3 
-45 2 -41 3 -40 3 -45 2 -45 3 -43 3 -43 3 -42 2 
-42 3 -42 3 -48 3 -44 2 -43 3 -42 3 -43 3 -45 2 
-43 3 -44 3 -44 3 -42 2 -43 3 -42 3 -40 3 -44 2 
-41 3 -43 3 -46 3 -45 2 -47 3 -50 3 -55 3 -58 2 
-65 3 -73 3 -94 3 -127 2 -150 3 -165 3 7 -14 1 -14 
6 -13 10 -14 3 -14 10 -14 5 -13 7 -14 7 -14 7 -13 
8 -14 10 -13 1 -14 9 -13 5 -14 9 -13 4 -14 9 -13 
5 -13 8 -14 6 -13 8 -13 8 -13 7 -14 9 -13 5 -13 
9 -13 6 -13 8 -13 11 -13 4 -13 9 -13 6 -13 9 -13 
6 -13 9 -13 10 -13 4 -13 12 -13 6 -13 3 -13 8 -12 
9 -13 6 -13 9 -12 6 -13 10 -13 4 -12 9 -13 7 -13 
10 -12 9 -13 6 -12 10 -13 3 -12 14 -13 5 -12 5 -12 
12 -13 7 -12 8 -12 7 -13 9 -12 7 -12 7 -12 11 -13 
6 -12 5 -12 10 -12 9 -12 8 -12 11 -12 9 -12 7 -12 
14 -12 6 -12 10 -12 5 -12 10 -12 7 -12 10 -12 9 -12 
10 -12 5 -11 11 -12 7 -12 8 -12 13 -11 9 -12 8 -12 
10 -11 7 -12 9 -12 10 -11 9 -12 9 -11 10 -12 11 -11 
7 -12 10 -11 12 -12 11 -11 8 -11 10 -12 9 -11 11 -11 
14 -12 6 -11 10 -11 11 -12 10 -11 12 -11 12 -11 10 -11 
11 -12 17 -11 3 -11 9 -11 11 -11 17 -11 7 -11 14 -11 
7 -11 11 -11 9 -11 13 -11 11 -11 11 -11 11 -11 16 -10 
6 -11 14 -11 12 -11 11 -11 7 -10 11 -11 13 -11 13 -11 
14 -10 12 -11 13 -11 8 -10 19 -11 12 -10 9 -11 14 -11 
8 -10 14 -11 19 -10 16 -11 10 -10 12 -10 19 -11 3 -10 
7 -11 13 -10 15 -10 11 -11 15 -10 11 -10 10 -11 14 -10 
18 -10 17 -10 14 -11 8 -10 23 -10 9 -10 12 -10 15 -10 
15 -11 15 -10 15 -10 15 -10 17 -10 16 -10 17 -10 14 -10 
24 -10 13 -10 15 -10 15 -10 20 -10 19 -9 16 -10 17 -10 
14 -10 16 -10 27 -10 1 -9 18 -10 17 -10 16 -10 16 -9 
15 -10 11 -10 17 -9 21 -10 21 -10 18 -9 17 -10 18 -10 
19 -9 21 -10 21 -9 25 -10 21 -9 25 -10 23 -9 11 -10 
21 -9 34 -10 28 -9 21 -9 7 -10 9 -9 18 -10 22 -9 
24 -9 23 -10 28 -9 18 -9 16 -9 22 -10 20 -9 26 -9 
28 -9 31 -9 27 -10 1812 3640 300 MP stroke
24 -9 19 -9 27 -9 25 -9 30 -9 34 -9 37 -9 19 -10 
31 -9 29 -9 21 -9 35 -9 35 -9 39 -9 43 -9 32 -8 
27 -9 23 -9 32 -9 28 -9 30 -9 50 -9 36 -9 23 -8 
36 -9 48 -9 36 -9 42 -9 35 -8 38 -7 848 3906 31 MP stroke
gr

16.6667 w
0 sg
0.1 sg
%%IncludeResource: font Helvetica-Bold
/Helvetica-Bold /ISOLatin1Encoding 183.333 FMSR

2244 4882 mt 
(Log Stress [kPa]) s
 448 3432 mt  -90 rotate
(Bulk Density [kg/m) s
90 rotate
%%IncludeResource: font Helvetica-Bold
/Helvetica-Bold /ISOLatin1Encoding 141.667 FMSR

 357 1782 mt  -90 rotate
(3) s
90 rotate
%%IncludeResource: font Helvetica-Bold
/Helvetica-Bold /ISOLatin1Encoding 183.333 FMSR

 448 1704 mt  -90 rotate
(]) s
90 rotate
gs 848 565 4238 3956 rc
/c8 { 1.000000 0.000000 0.000000 sr} bdef
c8
-72 1 -118 2 -108 3 -104 2 -103 2 -101 2 -99 3 -95 2 
-90 2 -87 3 -86 2 -82 2 -79 3 -77 2 -73 2 -70 2 
-70 3 -69 2 -67 2 -65 3 -62 2 -59 2 -57 3 -57 2 
-57 2 -57 3 -55 2 -54 2 -52 3 -49 2 -48 2 -47 2 
-47 3 -48 2 -51 2 -60 3 -76 2 -104 2 -157 3 -261 2 
-186 2 -140 3 -103 -12 -63 -12 9 -11 8 -12 10 -11 10 -12 
10 -11 10 -12 10 -11 11 -12 10 -11 10 -11 9 -12 10 -11 
9 -11 10 -12 10 -11 10 -11 10 -12 10 -11 11 -11 10 -11 
10 -11 10 -12 10 -11 10 -11 11 -11 10 -11 10 -11 12 -11 
10 -11 11 -11 11 -11 11 -11 10 -11 11 -11 11 -11 10 -11 
10 -10 12 -11 11 -11 10 -11 11 -11 11 -10 11 -11 12 -11 
11 -11 11 -10 12 -11 12 -11 11 -10 12 -11 13 -10 13 -11 
12 -11 12 -10 13 -11 12 -10 12 -11 13 -10 13 -10 13 -11 
13 -10 11 -11 13 -10 13 -10 12 -11 13 -10 15 -10 15 -11 
12 -10 13 -10 13 -10 12 -11 11 -10 13 -10 15 -10 13 -10 
13 -10 15 -11 13 -10 12 -10 14 -10 15 -10 14 -10 17 -10 
16 -10 15 -10 15 -10 17 -10 14 -10 15 -10 15 -9 15 -10 
16 -10 18 -10 17 -10 17 -10 15 -9 14 -10 15 -10 14 -10 
14 -9 18 -10 19 -10 19 -9 18 -10 20 -10 19 -9 19 -10 
20 -10 20 -9 20 -10 19 -9 19 -10 20 -9 19 -10 19 -9 
20 -10 19 -9 19 -10 19 -9 20 -9 21 -10 23 -9 23 -10 
24 -9 24 -9 26 -10 24 -9 22 -9 23 -9 23 -10 22 -9 
24 -9 27 -9 27 -9 28 -10 28 -9 28 -9 28 -9 29 -9 
28 -9 28 -9 29 -9 26 -10 26 -9 31 -9 31 -9 32 -9 
35 -9 33 -9 32 -9 37 -8 37 -9 37 -9 40 -9 36 -9 
32 -9 34 -9 38 -9 41 -8 46 -9 47 -9 47 -9 45 -9 
45 -8 44 -9 42 -9 44 -9 46 -8 44 -9 47 -9 46 -8 
49 -9 47 -9 45 -8 45 -9 46 -8 46 -9 51 -9 41 -7 
848 4028 225 MP stroke
/c9 { 0.000000 0.000000 1.000000 sr} bdef
c9
-410 2 -420 2 -344 3 -272 2 -257 2 -219 2 -201 2 -179 2 
-173 2 -163 2 -161 3 -313 2 -206 2 -147 2 -106 -11 -75 -10 
23 -11 25 -11 23 -10 25 -11 25 -10 26 -11 25 -10 27 -11 
26 -10 27 -11 26 -10 28 -11 28 -10 29 -10 29 -11 30 -10 
28 -10 29 -11 33 -10 31 -10 32 -11 32 -10 35 -10 31 -10 
31 -10 33 -11 35 -10 31 -10 34 -10 38 -10 36 -10 36 -10 
38 -11 42 -10 34 -10 36 -10 36 -10 37 -10 36 -10 44 -10 
44 -9 44 -10 48 -10 45 -10 48 -10 48 -10 51 -10 51 -10 
55 -9 50 -10 57 -10 56 -10 54 -10 57 -9 57 -10 61 -10 
58 -9 67 -10 65 -10 69 -9 62 -10 73 -10 66 -9 67 -10 
72 -9 71 -10 64 -10 65 -9 62 -10 66 -9 63 -10 65 -9 
55 -9 68 -10 53 -9 70 -10 58 -9 69 -9 60 -10 74 -9 
8 -2 848 2888 98 MP stroke
DO
/c10 { 1.000000 0.000000 1.000000 sr} bdef
c10
-1560 0 151 -55 186 -48 238 -67 352 -81 255 -59 376 -72 706 -127 
1350 -158 1026 2776 10 MP stroke
gr

c10
DO
SO
0 j
41 54 -41 54 -41 -54 41 -54 1026 2830 5 MP
gs
PP
gr
DP
41 54 -41 54 -41 -54 41 -54 2376 2672 5 MP
gs
PP
gr
DP
41 54 -41 54 -41 -54 41 -54 3082 2545 5 MP
gs
PP
gr
DP
41 54 -41 54 -41 -54 41 -54 3458 2473 5 MP
gs
PP
gr
DP
41 54 -41 54 -41 -54 41 -54 3713 2414 5 MP
gs
PP
gr
DP
41 54 -41 54 -41 -54 41 -54 4065 2333 5 MP
gs
PP
gr
DP
41 54 -41 54 -41 -54 41 -54 4303 2266 5 MP
gs
PP
gr
DP
41 54 -41 54 -41 -54 41 -54 4489 2218 5 MP
gs
PP
gr
DP
41 54 -41 54 -41 -54 41 -54 4640 2163 5 MP
gs
PP
gr
DP
41 54 -41 54 -41 -54 41 -54 3080 2163 5 MP
gs
PP
gr
DP
DO
gs 848 565 4238 3956 rc
gr

0 sg
%%IncludeResource: font Helvetica
/Helvetica /ISOLatin1Encoding 166.667 FMSR

 818 4587 mt 
( ) s
5056  631 mt 
( ) s
SO
12.5 w
%%IncludeResource: font Helvetica-Bold
/Helvetica-Bold /ISOLatin1Encoding 125 FMSR

3224 3759 mt 
(G = 2.5 E06 Pa) s
gs 2899 3594 2122 865 rc
16.6667 w
250 0 2948 3712 2 MP stroke
gr

16.6667 w
3224 3968 mt 
(G = 7.5 E06 Pa) s
gs 2899 3594 2122 865 rc
c8
250 0 2948 3921 2 MP stroke
gr

c8
0 sg
3224 4177 mt 
(G = 5 E07 Pa) s
gs 2899 3594 2122 865 rc
c9
250 0 2948 4130 2 MP stroke
gr

c9
0 sg
3224 4386 mt 
(Iron Ore fines - 120kPa - Dry) s
gs 2899 3594 2122 865 rc
DO
c10
250 0 2948 4339 2 MP stroke
SO
gs 2971 4237 205 205 rc
41 54 -41 54 -41 -54 41 -54 3073 4393 5 MP
gs
PP
gr
DP
gr

12.5 w
gr

12.5 w
c10

end %%Color Dict

eplot
%%EndObject

epage
end

showpage

%%Trailer
%%EOF
