%!PS-Adobe-3.0 EPSF-3.0
%%Creator: MATLAB, The MathWorks, Inc. Version 7.12.0.635 (R2011a). Operating System: Linux 2.6.32-358.6.2.el6.x86_64 #1 SMP Thu May 16 11:21:38 CDT 2013 x86_64.
%%Title: ./Confined_StressStain_SE_20kPa.eps
%%CreationDate: 08/15/2013  13:56:55
%%DocumentNeededFonts: Helvetica-Bold
%%+ Helvetica
%%DocumentProcessColors: Cyan Magenta Yellow Black
%%LanguageLevel: 2
%%Pages: 1
%%BoundingBox:    29    69   606   605
%%EndComments

%%BeginProlog
% MathWorks dictionary
/MathWorks 160 dict begin
% definition operators
/bdef {bind def} bind def
/ldef {load def} bind def
/xdef {exch def} bdef
/xstore {exch store} bdef
% operator abbreviations
/c  /clip ldef
/cc /concat ldef
/cp /closepath ldef
/gr /grestore ldef
/gs /gsave ldef
/mt /moveto ldef
/np /newpath ldef
/cm /currentmatrix ldef
/sm /setmatrix ldef
/rm /rmoveto ldef
/rl /rlineto ldef
/s {show newpath} bdef
/sc {setcmykcolor} bdef
/sr /setrgbcolor ldef
/sg /setgray ldef
/w /setlinewidth ldef
/j /setlinejoin ldef
/cap /setlinecap ldef
/rc {rectclip} bdef
/rf {rectfill} bdef
% page state control
/pgsv () def
/bpage {/pgsv save def} bdef
/epage {pgsv restore} bdef
/bplot /gsave ldef
/eplot {stroke grestore} bdef
% orientation switch
/portraitMode 0 def /landscapeMode 1 def /rotateMode 2 def
% coordinate system mappings
/dpi2point 0 def
% font control
/FontSize 0 def
/FMS {/FontSize xstore findfont [FontSize 0 0 FontSize neg 0 0]
  makefont setfont} bdef
/reencode {exch dup where {pop load} {pop StandardEncoding} ifelse
  exch dup 3 1 roll findfont dup length dict begin
  { 1 index /FID ne {def}{pop pop} ifelse } forall
  /Encoding exch def currentdict end definefont pop} bdef
/isroman {findfont /CharStrings get /Agrave known} bdef
/FMSR {3 1 roll 1 index dup isroman {reencode} {pop pop} ifelse
  exch FMS} bdef
/csm {1 dpi2point div -1 dpi2point div scale neg translate
 dup landscapeMode eq {pop -90 rotate}
  {rotateMode eq {90 rotate} if} ifelse} bdef
% line types: solid, dotted, dashed, dotdash
/SO { [] 0 setdash } bdef
/DO { [.5 dpi2point mul 4 dpi2point mul] 0 setdash } bdef
/DA { [6 dpi2point mul] 0 setdash } bdef
/DD { [.5 dpi2point mul 4 dpi2point mul 6 dpi2point mul 4
  dpi2point mul] 0 setdash } bdef
% macros for lines and objects
/L {lineto stroke} bdef
/MP {3 1 roll moveto 1 sub {rlineto} repeat} bdef
/AP {{rlineto} repeat} bdef
/PDlw -1 def
/W {/PDlw currentlinewidth def setlinewidth} def
/PP {closepath eofill} bdef
/DP {closepath stroke} bdef
/MR {4 -2 roll moveto dup  0 exch rlineto exch 0 rlineto
  neg 0 exch rlineto closepath} bdef
/FR {MR stroke} bdef
/PR {MR fill} bdef
/L1i {{currentfile picstr readhexstring pop} image} bdef
/tMatrix matrix def
/MakeOval {newpath tMatrix currentmatrix pop translate scale
0 0 1 0 360 arc tMatrix setmatrix} bdef
/FO {MakeOval stroke} bdef
/PO {MakeOval fill} bdef
/PD {currentlinewidth 2 div 0 360 arc fill
   PDlw -1 eq not {PDlw w /PDlw -1 def} if} def
/FA {newpath tMatrix currentmatrix pop translate scale
  0 0 1 5 -2 roll arc tMatrix setmatrix stroke} bdef
/PA {newpath tMatrix currentmatrix pop	translate 0 0 moveto scale
  0 0 1 5 -2 roll arc closepath tMatrix setmatrix fill} bdef
/FAn {newpath tMatrix currentmatrix pop translate scale
  0 0 1 5 -2 roll arcn tMatrix setmatrix stroke} bdef
/PAn {newpath tMatrix currentmatrix pop translate 0 0 moveto scale
  0 0 1 5 -2 roll arcn closepath tMatrix setmatrix fill} bdef
/vradius 0 def /hradius 0 def /lry 0 def
/lrx 0 def /uly 0 def /ulx 0 def /rad 0 def
/MRR {/vradius xdef /hradius xdef /lry xdef /lrx xdef /uly xdef
  /ulx xdef newpath tMatrix currentmatrix pop ulx hradius add uly
  vradius add translate hradius vradius scale 0 0 1 180 270 arc 
  tMatrix setmatrix lrx hradius sub uly vradius add translate
  hradius vradius scale 0 0 1 270 360 arc tMatrix setmatrix
  lrx hradius sub lry vradius sub translate hradius vradius scale
  0 0 1 0 90 arc tMatrix setmatrix ulx hradius add lry vradius sub
  translate hradius vradius scale 0 0 1 90 180 arc tMatrix setmatrix
  closepath} bdef
/FRR {MRR stroke } bdef
/PRR {MRR fill } bdef
/MlrRR {/lry xdef /lrx xdef /uly xdef /ulx xdef /rad lry uly sub 2 div def
  newpath tMatrix currentmatrix pop ulx rad add uly rad add translate
  rad rad scale 0 0 1 90 270 arc tMatrix setmatrix lrx rad sub lry rad
  sub translate rad rad scale 0 0 1 270 90 arc tMatrix setmatrix
  closepath} bdef
/FlrRR {MlrRR stroke } bdef
/PlrRR {MlrRR fill } bdef
/MtbRR {/lry xdef /lrx xdef /uly xdef /ulx xdef /rad lrx ulx sub 2 div def
  newpath tMatrix currentmatrix pop ulx rad add uly rad add translate
  rad rad scale 0 0 1 180 360 arc tMatrix setmatrix lrx rad sub lry rad
  sub translate rad rad scale 0 0 1 0 180 arc tMatrix setmatrix
  closepath} bdef
/FtbRR {MtbRR stroke } bdef
/PtbRR {MtbRR fill } bdef
/stri 6 array def /dtri 6 array def
/smat 6 array def /dmat 6 array def
/tmat1 6 array def /tmat2 6 array def /dif 3 array def
/asub {/ind2 exch def /ind1 exch def dup dup
  ind1 get exch ind2 get sub exch } bdef
/tri_to_matrix {
  2 0 asub 3 1 asub 4 0 asub 5 1 asub
  dup 0 get exch 1 get 7 -1 roll astore } bdef
/compute_transform {
  dmat dtri tri_to_matrix tmat1 invertmatrix 
  smat stri tri_to_matrix tmat2 concatmatrix } bdef
/ds {stri astore pop} bdef
/dt {dtri astore pop} bdef
/db {2 copy /cols xdef /rows xdef mul dup 3 mul string
  currentfile 
  3 index 0 eq {/ASCIIHexDecode filter}
  {/ASCII85Decode filter 3 index 2 eq {/RunLengthDecode filter} if }
  ifelse exch readstring pop
  dup 0 3 index getinterval /rbmap xdef
  dup 2 index dup getinterval /gbmap xdef
  1 index dup 2 mul exch getinterval /bbmap xdef pop pop}bdef
/it {gs np dtri aload pop moveto lineto lineto cp c
  cols rows 8 compute_transform 
  rbmap gbmap bbmap true 3 colorimage gr}bdef
/il {newpath moveto lineto stroke}bdef
currentdict end def
%%EndProlog

%%BeginSetup
MathWorks begin

0 cap

end
%%EndSetup

%%Page: 1 1
%%BeginPageSetup
%%PageBoundingBox:    29    69   606   605
MathWorks begin
bpage
%%EndPageSetup

%%BeginObject: obj1
bplot

/dpi2point 8.33333 def
portraitMode -0158 5475 csm

  403   426  4811  4474 rc
84 dict begin %Colortable dictionary
/c0 { 0.000000 0.000000 0.000000 sr} bdef
/c1 { 1.000000 1.000000 1.000000 sr} bdef
/c2 { 0.900000 0.000000 0.000000 sr} bdef
/c3 { 0.000000 0.820000 0.000000 sr} bdef
/c4 { 0.000000 0.000000 0.800000 sr} bdef
/c5 { 0.910000 0.820000 0.320000 sr} bdef
/c6 { 1.000000 0.260000 0.820000 sr} bdef
/c7 { 0.000000 0.820000 0.820000 sr} bdef
c0
1 j
1 sg
   0    0 5651 5651 rf
12.5 w
0 3956 4237 0 0 -3956 848 4520 4 MP
PP
-4237 0 0 3956 4237 0 0 -3956 848 4520 5 MP stroke
8.33333 w
DO
SO
12.5 w
0.1 sg
 848 4520 mt 5085 4520 L
 848  564 mt 5085  564 L
 848 4520 mt  848  564 L
5085 4520 mt 5085  564 L
 848 4520 mt 5085 4520 L
 848 4520 mt  848  564 L
 848 4520 mt  848 4456 L
 848  565 mt  848  628 L
%%IncludeResource: font Helvetica
/Helvetica /ISOLatin1Encoding 133.333 FMSR

 811 4668 mt 
(0) s
1554 4520 mt 1554 4456 L
1554  565 mt 1554  628 L
1425 4668 mt 
(0.05) s
2260 4520 mt 2260 4456 L
2260  565 mt 2260  628 L
2168 4668 mt 
(0.1) s
2966 4520 mt 2966 4456 L
2966  565 mt 2966  628 L
2837 4668 mt 
(0.15) s
3672 4520 mt 3672 4456 L
3672  565 mt 3672  628 L
3580 4668 mt 
(0.2) s
4378 4520 mt 4378 4456 L
4378  565 mt 4378  628 L
4249 4668 mt 
(0.25) s
5085 4520 mt 5085 4456 L
5085  565 mt 5085  628 L
4993 4668 mt 
(0.3) s
 848 4520 mt  911 4520 L
5085 4520 mt 5021 4520 L
 750 4569 mt 
(0) s
 848 3860 mt  911 3860 L
5085 3860 mt 5021 3860 L
 750 3909 mt 
(5) s
 848 3201 mt  911 3201 L
5085 3201 mt 5021 3201 L
 676 3250 mt 
(10) s
 848 2542 mt  911 2542 L
5085 2542 mt 5021 2542 L
 676 2591 mt 
(15) s
 848 1883 mt  911 1883 L
5085 1883 mt 5021 1883 L
 676 1932 mt 
(20) s
 848 1224 mt  911 1224 L
5085 1224 mt 5021 1224 L
 676 1273 mt 
(25) s
 848  565 mt  911  565 L
5085  565 mt 5021  565 L
 676  614 mt 
(30) s
 848 4520 mt 5085 4520 L
 848  564 mt 5085  564 L
 848 4520 mt  848  564 L
5085 4520 mt 5085  564 L
gs 848 565 4238 3956 rc
16.6667 w
0 sg
-4 1 -3 1 -4 3 -3 5 -4 6 -3 9 -4 12 -3 13 
-4 15 -3 17 -4 23 -3 22 -4 19 -3 31 -4 34 -3 35 
-3 35 -4 39 -3 38 -4 43 -3 53 -4 44 -3 49 -4 51 
-3 58 -4 77 -3 97 -4 140 -3 273 -4 1404 9 -23 9 -25 
8 -30 9 -32 9 -5 8 -23 9 -24 9 -36 9 -13 8 -21 
9 -15 9 -29 8 -18 9 -26 9 -34 8 -5 9 -13 9 -19 
8 -23 9 -16 9 -26 8 -15 9 -21 9 -22 8 -16 9 -20 
9 -20 8 -26 9 -22 9 -5 8 -27 9 -29 9 -12 8 -20 
9 -20 9 -19 8 -19 9 -26 9 -13 8 -12 9 -9 9 -14 
8 -15 9 -21 9 -19 8 -18 9 -18 9 -17 8 -20 9 -19 
9 -18 8 -17 9 -14 9 -15 8 -24 9 -13 9 -17 8 -14 
9 -8 9 -17 9 -18 8 -15 9 -18 9 -16 8 -23 9 -5 
9 -14 8 -7 9 -18 9 -21 8 -18 9 -7 9 -11 8 -10 
9 -22 9 -7 8 -7 9 -9 9 -12 8 -15 9 -13 9 -6 
8 -8 9 -14 9 -2 8 -14 9 -15 9 -7 8 -9 9 -14 
9 -13 8 -2 9 -9 9 -22 8 -3 9 -7 9 -17 8 -18 
9 4 9 -13 8 -11 9 -4 9 -7 8 -17 9 -13 9 -14 
8 4 9 -8 9 -8 9 -14 8 -6 9 -15 9 -11 8 -5 
9 -6 9 -8 8 -15 9 -11 9 -8 8 -8 9 -6 9 -12 
8 -2 9 -7 9 -17 8 -6 9 -11 9 -9 8 -9 9 -8 
9 -4 8 -7 9 2 9 -10 8 -9 9 -8 9 -8 8 -9 
9 -3 9 -8 8 -12 9 -6 9 1 8 -11 9 -2 9 -3 
8 -11 9 -5 9 -12 8 -10 9 -1 9 -6 8 0 9 -5 
9 -1 9 2 8 -5 9 -3 9 -10 8 -4 9 -1 9 -9 
8 -10 9 -6 9 -3 8 -1 9 -5 9 -2 8 -4 9 -5 
9 -9 8 -6 9 -4 9 -8 8 -3 9 -2 9 -8 8 -2 
9 1 9 -3 8 -6 9 -7 9 -5 8 -11 9 -3 9 -6 
8 -4 9 -3 9 -1 8 -6 9 0 9 -9 8 -3 9 -4 
9 -5 8 -3 9 -5 9 -9 8 -4 9 -6 9 -5 8 -5 
9 -3 9 -6 8 -5 9 -5 9 -1 9 -3 8 0 9 -1 
9 0 8 -2 9 1 9 -6 8 -6 9 -4 9 2 8 -6 
9 -1 9 -4 8 -8 9 -6 9 -3 8 -6 9 -3 9 -3 
8 -4 9 -3 9 -3 8 -2 9 -5 9 -1 8 -2 9 -5 
9 -4 8 -6 9 -2 9 1 8 0 9 -4 9 -3 8 -3 
9 -3 9 -4 8 -3 9 -3 9 -3 8 -3 9 -3 9 -1 
8 -7 9 -4 9 1 9 -2 8 -1 9 -4 9 -1 8 -4 
9 -5 9 -1 8 -1 9 -1 9 -3 8 -1 9 -4 9 -5 
8 -1 9 -1 9 -1 1966 4329 300 MP stroke
8 -3 9 -4 9 -4 8 -6 9 -1 9 3 8 -2 9 -3 
9 0 8 1 9 0 9 -2 8 -3 9 -2 9 -2 8 -3 
9 0 9 -2 8 -2 9 -4 9 -1 8 0 9 -3 9 -3 
8 -3 9 -3 9 -2 8 -3 9 -1 9 -3 8 -2 9 -3 
9 -2 9 -1 8 -1 9 0 9 0 8 -2 9 0 9 -1 
8 -2 9 -3 9 -3 8 -2 9 -3 9 0 8 -3 9 -3 
9 -7 8 0 9 2 9 0 8 -2 9 -2 9 -1 8 -2 
9 -2 9 0 8 -1 9 -2 9 0 8 0 9 -2 9 -2 
8 -3 9 -2 9 1 8 1 9 -4 9 -1 8 -2 9 -3 
9 -2 8 -1 9 0 9 0 8 -1 9 -2 9 1 8 -2 
9 -1 9 -1 9 1 8 -1 9 -1 9 -2 8 -1 9 -1 
9 -1 8 -1 9 -1 9 -1 8 -1 9 -1 9 0 8 -1 
9 0 9 -1 8 -1 9 -2 9 -1 8 -3 9 -2 9 -3 
8 -2 9 -3 9 -3 8 -1 9 0 9 -1 8 -1 9 -3 
9 -1 8 1 9 -3 9 -3 8 -1 9 -3 9 -1 8 -2 
9 -1 9 -1 8 1 9 0 9 0 8 0 9 0 9 0 
8 -1 848 4518 130 MP stroke
gr

16.6667 w
0 sg
0.1 sg
%%IncludeResource: font Helvetica-Bold
/Helvetica-Bold /ISOLatin1Encoding 183.333 FMSR

2351 4842 mt 
(Vertical Strain) s
 596 3424 mt  -90 rotate
(Vertical Stress [kPa]) s
90 rotate
gs 848 565 4238 3956 rc
/c8 { 1.000000 0.000000 0.000000 sr} bdef
c8
-4 1 -3 0 -3 1 -4 2 -3 2 -3 4 -4 4 -3 6 
-4 7 -3 8 -3 10 -4 9 -3 12 -3 13 -4 14 -3 15 
-3 17 -4 18 -3 19 -3 19 -4 26 -3 23 -3 24 -4 30 
-3 33 -4 34 -3 40 -3 35 -4 40 -3 39 -3 42 -4 46 
-3 48 -3 47 -4 67 -3 71 -3 91 -4 129 -3 247 -3 1358 
8 -22 8 -26 9 -22 8 -17 8 -25 9 -22 8 -14 9 -12 
8 -28 8 -27 9 -18 8 -14 9 -23 8 -33 8 -1 9 -27 
8 -8 8 -17 9 -8 8 -25 9 -22 8 -15 8 -21 9 -8 
8 -21 9 -6 8 -19 8 -9 9 -14 8 -15 8 -28 9 -17 
8 -9 9 -22 8 -19 8 -8 9 -25 8 -6 9 -9 8 -12 
8 -21 9 -24 8 -19 8 -14 9 2 8 -12 9 -15 8 -24 
8 -16 9 -8 8 -21 9 -19 8 -19 8 -6 9 -18 8 -20 
8 -25 9 -13 8 1 9 -10 8 -17 8 -6 9 -31 8 -19 
9 10 8 -5 8 -15 9 -25 8 -10 8 -21 9 -12 8 -14 
9 -15 8 -14 8 -22 9 0 8 -17 9 -14 8 -17 8 -6 
9 -3 8 -15 8 -9 9 -12 8 -19 9 -12 8 -19 8 -1 
9 -19 8 -13 9 1 8 -8 8 -14 9 -11 8 -13 8 -11 
9 -12 8 -5 9 -16 8 -10 8 -11 9 -2 8 -12 9 -16 
8 -9 8 -16 9 -8 8 -4 8 -4 9 -6 8 -17 9 -10 
8 -11 8 -5 9 -8 8 -7 9 1 8 -5 8 -15 9 -10 
8 -12 9 -14 8 -8 8 -11 9 -3 8 -10 8 -4 9 -2 
8 -7 9 -15 8 -12 8 -11 9 1 8 -7 8 -15 9 -1 
8 1 9 -15 8 -8 8 -5 9 -12 8 -5 9 -9 8 -3 
8 -5 9 -8 8 -6 9 -12 8 1 8 -2 9 -6 8 -6 
8 -8 9 -14 8 -10 9 -8 8 -9 8 -5 9 -5 8 -3 
9 -5 8 -7 8 -4 9 -3 8 -9 8 -1 9 -3 8 -5 
9 -1 8 5 8 -1 9 -14 8 -11 9 -5 8 1 8 -6 
9 -10 8 -4 8 -6 9 1 8 -3 9 -7 8 -4 8 -7 
9 -10 8 -8 9 -8 8 -12 8 4 9 1 8 -3 8 -6 
9 -10 8 -7 9 -12 8 -2 8 -3 9 -7 8 0 9 -5 
8 -2 8 -4 9 -7 8 -5 8 -4 9 -8 8 -5 9 -4 
8 -6 8 -9 9 -6 8 -2 9 -3 8 -3 8 -7 9 -5 
8 -3 8 -1 9 1 8 -5 9 -9 8 -5 8 -4 9 -3 
8 -2 9 -8 8 -2 8 -2 9 -4 8 -1 8 -6 9 -4 
8 -8 9 -4 8 -2 8 1 9 -8 8 1 9 2 8 -5 
8 -7 9 -4 8 -8 8 -4 9 -2 8 -4 9 -7 8 -6 
8 2 9 -2 8 -5 9 -6 8 -2 8 1 9 -4 8 -2 
8 -5 9 -4 8 -3 2181 4253 300 MP stroke
9 -4 8 -5 8 -6 9 -6 8 0 9 -2 8 -3 8 0 
9 -3 8 0 8 -4 9 -3 8 -4 9 0 8 -4 8 -3 
9 -3 8 -6 9 -3 8 -1 8 -1 9 -1 8 -1 9 1 
8 -2 8 -3 9 -5 8 -3 8 -2 9 -2 8 1 9 -2 
8 -4 8 -4 9 -2 8 1 9 1 8 -2 8 2 9 -1 
8 -2 8 -1 9 -3 8 -1 9 -4 8 -2 8 -2 9 -3 
8 -4 9 -3 8 -2 8 -1 9 -3 8 -2 8 -5 9 0 
8 2 9 -1 8 -1 8 -1 9 -2 8 -2 9 -2 8 -2 
8 -1 9 -2 8 -3 8 -4 9 -5 8 -3 9 -1 8 -1 
8 0 9 -1 8 0 9 -2 8 -1 8 -2 9 -4 8 -2 
8 0 9 -1 8 -3 9 -2 8 -3 8 0 9 -2 8 2 
9 -2 8 -2 8 -2 9 -2 8 -1 8 -1 9 -2 8 -3 
9 -2 8 -2 8 -2 9 -2 8 -1 9 0 8 -2 8 1 
9 -2 8 -2 8 -1 9 -2 8 -2 9 -4 8 0 8 -1 
9 -1 8 0 9 -1 8 -1 8 -2 9 -1 8 0 8 -1 
9 -1 8 -1 9 -1 8 -2 8 -1 9 -1 8 -1 9 0 
8 -2 8 -2 9 -2 8 -3 8 0 9 -1 8 -2 9 -1 
8 -1 8 0 9 -2 8 -2 9 -2 8 -3 8 -1 9 0 
8 -1 8 -1 9 -1 8 0 9 -1 8 -1 8 -1 9 0 
8 0 9 -1 8 -1 8 -1 9 -1 8 0 8 0 848 4518 160 MP stroke
/c9 { 0.000000 0.000000 1.000000 sr} bdef
c9
-3 1 -3 0 -4 2 -3 2 -3 2 -4 3 -3 4 -3 4 
-3 7 -4 6 -3 9 -3 7 -4 12 -3 8 -3 9 -4 11 
-3 11 -3 11 -3 15 -4 16 -3 16 -3 10 -4 13 -3 14 
-3 15 -4 15 -3 15 -3 19 -4 23 -3 18 -3 21 -3 23 
-4 20 -3 28 -3 23 -4 24 -3 33 -3 31 -4 24 -3 26 
-3 28 -4 30 -3 29 -3 39 -3 41 -4 50 -3 47 -3 61 
-4 72 -3 110 -3 250 -4 1341 9 -28 8 -6 8 -22 8 -28 
9 -15 8 -21 8 -14 9 -28 8 -9 8 -19 8 -19 9 -16 
8 -16 8 -11 8 -17 9 -51 8 6 8 -13 8 -15 9 -30 
8 -3 8 -15 8 -11 9 -23 8 -8 8 -17 9 -15 8 -16 
8 -26 8 -13 9 -17 8 -11 8 -16 8 -22 9 -7 8 -19 
8 -4 8 -22 9 -4 8 -11 8 -26 8 -29 9 -6 8 9 
8 -7 9 -18 8 -18 8 -19 8 -8 9 -15 8 -18 8 -8 
8 -14 9 -16 8 -24 8 2 8 -22 9 -14 8 -5 8 -5 
8 -26 9 -14 8 -10 8 -7 9 -1 8 -23 8 -16 8 -9 
9 -15 8 -18 8 -13 8 -14 9 -7 8 -5 8 -21 8 -8 
9 -6 8 -6 8 -31 8 -13 9 -2 8 -10 8 -6 8 -8 
9 -13 8 -20 8 -16 9 -16 8 2 8 -1 8 -22 9 -12 
8 -13 8 -5 8 -8 9 -12 8 -8 8 -6 8 -23 9 -7 
8 -15 8 -5 8 -11 9 -19 8 0 8 -16 9 -9 8 -3 
8 -8 8 -14 9 -6 8 -18 8 -12 8 -13 9 -6 8 -2 
8 -12 8 -8 9 -3 8 -9 8 -9 8 -14 9 -4 8 -2 
8 -9 9 -12 8 -6 8 -8 8 -11 9 -11 8 -10 8 -4 
8 -7 9 -9 8 -7 8 -3 8 -2 9 -4 8 -9 8 -9 
8 -4 9 -9 8 -1 8 -11 9 -15 8 -7 8 -9 8 -7 
9 -8 8 -7 8 -6 8 -7 9 -9 8 -9 8 -8 8 -4 
9 -6 8 -8 8 -11 8 -8 9 -3 8 -3 8 -12 9 -11 
8 -10 8 0 8 -4 9 -12 8 -18 8 -11 8 -4 9 2 
8 0 8 -9 8 -11 9 -6 8 -12 8 -4 8 -4 9 8 
8 -12 8 -12 8 -8 9 -2 8 -5 8 -6 9 4 8 -5 
8 -8 8 -7 9 0 8 -7 8 -13 8 -4 9 -1 8 0 
8 -1 8 -6 9 -4 8 -5 8 -11 8 0 9 -2 8 -8 
8 -9 9 2 8 -7 8 -5 8 -7 9 -3 8 -10 8 -5 
8 -1 9 2 8 -2 8 -3 8 -5 9 -6 8 -6 8 -14 
8 -5 9 0 8 -1 8 -10 8 -8 9 0 8 -5 8 1 
9 -5 8 -2 8 0 8 -3 9 -6 8 -8 8 -7 8 -2 
9 -4 8 -6 8 -9 8 -2 9 0 8 4 8 -5 8 -8 
9 -5 8 -4 8 -1 2145 4173 300 MP stroke
9 -3 8 -1 8 2 8 -7 9 -5 8 -3 8 -9 8 -6 
9 0 8 -4 8 -6 8 2 9 -6 8 -4 8 -7 8 -2 
9 -2 8 -5 8 -3 9 -2 8 -6 8 -3 8 -4 9 -4 
8 -8 8 3 8 1 9 -4 8 -6 8 -3 8 -2 9 -4 
8 -7 8 -4 8 -3 9 1 8 1 8 -3 9 -3 8 -3 
8 -3 8 -3 9 -4 8 0 8 -2 8 -1 9 -3 8 -3 
8 -4 8 -2 9 -2 8 -3 8 -4 8 -5 9 0 8 2 
8 -2 9 -1 8 -2 8 -3 8 -2 9 -2 8 -2 8 -5 
8 -4 9 -5 8 -2 8 -1 8 -3 9 -2 8 -1 8 -3 
8 -3 9 -3 8 -2 8 0 8 -3 9 -5 8 -5 8 -4 
9 3 8 2 8 -1 8 -1 9 -4 8 -2 8 -3 8 -4 
9 -5 8 -2 8 -2 8 -2 9 -3 8 1 8 -1 8 -1 
9 -2 8 -2 8 -1 9 -2 8 0 8 0 8 -2 9 -1 
8 -2 8 -2 8 0 9 0 8 -2 8 -2 8 -3 9 -3 
8 -3 8 -2 8 -3 9 -1 8 -3 8 -2 9 -2 8 -1 
8 -1 8 -2 9 -1 8 -1 8 -1 8 -1 9 1 8 -2 
8 -2 8 -2 9 -2 8 0 8 -1 8 -2 9 1 8 -1 
8 -2 9 -1 8 -1 8 -1 8 -1 9 -1 8 -1 8 -2 
8 -2 9 -1 8 -2 8 -1 8 -2 9 -2 8 -2 8 -1 
8 -1 9 -1 8 0 8 -1 8 -1 848 4517 158 MP stroke
/c10 { 1.000000 0.000000 1.000000 sr} bdef
c10
-3 1 -4 0 -3 1 -3 0 -4 1 -3 1 -3 3 -3 3 
-4 3 -3 4 -3 4 -4 6 -3 7 -3 8 -4 6 -3 6 
-3 7 -3 9 -4 11 -3 9 -3 11 -4 7 -3 10 -3 14 
-3 12 -4 12 -3 11 -3 14 -4 14 -3 13 -3 14 -4 17 
-3 16 -3 18 -3 19 -4 16 -3 16 -3 21 -4 19 -3 21 
-3 18 -4 17 -3 20 -3 21 -3 21 -4 25 -3 25 -3 27 
-4 27 -3 27 -3 28 -3 23 -4 26 -3 32 -3 37 -4 39 
-3 34 -3 45 -4 44 -3 53 -3 72 -3 90 -4 202 -3 1309 
8 -30 8 -23 9 -7 8 -22 8 -18 8 -14 9 -23 8 -22 
8 -13 8 -10 9 -8 8 -38 8 5 8 -14 9 -21 8 -9 
8 -22 8 -19 9 -11 8 -20 8 -26 8 -24 8 -9 9 -20 
8 -23 8 -16 8 1 9 -19 8 -15 8 -22 8 -20 9 -11 
8 -11 8 -11 8 -13 9 -29 8 -11 8 8 8 -19 9 -12 
8 -8 8 -26 8 -17 8 -19 9 -2 8 -9 8 -39 8 6 
9 -2 8 -28 8 -13 8 -10 9 2 8 -17 8 -23 8 1 
9 -24 8 -4 8 -19 8 -19 9 -3 8 -13 8 -6 8 -20 
9 -2 8 -6 8 -21 8 -5 8 -12 9 -7 8 -12 8 -13 
8 -21 9 -10 8 -17 8 1 8 -16 9 -14 8 -18 8 -12 
8 -23 9 4 8 -14 8 -2 8 -11 9 -15 8 -16 8 -10 
8 -16 8 -10 9 -5 8 -16 8 -7 8 -18 9 -11 8 -6 
8 -2 8 -14 9 -14 8 -16 8 -11 8 -6 9 -12 8 -12 
8 -14 8 -16 9 1 8 -10 8 -14 8 -10 8 -8 9 -22 
8 6 8 -10 8 9 9 -12 8 -13 8 -11 8 -6 9 -9 
8 -7 8 -8 8 -12 9 -6 8 -17 8 -11 8 -14 9 -5 
8 -7 8 -9 8 -7 8 -11 9 -13 8 3 8 -9 8 -16 
9 12 8 -11 8 -10 8 -17 9 -8 8 -8 8 -9 8 -2 
9 -11 8 -11 8 -9 8 7 9 -14 8 -27 8 -2 8 2 
8 4 9 -3 8 -12 8 -12 8 -11 9 0 8 -9 8 -13 
8 -10 9 -8 8 -9 8 -2 8 -8 9 -2 8 -8 8 -15 
8 -4 9 -6 8 1 8 -7 8 -10 8 -4 9 -9 8 -5 
8 -9 8 -10 9 -6 8 0 8 -6 8 -10 9 -14 8 -5 
8 -6 8 -7 9 -4 8 -11 8 -4 8 -1 9 -5 8 -3 
8 -8 8 -9 8 -1 9 0 8 -11 8 -6 8 -10 9 -3 
8 1 8 -5 8 -3 9 -6 8 -7 8 -10 8 -6 9 -5 
8 -5 8 -8 8 -4 9 -4 8 -5 8 0 8 -2 8 -2 
9 -8 8 -5 8 -8 8 -8 9 -13 8 -2 8 4 8 1 
9 -5 8 -9 8 -3 8 -1 9 -3 8 -5 8 -8 8 0 
9 -2 8 -3 8 -3 2108 4143 300 MP stroke
8 -6 8 -3 9 -9 8 -2 8 -5 8 -2 9 -7 8 -7 
8 -5 8 -3 9 -4 8 -1 8 -3 8 -5 9 -3 8 -5 
8 -5 8 -3 9 -5 8 0 8 -4 8 0 8 -6 9 -3 
8 -3 8 1 8 -3 9 -1 8 -5 8 -3 8 -2 9 -8 
8 -6 8 -2 8 -4 9 -5 8 -4 8 -5 8 0 9 -1 
8 -2 8 -3 8 -3 8 -4 9 0 8 0 8 -3 8 -4 
9 -3 8 -2 8 -5 8 -2 9 -1 8 -3 8 -5 8 -3 
9 -2 8 -2 8 -5 8 -3 9 -5 8 0 8 -2 8 -3 
9 -5 8 -3 8 -2 8 -2 8 -4 9 -2 8 -1 8 -2 
8 -1 9 0 8 -3 8 -6 8 -3 9 1 8 -4 8 -4 
8 -1 9 0 8 -3 8 0 8 -3 9 -3 8 -2 8 -1 
8 -3 8 -4 9 -1 8 -1 8 -1 8 -1 9 -2 8 -2 
8 -4 8 -3 9 0 8 0 8 -2 8 -3 9 -3 8 -4 
8 -2 8 -2 9 -2 8 -3 8 -2 8 0 8 -1 9 0 
8 -1 8 -1 8 -2 9 -1 8 -2 8 -1 8 -2 9 -2 
8 -2 8 -1 8 -3 9 -2 8 -2 8 -1 8 -1 9 -1 
8 -2 8 -2 8 -1 8 -2 9 -1 8 -1 8 -1 8 -2 
9 0 8 -2 8 -1 8 -1 9 -1 8 -1 8 -1 8 -2 
9 -2 8 -1 8 -4 8 -3 9 -2 8 -1 8 -1 8 -1 
8 -1 848 4517 154 MP stroke
gr

c10
0 sg
%%IncludeResource: font Helvetica
/Helvetica /ISOLatin1Encoding 166.667 FMSR

 818 4587 mt 
( ) s
5056  631 mt 
( ) s
12.5 w
%%IncludeResource: font Symbol
/Symbol /ISOLatin1Encoding 125 FMSR

2678  927 mt 
(D) s
%%IncludeResource: font Helvetica-Bold
/Helvetica-Bold /ISOLatin1Encoding 125 FMSR

2754  927 mt 
( ) s
%%IncludeResource: font Symbol
/Symbol /ISOLatin1Encoding 125 FMSR

2788  927 mt 
(g) s
%%IncludeResource: font Helvetica-Bold
/Helvetica-Bold /ISOLatin1Encoding 125 FMSR

2839  927 mt 
( = 8 J/m) s
%%IncludeResource: font Helvetica-Bold
/Helvetica-Bold /ISOLatin1Encoding 100 FMSR

3301  865 mt 
(2) s
gs 2353 750 1227 950 rc
16.6667 w
250 0 2403 879 2 MP stroke
gr

16.6667 w
%%IncludeResource: font Symbol
/Symbol /ISOLatin1Encoding 125 FMSR

2678 1157 mt 
(D) s
%%IncludeResource: font Helvetica-Bold
/Helvetica-Bold /ISOLatin1Encoding 125 FMSR

2754 1157 mt 
( ) s
%%IncludeResource: font Symbol
/Symbol /ISOLatin1Encoding 125 FMSR

2788 1157 mt 
(g) s
%%IncludeResource: font Helvetica-Bold
/Helvetica-Bold /ISOLatin1Encoding 125 FMSR

2839 1157 mt 
( = 12.5 J/m) s
%%IncludeResource: font Helvetica-Bold
/Helvetica-Bold /ISOLatin1Encoding 100 FMSR

3474 1095 mt 
(2) s
gs 2353 750 1227 950 rc
c8
250 0 2403 1109 2 MP stroke
gr

c8
0 sg
%%IncludeResource: font Symbol
/Symbol /ISOLatin1Encoding 125 FMSR

2678 1387 mt 
(D) s
%%IncludeResource: font Helvetica-Bold
/Helvetica-Bold /ISOLatin1Encoding 125 FMSR

2754 1387 mt 
( ) s
%%IncludeResource: font Symbol
/Symbol /ISOLatin1Encoding 125 FMSR

2788 1387 mt 
(g) s
%%IncludeResource: font Helvetica-Bold
/Helvetica-Bold /ISOLatin1Encoding 125 FMSR

2839 1387 mt 
( = 18.5 J/m) s
%%IncludeResource: font Helvetica-Bold
/Helvetica-Bold /ISOLatin1Encoding 100 FMSR

3474 1325 mt 
(2) s
gs 2353 750 1227 950 rc
c9
250 0 2403 1339 2 MP stroke
gr

c9
0 sg
%%IncludeResource: font Symbol
/Symbol /ISOLatin1Encoding 125 FMSR

2678 1617 mt 
(D) s
%%IncludeResource: font Helvetica-Bold
/Helvetica-Bold /ISOLatin1Encoding 125 FMSR

2754 1617 mt 
( ) s
%%IncludeResource: font Symbol
/Symbol /ISOLatin1Encoding 125 FMSR

2788 1617 mt 
(g) s
%%IncludeResource: font Helvetica-Bold
/Helvetica-Bold /ISOLatin1Encoding 125 FMSR

2839 1617 mt 
( = 23.5 J/m) s
%%IncludeResource: font Helvetica-Bold
/Helvetica-Bold /ISOLatin1Encoding 100 FMSR

3474 1555 mt 
(2) s
gs 2353 750 1227 950 rc
c10
250 0 2403 1569 2 MP stroke
12.5 w
gr

12.5 w
c10

end %%Color Dict

eplot
%%EndObject

epage
end

showpage

%%Trailer
%%EOF
