%!PS-Adobe-3.0 EPSF-3.0
%%Creator: MATLAB, The MathWorks, Inc. Version 7.12.0.635 (R2011a). Operating System: Linux 2.6.32-358.6.2.el6.x86_64 #1 SMP Thu May 16 11:21:38 CDT 2013 x86_64.
%%Title: ./Confined_StressStain_SE_60kPa.eps
%%CreationDate: 08/15/2013  13:56:59
%%DocumentNeededFonts: Helvetica-Bold
%%+ Helvetica
%%DocumentProcessColors: Cyan Magenta Yellow Black
%%LanguageLevel: 2
%%Pages: 1
%%BoundingBox:    29    69   611   605
%%EndComments

%%BeginProlog
% MathWorks dictionary
/MathWorks 160 dict begin
% definition operators
/bdef {bind def} bind def
/ldef {load def} bind def
/xdef {exch def} bdef
/xstore {exch store} bdef
% operator abbreviations
/c  /clip ldef
/cc /concat ldef
/cp /closepath ldef
/gr /grestore ldef
/gs /gsave ldef
/mt /moveto ldef
/np /newpath ldef
/cm /currentmatrix ldef
/sm /setmatrix ldef
/rm /rmoveto ldef
/rl /rlineto ldef
/s {show newpath} bdef
/sc {setcmykcolor} bdef
/sr /setrgbcolor ldef
/sg /setgray ldef
/w /setlinewidth ldef
/j /setlinejoin ldef
/cap /setlinecap ldef
/rc {rectclip} bdef
/rf {rectfill} bdef
% page state control
/pgsv () def
/bpage {/pgsv save def} bdef
/epage {pgsv restore} bdef
/bplot /gsave ldef
/eplot {stroke grestore} bdef
% orientation switch
/portraitMode 0 def /landscapeMode 1 def /rotateMode 2 def
% coordinate system mappings
/dpi2point 0 def
% font control
/FontSize 0 def
/FMS {/FontSize xstore findfont [FontSize 0 0 FontSize neg 0 0]
  makefont setfont} bdef
/reencode {exch dup where {pop load} {pop StandardEncoding} ifelse
  exch dup 3 1 roll findfont dup length dict begin
  { 1 index /FID ne {def}{pop pop} ifelse } forall
  /Encoding exch def currentdict end definefont pop} bdef
/isroman {findfont /CharStrings get /Agrave known} bdef
/FMSR {3 1 roll 1 index dup isroman {reencode} {pop pop} ifelse
  exch FMS} bdef
/csm {1 dpi2point div -1 dpi2point div scale neg translate
 dup landscapeMode eq {pop -90 rotate}
  {rotateMode eq {90 rotate} if} ifelse} bdef
% line types: solid, dotted, dashed, dotdash
/SO { [] 0 setdash } bdef
/DO { [.5 dpi2point mul 4 dpi2point mul] 0 setdash } bdef
/DA { [6 dpi2point mul] 0 setdash } bdef
/DD { [.5 dpi2point mul 4 dpi2point mul 6 dpi2point mul 4
  dpi2point mul] 0 setdash } bdef
% macros for lines and objects
/L {lineto stroke} bdef
/MP {3 1 roll moveto 1 sub {rlineto} repeat} bdef
/AP {{rlineto} repeat} bdef
/PDlw -1 def
/W {/PDlw currentlinewidth def setlinewidth} def
/PP {closepath eofill} bdef
/DP {closepath stroke} bdef
/MR {4 -2 roll moveto dup  0 exch rlineto exch 0 rlineto
  neg 0 exch rlineto closepath} bdef
/FR {MR stroke} bdef
/PR {MR fill} bdef
/L1i {{currentfile picstr readhexstring pop} image} bdef
/tMatrix matrix def
/MakeOval {newpath tMatrix currentmatrix pop translate scale
0 0 1 0 360 arc tMatrix setmatrix} bdef
/FO {MakeOval stroke} bdef
/PO {MakeOval fill} bdef
/PD {currentlinewidth 2 div 0 360 arc fill
   PDlw -1 eq not {PDlw w /PDlw -1 def} if} def
/FA {newpath tMatrix currentmatrix pop translate scale
  0 0 1 5 -2 roll arc tMatrix setmatrix stroke} bdef
/PA {newpath tMatrix currentmatrix pop	translate 0 0 moveto scale
  0 0 1 5 -2 roll arc closepath tMatrix setmatrix fill} bdef
/FAn {newpath tMatrix currentmatrix pop translate scale
  0 0 1 5 -2 roll arcn tMatrix setmatrix stroke} bdef
/PAn {newpath tMatrix currentmatrix pop translate 0 0 moveto scale
  0 0 1 5 -2 roll arcn closepath tMatrix setmatrix fill} bdef
/vradius 0 def /hradius 0 def /lry 0 def
/lrx 0 def /uly 0 def /ulx 0 def /rad 0 def
/MRR {/vradius xdef /hradius xdef /lry xdef /lrx xdef /uly xdef
  /ulx xdef newpath tMatrix currentmatrix pop ulx hradius add uly
  vradius add translate hradius vradius scale 0 0 1 180 270 arc 
  tMatrix setmatrix lrx hradius sub uly vradius add translate
  hradius vradius scale 0 0 1 270 360 arc tMatrix setmatrix
  lrx hradius sub lry vradius sub translate hradius vradius scale
  0 0 1 0 90 arc tMatrix setmatrix ulx hradius add lry vradius sub
  translate hradius vradius scale 0 0 1 90 180 arc tMatrix setmatrix
  closepath} bdef
/FRR {MRR stroke } bdef
/PRR {MRR fill } bdef
/MlrRR {/lry xdef /lrx xdef /uly xdef /ulx xdef /rad lry uly sub 2 div def
  newpath tMatrix currentmatrix pop ulx rad add uly rad add translate
  rad rad scale 0 0 1 90 270 arc tMatrix setmatrix lrx rad sub lry rad
  sub translate rad rad scale 0 0 1 270 90 arc tMatrix setmatrix
  closepath} bdef
/FlrRR {MlrRR stroke } bdef
/PlrRR {MlrRR fill } bdef
/MtbRR {/lry xdef /lrx xdef /uly xdef /ulx xdef /rad lrx ulx sub 2 div def
  newpath tMatrix currentmatrix pop ulx rad add uly rad add translate
  rad rad scale 0 0 1 180 360 arc tMatrix setmatrix lrx rad sub lry rad
  sub translate rad rad scale 0 0 1 0 180 arc tMatrix setmatrix
  closepath} bdef
/FtbRR {MtbRR stroke } bdef
/PtbRR {MtbRR fill } bdef
/stri 6 array def /dtri 6 array def
/smat 6 array def /dmat 6 array def
/tmat1 6 array def /tmat2 6 array def /dif 3 array def
/asub {/ind2 exch def /ind1 exch def dup dup
  ind1 get exch ind2 get sub exch } bdef
/tri_to_matrix {
  2 0 asub 3 1 asub 4 0 asub 5 1 asub
  dup 0 get exch 1 get 7 -1 roll astore } bdef
/compute_transform {
  dmat dtri tri_to_matrix tmat1 invertmatrix 
  smat stri tri_to_matrix tmat2 concatmatrix } bdef
/ds {stri astore pop} bdef
/dt {dtri astore pop} bdef
/db {2 copy /cols xdef /rows xdef mul dup 3 mul string
  currentfile 
  3 index 0 eq {/ASCIIHexDecode filter}
  {/ASCII85Decode filter 3 index 2 eq {/RunLengthDecode filter} if }
  ifelse exch readstring pop
  dup 0 3 index getinterval /rbmap xdef
  dup 2 index dup getinterval /gbmap xdef
  1 index dup 2 mul exch getinterval /bbmap xdef pop pop}bdef
/it {gs np dtri aload pop moveto lineto lineto cp c
  cols rows 8 compute_transform 
  rbmap gbmap bbmap true 3 colorimage gr}bdef
/il {newpath moveto lineto stroke}bdef
currentdict end def
%%EndProlog

%%BeginSetup
MathWorks begin

0 cap

end
%%EndSetup

%%Page: 1 1
%%BeginPageSetup
%%PageBoundingBox:    29    69   611   605
MathWorks begin
bpage
%%EndPageSetup

%%BeginObject: obj1
bplot

/dpi2point 8.33333 def
portraitMode -0158 5475 csm

  403   426  4848  4474 rc
84 dict begin %Colortable dictionary
/c0 { 0.000000 0.000000 0.000000 sr} bdef
/c1 { 1.000000 1.000000 1.000000 sr} bdef
/c2 { 0.900000 0.000000 0.000000 sr} bdef
/c3 { 0.000000 0.820000 0.000000 sr} bdef
/c4 { 0.000000 0.000000 0.800000 sr} bdef
/c5 { 0.910000 0.820000 0.320000 sr} bdef
/c6 { 1.000000 0.260000 0.820000 sr} bdef
/c7 { 0.000000 0.820000 0.820000 sr} bdef
c0
1 j
1 sg
   0    0 5651 5651 rf
12.5 w
0 3955 4237 0 0 -3955 848 4520 4 MP
PP
-4237 0 0 3955 4237 0 0 -3955 848 4520 5 MP stroke
8.33333 w
DO
SO
12.5 w
0.1 sg
 848 4520 mt 5085 4520 L
 848  565 mt 5085  565 L
 848 4520 mt  848  565 L
5085 4520 mt 5085  565 L
 848 4520 mt 5085 4520 L
 848 4520 mt  848  565 L
 848 4520 mt  848 4456 L
 848  565 mt  848  628 L
%%IncludeResource: font Helvetica
/Helvetica /ISOLatin1Encoding 133.333 FMSR

 811 4668 mt 
(0) s
1453 4520 mt 1453 4456 L
1453  565 mt 1453  628 L
1324 4668 mt 
(0.05) s
2058 4520 mt 2058 4456 L
2058  565 mt 2058  628 L
1966 4668 mt 
(0.1) s
2663 4520 mt 2663 4456 L
2663  565 mt 2663  628 L
2534 4668 mt 
(0.15) s
3269 4520 mt 3269 4456 L
3269  565 mt 3269  628 L
3177 4668 mt 
(0.2) s
3874 4520 mt 3874 4456 L
3874  565 mt 3874  628 L
3745 4668 mt 
(0.25) s
4479 4520 mt 4479 4456 L
4479  565 mt 4479  628 L
4387 4668 mt 
(0.3) s
5085 4520 mt 5085 4456 L
5085  565 mt 5085  628 L
4956 4668 mt 
(0.35) s
 848 4520 mt  911 4520 L
5085 4520 mt 5021 4520 L
 750 4569 mt 
(0) s
 848 3955 mt  911 3955 L
5085 3955 mt 5021 3955 L
 676 4004 mt 
(10) s
 848 3390 mt  911 3390 L
5085 3390 mt 5021 3390 L
 676 3439 mt 
(20) s
 848 2825 mt  911 2825 L
5085 2825 mt 5021 2825 L
 676 2874 mt 
(30) s
 848 2260 mt  911 2260 L
5085 2260 mt 5021 2260 L
 676 2309 mt 
(40) s
 848 1695 mt  911 1695 L
5085 1695 mt 5021 1695 L
 676 1744 mt 
(50) s
 848 1130 mt  911 1130 L
5085 1130 mt 5021 1130 L
 676 1179 mt 
(60) s
 848  565 mt  911  565 L
5085  565 mt 5021  565 L
 676  614 mt 
(70) s
 848 4520 mt 5085 4520 L
 848  565 mt 5085  565 L
 848 4520 mt  848  565 L
5085 4520 mt 5085  565 L
gs 848 565 4238 3956 rc
16.6667 w
0 sg
-3 1 -3 0 -3 1 -3 2 -3 2 -3 3 -3 5 -3 6 
-3 8 -3 9 -3 9 -3 10 -3 14 -3 13 -3 14 -3 13 
-3 16 -3 20 -3 19 -3 23 -3 22 -3 26 -3 29 -3 27 
-3 29 -3 36 -3 35 -3 35 -3 35 -3 38 -3 47 -3 40 
-3 44 -3 50 -3 51 -2 47 -3 55 -3 55 -3 57 -3 61 
-3 67 -3 63 -3 70 -3 76 -3 83 -3 108 -3 144 -3 254 
-3 1520 7 -27 8 -25 7 -23 8 -30 7 -30 7 -24 8 -28 
7 -30 8 -21 7 -33 8 -20 7 -26 7 -18 8 -29 7 -18 
8 -30 7 -8 8 -19 7 -34 8 -19 7 -25 7 -25 8 -23 
7 -22 8 -23 7 -25 8 -22 7 -25 7 -30 8 -13 7 -24 
8 -32 7 -8 8 -24 7 -21 8 -20 7 -25 7 -22 8 -21 
7 -23 8 -15 7 -21 8 -22 7 -23 7 -19 8 -26 7 -21 
8 -20 7 -20 8 -28 7 -13 7 -21 8 -19 7 -19 8 -21 
7 -16 8 -17 7 -15 7 -17 8 -20 7 -22 8 -18 7 -11 
8 -18 7 -20 8 -17 7 -18 7 -19 8 -14 7 -11 8 -23 
7 -13 8 -15 7 -15 7 -13 8 -15 7 -30 8 -7 7 -8 
8 -19 7 -15 7 -15 8 -14 7 -19 8 -16 7 -11 8 -14 
7 -22 8 -11 7 -12 7 -21 8 -10 7 -12 8 -15 7 -19 
8 -8 7 -6 7 -16 8 -21 7 -4 8 -12 7 -16 8 -15 
7 -15 7 -11 8 -9 7 -16 8 -14 7 -17 8 -7 7 -4 
8 -17 7 -12 7 -9 8 -14 7 -9 8 -14 7 -11 8 -18 
7 -6 7 -13 8 -11 7 -9 8 -10 7 -15 8 -8 7 -10 
7 -11 8 -13 7 -13 8 -2 7 -10 8 -11 7 -15 8 -6 
7 -9 7 -6 8 -12 7 -8 8 -11 7 -15 8 -2 7 -6 
7 -8 8 -10 7 -6 8 -12 7 -6 8 -9 7 -10 7 -6 
8 -9 7 -9 8 -11 7 -9 8 -2 7 -12 7 -12 8 -5 
7 -9 8 -8 7 -9 8 -8 7 -11 8 -5 7 -6 7 -4 
8 -5 7 -7 8 -9 7 -8 8 -8 7 -7 7 -8 8 -8 
7 -9 8 -7 7 -7 8 -7 7 -6 7 -10 8 -6 7 -7 
8 -6 7 -3 8 -8 7 -8 8 -6 7 -8 7 -7 8 -9 
7 -3 8 -6 7 -2 8 -8 7 -9 7 -8 8 -3 7 -5 
8 -4 7 -9 8 -3 7 -3 7 -4 8 -5 7 -7 8 -5 
7 -3 8 -4 7 -5 8 -1 7 -6 7 -7 8 -3 7 -4 
8 -6 7 -5 8 -1 7 -4 7 -9 8 -1 7 -4 8 -7 
7 -8 8 2 7 -6 7 -4 8 -2 7 -3 8 -7 7 -6 
8 -6 7 2 8 -3 7 -4 7 -6 8 -3 7 -6 8 -5 
7 -2 8 -2 7 -4 7 -6 8 -5 7 -3 8 -4 7 -2 
8 -6 7 0 7 -3 2885 4171 300 MP stroke
8 -8 7 -2 8 -5 7 -4 8 -4 7 -3 7 -2 8 -3 
7 1 8 -4 7 -4 8 -4 7 -3 8 -4 7 -1 7 -3 
8 -6 7 -2 8 0 7 -4 8 -1 7 -2 7 -4 8 -3 
7 -5 8 -4 7 0 8 -3 7 0 7 -2 8 0 7 0 
8 -2 7 -1 8 -4 7 -2 8 0 7 -4 7 -5 8 -2 
7 -1 8 -1 7 -2 8 -1 7 -1 7 -3 8 -4 7 -2 
8 -2 7 -3 8 -1 7 -2 7 -3 8 -1 7 1 8 -2 
7 -2 8 -3 7 -2 8 -5 7 -1 7 -3 8 -2 7 -1 
8 0 7 -3 8 0 7 -4 7 -1 8 -2 7 -2 8 -1 
7 -2 8 -4 7 -2 7 -2 8 -2 7 -3 8 -1 7 -3 
8 -2 7 -2 8 0 7 -1 7 -1 8 0 7 0 8 -1 
7 1 8 -3 7 -2 7 -2 8 0 7 -2 8 0 7 -2 
8 -4 7 -2 7 -1 8 -3 7 -1 8 -2 7 -1 8 -2 
7 -1 8 -1 7 -2 7 0 8 -1 7 -2 8 -2 7 -2 
8 -1 7 0 7 0 8 -2 7 -1 8 -1 7 -1 8 -2 
7 -1 7 -2 8 -1 7 -1 8 -2 7 0 8 -3 7 -2 
7 1 8 -1 7 -1 8 -1 7 -1 8 -1 7 -3 8 0 
7 -1 7 0 8 -1 7 -1 8 -1 7 -3 8 0 7 0 
7 -1 8 -1 7 -2 8 -2 7 -2 8 -1 7 2 8 -1 
7 -1 7 0 8 0 7 0 8 -1 7 -1 8 -1 7 -1 
7 -1 8 0 7 -1 8 -1 7 -2 8 0 7 0 7 -1 
8 -2 7 -1 8 -1 7 -1 8 -1 7 -1 7 -1 8 -1 
7 -1 8 -1 7 0 8 -1 7 0 8 0 7 -1 7 0 
8 0 7 -1 8 -1 7 -1 8 -1 7 -2 7 0 8 -1 
7 -1 8 -3 7 0 8 1 7 0 7 -1 8 -1 7 -1 
8 -1 7 0 8 0 7 -1 8 0 7 -1 7 0 8 0 
7 -1 8 -1 7 -1 8 0 7 0 7 -1 8 -1 7 0 
8 -2 7 -1 8 0 7 0 7 0 8 -1 7 0 8 0 
7 -1 8 0 7 -1 8 1 7 -1 7 0 8 -1 7 0 
8 -1 7 0 8 -1 7 0 7 0 8 -1 7 -1 8 0 
7 0 8 0 7 0 7 -1 8 0 7 -1 8 -1 7 -1 
8 -1 7 -1 8 -1 7 -2 7 0 8 0 7 -1 8 0 
7 -1 8 -1 7 0 7 -1 8 -1 7 -1 8 -1 7 0 
8 -1 7 -1 7 0 8 1 7 0 8 0 7 -1 8 0 
7 1 7 -1 848 4519 275 MP stroke
gr

16.6667 w
0 sg
0.1 sg
%%IncludeResource: font Helvetica-Bold
/Helvetica-Bold /ISOLatin1Encoding 183.333 FMSR

2351 4842 mt 
(Vertical Strain) s
 596 3424 mt  -90 rotate
(Vertical Stress [kPa]) s
90 rotate
gs 848 565 4238 3956 rc
/c8 { 1.000000 0.000000 0.000000 sr} bdef
c8
-3 1 -3 0 -2 0 -3 2 -3 3 -3 4 -3 4 -3 6 
-3 8 -3 8 -2 8 -3 9 -3 9 -3 11 -3 12 -3 14 
-3 16 -3 16 -2 17 -3 20 -3 17 -3 21 -3 18 -3 22 
-3 22 -3 24 -2 26 -3 30 -3 29 -3 32 -3 31 -3 29 
-3 35 -3 36 -2 37 -3 39 -3 37 -3 36 -3 38 -3 42 
-3 48 -3 46 -2 50 -3 47 -3 50 -3 49 -3 59 -3 58 
-3 58 -3 58 -2 64 -3 80 -3 93 -3 132 -3 243 -3 1492 
7 -34 8 -18 7 -29 7 -28 7 -18 7 -23 7 -22 8 -26 
7 -25 7 -20 7 -26 7 -25 8 -28 7 -24 7 -21 7 -21 
7 -22 8 -20 7 -30 7 -11 7 -18 7 -24 7 -22 8 -18 
7 -26 7 -20 7 -24 7 -15 8 -20 7 -23 7 -18 7 -23 
7 -17 8 -21 7 -22 7 -25 7 -20 7 -16 8 -27 7 -21 
7 -17 7 -21 7 -16 7 -18 8 -25 7 -19 7 -18 7 -17 
7 -15 8 -20 7 -19 7 -18 7 -23 7 -21 7 -20 8 -14 
7 -17 7 -14 7 -18 7 -23 8 -14 7 -10 7 -20 7 -14 
7 -18 8 -17 7 -13 7 -18 7 -17 7 -10 7 -22 8 -11 
7 -16 7 -12 7 -19 7 -16 8 -10 7 -17 7 -10 7 -17 
7 -13 8 -18 7 -16 7 -13 7 -14 7 -14 7 -15 8 -8 
7 -20 7 -7 7 -20 7 -9 8 -8 7 -13 7 -14 7 -16 
7 -6 8 -10 7 -23 7 -12 7 -3 7 -10 7 -16 8 -17 
7 -11 7 -13 7 -11 7 -14 8 -6 7 -13 7 -13 7 -15 
7 -12 8 -16 7 -7 7 -14 7 -8 7 -17 7 -14 8 -8 
7 -6 7 -13 7 -11 7 -14 8 -7 7 -18 7 -6 7 -9 
7 -9 8 -9 7 -11 7 -7 7 -15 7 -5 7 -8 8 -13 
7 -4 7 -12 7 -10 7 -10 8 -11 7 -10 7 -7 7 -10 
7 -10 8 -6 7 -5 7 -12 7 -12 7 -8 7 -5 8 -10 
7 -15 7 0 7 -11 7 -4 8 -7 7 -4 7 -10 7 -10 
7 -6 8 -9 7 -4 7 -9 7 -2 7 -8 7 -4 8 -6 
7 -7 7 -12 7 -7 7 -4 8 -9 7 -8 7 -4 7 -11 
7 -2 8 -4 7 -5 7 -9 7 -10 7 -8 7 -6 8 0 
7 -5 7 -6 7 -10 7 -7 8 -4 7 -9 7 -8 7 -8 
7 -3 8 -7 7 -9 7 -11 7 -5 7 0 7 -4 8 -7 
7 -3 7 -13 7 -8 7 4 8 -2 7 -7 7 -10 7 -5 
7 -9 8 -5 7 -6 7 -6 7 -6 7 -10 7 0 8 -7 
7 -6 7 -7 7 -3 7 -1 8 -6 7 -4 7 -6 7 -7 
7 -6 8 -8 7 0 7 -8 7 -6 7 0 7 -3 8 -6 
7 -5 7 -5 7 -5 7 -5 8 -2 7 -7 7 -4 7 -5 
7 -1 8 -5 7 -7 3104 4038 300 MP stroke
7 -4 7 -7 7 -3 7 -2 8 -2 7 -2 7 -8 7 -4 
7 -5 8 -2 7 -3 7 -3 7 0 7 -2 8 -6 7 -4 
7 -5 7 -7 7 -3 7 -5 8 -1 7 -4 7 -2 7 -1 
7 -3 8 -6 7 -5 7 -5 7 0 7 -3 7 -6 8 -1 
7 1 7 -6 7 -4 7 -2 8 -5 7 -3 7 -3 7 -2 
7 -2 8 -3 7 -3 7 -5 7 1 7 -1 7 -3 8 -2 
7 -4 7 -6 7 -4 7 -4 8 -3 7 -3 7 -2 7 -1 
7 -2 8 -3 7 -2 7 -1 7 -4 7 0 8 -2 7 -2 
7 0 7 2 7 -1 7 -5 8 -5 7 -3 7 1 7 -2 
7 -5 8 -2 7 -2 7 0 7 -1 7 -3 7 -2 8 -3 
7 -4 7 -3 7 -4 7 -5 8 2 7 0 7 -1 7 -3 
7 -4 8 -3 7 -5 7 -1 7 -1 7 -3 7 0 8 -2 
7 -1 7 -2 7 -3 7 -2 8 -2 7 -3 7 -2 7 -2 
7 -3 8 -4 7 -2 7 -1 7 -1 7 -1 7 -3 8 -3 
7 -1 7 -1 7 1 7 -2 8 -4 7 -2 7 -2 7 -1 
7 -1 8 -4 7 0 7 -1 7 -2 7 0 7 -3 8 -2 
7 -3 7 -2 7 -1 7 1 8 -3 7 0 7 1 7 -2 
7 -4 8 -1 7 -3 7 -2 7 -1 7 -2 7 -3 8 -2 
7 0 7 -1 7 -1 7 -3 8 -1 7 0 7 -1 7 -1 
7 -2 8 -2 7 -1 7 -2 7 -2 7 -3 7 -2 8 0 
7 -1 7 -2 7 1 7 -2 8 0 7 -1 7 -2 7 -1 
7 -1 8 -1 7 -2 7 -1 7 -2 7 -2 7 0 8 -1 
7 0 7 0 7 0 7 -1 8 -1 7 -2 7 -2 7 0 
7 -1 8 0 7 -1 7 -1 7 -2 7 -1 7 1 8 0 
7 -1 7 1 7 0 7 -1 8 -1 7 -1 7 -1 7 -1 
7 -1 8 -1 7 -1 7 -2 7 -1 7 -1 7 0 8 -2 
7 -1 7 -2 7 0 7 1 8 0 7 -1 7 0 7 -1 
7 -1 8 -1 7 0 7 -1 7 -1 7 -1 7 -2 8 -2 
7 -1 7 -1 7 0 7 0 8 -1 7 0 7 0 7 -1 
7 -1 8 -1 7 -1 7 0 7 -1 7 -1 7 -1 8 -1 
7 0 7 -1 7 1 7 -1 8 -1 7 -1 7 0 7 -1 
7 0 8 -1 7 -2 7 0 7 -1 7 -1 7 -1 8 0 
7 0 7 -1 7 0 7 -1 8 0 7 -1 7 -1 7 -1 
7 -1 8 0 7 -1 7 0 7 0 7 -1 7 0 8 -1 
7 0 7 0 7 -1 7 0 8 -1 7 0 7 -1 7 0 
7 -1 8 0 7 0 7 -1 7 -1 7 -1 7 -1 8 0 
7 -1 7 -1 7 0 7 0 8 0 7 -1 7 -1 7 -1 
7 -1 7 0 8 -1 955 4515 300 MP stroke
7 0 7 -1 7 0 7 0 8 0 7 -1 7 0 7 0 
7 0 8 -1 7 0 7 -1 7 0 7 0 7 0 848 4519 16 MP stroke
/c9 { 0.000000 0.000000 1.000000 sr} bdef
c9
-3 1 -3 0 -3 1 -3 2 -2 3 -3 4 -3 4 -3 5 
-3 6 -3 6 -2 7 -3 7 -3 7 -3 9 -3 9 -3 9 
-2 11 -3 10 -3 11 -3 14 -3 12 -3 11 -2 12 -3 14 
-3 14 -3 16 -3 20 -3 19 -2 20 -3 20 -3 25 -3 22 
-3 19 -3 20 -2 25 -3 24 -3 27 -3 23 -3 26 -3 24 
-2 29 -3 30 -3 34 -3 30 -3 37 -3 32 -2 36 -3 32 
-3 33 -3 39 -3 38 -3 33 -2 40 -3 42 -3 43 -3 46 
-3 46 -3 52 -2 53 -3 56 -3 63 -3 74 -3 89 -3 129 
-2 251 -3 1503 7 -24 7 -23 7 -26 7 -21 7 -34 7 -14 
7 -16 7 -24 8 -17 7 -19 7 -19 7 -16 7 -26 7 -19 
7 -23 7 -9 7 -32 7 -17 7 -23 7 -24 8 -5 7 -20 
7 -26 7 -24 7 -11 7 -20 7 -19 7 -29 7 3 7 -20 
7 -19 7 -15 8 -24 7 -16 7 -21 7 -18 7 -16 7 -21 
7 -20 7 -16 7 -18 7 -23 7 -17 7 -6 8 -20 7 -20 
7 -10 7 -11 7 -19 7 -16 7 -15 7 -14 7 -27 7 -5 
7 -20 7 -12 8 -19 7 -8 7 -20 7 -17 7 -18 7 -14 
7 -15 7 -18 7 -12 7 -20 7 -17 7 -9 8 -22 7 -11 
7 -12 7 -18 7 -20 7 -8 7 -13 7 -12 7 -24 7 -13 
7 -15 7 -13 7 -12 8 -17 7 -17 7 -10 7 -10 7 -22 
7 -8 7 -16 7 -3 7 -12 7 -14 7 -9 7 -7 8 -16 
7 -11 7 -15 7 -17 7 -14 7 -3 7 -10 7 -15 7 -7 
7 -10 7 -19 7 2 8 -10 7 -7 7 -17 7 -14 7 -9 
7 -7 7 -17 7 -13 7 -5 7 -17 7 -9 7 -7 8 -14 
7 -18 7 -6 7 -8 7 -10 7 -7 7 -17 7 -14 7 -4 
7 -10 7 -11 7 -16 8 -8 7 -7 7 -16 7 -9 7 -12 
7 -2 7 -10 7 -13 7 -11 7 -13 7 -8 7 -9 8 -7 
7 -14 7 -3 7 -15 7 -7 7 -10 7 -7 7 -11 7 -10 
7 -10 7 -6 7 -11 7 -11 8 -8 7 -7 7 -13 7 -10 
7 -5 7 -5 7 -7 7 -3 7 -7 7 -6 7 -12 7 -2 
8 -9 7 -12 7 -7 7 -9 7 -6 7 -12 7 -4 7 -8 
7 -8 7 -7 7 -7 7 -4 8 -8 7 -22 7 3 7 -6 
7 -6 7 -13 7 -1 7 -7 7 -4 7 -10 7 -4 7 -7 
8 -6 7 -7 7 -11 7 -6 7 -7 7 -5 7 -7 7 -9 
7 -3 7 -8 7 -2 7 -9 8 -2 7 -5 7 -11 7 -12 
7 -3 7 4 7 -3 7 -8 7 -8 7 -8 7 -3 7 -6 
7 -8 8 -4 7 -6 7 -7 7 -10 7 1 7 -9 7 -6 
7 -2 7 -3 7 -11 7 -6 7 -4 8 -3 7 -1 7 -9 
7 -7 7 -4 7 -7 3220 3828 300 MP stroke
7 -7 7 -6 7 -6 7 -3 7 -2 7 -9 8 -4 7 -2 
7 -2 7 -14 7 -6 7 0 7 -5 7 -2 7 -4 7 -5 
7 -9 7 -7 8 -6 7 1 7 -1 7 -10 7 -5 7 -5 
7 -2 7 -4 7 -5 7 -3 7 -3 7 -10 8 -3 7 -6 
7 -2 7 -5 7 -8 7 0 7 -7 7 -4 7 -1 7 -4 
7 -6 7 -2 8 -8 7 -5 7 -5 7 -3 7 -1 7 -5 
7 -4 7 -1 7 -4 7 -3 7 -6 7 -2 7 -1 8 -4 
7 -5 7 -3 7 -3 7 -5 7 -4 7 -5 7 -1 7 -4 
7 -3 7 -3 7 -2 8 -1 7 -1 7 -4 7 -4 7 -2 
7 -4 7 0 7 -5 7 -6 7 -3 7 -4 7 -3 8 -3 
7 -3 7 -3 7 -3 7 -4 7 -4 7 -3 7 -2 7 -2 
7 -4 7 -5 7 -3 8 -1 7 -2 7 -5 7 -4 7 -5 
7 0 7 -1 7 -5 7 -8 7 -5 7 -2 7 1 8 0 
7 -4 7 -5 7 -2 7 -5 7 -2 7 -2 7 4 7 -5 
7 -5 7 -4 7 -1 8 -2 7 -2 7 1 7 -2 7 -3 
7 -3 7 0 7 -3 7 -6 7 -2 7 0 7 0 7 0 
8 -3 7 -2 7 -2 7 -5 7 1 7 -1 7 -4 7 -4 
7 1 7 -3 7 -2 7 -3 8 -1 7 -5 7 -2 7 0 
7 1 7 -1 7 -1 7 -3 7 -2 7 -3 7 -6 7 -2 
8 0 7 0 7 -5 7 -3 7 0 7 -2 7 0 7 -2 
7 -1 7 0 7 -1 7 -3 8 -3 7 -3 7 -1 7 -2 
7 -2 7 -4 7 -1 7 0 7 2 7 -2 7 -4 7 -2 
8 -1 7 -1 7 -1 7 -1 7 1 7 -3 7 -2 7 -1 
7 -4 7 -3 7 0 7 -2 7 -2 8 1 7 -3 7 -1 
7 -4 7 0 7 -1 7 -2 7 -1 7 -2 7 -2 7 -1 
7 -2 8 -2 7 -3 7 1 7 1 7 -2 7 -3 7 -1 
7 -1 7 -2 7 -2 7 -2 7 -2 8 1 7 0 7 -1 
7 -1 7 -2 7 -1 7 -1 7 -2 7 0 7 -1 7 0 
7 -1 8 -2 7 -1 7 -1 7 -1 7 -1 7 -2 7 -2 
7 0 7 0 7 0 7 -1 7 -1 8 -1 7 -1 7 0 
7 -1 7 -3 7 -1 7 -2 7 -1 7 -1 7 -1 7 -1 
7 0 8 -2 7 -1 7 -1 7 -1 7 0 7 -1 7 -2 
7 -2 7 -2 7 1 7 1 7 0 8 -1 7 -2 7 -1 
7 -1 7 -2 7 -2 7 -1 7 0 7 -1 7 -1 7 0 
7 0 7 -1 8 -1 7 -1 7 0 7 -1 7 0 7 0 
7 -1 7 0 7 -1 7 -1 7 0 7 0 8 -1 7 -1 
7 -1 7 -1 7 -2 7 -1 7 -1 7 0 7 -1 7 -1 
7 -1 7 -1 8 0 1102 4500 300 MP stroke
7 -1 7 0 7 -1 7 0 7 -1 7 1 7 -1 7 -1 
7 -1 7 -1 7 0 8 0 7 -1 7 0 7 0 7 -1 
7 0 7 -1 7 0 7 0 7 -1 7 0 7 -1 8 -1 
7 -1 7 0 7 -1 7 -1 7 0 7 -1 7 -1 7 0 
7 0 7 -1 7 0 7 -1 848 4519 37 MP stroke
/c10 { 1.000000 0.000000 1.000000 sr} bdef
c10
-3 1 -3 0 -2 0 -3 1 -3 2 -3 3 -3 2 -2 3 
-3 5 -3 4 -3 3 -3 4 -3 6 -2 7 -3 7 -3 8 
-3 9 -3 8 -3 11 -2 12 -3 10 -3 9 -3 10 -3 12 
-2 12 -3 14 -3 14 -3 15 -3 13 -3 15 -2 12 -3 16 
-3 21 -3 18 -3 16 -3 16 -2 21 -3 18 -3 19 -3 18 
-3 18 -3 20 -2 19 -3 20 -3 24 -3 23 -3 26 -2 26 
-3 29 -3 26 -3 28 -3 28 -3 28 -2 28 -3 25 -3 29 
-3 32 -3 28 -3 31 -2 34 -3 37 -3 37 -3 36 -3 36 
-2 40 -3 43 -3 37 -3 42 -3 45 -3 43 -2 51 -3 60 
-3 70 -3 105 -3 126 -3 214 -2 1476 7 -30 7 -22 7 -22 
7 -23 7 -21 7 -11 7 -19 7 -26 7 -28 7 -6 7 -25 
7 -17 7 -18 7 -25 8 -23 7 -19 7 -14 7 -21 7 -15 
7 -22 7 -21 7 -14 7 -20 7 -16 7 -22 7 -24 7 -11 
7 -20 7 -25 7 -10 8 -22 7 -11 7 -16 7 -25 7 -23 
7 -9 7 -20 7 -18 7 -23 7 -18 7 -11 7 -21 7 -20 
7 -17 7 -11 7 -22 8 -19 7 -11 7 -13 7 -16 7 -23 
7 -6 7 -14 7 -19 7 -11 7 -17 7 -22 7 -13 7 -17 
7 -13 7 -15 7 -11 8 -22 7 -11 7 -15 7 -28 7 -9 
7 -16 7 -8 7 -11 7 -16 7 -5 7 -20 7 -17 7 -15 
7 -10 7 -10 7 -21 7 -17 8 -5 7 -14 7 -25 7 -4 
7 -12 7 -17 7 -13 7 -24 7 0 7 -10 7 -18 7 -19 
7 -5 7 -17 7 -11 7 -12 8 -16 7 -16 7 -10 7 -14 
7 -11 7 -17 7 -15 7 -7 7 -17 7 -14 7 -7 7 -15 
7 -6 7 -18 7 -10 7 -14 7 -12 8 -14 7 -3 7 -18 
7 -7 7 -8 7 -17 7 -14 7 -9 7 -5 7 -16 7 -11 
7 -6 7 -11 7 -15 7 -9 7 -9 8 -10 7 -14 7 -2 
7 -15 7 -11 7 -9 7 -5 7 -9 7 -14 7 -12 7 -11 
7 -2 7 -3 7 -13 7 -9 7 -9 8 -10 7 -13 7 -17 
7 -4 7 -6 7 -7 7 -7 7 -10 7 -21 7 -2 7 -5 
7 -9 7 -8 7 -8 7 -7 7 -15 8 -12 7 -1 7 -5 
7 -13 7 -10 7 -3 7 -9 7 -8 7 -6 7 -10 7 -9 
7 -6 7 -4 7 -4 7 -16 7 2 8 -6 7 -9 7 -4 
7 -9 7 -8 7 -5 7 -9 7 -11 7 -10 7 -4 7 -9 
7 -9 7 -7 7 0 7 -8 7 -6 7 -10 8 -8 7 -5 
7 -5 7 -5 7 -5 7 -12 7 -5 7 3 7 -8 7 -5 
7 -4 7 -10 7 -8 7 -8 7 -1 7 -4 8 -16 7 2 
7 -1 7 -12 7 -5 7 -4 7 0 7 -7 7 -10 7 1 
7 -11 7 -1 7 -9 3171 3768 300 MP stroke
7 -8 7 -1 7 -5 8 -3 7 -9 7 -1 7 -2 7 -9 
7 -2 7 -6 7 -2 7 -6 7 -5 7 -9 7 -4 7 -8 
7 1 7 -7 7 -6 7 -8 8 -5 7 -10 7 2 7 -6 
7 -1 7 -5 7 -6 7 -7 7 -4 7 -7 7 -5 7 -1 
7 -8 7 -2 7 -8 7 -5 8 -2 7 -1 7 -6 7 -6 
7 -7 7 -5 7 -3 7 -5 7 -5 7 -6 7 -6 7 0 
7 -4 7 -6 7 -5 7 -3 8 -9 7 2 7 -4 7 4 
7 -6 7 -5 7 -5 7 -3 7 -3 7 -3 7 -4 7 -5 
7 -2 7 -8 7 -5 7 -5 8 -2 7 -3 7 -4 7 -3 
7 -5 7 -6 7 2 7 -4 7 -7 7 5 7 -5 7 -4 
7 -7 7 -4 7 -3 7 -4 7 -1 8 -5 7 -4 7 -4 
7 3 7 -6 7 -12 7 -1 7 1 7 2 7 -1 7 -5 
7 -6 7 -4 7 0 7 -4 7 -6 8 -4 7 -3 7 -4 
7 -1 7 -4 7 0 7 -4 7 -6 7 -2 7 -2 7 0 
7 -3 7 -5 7 -1 7 -4 7 -2 8 -4 7 -4 7 -3 
7 0 7 -2 7 -5 7 -6 7 -2 7 -2 7 -3 7 -2 
7 -5 7 -1 7 -1 7 -2 7 -2 7 -3 8 -4 7 0 
7 0 7 -5 7 -3 7 -4 7 -1 7 0 7 -2 7 -1 
7 -2 7 -4 7 -4 7 -2 7 -3 7 -2 8 -3 7 -2 
7 -2 7 -2 7 0 7 0 7 -1 7 -4 7 -2 7 -3 
7 -4 7 -5 7 -1 7 1 7 1 7 -2 8 -4 7 -2 
7 0 7 -1 7 -2 7 -4 7 0 7 0 7 -2 7 -1 
7 -3 7 -1 7 -4 7 -1 7 -2 7 -1 8 -3 7 -3 
7 -2 7 -1 7 -2 7 0 7 -2 7 -2 7 -1 7 -2 
7 -2 7 -2 7 -2 7 0 7 -2 7 0 7 -2 8 -1 
7 -1 7 0 7 -1 7 -1 7 -2 7 -1 7 -1 7 -3 
7 -3 7 -1 7 -2 7 -2 7 -2 7 -2 7 0 8 0 
7 -1 7 -1 7 -1 7 -2 7 0 7 0 7 -1 7 -2 
7 -2 7 0 7 -3 7 0 7 -1 7 -1 7 -2 8 -1 
7 -2 7 0 7 -2 7 -2 7 -2 7 0 7 -1 7 -1 
7 -2 7 -1 7 -1 7 -1 7 -2 7 -1 7 0 8 -1 
7 -1 7 0 7 -1 7 -2 7 -2 7 1 7 -2 7 -2 
7 0 7 0 7 -1 7 0 7 -2 7 -1 7 -1 8 0 
7 -2 7 -1 7 -1 7 0 7 -1 7 0 7 -1 7 -1 
7 -1 7 -2 7 0 7 1 7 -2 7 -1 7 -1 7 -2 
8 -1 7 0 7 -1 7 -1 7 -1 7 -1 7 0 7 0 
7 0 7 -1 7 0 7 -1 7 -1 7 0 7 -1 7 -1 
8 -1 7 0 7 -2 1059 4500 300 MP stroke
7 -1 7 0 7 -1 7 0 7 -1 7 0 7 -1 7 -1 
7 0 7 -1 7 -1 7 0 7 -1 8 0 7 0 7 -1 
7 0 7 -1 7 0 7 -1 7 -1 7 0 7 -1 7 -2 
7 -1 7 -1 7 0 7 0 7 -1 7 -1 848 4519 31 MP stroke
gr

c10
0 sg
%%IncludeResource: font Helvetica
/Helvetica /ISOLatin1Encoding 166.667 FMSR

 818 4587 mt 
( ) s
5056  631 mt 
( ) s
12.5 w
%%IncludeResource: font Symbol
/Symbol /ISOLatin1Encoding 125 FMSR

2678  927 mt 
(D) s
%%IncludeResource: font Helvetica-Bold
/Helvetica-Bold /ISOLatin1Encoding 125 FMSR

2754  927 mt 
( ) s
%%IncludeResource: font Symbol
/Symbol /ISOLatin1Encoding 125 FMSR

2788  927 mt 
(g) s
%%IncludeResource: font Helvetica-Bold
/Helvetica-Bold /ISOLatin1Encoding 125 FMSR

2839  927 mt 
( = 8 J/m) s
%%IncludeResource: font Helvetica-Bold
/Helvetica-Bold /ISOLatin1Encoding 100 FMSR

3301  865 mt 
(2) s
gs 2353 750 1227 950 rc
16.6667 w
250 0 2403 879 2 MP stroke
gr

16.6667 w
%%IncludeResource: font Symbol
/Symbol /ISOLatin1Encoding 125 FMSR

2678 1157 mt 
(D) s
%%IncludeResource: font Helvetica-Bold
/Helvetica-Bold /ISOLatin1Encoding 125 FMSR

2754 1157 mt 
( ) s
%%IncludeResource: font Symbol
/Symbol /ISOLatin1Encoding 125 FMSR

2788 1157 mt 
(g) s
%%IncludeResource: font Helvetica-Bold
/Helvetica-Bold /ISOLatin1Encoding 125 FMSR

2839 1157 mt 
( = 12.5 J/m) s
%%IncludeResource: font Helvetica-Bold
/Helvetica-Bold /ISOLatin1Encoding 100 FMSR

3474 1095 mt 
(2) s
gs 2353 750 1227 950 rc
c8
250 0 2403 1109 2 MP stroke
gr

c8
0 sg
%%IncludeResource: font Symbol
/Symbol /ISOLatin1Encoding 125 FMSR

2678 1387 mt 
(D) s
%%IncludeResource: font Helvetica-Bold
/Helvetica-Bold /ISOLatin1Encoding 125 FMSR

2754 1387 mt 
( ) s
%%IncludeResource: font Symbol
/Symbol /ISOLatin1Encoding 125 FMSR

2788 1387 mt 
(g) s
%%IncludeResource: font Helvetica-Bold
/Helvetica-Bold /ISOLatin1Encoding 125 FMSR

2839 1387 mt 
( = 18.5 J/m) s
%%IncludeResource: font Helvetica-Bold
/Helvetica-Bold /ISOLatin1Encoding 100 FMSR

3474 1325 mt 
(2) s
gs 2353 750 1227 950 rc
c9
250 0 2403 1339 2 MP stroke
gr

c9
0 sg
%%IncludeResource: font Symbol
/Symbol /ISOLatin1Encoding 125 FMSR

2678 1617 mt 
(D) s
%%IncludeResource: font Helvetica-Bold
/Helvetica-Bold /ISOLatin1Encoding 125 FMSR

2754 1617 mt 
( ) s
%%IncludeResource: font Symbol
/Symbol /ISOLatin1Encoding 125 FMSR

2788 1617 mt 
(g) s
%%IncludeResource: font Helvetica-Bold
/Helvetica-Bold /ISOLatin1Encoding 125 FMSR

2839 1617 mt 
( = 23.5 J/m) s
%%IncludeResource: font Helvetica-Bold
/Helvetica-Bold /ISOLatin1Encoding 100 FMSR

3474 1555 mt 
(2) s
gs 2353 750 1227 950 rc
c10
250 0 2403 1569 2 MP stroke
12.5 w
gr

12.5 w
c10

end %%Color Dict

eplot
%%EndObject

epage
end

showpage

%%Trailer
%%EOF
