%!PS-Adobe-3.0 EPSF-3.0
%%Creator: MATLAB, The MathWorks, Inc. Version 7.12.0.635 (R2011a). Operating System: Linux 2.6.32-358.6.2.el6.x86_64 #1 SMP Thu May 16 11:21:38 CDT 2013 x86_64.
%%Title: ./Confined_StressStain_Exp_Comp.eps
%%CreationDate: 08/15/2013  13:57:01
%%DocumentNeededFonts: Helvetica-Bold
%%+ Helvetica
%%DocumentProcessColors: Cyan Magenta Yellow Black
%%LanguageLevel: 2
%%Pages: 1
%%BoundingBox:    20    69   606   605
%%EndComments

%%BeginProlog
% MathWorks dictionary
/MathWorks 160 dict begin
% definition operators
/bdef {bind def} bind def
/ldef {load def} bind def
/xdef {exch def} bdef
/xstore {exch store} bdef
% operator abbreviations
/c  /clip ldef
/cc /concat ldef
/cp /closepath ldef
/gr /grestore ldef
/gs /gsave ldef
/mt /moveto ldef
/np /newpath ldef
/cm /currentmatrix ldef
/sm /setmatrix ldef
/rm /rmoveto ldef
/rl /rlineto ldef
/s {show newpath} bdef
/sc {setcmykcolor} bdef
/sr /setrgbcolor ldef
/sg /setgray ldef
/w /setlinewidth ldef
/j /setlinejoin ldef
/cap /setlinecap ldef
/rc {rectclip} bdef
/rf {rectfill} bdef
% page state control
/pgsv () def
/bpage {/pgsv save def} bdef
/epage {pgsv restore} bdef
/bplot /gsave ldef
/eplot {stroke grestore} bdef
% orientation switch
/portraitMode 0 def /landscapeMode 1 def /rotateMode 2 def
% coordinate system mappings
/dpi2point 0 def
% font control
/FontSize 0 def
/FMS {/FontSize xstore findfont [FontSize 0 0 FontSize neg 0 0]
  makefont setfont} bdef
/reencode {exch dup where {pop load} {pop StandardEncoding} ifelse
  exch dup 3 1 roll findfont dup length dict begin
  { 1 index /FID ne {def}{pop pop} ifelse } forall
  /Encoding exch def currentdict end definefont pop} bdef
/isroman {findfont /CharStrings get /Agrave known} bdef
/FMSR {3 1 roll 1 index dup isroman {reencode} {pop pop} ifelse
  exch FMS} bdef
/csm {1 dpi2point div -1 dpi2point div scale neg translate
 dup landscapeMode eq {pop -90 rotate}
  {rotateMode eq {90 rotate} if} ifelse} bdef
% line types: solid, dotted, dashed, dotdash
/SO { [] 0 setdash } bdef
/DO { [.5 dpi2point mul 4 dpi2point mul] 0 setdash } bdef
/DA { [6 dpi2point mul] 0 setdash } bdef
/DD { [.5 dpi2point mul 4 dpi2point mul 6 dpi2point mul 4
  dpi2point mul] 0 setdash } bdef
% macros for lines and objects
/L {lineto stroke} bdef
/MP {3 1 roll moveto 1 sub {rlineto} repeat} bdef
/AP {{rlineto} repeat} bdef
/PDlw -1 def
/W {/PDlw currentlinewidth def setlinewidth} def
/PP {closepath eofill} bdef
/DP {closepath stroke} bdef
/MR {4 -2 roll moveto dup  0 exch rlineto exch 0 rlineto
  neg 0 exch rlineto closepath} bdef
/FR {MR stroke} bdef
/PR {MR fill} bdef
/L1i {{currentfile picstr readhexstring pop} image} bdef
/tMatrix matrix def
/MakeOval {newpath tMatrix currentmatrix pop translate scale
0 0 1 0 360 arc tMatrix setmatrix} bdef
/FO {MakeOval stroke} bdef
/PO {MakeOval fill} bdef
/PD {currentlinewidth 2 div 0 360 arc fill
   PDlw -1 eq not {PDlw w /PDlw -1 def} if} def
/FA {newpath tMatrix currentmatrix pop translate scale
  0 0 1 5 -2 roll arc tMatrix setmatrix stroke} bdef
/PA {newpath tMatrix currentmatrix pop	translate 0 0 moveto scale
  0 0 1 5 -2 roll arc closepath tMatrix setmatrix fill} bdef
/FAn {newpath tMatrix currentmatrix pop translate scale
  0 0 1 5 -2 roll arcn tMatrix setmatrix stroke} bdef
/PAn {newpath tMatrix currentmatrix pop translate 0 0 moveto scale
  0 0 1 5 -2 roll arcn closepath tMatrix setmatrix fill} bdef
/vradius 0 def /hradius 0 def /lry 0 def
/lrx 0 def /uly 0 def /ulx 0 def /rad 0 def
/MRR {/vradius xdef /hradius xdef /lry xdef /lrx xdef /uly xdef
  /ulx xdef newpath tMatrix currentmatrix pop ulx hradius add uly
  vradius add translate hradius vradius scale 0 0 1 180 270 arc 
  tMatrix setmatrix lrx hradius sub uly vradius add translate
  hradius vradius scale 0 0 1 270 360 arc tMatrix setmatrix
  lrx hradius sub lry vradius sub translate hradius vradius scale
  0 0 1 0 90 arc tMatrix setmatrix ulx hradius add lry vradius sub
  translate hradius vradius scale 0 0 1 90 180 arc tMatrix setmatrix
  closepath} bdef
/FRR {MRR stroke } bdef
/PRR {MRR fill } bdef
/MlrRR {/lry xdef /lrx xdef /uly xdef /ulx xdef /rad lry uly sub 2 div def
  newpath tMatrix currentmatrix pop ulx rad add uly rad add translate
  rad rad scale 0 0 1 90 270 arc tMatrix setmatrix lrx rad sub lry rad
  sub translate rad rad scale 0 0 1 270 90 arc tMatrix setmatrix
  closepath} bdef
/FlrRR {MlrRR stroke } bdef
/PlrRR {MlrRR fill } bdef
/MtbRR {/lry xdef /lrx xdef /uly xdef /ulx xdef /rad lrx ulx sub 2 div def
  newpath tMatrix currentmatrix pop ulx rad add uly rad add translate
  rad rad scale 0 0 1 180 360 arc tMatrix setmatrix lrx rad sub lry rad
  sub translate rad rad scale 0 0 1 0 180 arc tMatrix setmatrix
  closepath} bdef
/FtbRR {MtbRR stroke } bdef
/PtbRR {MtbRR fill } bdef
/stri 6 array def /dtri 6 array def
/smat 6 array def /dmat 6 array def
/tmat1 6 array def /tmat2 6 array def /dif 3 array def
/asub {/ind2 exch def /ind1 exch def dup dup
  ind1 get exch ind2 get sub exch } bdef
/tri_to_matrix {
  2 0 asub 3 1 asub 4 0 asub 5 1 asub
  dup 0 get exch 1 get 7 -1 roll astore } bdef
/compute_transform {
  dmat dtri tri_to_matrix tmat1 invertmatrix 
  smat stri tri_to_matrix tmat2 concatmatrix } bdef
/ds {stri astore pop} bdef
/dt {dtri astore pop} bdef
/db {2 copy /cols xdef /rows xdef mul dup 3 mul string
  currentfile 
  3 index 0 eq {/ASCIIHexDecode filter}
  {/ASCII85Decode filter 3 index 2 eq {/RunLengthDecode filter} if }
  ifelse exch readstring pop
  dup 0 3 index getinterval /rbmap xdef
  dup 2 index dup getinterval /gbmap xdef
  1 index dup 2 mul exch getinterval /bbmap xdef pop pop}bdef
/it {gs np dtri aload pop moveto lineto lineto cp c
  cols rows 8 compute_transform 
  rbmap gbmap bbmap true 3 colorimage gr}bdef
/il {newpath moveto lineto stroke}bdef
currentdict end def
%%EndProlog

%%BeginSetup
MathWorks begin

0 cap

end
%%EndSetup

%%Page: 1 1
%%BeginPageSetup
%%PageBoundingBox:    20    69   606   605
MathWorks begin
bpage
%%EndPageSetup

%%BeginObject: obj1
bplot

/dpi2point 8.33333 def
portraitMode -0158 5475 csm

  329   426  4885  4474 rc
84 dict begin %Colortable dictionary
/c0 { 0.000000 0.000000 0.000000 sr} bdef
/c1 { 1.000000 1.000000 1.000000 sr} bdef
/c2 { 0.900000 0.000000 0.000000 sr} bdef
/c3 { 0.000000 0.820000 0.000000 sr} bdef
/c4 { 0.000000 0.000000 0.800000 sr} bdef
/c5 { 0.910000 0.820000 0.320000 sr} bdef
/c6 { 1.000000 0.260000 0.820000 sr} bdef
/c7 { 0.000000 0.820000 0.820000 sr} bdef
c0
1 j
1 sg
   0    0 5651 5651 rf
12.5 w
0 3955 4237 0 0 -3955 848 4520 4 MP
PP
-4237 0 0 3955 4237 0 0 -3955 848 4520 5 MP stroke
8.33333 w
DO
SO
12.5 w
0.1 sg
 848 4520 mt 5085 4520 L
 848  565 mt 5085  565 L
 848 4520 mt  848  565 L
5085 4520 mt 5085  565 L
 848 4520 mt 5085 4520 L
 848 4520 mt  848  565 L
 848 4520 mt  848 4456 L
 848  565 mt  848  628 L
%%IncludeResource: font Helvetica
/Helvetica /ISOLatin1Encoding 133.333 FMSR

 811 4668 mt 
(0) s
1377 4520 mt 1377 4456 L
1377  565 mt 1377  628 L
1248 4668 mt 
(0.05) s
1907 4520 mt 1907 4456 L
1907  565 mt 1907  628 L
1815 4668 mt 
(0.1) s
2436 4520 mt 2436 4456 L
2436  565 mt 2436  628 L
2307 4668 mt 
(0.15) s
2966 4520 mt 2966 4456 L
2966  565 mt 2966  628 L
2874 4668 mt 
(0.2) s
3496 4520 mt 3496 4456 L
3496  565 mt 3496  628 L
3367 4668 mt 
(0.25) s
4025 4520 mt 4025 4456 L
4025  565 mt 4025  628 L
3933 4668 mt 
(0.3) s
4555 4520 mt 4555 4456 L
4555  565 mt 4555  628 L
4426 4668 mt 
(0.35) s
5085 4520 mt 5085 4456 L
5085  565 mt 5085  628 L
4993 4668 mt 
(0.4) s
 848 4520 mt  911 4520 L
5085 4520 mt 5021 4520 L
 750 4569 mt 
(0) s
 848 3887 mt  911 3887 L
5085 3887 mt 5021 3887 L
 676 3936 mt 
(20) s
 848 3254 mt  911 3254 L
5085 3254 mt 5021 3254 L
 676 3303 mt 
(40) s
 848 2621 mt  911 2621 L
5085 2621 mt 5021 2621 L
 676 2670 mt 
(60) s
 848 1988 mt  911 1988 L
5085 1988 mt 5021 1988 L
 676 2037 mt 
(80) s
 848 1356 mt  911 1356 L
5085 1356 mt 5021 1356 L
 602 1405 mt 
(100) s
 848  723 mt  911  723 L
5085  723 mt 5021  723 L
 602  772 mt 
(120) s
 848 4520 mt 5085 4520 L
 848  565 mt 5085  565 L
 848 4520 mt  848  565 L
5085 4520 mt 5085  565 L
gs 848 565 4238 3956 rc
16.6667 w
0 sg
-2 1 -3 0 -2 1 -3 1 -3 3 -2 3 -3 5 -2 6 
-3 6 -3 7 -2 7 -3 7 -2 9 -3 10 -3 11 -2 12 
-3 13 -2 15 -3 16 -3 17 -2 18 -3 17 -2 17 -3 21 
-3 20 -2 21 -3 25 -2 24 -3 25 -3 26 -2 29 -3 28 
-2 27 -3 30 -3 30 -2 34 -3 37 -3 37 -2 40 -3 46 
-2 42 -3 45 -3 51 -2 50 -3 53 -2 58 -3 58 -3 70 
-2 83 -3 113 -2 163 -3 279 -3 1398 7 -21 6 -23 7 -17 
6 -18 7 -19 6 -24 7 -22 7 -28 6 -1 7 -28 6 -25 
7 -20 6 -25 7 -15 6 -30 7 -12 6 -20 7 -21 6 -24 
7 -22 6 -20 7 -20 6 -23 7 -14 6 -17 7 -19 6 -23 
7 -20 6 -15 7 -17 6 -21 7 -17 6 -20 7 -18 6 -20 
7 -19 6 -20 7 -20 6 -19 7 -20 6 -19 7 -17 6 -19 
7 -18 6 -23 7 -13 6 -19 7 -16 6 -20 7 -17 6 -14 
7 -21 6 -15 7 -16 6 -17 7 -14 6 -17 7 -18 6 -16 
7 -13 6 -18 7 -17 6 -16 7 -11 6 -17 7 -14 6 -15 
7 -18 6 -15 7 -14 6 -13 7 -17 6 -17 7 -13 6 -16 
7 -17 6 -11 7 -19 6 -11 7 -15 6 -10 7 -16 6 -10 
7 -17 6 -4 7 -11 6 -19 7 -11 6 -14 7 -14 6 -12 
7 -13 6 -13 7 -14 6 -12 7 -14 6 -17 7 -8 6 -13 
7 -18 6 -4 7 -13 6 -12 7 -11 6 -15 7 -12 7 -12 
6 -13 7 -8 6 -12 7 -12 6 -13 7 -11 6 -14 7 -12 
6 -11 7 -11 6 -16 7 -7 6 -12 7 -11 6 -10 7 -12 
6 -9 7 -9 6 -9 7 -9 6 -12 7 -12 6 -10 7 -6 
6 -10 7 -11 6 -10 7 -10 6 -11 7 -8 6 -5 7 -13 
6 -8 7 -8 6 -9 7 -7 6 -8 7 -17 6 -4 7 -4 
6 -11 7 -8 6 -9 7 -8 6 -11 7 -9 6 -6 7 -7 
6 -13 7 -6 6 -6 7 -12 6 -6 7 -6 6 -9 7 -11 
6 -4 7 -4 6 -8 7 -12 6 -2 7 -7 6 -9 7 -9 
6 -8 7 -6 6 -5 7 -9 6 -8 7 -10 6 -4 7 -2 
6 -9 7 -7 6 -5 7 -8 6 -5 7 -8 6 -6 7 -10 
6 -3 7 -8 6 -6 7 -5 6 -5 7 -8 6 -5 7 -6 
6 -6 7 -7 6 -8 7 -1 6 -5 7 -6 6 -9 7 -3 
7 -5 6 -4 7 -7 6 -4 7 -6 6 -8 7 -2 6 -3 
7 -4 6 -6 7 -3 6 -7 7 -3 6 -6 7 -5 6 -4 
7 -4 6 -5 7 -6 6 -6 7 -1 6 -6 7 -7 6 -3 
7 -5 6 -5 7 -4 6 -5 7 -6 6 -3 7 -3 6 -2 
7 -4 6 -3 7 -5 6 -5 7 -4 6 -4 7 -4 6 -5 
7 -5 6 -4 7 -4 3098 4130 300 MP stroke
6 -4 7 -3 6 -6 7 -3 6 -4 7 -4 6 -1 7 -5 
6 -4 7 -4 6 -4 7 -4 6 -5 7 -1 6 -4 7 -1 
6 -5 7 -5 6 -4 7 -2 6 -3 7 -2 6 -5 7 -2 
6 -1 7 -3 6 -3 7 -3 6 -3 7 -2 6 -2 7 -3 
6 0 7 -4 6 -3 7 -2 6 -2 7 -4 6 -3 7 0 
6 -2 7 -6 6 0 7 -2 6 -4 7 -4 6 0 7 -3 
6 -2 7 -1 6 -2 7 -4 6 -3 7 -4 6 1 7 -1 
7 -2 6 -4 7 -1 6 -4 7 -2 6 -2 7 -1 6 -2 
7 -3 6 -3 7 -2 6 -2 7 -1 6 -3 7 -1 6 -1 
7 -5 6 -1 7 -3 6 -2 7 -2 6 -2 7 -1 6 -2 
7 1 6 -3 7 -2 6 -2 7 -1 6 -3 7 0 6 -2 
7 -3 6 -1 7 0 6 -3 7 -1 6 0 7 -3 6 -1 
7 -3 6 -2 7 0 6 -2 7 0 6 -1 7 0 6 0 
7 -1 6 -1 7 -2 6 -1 7 0 6 -3 7 -2 6 -2 
7 0 6 -1 7 -1 6 0 7 -1 6 -1 7 -2 6 -2 
7 -1 6 -2 7 0 6 -1 7 -2 6 0 7 0 6 -1 
7 -1 6 -2 7 -1 6 -3 7 -1 6 -1 7 -1 6 -1 
7 0 6 -1 7 0 6 -3 7 0 6 -1 7 -1 6 -1 
7 -1 6 -2 7 -1 6 -2 7 -1 6 -1 7 -1 7 -1 
6 -2 7 -1 6 0 7 -1 6 0 7 0 6 0 7 0 
6 0 7 -2 6 -1 7 -1 6 0 7 -1 6 0 7 -1 
6 -2 7 -2 6 0 7 -2 6 0 7 -1 6 -1 7 -1 
6 0 7 -1 6 -1 7 0 6 -1 7 -1 6 -1 7 -2 
6 0 7 0 6 0 7 -1 6 -1 7 0 6 -1 7 -1 
6 -1 7 0 6 -1 7 -1 6 0 7 -1 6 -1 7 -1 
6 0 7 -1 6 0 7 -1 6 0 7 -1 6 -1 7 0 
6 -1 7 0 6 -1 7 0 6 -1 7 -1 6 0 7 0 
6 -1 7 0 6 -1 7 -1 6 -2 7 0 6 1 7 -1 
6 -1 7 1 6 0 7 0 6 -1 7 -1 6 0 7 -1 
6 0 7 0 6 -1 7 0 6 -1 7 0 6 0 7 -1 
6 -1 7 -1 6 0 7 -1 6 0 7 -1 6 0 7 -1 
6 -1 7 0 7 0 6 -1 7 0 6 0 7 0 6 0 
7 0 6 -1 7 0 6 -1 7 -1 6 0 7 -1 6 0 
7 -1 6 -2 7 0 6 1 7 0 6 -1 7 0 6 0 
7 -1 6 0 7 0 6 0 7 -1 6 0 7 0 6 0 
7 -1 6 -1 7 0 6 0 7 0 6 -1 7 0 6 0 
7 -1 6 -1 7 0 6 0 7 0 6 0 7 0 6 0 
7 -1 6 0 7 0 1153 4506 300 MP stroke
6 0 7 0 6 0 7 -1 6 0 7 0 6 -1 7 0 
6 0 7 0 6 -1 7 0 6 0 7 0 6 0 7 0 
6 -1 7 0 6 0 7 -1 6 0 7 -1 6 -1 7 0 
6 -1 7 0 6 0 7 -1 6 0 7 0 6 -1 7 0 
6 0 7 -1 6 0 7 -1 6 0 7 -1 6 0 7 0 
6 0 7 0 6 0 7 0 6 0 7 0 6 0 848 4519 48 MP stroke
gr

16.6667 w
0 sg
0.1 sg
%%IncludeResource: font Helvetica-Bold
/Helvetica-Bold /ISOLatin1Encoding 183.333 FMSR

2351 4842 mt 
(Vertical Strain) s
 522 3424 mt  -90 rotate
(Vertical Stress [kPa]) s
90 rotate
gs 848 565 4238 3956 rc
/c8 { 1.000000 0.000000 0.000000 sr} bdef
c8
-3 1 -2 0 -3 0 -2 2 -3 1 -2 3 -3 3 -2 3 
-3 4 -2 4 -3 7 -2 7 -3 8 -2 8 -3 6 -2 7 
-3 9 -3 11 -2 13 -3 11 -2 12 -3 11 -2 11 -3 14 
-2 15 -3 16 -2 17 -3 18 -2 20 -3 20 -2 22 -3 26 
-2 23 -3 25 -2 23 -3 27 -2 28 -3 30 -2 29 -3 29 
-2 28 -3 34 -2 32 -3 35 -2 35 -3 35 -2 38 -3 41 
-3 42 -2 45 -3 44 -2 48 -3 50 -2 60 -3 70 -2 82 
-3 108 -2 163 -3 279 -2 1385 6 -22 6 -25 7 -21 6 -21 
6 -21 7 -20 6 -16 6 -25 6 -16 7 -19 6 -19 6 -24 
7 -18 6 -20 6 -28 6 -14 7 -23 6 -19 6 -22 7 -21 
6 -19 6 -22 6 -19 7 -25 6 -15 6 -21 7 -13 6 -24 
6 -12 6 -19 7 -18 6 -17 6 -18 7 -20 6 -27 6 -19 
6 -14 7 -17 6 -19 6 -18 7 -17 6 -15 6 -14 7 -24 
6 -12 6 -15 6 -20 7 -15 6 -13 6 -17 7 -16 6 -18 
6 -16 6 -13 7 -18 6 -18 6 -17 7 -11 6 -17 6 -18 
6 -7 7 -20 6 -19 6 -9 7 -9 6 -21 6 -9 6 -11 
7 -16 6 -13 6 -14 7 -14 6 -19 6 -10 6 -16 7 -16 
6 -10 6 -13 7 -12 6 -15 6 -14 6 -11 7 -15 6 -14 
6 -15 7 -14 6 -11 6 -12 7 -12 6 -12 6 -17 6 -6 
7 -10 6 -13 6 -12 7 -11 6 -14 6 -12 6 -13 7 -8 
6 -11 6 -14 7 -9 6 -13 6 -10 6 -12 7 -12 6 -14 
6 -11 7 -9 6 -15 6 -12 6 -10 7 -11 6 -9 6 -10 
7 -14 6 -11 6 -10 6 -10 7 -8 6 -11 6 -11 7 -10 
6 -12 6 -13 6 -11 7 -8 6 -9 6 -8 7 -10 6 -13 
6 -8 7 -5 6 -11 6 -9 6 -9 7 -10 6 -7 6 -10 
7 -10 6 -6 6 -11 6 -7 7 -9 6 -7 6 -10 7 -9 
6 -6 6 -9 6 -6 7 -9 6 -8 6 -10 7 -9 6 -7 
6 -8 6 -8 7 -8 6 -5 6 -11 7 -4 6 -11 6 -5 
6 -5 7 -7 6 -7 6 -10 7 -3 6 -5 6 -13 6 -7 
7 -2 6 -5 6 -9 7 -10 6 -6 6 -7 7 -6 6 -8 
6 -4 6 -7 7 -7 6 -9 6 -6 7 -9 6 -4 6 -8 
6 -5 7 -9 6 -8 6 -4 7 -4 6 -7 6 -6 6 -8 
7 -4 6 -10 6 -3 7 -6 6 -5 6 -5 6 -5 7 -5 
6 -8 6 -3 7 -4 6 -7 6 -3 6 -7 7 -5 6 -6 
6 -6 7 -5 6 -4 6 -6 6 -5 7 -4 6 -3 6 -7 
7 -6 6 -4 6 -4 7 -5 6 -8 6 0 6 -7 7 -2 
6 -4 6 -2 7 -6 6 -5 6 -4 6 -5 7 -2 6 -5 
6 -1 7 -5 6 -2 3300 4006 300 MP stroke
6 -3 6 -4 7 -6 6 -5 6 -2 7 -5 6 -5 6 -1 
6 -7 7 -1 6 -2 6 -3 7 -5 6 -6 6 -4 6 -4 
7 1 6 -3 6 -4 7 -5 6 -4 6 -2 6 -5 7 -5 
6 -4 6 -2 7 -4 6 -5 6 -6 7 -3 6 0 6 -2 
6 -4 7 -2 6 -7 6 -5 7 3 6 -1 6 -4 6 -6 
7 -3 6 -5 6 -2 7 -4 6 -3 6 -4 6 -5 7 0 
6 -4 6 -3 7 -5 6 -1 6 -1 6 -3 7 -2 6 -3 
6 -5 7 -3 6 -4 6 -1 6 -4 7 -3 6 0 6 -2 
7 -3 6 -3 6 -3 6 -3 7 -3 6 -1 6 -4 7 -2 
6 -3 6 0 7 -3 6 -4 6 -2 6 -4 7 -2 6 -1 
6 -1 7 -1 6 -4 6 -3 6 -2 7 -2 6 -1 6 -2 
7 0 6 -1 6 -4 6 -2 7 -3 6 -3 6 -2 7 -3 
6 -1 6 -2 6 -1 7 0 6 -2 6 -4 7 -3 6 -2 
6 0 6 -2 7 -3 6 -1 6 1 7 -4 6 -2 6 -1 
6 -3 7 -1 6 -2 6 -1 7 -1 6 -2 6 -1 7 -3 
6 0 6 -1 6 -1 7 -1 6 -2 6 -4 7 -2 6 -2 
6 -2 6 -2 7 -1 6 0 6 -2 7 -1 6 -1 6 -1 
6 -2 7 0 6 -1 6 -1 7 0 6 1 6 -1 6 -3 
7 -3 6 -1 6 1 7 -2 6 -2 6 -1 6 -2 7 0 
6 0 6 -2 7 -1 6 -2 6 -2 6 -2 7 -2 6 -3 
6 1 7 1 6 -1 6 -2 6 -2 7 -2 6 -3 6 0 
7 -1 6 -1 6 0 7 -2 6 0 6 -1 6 -2 7 -1 
6 -1 6 -2 7 -1 6 -1 6 -1 6 -3 7 -1 6 0 
6 -1 7 -1 6 -2 6 -1 6 0 7 -1 6 0 6 -1 
7 -2 6 -1 6 -1 6 -1 7 0 6 -2 6 -1 7 0 
6 -1 6 0 6 -2 7 -1 6 -2 6 -1 7 0 6 0 
6 -2 6 1 7 0 6 -1 6 -2 7 -1 6 -2 6 -1 
7 0 6 -1 6 -2 6 -1 7 0 6 0 6 -1 7 -2 
6 -1 6 1 6 -1 7 -1 6 -1 6 -1 7 0 6 -1 
6 -2 6 -1 7 -2 6 0 6 0 7 -1 6 0 6 -1 
6 0 7 0 6 -1 6 -1 7 0 6 -1 6 -1 6 -1 
7 -1 6 -1 6 0 7 0 6 -1 6 0 7 1 6 -1 
6 -1 6 -1 7 -1 6 0 6 0 7 0 6 -1 6 -1 
6 -1 7 0 6 0 6 0 7 0 6 0 6 0 6 0 
7 -1 6 0 6 -1 7 0 6 -1 6 0 6 -1 7 -1 
6 -1 6 0 7 -1 6 0 6 -1 6 -1 7 0 6 0 
6 0 7 0 6 0 6 -1 6 0 7 -1 6 0 6 0 
7 -1 6 -1 6 -1 1420 4491 300 MP stroke
7 -1 6 0 6 -1 6 0 7 0 6 0 6 0 7 -1 
6 0 6 -1 6 0 7 -1 6 0 6 0 7 -1 6 0 
6 -1 6 0 7 0 6 0 6 0 7 -1 6 -1 6 0 
6 0 7 0 6 -1 6 -1 7 0 6 0 6 -1 6 -1 
7 0 6 0 6 0 7 0 6 0 6 -1 6 0 7 -1 
6 0 6 -1 7 0 6 0 6 -1 7 0 6 0 6 0 
6 0 7 -1 6 0 6 0 7 0 6 -1 6 0 6 0 
7 0 6 -1 6 0 7 0 6 0 6 -1 6 -1 7 0 
6 0 6 0 7 -1 6 0 6 0 6 0 7 -1 6 0 
6 -1 7 0 6 -1 6 0 6 0 7 0 6 -1 6 0 
7 0 6 0 6 0 6 0 7 0 6 0 6 -1 7 0 
6 0 6 0 6 0 848 4519 92 MP stroke
/c9 { 0.000000 0.000000 1.000000 sr} bdef
c9
-3 1 -2 0 -3 0 -2 1 -3 1 -2 2 -2 2 -3 3 
-2 3 -3 4 -2 5 -3 5 -2 5 -3 7 -2 8 -3 7 
-2 6 -3 8 -2 11 -3 11 -2 10 -3 10 -2 10 -3 10 
-2 14 -3 15 -2 16 -3 14 -2 15 -2 15 -3 16 -2 17 
-3 16 -2 18 -3 23 -2 18 -3 23 -2 21 -3 26 -2 26 
-3 22 -2 26 -3 26 -2 30 -3 27 -2 31 -3 30 -2 28 
-3 34 -2 30 -3 35 -2 36 -3 35 -2 40 -2 46 -3 50 
-2 48 -3 48 -2 59 -3 69 -2 84 -3 114 -2 151 -3 256 
-2 1402 6 -15 6 -23 6 -17 7 -28 6 -4 6 -16 6 -21 
6 -20 6 -22 7 -20 6 -25 6 -17 6 -12 6 -15 7 -22 
6 -18 6 -20 6 -22 6 -14 7 -21 6 -25 6 -10 6 -19 
6 -17 7 -26 6 -7 6 -15 6 -18 6 -18 7 -19 6 -17 
6 -18 6 -14 6 -11 7 -17 6 -18 6 -2 6 -16 6 -8 
7 -18 6 -7 6 -19 6 -17 6 -10 7 -18 6 -11 6 -20 
6 -13 6 -17 7 -13 6 -12 6 -15 6 -18 6 -14 7 -18 
6 -12 6 -14 6 -18 6 -14 7 -17 6 -12 6 -15 6 -15 
6 -17 7 -14 6 -7 6 -17 6 -16 6 -14 7 -14 6 -18 
6 -17 6 -10 6 -11 6 -21 7 -10 6 -8 6 -13 6 -15 
6 -13 7 -12 6 -13 6 -13 6 -14 6 -13 7 -18 6 -8 
6 -9 6 -14 6 -9 7 -11 6 -10 6 -9 6 -15 6 -11 
7 -13 6 -5 6 -17 6 -10 6 -13 7 -13 6 -3 6 -12 
6 -14 6 -13 7 -6 6 -12 6 -10 6 -17 6 2 7 -11 
6 -11 6 -8 6 -13 6 -9 7 -12 6 -10 6 -9 6 -12 
6 -11 7 -9 6 -10 6 -13 6 -10 6 -3 7 -11 6 -11 
6 -6 6 -6 6 -11 7 -9 6 -8 6 -8 6 -15 6 -3 
7 -11 6 -7 6 -10 6 -5 6 -11 6 -10 7 -10 6 -8 
6 -8 6 -10 6 -7 7 -11 6 -10 6 -5 6 -12 6 -6 
7 -7 6 -10 6 -11 6 -5 6 -7 7 -7 6 -13 6 -7 
6 -9 6 -7 7 -7 6 -9 6 -10 6 -6 6 -5 7 -12 
6 -5 6 -8 6 -2 6 -7 7 -8 6 -5 6 -4 6 -9 
6 -6 7 -8 6 -10 6 -8 6 -1 6 -6 7 -9 6 -3 
6 -6 6 -11 6 2 7 -6 6 -4 6 -10 6 -7 6 -6 
7 -3 6 -10 6 -7 6 -3 6 -9 7 -5 6 -4 6 -8 
6 -10 6 -4 7 -4 6 -6 6 -3 6 -10 6 -8 6 -2 
7 -6 6 -6 6 -9 6 -5 6 -3 7 -10 6 -5 6 -6 
6 -1 6 -6 7 -7 6 -6 6 -8 6 -4 6 -5 7 -4 
6 -8 6 -1 6 -9 6 -4 7 -5 6 -4 6 -7 6 -5 
6 -5 7 -4 6 -6 3419 3838 300 MP stroke
6 -6 6 -5 6 -4 7 -7 6 -5 6 -3 6 -3 6 -4 
7 -2 6 -4 6 -3 6 -7 6 -1 7 -5 6 -7 6 -4 
6 -5 6 -3 7 -7 6 -2 6 -5 6 -4 6 -4 7 -4 
6 -2 6 -4 6 -13 6 2 6 -3 7 -4 6 -7 6 -1 
6 -3 6 -3 7 -6 6 -2 6 -4 6 -3 6 -4 7 -6 
6 -3 6 -5 6 -2 6 -4 7 -5 6 -2 6 -5 6 -1 
6 -5 7 -1 6 -2 6 -7 6 -6 6 -2 7 2 6 -2 
6 -4 6 -4 6 -5 7 -2 6 -3 6 -4 6 -3 6 -3 
7 -4 6 -5 6 0 6 -5 6 -3 7 -2 6 -1 6 -6 
6 -4 6 -2 7 -2 6 0 6 -5 6 -4 6 -2 7 -4 
6 -4 6 -3 6 -4 6 -2 7 -1 6 -5 6 -2 6 -1 
6 -1 7 -8 6 -3 6 0 6 -3 6 -1 6 -2 7 -4 
6 -4 6 -4 6 -4 6 1 7 -1 6 -5 6 -3 6 -3 
6 -1 7 -2 6 -3 6 -2 6 -1 6 -6 7 -1 6 -4 
6 -1 6 -3 6 -4 7 0 6 -4 6 -3 6 0 6 -2 
7 -4 6 -1 6 -4 6 -3 6 -3 7 -2 6 0 6 -3 
6 -2 6 -1 7 -2 6 -2 6 -3 6 -1 6 -1 7 -2 
6 -3 6 -1 6 -2 6 -3 7 -2 6 -3 6 -1 6 -2 
6 -2 7 -1 6 -1 6 -1 6 -1 6 -2 7 -2 6 -1 
6 -2 6 0 6 -3 7 -3 6 -2 6 -2 6 -2 6 -2 
6 -2 7 -1 6 -2 6 -2 6 -2 6 -2 7 -1 6 -1 
6 -2 6 -3 6 -2 7 0 6 -1 6 -3 6 -3 6 -2 
7 0 6 -1 6 -3 6 -4 6 -3 7 -1 6 0 6 0 
6 -2 6 -2 7 -2 6 -3 6 -1 6 -1 6 2 7 -2 
6 -3 6 -2 6 -1 6 -1 7 -1 6 1 6 -2 6 -2 
6 -1 7 0 6 -2 6 -3 6 -1 6 0 7 0 6 0 
6 -2 6 -1 6 -1 7 -3 6 0 6 0 6 -2 6 -2 
7 0 6 -2 6 -1 6 -1 6 -1 6 -3 7 -1 6 0 
6 0 6 0 6 -1 7 -1 6 -1 6 -2 6 -3 6 -1 
7 0 6 0 6 -3 6 -2 6 0 7 -1 6 0 6 -1 
6 0 6 0 7 -1 6 -2 6 -1 6 -2 6 -1 7 -1 
6 -1 6 -2 6 -1 6 0 7 1 6 -1 6 -2 6 -1 
6 -1 7 0 6 -1 6 0 6 0 6 -2 7 -1 6 0 
6 -3 6 -1 6 0 7 -1 6 -1 6 0 6 -1 6 -1 
7 -2 6 -1 6 0 6 -1 6 -1 7 0 6 -2 6 -1 
6 0 6 -1 7 -2 6 0 6 1 6 -1 6 -2 6 -1 
7 0 6 -1 6 -2 6 -1 6 0 7 0 6 0 6 -1 
6 0 6 -1 7 -1 1566 4469 300 MP stroke
6 -1 6 -1 6 0 6 0 7 0 6 -1 6 0 6 -1 
6 -1 7 -1 6 0 6 -1 6 -1 6 0 7 0 6 0 
6 -1 6 0 6 -1 7 0 6 -1 6 0 6 -2 6 0 
7 -2 6 0 6 0 6 -1 6 0 7 -1 6 0 6 -1 
6 -1 6 0 7 0 6 -1 6 -1 6 -1 6 -1 7 0 
6 1 6 0 6 -1 6 -1 7 0 6 -1 6 -1 6 -1 
6 -1 7 0 6 -1 6 0 6 0 6 0 6 -1 7 0 
6 0 6 -1 6 0 6 0 7 0 6 -1 6 0 6 0 
6 -1 7 0 6 0 6 0 6 -1 6 -1 7 0 6 -1 
6 -1 6 0 6 0 7 -1 6 -1 6 0 6 0 6 -1 
7 0 6 0 6 -1 6 0 6 0 7 0 6 0 6 -1 
6 0 6 -1 7 0 6 0 6 0 6 0 6 -1 7 0 
6 0 6 0 6 -1 6 0 7 0 6 0 6 -1 6 0 
6 -1 7 0 6 0 6 -1 6 0 6 -1 7 0 6 0 
6 0 6 0 6 -1 6 0 848 4519 117 MP stroke
/c10 { 1.000000 0.000000 1.000000 sr} bdef
c10
-2 1 -3 0 -2 0 -3 1 -2 0 -3 2 -2 1 -3 2 
-2 3 -3 3 -2 4 -2 4 -3 4 -2 5 -3 6 -2 6 
-3 5 -2 8 -3 8 -2 6 -3 5 -2 5 -3 6 -2 8 
-3 7 -2 10 -3 13 -2 13 -2 10 -3 11 -2 12 -3 11 
-2 13 -3 14 -2 14 -3 15 -2 14 -3 15 -2 17 -3 17 
-2 15 -3 16 -2 18 -3 18 -2 19 -2 18 -3 20 -2 19 
-3 23 -2 16 -3 22 -2 22 -3 24 -2 28 -3 26 -2 25 
-3 28 -2 25 -3 29 -2 35 -3 33 -2 33 -3 36 -2 41 
-2 44 -3 54 -2 62 -3 67 -2 86 -3 114 -2 171 -3 283 
-2 1415 6 -21 6 -24 6 -22 7 -19 6 -22 6 -19 6 -23 
6 -18 6 -22 7 -18 6 -16 6 -18 6 -30 6 -7 6 -23 
7 -18 6 -13 6 -20 6 -12 6 -15 7 -24 6 -21 6 -11 
6 -31 6 5 6 -10 7 -12 6 -14 6 -17 6 -11 6 -19 
6 -10 7 -18 6 -17 6 -12 6 -20 6 -13 7 -13 6 -14 
6 -20 6 -13 6 -15 6 -19 7 -10 6 -20 6 -10 6 -15 
6 -16 7 -10 6 -15 6 -11 6 -18 6 -15 6 -16 7 -14 
6 -16 6 -11 6 -13 6 -16 7 -11 6 -12 6 -24 6 -8 
6 -13 6 -8 7 -13 6 -16 6 -7 6 -15 6 -8 6 -9 
7 -12 6 -15 6 -14 6 -12 6 -13 7 -17 6 -11 6 -13 
6 -15 6 -8 6 -14 7 -6 6 -8 6 -15 6 -16 6 -12 
7 -13 6 -12 6 -13 6 -6 6 -10 6 -15 7 -15 6 -4 
6 -14 6 -9 6 -11 6 -13 7 -14 6 -10 6 -8 6 -11 
6 -9 7 -12 6 -12 6 -8 6 -11 6 -9 6 -12 7 -14 
6 -6 6 -11 6 -14 6 -6 7 -12 6 -6 6 -9 6 -14 
6 -13 6 -5 7 -11 6 -11 6 -12 6 -10 6 -6 6 -12 
7 -11 6 -10 6 -6 6 -12 6 -11 7 -6 6 -7 6 -10 
6 -12 6 -4 6 -8 7 -10 6 -6 6 -10 6 -12 6 -8 
7 -9 6 -7 6 -8 6 -7 6 -12 6 -7 7 -8 6 -16 
6 -4 6 -9 6 -5 6 -6 7 -9 6 -3 6 -11 6 -9 
6 -9 7 -6 6 -5 6 -12 6 -9 6 -3 6 -8 7 -14 
6 -2 6 -7 6 -9 6 -8 7 -13 6 0 6 -6 6 -10 
6 -10 6 -4 7 -9 6 -6 6 -7 6 -9 6 -9 6 -5 
7 -8 6 -6 6 -10 6 -8 6 -4 7 -10 6 -7 6 -5 
6 -8 6 -3 6 -10 7 -6 6 -8 6 -6 6 -8 6 -2 
7 -10 6 -4 6 -5 6 -9 6 -8 6 -5 7 -3 6 -9 
6 -6 6 -3 6 -7 7 -8 6 -5 6 -5 6 -5 6 -8 
6 -1 7 -9 6 -6 6 -5 6 -3 6 -5 6 -8 7 -7 
6 -5 6 -2 6 -1 3381 3773 300 MP stroke
6 -7 7 -5 6 -6 6 -5 6 -7 6 -10 6 -2 7 -3 
6 -5 6 -4 6 -5 6 -12 7 -1 6 -3 6 -5 6 -4 
6 -5 6 -3 7 -9 6 -7 6 0 6 -3 6 -8 6 -5 
7 -2 6 -5 6 -4 6 -4 6 -5 7 -5 6 -4 6 -2 
6 -2 6 -9 6 1 7 -3 6 -5 6 -2 6 -6 6 -4 
7 -3 6 -5 6 -6 6 -6 6 -2 6 -5 7 -5 6 -4 
6 0 6 -4 6 -4 6 -5 7 -5 6 -3 6 -2 6 -3 
6 -3 7 -7 6 -3 6 2 6 -4 6 -3 6 -2 7 -6 
6 -4 6 -5 6 0 6 -3 7 -9 6 1 6 0 6 -7 
6 -3 6 -2 7 0 6 -4 6 -5 6 0 6 -6 6 -1 
7 -4 6 -5 6 -1 6 -3 6 -1 7 -5 6 -1 6 -1 
6 -5 6 -1 6 -3 7 -2 6 -3 6 -3 6 -5 6 -2 
7 -4 6 0 6 -4 6 -3 6 -5 6 -2 7 -6 6 1 
6 -3 6 -1 6 -3 7 -3 6 -4 6 -2 6 -4 6 -3 
6 -1 7 -4 6 -1 6 -5 6 -2 6 -2 6 0 7 -4 
6 -3 6 -4 6 -2 6 -2 7 -3 6 -3 6 -3 6 -4 
6 0 6 -2 7 -3 6 -3 6 -2 6 -5 6 2 6 -3 
7 2 6 -3 6 -3 6 -2 6 -2 7 -2 6 -2 6 -1 
6 -3 6 -2 6 -4 7 -3 6 -3 6 -1 6 -2 6 -2 
7 -2 6 -2 6 -3 6 0 6 -2 6 -4 7 3 6 -2 
6 -3 6 -4 6 -2 7 -2 6 -2 6 -1 6 -2 6 -3 
6 -2 7 2 6 -3 6 -7 6 0 6 0 6 1 7 -1 
6 -3 6 -3 6 -2 6 0 7 -2 6 -3 6 -3 6 -2 
6 -2 6 0 7 -2 6 -1 6 -2 6 -3 6 -1 7 -2 
6 1 6 -2 6 -3 6 -1 6 -2 7 -1 6 -2 6 -3 
6 -1 6 0 6 -1 7 -3 6 -3 6 -1 6 -2 6 -1 
7 -1 6 -3 6 -1 6 0 6 -1 6 -1 7 -2 6 -2 
6 0 6 -1 6 -2 7 -2 6 -2 6 -1 6 1 6 -2 
6 0 7 -2 6 -2 6 -2 6 -1 6 -2 6 -1 7 -2 
6 -1 6 -1 6 -1 6 0 7 0 6 -1 6 -2 6 -1 
6 -2 6 -2 7 -3 6 0 6 1 6 0 6 -1 7 -2 
6 -1 6 0 6 -1 6 -1 6 -2 7 0 6 -1 6 0 
6 -1 6 -2 6 0 7 -2 6 -1 6 -1 6 -1 6 -1 
7 -2 6 -1 6 -1 6 -1 6 0 6 -1 7 -1 6 -1 
6 -1 6 -1 6 -1 7 -1 6 0 6 -1 6 0 6 -1 
6 -1 7 -1 6 0 6 0 6 -1 6 -1 7 -1 6 0 
6 -2 6 -1 6 -1 6 -1 7 -1 6 -1 6 -1 6 0 
6 0 6 -1 7 -1 1533 4466 300 MP stroke
6 0 6 -1 6 0 6 0 7 -1 6 -1 6 -1 6 0 
6 -1 6 -1 7 0 6 -1 6 -1 6 -1 6 0 7 -1 
6 -1 6 -1 6 -1 6 0 6 0 7 -1 6 -1 6 -1 
6 0 6 -1 6 -1 7 0 6 0 6 -1 6 0 6 0 
7 -1 6 -1 6 -1 6 0 6 -1 6 -1 7 0 6 0 
6 -1 6 0 6 -1 7 0 6 -1 6 0 6 -1 6 -1 
6 0 7 0 6 0 6 -1 6 0 6 -1 6 0 7 -1 
6 0 6 0 6 -1 6 -1 7 0 6 -1 6 -1 6 0 
6 0 6 -1 7 -1 6 0 6 0 6 0 6 0 7 0 
6 -1 6 0 6 -1 6 0 6 0 7 -1 6 0 6 -1 
6 0 6 -1 6 0 7 -1 6 0 6 0 6 -1 6 0 
7 0 6 -1 6 0 6 0 6 -1 6 0 7 0 6 0 
6 -1 6 0 6 0 7 0 6 -1 6 0 6 0 6 -1 
6 -1 7 0 6 -1 6 0 6 0 6 -1 6 0 848 4519 112 MP stroke
DO
12.5 w
c9
-5 514 0 3130 66 -629 93 -621 115 -639 182 -607 104 -313 291 -323 
456 -307 1147 -188 848 4503 11 MP stroke
gr

12.5 w
c9
DO
SO
  33   33  848 4503 PO
  33   33 1995 4315 PO
  33   33 2451 4008 PO
  33   33 2742 3685 PO
  33   33 2846 3372 PO
  33   33 3028 2765 PO
  33   33 3143 2126 PO
  33   33 3236 1505 PO
  33   33 3302  876 PO
  33   33 3302 4006 PO
  33   33 3297 4520 PO
  33   33  848 4503 FO
  33   33 1995 4315 FO
  33   33 2451 4008 FO
  33   33 2742 3685 FO
  33   33 2846 3372 FO
  33   33 3028 2765 FO
  33   33 3143 2126 FO
  33   33 3236 1505 FO
  33   33 3302  876 FO
  33   33 3302 4006 FO
  33   33 3297 4520 FO
DO
gs 848 565 4238 3956 rc
c8
0 505 0 3135 95 -631 113 -629 145 -629 242 -625 190 -316 275 -311 
472 -291 1671 -181 848 4493 11 MP stroke
gr

c8
SO
  33   33  848 4493 PO
  33   33 2519 4312 PO
  33   33 2991 4021 PO
  33   33 3266 3710 PO
  33   33 3456 3394 PO
  33   33 3698 2769 PO
  33   33 3843 2140 PO
  33   33 3956 1511 PO
  33   33 4051  880 PO
  33   33 4051 4015 PO
  33   33 4051 4520 PO
  33   33  848 4493 FO
  33   33 2519 4312 FO
  33   33 2991 4021 FO
  33   33 3266 3710 FO
  33   33 3456 3394 FO
  33   33 3698 2769 FO
  33   33 3843 2140 FO
  33   33 3956 1511 FO
  33   33 4051  880 FO
  33   33 4051 4015 FO
  33   33 4051 4520 FO
DO
gs 848 565 4238 3956 rc
0 sg
0 511 0 3119 113 -627 123 -619 179 -630 276 -631 219 -306 282 -310 
526 -282 2203 -205 848 4500 11 MP stroke
gr

0 sg
SO
  33   33  848 4500 PO
  33   33 3051 4295 PO
  33   33 3577 4013 PO
  33   33 3859 3703 PO
  33   33 4078 3397 PO
  33   33 4354 2766 PO
  33   33 4533 2136 PO
  33   33 4656 1517 PO
  33   33 4769  890 PO
  33   33 4769 4009 PO
  33   33 4769 4520 PO
  33   33  848 4500 FO
  33   33 3051 4295 FO
  33   33 3577 4013 FO
  33   33 3859 3703 FO
  33   33 4078 3397 FO
  33   33 4354 2766 FO
  33   33 4533 2136 FO
  33   33 4656 1517 FO
  33   33 4769  890 FO
  33   33 4769 4009 FO
  33   33 4769 4520 FO
DO
gs 848 565 4238 3956 rc
c10
0 513 0 3122 113 -616 129 -619 190 -634 309 -625 232 -311 375 -319 
567 -296 1852 -187 848 4492 11 MP stroke
gr

c10
SO
  33   33  848 4492 PO
  33   33 2700 4305 PO
  33   33 3267 4009 PO
  33   33 3642 3690 PO
  33   33 3874 3379 PO
  33   33 4183 2754 PO
  33   33 4373 2120 PO
  33   33 4502 1501 PO
  33   33 4615  885 PO
  33   33 4615 4007 PO
  33   33 4615 4520 PO
  33   33  848 4492 FO
  33   33 2700 4305 FO
  33   33 3267 4009 FO
  33   33 3642 3690 FO
  33   33 3874 3379 FO
  33   33 4183 2754 FO
  33   33 4373 2120 FO
  33   33 4502 1501 FO
  33   33 4615  885 FO
  33   33 4615 4007 FO
  33   33 4615 4520 FO
DO
gs 848 565 4238 3956 rc
gr

0 sg
%%IncludeResource: font Helvetica
/Helvetica /ISOLatin1Encoding 166.667 FMSR

 818 4587 mt 
( ) s
5056  631 mt 
( ) s
SO
%%IncludeResource: font Symbol
/Symbol /ISOLatin1Encoding 125 FMSR

1241  839 mt 
(D) s
%%IncludeResource: font Helvetica-Bold
/Helvetica-Bold /ISOLatin1Encoding 125 FMSR

1317  839 mt 
( ) s
%%IncludeResource: font Symbol
/Symbol /ISOLatin1Encoding 125 FMSR

1351  839 mt 
(g) s
%%IncludeResource: font Helvetica-Bold
/Helvetica-Bold /ISOLatin1Encoding 125 FMSR

1402  839 mt 
( = 8 J/m) s
%%IncludeResource: font Helvetica-Bold
/Helvetica-Bold /ISOLatin1Encoding 100 FMSR

1864  777 mt 
(2) s
gs 916 662 1276 1786 rc
16.6667 w
250 0 966 791 2 MP stroke
gr

16.6667 w
%%IncludeResource: font Symbol
/Symbol /ISOLatin1Encoding 125 FMSR

1241 1069 mt 
(D) s
%%IncludeResource: font Helvetica-Bold
/Helvetica-Bold /ISOLatin1Encoding 125 FMSR

1317 1069 mt 
( ) s
%%IncludeResource: font Symbol
/Symbol /ISOLatin1Encoding 125 FMSR

1351 1069 mt 
(g) s
%%IncludeResource: font Helvetica-Bold
/Helvetica-Bold /ISOLatin1Encoding 125 FMSR

1402 1069 mt 
( = 12.5 J/m) s
%%IncludeResource: font Helvetica-Bold
/Helvetica-Bold /ISOLatin1Encoding 100 FMSR

2037 1007 mt 
(2) s
gs 916 662 1276 1786 rc
c8
250 0 966 1021 2 MP stroke
gr

c8
0 sg
%%IncludeResource: font Symbol
/Symbol /ISOLatin1Encoding 125 FMSR

1241 1299 mt 
(D) s
%%IncludeResource: font Helvetica-Bold
/Helvetica-Bold /ISOLatin1Encoding 125 FMSR

1317 1299 mt 
( ) s
%%IncludeResource: font Symbol
/Symbol /ISOLatin1Encoding 125 FMSR

1351 1299 mt 
(g) s
%%IncludeResource: font Helvetica-Bold
/Helvetica-Bold /ISOLatin1Encoding 125 FMSR

1402 1299 mt 
( = 18.5 J/m) s
%%IncludeResource: font Helvetica-Bold
/Helvetica-Bold /ISOLatin1Encoding 100 FMSR

2037 1237 mt 
(2) s
gs 916 662 1276 1786 rc
c9
250 0 966 1251 2 MP stroke
gr

c9
0 sg
%%IncludeResource: font Symbol
/Symbol /ISOLatin1Encoding 125 FMSR

1241 1529 mt 
(D) s
%%IncludeResource: font Helvetica-Bold
/Helvetica-Bold /ISOLatin1Encoding 125 FMSR

1317 1529 mt 
( ) s
%%IncludeResource: font Symbol
/Symbol /ISOLatin1Encoding 125 FMSR

1351 1529 mt 
(g) s
%%IncludeResource: font Helvetica-Bold
/Helvetica-Bold /ISOLatin1Encoding 125 FMSR

1402 1529 mt 
( = 23.5 J/m) s
%%IncludeResource: font Helvetica-Bold
/Helvetica-Bold /ISOLatin1Encoding 100 FMSR

2037 1467 mt 
(2) s
gs 916 662 1276 1786 rc
c10
250 0 966 1481 2 MP stroke
gr

c10
0 sg
%%IncludeResource: font Helvetica-Bold
/Helvetica-Bold /ISOLatin1Encoding 125 FMSR

1241 1748 mt 
(KPRS - 1% MC) s
gs 916 662 1276 1786 rc
DO
12.5 w
c9
250 0 966 1701 2 MP stroke
SO
gs 1009 1620 164 163 rc
  33   33 1091 1701 PO
  33   33 1091 1701 FO
gr

gr

12.5 w
c9
0 sg
1241 1957 mt 
(KPRS - 2% MC) s
gs 916 662 1276 1786 rc
DO
c8
250 0 966 1910 2 MP stroke
SO
gs 1009 1829 164 163 rc
  33   33 1091 1910 PO
  33   33 1091 1910 FO
gr

gr

c8
0 sg
1241 2166 mt 
(KPRS - 4% MC) s
gs 916 662 1276 1786 rc
DO
250 0 966 2119 2 MP stroke
SO
gs 1009 2037 164 164 rc
  33   33 1091 2119 PO
  33   33 1091 2119 FO
gr

gr

1241 2375 mt 
(KPRS - 6% MC) s
gs 916 662 1276 1786 rc
DO
c10
250 0 966 2327 2 MP stroke
SO
gs 1009 2246 164 164 rc
  33   33 1091 2327 PO
  33   33 1091 2327 FO
gr

gr

c10

end %%Color Dict

eplot
%%EndObject

epage
end

showpage

%%Trailer
%%EOF
