%!PS-Adobe-3.0 EPSF-3.0
%%Creator: MATLAB, The MathWorks, Inc. Version 7.12.0.635 (R2011a). Operating System: Linux 2.6.32-358.6.2.el6.x86_64 #1 SMP Thu May 16 11:21:38 CDT 2013 x86_64.
%%Title: ./Confined_StressStain_SE_100kPa.eps
%%CreationDate: 08/15/2013  13:57:00
%%DocumentNeededFonts: Helvetica-Bold
%%+ Helvetica
%%DocumentProcessColors: Cyan Magenta Yellow Black
%%LanguageLevel: 2
%%Pages: 1
%%BoundingBox:    20    69   606   605
%%EndComments

%%BeginProlog
% MathWorks dictionary
/MathWorks 160 dict begin
% definition operators
/bdef {bind def} bind def
/ldef {load def} bind def
/xdef {exch def} bdef
/xstore {exch store} bdef
% operator abbreviations
/c  /clip ldef
/cc /concat ldef
/cp /closepath ldef
/gr /grestore ldef
/gs /gsave ldef
/mt /moveto ldef
/np /newpath ldef
/cm /currentmatrix ldef
/sm /setmatrix ldef
/rm /rmoveto ldef
/rl /rlineto ldef
/s {show newpath} bdef
/sc {setcmykcolor} bdef
/sr /setrgbcolor ldef
/sg /setgray ldef
/w /setlinewidth ldef
/j /setlinejoin ldef
/cap /setlinecap ldef
/rc {rectclip} bdef
/rf {rectfill} bdef
% page state control
/pgsv () def
/bpage {/pgsv save def} bdef
/epage {pgsv restore} bdef
/bplot /gsave ldef
/eplot {stroke grestore} bdef
% orientation switch
/portraitMode 0 def /landscapeMode 1 def /rotateMode 2 def
% coordinate system mappings
/dpi2point 0 def
% font control
/FontSize 0 def
/FMS {/FontSize xstore findfont [FontSize 0 0 FontSize neg 0 0]
  makefont setfont} bdef
/reencode {exch dup where {pop load} {pop StandardEncoding} ifelse
  exch dup 3 1 roll findfont dup length dict begin
  { 1 index /FID ne {def}{pop pop} ifelse } forall
  /Encoding exch def currentdict end definefont pop} bdef
/isroman {findfont /CharStrings get /Agrave known} bdef
/FMSR {3 1 roll 1 index dup isroman {reencode} {pop pop} ifelse
  exch FMS} bdef
/csm {1 dpi2point div -1 dpi2point div scale neg translate
 dup landscapeMode eq {pop -90 rotate}
  {rotateMode eq {90 rotate} if} ifelse} bdef
% line types: solid, dotted, dashed, dotdash
/SO { [] 0 setdash } bdef
/DO { [.5 dpi2point mul 4 dpi2point mul] 0 setdash } bdef
/DA { [6 dpi2point mul] 0 setdash } bdef
/DD { [.5 dpi2point mul 4 dpi2point mul 6 dpi2point mul 4
  dpi2point mul] 0 setdash } bdef
% macros for lines and objects
/L {lineto stroke} bdef
/MP {3 1 roll moveto 1 sub {rlineto} repeat} bdef
/AP {{rlineto} repeat} bdef
/PDlw -1 def
/W {/PDlw currentlinewidth def setlinewidth} def
/PP {closepath eofill} bdef
/DP {closepath stroke} bdef
/MR {4 -2 roll moveto dup  0 exch rlineto exch 0 rlineto
  neg 0 exch rlineto closepath} bdef
/FR {MR stroke} bdef
/PR {MR fill} bdef
/L1i {{currentfile picstr readhexstring pop} image} bdef
/tMatrix matrix def
/MakeOval {newpath tMatrix currentmatrix pop translate scale
0 0 1 0 360 arc tMatrix setmatrix} bdef
/FO {MakeOval stroke} bdef
/PO {MakeOval fill} bdef
/PD {currentlinewidth 2 div 0 360 arc fill
   PDlw -1 eq not {PDlw w /PDlw -1 def} if} def
/FA {newpath tMatrix currentmatrix pop translate scale
  0 0 1 5 -2 roll arc tMatrix setmatrix stroke} bdef
/PA {newpath tMatrix currentmatrix pop	translate 0 0 moveto scale
  0 0 1 5 -2 roll arc closepath tMatrix setmatrix fill} bdef
/FAn {newpath tMatrix currentmatrix pop translate scale
  0 0 1 5 -2 roll arcn tMatrix setmatrix stroke} bdef
/PAn {newpath tMatrix currentmatrix pop translate 0 0 moveto scale
  0 0 1 5 -2 roll arcn closepath tMatrix setmatrix fill} bdef
/vradius 0 def /hradius 0 def /lry 0 def
/lrx 0 def /uly 0 def /ulx 0 def /rad 0 def
/MRR {/vradius xdef /hradius xdef /lry xdef /lrx xdef /uly xdef
  /ulx xdef newpath tMatrix currentmatrix pop ulx hradius add uly
  vradius add translate hradius vradius scale 0 0 1 180 270 arc 
  tMatrix setmatrix lrx hradius sub uly vradius add translate
  hradius vradius scale 0 0 1 270 360 arc tMatrix setmatrix
  lrx hradius sub lry vradius sub translate hradius vradius scale
  0 0 1 0 90 arc tMatrix setmatrix ulx hradius add lry vradius sub
  translate hradius vradius scale 0 0 1 90 180 arc tMatrix setmatrix
  closepath} bdef
/FRR {MRR stroke } bdef
/PRR {MRR fill } bdef
/MlrRR {/lry xdef /lrx xdef /uly xdef /ulx xdef /rad lry uly sub 2 div def
  newpath tMatrix currentmatrix pop ulx rad add uly rad add translate
  rad rad scale 0 0 1 90 270 arc tMatrix setmatrix lrx rad sub lry rad
  sub translate rad rad scale 0 0 1 270 90 arc tMatrix setmatrix
  closepath} bdef
/FlrRR {MlrRR stroke } bdef
/PlrRR {MlrRR fill } bdef
/MtbRR {/lry xdef /lrx xdef /uly xdef /ulx xdef /rad lrx ulx sub 2 div def
  newpath tMatrix currentmatrix pop ulx rad add uly rad add translate
  rad rad scale 0 0 1 180 360 arc tMatrix setmatrix lrx rad sub lry rad
  sub translate rad rad scale 0 0 1 0 180 arc tMatrix setmatrix
  closepath} bdef
/FtbRR {MtbRR stroke } bdef
/PtbRR {MtbRR fill } bdef
/stri 6 array def /dtri 6 array def
/smat 6 array def /dmat 6 array def
/tmat1 6 array def /tmat2 6 array def /dif 3 array def
/asub {/ind2 exch def /ind1 exch def dup dup
  ind1 get exch ind2 get sub exch } bdef
/tri_to_matrix {
  2 0 asub 3 1 asub 4 0 asub 5 1 asub
  dup 0 get exch 1 get 7 -1 roll astore } bdef
/compute_transform {
  dmat dtri tri_to_matrix tmat1 invertmatrix 
  smat stri tri_to_matrix tmat2 concatmatrix } bdef
/ds {stri astore pop} bdef
/dt {dtri astore pop} bdef
/db {2 copy /cols xdef /rows xdef mul dup 3 mul string
  currentfile 
  3 index 0 eq {/ASCIIHexDecode filter}
  {/ASCII85Decode filter 3 index 2 eq {/RunLengthDecode filter} if }
  ifelse exch readstring pop
  dup 0 3 index getinterval /rbmap xdef
  dup 2 index dup getinterval /gbmap xdef
  1 index dup 2 mul exch getinterval /bbmap xdef pop pop}bdef
/it {gs np dtri aload pop moveto lineto lineto cp c
  cols rows 8 compute_transform 
  rbmap gbmap bbmap true 3 colorimage gr}bdef
/il {newpath moveto lineto stroke}bdef
currentdict end def
%%EndProlog

%%BeginSetup
MathWorks begin

0 cap

end
%%EndSetup

%%Page: 1 1
%%BeginPageSetup
%%PageBoundingBox:    20    69   606   605
MathWorks begin
bpage
%%EndPageSetup

%%BeginObject: obj1
bplot

/dpi2point 8.33333 def
portraitMode -0158 5475 csm

  329   426  4885  4474 rc
84 dict begin %Colortable dictionary
/c0 { 0.000000 0.000000 0.000000 sr} bdef
/c1 { 1.000000 1.000000 1.000000 sr} bdef
/c2 { 0.900000 0.000000 0.000000 sr} bdef
/c3 { 0.000000 0.820000 0.000000 sr} bdef
/c4 { 0.000000 0.000000 0.800000 sr} bdef
/c5 { 0.910000 0.820000 0.320000 sr} bdef
/c6 { 1.000000 0.260000 0.820000 sr} bdef
/c7 { 0.000000 0.820000 0.820000 sr} bdef
c0
1 j
1 sg
   0    0 5651 5651 rf
12.5 w
0 3955 4237 0 0 -3955 848 4520 4 MP
PP
-4237 0 0 3955 4237 0 0 -3955 848 4520 5 MP stroke
8.33333 w
DO
SO
12.5 w
0.1 sg
 848 4520 mt 5085 4520 L
 848  565 mt 5085  565 L
 848 4520 mt  848  565 L
5085 4520 mt 5085  565 L
 848 4520 mt 5085 4520 L
 848 4520 mt  848  565 L
 848 4520 mt  848 4456 L
 848  565 mt  848  628 L
%%IncludeResource: font Helvetica
/Helvetica /ISOLatin1Encoding 133.333 FMSR

 811 4668 mt 
(0) s
1377 4520 mt 1377 4456 L
1377  565 mt 1377  628 L
1248 4668 mt 
(0.05) s
1907 4520 mt 1907 4456 L
1907  565 mt 1907  628 L
1815 4668 mt 
(0.1) s
2436 4520 mt 2436 4456 L
2436  565 mt 2436  628 L
2307 4668 mt 
(0.15) s
2966 4520 mt 2966 4456 L
2966  565 mt 2966  628 L
2874 4668 mt 
(0.2) s
3496 4520 mt 3496 4456 L
3496  565 mt 3496  628 L
3367 4668 mt 
(0.25) s
4025 4520 mt 4025 4456 L
4025  565 mt 4025  628 L
3933 4668 mt 
(0.3) s
4555 4520 mt 4555 4456 L
4555  565 mt 4555  628 L
4426 4668 mt 
(0.35) s
5085 4520 mt 5085 4456 L
5085  565 mt 5085  628 L
4993 4668 mt 
(0.4) s
 848 4520 mt  911 4520 L
5085 4520 mt 5021 4520 L
 750 4569 mt 
(0) s
 848 4160 mt  911 4160 L
5085 4160 mt 5021 4160 L
 676 4209 mt 
(10) s
 848 3800 mt  911 3800 L
5085 3800 mt 5021 3800 L
 676 3849 mt 
(20) s
 848 3441 mt  911 3441 L
5085 3441 mt 5021 3441 L
 676 3490 mt 
(30) s
 848 3081 mt  911 3081 L
5085 3081 mt 5021 3081 L
 676 3130 mt 
(40) s
 848 2722 mt  911 2722 L
5085 2722 mt 5021 2722 L
 676 2771 mt 
(50) s
 848 2362 mt  911 2362 L
5085 2362 mt 5021 2362 L
 676 2411 mt 
(60) s
 848 2003 mt  911 2003 L
5085 2003 mt 5021 2003 L
 676 2052 mt 
(70) s
 848 1643 mt  911 1643 L
5085 1643 mt 5021 1643 L
 676 1692 mt 
(80) s
 848 1284 mt  911 1284 L
5085 1284 mt 5021 1284 L
 676 1333 mt 
(90) s
 848  924 mt  911  924 L
5085  924 mt 5021  924 L
 602  973 mt 
(100) s
 848  565 mt  911  565 L
5085  565 mt 5021  565 L
 602  614 mt 
(110) s
 848 4520 mt 5085 4520 L
 848  565 mt 5085  565 L
 848 4520 mt  848  565 L
5085 4520 mt 5085  565 L
gs 848 565 4238 3956 rc
16.6667 w
0 sg
-2 1 -3 0 -2 1 -3 1 -3 3 -2 4 -3 6 -2 6 
-3 7 -3 8 -2 8 -3 9 -2 10 -3 11 -3 12 -2 14 
-3 15 -2 17 -3 18 -3 20 -2 20 -3 19 -2 20 -3 24 
-3 22 -2 24 -3 28 -2 27 -3 29 -3 30 -2 33 -3 32 
-2 30 -3 34 -3 34 -2 38 -3 43 -3 42 -2 45 -3 52 
-2 49 -3 50 -3 59 -2 56 -3 60 -2 66 -3 66 -3 80 
-2 95 -3 127 -2 186 -3 316 -3 1590 7 -24 6 -26 7 -20 
6 -20 7 -22 6 -27 7 -25 7 -32 6 -1 7 -32 6 -29 
7 -22 6 -28 7 -17 6 -35 7 -13 6 -23 7 -24 6 -27 
7 -25 6 -23 7 -23 6 -25 7 -16 6 -19 7 -23 6 -25 
7 -23 6 -17 7 -20 6 -24 7 -19 6 -23 7 -20 6 -22 
7 -23 6 -22 7 -23 6 -21 7 -23 6 -22 7 -19 6 -22 
7 -20 6 -27 7 -14 6 -22 7 -17 6 -23 7 -20 6 -16 
7 -23 6 -17 7 -19 6 -19 7 -16 6 -20 7 -19 6 -19 
7 -15 6 -20 7 -19 6 -19 7 -13 6 -18 7 -16 6 -18 
7 -20 6 -17 7 -16 6 -15 7 -19 6 -19 7 -15 6 -18 
7 -19 6 -14 7 -21 6 -13 7 -16 6 -11 7 -19 6 -11 
7 -19 6 -5 7 -13 6 -22 7 -12 6 -15 7 -16 6 -15 
7 -14 6 -14 7 -16 6 -14 7 -16 6 -19 7 -9 6 -15 
7 -20 6 -6 7 -15 6 -13 7 -13 6 -16 7 -13 7 -14 
6 -15 7 -9 6 -14 7 -14 6 -14 7 -12 6 -17 7 -13 
6 -13 7 -12 6 -18 7 -9 6 -13 7 -12 6 -12 7 -14 
6 -10 7 -11 6 -9 7 -11 6 -13 7 -14 6 -11 7 -7 
6 -12 7 -12 6 -11 7 -12 6 -12 7 -9 6 -6 7 -15 
6 -9 7 -9 6 -10 7 -8 6 -10 7 -19 6 -4 7 -5 
6 -12 7 -9 6 -10 7 -9 6 -13 7 -10 6 -7 7 -8 
6 -14 7 -7 6 -8 7 -13 6 -7 7 -7 6 -10 7 -12 
6 -5 7 -4 6 -10 7 -14 6 -2 7 -7 6 -11 7 -9 
6 -10 7 -7 6 -6 7 -10 6 -9 7 -11 6 -4 7 -3 
6 -10 7 -8 6 -6 7 -9 6 -5 7 -9 6 -7 7 -12 
6 -4 7 -8 6 -7 7 -6 6 -6 7 -9 6 -6 7 -6 
6 -7 7 -8 6 -9 7 -1 6 -6 7 -7 6 -10 7 -3 
7 -6 6 -4 7 -8 6 -5 7 -7 6 -9 7 -2 6 -3 
7 -5 6 -7 7 -4 6 -7 7 -4 6 -6 7 -6 6 -4 
7 -6 6 -5 7 -7 6 -6 7 -2 6 -7 7 -8 6 -3 
7 -6 6 -5 7 -5 6 -6 7 -7 6 -3 7 -3 6 -3 
7 -4 6 -4 7 -5 6 -6 7 -5 6 -4 7 -5 6 -5 
7 -6 6 -5 7 -4 3098 4077 300 MP stroke
6 -4 7 -4 6 -7 7 -3 6 -5 7 -4 6 -2 7 -5 
6 -4 7 -5 6 -4 7 -5 6 -6 7 -1 6 -4 7 -2 
6 -5 7 -6 6 -5 7 -2 6 -3 7 -2 6 -6 7 -2 
6 -2 7 -3 6 -3 7 -4 6 -4 7 -1 6 -2 7 -4 
6 -1 7 -4 6 -4 7 -2 6 -2 7 -4 6 -3 7 -1 
6 -2 7 -6 6 -1 7 -2 6 -5 7 -5 6 1 7 -3 
6 -3 7 -1 6 -2 7 -5 6 -3 7 -4 6 1 7 -2 
7 -2 6 -4 7 -2 6 -4 7 -3 6 -1 7 -2 6 -2 
7 -4 6 -3 7 -2 6 -2 7 -2 6 -4 7 0 6 -2 
7 -5 6 -1 7 -3 6 -3 7 -2 6 -2 7 -1 6 -2 
7 0 6 -3 7 -2 6 -2 7 -2 6 -3 7 -1 6 -2 
7 -3 6 -2 7 1 6 -3 7 -1 6 -1 7 -3 6 -1 
7 -3 6 -3 7 0 6 -2 7 0 6 -1 7 -1 6 1 
7 -1 6 -1 7 -3 6 -1 7 0 6 -3 7 -3 6 -1 
7 -1 6 0 7 -2 6 0 7 -1 6 -2 7 -2 6 -2 
7 -1 6 -2 7 -1 6 0 7 -3 6 0 7 0 6 -1 
7 -1 6 -2 7 -2 6 -3 7 0 6 -2 7 -1 6 -1 
7 0 6 -2 7 0 6 -2 7 -1 6 -1 7 -2 6 0 
7 -2 6 -2 7 -1 6 -2 7 -1 6 -2 7 0 7 -2 
6 -1 7 -2 6 0 7 -1 6 0 7 0 6 0 7 -1 
6 1 7 -2 6 -2 7 -1 6 1 7 -2 6 0 7 -1 
6 -2 7 -2 6 -1 7 -2 6 0 7 -1 6 -1 7 -1 
6 -1 7 0 6 -2 7 0 6 -1 7 -1 6 -1 7 -2 
6 0 7 0 6 0 7 -1 6 -1 7 -1 6 0 7 -2 
6 0 7 -1 6 -1 7 -1 6 -1 7 0 6 -2 7 -1 
6 0 7 0 6 0 7 -2 6 0 7 -1 6 -1 7 -1 
6 0 7 0 6 -1 7 0 6 -1 7 -2 6 0 7 0 
6 0 7 -1 6 -1 7 -2 6 -1 7 -1 6 1 7 0 
6 -1 7 0 6 0 7 0 6 0 7 -1 6 -1 7 0 
6 -1 7 0 6 -1 7 0 6 -1 7 -1 6 0 7 0 
6 -1 7 -1 6 -1 7 0 6 -1 7 0 6 -1 7 -1 
6 -1 7 0 7 0 6 -1 7 0 6 0 7 0 6 0 
7 0 6 -1 7 -1 6 -1 7 0 6 -1 7 0 6 -1 
7 -1 6 -2 7 0 6 1 7 0 6 -1 7 0 6 0 
7 -1 6 0 7 0 6 -1 7 0 6 0 7 0 6 -1 
7 0 6 -1 7 -1 6 1 7 0 6 -1 7 -1 6 0 
7 -1 6 -1 7 0 6 0 7 0 6 0 7 0 6 0 
7 -1 6 0 7 0 1153 4504 300 MP stroke
6 0 7 0 6 -1 7 0 6 0 7 -1 6 0 7 0 
6 -1 7 0 6 0 7 0 6 0 7 -1 6 0 7 0 
6 0 7 -1 6 0 7 -1 6 0 7 -1 6 -1 7 0 
6 -1 7 -1 6 0 7 0 6 0 7 -1 6 0 7 0 
6 -1 7 -1 6 0 7 -1 6 0 7 -1 6 0 7 0 
6 0 7 0 6 0 7 0 6 0 7 0 6 0 848 4519 48 MP stroke
gr

16.6667 w
0 sg
0.1 sg
%%IncludeResource: font Helvetica-Bold
/Helvetica-Bold /ISOLatin1Encoding 183.333 FMSR

2351 4842 mt 
(Vertical Strain) s
 522 3424 mt  -90 rotate
(Vertical Stress [kPa]) s
90 rotate
gs 848 565 4238 3956 rc
/c8 { 1.000000 0.000000 0.000000 sr} bdef
c8
-3 1 -2 0 -3 1 -2 1 -3 2 -2 3 -3 3 -2 4 
-3 4 -2 5 -3 7 -2 9 -3 9 -2 9 -3 6 -2 9 
-3 10 -3 13 -2 14 -3 13 -2 13 -3 12 -2 13 -3 16 
-2 17 -3 18 -2 20 -3 21 -2 22 -3 22 -2 26 -3 29 
-2 26 -3 29 -2 26 -3 31 -2 32 -3 33 -2 34 -3 32 
-2 33 -3 38 -2 36 -3 40 -2 39 -3 41 -2 43 -3 47 
-3 47 -2 52 -3 49 -2 54 -3 58 -2 67 -3 81 -2 93 
-3 122 -2 185 -3 317 -2 1574 6 -25 6 -28 7 -24 6 -24 
6 -23 7 -23 6 -19 6 -28 6 -18 7 -22 6 -22 6 -26 
7 -22 6 -22 6 -32 6 -16 7 -26 6 -21 6 -25 7 -24 
6 -22 6 -24 6 -23 7 -27 6 -18 6 -24 7 -15 6 -26 
6 -14 6 -22 7 -21 6 -18 6 -21 7 -23 6 -31 6 -21 
6 -17 7 -18 6 -22 6 -20 7 -20 6 -17 6 -16 7 -27 
6 -14 6 -17 6 -22 7 -17 6 -15 6 -19 7 -19 6 -20 
6 -19 6 -14 7 -21 6 -20 6 -20 7 -12 6 -20 6 -19 
6 -8 7 -23 6 -22 6 -10 7 -10 6 -24 6 -10 6 -13 
7 -18 6 -15 6 -16 7 -16 6 -21 6 -12 6 -18 7 -18 
6 -12 6 -14 7 -14 6 -17 6 -16 6 -12 7 -17 6 -16 
6 -18 7 -15 6 -13 6 -14 7 -13 6 -13 6 -20 6 -7 
7 -11 6 -15 6 -14 7 -12 6 -16 6 -13 6 -15 7 -10 
6 -12 6 -15 7 -11 6 -15 6 -11 6 -13 7 -14 6 -16 
6 -13 7 -10 6 -18 6 -13 6 -11 7 -13 6 -10 6 -11 
7 -16 6 -13 6 -11 6 -11 7 -9 6 -13 6 -12 7 -12 
6 -14 6 -14 6 -12 7 -10 6 -10 6 -9 7 -11 6 -15 
6 -9 7 -6 6 -13 6 -9 6 -12 7 -10 6 -9 6 -11 
7 -11 6 -6 6 -14 6 -7 7 -10 6 -8 6 -12 7 -10 
6 -6 6 -11 6 -7 7 -11 6 -8 6 -11 7 -11 6 -8 
6 -9 6 -9 7 -9 6 -5 6 -13 7 -5 6 -12 6 -6 
6 -5 7 -8 6 -9 6 -10 7 -4 6 -6 6 -15 6 -8 
7 -2 6 -6 6 -10 7 -11 6 -7 6 -8 7 -7 6 -9 
6 -4 6 -8 7 -9 6 -9 6 -8 7 -10 6 -4 6 -9 
6 -6 7 -10 6 -9 6 -5 7 -4 6 -8 6 -7 6 -10 
7 -4 6 -11 6 -4 7 -6 6 -6 6 -5 6 -7 7 -5 
6 -9 6 -4 7 -4 6 -9 6 -2 6 -8 7 -7 6 -6 
6 -7 7 -6 6 -4 6 -7 6 -6 7 -4 6 -3 6 -8 
7 -7 6 -5 6 -4 7 -6 6 -9 6 0 6 -8 7 -2 
6 -5 6 -2 7 -7 6 -6 6 -4 6 -5 7 -3 6 -6 
6 -1 7 -5 6 -3 3300 3936 300 MP stroke
6 -4 6 -4 7 -7 6 -5 6 -2 7 -6 6 -6 6 -2 
6 -7 7 -1 6 -3 6 -3 7 -6 6 -6 6 -5 6 -4 
7 0 6 -3 6 -4 7 -6 6 -5 6 -2 6 -6 7 -5 
6 -5 6 -2 7 -5 6 -5 6 -7 7 -4 6 1 6 -3 
6 -5 7 -1 6 -9 6 -5 7 3 6 -2 6 -4 6 -7 
7 -2 6 -6 6 -3 7 -4 6 -4 6 -4 6 -6 7 0 
6 -5 6 -3 7 -5 6 -2 6 -1 6 -4 7 -2 6 -3 
6 -5 7 -4 6 -5 6 0 6 -5 7 -4 6 0 6 -2 
7 -4 6 -3 6 -3 6 -3 7 -4 6 -1 6 -4 7 -3 
6 -3 6 -1 7 -3 6 -4 6 -3 6 -4 7 -2 6 -1 
6 -1 7 -2 6 -5 6 -2 6 -3 7 -2 6 -2 6 -2 
7 0 6 -1 6 -4 6 -3 7 -3 6 -4 6 -2 7 -3 
6 -1 6 -3 6 -1 7 0 6 -2 6 -4 7 -3 6 -3 
6 0 6 -2 7 -4 6 0 6 0 7 -4 6 -2 6 -2 
6 -3 7 -1 6 -3 6 -1 7 -1 6 -2 6 -2 7 -3 
6 0 6 0 6 -2 7 -2 6 -2 6 -4 7 -2 6 -3 
6 -2 6 -1 7 -2 6 0 6 -2 7 -2 6 -1 6 -1 
6 -2 7 0 6 -1 6 -2 7 0 6 1 6 0 6 -4 
7 -3 6 -1 6 0 7 -1 6 -3 6 -1 6 -2 7 0 
6 0 6 -2 7 -1 6 -2 6 -3 6 -2 7 -2 6 -4 
6 1 7 1 6 -1 6 -2 6 -3 7 -1 6 -4 6 0 
7 -1 6 -2 6 0 7 -1 6 -1 6 -1 6 -2 7 -1 
6 -1 6 -2 7 -2 6 -1 6 -2 6 -2 7 -2 6 0 
6 -1 7 -1 6 -2 6 -1 6 -1 7 0 6 0 6 -1 
7 -3 6 -1 6 -1 6 -1 7 -1 6 -2 6 0 7 -1 
6 -1 6 0 6 -2 7 -1 6 -2 6 -1 7 -1 6 1 
6 -3 6 1 7 0 6 -1 6 -2 7 -1 6 -2 6 -1 
7 -1 6 -1 6 -2 6 -2 7 1 6 -1 6 -1 7 -2 
6 0 6 0 6 -1 7 -1 6 -1 6 -1 7 -1 6 -1 
6 -1 6 -2 7 -2 6 0 6 0 7 -1 6 0 6 -1 
6 0 7 -1 6 -1 6 -1 7 0 6 -1 6 -1 6 0 
7 -2 6 -1 6 0 7 -1 6 0 6 0 7 0 6 0 
6 -1 6 -1 7 -1 6 -1 6 0 7 0 6 -1 6 -1 
6 -1 7 0 6 0 6 0 7 0 6 0 6 0 6 -1 
7 0 6 -1 6 0 7 -1 6 -1 6 0 6 -1 7 -1 
6 -1 6 0 7 -1 6 0 6 -1 6 -1 7 0 6 0 
6 0 7 -1 6 0 6 0 6 -1 7 0 6 -1 6 0 
7 -1 6 -1 6 -1 1420 4487 300 MP stroke
7 -1 6 -1 6 0 6 0 7 0 6 -1 6 0 7 0 
6 -1 6 0 6 -1 7 -1 6 0 6 0 7 -1 6 0 
6 -1 6 0 7 -1 6 1 6 -1 7 0 6 -1 6 0 
6 0 7 -1 6 0 6 -1 7 -1 6 0 6 -1 6 0 
7 -1 6 0 6 0 7 0 6 0 6 -1 6 0 7 -1 
6 0 6 -1 7 0 6 -1 6 0 7 0 6 0 6 -1 
6 0 7 0 6 0 6 -1 7 0 6 0 6 -1 6 0 
7 0 6 0 6 -1 7 0 6 0 6 -1 6 -1 7 0 
6 0 6 -1 7 0 6 0 6 -1 6 0 7 0 6 -1 
6 0 7 -1 6 0 6 0 6 -1 7 0 6 0 6 0 
7 0 6 -1 6 0 6 0 7 0 6 0 6 -1 7 0 
6 0 6 0 6 0 848 4519 92 MP stroke
/c9 { 0.000000 0.000000 1.000000 sr} bdef
c9
-3 1 -2 0 -3 1 -2 0 -3 2 -2 1 -2 3 -3 3 
-2 4 -3 4 -2 6 -3 6 -2 6 -3 7 -2 9 -3 8 
-2 7 -3 9 -2 13 -3 12 -2 11 -3 11 -2 12 -3 12 
-2 15 -3 18 -2 18 -3 16 -2 17 -2 17 -3 18 -2 19 
-3 19 -2 20 -3 26 -2 21 -3 26 -2 24 -3 29 -2 29 
-3 26 -2 29 -3 30 -2 34 -3 31 -2 35 -3 34 -2 31 
-3 39 -2 35 -3 39 -2 41 -3 40 -2 45 -2 53 -3 57 
-2 54 -3 54 -2 67 -3 79 -2 96 -3 129 -2 171 -3 292 
-2 1593 6 -17 6 -26 6 -20 7 -32 6 -4 6 -19 6 -23 
6 -23 6 -25 7 -23 6 -28 6 -19 6 -14 6 -18 7 -24 
6 -21 6 -22 6 -26 6 -15 7 -24 6 -28 6 -12 6 -22 
6 -19 7 -29 6 -8 6 -17 6 -21 6 -20 7 -21 6 -21 
6 -20 6 -16 6 -12 7 -19 6 -21 6 -2 6 -18 6 -9 
7 -20 6 -9 6 -21 6 -20 6 -11 7 -20 6 -13 6 -22 
6 -16 6 -19 7 -14 6 -15 6 -17 6 -19 6 -16 7 -21 
6 -14 6 -16 6 -20 6 -16 7 -19 6 -14 6 -17 6 -17 
6 -20 7 -16 6 -7 6 -19 6 -18 6 -16 7 -17 6 -20 
6 -19 6 -11 6 -13 6 -24 7 -12 6 -9 6 -15 6 -16 
6 -15 7 -13 6 -16 6 -14 6 -17 6 -14 7 -21 6 -9 
6 -10 6 -15 6 -11 7 -12 6 -12 6 -10 6 -17 6 -12 
7 -15 6 -6 6 -20 6 -11 6 -14 7 -16 6 -3 6 -13 
6 -16 6 -15 7 -7 6 -13 6 -12 6 -19 6 2 7 -13 
6 -12 6 -9 6 -15 6 -10 7 -14 6 -11 6 -10 6 -14 
6 -13 7 -10 6 -11 6 -15 6 -11 6 -4 7 -12 6 -13 
6 -6 6 -7 6 -12 7 -11 6 -9 6 -9 6 -17 6 -3 
7 -13 6 -8 6 -12 6 -5 6 -13 6 -10 7 -12 6 -9 
6 -9 6 -12 6 -8 7 -12 6 -11 6 -6 6 -14 6 -6 
7 -8 6 -12 6 -12 6 -6 6 -8 7 -8 6 -15 6 -8 
6 -10 6 -8 7 -7 6 -12 6 -10 6 -7 6 -6 7 -14 
6 -5 6 -10 6 -2 6 -8 7 -9 6 -5 6 -5 6 -10 
6 -7 7 -10 6 -10 6 -9 6 -2 6 -6 7 -10 6 -4 
6 -7 6 -12 6 1 7 -6 6 -5 6 -10 6 -9 6 -6 
7 -4 6 -11 6 -8 6 -4 6 -10 7 -6 6 -5 6 -9 
6 -11 6 -4 7 -5 6 -7 6 -4 6 -11 6 -9 6 -2 
7 -7 6 -7 6 -9 6 -6 6 -4 7 -11 6 -5 6 -7 
6 -2 6 -6 7 -9 6 -6 6 -9 6 -5 6 -6 7 -4 
6 -9 6 -2 6 -9 6 -5 7 -6 6 -5 6 -7 6 -6 
6 -6 7 -5 6 -7 3419 3746 300 MP stroke
6 -6 6 -6 6 -4 7 -8 6 -6 6 -3 6 -4 6 -4 
7 -2 6 -5 6 -3 6 -8 6 -1 7 -6 6 -8 6 -4 
6 -6 6 -4 7 -7 6 -3 6 -5 6 -5 6 -4 7 -5 
6 -3 6 -5 6 -13 6 1 6 -3 7 -4 6 -9 6 -1 
6 -4 6 -3 7 -6 6 -2 6 -5 6 -4 6 -4 7 -7 
6 -4 6 -4 6 -3 6 -5 7 -6 6 -2 6 -5 6 -1 
6 -6 7 -1 6 -3 6 -7 6 -8 6 -2 7 3 6 -2 
6 -5 6 -5 6 -5 7 -2 6 -4 6 -5 6 -3 6 -3 
7 -5 6 -6 6 0 6 -6 6 -3 7 -2 6 -1 6 -7 
6 -4 6 -3 7 -2 6 0 6 -6 6 -5 6 -2 7 -4 
6 -5 6 -4 6 -3 6 -2 7 -2 6 -5 6 -3 6 -1 
6 -2 7 -8 6 -4 6 0 6 -3 6 -2 6 -2 7 -4 
6 -5 6 -4 6 -5 6 1 7 0 6 -7 6 -3 6 -3 
6 -2 7 -2 6 -3 6 -2 6 -2 6 -6 7 -2 6 -4 
6 -1 6 -4 6 -5 7 0 6 -4 6 -3 6 0 6 -3 
7 -3 6 -2 6 -5 6 -3 6 -4 7 -1 6 -1 6 -3 
6 -2 6 -1 7 -3 6 -2 6 -4 6 -1 6 -1 7 -2 
6 -3 6 -2 6 -2 6 -3 7 -3 6 -3 6 -1 6 -2 
6 -2 7 -2 6 -1 6 -1 6 -1 6 -2 7 -3 6 -1 
6 -2 6 0 6 -3 7 -4 6 -2 6 -3 6 -2 6 -2 
6 -2 7 -1 6 -2 6 -3 6 -2 6 -3 7 -1 6 -1 
6 -2 6 -3 6 -3 7 0 6 -1 6 -4 6 -2 6 -3 
7 0 6 -1 6 -3 6 -5 6 -3 7 -2 6 1 6 0 
6 -2 6 -4 7 -1 6 -3 6 -2 6 -1 6 3 7 -4 
6 -3 6 -2 6 -1 6 -1 7 -2 6 2 6 -2 6 -2 
6 -2 7 0 6 -2 6 -3 6 -2 6 0 7 0 6 0 
6 -2 6 -1 6 -1 7 -3 6 0 6 -1 6 -2 6 -2 
7 0 6 -2 6 -1 6 -2 6 -1 6 -3 7 -1 6 0 
6 0 6 0 6 -1 7 -1 6 -2 6 -2 6 -3 6 -2 
7 0 6 0 6 -3 6 -2 6 0 7 -1 6 0 6 -1 
6 -1 6 0 7 -1 6 -2 6 -2 6 -2 6 0 7 -1 
6 -2 6 -2 6 -1 6 0 7 1 6 -1 6 -2 6 -2 
6 -1 7 0 6 -1 6 0 6 0 6 -2 7 -1 6 -1 
6 -2 6 -2 6 0 7 -1 6 -1 6 0 6 -2 6 -1 
7 -2 6 0 6 -1 6 -1 6 -1 7 0 6 -2 6 -1 
6 -1 6 -1 7 -2 6 1 6 0 6 -1 6 -2 6 -1 
7 0 6 -1 6 -2 6 -1 6 -1 7 0 6 0 6 0 
6 -1 6 -1 7 -1 1566 4462 300 MP stroke
6 -1 6 -1 6 0 6 0 7 -1 6 0 6 -1 6 -1 
6 -1 7 0 6 -1 6 -1 6 -2 6 0 7 1 6 -1 
6 0 6 0 6 -1 7 -1 6 0 6 -1 6 -1 6 -1 
7 -2 6 0 6 -1 6 0 6 -1 7 0 6 -1 6 -1 
6 -1 6 0 7 0 6 -1 6 -1 6 -2 6 -1 7 1 
6 0 6 0 6 0 6 -1 7 -1 6 0 6 -2 6 -1 
6 0 7 -1 6 -1 6 0 6 0 6 0 6 -1 7 0 
6 -1 6 0 6 0 6 -1 7 0 6 0 6 0 6 -1 
6 -1 7 1 6 0 6 -1 6 -1 6 0 7 -1 6 -1 
6 -1 6 0 6 -1 7 0 6 -1 6 0 6 -1 6 0 
7 -1 6 0 6 0 6 -1 6 0 7 0 6 0 6 -1 
6 0 6 -1 7 0 6 0 6 0 6 0 6 -1 7 0 
6 0 6 -1 6 0 6 0 7 0 6 -1 6 0 6 -1 
6 0 7 -1 6 0 6 0 6 -1 6 0 7 -1 6 0 
6 0 6 0 6 -1 6 0 848 4519 117 MP stroke
/c10 { 1.000000 0.000000 1.000000 sr} bdef
c10
-2 1 -3 0 -2 0 -3 1 -2 1 -3 1 -2 2 -3 2 
-2 3 -3 3 -2 5 -2 5 -3 5 -2 5 -3 6 -2 8 
-3 6 -2 8 -3 9 -2 8 -3 5 -2 5 -3 7 -2 9 
-3 9 -2 10 -3 15 -2 15 -2 11 -3 14 -2 12 -3 14 
-2 14 -3 16 -2 16 -3 17 -2 16 -3 18 -2 19 -3 19 
-2 16 -3 19 -2 20 -3 21 -2 21 -2 21 -3 23 -2 21 
-3 26 -2 19 -3 24 -2 26 -3 27 -2 31 -3 31 -2 27 
-3 32 -2 28 -3 34 -2 40 -3 37 -2 37 -3 42 -2 46 
-2 51 -3 60 -2 71 -3 76 -2 98 -3 129 -2 194 -3 322 
-2 1608 6 -24 6 -28 6 -24 7 -22 6 -25 6 -21 6 -27 
6 -20 6 -25 7 -20 6 -18 6 -21 6 -34 6 -8 6 -26 
7 -20 6 -15 6 -23 6 -13 6 -18 7 -26 6 -25 6 -12 
6 -35 6 5 6 -12 7 -13 6 -16 6 -19 6 -12 6 -22 
6 -12 7 -20 6 -19 6 -14 6 -22 6 -15 7 -16 6 -16 
6 -22 6 -15 6 -17 6 -21 7 -12 6 -23 6 -11 6 -17 
6 -18 7 -11 6 -18 6 -12 6 -20 6 -18 6 -17 7 -16 
6 -19 6 -12 6 -15 6 -18 7 -13 6 -14 6 -26 6 -10 
6 -14 6 -10 7 -14 6 -19 6 -7 6 -17 6 -10 6 -10 
7 -14 6 -16 6 -17 6 -13 6 -14 7 -20 6 -12 6 -15 
6 -17 6 -10 6 -15 7 -7 6 -10 6 -16 6 -19 6 -13 
7 -15 6 -14 6 -14 6 -7 6 -12 6 -16 7 -18 6 -4 
6 -16 6 -11 6 -11 6 -16 7 -15 6 -12 6 -9 6 -13 
6 -10 7 -13 6 -14 6 -9 6 -12 6 -11 6 -14 7 -15 
6 -7 6 -13 6 -16 6 -6 7 -14 6 -7 6 -11 6 -15 
6 -15 6 -5 7 -13 6 -12 6 -14 6 -12 6 -7 6 -13 
7 -13 6 -11 6 -7 6 -14 6 -12 7 -7 6 -8 6 -10 
6 -15 6 -4 6 -9 7 -12 6 -7 6 -11 6 -14 6 -8 
7 -11 6 -8 6 -9 6 -7 6 -14 6 -8 7 -9 6 -18 
6 -5 6 -11 6 -5 6 -7 7 -10 6 -3 6 -13 6 -10 
6 -10 7 -7 6 -6 6 -13 6 -11 6 -3 6 -9 7 -16 
6 -3 6 -7 6 -11 6 -8 7 -16 6 1 6 -7 6 -12 
6 -11 6 -4 7 -10 6 -8 6 -7 6 -10 6 -11 6 -6 
7 -9 6 -7 6 -11 6 -9 6 -5 7 -11 6 -8 6 -5 
6 -9 6 -4 6 -12 7 -6 6 -9 6 -8 6 -8 6 -2 
7 -12 6 -5 6 -5 6 -10 6 -9 6 -6 7 -3 6 -10 
6 -8 6 -3 6 -7 7 -10 6 -6 6 -5 6 -7 6 -9 
6 -1 7 -9 6 -7 6 -6 6 -3 6 -6 6 -9 7 -8 
6 -6 6 -2 6 -2 3381 3672 300 MP stroke
6 -8 7 -5 6 -6 6 -7 6 -8 6 -10 6 -3 7 -4 
6 -5 6 -4 6 -6 6 -13 7 -2 6 -3 6 -6 6 -5 
6 -5 6 -4 7 -10 6 -8 6 0 6 -4 6 -8 6 -6 
7 -2 6 -6 6 -5 6 -4 6 -6 7 -6 6 -4 6 -2 
6 -3 6 -10 6 1 7 -3 6 -6 6 -2 6 -6 6 -6 
7 -3 6 -5 6 -7 6 -7 6 -2 6 -6 7 -6 6 -4 
6 0 6 -5 6 -4 6 -6 7 -6 6 -3 6 -3 6 -3 
6 -3 7 -8 6 -3 6 2 6 -5 6 -4 6 -2 7 -7 
6 -4 6 -6 6 0 6 -3 7 -10 6 1 6 0 6 -8 
6 -3 6 -3 7 1 6 -5 6 -6 6 0 6 -7 6 -1 
7 -5 6 -5 6 -1 6 -3 6 -2 7 -6 6 0 6 -2 
6 -6 6 -1 6 -3 7 -2 6 -3 6 -4 6 -6 6 -2 
7 -5 6 0 6 -4 6 -4 6 -5 6 -3 7 -6 6 1 
6 -4 6 -1 6 -3 7 -4 6 -4 6 -3 6 -4 6 -3 
6 -1 7 -5 6 -2 6 -4 6 -3 6 -2 6 -1 7 -3 
6 -4 6 -5 6 -3 6 -1 7 -4 6 -3 6 -4 6 -4 
6 0 6 -2 7 -4 6 -3 6 -2 6 -6 6 1 6 -2 
7 2 6 -3 6 -4 6 -3 6 -1 7 -3 6 -2 6 -2 
6 -3 6 -2 6 -4 7 -3 6 -4 6 -1 6 -2 6 -3 
7 -2 6 -3 6 -3 6 0 6 -2 6 -4 7 3 6 -3 
6 -3 6 -5 6 -2 7 -2 6 -2 6 -1 6 -3 6 -3 
6 -2 7 2 6 -4 6 -7 6 -1 6 0 6 2 7 -1 
6 -3 6 -4 6 -3 6 0 7 -2 6 -4 6 -3 6 -2 
6 -2 6 -1 7 -2 6 0 6 -3 6 -4 6 -1 7 -1 
6 0 6 -2 6 -3 6 -1 6 -2 7 -2 6 -2 6 -3 
6 -2 6 1 6 -2 7 -3 6 -4 6 -1 6 -2 6 -2 
7 -1 6 -3 6 -1 6 0 6 -1 6 -1 7 -2 6 -3 
6 0 6 0 6 -3 7 -2 6 -2 6 -1 6 0 6 -2 
6 0 7 -2 6 -2 6 -2 6 -2 6 -2 6 -1 7 -2 
6 -1 6 -1 6 -2 6 0 7 0 6 -1 6 -2 6 -1 
6 -2 6 -3 7 -3 6 -1 6 1 6 1 6 -2 7 -2 
6 -1 6 0 6 -1 6 -2 6 -2 7 0 6 0 6 -1 
6 -1 6 -2 6 0 7 -3 6 0 6 -2 6 0 6 -2 
7 -2 6 -1 6 -1 6 -1 6 -1 6 0 7 -2 6 -1 
6 -1 6 -1 6 -1 7 -2 6 0 6 -1 6 0 6 -1 
6 -1 7 -1 6 0 6 0 6 -1 6 -1 7 -1 6 0 
6 -2 6 -2 6 -1 6 -1 7 -1 6 -1 6 -2 6 0 
6 0 6 0 7 -1 1533 4458 300 MP stroke
6 -1 6 -1 6 0 6 0 7 -1 6 -1 6 -1 6 0 
6 -2 6 0 7 -1 6 0 6 -2 6 -1 6 0 7 -1 
6 -1 6 -1 6 -1 6 0 6 -1 7 -1 6 -1 6 -1 
6 0 6 -1 6 -1 7 0 6 -1 6 0 6 -1 6 0 
7 -1 6 -1 6 -1 6 0 6 -1 6 -1 7 0 6 0 
6 -1 6 0 6 -1 7 0 6 -1 6 0 6 -1 6 -1 
6 -1 7 0 6 0 6 0 6 -1 6 -1 6 0 7 -1 
6 0 6 0 6 -1 6 -1 7 -1 6 -1 6 0 6 -1 
6 0 6 -1 7 -1 6 0 6 0 6 0 6 0 7 0 
6 -1 6 0 6 -1 6 0 6 -1 7 0 6 -1 6 0 
6 -1 6 0 6 -1 7 0 6 0 6 -1 6 0 6 -1 
7 0 6 -1 6 0 6 0 6 -1 6 0 7 0 6 0 
6 -1 6 0 6 0 7 -1 6 0 6 0 6 -1 6 0 
6 -1 7 -1 6 -1 6 0 6 0 6 0 6 -1 848 4519 112 MP stroke
gr

c10
0 sg
%%IncludeResource: font Helvetica
/Helvetica /ISOLatin1Encoding 166.667 FMSR

 818 4587 mt 
( ) s
5056  631 mt 
( ) s
12.5 w
%%IncludeResource: font Symbol
/Symbol /ISOLatin1Encoding 125 FMSR

2678  927 mt 
(D) s
%%IncludeResource: font Helvetica-Bold
/Helvetica-Bold /ISOLatin1Encoding 125 FMSR

2754  927 mt 
( ) s
%%IncludeResource: font Symbol
/Symbol /ISOLatin1Encoding 125 FMSR

2788  927 mt 
(g) s
%%IncludeResource: font Helvetica-Bold
/Helvetica-Bold /ISOLatin1Encoding 125 FMSR

2839  927 mt 
( = 8 J/m) s
%%IncludeResource: font Helvetica-Bold
/Helvetica-Bold /ISOLatin1Encoding 100 FMSR

3301  865 mt 
(2) s
gs 2353 750 1227 950 rc
16.6667 w
250 0 2403 879 2 MP stroke
gr

16.6667 w
%%IncludeResource: font Symbol
/Symbol /ISOLatin1Encoding 125 FMSR

2678 1157 mt 
(D) s
%%IncludeResource: font Helvetica-Bold
/Helvetica-Bold /ISOLatin1Encoding 125 FMSR

2754 1157 mt 
( ) s
%%IncludeResource: font Symbol
/Symbol /ISOLatin1Encoding 125 FMSR

2788 1157 mt 
(g) s
%%IncludeResource: font Helvetica-Bold
/Helvetica-Bold /ISOLatin1Encoding 125 FMSR

2839 1157 mt 
( = 12.5 J/m) s
%%IncludeResource: font Helvetica-Bold
/Helvetica-Bold /ISOLatin1Encoding 100 FMSR

3474 1095 mt 
(2) s
gs 2353 750 1227 950 rc
c8
250 0 2403 1109 2 MP stroke
gr

c8
0 sg
%%IncludeResource: font Symbol
/Symbol /ISOLatin1Encoding 125 FMSR

2678 1387 mt 
(D) s
%%IncludeResource: font Helvetica-Bold
/Helvetica-Bold /ISOLatin1Encoding 125 FMSR

2754 1387 mt 
( ) s
%%IncludeResource: font Symbol
/Symbol /ISOLatin1Encoding 125 FMSR

2788 1387 mt 
(g) s
%%IncludeResource: font Helvetica-Bold
/Helvetica-Bold /ISOLatin1Encoding 125 FMSR

2839 1387 mt 
( = 18.5 J/m) s
%%IncludeResource: font Helvetica-Bold
/Helvetica-Bold /ISOLatin1Encoding 100 FMSR

3474 1325 mt 
(2) s
gs 2353 750 1227 950 rc
c9
250 0 2403 1339 2 MP stroke
gr

c9
0 sg
%%IncludeResource: font Symbol
/Symbol /ISOLatin1Encoding 125 FMSR

2678 1617 mt 
(D) s
%%IncludeResource: font Helvetica-Bold
/Helvetica-Bold /ISOLatin1Encoding 125 FMSR

2754 1617 mt 
( ) s
%%IncludeResource: font Symbol
/Symbol /ISOLatin1Encoding 125 FMSR

2788 1617 mt 
(g) s
%%IncludeResource: font Helvetica-Bold
/Helvetica-Bold /ISOLatin1Encoding 125 FMSR

2839 1617 mt 
( = 23.5 J/m) s
%%IncludeResource: font Helvetica-Bold
/Helvetica-Bold /ISOLatin1Encoding 100 FMSR

3474 1555 mt 
(2) s
gs 2353 750 1227 950 rc
c10
250 0 2403 1569 2 MP stroke
12.5 w
gr

12.5 w
c10

end %%Color Dict

eplot
%%EndObject

epage
end

showpage

%%Trailer
%%EOF
