%!PS-Adobe-3.0 EPSF-3.0
%%Creator: MATLAB, The MathWorks, Inc. Version 7.12.0.635 (R2011a). Operating System: Linux 2.6.32-358.6.2.el6.x86_64 #1 SMP Thu May 16 11:21:38 CDT 2013 x86_64.
%%Title: ./ConfinedDensity_SE_100kPa.eps
%%CreationDate: 08/15/2013  13:57:01
%%DocumentNeededFonts: Helvetica-Bold
%%+ Helvetica
%%DocumentProcessColors: Cyan Magenta Yellow Black
%%LanguageLevel: 2
%%Pages: 1
%%BoundingBox:     5    64   599   605
%%EndComments

%%BeginProlog
% MathWorks dictionary
/MathWorks 160 dict begin
% definition operators
/bdef {bind def} bind def
/ldef {load def} bind def
/xdef {exch def} bdef
/xstore {exch store} bdef
% operator abbreviations
/c  /clip ldef
/cc /concat ldef
/cp /closepath ldef
/gr /grestore ldef
/gs /gsave ldef
/mt /moveto ldef
/np /newpath ldef
/cm /currentmatrix ldef
/sm /setmatrix ldef
/rm /rmoveto ldef
/rl /rlineto ldef
/s {show newpath} bdef
/sc {setcmykcolor} bdef
/sr /setrgbcolor ldef
/sg /setgray ldef
/w /setlinewidth ldef
/j /setlinejoin ldef
/cap /setlinecap ldef
/rc {rectclip} bdef
/rf {rectfill} bdef
% page state control
/pgsv () def
/bpage {/pgsv save def} bdef
/epage {pgsv restore} bdef
/bplot /gsave ldef
/eplot {stroke grestore} bdef
% orientation switch
/portraitMode 0 def /landscapeMode 1 def /rotateMode 2 def
% coordinate system mappings
/dpi2point 0 def
% font control
/FontSize 0 def
/FMS {/FontSize xstore findfont [FontSize 0 0 FontSize neg 0 0]
  makefont setfont} bdef
/reencode {exch dup where {pop load} {pop StandardEncoding} ifelse
  exch dup 3 1 roll findfont dup length dict begin
  { 1 index /FID ne {def}{pop pop} ifelse } forall
  /Encoding exch def currentdict end definefont pop} bdef
/isroman {findfont /CharStrings get /Agrave known} bdef
/FMSR {3 1 roll 1 index dup isroman {reencode} {pop pop} ifelse
  exch FMS} bdef
/csm {1 dpi2point div -1 dpi2point div scale neg translate
 dup landscapeMode eq {pop -90 rotate}
  {rotateMode eq {90 rotate} if} ifelse} bdef
% line types: solid, dotted, dashed, dotdash
/SO { [] 0 setdash } bdef
/DO { [.5 dpi2point mul 4 dpi2point mul] 0 setdash } bdef
/DA { [6 dpi2point mul] 0 setdash } bdef
/DD { [.5 dpi2point mul 4 dpi2point mul 6 dpi2point mul 4
  dpi2point mul] 0 setdash } bdef
% macros for lines and objects
/L {lineto stroke} bdef
/MP {3 1 roll moveto 1 sub {rlineto} repeat} bdef
/AP {{rlineto} repeat} bdef
/PDlw -1 def
/W {/PDlw currentlinewidth def setlinewidth} def
/PP {closepath eofill} bdef
/DP {closepath stroke} bdef
/MR {4 -2 roll moveto dup  0 exch rlineto exch 0 rlineto
  neg 0 exch rlineto closepath} bdef
/FR {MR stroke} bdef
/PR {MR fill} bdef
/L1i {{currentfile picstr readhexstring pop} image} bdef
/tMatrix matrix def
/MakeOval {newpath tMatrix currentmatrix pop translate scale
0 0 1 0 360 arc tMatrix setmatrix} bdef
/FO {MakeOval stroke} bdef
/PO {MakeOval fill} bdef
/PD {currentlinewidth 2 div 0 360 arc fill
   PDlw -1 eq not {PDlw w /PDlw -1 def} if} def
/FA {newpath tMatrix currentmatrix pop translate scale
  0 0 1 5 -2 roll arc tMatrix setmatrix stroke} bdef
/PA {newpath tMatrix currentmatrix pop	translate 0 0 moveto scale
  0 0 1 5 -2 roll arc closepath tMatrix setmatrix fill} bdef
/FAn {newpath tMatrix currentmatrix pop translate scale
  0 0 1 5 -2 roll arcn tMatrix setmatrix stroke} bdef
/PAn {newpath tMatrix currentmatrix pop translate 0 0 moveto scale
  0 0 1 5 -2 roll arcn closepath tMatrix setmatrix fill} bdef
/vradius 0 def /hradius 0 def /lry 0 def
/lrx 0 def /uly 0 def /ulx 0 def /rad 0 def
/MRR {/vradius xdef /hradius xdef /lry xdef /lrx xdef /uly xdef
  /ulx xdef newpath tMatrix currentmatrix pop ulx hradius add uly
  vradius add translate hradius vradius scale 0 0 1 180 270 arc 
  tMatrix setmatrix lrx hradius sub uly vradius add translate
  hradius vradius scale 0 0 1 270 360 arc tMatrix setmatrix
  lrx hradius sub lry vradius sub translate hradius vradius scale
  0 0 1 0 90 arc tMatrix setmatrix ulx hradius add lry vradius sub
  translate hradius vradius scale 0 0 1 90 180 arc tMatrix setmatrix
  closepath} bdef
/FRR {MRR stroke } bdef
/PRR {MRR fill } bdef
/MlrRR {/lry xdef /lrx xdef /uly xdef /ulx xdef /rad lry uly sub 2 div def
  newpath tMatrix currentmatrix pop ulx rad add uly rad add translate
  rad rad scale 0 0 1 90 270 arc tMatrix setmatrix lrx rad sub lry rad
  sub translate rad rad scale 0 0 1 270 90 arc tMatrix setmatrix
  closepath} bdef
/FlrRR {MlrRR stroke } bdef
/PlrRR {MlrRR fill } bdef
/MtbRR {/lry xdef /lrx xdef /uly xdef /ulx xdef /rad lrx ulx sub 2 div def
  newpath tMatrix currentmatrix pop ulx rad add uly rad add translate
  rad rad scale 0 0 1 180 360 arc tMatrix setmatrix lrx rad sub lry rad
  sub translate rad rad scale 0 0 1 0 180 arc tMatrix setmatrix
  closepath} bdef
/FtbRR {MtbRR stroke } bdef
/PtbRR {MtbRR fill } bdef
/stri 6 array def /dtri 6 array def
/smat 6 array def /dmat 6 array def
/tmat1 6 array def /tmat2 6 array def /dif 3 array def
/asub {/ind2 exch def /ind1 exch def dup dup
  ind1 get exch ind2 get sub exch } bdef
/tri_to_matrix {
  2 0 asub 3 1 asub 4 0 asub 5 1 asub
  dup 0 get exch 1 get 7 -1 roll astore } bdef
/compute_transform {
  dmat dtri tri_to_matrix tmat1 invertmatrix 
  smat stri tri_to_matrix tmat2 concatmatrix } bdef
/ds {stri astore pop} bdef
/dt {dtri astore pop} bdef
/db {2 copy /cols xdef /rows xdef mul dup 3 mul string
  currentfile 
  3 index 0 eq {/ASCIIHexDecode filter}
  {/ASCII85Decode filter 3 index 2 eq {/RunLengthDecode filter} if }
  ifelse exch readstring pop
  dup 0 3 index getinterval /rbmap xdef
  dup 2 index dup getinterval /gbmap xdef
  1 index dup 2 mul exch getinterval /bbmap xdef pop pop}bdef
/it {gs np dtri aload pop moveto lineto lineto cp c
  cols rows 8 compute_transform 
  rbmap gbmap bbmap true 3 colorimage gr}bdef
/il {newpath moveto lineto stroke}bdef
currentdict end def
%%EndProlog

%%BeginSetup
MathWorks begin

0 cap

end
%%EndSetup

%%Page: 1 1
%%BeginPageSetup
%%PageBoundingBox:     5    64   599   605
MathWorks begin
bpage
%%EndPageSetup

%%BeginObject: obj1
bplot

/dpi2point 8.33333 def
portraitMode -0158 5475 csm

  204   426  4948  4514 rc
84 dict begin %Colortable dictionary
/c0 { 0.000000 0.000000 0.000000 sr} bdef
/c1 { 1.000000 1.000000 1.000000 sr} bdef
/c2 { 0.900000 0.000000 0.000000 sr} bdef
/c3 { 0.000000 0.820000 0.000000 sr} bdef
/c4 { 0.000000 0.000000 0.800000 sr} bdef
/c5 { 0.910000 0.820000 0.320000 sr} bdef
/c6 { 1.000000 0.260000 0.820000 sr} bdef
/c7 { 0.000000 0.820000 0.820000 sr} bdef
c0
1 j
1 sg
   0    0 5651 5651 rf
12.5 w
0 3955 4237 0 0 -3955 848 4520 4 MP
PP
-4237 0 0 3955 4237 0 0 -3955 848 4520 5 MP stroke
8.33333 w
DO
SO
12.5 w
0.1 sg
 848 4520 mt 5085 4520 L
 848  565 mt 5085  565 L
 848 4520 mt  848  565 L
5085 4520 mt 5085  565 L
 848 4520 mt 5085 4520 L
 848 4520 mt  848  565 L
 848 4520 mt  848 4488 L
 848  565 mt  848  596 L
 848 4520 mt  848 4456 L
 848  565 mt  848  628 L
%%IncludeResource: font Helvetica
/Helvetica /ISOLatin1Encoding 133.333 FMSR

 750 4708 mt 
(10) s
%%IncludeResource: font Helvetica
/Helvetica /ISOLatin1Encoding 88.8889 FMSR

 898 4626 mt 
(0) s
1461 4520 mt 1461 4488 L
1461  565 mt 1461  596 L
1820 4520 mt 1820 4488 L
1820  565 mt 1820  596 L
2074 4520 mt 2074 4488 L
2074  565 mt 2074  596 L
2272 4520 mt 2272 4488 L
2272  565 mt 2272  596 L
2433 4520 mt 2433 4488 L
2433  565 mt 2433  596 L
2570 4520 mt 2570 4488 L
2570  565 mt 2570  596 L
2688 4520 mt 2688 4488 L
2688  565 mt 2688  596 L
2792 4520 mt 2792 4488 L
2792  565 mt 2792  596 L
2885 4520 mt 2885 4488 L
2885  565 mt 2885  596 L
2885 4520 mt 2885 4456 L
2885  565 mt 2885  628 L
%%IncludeResource: font Helvetica
/Helvetica /ISOLatin1Encoding 133.333 FMSR

2787 4708 mt 
(10) s
%%IncludeResource: font Helvetica
/Helvetica /ISOLatin1Encoding 88.8889 FMSR

2935 4626 mt 
(1) s
3499 4520 mt 3499 4488 L
3499  565 mt 3499  596 L
3858 4520 mt 3858 4488 L
3858  565 mt 3858  596 L
4112 4520 mt 4112 4488 L
4112  565 mt 4112  596 L
4310 4520 mt 4310 4488 L
4310  565 mt 4310  596 L
4471 4520 mt 4471 4488 L
4471  565 mt 4471  596 L
4607 4520 mt 4607 4488 L
4607  565 mt 4607  596 L
4726 4520 mt 4726 4488 L
4726  565 mt 4726  596 L
4830 4520 mt 4830 4488 L
4830  565 mt 4830  596 L
4923 4520 mt 4923 4488 L
4923  565 mt 4923  596 L
4923 4520 mt 4923 4456 L
4923  565 mt 4923  628 L
%%IncludeResource: font Helvetica
/Helvetica /ISOLatin1Encoding 133.333 FMSR

4825 4708 mt 
(10) s
%%IncludeResource: font Helvetica
/Helvetica /ISOLatin1Encoding 88.8889 FMSR

4973 4626 mt 
(2) s
 848 4520 mt  911 4520 L
5085 4520 mt 5021 4520 L
%%IncludeResource: font Helvetica
/Helvetica /ISOLatin1Encoding 133.333 FMSR

 528 4569 mt 
(1700) s
 848 4160 mt  911 4160 L
5085 4160 mt 5021 4160 L
 528 4209 mt 
(1800) s
 848 3800 mt  911 3800 L
5085 3800 mt 5021 3800 L
 528 3849 mt 
(1900) s
 848 3441 mt  911 3441 L
5085 3441 mt 5021 3441 L
 528 3490 mt 
(2000) s
 848 3081 mt  911 3081 L
5085 3081 mt 5021 3081 L
 528 3130 mt 
(2100) s
 848 2722 mt  911 2722 L
5085 2722 mt 5021 2722 L
 528 2771 mt 
(2200) s
 848 2362 mt  911 2362 L
5085 2362 mt 5021 2362 L
 528 2411 mt 
(2300) s
 848 2003 mt  911 2003 L
5085 2003 mt 5021 2003 L
 528 2052 mt 
(2400) s
 848 1643 mt  911 1643 L
5085 1643 mt 5021 1643 L
 528 1692 mt 
(2500) s
 848 1284 mt  911 1284 L
5085 1284 mt 5021 1284 L
 528 1333 mt 
(2600) s
 848  924 mt  911  924 L
5085  924 mt 5021  924 L
 528  973 mt 
(2700) s
 848  565 mt  911  565 L
5085  565 mt 5021  565 L
 528  614 mt 
(2800) s
 848 4520 mt 5085 4520 L
 848  565 mt 5085  565 L
 848 4520 mt  848  565 L
5085 4520 mt 5085  565 L
gs 848 565 4238 3956 rc
16.6667 w
0 sg
-26 0 -177 4 -162 4 -151 3 -141 4 -135 4 -130 4 -124 3 
-118 4 -111 4 -103 4 -95 3 -91 4 -85 4 -79 4 -79 3 
-77 4 -73 4 -71 4 -70 3 -67 4 -63 4 -61 4 -58 3 
-57 4 -56 4 -57 4 -56 4 -57 3 -56 4 -55 4 -55 4 
-54 4 -52 3 -53 4 -52 4 -52 4 -55 4 -61 4 -73 3 
-95 4 -228 4 -173 4 -136 4 -106 -10 -78 -9 6 -10 6 -10 
5 -9 7 -10 5 -9 6 -10 6 -9 7 -9 6 -10 6 -9 
7 -10 7 -9 6 -9 6 -10 7 -9 6 -9 7 -9 7 -10 
7 -9 6 -9 6 -9 6 -9 7 -10 6 -9 6 -9 7 -9 
6 -9 6 -9 7 -9 6 -9 7 -9 7 -9 7 -9 7 -9 
7 -9 7 -9 7 -9 7 -9 7 -9 7 -9 8 -9 7 -8 
7 -9 7 -9 7 -9 6 -9 7 -8 7 -9 8 -9 6 -9 
7 -8 7 -9 7 -9 7 -8 7 -9 6 -9 7 -8 7 -9 
8 -8 6 -9 7 -8 7 -9 7 -8 6 -9 8 -8 7 -9 
7 -8 7 -9 7 -8 7 -9 8 -8 7 -8 8 -9 7 -8 
8 -8 7 -9 7 -8 7 -8 6 -8 7 -9 6 -8 7 -8 
6 -8 7 -9 6 -8 8 -8 7 -8 7 -8 8 -8 7 -8 
7 -8 8 -9 8 -8 7 -8 8 -8 8 -8 7 -8 7 -8 
7 -8 8 -8 6 -8 8 -8 8 -7 8 -8 7 -8 7 -8 
8 -8 8 -8 7 -8 8 -8 8 -7 9 -8 8 -8 9 -8 
8 -7 8 -8 8 -8 8 -8 7 -7 8 -8 8 -8 7 -7 
7 -8 7 -8 8 -7 8 -8 8 -7 7 -8 8 -8 8 -7 
7 -8 9 -7 8 -8 7 -7 8 -8 7 -7 7 -8 8 -7 
7 -8 7 -7 9 -7 8 -8 7 -7 8 -8 8 -7 6 -7 
8 -8 8 -7 9 -7 8 -8 7 -7 9 -7 8 -8 8 -7 
9 -7 8 -7 8 -7 8 -8 9 -7 7 -7 7 -7 8 -7 
8 -8 6 -7 8 -7 8 -7 8 -7 8 -7 9 -7 8 -7 
8 -7 9 -7 9 -7 8 -7 8 -7 8 -7 7 -7 7 -7 
8 -7 8 -7 8 -7 8 -7 10 -7 8 -7 9 -7 9 -7 
8 -7 7 -6 9 -7 8 -7 8 -7 9 -7 9 -7 8 -6 
8 -7 8 -7 8 -7 9 -7 7 -6 8 -7 8 -7 8 -6 
8 -7 8 -7 9 -6 8 -7 8 -7 7 -6 7 -7 6 -7 
8 -6 8 -7 8 -6 8 -7 8 -7 8 -6 8 -7 9 -6 
9 -7 8 -6 8 -7 10 -6 8 -7 9 -6 9 -7 10 -6 
8 -7 9 -6 10 -6 8 -7 8 -6 7 -7 6 -6 7 -6 
7 -7 9 -6 9 -6 10 -7 9 -6 10 -6 9 -7 10 -6 
10 -6 9 -7 9 -6 9 -6 10 -6 9 -7 9 -6 8 -6 
8 -6 9 -6 9 -7 2989 2649 300 MP stroke
10 -6 11 -6 9 -6 10 -6 8 -6 8 -7 9 -6 10 -6 
9 -6 10 -6 9 -6 9 -6 8 -6 8 -6 7 -6 8 -6 
7 -6 8 -6 8 -6 8 -6 8 -6 6 -6 7 -6 8 -6 
8 -6 7 -6 9 -6 9 -6 7 -6 8 -6 9 -6 8 -6 
7 -6 9 -5 12 -6 6 -6 9 -6 9 -6 8 -6 5 -5 
9 -6 9 -6 10 -6 9 -6 8 -5 8 -6 7 -6 6 -6 
10 -5 10 -6 10 -6 8 -6 9 -5 9 -6 9 -6 9 -5 
11 -6 9 -6 10 -5 8 -6 7 -6 10 -5 9 -6 10 -6 
11 -5 12 -6 9 -5 10 -6 8 -6 7 -5 6 -6 7 -5 
8 -6 8 -5 10 -6 9 -5 10 -6 10 -5 9 -6 8 -5 
9 -6 8 -5 6 -6 7 -5 8 -6 9 -5 12 -6 10 -5 
10 -5 8 -6 6 -5 4 -6 3 -5 3 -5 3 -6 5 -5 
6 -5 7 -6 8 -5 11 -5 9 -6 9 -5 9 -5 9 -6 
5 -5 4 -5 6 -6 8 -5 8 -5 10 -5 11 -6 10 -5 
8 -5 8 -5 8 -5 5 -6 5 -5 7 -5 6 -5 7 -5 
12 -6 11 -5 12 -5 11 -5 11 -5 7 -5 7 -5 6 -6 
8 -5 7 -5 9 -5 9 -5 10 -5 8 -5 11 -5 11 -5 
11 -5 13 -5 12 -5 11 -5 11 -6 11 -5 12 -5 9 -5 
10 -5 7 -5 5 -5 3 -5 3 -4 1 -5 3 -5 6 -5 
9 -5 7 -5 10 -5 7 -5 7 -5 9 -5 14 -5 11 -5 
15 -5 15 -4 12 -5 10 -5 11 -5 9 -5 9 -5 9 -5 
9 -4 8 -5 9 -5 11 -5 11 -5 12 -5 10 -4 8 -5 
7 -5 5 -5 7 -5 9 -4 11 -5 11 -5 11 -5 11 -4 
11 -5 10 -5 10 -4 13 -5 13 -5 11 -5 11 -4 9 -5 
8 -5 6 -4 10 -5 12 -5 12 -4 10 -5 11 -5 9 -4 
6 -5 9 -5 13 -4 11 -5 11 -4 10 -5 10 -5 9 -4 
13 -5 17 -4 18 -5 13 -4 10 -5 9 -5 3 -4 0 -5 
5 -4 4 -5 4 -4 7 -5 10 -4 12 -5 11 -4 10 -5 
10 -4 13 -5 10 -4 11 -5 11 -4 13 -5 12 -4 14 -4 
17 -5 18 -4 16 -5 15 -4 14 -5 848 3887 238 MP stroke
gr

16.6667 w
0 sg
0.1 sg
%%IncludeResource: font Helvetica-Bold
/Helvetica-Bold /ISOLatin1Encoding 183.333 FMSR

2244 4882 mt 
(Log Stress [kPa]) s
 448 3473 mt  -90 rotate
(Bulk Density [kgm) s
90 rotate
%%IncludeResource: font Helvetica-Bold
/Helvetica-Bold /ISOLatin1Encoding 141.667 FMSR

 357 1874 mt  -90 rotate
(-) s
90 rotate
 357 1792 mt  -90 rotate
(3) s
90 rotate
%%IncludeResource: font Helvetica-Bold
/Helvetica-Bold /ISOLatin1Encoding 183.333 FMSR

 448 1714 mt  -90 rotate
( ]) s
90 rotate
gs 848 565 4238 3956 rc
/c8 { 1.000000 0.000000 0.000000 sr} bdef
c8
-91 2 -164 4 -140 3 -126 4 -119 3 -117 4 -115 4 -109 3 
-101 4 -90 3 -84 4 -80 3 -79 4 -80 4 -79 3 -78 4 
-75 4 -74 3 -75 4 -71 3 -69 4 -66 4 -64 3 -60 4 
-59 4 -58 3 -56 4 -53 3 -52 4 -50 4 -49 3 -48 4 
-48 4 -46 3 -46 4 -45 4 -46 3 -45 4 -45 4 -44 3 
-46 4 -48 4 -51 3 -57 4 -70 4 -93 3 -222 4 -170 4 
-132 4 -105 -10 -76 -9 6 -9 6 -9 6 -9 6 -10 5 -9 
6 -9 6 -9 6 -9 6 -9 6 -9 6 -9 7 -9 6 -9 
6 -9 7 -9 6 -9 7 -9 6 -9 7 -9 7 -9 6 -9 
7 -9 6 -8 7 -9 6 -9 5 -9 6 -9 7 -8 5 -9 
7 -9 7 -9 7 -8 7 -9 7 -9 7 -8 6 -9 6 -9 
7 -8 6 -9 6 -8 7 -9 6 -8 6 -9 7 -8 6 -9 
6 -8 6 -9 7 -8 6 -9 6 -8 7 -9 7 -8 6 -8 
7 -9 7 -8 6 -8 6 -9 6 -8 7 -8 7 -8 5 -9 
7 -8 6 -8 5 -8 6 -9 7 -8 5 -8 7 -8 7 -8 
6 -8 7 -8 7 -8 7 -9 6 -8 6 -8 7 -8 6 -8 
6 -8 7 -8 7 -8 7 -8 7 -8 7 -8 7 -7 7 -8 
6 -8 7 -8 6 -8 6 -8 6 -8 7 -8 5 -7 7 -8 
7 -8 7 -8 6 -7 7 -8 6 -8 7 -8 6 -7 7 -8 
7 -8 6 -7 7 -8 8 -8 7 -7 7 -8 8 -7 7 -8 
7 -8 7 -7 7 -8 7 -7 7 -8 7 -7 7 -8 7 -7 
7 -8 7 -7 6 -8 7 -7 8 -7 8 -8 8 -7 7 -8 
7 -7 7 -7 7 -8 7 -7 7 -7 7 -8 6 -7 7 -7 
6 -8 8 -7 7 -7 7 -7 6 -7 7 -8 7 -7 7 -7 
6 -7 8 -7 7 -8 6 -7 7 -7 7 -7 7 -7 6 -7 
7 -7 8 -7 7 -7 7 -7 8 -7 7 -7 7 -7 7 -7 
6 -7 8 -7 6 -7 7 -7 6 -7 7 -7 6 -7 6 -7 
7 -7 7 -7 8 -7 6 -7 6 -6 8 -7 6 -7 7 -7 
8 -7 8 -6 7 -7 7 -7 7 -7 7 -6 7 -7 8 -7 
8 -7 8 -6 8 -7 7 -7 8 -6 8 -7 8 -7 7 -6 
8 -7 7 -7 7 -6 7 -7 8 -6 8 -7 8 -7 7 -6 
7 -7 6 -6 7 -7 7 -6 7 -7 7 -6 7 -7 7 -6 
6 -7 7 -6 8 -7 7 -6 8 -6 8 -7 7 -6 8 -7 
7 -6 6 -6 8 -7 7 -6 7 -6 7 -7 8 -6 9 -6 
6 -7 8 -6 6 -6 7 -7 5 -6 6 -6 6 -6 7 -7 
7 -6 7 -6 7 -6 6 -6 6 -7 5 -6 6 -6 5 -6 
7 -6 7 -6 7 -7 8 -6 8 -6 7 -6 7 -6 7 -6 
6 -6 5 -6 7 -6 3238 2734 300 MP stroke
6 -6 8 -6 8 -6 7 -6 7 -6 5 -6 6 -6 6 -6 
8 -6 8 -6 8 -6 8 -6 8 -6 8 -6 8 -6 9 -6 
9 -6 8 -6 7 -6 7 -5 4 -6 7 -6 9 -6 7 -6 
6 -6 6 -5 6 -6 6 -6 8 -6 10 -6 9 -5 9 -6 
8 -6 10 -6 7 -5 9 -6 8 -6 9 -6 7 -5 7 -6 
7 -6 6 -5 6 -6 7 -6 9 -5 10 -6 8 -6 9 -5 
9 -6 7 -6 6 -5 7 -6 7 -5 6 -6 8 -6 9 -5 
7 -6 9 -5 8 -6 8 -5 7 -6 8 -5 7 -6 8 -5 
9 -6 9 -5 9 -6 6 -5 7 -6 6 -5 7 -6 8 -5 
8 -6 9 -5 7 -5 5 -6 4 -5 6 -6 6 -5 7 -5 
10 -6 11 -5 10 -5 9 -6 8 -5 7 -5 6 -6 5 -5 
7 -5 7 -6 10 -5 8 -5 9 -6 9 -5 7 -5 4 -5 
7 -6 8 -5 6 -5 8 -5 10 -5 8 -6 8 -5 7 -5 
7 -5 7 -5 7 -6 7 -5 6 -5 6 -5 5 -5 5 -5 
9 -5 10 -6 11 -5 12 -5 11 -5 9 -5 8 -5 7 -5 
6 -5 6 -5 6 -5 7 -5 6 -5 6 -5 5 -6 5 -5 
1 -5 2 -5 4 -5 6 -5 7 -5 9 -5 9 -4 9 -5 
6 -5 7 -5 8 -5 6 -5 5 -5 6 -5 6 -5 9 -5 
11 -5 11 -5 14 -5 10 -4 8 -5 6 -5 5 -5 5 -5 
8 -5 13 -5 12 -5 11 -4 10 -5 9 -5 5 -5 6 -5 
7 -4 6 -5 9 -5 7 -5 11 -5 10 -4 10 -5 10 -5 
13 -5 11 -4 11 -5 10 -5 9 -4 8 -5 9 -5 8 -5 
8 -4 7 -5 5 -5 8 -4 8 -5 9 -5 12 -4 10 -5 
10 -5 9 -4 8 -5 9 -5 8 -4 7 -5 8 -4 11 -5 
11 -5 12 -4 8 -5 10 -4 6 -5 3 -4 5 -5 9 -5 
7 -4 12 -5 15 -4 14 -5 12 -4 14 -5 13 -4 10 -5 
10 -4 11 -5 10 -4 8 -5 8 -4 10 -5 9 -4 7 -5 
9 -4 12 -4 11 -5 14 -4 14 -5 17 -4 15 -5 13 -4 
13 -4 8 -5 6 -4 5 -5 8 -4 7 -4 10 -5 9 -4 
11 -4 12 -5 11 -4 13 -4 15 -5 14 -4 11 -4 11 -5 
6 -4 2 -4 3 -5 5 -4 8 -4 11 -5 14 -4 14 -4 
10 -4 8 -5 8 -4 10 -4 11 -4 11 -5 7 -4 6 -4 
-1 -4 -1 -5 2 -4 5 -4 5 -4 9 -4 11 -5 11 -4 
12 -4 13 -4 16 -4 16 -5 16 -4 15 -4 15 -4 13 -4 
15 -4 13 -4 10 -5 8 -4 6 -4 1 -4 4 -4 9 -4 
11 -4 11 -4 12 -4 6 -3 848 4144 285 MP stroke
/c9 { 0.000000 0.000000 1.000000 sr} bdef
c9
-37 0 -154 4 -137 4 -128 3 -125 4 -117 3 -111 4 -104 3 
-98 4 -87 3 -83 4 -83 3 -83 4 -81 4 -78 3 -74 4 
-69 3 -64 4 -62 3 -59 4 -61 4 -59 3 -58 4 -58 3 
-58 4 -56 3 -54 4 -52 4 -51 3 -50 4 -48 3 -49 4 
-47 4 -45 3 -45 4 -43 4 -42 3 -41 4 -42 3 -41 4 
-42 4 -44 3 -44 4 -45 4 -45 3 -47 4 -51 4 -57 3 
-69 4 -88 4 -220 3 -169 4 -132 4 -104 -10 -78 -9 5 -9 
5 -9 5 -9 5 -9 5 -9 6 -9 6 -9 6 -9 6 -9 
5 -9 6 -9 5 -9 5 -9 6 -9 6 -9 6 -9 6 -9 
6 -8 6 -9 5 -9 7 -9 5 -9 5 -8 6 -9 5 -9 
5 -9 6 -8 6 -9 6 -9 5 -8 5 -9 6 -9 4 -8 
4 -9 5 -8 4 -9 4 -8 4 -9 5 -8 5 -9 6 -8 
5 -9 5 -8 6 -9 6 -8 5 -9 6 -8 5 -8 6 -9 
5 -8 6 -8 6 -9 6 -8 6 -8 6 -8 6 -9 6 -8 
6 -8 6 -8 6 -9 6 -8 5 -8 6 -8 6 -8 6 -8 
6 -8 6 -8 7 -9 6 -8 6 -8 7 -8 6 -8 6 -8 
5 -8 6 -8 6 -8 5 -8 6 -8 6 -7 7 -8 6 -8 
6 -8 7 -8 6 -8 6 -8 5 -8 5 -7 5 -8 6 -8 
5 -8 5 -7 6 -8 6 -8 6 -8 6 -7 6 -8 6 -8 
6 -7 5 -8 6 -8 6 -7 5 -8 6 -7 6 -8 6 -8 
5 -7 5 -8 6 -7 5 -8 4 -7 6 -8 6 -7 6 -8 
6 -7 7 -8 6 -7 6 -7 6 -8 7 -7 6 -8 5 -7 
6 -7 6 -8 5 -7 5 -7 5 -8 6 -7 5 -7 5 -8 
7 -7 5 -7 6 -7 6 -7 6 -8 5 -7 6 -7 6 -7 
6 -7 6 -8 6 -7 7 -7 6 -7 6 -7 6 -7 6 -7 
7 -7 6 -7 6 -7 6 -7 6 -7 6 -7 6 -7 6 -7 
7 -7 6 -7 6 -7 7 -7 7 -7 6 -7 7 -7 6 -7 
6 -7 7 -7 6 -7 6 -6 5 -7 6 -7 5 -7 5 -7 
4 -6 6 -7 5 -7 6 -7 6 -6 7 -7 6 -7 6 -7 
6 -6 5 -7 4 -7 7 -6 5 -7 4 -7 5 -6 5 -7 
5 -7 6 -6 5 -7 7 -6 7 -7 5 -7 6 -6 7 -7 
6 -6 6 -7 7 -6 6 -7 6 -6 6 -7 6 -6 6 -7 
6 -6 6 -7 6 -6 7 -6 7 -7 6 -6 6 -7 7 -6 
7 -6 6 -7 6 -6 6 -6 6 -7 6 -6 7 -6 7 -7 
7 -6 6 -6 7 -7 5 -6 7 -6 6 -6 7 -7 5 -6 
7 -6 7 -6 6 -6 7 -7 7 -6 6 -6 7 -6 7 -6 
7 -6 7 -7 7 -6 5 -6 6 -6 5 -6 4 -6 4 -6 
6 -6 5 -6 5 -6 3496 2740 300 MP stroke
7 -6 7 -6 6 -6 7 -6 7 -6 6 -6 7 -6 6 -6 
7 -6 5 -6 6 -6 6 -6 8 -6 7 -6 6 -6 7 -6 
8 -6 4 -6 6 -5 6 -6 6 -6 5 -6 6 -6 6 -6 
6 -5 7 -6 7 -6 7 -6 7 -6 7 -5 6 -6 7 -6 
6 -6 6 -5 6 -6 5 -6 5 -6 6 -5 8 -6 7 -6 
6 -5 5 -6 5 -6 3 -5 5 -6 7 -6 7 -5 7 -6 
7 -6 6 -5 7 -6 7 -5 6 -6 8 -6 7 -5 6 -6 
5 -5 7 -6 7 -5 6 -6 6 -5 6 -6 6 -5 6 -6 
6 -5 7 -6 9 -5 7 -6 8 -5 7 -6 7 -5 7 -6 
6 -5 5 -5 6 -6 8 -5 7 -6 7 -5 8 -5 7 -6 
5 -5 5 -5 7 -6 7 -5 9 -5 8 -6 7 -5 7 -5 
6 -6 6 -5 7 -5 8 -6 6 -5 6 -5 6 -5 7 -6 
8 -5 8 -5 8 -5 8 -5 8 -6 8 -5 7 -5 8 -5 
7 -5 5 -6 8 -5 6 -5 7 -5 9 -5 10 -5 8 -5 
8 -6 7 -5 7 -5 5 -5 5 -5 7 -5 7 -5 6 -5 
7 -5 6 -5 7 -5 6 -5 6 -5 8 -6 8 -5 8 -5 
8 -5 8 -5 7 -5 7 -5 5 -5 6 -4 4 -5 5 -5 
5 -5 6 -5 6 -5 6 -5 7 -5 8 -5 8 -5 8 -5 
10 -5 9 -5 8 -4 8 -5 7 -5 8 -5 8 -5 8 -5 
8 -5 8 -5 7 -4 9 -5 8 -5 8 -5 7 -5 9 -4 
8 -5 10 -5 8 -5 9 -5 9 -4 10 -5 11 -5 13 -5 
11 -4 8 -5 5 -5 6 -4 7 -5 10 -5 11 -5 10 -4 
5 -5 6 -5 7 -4 7 -5 7 -5 12 -4 9 -5 5 -5 
4 -4 6 -5 6 -5 5 -4 8 -5 10 -4 10 -5 8 -5 
7 -4 6 -5 4 -4 4 -5 5 -4 9 -5 8 -5 7 -4 
9 -5 9 -4 6 -5 8 -4 10 -5 9 -4 7 -5 11 -4 
10 -5 10 -4 6 -5 6 -4 3 -5 4 -4 5 -5 8 -4 
13 -4 13 -5 13 -4 9 -5 13 -4 9 -5 8 -4 10 -4 
9 -5 7 -4 5 -5 4 -4 4 -4 7 -5 8 -4 11 -4 
11 -5 12 -4 13 -4 13 -5 11 -4 10 -4 6 -5 5 -4 
6 -4 6 -5 9 -4 12 -4 11 -5 7 -4 3 -4 6 -4 
7 -5 7 -4 12 -4 16 -4 13 -5 12 -4 14 -4 8 -4 
8 -5 10 -4 12 -4 10 -4 13 -4 12 -5 12 -4 9 -4 
11 -4 12 -4 11 -5 13 -4 16 -4 11 -4 9 -4 8 -4 
10 -4 7 -5 10 -4 14 -4 16 -4 15 -4 15 -4 13 -4 
9 -4 7 -4 6 -4 6 -5 9 -4 12 -4 14 -4 11 -4 
10 -4 9 -4 8 -4 7 -4 11 -4 12 -4 13 -4 12 -4 
15 -4 15 -4 15 -4 1126 4210 300 MP stroke
9 -4 10 -4 6 -4 3 -4 6 -4 10 -4 10 -4 11 -4 
15 -4 16 -4 20 -4 20 -4 20 -4 17 -4 16 -4 11 -4 
13 -3 14 -4 15 -4 16 -4 15 -4 5 -2 848 4295 23 MP stroke
/c10 { 1.000000 0.000000 1.000000 sr} bdef
c10
-107 3 -136 3 -129 4 -116 3 -96 4 -86 3 -75 3 -69 4 
-66 3 -70 4 -81 3 -84 3 -80 4 -79 3 -75 4 -68 3 
-62 4 -62 3 -60 3 -60 4 -57 3 -57 4 -55 3 -54 4 
-50 3 -49 4 -48 3 -46 4 -45 3 -44 4 -44 3 -42 3 
-42 4 -40 3 -39 4 -38 3 -38 4 -39 3 -40 4 -39 3 
-40 4 -38 3 -36 4 -38 3 -38 4 -37 3 -39 4 -40 3 
-40 4 -42 3 -46 4 -49 3 -54 4 -62 4 -75 3 -98 4 
-232 3 -176 4 -136 3 -107 -9 -78 -8 6 -9 6 -9 6 -9 
6 -9 6 -8 6 -9 5 -9 6 -9 6 -8 5 -9 6 -9 
6 -8 5 -9 5 -9 6 -8 5 -9 5 -8 6 -9 5 -8 
6 -9 6 -8 4 -9 4 -8 4 -9 3 -8 4 -9 5 -8 
5 -9 5 -8 5 -8 5 -9 5 -8 6 -8 5 -9 5 -8 
5 -8 6 -8 5 -9 6 -8 5 -8 6 -8 5 -9 5 -8 
6 -8 5 -8 5 -8 5 -8 5 -8 5 -8 6 -9 5 -8 
6 -8 6 -8 5 -8 6 -8 5 -8 5 -8 6 -8 6 -8 
5 -8 6 -7 5 -8 5 -8 5 -8 4 -8 5 -8 5 -8 
4 -8 5 -7 5 -8 6 -8 5 -8 6 -7 6 -8 6 -8 
6 -8 6 -7 5 -8 5 -8 5 -7 5 -8 5 -8 5 -7 
6 -8 7 -7 6 -8 5 -8 5 -7 6 -8 6 -7 4 -8 
6 -7 6 -8 5 -7 5 -8 6 -7 6 -8 6 -7 5 -7 
6 -8 5 -7 5 -8 6 -7 5 -7 6 -8 5 -7 6 -7 
6 -8 5 -7 7 -7 5 -8 6 -7 5 -7 5 -7 6 -7 
6 -8 5 -7 6 -7 6 -7 6 -7 6 -8 6 -7 6 -7 
7 -7 5 -7 6 -7 6 -7 6 -7 6 -7 5 -7 6 -7 
6 -7 5 -7 5 -7 5 -7 6 -7 5 -7 6 -7 6 -7 
6 -7 6 -7 6 -7 5 -7 6 -7 6 -7 5 -7 7 -6 
7 -7 6 -7 6 -7 6 -7 5 -6 4 -7 5 -7 6 -7 
6 -6 5 -7 6 -7 7 -7 6 -6 5 -7 6 -7 7 -6 
6 -7 5 -7 6 -6 7 -7 6 -7 6 -6 6 -7 6 -6 
6 -7 5 -7 6 -6 7 -7 6 -6 6 -7 7 -6 6 -7 
7 -6 6 -7 7 -6 7 -7 6 -6 7 -7 7 -6 6 -6 
6 -7 6 -6 7 -7 6 -6 6 -6 7 -7 7 -6 6 -6 
7 -7 6 -6 5 -6 6 -7 7 -6 6 -6 6 -7 7 -6 
7 -6 5 -6 6 -7 7 -6 6 -6 6 -6 7 -6 7 -7 
5 -6 6 -6 7 -6 6 -6 5 -6 7 -7 6 -6 6 -6 
7 -6 6 -6 5 -6 6 -6 5 -6 5 -6 6 -6 7 -6 
8 -6 7 -6 7 -6 7 -6 5 -6 5 -6 8 -6 6 -6 
7 -6 7 -6 6 -6 3550 2812 300 MP stroke
5 -6 6 -6 7 -6 7 -6 7 -6 6 -6 7 -5 7 -6 
5 -6 6 -6 7 -6 6 -6 6 -5 6 -6 7 -6 6 -6 
5 -6 6 -5 5 -6 5 -6 5 -6 6 -5 5 -6 6 -6 
6 -6 6 -5 8 -6 7 -6 7 -5 8 -6 8 -6 7 -5 
5 -6 7 -6 5 -5 6 -6 6 -6 7 -5 7 -6 6 -5 
6 -6 6 -6 7 -5 5 -6 5 -5 6 -6 3 -5 5 -6 
8 -5 7 -6 6 -5 7 -6 8 -5 6 -6 4 -5 7 -6 
7 -5 4 -6 5 -5 6 -6 6 -5 5 -5 6 -6 6 -5 
7 -6 7 -5 7 -5 5 -6 7 -5 6 -5 4 -6 5 -5 
6 -5 6 -6 5 -5 5 -5 6 -6 5 -5 7 -5 7 -6 
8 -5 7 -5 7 -5 6 -6 8 -5 7 -5 9 -5 7 -5 
8 -6 5 -5 6 -5 4 -5 7 -5 7 -6 8 -5 9 -5 
7 -5 7 -5 7 -5 7 -5 7 -6 8 -5 6 -5 7 -5 
6 -5 7 -5 8 -5 8 -5 8 -5 8 -5 8 -5 8 -5 
8 -5 7 -6 8 -5 7 -5 6 -5 9 -5 8 -5 6 -5 
4 -5 5 -4 3 -5 5 -5 6 -5 8 -5 7 -5 6 -5 
7 -5 7 -5 8 -5 9 -5 10 -5 9 -5 9 -4 8 -5 
7 -5 7 -5 8 -5 7 -5 6 -5 9 -5 4 -4 4 -5 
6 -5 8 -5 6 -5 10 -4 10 -5 9 -5 7 -5 8 -5 
8 -4 6 -5 7 -5 11 -5 9 -4 7 -5 8 -5 5 -4 
3 -5 4 -5 7 -5 8 -4 10 -5 10 -5 10 -4 9 -5 
11 -5 9 -4 9 -5 7 -5 7 -4 8 -5 9 -5 8 -4 
8 -5 7 -4 7 -5 7 -5 7 -4 9 -5 10 -4 10 -5 
10 -4 8 -5 8 -5 8 -4 10 -5 10 -4 11 -5 12 -4 
11 -5 9 -4 10 -5 8 -4 7 -5 8 -4 6 -5 8 -4 
8 -5 7 -4 9 -5 8 -4 9 -4 10 -5 10 -4 7 -5 
7 -4 6 -5 7 -4 10 -4 11 -5 12 -4 11 -5 13 -4 
10 -4 10 -5 9 -4 8 -4 6 -5 5 -4 6 -4 7 -5 
10 -4 12 -4 17 -5 15 -4 11 -4 7 -5 7 -4 4 -4 
6 -5 7 -4 10 -4 9 -4 9 -5 8 -4 8 -4 8 -4 
7 -5 7 -4 8 -4 11 -4 11 -5 12 -4 10 -4 13 -4 
11 -4 14 -5 13 -4 13 -4 11 -4 9 -4 9 -5 9 -4 
10 -4 11 -4 12 -4 13 -4 10 -4 11 -5 7 -4 9 -4 
7 -4 10 -4 7 -4 8 -4 6 -4 8 -4 7 -4 10 -5 
12 -4 16 -4 14 -4 15 -4 18 -4 15 -4 15 -4 14 -4 
10 -4 9 -4 8 -4 7 -4 10 -4 10 -4 8 -4 8 -4 
9 -4 9 -4 10 -4 14 -4 14 -4 11 -4 12 -4 14 -4 
12 -4 14 -4 13 -4 1160 4258 300 MP stroke
16 -4 15 -4 17 -4 15 -4 16 -3 14 -4 16 -4 14 -4 
16 -4 16 -4 18 -4 14 -4 13 -4 13 -3 13 -4 8 -4 
10 -4 15 -4 17 -4 14 -4 19 -3 3 -1 848 4340 23 MP stroke
gr

c10
0 sg
%%IncludeResource: font Helvetica
/Helvetica /ISOLatin1Encoding 166.667 FMSR

 818 4587 mt 
( ) s
5056  631 mt 
( ) s
12.5 w
%%IncludeResource: font Symbol
/Symbol /ISOLatin1Encoding 125 FMSR

4091 3563 mt 
(D) s
%%IncludeResource: font Helvetica-Bold
/Helvetica-Bold /ISOLatin1Encoding 125 FMSR

4167 3563 mt 
( ) s
%%IncludeResource: font Symbol
/Symbol /ISOLatin1Encoding 125 FMSR

4201 3563 mt 
(g) s
%%IncludeResource: font Helvetica-Bold
/Helvetica-Bold /ISOLatin1Encoding 125 FMSR

4252 3563 mt 
( = 8 J/m) s
%%IncludeResource: font Helvetica-Bold
/Helvetica-Bold /ISOLatin1Encoding 100 FMSR

4714 3501 mt 
(2) s
gs 3766 3386 1226 951 rc
16.6667 w
250 0 3815 3515 2 MP stroke
gr

16.6667 w
%%IncludeResource: font Symbol
/Symbol /ISOLatin1Encoding 125 FMSR

4091 3793 mt 
(D) s
%%IncludeResource: font Helvetica-Bold
/Helvetica-Bold /ISOLatin1Encoding 125 FMSR

4167 3793 mt 
( ) s
%%IncludeResource: font Symbol
/Symbol /ISOLatin1Encoding 125 FMSR

4201 3793 mt 
(g) s
%%IncludeResource: font Helvetica-Bold
/Helvetica-Bold /ISOLatin1Encoding 125 FMSR

4252 3793 mt 
( = 12.5 J/m) s
%%IncludeResource: font Helvetica-Bold
/Helvetica-Bold /ISOLatin1Encoding 100 FMSR

4887 3731 mt 
(2) s
gs 3766 3386 1226 951 rc
c8
250 0 3815 3745 2 MP stroke
gr

c8
0 sg
%%IncludeResource: font Symbol
/Symbol /ISOLatin1Encoding 125 FMSR

4091 4024 mt 
(D) s
%%IncludeResource: font Helvetica-Bold
/Helvetica-Bold /ISOLatin1Encoding 125 FMSR

4167 4024 mt 
( ) s
%%IncludeResource: font Symbol
/Symbol /ISOLatin1Encoding 125 FMSR

4201 4024 mt 
(g) s
%%IncludeResource: font Helvetica-Bold
/Helvetica-Bold /ISOLatin1Encoding 125 FMSR

4252 4024 mt 
( = 18.5 J/m) s
%%IncludeResource: font Helvetica-Bold
/Helvetica-Bold /ISOLatin1Encoding 100 FMSR

4887 3962 mt 
(2) s
gs 3766 3386 1226 951 rc
c9
250 0 3815 3976 2 MP stroke
gr

c9
0 sg
%%IncludeResource: font Symbol
/Symbol /ISOLatin1Encoding 125 FMSR

4091 4254 mt 
(D) s
%%IncludeResource: font Helvetica-Bold
/Helvetica-Bold /ISOLatin1Encoding 125 FMSR

4167 4254 mt 
( ) s
%%IncludeResource: font Symbol
/Symbol /ISOLatin1Encoding 125 FMSR

4201 4254 mt 
(g) s
%%IncludeResource: font Helvetica-Bold
/Helvetica-Bold /ISOLatin1Encoding 125 FMSR

4252 4254 mt 
( = 23.5 J/m) s
%%IncludeResource: font Helvetica-Bold
/Helvetica-Bold /ISOLatin1Encoding 100 FMSR

4887 4192 mt 
(2) s
gs 3766 3386 1226 951 rc
c10
250 0 3815 4206 2 MP stroke
12.5 w
gr

12.5 w
c10

end %%Color Dict

eplot
%%EndObject

epage
end

showpage

%%Trailer
%%EOF
