%!PS-Adobe-3.0 EPSF-3.0
%%Creator: MATLAB, The MathWorks, Inc. Version 7.12.0.635 (R2011a). Operating System: Linux 2.6.32-358.6.2.el6.x86_64 #1 SMP Thu May 16 11:21:38 CDT 2013 x86_64.
%%Title: ./ConfinedPorosity_SE_100kPa.eps
%%CreationDate: 08/15/2013  13:57:01
%%DocumentNeededFonts: Helvetica-Bold
%%+ Helvetica
%%DocumentProcessColors: Cyan Magenta Yellow Black
%%LanguageLevel: 2
%%Pages: 1
%%BoundingBox:    16    64   599   605
%%EndComments

%%BeginProlog
% MathWorks dictionary
/MathWorks 160 dict begin
% definition operators
/bdef {bind def} bind def
/ldef {load def} bind def
/xdef {exch def} bdef
/xstore {exch store} bdef
% operator abbreviations
/c  /clip ldef
/cc /concat ldef
/cp /closepath ldef
/gr /grestore ldef
/gs /gsave ldef
/mt /moveto ldef
/np /newpath ldef
/cm /currentmatrix ldef
/sm /setmatrix ldef
/rm /rmoveto ldef
/rl /rlineto ldef
/s {show newpath} bdef
/sc {setcmykcolor} bdef
/sr /setrgbcolor ldef
/sg /setgray ldef
/w /setlinewidth ldef
/j /setlinejoin ldef
/cap /setlinecap ldef
/rc {rectclip} bdef
/rf {rectfill} bdef
% page state control
/pgsv () def
/bpage {/pgsv save def} bdef
/epage {pgsv restore} bdef
/bplot /gsave ldef
/eplot {stroke grestore} bdef
% orientation switch
/portraitMode 0 def /landscapeMode 1 def /rotateMode 2 def
% coordinate system mappings
/dpi2point 0 def
% font control
/FontSize 0 def
/FMS {/FontSize xstore findfont [FontSize 0 0 FontSize neg 0 0]
  makefont setfont} bdef
/reencode {exch dup where {pop load} {pop StandardEncoding} ifelse
  exch dup 3 1 roll findfont dup length dict begin
  { 1 index /FID ne {def}{pop pop} ifelse } forall
  /Encoding exch def currentdict end definefont pop} bdef
/isroman {findfont /CharStrings get /Agrave known} bdef
/FMSR {3 1 roll 1 index dup isroman {reencode} {pop pop} ifelse
  exch FMS} bdef
/csm {1 dpi2point div -1 dpi2point div scale neg translate
 dup landscapeMode eq {pop -90 rotate}
  {rotateMode eq {90 rotate} if} ifelse} bdef
% line types: solid, dotted, dashed, dotdash
/SO { [] 0 setdash } bdef
/DO { [.5 dpi2point mul 4 dpi2point mul] 0 setdash } bdef
/DA { [6 dpi2point mul] 0 setdash } bdef
/DD { [.5 dpi2point mul 4 dpi2point mul 6 dpi2point mul 4
  dpi2point mul] 0 setdash } bdef
% macros for lines and objects
/L {lineto stroke} bdef
/MP {3 1 roll moveto 1 sub {rlineto} repeat} bdef
/AP {{rlineto} repeat} bdef
/PDlw -1 def
/W {/PDlw currentlinewidth def setlinewidth} def
/PP {closepath eofill} bdef
/DP {closepath stroke} bdef
/MR {4 -2 roll moveto dup  0 exch rlineto exch 0 rlineto
  neg 0 exch rlineto closepath} bdef
/FR {MR stroke} bdef
/PR {MR fill} bdef
/L1i {{currentfile picstr readhexstring pop} image} bdef
/tMatrix matrix def
/MakeOval {newpath tMatrix currentmatrix pop translate scale
0 0 1 0 360 arc tMatrix setmatrix} bdef
/FO {MakeOval stroke} bdef
/PO {MakeOval fill} bdef
/PD {currentlinewidth 2 div 0 360 arc fill
   PDlw -1 eq not {PDlw w /PDlw -1 def} if} def
/FA {newpath tMatrix currentmatrix pop translate scale
  0 0 1 5 -2 roll arc tMatrix setmatrix stroke} bdef
/PA {newpath tMatrix currentmatrix pop	translate 0 0 moveto scale
  0 0 1 5 -2 roll arc closepath tMatrix setmatrix fill} bdef
/FAn {newpath tMatrix currentmatrix pop translate scale
  0 0 1 5 -2 roll arcn tMatrix setmatrix stroke} bdef
/PAn {newpath tMatrix currentmatrix pop translate 0 0 moveto scale
  0 0 1 5 -2 roll arcn closepath tMatrix setmatrix fill} bdef
/vradius 0 def /hradius 0 def /lry 0 def
/lrx 0 def /uly 0 def /ulx 0 def /rad 0 def
/MRR {/vradius xdef /hradius xdef /lry xdef /lrx xdef /uly xdef
  /ulx xdef newpath tMatrix currentmatrix pop ulx hradius add uly
  vradius add translate hradius vradius scale 0 0 1 180 270 arc 
  tMatrix setmatrix lrx hradius sub uly vradius add translate
  hradius vradius scale 0 0 1 270 360 arc tMatrix setmatrix
  lrx hradius sub lry vradius sub translate hradius vradius scale
  0 0 1 0 90 arc tMatrix setmatrix ulx hradius add lry vradius sub
  translate hradius vradius scale 0 0 1 90 180 arc tMatrix setmatrix
  closepath} bdef
/FRR {MRR stroke } bdef
/PRR {MRR fill } bdef
/MlrRR {/lry xdef /lrx xdef /uly xdef /ulx xdef /rad lry uly sub 2 div def
  newpath tMatrix currentmatrix pop ulx rad add uly rad add translate
  rad rad scale 0 0 1 90 270 arc tMatrix setmatrix lrx rad sub lry rad
  sub translate rad rad scale 0 0 1 270 90 arc tMatrix setmatrix
  closepath} bdef
/FlrRR {MlrRR stroke } bdef
/PlrRR {MlrRR fill } bdef
/MtbRR {/lry xdef /lrx xdef /uly xdef /ulx xdef /rad lrx ulx sub 2 div def
  newpath tMatrix currentmatrix pop ulx rad add uly rad add translate
  rad rad scale 0 0 1 180 360 arc tMatrix setmatrix lrx rad sub lry rad
  sub translate rad rad scale 0 0 1 0 180 arc tMatrix setmatrix
  closepath} bdef
/FtbRR {MtbRR stroke } bdef
/PtbRR {MtbRR fill } bdef
/stri 6 array def /dtri 6 array def
/smat 6 array def /dmat 6 array def
/tmat1 6 array def /tmat2 6 array def /dif 3 array def
/asub {/ind2 exch def /ind1 exch def dup dup
  ind1 get exch ind2 get sub exch } bdef
/tri_to_matrix {
  2 0 asub 3 1 asub 4 0 asub 5 1 asub
  dup 0 get exch 1 get 7 -1 roll astore } bdef
/compute_transform {
  dmat dtri tri_to_matrix tmat1 invertmatrix 
  smat stri tri_to_matrix tmat2 concatmatrix } bdef
/ds {stri astore pop} bdef
/dt {dtri astore pop} bdef
/db {2 copy /cols xdef /rows xdef mul dup 3 mul string
  currentfile 
  3 index 0 eq {/ASCIIHexDecode filter}
  {/ASCII85Decode filter 3 index 2 eq {/RunLengthDecode filter} if }
  ifelse exch readstring pop
  dup 0 3 index getinterval /rbmap xdef
  dup 2 index dup getinterval /gbmap xdef
  1 index dup 2 mul exch getinterval /bbmap xdef pop pop}bdef
/it {gs np dtri aload pop moveto lineto lineto cp c
  cols rows 8 compute_transform 
  rbmap gbmap bbmap true 3 colorimage gr}bdef
/il {newpath moveto lineto stroke}bdef
currentdict end def
%%EndProlog

%%BeginSetup
MathWorks begin

0 cap

end
%%EndSetup

%%Page: 1 1
%%BeginPageSetup
%%PageBoundingBox:    16    64   599   605
MathWorks begin
bpage
%%EndPageSetup

%%BeginObject: obj1
bplot

/dpi2point 8.33333 def
portraitMode -0158 5475 csm

  292   426  4860  4513 rc
84 dict begin %Colortable dictionary
/c0 { 0.000000 0.000000 0.000000 sr} bdef
/c1 { 1.000000 1.000000 1.000000 sr} bdef
/c2 { 0.900000 0.000000 0.000000 sr} bdef
/c3 { 0.000000 0.820000 0.000000 sr} bdef
/c4 { 0.000000 0.000000 0.800000 sr} bdef
/c5 { 0.910000 0.820000 0.320000 sr} bdef
/c6 { 1.000000 0.260000 0.820000 sr} bdef
/c7 { 0.000000 0.820000 0.820000 sr} bdef
c0
1 j
1 sg
   0    0 5651 5651 rf
12.5 w
0 3956 4237 0 0 -3956 848 4520 4 MP
PP
-4237 0 0 3956 4237 0 0 -3956 848 4520 5 MP stroke
8.33333 w
DO
SO
12.5 w
0.1 sg
 848 4520 mt 5085 4520 L
 848  564 mt 5085  564 L
 848 4520 mt  848  564 L
5085 4520 mt 5085  564 L
 848 4520 mt 5085 4520 L
 848 4520 mt  848  564 L
 848 4520 mt  848 4488 L
 848  564 mt  848  596 L
 848 4520 mt  848 4456 L
 848  564 mt  848  628 L
%%IncludeResource: font Helvetica
/Helvetica /ISOLatin1Encoding 133.333 FMSR

 724 4707 mt 
(10) s
%%IncludeResource: font Helvetica
/Helvetica /ISOLatin1Encoding 88.8889 FMSR

 872 4625 mt 
(-1) s
1262 4520 mt 1262 4488 L
1262  564 mt 1262  596 L
1504 4520 mt 1504 4488 L
1504  564 mt 1504  596 L
1676 4520 mt 1676 4488 L
1676  564 mt 1676  596 L
1809 4520 mt 1809 4488 L
1809  564 mt 1809  596 L
1918 4520 mt 1918 4488 L
1918  564 mt 1918  596 L
2010 4520 mt 2010 4488 L
2010  564 mt 2010  596 L
2090 4520 mt 2090 4488 L
2090  564 mt 2090  596 L
2161 4520 mt 2161 4488 L
2161  564 mt 2161  596 L
2224 4520 mt 2224 4488 L
2224  564 mt 2224  596 L
2224 4520 mt 2224 4456 L
2224  564 mt 2224  628 L
%%IncludeResource: font Helvetica
/Helvetica /ISOLatin1Encoding 133.333 FMSR

2126 4707 mt 
(10) s
%%IncludeResource: font Helvetica
/Helvetica /ISOLatin1Encoding 88.8889 FMSR

2274 4625 mt 
(0) s
2638 4520 mt 2638 4488 L
2638  564 mt 2638  596 L
2880 4520 mt 2880 4488 L
2880  564 mt 2880  596 L
3052 4520 mt 3052 4488 L
3052  564 mt 3052  596 L
3185 4520 mt 3185 4488 L
3185  564 mt 3185  596 L
3294 4520 mt 3294 4488 L
3294  564 mt 3294  596 L
3386 4520 mt 3386 4488 L
3386  564 mt 3386  596 L
3466 4520 mt 3466 4488 L
3466  564 mt 3466  596 L
3537 4520 mt 3537 4488 L
3537  564 mt 3537  596 L
3600 4520 mt 3600 4488 L
3600  564 mt 3600  596 L
3600 4520 mt 3600 4456 L
3600  564 mt 3600  628 L
%%IncludeResource: font Helvetica
/Helvetica /ISOLatin1Encoding 133.333 FMSR

3502 4707 mt 
(10) s
%%IncludeResource: font Helvetica
/Helvetica /ISOLatin1Encoding 88.8889 FMSR

3650 4625 mt 
(1) s
4014 4520 mt 4014 4488 L
4014  564 mt 4014  596 L
4256 4520 mt 4256 4488 L
4256  564 mt 4256  596 L
4428 4520 mt 4428 4488 L
4428  564 mt 4428  596 L
4561 4520 mt 4561 4488 L
4561  564 mt 4561  596 L
4670 4520 mt 4670 4488 L
4670  564 mt 4670  596 L
4762 4520 mt 4762 4488 L
4762  564 mt 4762  596 L
4842 4520 mt 4842 4488 L
4842  564 mt 4842  596 L
4913 4520 mt 4913 4488 L
4913  564 mt 4913  596 L
4976 4520 mt 4976 4488 L
4976  564 mt 4976  596 L
4976 4520 mt 4976 4456 L
4976  564 mt 4976  628 L
%%IncludeResource: font Helvetica
/Helvetica /ISOLatin1Encoding 133.333 FMSR

4878 4707 mt 
(10) s
%%IncludeResource: font Helvetica
/Helvetica /ISOLatin1Encoding 88.8889 FMSR

5026 4625 mt 
(2) s
 848 4519 mt  911 4519 L
5085 4519 mt 5021 4519 L
%%IncludeResource: font Helvetica
/Helvetica /ISOLatin1Encoding 133.333 FMSR

 639 4568 mt 
(0.3) s
 848 3860 mt  911 3860 L
5085 3860 mt 5021 3860 L
 565 3909 mt 
(0.35) s
 848 3201 mt  911 3201 L
5085 3201 mt 5021 3201 L
 639 3250 mt 
(0.4) s
 848 2542 mt  911 2542 L
5085 2542 mt 5021 2542 L
 565 2591 mt 
(0.45) s
 848 1883 mt  911 1883 L
5085 1883 mt 5021 1883 L
 639 1932 mt 
(0.5) s
 848 1224 mt  911 1224 L
5085 1224 mt 5021 1224 L
 565 1273 mt 
(0.55) s
 848  564 mt  911  564 L
5085  564 mt 5021  564 L
 639  613 mt 
(0.6) s
 848 4520 mt 5085 4520 L
 848  564 mt 5085  564 L
 848 4520 mt  848  564 L
5085 4520 mt 5085  564 L
gs 848 565 4238 3956 rc
16.6667 w
0 sg
-67 -1 -330 -3 -278 -3 -230 -4 -190 -3 -160 -3 -138 -4 -120 -3 
-109 -3 -102 -3 -95 -4 -92 -3 -87 -3 -84 -4 -80 -3 -75 -3 
-70 -4 -64 -3 -61 -3 -57 -3 -54 -4 -53 -3 -52 -3 -49 -4 
-48 -3 -47 -3 -45 -4 -43 -3 -41 -3 -40 -4 -38 -3 -38 -3 
-38 -4 -38 -3 -39 -4 -38 -3 -37 -3 -37 -4 -36 -3 -35 -3 
-36 -4 -35 -3 -35 -3 -38 -4 -41 -3 -49 -4 -64 -3 -154 -3 
-117 -4 -91 -3 -72 8 -53 9 4 8 4 9 4 8 4 8 
4 9 4 8 4 9 4 8 4 8 5 9 4 8 5 8 
4 8 4 9 5 8 4 8 4 8 5 8 5 8 4 9 
4 8 4 8 5 8 4 8 4 8 5 8 4 8 4 8 
4 8 5 8 4 8 5 8 5 8 4 8 5 8 5 8 
5 8 5 8 4 7 5 8 5 8 5 8 5 8 4 7 
5 8 5 8 4 8 5 7 5 8 4 8 5 8 5 7 
4 8 5 7 4 8 5 8 5 7 5 8 4 7 5 8 
5 8 4 7 5 8 4 7 5 8 5 7 5 8 5 7 
5 7 4 8 5 7 5 8 5 7 5 7 5 8 5 7 
5 7 5 8 4 7 5 7 4 8 4 7 5 7 4 7 
4 8 5 7 6 7 4 7 5 7 5 8 5 7 5 7 
6 7 5 7 5 7 5 7 5 7 5 7 5 7 5 7 
4 7 5 7 5 7 6 7 5 7 5 7 5 7 5 7 
5 7 6 7 5 7 6 7 5 7 6 7 6 6 5 7 
5 7 6 7 5 7 5 7 5 6 5 7 5 7 5 7 
5 6 6 7 5 7 5 7 5 6 5 7 5 7 6 6 
5 7 5 6 6 7 5 7 5 6 5 7 5 6 4 7 
6 7 5 6 5 7 6 6 5 7 4 6 5 7 6 6 
6 7 5 6 6 7 6 6 5 6 5 7 6 6 6 7 
5 6 5 6 6 7 5 6 5 6 5 7 6 6 4 6 
5 7 6 6 5 6 5 6 6 7 6 6 6 6 5 6 
6 7 6 6 5 6 5 6 6 6 4 7 5 6 6 6 
5 6 6 6 6 6 6 6 6 6 6 6 6 7 4 6 
6 6 6 6 5 6 6 6 6 6 6 6 5 6 5 6 
6 6 6 6 4 6 6 6 5 6 6 5 5 6 5 6 
6 6 6 6 5 6 5 6 5 6 4 6 5 5 6 6 
5 6 6 6 5 6 5 5 6 6 6 6 6 6 5 5 
6 6 6 6 6 6 6 5 6 6 6 6 6 6 7 5 
6 6 5 6 6 5 4 6 4 5 5 6 5 6 6 5 
6 6 7 6 6 5 7 6 6 5 7 6 6 5 6 6 
7 5 6 6 6 6 3705 2377 300 MP stroke
6 5 6 6 6 5 6 6 5 5 6 5 7 6 8 5 
6 6 6 5 6 6 6 5 5 5 7 6 6 5 7 6 
6 5 6 5 5 6 6 5 5 5 5 6 5 5 5 5 
6 6 5 5 5 5 5 6 4 5 5 5 6 5 5 6 
6 5 6 5 5 5 5 6 6 5 5 5 5 5 7 5 
7 6 5 5 6 5 6 5 5 5 3 5 6 6 7 5 
6 5 6 5 6 5 5 5 5 5 4 5 6 5 7 5 
7 5 6 5 5 6 6 5 6 5 7 5 7 5 7 5 
6 5 5 5 5 5 7 5 6 5 7 5 7 4 8 5 
7 5 6 5 6 5 4 5 5 5 4 5 5 5 6 5 
7 5 6 5 6 4 7 5 6 5 6 5 6 5 5 5 
4 4 5 5 6 5 6 5 7 5 8 4 6 5 5 5 
5 5 2 5 2 4 2 5 3 5 3 5 4 4 4 5 
6 5 7 4 6 5 7 5 6 4 5 5 4 5 3 5 
4 4 5 5 6 4 6 5 7 5 7 4 6 5 5 5 
6 4 3 5 4 4 4 5 4 5 5 4 8 5 8 4 
8 5 7 4 7 5 5 4 5 5 4 5 5 4 5 5 
6 4 6 5 7 4 5 5 8 4 7 5 8 4 8 4 
9 5 7 4 8 5 7 4 8 5 6 4 7 5 4 4 
4 4 2 5 2 4 0 5 3 4 4 4 5 5 5 4 
7 4 5 5 5 4 6 4 9 5 8 4 10 4 10 5 
8 4 7 4 7 5 6 4 6 4 7 4 5 5 6 4 
6 4 7 5 8 4 8 4 7 4 5 4 4 5 4 4 
5 4 6 4 8 5 7 4 7 4 7 4 8 4 7 4 
7 5 8 4 9 4 8 4 7 4 6 4 6 5 4 4 
6 4 8 4 9 4 6 4 7 4 7 4 4 4 6 5 
8 4 8 4 7 4 7 4 7 4 6 4 9 4 11 4 
13 4 8 4 7 4 6 4 2 4 0 4 3 4 3 4 
3 4 5 4 6 4 9 4 7 4 7 4 7 4 8 4 
7 4 8 4 7 4 8 4 9 4 9 4 12 4 12 4 
10 3 11 4 10 4 10 4 10 4 10 4 9 4 7 4 
4 4 5 3 3 4 3 4 5 4 7 4 9 4 11 4 
14 3 13 4 13 4 12 4 19 4 17 3 13 4 10 4 
10 4 2 4 4 3 9 4 12 4 9 4 8 3 10 4 
6 4 5 4 6 3 10 4 11 4 13 4 13 3 8 4 
12 4 9 4 8 3 15 4 21 4 17 3 15 4 12 4 
8 3 7 4 3 4 7 3 10 4 10 4 6 3 8 4 
8 4 8 3 7 4 1692 1040 300 MP stroke
12 4 13 3 14 4 13 3 13 4 14 4 13 3 11 4 
10 3 8 4 8 4 8 3 12 4 15 3 23 4 28 3 
33 4 39 3 46 4 53 4 53 3 48 4 46 3 35 4 
34 3 40 4 32 3 43 4 73 3 54 3 848 934 31 MP stroke
gr

16.6667 w
0 sg
0.1 sg
%%IncludeResource: font Helvetica-Bold
/Helvetica-Bold /ISOLatin1Encoding 183.333 FMSR

2244 4881 mt 
(Log Stress [kPa]) s
 485 2904 mt  -90 rotate
(Porosity) s
90 rotate
gs 848 565 4238 3956 rc
/c8 { 1.000000 0.000000 0.000000 sr} bdef
c8
-215 -3 -252 -3 -207 -3 -175 -3 -165 -3 -154 -3 -141 -3 -128 -4 
-111 -3 -95 -3 -85 -3 -80 -3 -79 -3 -78 -4 -73 -3 -68 -3 
-61 -3 -57 -3 -54 -3 -54 -4 -53 -3 -54 -3 -52 -3 -51 -3 
-50 -4 -50 -3 -48 -3 -47 -3 -45 -3 -43 -4 -40 -3 -41 -3 
-38 -3 -38 -3 -36 -4 -35 -3 -34 -3 -33 -3 -33 -4 -32 -3 
-31 -3 -31 -3 -31 -4 -30 -3 -31 -3 -30 -3 -30 -4 -31 -3 
-32 -3 -35 -3 -39 -4 -47 -3 -62 -3 -151 -3 -114 -4 -89 -3 
-71 8 -52 8 5 9 4 8 4 8 4 8 4 8 3 8 
4 8 4 8 4 8 4 8 5 8 4 8 4 8 5 8 
4 8 4 8 5 8 4 8 5 8 4 7 5 8 4 8 
4 8 5 8 4 7 4 8 4 8 4 8 4 7 4 8 
5 8 5 8 4 7 5 8 5 7 4 8 4 8 4 7 
5 8 4 7 4 8 4 8 5 7 4 8 4 7 4 8 
5 7 4 8 4 7 5 7 4 8 5 7 4 8 4 7 
5 7 5 8 4 7 4 7 4 8 5 7 3 7 5 8 
4 7 4 7 4 7 4 8 4 7 4 7 5 7 4 7 
5 8 5 7 4 7 4 7 5 7 4 7 4 7 5 7 
4 7 5 7 4 7 5 7 5 7 4 7 5 7 4 7 
5 7 4 7 4 7 4 7 5 7 3 7 5 7 5 7 
4 7 5 6 4 7 5 7 4 7 4 7 5 7 4 6 
5 7 5 7 4 7 5 6 5 7 5 7 5 7 5 6 
5 7 4 7 5 6 5 7 5 7 5 6 4 7 5 6 
4 7 5 6 5 7 5 7 5 6 5 7 5 6 5 7 
5 6 4 7 5 6 5 7 4 6 5 7 4 6 5 6 
5 7 4 6 5 7 5 6 4 6 5 7 5 6 4 6 
5 7 4 6 5 6 5 7 4 6 5 6 4 6 5 7 
5 6 5 6 5 6 5 7 5 6 4 6 5 6 4 6 
5 7 5 6 4 6 5 6 4 6 4 6 5 6 4 6 
5 6 5 7 4 6 5 6 4 6 5 6 4 6 6 6 
5 6 5 6 5 6 4 6 5 6 5 6 5 6 6 6 
5 5 6 6 4 6 6 6 5 6 5 6 5 6 5 6 
5 5 5 6 5 6 5 6 6 6 5 6 4 5 5 6 
5 6 4 6 5 5 5 6 4 6 5 6 5 5 4 6 
5 6 5 6 5 5 5 6 5 6 6 5 5 6 4 6 
5 5 5 6 4 5 5 6 5 6 6 5 5 6 5 5 
5 6 4 5 5 6 3 5 4 6 4 6 5 5 5 6 
5 5 4 6 4 5 4 5 4 6 4 5 3 6 5 5 
5 6 4 5 6 5 3869 2307 300 MP stroke
5 6 5 5 4 6 5 5 4 5 4 6 4 5 5 5 
5 6 5 5 5 5 4 6 4 5 4 5 4 6 5 5 
6 5 6 5 5 6 5 5 6 5 5 5 6 6 6 5 
5 5 5 5 5 5 3 6 4 5 7 5 4 5 4 5 
5 5 4 6 3 5 6 5 6 5 7 5 5 5 6 5 
7 5 5 5 6 5 5 5 6 6 5 5 4 5 5 5 
4 5 4 5 5 5 6 5 7 5 5 5 7 5 6 5 
4 5 4 4 5 5 5 5 4 5 5 5 6 5 5 5 
6 5 6 5 5 5 4 5 6 5 5 4 5 5 6 5 
7 5 5 5 5 5 4 4 4 5 5 5 5 5 6 5 
6 4 4 5 4 5 3 5 3 5 5 4 4 5 7 5 
7 5 7 4 6 5 6 5 5 4 3 5 4 5 5 5 
5 4 6 5 6 5 6 4 6 5 4 4 3 5 5 5 
6 4 3 5 6 5 6 4 6 5 5 4 5 5 5 5 
4 4 5 5 5 4 4 5 4 4 4 5 3 4 6 5 
7 5 7 4 8 5 8 4 6 5 5 4 5 5 4 4 
4 5 4 4 5 4 4 5 4 4 3 5 4 4 0 5 
1 4 3 5 4 4 5 4 6 5 6 4 6 5 5 4 
4 4 5 5 5 4 3 4 4 5 4 4 6 4 7 5 
8 4 9 4 7 5 6 4 4 4 3 5 3 4 6 4 
8 4 8 5 8 4 7 4 6 5 3 4 5 4 4 4 
4 4 6 5 5 4 7 4 7 4 7 5 7 4 8 4 
8 4 7 4 7 4 6 5 6 4 5 4 6 4 6 4 
4 4 4 5 5 4 5 4 6 4 8 4 7 4 7 4 
6 4 5 4 6 5 6 4 4 4 6 4 7 4 8 4 
8 4 5 4 7 4 4 4 2 4 3 4 6 4 5 4 
8 4 10 4 10 4 8 4 10 4 9 4 6 4 7 4 
7 4 7 4 5 4 6 4 7 4 5 4 6 4 6 4 
7 4 8 4 9 4 10 3 11 4 10 4 10 4 8 4 
5 4 4 4 4 4 5 4 5 3 7 4 6 4 8 4 
7 4 8 4 8 4 11 3 9 4 8 4 7 4 4 4 
1 3 2 4 4 4 5 4 8 4 9 3 10 4 6 4 
5 4 6 3 7 4 8 4 7 4 5 3 3 4 0 4 
-1 4 2 3 3 4 3 4 6 4 8 3 8 4 8 4 
8 3 11 4 11 4 10 3 10 4 11 4 8 3 10 4 
9 4 7 3 5 4 5 4 1 3 2 4 6 4 8 3 
7 4 8 3 8 4 10 4 11 3 15 4 17 3 16 4 
15 4 10 3 6 4 2120 993 300 MP stroke
4 3 3 4 4 3 8 4 10 3 12 4 11 4 11 3 
11 4 10 3 12 4 11 3 12 4 7 3 6 4 7 3 
8 4 9 3 12 4 11 3 12 4 13 3 14 4 15 3 
19 4 19 3 15 3 12 4 13 3 7 4 6 3 9 4 
11 3 12 4 17 3 23 3 20 4 19 3 18 4 14 3 
8 3 11 4 12 3 13 4 12 3 13 3 13 4 12 3 
14 3 16 4 18 3 16 3 17 4 15 3 17 3 21 4 
28 3 35 3 37 4 36 3 36 3 31 4 23 3 24 3 
30 4 30 3 40 3 59 4 70 3 64 3 34 2 848 752 72 MP stroke
/c9 { 0.000000 0.000000 1.000000 sr} bdef
c9
-16 0 -250 -3 -220 -3 -195 -3 -179 -3 -159 -4 -136 -3 -127 -3 
-119 -3 -104 -3 -92 -3 -87 -3 -84 -3 -79 -3 -75 -4 -71 -3 
-66 -3 -58 -3 -56 -3 -56 -3 -57 -3 -54 -4 -53 -3 -50 -3 
-46 -3 -44 -3 -41 -3 -41 -4 -41 -3 -39 -3 -40 -3 -38 -3 
-40 -3 -37 -4 -37 -3 -35 -3 -35 -3 -34 -3 -32 -3 -33 -4 
-32 -3 -30 -3 -30 -3 -29 -3 -29 -4 -28 -3 -28 -3 -27 -3 
-29 -3 -30 -4 -29 -3 -30 -3 -31 -3 -32 -4 -34 -3 -39 -3 
-46 -3 -60 -3 -149 -4 -113 -3 -89 -3 -71 8 -52 8 3 8 
3 8 4 8 3 8 3 8 4 8 5 8 4 8 4 8 
3 8 4 8 3 8 4 8 4 8 4 7 4 8 4 8 
4 8 4 8 4 7 4 8 3 8 4 8 4 7 4 8 
3 8 4 8 4 7 4 8 3 7 4 8 4 8 3 7 
3 8 2 7 3 8 3 8 3 7 3 8 4 7 3 8 
4 7 4 8 3 7 4 7 4 8 4 7 3 8 4 7 
4 7 4 8 4 7 4 7 4 8 4 7 4 7 4 8 
4 7 4 7 4 7 4 8 4 7 4 7 4 7 3 7 
4 8 5 7 5 7 4 7 4 7 4 7 5 7 3 7 
4 7 4 7 4 7 3 7 5 7 4 7 4 7 4 7 
4 7 5 7 4 7 4 7 4 7 3 7 3 7 4 7 
4 7 3 6 4 7 4 7 4 7 4 7 4 7 4 6 
4 7 4 7 4 7 4 6 3 7 4 7 4 7 5 6 
3 7 3 7 4 6 3 7 3 7 4 6 5 7 4 6 
4 7 4 6 4 7 4 7 4 6 5 7 4 6 4 7 
4 6 4 7 3 6 3 7 4 6 4 7 3 6 4 6 
4 7 4 6 4 7 4 6 4 6 3 7 4 6 4 6 
4 7 4 6 4 6 5 7 4 6 4 6 4 6 5 7 
4 6 4 6 4 6 4 7 5 6 3 6 4 6 5 6 
4 7 4 6 5 6 4 6 5 6 4 6 4 6 4 6 
4 6 5 7 4 6 4 6 4 6 4 6 3 6 3 6 
3 6 4 6 4 6 4 6 4 6 5 6 4 6 4 6 
4 5 3 6 3 6 4 6 4 6 3 6 3 6 3 6 
3 5 5 6 3 6 5 6 4 6 4 6 4 5 5 6 
4 6 4 6 4 5 5 6 4 6 4 6 4 5 4 6 
4 6 4 6 4 5 5 6 4 6 4 5 4 6 5 6 
5 5 4 6 4 5 4 6 4 6 4 5 5 6 5 5 
4 6 5 5 4 6 4 5 4 6 4 6 5 5 4 6 
4 5 5 6 4 5 4 5 5 6 5 5 4 6 5 5 
5 6 4 5 5 5 4039 2307 300 MP stroke
4 6 4 5 3 6 3 5 3 5 3 6 3 5 4 5 
5 6 4 5 5 5 4 6 5 5 4 5 5 6 4 5 
4 5 4 5 4 6 4 5 6 5 4 5 5 6 4 5 
5 5 3 5 4 5 4 6 4 5 4 5 4 5 4 5 
4 5 4 6 5 5 5 5 5 5 4 5 5 5 4 5 
4 5 4 5 4 5 4 5 3 6 4 5 6 5 4 5 
4 5 4 5 3 5 2 5 4 5 4 5 5 5 5 5 
4 5 4 4 5 5 5 5 4 5 5 5 5 5 4 5 
3 5 5 5 5 5 4 5 4 5 4 4 4 5 4 5 
4 5 5 5 6 5 5 4 5 5 5 5 5 5 4 5 
4 4 4 5 4 5 5 5 5 5 5 4 5 5 5 5 
3 5 3 4 5 5 5 5 6 4 6 5 4 5 5 5 
4 4 4 5 5 5 5 4 4 5 5 4 3 5 5 5 
6 4 5 5 5 5 6 4 5 5 5 4 5 5 6 5 
4 4 4 5 5 4 4 5 5 4 6 5 6 4 6 5 
6 5 4 4 5 5 3 4 4 5 4 4 5 5 4 4 
5 5 4 4 5 4 4 5 4 4 5 5 6 4 5 5 
5 4 6 5 5 4 4 4 4 5 4 4 3 5 3 4 
3 4 4 5 4 4 5 4 4 5 5 4 6 4 6 5 
6 4 6 4 6 5 5 4 5 4 5 5 5 4 6 4 
5 4 6 5 5 4 5 4 6 5 5 4 5 4 6 4 
6 4 6 5 6 4 6 4 5 4 8 5 7 4 9 4 
7 4 5 4 4 4 4 5 4 4 7 4 8 4 7 4 
3 4 4 5 5 4 5 4 5 4 7 4 6 4 4 4 
2 4 4 4 5 5 3 4 5 4 7 4 7 4 5 4 
5 4 4 4 3 4 2 4 4 4 6 4 5 4 5 4 
6 4 7 4 4 4 5 4 6 4 6 4 5 4 7 4 
8 4 6 4 4 4 4 4 3 4 2 4 3 4 6 4 
8 4 10 4 8 4 7 3 8 4 6 4 5 4 7 4 
6 4 5 4 3 4 3 4 3 3 4 4 6 4 7 4 
8 4 8 4 8 4 9 3 8 4 6 4 4 4 4 4 
4 3 4 4 6 4 8 4 7 4 5 3 3 4 3 4 
5 4 5 3 8 4 11 4 9 4 8 3 9 4 6 4 
5 4 7 3 8 4 7 4 9 4 8 3 8 4 6 4 
7 3 8 4 8 4 8 3 11 4 8 4 5 3 6 4 
7 4 4 3 7 4 10 4 11 3 10 4 10 4 9 3 
6 4 5 3 4 4 4 4 5 3 9 4 9 3 8 4 
6 4 6 3 6 4 2479 993 300 MP stroke
5 3 7 4 8 3 9 4 8 3 10 4 10 4 10 3 
7 4 6 3 4 4 2 3 4 4 7 3 7 4 7 3 
11 4 10 3 14 4 13 3 14 4 12 3 10 4 7 3 
9 4 10 3 10 3 11 4 10 3 10 4 12 3 14 4 
16 3 14 4 9 3 6 3 1 4 1 3 7 4 11 3 
16 3 19 4 19 3 18 4 19 3 18 3 10 4 9 3 
9 3 7 4 7 3 10 3 11 4 10 3 9 3 7 4 
7 3 9 3 11 4 9 3 9 3 9 4 10 3 12 3 
18 4 23 3 25 3 26 4 23 3 24 3 23 3 22 4 
23 3 22 3 21 3 19 4 18 3 17 3 16 3 10 4 
11 3 16 3 18 3 23 4 25 3 25 3 23 3 16 3 
14 4 18 3 21 3 18 3 26 3 24 4 23 3 27 3 
32 3 39 3 46 3 53 4 56 3 61 3 59 3 848 648 104 MP stroke
/c10 { 1.000000 0.000000 1.000000 sr} bdef
c10
-67 -1 -226 -3 -200 -3 -184 -3 -167 -3 -146 -3 -132 -3 -119 -3 
-111 -3 -96 -3 -92 -3 -87 -3 -78 -3 -65 -3 -58 -3 -51 -3 
-47 -3 -44 -3 -48 -3 -54 -3 -57 -3 -54 -3 -53 -3 -51 -3 
-45 -3 -43 -3 -42 -3 -40 -3 -40 -3 -39 -3 -38 -3 -37 -3 
-37 -4 -34 -3 -33 -3 -32 -3 -31 -3 -30 -3 -30 -3 -30 -3 
-29 -3 -28 -3 -27 -3 -26 -3 -26 -3 -26 -3 -26 -3 -27 -4 
-26 -3 -27 -3 -26 -3 -24 -3 -26 -3 -25 -3 -26 -3 -26 -3 
-27 -3 -27 -4 -28 -3 -31 -3 -33 -3 -37 -3 -42 -3 -50 -3 
-66 -3 -157 -4 -119 -3 -92 -3 -72 8 -53 8 4 8 4 7 
4 8 4 8 4 8 4 7 4 8 4 8 4 8 4 7 
3 8 4 7 4 8 3 8 4 7 3 8 4 7 4 8 
3 8 5 7 3 8 3 7 3 8 3 7 2 8 3 7 
3 7 3 8 3 7 4 8 3 7 4 7 4 8 3 7 
3 7 4 8 4 7 3 7 4 8 4 7 4 7 3 7 
4 8 3 7 4 7 3 7 4 7 3 8 4 7 3 7 
4 7 4 7 4 7 4 7 3 7 4 7 3 7 4 7 
4 7 4 7 4 7 3 7 3 7 4 7 3 7 3 7 
3 7 3 7 4 7 3 7 4 7 3 7 5 6 3 7 
4 7 4 7 4 7 4 7 3 6 4 7 3 7 3 7 
4 6 4 7 4 7 5 7 3 6 4 7 3 7 4 6 
3 7 4 7 4 6 4 7 3 6 4 7 4 6 4 7 
4 7 3 6 4 7 3 6 4 7 4 6 3 7 4 6 
4 7 4 6 4 7 4 6 4 6 4 7 3 6 4 7 
3 6 5 6 3 7 4 6 4 6 4 7 4 6 4 6 
5 7 4 6 4 6 3 6 5 7 4 6 3 6 4 6 
4 7 4 6 3 6 4 6 3 6 4 7 3 6 5 6 
4 6 4 6 4 6 4 6 3 6 4 6 4 7 4 6 
5 6 4 6 4 6 4 6 4 6 4 6 3 6 3 6 
4 6 4 6 4 6 4 6 4 6 4 5 4 6 4 6 
4 6 4 6 4 6 4 6 4 6 4 5 4 6 4 6 
4 6 5 6 3 6 4 5 5 6 4 6 4 6 5 5 
4 6 4 6 5 6 4 5 5 6 4 6 5 6 4 5 
5 6 4 6 4 5 4 6 4 6 5 5 4 6 5 5 
4 6 4 6 4 5 4 6 4 5 5 6 4 5 4 6 
5 5 4 6 4 6 4 5 5 6 4 5 4 6 4 5 
5 5 4 6 4 5 4 6 4 5 4 6 4 5 4 5 
5 6 4 5 4 6 4 5 4 5 3 6 3 5 4 5 
5 6 6 5 5 5 4087 2248 300 MP stroke
4 6 5 5 4 5 3 6 5 5 4 5 5 5 4 6 
5 5 3 5 4 5 5 6 5 5 4 5 4 5 5 5 
5 6 3 5 4 5 5 5 4 5 4 5 4 6 5 5 
4 5 3 5 5 5 3 5 3 5 4 5 3 5 4 5 
4 5 4 6 4 5 5 5 5 5 5 5 5 5 6 5 
4 5 4 5 4 5 4 5 4 5 4 5 5 4 4 5 
5 5 4 5 4 5 4 5 3 5 4 5 4 5 2 5 
4 5 5 5 5 4 4 5 4 5 6 5 4 5 3 5 
4 4 5 5 3 5 3 5 4 5 4 4 3 5 4 5 
5 5 5 5 4 4 5 5 4 5 4 5 4 4 3 5 
3 5 4 4 4 5 3 5 4 5 4 4 4 5 4 5 
5 4 5 5 5 4 5 5 4 5 5 4 5 5 6 5 
5 4 5 5 4 4 3 5 3 5 5 4 5 5 5 4 
6 5 5 4 5 5 4 4 5 5 5 5 5 4 4 5 
5 4 4 5 5 4 5 5 5 4 6 5 5 4 6 4 
5 5 5 4 5 5 5 4 5 5 4 4 7 5 5 4 
4 4 3 5 3 4 2 5 4 4 3 4 6 5 5 4 
4 4 4 5 5 4 5 4 7 5 6 4 6 4 6 5 
6 4 5 4 4 5 6 4 4 4 5 4 5 5 3 4 
3 4 4 5 5 4 5 4 6 4 7 4 6 5 5 4 
5 4 6 4 3 5 5 4 8 4 6 4 5 4 5 4 
4 5 1 4 3 4 5 4 6 4 6 4 7 5 6 4 
6 4 8 4 6 4 6 4 5 4 4 4 6 4 6 5 
5 4 6 4 5 4 4 4 5 4 5 4 6 4 7 4 
6 4 7 4 5 4 6 4 6 4 6 4 7 4 8 4 
8 4 7 4 6 4 7 4 5 4 5 4 5 4 4 4 
6 4 5 4 5 4 6 4 6 4 6 4 6 4 7 4 
5 3 4 4 4 4 5 4 7 4 7 4 8 4 8 4 
8 4 7 3 7 4 6 4 6 4 3 4 4 4 4 4 
5 3 6 4 9 4 11 4 10 4 8 3 5 4 4 4 
3 4 4 4 5 3 6 4 6 4 7 4 5 3 5 4 
6 4 5 4 4 3 5 4 8 4 8 4 8 3 6 4 
9 4 8 4 9 3 8 4 10 4 7 3 6 4 6 4 
6 3 7 4 8 4 8 3 8 4 7 4 7 3 5 4 
6 4 5 3 7 4 4 4 6 3 4 4 5 3 5 4 
6 4 9 3 11 4 9 3 10 4 12 4 11 3 10 4 
9 3 7 4 6 3 6 4 4 3 7 4 6 4 6 3 
5 4 6 3 6 4 2512 954 300 MP stroke
7 3 10 4 9 3 8 4 8 3 9 4 9 3 8 4 
10 3 10 4 10 3 12 4 10 3 11 4 9 3 11 3 
9 4 11 3 11 4 12 3 10 4 9 3 8 4 9 3 
6 3 6 4 10 3 12 4 9 3 13 3 15 4 10 3 
7 4 11 3 8 3 7 4 8 3 12 3 9 4 13 3 
13 3 13 4 12 3 13 3 9 4 7 3 9 3 11 4 
15 3 14 3 11 4 12 3 12 3 11 4 16 3 21 3 
21 4 19 3 21 3 18 3 16 4 15 3 11 3 8 3 
6 4 8 3 10 3 13 3 15 4 16 3 18 3 18 3 
18 4 22 3 25 3 25 3 24 3 24 4 21 3 20 3 
21 3 23 3 26 4 26 3 27 3 25 3 25 3 23 3 
22 4 24 3 26 3 27 3 28 3 31 3 32 4 39 3 
43 3 71 3 89 3 39 1 848 625 101 MP stroke
gr

c10
0 sg
%%IncludeResource: font Helvetica
/Helvetica /ISOLatin1Encoding 166.667 FMSR

 818 4587 mt 
( ) s
5056  631 mt 
( ) s
12.5 w
%%IncludeResource: font Symbol
/Symbol /ISOLatin1Encoding 125 FMSR

1266 2245 mt 
(D) s
%%IncludeResource: font Helvetica-Bold
/Helvetica-Bold /ISOLatin1Encoding 125 FMSR

1342 2245 mt 
( ) s
%%IncludeResource: font Symbol
/Symbol /ISOLatin1Encoding 125 FMSR

1376 2245 mt 
(g) s
%%IncludeResource: font Helvetica-Bold
/Helvetica-Bold /ISOLatin1Encoding 125 FMSR

1427 2245 mt 
( = 8 J/m) s
%%IncludeResource: font Helvetica-Bold
/Helvetica-Bold /ISOLatin1Encoding 100 FMSR

1889 2183 mt 
(2) s
gs 941 2068 1226 950 rc
16.6667 w
250 0 990 2197 2 MP stroke
gr

16.6667 w
%%IncludeResource: font Symbol
/Symbol /ISOLatin1Encoding 125 FMSR

1266 2475 mt 
(D) s
%%IncludeResource: font Helvetica-Bold
/Helvetica-Bold /ISOLatin1Encoding 125 FMSR

1342 2475 mt 
( ) s
%%IncludeResource: font Symbol
/Symbol /ISOLatin1Encoding 125 FMSR

1376 2475 mt 
(g) s
%%IncludeResource: font Helvetica-Bold
/Helvetica-Bold /ISOLatin1Encoding 125 FMSR

1427 2475 mt 
( = 12.5 J/m) s
%%IncludeResource: font Helvetica-Bold
/Helvetica-Bold /ISOLatin1Encoding 100 FMSR

2062 2413 mt 
(2) s
gs 941 2068 1226 950 rc
c8
250 0 990 2427 2 MP stroke
gr

c8
0 sg
%%IncludeResource: font Symbol
/Symbol /ISOLatin1Encoding 125 FMSR

1266 2705 mt 
(D) s
%%IncludeResource: font Helvetica-Bold
/Helvetica-Bold /ISOLatin1Encoding 125 FMSR

1342 2705 mt 
( ) s
%%IncludeResource: font Symbol
/Symbol /ISOLatin1Encoding 125 FMSR

1376 2705 mt 
(g) s
%%IncludeResource: font Helvetica-Bold
/Helvetica-Bold /ISOLatin1Encoding 125 FMSR

1427 2705 mt 
( = 18.5 J/m) s
%%IncludeResource: font Helvetica-Bold
/Helvetica-Bold /ISOLatin1Encoding 100 FMSR

2062 2643 mt 
(2) s
gs 941 2068 1226 950 rc
c9
250 0 990 2657 2 MP stroke
gr

c9
0 sg
%%IncludeResource: font Symbol
/Symbol /ISOLatin1Encoding 125 FMSR

1266 2935 mt 
(D) s
%%IncludeResource: font Helvetica-Bold
/Helvetica-Bold /ISOLatin1Encoding 125 FMSR

1342 2935 mt 
( ) s
%%IncludeResource: font Symbol
/Symbol /ISOLatin1Encoding 125 FMSR

1376 2935 mt 
(g) s
%%IncludeResource: font Helvetica-Bold
/Helvetica-Bold /ISOLatin1Encoding 125 FMSR

1427 2935 mt 
( = 23.5 J/m) s
%%IncludeResource: font Helvetica-Bold
/Helvetica-Bold /ISOLatin1Encoding 100 FMSR

2062 2873 mt 
(2) s
gs 941 2068 1226 950 rc
c10
250 0 990 2887 2 MP stroke
12.5 w
gr

12.5 w
c10

end %%Color Dict

eplot
%%EndObject

epage
end

showpage

%%Trailer
%%EOF
