%!PS-Adobe-3.0 EPSF-3.0
%%Creator: MATLAB, The MathWorks, Inc. Version 7.12.0.635 (R2011a). Operating System: Linux 2.6.32-358.6.2.el6.x86_64 #1 SMP Thu May 16 11:21:38 CDT 2013 x86_64.
%%Title: ./ConfinedPorosity_SE_20kPa.eps
%%CreationDate: 08/15/2013  13:56:56
%%DocumentNeededFonts: Helvetica-Bold
%%+ Helvetica
%%DocumentProcessColors: Cyan Magenta Yellow Black
%%LanguageLevel: 2
%%Pages: 1
%%BoundingBox:    16    64   599   605
%%EndComments

%%BeginProlog
% MathWorks dictionary
/MathWorks 160 dict begin
% definition operators
/bdef {bind def} bind def
/ldef {load def} bind def
/xdef {exch def} bdef
/xstore {exch store} bdef
% operator abbreviations
/c  /clip ldef
/cc /concat ldef
/cp /closepath ldef
/gr /grestore ldef
/gs /gsave ldef
/mt /moveto ldef
/np /newpath ldef
/cm /currentmatrix ldef
/sm /setmatrix ldef
/rm /rmoveto ldef
/rl /rlineto ldef
/s {show newpath} bdef
/sc {setcmykcolor} bdef
/sr /setrgbcolor ldef
/sg /setgray ldef
/w /setlinewidth ldef
/j /setlinejoin ldef
/cap /setlinecap ldef
/rc {rectclip} bdef
/rf {rectfill} bdef
% page state control
/pgsv () def
/bpage {/pgsv save def} bdef
/epage {pgsv restore} bdef
/bplot /gsave ldef
/eplot {stroke grestore} bdef
% orientation switch
/portraitMode 0 def /landscapeMode 1 def /rotateMode 2 def
% coordinate system mappings
/dpi2point 0 def
% font control
/FontSize 0 def
/FMS {/FontSize xstore findfont [FontSize 0 0 FontSize neg 0 0]
  makefont setfont} bdef
/reencode {exch dup where {pop load} {pop StandardEncoding} ifelse
  exch dup 3 1 roll findfont dup length dict begin
  { 1 index /FID ne {def}{pop pop} ifelse } forall
  /Encoding exch def currentdict end definefont pop} bdef
/isroman {findfont /CharStrings get /Agrave known} bdef
/FMSR {3 1 roll 1 index dup isroman {reencode} {pop pop} ifelse
  exch FMS} bdef
/csm {1 dpi2point div -1 dpi2point div scale neg translate
 dup landscapeMode eq {pop -90 rotate}
  {rotateMode eq {90 rotate} if} ifelse} bdef
% line types: solid, dotted, dashed, dotdash
/SO { [] 0 setdash } bdef
/DO { [.5 dpi2point mul 4 dpi2point mul] 0 setdash } bdef
/DA { [6 dpi2point mul] 0 setdash } bdef
/DD { [.5 dpi2point mul 4 dpi2point mul 6 dpi2point mul 4
  dpi2point mul] 0 setdash } bdef
% macros for lines and objects
/L {lineto stroke} bdef
/MP {3 1 roll moveto 1 sub {rlineto} repeat} bdef
/AP {{rlineto} repeat} bdef
/PDlw -1 def
/W {/PDlw currentlinewidth def setlinewidth} def
/PP {closepath eofill} bdef
/DP {closepath stroke} bdef
/MR {4 -2 roll moveto dup  0 exch rlineto exch 0 rlineto
  neg 0 exch rlineto closepath} bdef
/FR {MR stroke} bdef
/PR {MR fill} bdef
/L1i {{currentfile picstr readhexstring pop} image} bdef
/tMatrix matrix def
/MakeOval {newpath tMatrix currentmatrix pop translate scale
0 0 1 0 360 arc tMatrix setmatrix} bdef
/FO {MakeOval stroke} bdef
/PO {MakeOval fill} bdef
/PD {currentlinewidth 2 div 0 360 arc fill
   PDlw -1 eq not {PDlw w /PDlw -1 def} if} def
/FA {newpath tMatrix currentmatrix pop translate scale
  0 0 1 5 -2 roll arc tMatrix setmatrix stroke} bdef
/PA {newpath tMatrix currentmatrix pop	translate 0 0 moveto scale
  0 0 1 5 -2 roll arc closepath tMatrix setmatrix fill} bdef
/FAn {newpath tMatrix currentmatrix pop translate scale
  0 0 1 5 -2 roll arcn tMatrix setmatrix stroke} bdef
/PAn {newpath tMatrix currentmatrix pop translate 0 0 moveto scale
  0 0 1 5 -2 roll arcn closepath tMatrix setmatrix fill} bdef
/vradius 0 def /hradius 0 def /lry 0 def
/lrx 0 def /uly 0 def /ulx 0 def /rad 0 def
/MRR {/vradius xdef /hradius xdef /lry xdef /lrx xdef /uly xdef
  /ulx xdef newpath tMatrix currentmatrix pop ulx hradius add uly
  vradius add translate hradius vradius scale 0 0 1 180 270 arc 
  tMatrix setmatrix lrx hradius sub uly vradius add translate
  hradius vradius scale 0 0 1 270 360 arc tMatrix setmatrix
  lrx hradius sub lry vradius sub translate hradius vradius scale
  0 0 1 0 90 arc tMatrix setmatrix ulx hradius add lry vradius sub
  translate hradius vradius scale 0 0 1 90 180 arc tMatrix setmatrix
  closepath} bdef
/FRR {MRR stroke } bdef
/PRR {MRR fill } bdef
/MlrRR {/lry xdef /lrx xdef /uly xdef /ulx xdef /rad lry uly sub 2 div def
  newpath tMatrix currentmatrix pop ulx rad add uly rad add translate
  rad rad scale 0 0 1 90 270 arc tMatrix setmatrix lrx rad sub lry rad
  sub translate rad rad scale 0 0 1 270 90 arc tMatrix setmatrix
  closepath} bdef
/FlrRR {MlrRR stroke } bdef
/PlrRR {MlrRR fill } bdef
/MtbRR {/lry xdef /lrx xdef /uly xdef /ulx xdef /rad lrx ulx sub 2 div def
  newpath tMatrix currentmatrix pop ulx rad add uly rad add translate
  rad rad scale 0 0 1 180 360 arc tMatrix setmatrix lrx rad sub lry rad
  sub translate rad rad scale 0 0 1 0 180 arc tMatrix setmatrix
  closepath} bdef
/FtbRR {MtbRR stroke } bdef
/PtbRR {MtbRR fill } bdef
/stri 6 array def /dtri 6 array def
/smat 6 array def /dmat 6 array def
/tmat1 6 array def /tmat2 6 array def /dif 3 array def
/asub {/ind2 exch def /ind1 exch def dup dup
  ind1 get exch ind2 get sub exch } bdef
/tri_to_matrix {
  2 0 asub 3 1 asub 4 0 asub 5 1 asub
  dup 0 get exch 1 get 7 -1 roll astore } bdef
/compute_transform {
  dmat dtri tri_to_matrix tmat1 invertmatrix 
  smat stri tri_to_matrix tmat2 concatmatrix } bdef
/ds {stri astore pop} bdef
/dt {dtri astore pop} bdef
/db {2 copy /cols xdef /rows xdef mul dup 3 mul string
  currentfile 
  3 index 0 eq {/ASCIIHexDecode filter}
  {/ASCII85Decode filter 3 index 2 eq {/RunLengthDecode filter} if }
  ifelse exch readstring pop
  dup 0 3 index getinterval /rbmap xdef
  dup 2 index dup getinterval /gbmap xdef
  1 index dup 2 mul exch getinterval /bbmap xdef pop pop}bdef
/it {gs np dtri aload pop moveto lineto lineto cp c
  cols rows 8 compute_transform 
  rbmap gbmap bbmap true 3 colorimage gr}bdef
/il {newpath moveto lineto stroke}bdef
currentdict end def
%%EndProlog

%%BeginSetup
MathWorks begin

0 cap

end
%%EndSetup

%%Page: 1 1
%%BeginPageSetup
%%PageBoundingBox:    16    64   599   605
MathWorks begin
bpage
%%EndPageSetup

%%BeginObject: obj1
bplot

/dpi2point 8.33333 def
portraitMode -0158 5475 csm

  292   426  4860  4514 rc
84 dict begin %Colortable dictionary
/c0 { 0.000000 0.000000 0.000000 sr} bdef
/c1 { 1.000000 1.000000 1.000000 sr} bdef
/c2 { 0.900000 0.000000 0.000000 sr} bdef
/c3 { 0.000000 0.820000 0.000000 sr} bdef
/c4 { 0.000000 0.000000 0.800000 sr} bdef
/c5 { 0.910000 0.820000 0.320000 sr} bdef
/c6 { 1.000000 0.260000 0.820000 sr} bdef
/c7 { 0.000000 0.820000 0.820000 sr} bdef
c0
1 j
1 sg
   0    0 5651 5651 rf
12.5 w
0 3955 4237 0 0 -3955 848 4520 4 MP
PP
-4237 0 0 3955 4237 0 0 -3955 848 4520 5 MP stroke
8.33333 w
DO
SO
12.5 w
0.1 sg
 848 4520 mt 5085 4520 L
 848  565 mt 5085  565 L
 848 4520 mt  848  565 L
5085 4520 mt 5085  565 L
 848 4520 mt 5085 4520 L
 848 4520 mt  848  565 L
 848 4520 mt  848 4488 L
 848  565 mt  848  596 L
 848 4520 mt  848 4456 L
 848  565 mt  848  628 L
%%IncludeResource: font Helvetica
/Helvetica /ISOLatin1Encoding 133.333 FMSR

 724 4708 mt 
(10) s
%%IncludeResource: font Helvetica
/Helvetica /ISOLatin1Encoding 88.8889 FMSR

 872 4626 mt 
(-1) s
1262 4520 mt 1262 4488 L
1262  565 mt 1262  596 L
1504 4520 mt 1504 4488 L
1504  565 mt 1504  596 L
1676 4520 mt 1676 4488 L
1676  565 mt 1676  596 L
1809 4520 mt 1809 4488 L
1809  565 mt 1809  596 L
1918 4520 mt 1918 4488 L
1918  565 mt 1918  596 L
2010 4520 mt 2010 4488 L
2010  565 mt 2010  596 L
2090 4520 mt 2090 4488 L
2090  565 mt 2090  596 L
2161 4520 mt 2161 4488 L
2161  565 mt 2161  596 L
2224 4520 mt 2224 4488 L
2224  565 mt 2224  596 L
2224 4520 mt 2224 4456 L
2224  565 mt 2224  628 L
%%IncludeResource: font Helvetica
/Helvetica /ISOLatin1Encoding 133.333 FMSR

2126 4708 mt 
(10) s
%%IncludeResource: font Helvetica
/Helvetica /ISOLatin1Encoding 88.8889 FMSR

2274 4626 mt 
(0) s
2638 4520 mt 2638 4488 L
2638  565 mt 2638  596 L
2880 4520 mt 2880 4488 L
2880  565 mt 2880  596 L
3052 4520 mt 3052 4488 L
3052  565 mt 3052  596 L
3185 4520 mt 3185 4488 L
3185  565 mt 3185  596 L
3294 4520 mt 3294 4488 L
3294  565 mt 3294  596 L
3386 4520 mt 3386 4488 L
3386  565 mt 3386  596 L
3466 4520 mt 3466 4488 L
3466  565 mt 3466  596 L
3537 4520 mt 3537 4488 L
3537  565 mt 3537  596 L
3600 4520 mt 3600 4488 L
3600  565 mt 3600  596 L
3600 4520 mt 3600 4456 L
3600  565 mt 3600  628 L
%%IncludeResource: font Helvetica
/Helvetica /ISOLatin1Encoding 133.333 FMSR

3502 4708 mt 
(10) s
%%IncludeResource: font Helvetica
/Helvetica /ISOLatin1Encoding 88.8889 FMSR

3650 4626 mt 
(1) s
4014 4520 mt 4014 4488 L
4014  565 mt 4014  596 L
4256 4520 mt 4256 4488 L
4256  565 mt 4256  596 L
4428 4520 mt 4428 4488 L
4428  565 mt 4428  596 L
4561 4520 mt 4561 4488 L
4561  565 mt 4561  596 L
4670 4520 mt 4670 4488 L
4670  565 mt 4670  596 L
4762 4520 mt 4762 4488 L
4762  565 mt 4762  596 L
4842 4520 mt 4842 4488 L
4842  565 mt 4842  596 L
4913 4520 mt 4913 4488 L
4913  565 mt 4913  596 L
4976 4520 mt 4976 4488 L
4976  565 mt 4976  596 L
4976 4520 mt 4976 4456 L
4976  565 mt 4976  628 L
%%IncludeResource: font Helvetica
/Helvetica /ISOLatin1Encoding 133.333 FMSR

4878 4708 mt 
(10) s
%%IncludeResource: font Helvetica
/Helvetica /ISOLatin1Encoding 88.8889 FMSR

5026 4626 mt 
(2) s
 848 4520 mt  911 4520 L
5085 4520 mt 5021 4520 L
%%IncludeResource: font Helvetica
/Helvetica /ISOLatin1Encoding 133.333 FMSR

 639 4569 mt 
(0.4) s
 848 4124 mt  911 4124 L
5085 4124 mt 5021 4124 L
 565 4173 mt 
(0.42) s
 848 3728 mt  911 3728 L
5085 3728 mt 5021 3728 L
 565 3777 mt 
(0.44) s
 848 3333 mt  911 3333 L
5085 3333 mt 5021 3333 L
 565 3382 mt 
(0.46) s
 848 2937 mt  911 2937 L
5085 2937 mt 5021 2937 L
 565 2986 mt 
(0.48) s
 848 2542 mt  911 2542 L
5085 2542 mt 5021 2542 L
 639 2591 mt 
(0.5) s
 848 2146 mt  911 2146 L
5085 2146 mt 5021 2146 L
 565 2195 mt 
(0.52) s
 848 1751 mt  911 1751 L
5085 1751 mt 5021 1751 L
 565 1800 mt 
(0.54) s
 848 1355 mt  911 1355 L
5085 1355 mt 5021 1355 L
 565 1404 mt 
(0.56) s
 848  960 mt  911  960 L
5085  960 mt 5021  960 L
 565 1009 mt 
(0.58) s
 848 4520 mt 5085 4520 L
 848  565 mt 5085  565 L
 848 4520 mt  848  565 L
5085 4520 mt 5085  565 L
gs 848 565 4238 3956 rc
16.6667 w
0 sg
-190 -3 -240 -3 -204 -4 -179 -3 -162 -4 -141 -3 -122 -4 -115 -4 
-110 -3 -101 -4 -94 -3 -91 -4 -83 -3 -75 -4 -73 -4 -67 -3 
-64 -4 -60 -3 -58 -4 -58 -3 -62 -4 -71 -4 -94 -3 -222 -4 
-154 -3 -115 -4 -88 9 -63 9 5 9 5 9 6 9 6 9 
4 9 6 9 5 9 6 8 5 9 5 9 6 9 6 9 
5 9 5 8 5 9 4 9 5 9 6 9 5 8 6 9 
5 9 5 8 6 9 6 9 6 8 5 9 6 9 6 8 
6 9 6 8 6 9 6 8 6 9 7 9 6 8 5 9 
6 8 4 9 4 8 5 8 5 9 6 8 6 9 7 8 
6 8 7 9 6 8 7 9 6 8 6 8 7 8 6 9 
6 8 6 8 6 9 6 8 6 8 5 8 6 8 7 9 
8 8 6 8 6 8 6 8 6 8 5 8 7 9 6 8 
7 8 6 8 6 8 5 8 6 8 5 8 5 8 5 8 
5 8 6 8 5 8 5 8 5 8 4 8 5 7 6 8 
5 8 6 8 6 8 5 8 5 8 6 7 5 8 5 8 
7 8 7 8 5 7 6 8 6 8 5 8 3 7 6 8 
7 8 6 7 6 8 6 8 5 7 5 8 4 8 6 7 
7 8 7 7 6 8 5 8 6 7 6 8 7 7 7 8 
7 7 6 8 5 7 5 8 7 7 6 8 7 7 7 7 
8 8 7 7 6 8 6 7 4 7 5 8 4 7 5 8 
6 7 7 7 6 8 6 7 7 7 6 7 6 8 6 7 
5 7 4 7 5 8 6 7 6 7 7 7 8 7 6 8 
5 7 5 7 2 7 2 7 2 7 3 7 3 8 4 7 
4 7 6 7 7 7 6 7 7 7 6 7 5 7 4 7 
3 7 4 7 5 7 6 7 6 7 7 7 7 7 6 7 
5 7 6 7 3 7 4 6 4 7 4 7 5 7 8 7 
8 7 8 7 7 6 7 7 5 7 5 7 4 7 5 6 
5 7 6 7 6 7 7 6 5 7 8 7 7 7 8 6 
8 7 9 7 7 6 8 7 7 7 8 6 6 7 7 7 
4 6 4 7 2 6 2 7 0 7 3 6 4 7 5 6 
5 7 7 6 5 7 5 6 6 7 9 6 8 7 10 6 
10 7 8 6 7 7 7 6 6 7 6 6 7 6 5 7 
6 6 6 7 7 6 8 6 8 7 7 6 5 6 4 7 
4 6 5 6 6 7 8 6 7 6 7 7 7 6 8 6 
7 6 7 7 8 6 9 6 8 6 7 7 6 6 6 6 
4 6 6 6 8 7 9 6 6 6 7 6 7 6 4 6 
6 7 8 6 8 6 7 6 7 6 7 6 6 6 9 6 
11 6 13 6 8 6 2399 1743 300 MP stroke
7 6 6 7 2 6 0 6 3 6 3 6 3 6 5 6 
6 6 9 5 7 6 7 6 7 6 8 6 7 6 8 6 
7 6 8 6 9 6 9 6 12 6 12 6 10 5 11 6 
10 6 10 6 10 6 10 6 9 5 7 6 4 6 5 6 
3 6 3 5 5 6 7 6 9 6 11 6 14 5 13 6 
13 6 12 5 19 6 17 6 13 6 10 5 10 6 2 6 
4 5 9 6 12 6 9 5 8 6 10 6 6 5 5 6 
6 5 10 6 11 6 13 5 13 6 8 5 12 6 9 6 
8 5 15 6 21 5 17 6 15 5 12 6 8 5 7 6 
3 5 7 6 10 5 10 6 6 5 8 6 8 5 8 6 
7 5 12 6 13 5 14 5 13 6 13 5 14 6 13 5 
11 5 10 6 8 5 8 6 8 5 12 5 15 6 23 5 
28 5 33 6 39 5 46 5 53 6 53 5 48 5 46 5 
35 6 34 5 40 5 32 6 43 5 73 5 54 4 848 1119 112 MP stroke
gr

16.6667 w
0 sg
0.1 sg
%%IncludeResource: font Helvetica-Bold
/Helvetica-Bold /ISOLatin1Encoding 183.333 FMSR

2244 4882 mt 
(Log Stress [kPa]) s
 485 2904 mt  -90 rotate
(Porosity) s
90 rotate
gs 848 565 4238 3956 rc
/c8 { 1.000000 0.000000 0.000000 sr} bdef
c8
-72 -1 -197 -3 -173 -4 -153 -3 -137 -3 -123 -4 -114 -3 -104 -4 
-98 -3 -91 -3 -85 -4 -79 -3 -76 -3 -73 -4 -68 -3 -67 -3 
-67 -4 -63 -3 -64 -4 -61 -3 -58 -3 -55 -4 -53 -3 -49 -3 
-49 -4 -46 -3 -49 -4 -49 -3 -53 -3 -60 -4 -80 -3 -198 -4 
-142 -3 -108 -3 -83 8 -62 9 6 8 5 9 4 8 5 8 
5 9 4 8 5 9 5 8 6 8 5 9 5 8 5 9 
4 8 5 8 3 8 4 9 4 8 5 8 5 9 5 8 
4 8 4 8 4 8 4 9 4 8 3 8 5 8 5 8 
4 8 6 8 5 9 5 8 4 8 5 8 4 8 4 8 
4 8 5 8 5 8 5 8 5 8 4 8 4 8 4 8 
4 8 5 8 6 7 6 8 5 8 5 8 6 8 5 8 
6 8 6 7 5 8 5 8 5 8 3 8 4 7 7 8 
4 8 4 8 5 7 4 8 3 8 6 7 6 8 7 8 
5 7 6 8 7 8 5 7 6 8 5 7 6 8 5 8 
4 7 5 8 4 7 4 8 5 7 6 8 7 7 5 8 
7 7 6 8 4 7 4 7 5 8 5 7 4 8 5 7 
6 7 5 8 6 7 6 8 5 7 4 7 6 8 5 7 
5 7 6 7 7 8 5 7 5 7 4 7 4 8 5 7 
5 7 6 7 6 7 4 8 4 7 3 7 3 7 5 7 
4 7 7 7 7 8 7 7 6 7 6 7 5 7 3 7 
4 7 5 7 5 7 6 7 6 7 6 7 6 7 4 7 
3 7 5 7 6 7 3 7 6 7 6 7 6 7 5 6 
5 7 5 7 4 7 5 7 5 7 4 7 4 6 4 7 
3 7 6 7 7 7 7 6 8 7 8 7 6 7 5 6 
5 7 4 7 4 7 4 6 5 7 4 7 4 6 3 7 
4 7 0 6 1 7 3 7 4 6 5 7 6 6 6 7 
6 7 5 6 4 7 5 6 5 7 3 6 4 7 4 6 
6 7 7 6 8 7 9 6 7 7 6 6 4 7 3 6 
3 7 6 6 8 6 8 7 8 6 7 7 6 6 3 6 
5 7 4 6 4 6 6 7 5 6 7 6 7 7 7 6 
7 6 8 7 8 6 7 6 7 6 6 7 6 6 5 6 
6 6 6 7 4 6 4 6 5 6 5 6 6 7 8 6 
7 6 7 6 6 6 5 6 6 7 6 6 4 6 6 6 
7 6 8 6 8 6 5 6 7 6 4 6 2 6 3 6 
6 7 5 6 8 6 10 6 10 6 8 6 10 6 9 6 
6 5 7 6 7 6 7 6 5 6 6 6 7 6 5 6 
6 6 6 6 7 6 8 6 9 6 10 5 11 6 10 6 
10 6 8 6 5 6 2589 1576 300 MP stroke
4 5 4 6 5 6 5 6 7 6 6 5 8 6 7 6 
8 6 8 6 11 5 9 6 8 6 7 5 4 6 1 6 
2 6 4 5 5 6 8 6 9 5 10 6 6 6 5 5 
6 6 7 6 8 5 7 6 5 5 3 6 0 6 -1 5 
2 6 3 5 3 6 6 6 8 5 8 6 8 5 8 6 
11 5 11 6 10 5 10 6 11 5 8 6 10 5 9 6 
7 5 5 6 5 5 1 6 2 5 6 6 8 5 7 5 
8 6 8 5 10 6 11 5 15 5 17 6 16 5 15 6 
10 5 6 5 4 6 3 5 4 5 8 6 10 5 12 5 
11 6 11 5 11 5 10 5 12 6 11 5 12 5 7 6 
6 5 7 5 8 5 9 6 12 5 11 5 12 5 13 5 
14 6 15 5 19 5 19 5 15 5 12 6 13 5 7 5 
6 5 9 5 11 5 12 6 17 5 23 5 20 5 19 5 
18 5 14 5 8 5 11 5 12 5 13 6 12 5 13 5 
13 5 12 5 14 5 16 5 18 5 16 5 17 5 15 5 
17 5 21 5 28 5 35 5 37 5 36 5 36 5 31 5 
23 5 24 5 30 5 30 5 40 5 59 5 70 4 64 5 
34 3 848 846 138 MP stroke
/c9 { 0.000000 0.000000 1.000000 sr} bdef
c9
-50 -1 -171 -3 -162 -3 -140 -3 -136 -3 -116 -3 -103 -3 -90 -4 
-85 -3 -73 -3 -74 -3 -73 -3 -69 -3 -62 -3 -58 -4 -52 -3 
-47 -3 -43 -3 -43 -3 -43 -3 -45 -4 -43 -3 -43 -3 -43 -3 
-41 -3 -40 -3 -39 -4 -37 -3 -38 -3 -39 -3 -35 -3 -35 -3 
-33 -4 -31 -3 -29 -3 -30 -3 -32 -3 -34 -3 -35 -4 -38 -3 
-41 -3 -47 -3 -69 -3 -186 -4 -136 -3 -106 -3 -84 8 -60 8 
4 8 5 8 4 8 5 8 4 8 5 8 4 8 4 7 
4 8 4 8 4 8 6 8 4 8 5 8 4 7 5 8 
3 8 4 8 4 8 4 7 4 8 4 8 4 8 4 7 
4 8 5 8 5 7 5 8 4 8 5 7 4 8 4 8 
4 7 4 8 4 7 3 8 4 8 6 7 4 8 4 7 
4 8 3 7 2 8 4 7 4 8 5 7 5 8 4 7 
4 7 5 8 5 7 4 8 5 7 5 7 4 8 3 7 
5 8 5 7 4 7 4 8 4 7 4 7 4 7 4 8 
5 7 6 7 5 7 5 8 5 7 5 7 4 7 4 7 
4 8 4 7 5 7 5 7 5 7 5 7 5 7 3 8 
3 7 5 7 5 7 6 7 6 7 4 7 5 7 4 7 
4 7 5 7 5 7 4 7 5 7 3 7 5 7 6 7 
5 7 5 7 6 7 5 7 5 6 5 7 6 7 4 7 
4 7 5 7 4 7 5 6 6 7 6 7 6 7 6 7 
4 6 5 7 3 7 4 7 4 6 5 7 4 7 5 7 
4 6 5 7 4 7 4 6 5 7 6 7 5 6 5 7 
6 7 5 6 4 7 4 6 4 7 3 7 3 6 3 7 
4 6 4 7 5 6 4 7 5 6 6 7 6 6 6 7 
6 6 6 7 5 6 5 7 5 6 5 7 6 6 5 6 
6 7 5 6 5 7 6 6 5 6 5 7 6 6 6 6 
6 7 6 6 6 6 5 7 8 6 7 6 9 7 7 6 
5 6 4 6 4 7 4 6 7 6 8 6 7 7 3 6 
4 6 5 6 5 6 5 7 7 6 6 6 4 6 2 6 
4 6 5 7 3 6 5 6 7 6 7 6 5 6 5 6 
4 6 3 6 2 6 4 6 6 6 5 7 5 6 6 6 
7 6 4 6 5 6 6 6 6 6 5 5 7 6 8 6 
6 6 4 6 4 6 3 6 2 6 3 6 6 6 8 6 
10 6 8 6 7 5 8 6 6 6 5 6 7 6 6 6 
5 5 3 6 3 6 3 6 4 6 6 5 7 6 8 6 
8 6 8 6 9 5 8 6 6 6 4 5 4 6 4 6 
4 6 6 5 8 6 7 6 5 5 3 6 3 6 5 5 
5 6 8 6 11 5 2766 1422 300 MP stroke
9 6 8 5 9 6 6 6 5 5 7 6 8 5 7 6 
9 6 8 5 8 6 6 5 7 6 8 5 8 6 8 5 
11 6 8 5 5 6 6 5 7 6 4 5 7 6 10 5 
11 6 10 5 10 6 9 5 6 5 5 6 4 5 4 6 
5 5 9 5 9 6 8 5 6 6 6 5 6 5 5 6 
7 5 8 5 9 6 8 5 10 5 10 6 10 5 7 5 
6 5 4 6 2 5 4 5 7 6 7 5 7 5 11 5 
10 6 14 5 13 5 14 5 12 5 10 6 7 5 9 5 
10 5 10 5 11 6 10 5 10 5 12 5 14 5 16 5 
14 6 9 5 6 5 1 5 1 5 7 5 11 5 16 5 
19 5 19 5 18 6 19 5 18 5 10 5 9 5 9 5 
7 5 7 5 10 5 11 5 10 5 9 5 7 5 7 5 
9 5 11 5 9 5 9 5 9 5 10 5 12 5 18 5 
23 5 25 5 26 5 23 4 24 5 23 5 22 5 23 5 
22 5 21 5 19 5 18 5 17 4 16 5 10 5 11 5 
16 5 18 5 23 5 25 4 25 5 23 5 16 5 14 5 
18 4 21 5 18 5 26 5 24 5 23 4 27 5 32 5 
39 5 46 4 53 5 56 5 61 5 59 4 848 690 143 MP stroke
/c10 { 1.000000 0.000000 1.000000 sr} bdef
c10
-150 -3 -151 -3 -138 -3 -123 -3 -107 -3 -94 -3 -85 -3 -80 -3 
-76 -3 -75 -3 -66 -3 -60 -3 -59 -4 -56 -3 -53 -3 -51 -3 
-50 -3 -46 -3 -44 -3 -42 -3 -43 -3 -41 -3 -41 -3 -40 -3 
-39 -3 -37 -3 -35 -3 -35 -3 -33 -3 -32 -3 -31 -3 -29 -3 
-28 -3 -27 -4 -27 -3 -28 -3 -29 -3 -29 -3 -29 -3 -28 -3 
-26 -3 -25 -3 -25 -3 -26 -3 -26 -3 -27 -3 -29 -4 -29 -3 
-30 -3 -33 -3 -37 -3 -54 -3 -165 -3 -124 -3 -97 -3 -78 7 
-60 8 5 8 4 8 4 7 4 8 5 8 4 7 3 8 
5 8 3 7 3 8 4 8 3 7 4 8 4 7 4 8 
4 8 5 7 5 8 5 7 5 8 6 7 4 8 4 7 
4 8 4 7 4 8 4 7 5 7 4 8 5 7 4 8 
4 7 4 7 3 8 4 7 4 8 2 7 4 7 5 8 
5 7 4 7 4 7 6 8 4 7 3 7 4 7 5 8 
3 7 3 7 4 7 4 7 3 8 4 7 5 7 5 7 
4 7 5 7 4 7 4 8 4 7 3 7 3 7 4 7 
4 7 3 7 4 7 4 7 4 7 4 7 5 7 5 7 
5 7 5 7 4 7 5 7 5 7 6 7 5 7 5 7 
4 6 3 7 3 7 5 7 5 7 5 7 6 7 5 6 
5 7 4 7 5 7 5 7 5 6 4 7 5 7 4 7 
5 6 5 7 5 7 6 7 5 6 6 7 5 7 5 6 
5 7 5 7 5 6 4 7 7 7 5 6 4 7 3 6 
3 7 2 7 4 6 3 7 6 6 5 7 4 6 4 7 
5 6 5 7 7 6 6 7 6 6 6 7 6 6 5 7 
4 6 6 7 4 6 5 6 5 7 3 6 3 7 4 6 
5 6 5 7 6 6 7 6 6 7 5 6 5 6 6 7 
3 6 5 6 8 7 6 6 5 6 5 6 4 7 1 6 
3 6 5 6 6 7 6 6 7 6 6 6 6 6 8 7 
6 6 6 6 5 6 4 6 6 6 6 7 5 6 6 6 
5 6 4 6 5 6 5 6 6 6 7 6 6 6 7 6 
5 6 6 7 6 6 6 6 7 6 8 6 8 6 7 6 
6 6 7 5 5 6 5 6 5 6 4 6 6 6 5 6 
5 6 6 6 6 6 6 6 6 6 7 6 5 5 4 6 
4 6 5 6 7 6 7 6 8 5 8 6 8 6 7 6 
7 6 6 5 6 6 3 6 4 6 4 6 5 5 6 6 
9 6 11 5 10 6 8 6 5 6 4 5 3 6 4 6 
5 5 6 6 6 6 7 5 5 6 5 6 6 5 5 6 
4 5 5 6 8 6 8 5 8 6 6 5 9 6 8 6 
9 5 8 6 10 5 2775 1355 300 MP stroke
7 6 6 5 6 6 6 5 7 6 8 5 8 6 8 5 
7 6 7 5 5 6 6 5 5 6 7 5 4 6 6 5 
4 5 5 6 5 5 6 6 9 5 11 5 9 6 10 5 
12 6 11 5 10 5 9 6 7 5 6 5 6 6 4 5 
7 5 6 6 6 5 5 5 6 5 6 6 7 5 10 5 
9 6 8 5 8 5 9 5 9 6 8 5 10 5 10 5 
10 5 12 6 10 5 11 5 9 5 11 5 9 6 11 5 
11 5 12 5 10 5 9 5 8 6 9 5 6 5 6 5 
10 5 12 5 9 5 13 5 15 5 10 5 7 6 11 5 
8 5 7 5 8 5 12 5 9 5 13 5 13 5 13 5 
12 5 13 5 9 5 7 5 9 5 11 5 15 5 14 5 
11 5 12 5 12 5 11 5 16 5 21 5 21 5 19 4 
21 5 18 5 16 5 15 5 11 5 8 5 6 5 8 5 
10 4 13 5 15 5 16 5 18 5 18 5 18 5 22 4 
25 5 25 5 24 5 24 5 21 4 20 5 21 5 23 5 
26 5 26 4 27 5 25 5 25 5 23 4 22 5 24 5 
26 5 27 4 28 5 31 5 32 5 39 4 43 5 71 5 
89 4 39 2 848 655 139 MP stroke
gr

c10
0 sg
%%IncludeResource: font Helvetica
/Helvetica /ISOLatin1Encoding 166.667 FMSR

 818 4587 mt 
( ) s
5056  631 mt 
( ) s
12.5 w
%%IncludeResource: font Symbol
/Symbol /ISOLatin1Encoding 125 FMSR

4091  927 mt 
(D) s
%%IncludeResource: font Helvetica-Bold
/Helvetica-Bold /ISOLatin1Encoding 125 FMSR

4167  927 mt 
( ) s
%%IncludeResource: font Symbol
/Symbol /ISOLatin1Encoding 125 FMSR

4201  927 mt 
(g) s
%%IncludeResource: font Helvetica-Bold
/Helvetica-Bold /ISOLatin1Encoding 125 FMSR

4252  927 mt 
( = 8 J/m) s
%%IncludeResource: font Helvetica-Bold
/Helvetica-Bold /ISOLatin1Encoding 100 FMSR

4714  865 mt 
(2) s
gs 3766 750 1226 950 rc
16.6667 w
250 0 3815 879 2 MP stroke
gr

16.6667 w
%%IncludeResource: font Symbol
/Symbol /ISOLatin1Encoding 125 FMSR

4091 1157 mt 
(D) s
%%IncludeResource: font Helvetica-Bold
/Helvetica-Bold /ISOLatin1Encoding 125 FMSR

4167 1157 mt 
( ) s
%%IncludeResource: font Symbol
/Symbol /ISOLatin1Encoding 125 FMSR

4201 1157 mt 
(g) s
%%IncludeResource: font Helvetica-Bold
/Helvetica-Bold /ISOLatin1Encoding 125 FMSR

4252 1157 mt 
( = 12.5 J/m) s
%%IncludeResource: font Helvetica-Bold
/Helvetica-Bold /ISOLatin1Encoding 100 FMSR

4887 1095 mt 
(2) s
gs 3766 750 1226 950 rc
c8
250 0 3815 1109 2 MP stroke
gr

c8
0 sg
%%IncludeResource: font Symbol
/Symbol /ISOLatin1Encoding 125 FMSR

4091 1387 mt 
(D) s
%%IncludeResource: font Helvetica-Bold
/Helvetica-Bold /ISOLatin1Encoding 125 FMSR

4167 1387 mt 
( ) s
%%IncludeResource: font Symbol
/Symbol /ISOLatin1Encoding 125 FMSR

4201 1387 mt 
(g) s
%%IncludeResource: font Helvetica-Bold
/Helvetica-Bold /ISOLatin1Encoding 125 FMSR

4252 1387 mt 
( = 18.5 J/m) s
%%IncludeResource: font Helvetica-Bold
/Helvetica-Bold /ISOLatin1Encoding 100 FMSR

4887 1325 mt 
(2) s
gs 3766 750 1226 950 rc
c9
250 0 3815 1339 2 MP stroke
gr

c9
0 sg
%%IncludeResource: font Symbol
/Symbol /ISOLatin1Encoding 125 FMSR

4091 1617 mt 
(D) s
%%IncludeResource: font Helvetica-Bold
/Helvetica-Bold /ISOLatin1Encoding 125 FMSR

4167 1617 mt 
( ) s
%%IncludeResource: font Symbol
/Symbol /ISOLatin1Encoding 125 FMSR

4201 1617 mt 
(g) s
%%IncludeResource: font Helvetica-Bold
/Helvetica-Bold /ISOLatin1Encoding 125 FMSR

4252 1617 mt 
( = 23.5 J/m) s
%%IncludeResource: font Helvetica-Bold
/Helvetica-Bold /ISOLatin1Encoding 100 FMSR

4887 1555 mt 
(2) s
gs 3766 750 1226 950 rc
c10
250 0 3815 1569 2 MP stroke
12.5 w
gr

12.5 w
c10

end %%Color Dict

eplot
%%EndObject

epage
end

showpage

%%Trailer
%%EOF
