%!PS-Adobe-3.0 EPSF-3.0
%%Creator: MATLAB, The MathWorks, Inc. Version 7.12.0.635 (R2011a). Operating System: Linux 2.6.32-358.6.2.el6.x86_64 #1 SMP Thu May 16 11:21:38 CDT 2013 x86_64.
%%Title: ./EPT_Tests_Paired_IronOre_Stress_K0.eps
%%CreationDate: 08/15/2013  15:46:56
%%DocumentNeededFonts: Helvetica-Bold
%%+ Helvetica
%%DocumentProcessColors: Cyan Magenta Yellow Black
%%LanguageLevel: 2
%%Pages: 1
%%BoundingBox:    24    69   599   605
%%EndComments

%%BeginProlog
% MathWorks dictionary
/MathWorks 160 dict begin
% definition operators
/bdef {bind def} bind def
/ldef {load def} bind def
/xdef {exch def} bdef
/xstore {exch store} bdef
% operator abbreviations
/c  /clip ldef
/cc /concat ldef
/cp /closepath ldef
/gr /grestore ldef
/gs /gsave ldef
/mt /moveto ldef
/np /newpath ldef
/cm /currentmatrix ldef
/sm /setmatrix ldef
/rm /rmoveto ldef
/rl /rlineto ldef
/s {show newpath} bdef
/sc {setcmykcolor} bdef
/sr /setrgbcolor ldef
/sg /setgray ldef
/w /setlinewidth ldef
/j /setlinejoin ldef
/cap /setlinecap ldef
/rc {rectclip} bdef
/rf {rectfill} bdef
% page state control
/pgsv () def
/bpage {/pgsv save def} bdef
/epage {pgsv restore} bdef
/bplot /gsave ldef
/eplot {stroke grestore} bdef
% orientation switch
/portraitMode 0 def /landscapeMode 1 def /rotateMode 2 def
% coordinate system mappings
/dpi2point 0 def
% font control
/FontSize 0 def
/FMS {/FontSize xstore findfont [FontSize 0 0 FontSize neg 0 0]
  makefont setfont} bdef
/reencode {exch dup where {pop load} {pop StandardEncoding} ifelse
  exch dup 3 1 roll findfont dup length dict begin
  { 1 index /FID ne {def}{pop pop} ifelse } forall
  /Encoding exch def currentdict end definefont pop} bdef
/isroman {findfont /CharStrings get /Agrave known} bdef
/FMSR {3 1 roll 1 index dup isroman {reencode} {pop pop} ifelse
  exch FMS} bdef
/csm {1 dpi2point div -1 dpi2point div scale neg translate
 dup landscapeMode eq {pop -90 rotate}
  {rotateMode eq {90 rotate} if} ifelse} bdef
% line types: solid, dotted, dashed, dotdash
/SO { [] 0 setdash } bdef
/DO { [.5 dpi2point mul 4 dpi2point mul] 0 setdash } bdef
/DA { [6 dpi2point mul] 0 setdash } bdef
/DD { [.5 dpi2point mul 4 dpi2point mul 6 dpi2point mul 4
  dpi2point mul] 0 setdash } bdef
% macros for lines and objects
/L {lineto stroke} bdef
/MP {3 1 roll moveto 1 sub {rlineto} repeat} bdef
/AP {{rlineto} repeat} bdef
/PDlw -1 def
/W {/PDlw currentlinewidth def setlinewidth} def
/PP {closepath eofill} bdef
/DP {closepath stroke} bdef
/MR {4 -2 roll moveto dup  0 exch rlineto exch 0 rlineto
  neg 0 exch rlineto closepath} bdef
/FR {MR stroke} bdef
/PR {MR fill} bdef
/L1i {{currentfile picstr readhexstring pop} image} bdef
/tMatrix matrix def
/MakeOval {newpath tMatrix currentmatrix pop translate scale
0 0 1 0 360 arc tMatrix setmatrix} bdef
/FO {MakeOval stroke} bdef
/PO {MakeOval fill} bdef
/PD {currentlinewidth 2 div 0 360 arc fill
   PDlw -1 eq not {PDlw w /PDlw -1 def} if} def
/FA {newpath tMatrix currentmatrix pop translate scale
  0 0 1 5 -2 roll arc tMatrix setmatrix stroke} bdef
/PA {newpath tMatrix currentmatrix pop	translate 0 0 moveto scale
  0 0 1 5 -2 roll arc closepath tMatrix setmatrix fill} bdef
/FAn {newpath tMatrix currentmatrix pop translate scale
  0 0 1 5 -2 roll arcn tMatrix setmatrix stroke} bdef
/PAn {newpath tMatrix currentmatrix pop translate 0 0 moveto scale
  0 0 1 5 -2 roll arcn closepath tMatrix setmatrix fill} bdef
/vradius 0 def /hradius 0 def /lry 0 def
/lrx 0 def /uly 0 def /ulx 0 def /rad 0 def
/MRR {/vradius xdef /hradius xdef /lry xdef /lrx xdef /uly xdef
  /ulx xdef newpath tMatrix currentmatrix pop ulx hradius add uly
  vradius add translate hradius vradius scale 0 0 1 180 270 arc 
  tMatrix setmatrix lrx hradius sub uly vradius add translate
  hradius vradius scale 0 0 1 270 360 arc tMatrix setmatrix
  lrx hradius sub lry vradius sub translate hradius vradius scale
  0 0 1 0 90 arc tMatrix setmatrix ulx hradius add lry vradius sub
  translate hradius vradius scale 0 0 1 90 180 arc tMatrix setmatrix
  closepath} bdef
/FRR {MRR stroke } bdef
/PRR {MRR fill } bdef
/MlrRR {/lry xdef /lrx xdef /uly xdef /ulx xdef /rad lry uly sub 2 div def
  newpath tMatrix currentmatrix pop ulx rad add uly rad add translate
  rad rad scale 0 0 1 90 270 arc tMatrix setmatrix lrx rad sub lry rad
  sub translate rad rad scale 0 0 1 270 90 arc tMatrix setmatrix
  closepath} bdef
/FlrRR {MlrRR stroke } bdef
/PlrRR {MlrRR fill } bdef
/MtbRR {/lry xdef /lrx xdef /uly xdef /ulx xdef /rad lrx ulx sub 2 div def
  newpath tMatrix currentmatrix pop ulx rad add uly rad add translate
  rad rad scale 0 0 1 180 360 arc tMatrix setmatrix lrx rad sub lry rad
  sub translate rad rad scale 0 0 1 0 180 arc tMatrix setmatrix
  closepath} bdef
/FtbRR {MtbRR stroke } bdef
/PtbRR {MtbRR fill } bdef
/stri 6 array def /dtri 6 array def
/smat 6 array def /dmat 6 array def
/tmat1 6 array def /tmat2 6 array def /dif 3 array def
/asub {/ind2 exch def /ind1 exch def dup dup
  ind1 get exch ind2 get sub exch } bdef
/tri_to_matrix {
  2 0 asub 3 1 asub 4 0 asub 5 1 asub
  dup 0 get exch 1 get 7 -1 roll astore } bdef
/compute_transform {
  dmat dtri tri_to_matrix tmat1 invertmatrix 
  smat stri tri_to_matrix tmat2 concatmatrix } bdef
/ds {stri astore pop} bdef
/dt {dtri astore pop} bdef
/db {2 copy /cols xdef /rows xdef mul dup 3 mul string
  currentfile 
  3 index 0 eq {/ASCIIHexDecode filter}
  {/ASCII85Decode filter 3 index 2 eq {/RunLengthDecode filter} if }
  ifelse exch readstring pop
  dup 0 3 index getinterval /rbmap xdef
  dup 2 index dup getinterval /gbmap xdef
  1 index dup 2 mul exch getinterval /bbmap xdef pop pop}bdef
/it {gs np dtri aload pop moveto lineto lineto cp c
  cols rows 8 compute_transform 
  rbmap gbmap bbmap true 3 colorimage gr}bdef
/il {newpath moveto lineto stroke}bdef
currentdict end def
%%EndProlog

%%BeginSetup
MathWorks begin

0 cap

end
%%EndSetup

%%Page: 1 1
%%BeginPageSetup
%%PageBoundingBox:    24    69   599   605
MathWorks begin
bpage
%%EndPageSetup

%%BeginObject: obj1
bplot

/dpi2point 8.33333 def
portraitMode -0158 5475 csm

  366   426  4786  4473 rc
84 dict begin %Colortable dictionary
/c0 { 0.000000 0.000000 0.000000 sr} bdef
/c1 { 1.000000 1.000000 1.000000 sr} bdef
/c2 { 0.900000 0.000000 0.000000 sr} bdef
/c3 { 0.000000 0.820000 0.000000 sr} bdef
/c4 { 0.000000 0.000000 0.800000 sr} bdef
/c5 { 0.910000 0.820000 0.320000 sr} bdef
/c6 { 1.000000 0.260000 0.820000 sr} bdef
/c7 { 0.000000 0.820000 0.820000 sr} bdef
c0
1 j
1 sg
   0    0 5651 5651 rf
12.5 w
0 3956 4237 0 0 -3956 848 4520 4 MP
PP
-4237 0 0 3956 4237 0 0 -3956 848 4520 5 MP stroke
gs 848 565 4238 3956 rc
16.6667 w
0 sg
0 -3956 0 1560 848 2961 3 MP stroke
-18 -66 -25 -85 -30 -86 -29 -78 -30 -75 -32 -61 -35 -73 -34 -66 
-32 -51 -37 -54 -36 -57 -41 -53 -45 -60 -45 -55 -48 -47 -56 -54 
-51 -44 -54 -35 -62 -57 -60 -37 -64 -40 -70 -45 -71 -39 -85 -30 
-100 -33 -136 -44 -197 -61 -337 -101 -1691 -767 25 -1 27 1 22 -2 
21 -2 23 -1 30 -2 25 1 34 3 2 -8 34 3 30 0 
24 -2 30 2 19 -2 36 -1 15 2 23 0 26 -3 29 0 
27 3 24 -1 24 4 27 -1 17 -4 21 -1 24 -1 27 -1 
24 -1 18 0 21 -1 25 0 21 1 24 2 22 -1 24 1 
23 -2 24 1 25 1 22 -1 24 0 23 2 21 -2 23 -1 
21 3 29 1 15 -2 24 1 18 -3 24 0 21 3 18 -7 
24 3 19 2 19 0 21 0 16 -2 22 -2 21 0 19 2 
16 0 21 6 21 1 20 -4 13 -4 20 0 17 -1 19 3 
21 -3 19 1 17 0 16 0 20 0 20 0 16 -1 19 -1 
20 0 15 1 23 0 13 -1 18 1 11 -3 20 3 12 -3 
21 3 5 -7 13 0 23 3 13 -4 17 0 17 1 15 -1 
15 5 16 -2 16 1 15 -2 18 1 20 1 9 -2 16 0 
22 3 5 -2 16 0 15 1 13 -1 17 0 15 1 14 -3 
16 2 10 -3 14 0 15 0 16 1 13 -1 17 2 14 -3 
14 -2 13 0 19 4 9 -3 14 2 13 -1 13 -3 14 1 
11 -2 12 -2 10 -1 11 3 14 1 15 0 12 0 7 -3 
13 -2 13 2 11 1 13 -1 13 0 9 2 7 -5 16 4 
9 0 10 -3 11 -2 8 2 10 -2 21 7 4 -4 6 0 
13 1 10 -1 10 -2 9 8 14 -6 10 2 8 -4 9 -2 
15 3 7 0 8 0 15 1 7 -5 7 -2 11 -5 13 3 
5 -3 4 -2 11 3 14 6 3 -10 8 -3 11 7 10 0 
10 2 8 -1 6 -3 10 4 10 4 12 2 4 -1 3 -6 
11 6 9 0 6 -3 9 4 6 -3 10 4 7 -5 13 9 
4 -7 8 0 8 2 6 12 6 -11 10 1 6 -1 7 -1 
7 -1 9 4 9 0 2 -7 6 0 7 -3 11 8 4 -6 
6 1 4 -2 8 6 6 3 7 0 10 1 2 -6 3 -5 
6 -1 6 4 5 -3 8 5 4 -1 6 3 7 1 4 -2 
6 1 6 0 7 1 7 0 1 -1 8 1 9 6 3 -2 
6 -1 6 1 5 0 6 1 7 2 4 -2 3 -5 3 4 
4 -2 4 -2 7 1 5 -1 5 2 5 0 5 1 6 0 
6 7 5 -2 5 0 4 -3 4 -2 7 4 4 -3 5 2 
4 0 2 -1 5 0 6 -5 4 -4 5 3 5 0 6 3 
2 0 4 -3 2 -5 5 4 6 -3 5 7 3 -11 3 4 
3 -9 6 10 2 0 1216 2959 300 MP stroke
2 -9 3 -4 3 2 4 3 4 4 2 -13 2 -1 4 -1 
1 -5 4 1 4 5 3 -9 2 6 4 0 4 1 0 -12 
3 -10 7 15 0 -8 2 -9 5 6 6 11 -2 -4 4 5 
3 -2 1 -9 3 -1 5 8 3 -5 4 8 -1 -17 2 -2 
3 -8 4 12 2 -1 4 6 3 7 2 -9 1 -3 3 -5 
4 7 3 -4 3 6 2 2 2 -2 3 5 1 2 2 -3 
5 14 1 -6 4 5 2 -2 3 1 2 -2 1 -9 2 -5 
0 -5 3 4 2 5 3 -2 2 4 2 -4 1 -9 3 -1 
3 11 2 1 0 -12 3 5 0 -6 1 -6 3 2 2 -5 
3 16 3 5 0 -12 2 1 0 -5 2 1 0 -17 1 -2 
1 -8 3 15 1 -10 0 -19 3 10 3 4 2 -4 0 2 
1 -10 1 -6 1 -10 1 -1 1 -3 3 6 2 -4 1 -5 
2 2 1 -4 1 2 2 -3 0 -13 1 -8 2 -1 2 1 
1 -2 3 13 1 -10 2 -5 1 -6 1 -4 0 -11 2 -5 
0 -11 3 7 1 -5 1 1 1 6 1 -4 1 -2 3 11 
1 -13 2 4 1 -10 2 5 1 -5 2 -1 1 -1 1 -5 
1 -3 1 -3 0 -43 2 5 2 -2 1 5 -1 -13 2 1 
0 -15 1 2 3 8 2 16 0 -3 2 11 1 -4 1 -1 
1 7 1 0 1 -9 0 -2 2 4 0 -19 1 -8 1 -3 
1 -5 2 10 1 5 -1 -18 0 -11 1 3 1 -1 1 -10 
1 -4 1 0 1 5 1 0 1 -6 1 -7 0 3 1 -12 
2 19 1 -4 0 -16 0 6 1 -17 1 8 0 -21 1 -2 
2 18 0 -26 1 -17 0 8 1 -14 1 2 1 19 1 -25 
0 -26 1 -2 1 -6 1 0 2 11 1 -10 -1 -34 0 -1 
1 5 0 -28 0 10 1 -2 1 -2 0 3 1 10 0 -17 
1 9 0 -7 2 11 0 -11 1 -2 1 -7 1 14 0 -4 
1 -2 1 20 0 -13 1 -4 0 7 1 18 1 7 0 -21 
1 0 0 10 0 -20 1 -1 1 19 1 9 0 1 1 12 
0 -8 1 -7 1 -3 2 60 0 -11 -1 -53 0 -26 1 18 
0 -9 1 -11 0 -14 1 19 0 -13 1 -14 0 -32 1 20 
1 10 0 -55 1 27 0 -37 1 12 1 22 1 -24 0 -89 
1 -26 0 -82 1 -14 0 -59 1 -50 0 -101 1 -24 0 -30 
1 -57 0 -144 1 -26 0 -75 1 8 1 -20 1 -48 0 -35 
1 10 1 60 0 -100 1 -62 0 -57 853 4521 270 MP stroke
gr

16.6667 w
0 sg
0.1 sg
%%IncludeResource: font Helvetica-Bold
/Helvetica-Bold /ISOLatin1Encoding 183.333 FMSR

2331 4841 mt 
(Vertical Stress) s
 559 3516 mt  -90 rotate
(Lateral Pressure Ratio) s
90 rotate
gs 848 565 4238 3956 rc
/c8 { 1.000000 0.000000 0.000000 sr} bdef
c8
0 -3956 0 797 848 3724 3 MP stroke
-20 -76 -22 -84 -23 -75 -24 -83 -28 -86 -31 -87 -27 -71 -31 -68 
-28 -50 -33 -60 -33 -54 -36 -60 -36 -46 -34 -50 -35 -41 -41 -47 
-39 -41 -41 -38 -42 -39 -43 -36 -46 -28 -50 -42 -51 -34 -54 -32 
-53 -30 -58 -27 -61 -22 -72 -24 -85 -36 -100 -24 -130 -33 -196 -68 
-338 -100 -1675 -724 27 -1 30 6 26 -4 25 -1 24 2 25 1 
20 -5 29 6 20 0 23 -8 24 3 28 1 22 -6 24 0 
34 6 17 -6 28 0 22 4 27 -3 25 3 24 1 26 -4 
24 3 29 0 19 -2 25 2 16 0 28 1 15 3 23 -2 
22 0 20 2 22 0 25 -2 32 7 23 0 18 -1 19 1 
24 1 21 0 21 0 18 1 17 -2 30 4 14 -2 18 2 
24 4 18 -5 16 3 20 2 20 0 22 0 19 -1 15 -1 
22 2 22 1 21 -1 13 -1 21 4 21 3 8 -3 24 2 
23 2 11 -3 12 -1 25 1 10 -2 14 0 19 0 17 0 
17 0 16 1 23 2 12 -2 20 1 19 1 12 -4 15 -1 
16 2 17 0 17 0 14 -3 17 3 17 -2 19 3 17 0 
13 -2 15 -2 15 0 13 -1 21 3 7 -1 12 -4 16 2 
15 -1 13 0 17 1 14 -1 16 -2 10 -1 13 1 16 0 
12 -2 16 4 12 -6 14 2 15 -4 16 5 14 0 11 -2 
18 1 15 2 11 2 14 0 11 -4 12 0 17 -2 13 2 
12 2 12 -2 10 -1 13 1 14 -4 11 3 16 2 14 -4 
14 0 10 -1 11 -2 9 1 12 2 16 2 10 -1 6 -5 
14 4 10 -1 12 2 11 -1 9 -1 12 1 11 2 7 -1 
15 -4 7 3 11 -4 9 4 13 -1 10 0 7 -3 11 -1 
7 -3 12 4 9 -6 12 -2 11 7 8 4 10 -4 9 1 
10 -3 6 -1 14 3 4 -5 14 5 6 -3 6 -1 8 -4 
9 -2 12 3 4 -5 6 -1 16 2 8 2 2 -3 7 -1 
10 -2 12 -2 8 0 8 0 8 1 9 2 5 0 8 2 
9 1 10 4 9 -3 10 3 5 -6 9 3 6 -2 12 5 
9 2 5 -2 4 -2 9 2 8 -5 9 4 5 -8 12 6 
4 -7 6 -3 6 1 6 -1 7 2 6 -5 10 6 3 0 
5 -5 9 2 3 -7 8 1 7 -2 7 2 7 -1 7 2 
4 -4 8 7 6 -1 4 -1 4 -6 8 -2 8 3 5 -3 
4 -5 7 -3 9 10 0 -13 8 5 2 -11 6 -3 2 -7 
7 4 6 2 5 -6 6 1 2 -6 7 2 1 -8 6 7 
2 1 4 -4 5 0 8 6 5 1 2 -3 7 2 5 3 
2 -11 8 9 2 -3 2 -3 4 0 6 -3 7 3 5 -2 
4 1 0 -12 3 0 5 -6 6 3 5 -2 3 -4 6 4 
5 -2 6 0 1 -6 1353 3072 300 MP stroke
6 4 5 1 8 7 3 1 0 -13 3 -5 5 8 2 -9 
9 13 5 1 -3 -11 2 3 4 -5 7 5 3 -5 6 4 
4 -1 4 -9 4 0 4 0 7 9 0 -18 5 4 4 -5 
5 4 2 -8 0 -5 5 -4 2 -1 4 -2 5 2 4 -4 
5 12 0 -13 6 1 4 0 0 -9 2 -9 4 7 3 -2 
4 -1 3 -3 4 -1 1 -5 5 6 3 -6 3 4 0 -4 
4 0 5 2 2 -7 5 8 2 -5 1 -2 1 2 2 -7 
5 8 3 -3 3 1 2 -10 2 2 2 -7 0 -12 1 0 
4 6 3 0 4 2 4 0 2 0 3 2 1 -1 3 -6 
1 -10 1 0 2 -3 4 6 4 5 3 1 0 -14 2 -4 
4 15 0 -17 4 10 3 -11 1 -1 4 8 1 2 3 -2 
1 -7 1 7 2 -1 2 -8 3 8 0 -8 1 -12 2 1 
1 -12 3 -2 4 6 3 4 2 2 3 -8 1 0 1 -5 
1 8 2 -14 2 -3 1 -3 1 -2 2 3 1 -4 1 -1 
1 -1 0 5 -1 -7 0 -2 4 6 4 12 1 -1 0 2 
1 0 3 -4 1 -6 2 6 0 3 1 -12 2 5 1 -8 
2 0 3 9 2 3 2 3 4 19 -1 -14 0 -6 1 -11 
1 -3 3 9 2 -4 4 7 0 -5 1 -6 2 6 0 -11 
1 -2 1 -8 1 -6 2 9 2 -9 1 -4 2 9 2 -3 
1 -5 2 -1 2 10 2 -1 0 -15 1 -7 1 -1 2 7 
2 0 1 -2 0 -14 1 -12 3 17 1 -5 1 -2 1 4 
1 -8 2 23 1 -9 0 -11 1 15 1 -17 1 7 2 0 
2 3 1 -1 1 -16 -1 -22 3 2 -1 -16 0 1 1 -4 
2 5 2 4 2 14 1 -4 1 -11 1 8 2 2 1 5 
0 -22 1 -5 1 1 2 -4 0 -13 1 17 1 -8 1 0 
1 -4 1 -6 1 -6 2 0 2 28 1 13 0 -3 1 0 
1 9 0 -22 1 -7 0 -20 1 -10 1 -4 1 6 0 -16 
1 -6 1 1 1 -6 1 13 1 12 1 -14 0 -90 1 13 
1 13 1 2 1 6 1 8 0 -26 2 -5 1 6 0 -31 
1 7 0 -16 1 3 0 2 1 22 1 -4 0 -14 1 1 
1 16 1 -4 1 -9 0 -7 1 -6 1 -3 1 27 0 -7 
-1 -40 1 -21 0 2 0 -1 1 -5 0 12 1 -11 1 -23 
0 -21 0 4 1 2 2 13 1 20 1 17 0 -20 1 -37 
-1 -31 1 7 0 -8 0 2 1 -11 0 2 1 2 1 -1 
0 -5 0 2 1 7 1 15 0 22 0 -31 1 -38 0 -58 
1 6 0 -18 1 -8 0 -49 1 -4 1 9 0 -25 1 -6 
1 3 0 -79 1 15 0 32 1 7 0 -12 1 -15 0 -26 
1 40 0 -12 1 -2 862 3853 300 MP stroke
0 -76 1 -19 0 -65 1 -54 0 -39 0 15 1 -24 0 -12 
1 15 0 -71 1 -22 0 3 1 -11 1 -1 0 -80 1 -18 
0 -138 1 -8 0 -32 1 46 1 82 0 -84 1 32 0 -107 
850 4521 25 MP stroke
/c9 { 0.000000 0.000000 1.000000 sr} bdef
c9
0 1479 848 3042 2 MP stroke
-5 -27 -18 -79 -18 -69 -18 -67 -19 -63 -21 -63 -19 -57 -22 -55 
-27 -58 -22 -47 -29 -71 -25 -38 -31 -60 -31 -54 -28 -34 -30 -43 
-32 -38 -36 -39 -33 -29 -38 -44 -36 -38 -33 -28 -41 -34 -37 -24 
-43 -35 -42 -31 -43 -19 -48 -28 -56 -37 -61 -34 -57 -26 -58 -22 
-71 -13 -84 -17 -102 -25 -138 -28 -182 -45 -311 -108 -1695 -755 19 -3 
27 -6 21 -1 34 2 4 -8 20 6 25 0 25 -4 26 -1 
24 0 30 -3 21 -2 15 3 18 -2 26 3 22 -1 24 2 
28 1 16 -4 26 -2 29 5 13 -6 23 0 20 1 31 2 
9 -6 18 -2 22 -2 22 -2 22 3 22 -2 21 -1 17 0 
14 -4 20 -2 22 2 2 -7 19 -3 10 -2 21 2 9 -3 
23 0 21 2 12 -2 22 0 13 -2 24 -3 16 -1 21 0 
15 1 15 -1 18 1 21 1 17 0 22 0 15 -3 17 -1 
22 -1 17 2 20 0 15 2 18 -4 18 -1 21 -1 17 4 
7 -5 21 4 19 2 17 2 18 0 21 0 21 4 12 -4 
13 -3 25 3 13 0 10 -4 16 3 17 1 16 -1 14 4 
16 -2 16 -3 17 3 15 0 23 1 10 -2 11 -1 16 0 
11 -4 13 4 13 -1 10 -3 18 -1 13 -1 16 3 6 -8 
21 3 12 -4 15 -1 17 2 3 -2 14 2 17 -5 16 1 
8 0 14 1 12 -2 20 5 -2 -5 14 -2 13 2 10 -2 
16 -2 10 -1 15 1 12 0 11 -1 14 2 14 0 11 -2 
11 3 17 0 11 -5 4 0 13 -2 14 3 7 4 7 -4 
13 1 11 3 10 -3 9 -2 19 2 3 -4 13 2 9 -3 
12 3 6 -7 14 3 11 0 13 1 9 -1 10 -1 13 3 
8 -2 13 3 11 1 6 -6 15 3 8 1 8 -4 12 2 
13 1 6 -4 9 -2 8 2 16 3 9 -1 10 -1 9 1 
8 -3 12 1 11 2 7 -5 6 -5 15 1 6 0 11 1 
2 -4 8 4 10 -2 5 -5 6 -1 10 0 8 -2 10 3 
11 0 10 2 2 -6 6 1 11 0 4 -2 7 -3 13 8 
-1 -14 7 6 4 -1 12 3 9 3 7 -3 4 -1 12 6 
8 0 4 -4 11 0 6 -3 5 -1 10 0 12 8 4 -4 
5 -3 7 4 5 -9 11 0 10 9 2 -9 8 -3 7 7 
10 2 6 -1 5 -2 11 0 6 4 7 -4 2 -5 7 2 
9 4 7 -3 9 3 6 -3 5 1 5 -3 10 4 2 -4 
10 0 4 -6 7 6 5 0 8 -1 6 -4 7 0 4 -2 
8 -4 7 -1 6 0 4 -7 9 6 7 2 3 -3 3 -4 
5 -2 2 -7 5 -2 4 1 8 1 2 -1 6 -3 8 0 
5 -1 6 3 4 -3 8 1 2 -2 6 -4 5 0 5 0 
5 0 3 -10 5 7 1538 3096 300 MP stroke
15 8 -2 -11 4 1 4 -4 9 2 1 -7 4 2 3 -9 
7 1 2 0 5 0 4 -5 5 1 8 -3 3 -1 5 -3 
4 -8 4 0 7 2 2 -4 5 14 1 -10 7 0 1 -7 
3 0 8 -3 8 1 2 0 -3 -15 2 -1 5 -3 6 -1 
5 -2 2 -3 5 3 5 -3 2 -3 4 -6 5 -4 7 8 
-1 -10 7 4 4 -6 1 2 2 -8 7 6 4 -5 3 -7 
2 -2 1 -15 6 7 5 -3 2 -1 5 1 5 -1 4 -2 
4 3 2 0 1 -4 7 3 2 -8 2 5 1 -3 9 1 
4 4 1 -6 3 1 1 -5 3 -1 4 -4 5 -3 5 4 
4 4 0 -17 7 7 3 -3 4 5 1 -5 3 4 3 -2 
2 -10 2 -2 7 14 2 -8 4 3 2 -6 3 -3 5 2 
0 -10 5 7 3 -3 1 -9 2 -3 4 3 2 -7 5 -1 
4 -1 3 6 2 -5 1 -4 3 0 2 0 1 -5 3 -11 
2 -1 4 16 1 -3 1 -10 3 6 3 -5 2 -1 2 4 
4 4 3 -6 3 -1 1 -10 2 11 2 -4 2 -11 1 -10 
1 -8 1 -4 3 4 2 -5 2 -8 2 6 0 -10 4 5 
4 -4 2 -1 3 -6 2 -6 2 -1 2 2 2 -2 2 -6 
2 -4 3 3 2 0 1 -10 2 -1 2 3 4 3 2 -1 
1 -4 1 -6 3 0 3 6 3 -1 0 -10 1 -6 4 1 
5 14 3 1 2 -9 -1 -11 0 -14 3 -2 3 9 2 -9 
3 0 1 -1 1 -4 -2 -18 3 13 4 11 2 5 1 -11 
1 5 2 -1 -1 -16 1 -14 3 -2 2 -6 0 -7 2 5 
4 19 1 0 0 -29 2 -3 1 -20 2 -4 3 11 0 -15 
3 -5 2 9 0 -17 2 -5 1 -9 2 2 1 -21 3 8 
2 2 0 2 -1 -4 1 -7 1 -6 1 -1 2 7 2 3 
4 10 1 -11 0 -26 3 13 3 11 -1 -5 2 -1 0 -14 
1 8 1 -5 0 -8 1 -5 1 5 3 -4 2 -4 0 -22 
1 0 2 10 3 13 0 -29 -1 -24 2 -4 2 11 2 0 
1 -5 0 -16 1 10 0 -32 2 15 1 4 1 -5 3 8 
1 -1 0 -4 2 -7 1 -3 0 -33 1 7 1 7 3 20 
0 -5 1 -12 1 0 1 -21 1 2 1 2 1 -12 1 -6 
1 2 3 28 -1 -16 0 -15 1 -5 1 -6 1 0 1 -9 
1 7 2 2 1 1 1 5 0 3 0 -17 1 -3 0 1 
1 -2 1 -11 1 -3 1 -6 0 -16 1 -9 0 -10 1 -11 
1 0 1 -6 0 -17 1 2 1 0 1 22 2 8 0 -26 
-1 -5 0 11 1 -14 0 11 1 -6 1 -13 0 1 1 6 
2 -10 1 -7 1 8 1 -13 0 -13 1 -13 0 -6 1 -17 
1 -11 0 13 1 34 886 3838 300 MP stroke
1 -14 0 -28 1 4 1 7 2 12 1 22 -1 -23 -1 -53 
1 -9 0 -2 1 -7 1 -4 1 -13 1 -12 1 22 1 3 
0 -20 1 6 1 3 0 -59 1 -5 0 -7 1 7 0 -26 
0 14 1 -19 0 -23 1 -18 0 -16 0 7 1 -24 0 -23 
1 -8 1 -18 1 -15 1 14 0 7 1 3 0 22 1 -2 
1 -31 0 11 0 -11 1 -2 0 -60 1 -29 0 -30 0 16 
1 25 0 -5 1 27 0 -55 1 11 0 -88 1 19 0 38 
1 -21 0 -38 1 -31 0 15 1 -20 0 -31 1 -55 0 -27 
1 24 0 -40 850 4521 67 MP stroke
/c10 { 1.000000 0.000000 1.000000 sr} bdef
c10
-3 -20 -12 -66 -13 -76 -14 -76 -15 -58 -17 -77 -15 -66 -14 -43 
-14 -37 -21 -67 -20 -54 -15 -44 -15 -34 -17 -34 -22 -62 -22 -51 
-23 -46 -24 -42 -21 -28 -20 -33 -23 -38 -24 -36 -25 -25 -30 -41 
-19 -9 -27 -35 -22 -18 -27 -25 -31 -29 -26 -18 -39 -35 -35 -25 
-34 -21 -29 -11 -41 -28 -34 -15 -44 -25 -44 -16 -42 -25 -49 -19 
-50 -20 -53 -14 -60 -19 -66 -14 -81 -19 -97 -18 -135 -37 -195 -48 
-321 -84 -1675 -717 29 2 12 -1 29 5 28 0 13 -4 21 -1 
25 -1 28 2 16 0 29 0 17 -2 27 2 26 -4 7 -7 
22 3 15 3 27 1 12 -3 19 -6 21 1 19 2 16 -2 
19 -1 18 -6 30 -1 12 -2 20 3 26 -2 11 -2 19 0 
22 -2 17 4 22 1 14 -4 24 2 28 1 12 -5 19 0 
23 1 4 -5 23 4 17 -3 24 2 18 -1 12 0 21 -1 
26 1 5 0 19 -3 18 -1 10 0 20 -7 18 -3 18 1 
15 1 14 -1 20 2 15 -2 17 -2 11 0 21 -1 14 -1 
15 2 17 -2 21 0 14 0 16 -2 11 -5 12 0 20 0 
11 -2 13 2 16 -4 16 0 15 -1 15 2 17 -1 14 -2 
14 0 17 -6 18 2 18 -1 11 -4 18 1 17 -1 10 -2 
15 1 14 -3 12 -3 14 2 15 -1 19 2 7 -6 14 -1 
15 2 12 -5 12 -2 13 -2 15 1 16 -3 16 3 10 -4 
10 -4 17 1 12 0 14 -4 17 0 12 -4 15 6 4 -9 
12 -2 10 2 11 -1 15 2 12 -1 15 -1 3 -7 17 1 
11 1 13 -3 14 1 14 -4 9 -1 17 -2 11 -3 14 2 
6 -2 13 0 13 -2 9 0 19 2 6 -5 8 -3 16 -1 
14 -1 9 -2 17 4 1 -6 10 3 14 0 9 -3 12 2 
12 -2 17 1 6 -2 6 -4 9 0 15 3 12 -1 12 7 
7 -5 11 -7 9 5 8 -9 13 3 9 -1 11 4 13 -2 
14 0 5 -4 9 -2 7 -3 15 2 5 0 12 5 4 -5 
14 5 10 1 16 -1 3 -2 3 -4 16 4 7 -6 7 0 
8 -1 8 -2 11 0 7 -2 8 -6 11 0 10 1 6 -3 
6 -1 10 -3 10 2 5 -2 9 -3 11 3 9 1 6 -3 
9 5 -2 -11 14 3 5 -5 7 3 -1 -2 7 -3 16 6 
5 -4 6 -4 5 3 11 0 13 1 0 -10 9 3 9 -4 
7 5 7 -4 6 0 5 -2 7 -5 10 -1 6 -8 7 2 
1 -4 5 2 7 4 4 -3 5 2 10 2 6 -2 5 -1 
5 -2 9 3 8 -1 5 0 9 -6 6 4 3 -7 9 0 
4 -3 7 2 6 -1 4 1 11 3 1 -5 8 1 8 -2 
-3 -5 8 5 8 0 6 -1 4 0 8 -2 10 4 3 -8 
7 4 9 -3 6 5 1633 3278 300 MP stroke
7 -3 1 -6 6 8 6 -6 9 2 6 5 7 -4 9 0 
1 0 7 5 4 -3 6 1 6 -1 0 -8 4 2 9 0 
9 7 2 -5 2 0 4 -1 7 1 7 2 0 -8 8 4 
9 2 1 -2 2 -10 4 -2 9 5 3 -7 -1 -10 8 7 
4 -2 10 8 4 3 -1 -13 6 4 3 -4 7 0 4 3 
7 5 5 1 3 -2 3 -3 3 -2 6 4 4 -3 4 4 
1 -9 8 8 3 -9 4 4 2 -3 0 -7 4 -1 9 10 
5 -5 5 4 2 -2 0 -8 7 -1 10 4 4 7 0 -14 
6 8 6 -1 5 0 -1 -13 3 4 2 -1 2 -4 2 8 
5 -10 5 -1 3 -2 3 -3 3 7 4 3 2 -6 3 -1 
5 6 5 7 0 -12 2 -5 4 9 3 -9 2 -5 7 3 
4 6 -1 -11 4 -1 3 2 5 3 3 -3 3 -4 6 9 
-1 -11 1 -10 4 4 5 9 0 -8 1 2 3 -1 3 -6 
2 -3 6 5 1 0 5 4 4 -3 3 6 1 -13 2 2 
3 -7 3 -1 5 5 3 0 4 0 3 -4 -3 -24 4 8 
4 -2 6 5 4 16 -1 -17 2 -7 3 3 3 -3 5 6 
3 2 -1 -18 3 5 3 -6 2 9 2 -3 2 -6 2 -2 
3 3 5 3 0 -19 1 6 3 9 4 7 1 -2 1 0 
2 -1 1 -4 3 9 0 -10 3 4 1 -11 3 2 1 -10 
1 0 3 3 3 0 4 2 2 -3 1 -7 3 -4 2 1 
3 2 -1 -18 2 3 3 3 3 -7 2 -2 7 22 -1 -16 
1 3 0 -5 2 -4 2 8 1 -6 2 -10 3 2 3 -4 
3 4 3 2 2 3 0 -11 2 -8 3 4 3 0 3 -2 
-1 -18 1 1 1 4 4 16 1 -6 -1 -5 0 -4 1 -6 
2 -9 -1 -20 3 9 2 7 2 1 -1 -16 4 -2 0 -11 
1 3 0 -12 1 0 2 -9 2 -5 1 -1 2 1 3 7 
1 -10 2 2 1 -4 2 -3 1 -12 0 -4 2 -5 1 2 
3 6 1 -16 1 -5 2 20 -1 -22 2 -1 3 8 1 -4 
1 -9 2 0 2 -17 1 0 0 -12 4 4 3 -2 0 4 
3 12 0 -14 1 -10 1 12 2 -4 1 7 0 -31 1 -8 
2 -25 1 14 1 -6 1 40 1 -5 2 3 0 -14 1 -14 
1 7 1 -17 2 22 2 -2 1 5 2 -11 1 -7 1 1 
0 -17 1 13 -1 -9 1 -18 1 11 1 7 2 6 1 -6 
2 5 1 -15 2 4 1 2 0 -26 1 -12 1 -3 0 -34 
1 3 1 -14 1 13 2 23 1 -1 -1 -39 0 -3 2 -12 
1 0 0 -6 1 2 1 13 2 -4 -1 -4 0 -21 1 5 
1 -1 1 -13 0 -25 0 1 1 -11 1 -3 1 13 2 3 
0 -3 -1 -30 2 18 894 3850 300 MP stroke
1 4 1 -14 1 15 1 14 1 4 2 10 1 -12 -1 -22 
1 20 0 -41 1 -8 1 -8 1 14 1 3 0 -21 1 5 
0 4 1 2 0 -25 1 -7 1 -5 0 -6 1 -7 1 4 
1 4 1 5 0 -7 1 14 1 4 -1 -46 1 25 0 -28 
1 -4 0 -17 1 -30 0 -2 1 -13 0 -35 1 5 1 22 
0 -2 1 -12 1 -5 0 -21 1 -14 0 2 1 -22 0 -37 
1 -20 0 -11 1 -4 0 -15 1 -26 0 -3 1 -2 0 7 
1 -106 0 -34 1 7 0 -35 1 28 0 19 0 -73 1 -23 
0 -18 1 -25 0 -34 1 -11 0 -1 853 4521 70 MP stroke
gr

c10
0 sg
%%IncludeResource: font Helvetica
/Helvetica /ISOLatin1Encoding 166.667 FMSR

 818 4587 mt 
( ) s
5056  631 mt 
( ) s
8.33333 w
DO
SO
12.5 w
0.1 sg
 848 4520 mt 5085 4520 L
 848  564 mt 5085  564 L
 848 4520 mt  848  564 L
5085 4520 mt 5085  564 L
 848 4520 mt 5085 4520 L
 848 4520 mt  848  564 L
 848 4520 mt  848 4456 L
 848  564 mt  848  628 L
%%IncludeResource: font Helvetica
/Helvetica /ISOLatin1Encoding 133.333 FMSR

 811 4667 mt 
(0) s
1613 4520 mt 1613 4456 L
1613  564 mt 1613  628 L
1539 4667 mt 
(20) s
2378 4520 mt 2378 4456 L
2378  564 mt 2378  628 L
2304 4667 mt 
(40) s
3143 4520 mt 3143 4456 L
3143  564 mt 3143  628 L
3069 4667 mt 
(60) s
3908 4520 mt 3908 4456 L
3908  564 mt 3908  628 L
3834 4667 mt 
(80) s
4674 4520 mt 4674 4456 L
4674  564 mt 4674  628 L
4563 4667 mt 
(100) s
 848 4520 mt  911 4520 L
5085 4520 mt 5021 4520 L
 639 4569 mt 
(0.1) s
 848 3860 mt  911 3860 L
5085 3860 mt 5021 3860 L
 639 3909 mt 
(0.2) s
 848 3201 mt  911 3201 L
5085 3201 mt 5021 3201 L
 639 3250 mt 
(0.3) s
 848 2542 mt  911 2542 L
5085 2542 mt 5021 2542 L
 639 2591 mt 
(0.4) s
 848 1883 mt  911 1883 L
5085 1883 mt 5021 1883 L
 639 1932 mt 
(0.5) s
 848 1224 mt  911 1224 L
5085 1224 mt 5021 1224 L
 639 1273 mt 
(0.6) s
 848  564 mt  911  564 L
5085  564 mt 5021  564 L
 639  613 mt 
(0.7) s
 848 4520 mt 5085 4520 L
 848  564 mt 5085  564 L
 848 4520 mt  848  564 L
5085 4520 mt 5085  564 L
0 sg
%%IncludeResource: font Symbol
/Symbol /ISOLatin1Encoding 125 FMSR

2678  927 mt 
(D) s
%%IncludeResource: font Helvetica-Bold
/Helvetica-Bold /ISOLatin1Encoding 125 FMSR

2754  927 mt 
( ) s
%%IncludeResource: font Symbol
/Symbol /ISOLatin1Encoding 125 FMSR

2788  927 mt 
(g) s
%%IncludeResource: font Helvetica-Bold
/Helvetica-Bold /ISOLatin1Encoding 125 FMSR

2839  927 mt 
( = 8 J/m) s
%%IncludeResource: font Helvetica-Bold
/Helvetica-Bold /ISOLatin1Encoding 100 FMSR

3301  865 mt 
(2) s
gs 2353 750 1227 950 rc
16.6667 w
250 0 2403 879 2 MP stroke
gr

16.6667 w
%%IncludeResource: font Symbol
/Symbol /ISOLatin1Encoding 125 FMSR

2678 1157 mt 
(D) s
%%IncludeResource: font Helvetica-Bold
/Helvetica-Bold /ISOLatin1Encoding 125 FMSR

2754 1157 mt 
( ) s
%%IncludeResource: font Symbol
/Symbol /ISOLatin1Encoding 125 FMSR

2788 1157 mt 
(g) s
%%IncludeResource: font Helvetica-Bold
/Helvetica-Bold /ISOLatin1Encoding 125 FMSR

2839 1157 mt 
( = 12.5 J/m) s
%%IncludeResource: font Helvetica-Bold
/Helvetica-Bold /ISOLatin1Encoding 100 FMSR

3474 1095 mt 
(2) s
gs 2353 750 1227 950 rc
c8
250 0 2403 1109 2 MP stroke
gr

c8
0 sg
%%IncludeResource: font Symbol
/Symbol /ISOLatin1Encoding 125 FMSR

2678 1387 mt 
(D) s
%%IncludeResource: font Helvetica-Bold
/Helvetica-Bold /ISOLatin1Encoding 125 FMSR

2754 1387 mt 
( ) s
%%IncludeResource: font Symbol
/Symbol /ISOLatin1Encoding 125 FMSR

2788 1387 mt 
(g) s
%%IncludeResource: font Helvetica-Bold
/Helvetica-Bold /ISOLatin1Encoding 125 FMSR

2839 1387 mt 
( = 18.5 J/m) s
%%IncludeResource: font Helvetica-Bold
/Helvetica-Bold /ISOLatin1Encoding 100 FMSR

3474 1325 mt 
(2) s
gs 2353 750 1227 950 rc
c9
250 0 2403 1339 2 MP stroke
gr

c9
0 sg
%%IncludeResource: font Symbol
/Symbol /ISOLatin1Encoding 125 FMSR

2678 1617 mt 
(D) s
%%IncludeResource: font Helvetica-Bold
/Helvetica-Bold /ISOLatin1Encoding 125 FMSR

2754 1617 mt 
( ) s
%%IncludeResource: font Symbol
/Symbol /ISOLatin1Encoding 125 FMSR

2788 1617 mt 
(g) s
%%IncludeResource: font Helvetica-Bold
/Helvetica-Bold /ISOLatin1Encoding 125 FMSR

2839 1617 mt 
( = 23.5 J/m) s
%%IncludeResource: font Helvetica-Bold
/Helvetica-Bold /ISOLatin1Encoding 100 FMSR

3474 1555 mt 
(2) s
gs 2353 750 1227 950 rc
c10
250 0 2403 1569 2 MP stroke
12.5 w
gr

12.5 w
c10

end %%Color Dict

eplot
%%EndObject

epage
end

showpage

%%Trailer
%%EOF
