%!PS-Adobe-3.0 EPSF-3.0
%%Creator: MATLAB, The MathWorks, Inc. Version 7.12.0.635 (R2011a). Operating System: Linux 2.6.32-358.6.2.el6.x86_64 #1 SMP Thu May 16 11:21:38 CDT 2013 x86_64.
%%Title: ./UC_StressStain_SE_60kPa.eps
%%CreationDate: 08/15/2013  13:56:59
%%DocumentNeededFonts: Helvetica-Bold
%%+ Helvetica
%%DocumentProcessColors: Cyan Magenta Yellow Black
%%LanguageLevel: 2
%%Pages: 1
%%BoundingBox:    29    69   611   605
%%EndComments

%%BeginProlog
% MathWorks dictionary
/MathWorks 160 dict begin
% definition operators
/bdef {bind def} bind def
/ldef {load def} bind def
/xdef {exch def} bdef
/xstore {exch store} bdef
% operator abbreviations
/c  /clip ldef
/cc /concat ldef
/cp /closepath ldef
/gr /grestore ldef
/gs /gsave ldef
/mt /moveto ldef
/np /newpath ldef
/cm /currentmatrix ldef
/sm /setmatrix ldef
/rm /rmoveto ldef
/rl /rlineto ldef
/s {show newpath} bdef
/sc {setcmykcolor} bdef
/sr /setrgbcolor ldef
/sg /setgray ldef
/w /setlinewidth ldef
/j /setlinejoin ldef
/cap /setlinecap ldef
/rc {rectclip} bdef
/rf {rectfill} bdef
% page state control
/pgsv () def
/bpage {/pgsv save def} bdef
/epage {pgsv restore} bdef
/bplot /gsave ldef
/eplot {stroke grestore} bdef
% orientation switch
/portraitMode 0 def /landscapeMode 1 def /rotateMode 2 def
% coordinate system mappings
/dpi2point 0 def
% font control
/FontSize 0 def
/FMS {/FontSize xstore findfont [FontSize 0 0 FontSize neg 0 0]
  makefont setfont} bdef
/reencode {exch dup where {pop load} {pop StandardEncoding} ifelse
  exch dup 3 1 roll findfont dup length dict begin
  { 1 index /FID ne {def}{pop pop} ifelse } forall
  /Encoding exch def currentdict end definefont pop} bdef
/isroman {findfont /CharStrings get /Agrave known} bdef
/FMSR {3 1 roll 1 index dup isroman {reencode} {pop pop} ifelse
  exch FMS} bdef
/csm {1 dpi2point div -1 dpi2point div scale neg translate
 dup landscapeMode eq {pop -90 rotate}
  {rotateMode eq {90 rotate} if} ifelse} bdef
% line types: solid, dotted, dashed, dotdash
/SO { [] 0 setdash } bdef
/DO { [.5 dpi2point mul 4 dpi2point mul] 0 setdash } bdef
/DA { [6 dpi2point mul] 0 setdash } bdef
/DD { [.5 dpi2point mul 4 dpi2point mul 6 dpi2point mul 4
  dpi2point mul] 0 setdash } bdef
% macros for lines and objects
/L {lineto stroke} bdef
/MP {3 1 roll moveto 1 sub {rlineto} repeat} bdef
/AP {{rlineto} repeat} bdef
/PDlw -1 def
/W {/PDlw currentlinewidth def setlinewidth} def
/PP {closepath eofill} bdef
/DP {closepath stroke} bdef
/MR {4 -2 roll moveto dup  0 exch rlineto exch 0 rlineto
  neg 0 exch rlineto closepath} bdef
/FR {MR stroke} bdef
/PR {MR fill} bdef
/L1i {{currentfile picstr readhexstring pop} image} bdef
/tMatrix matrix def
/MakeOval {newpath tMatrix currentmatrix pop translate scale
0 0 1 0 360 arc tMatrix setmatrix} bdef
/FO {MakeOval stroke} bdef
/PO {MakeOval fill} bdef
/PD {currentlinewidth 2 div 0 360 arc fill
   PDlw -1 eq not {PDlw w /PDlw -1 def} if} def
/FA {newpath tMatrix currentmatrix pop translate scale
  0 0 1 5 -2 roll arc tMatrix setmatrix stroke} bdef
/PA {newpath tMatrix currentmatrix pop	translate 0 0 moveto scale
  0 0 1 5 -2 roll arc closepath tMatrix setmatrix fill} bdef
/FAn {newpath tMatrix currentmatrix pop translate scale
  0 0 1 5 -2 roll arcn tMatrix setmatrix stroke} bdef
/PAn {newpath tMatrix currentmatrix pop translate 0 0 moveto scale
  0 0 1 5 -2 roll arcn closepath tMatrix setmatrix fill} bdef
/vradius 0 def /hradius 0 def /lry 0 def
/lrx 0 def /uly 0 def /ulx 0 def /rad 0 def
/MRR {/vradius xdef /hradius xdef /lry xdef /lrx xdef /uly xdef
  /ulx xdef newpath tMatrix currentmatrix pop ulx hradius add uly
  vradius add translate hradius vradius scale 0 0 1 180 270 arc 
  tMatrix setmatrix lrx hradius sub uly vradius add translate
  hradius vradius scale 0 0 1 270 360 arc tMatrix setmatrix
  lrx hradius sub lry vradius sub translate hradius vradius scale
  0 0 1 0 90 arc tMatrix setmatrix ulx hradius add lry vradius sub
  translate hradius vradius scale 0 0 1 90 180 arc tMatrix setmatrix
  closepath} bdef
/FRR {MRR stroke } bdef
/PRR {MRR fill } bdef
/MlrRR {/lry xdef /lrx xdef /uly xdef /ulx xdef /rad lry uly sub 2 div def
  newpath tMatrix currentmatrix pop ulx rad add uly rad add translate
  rad rad scale 0 0 1 90 270 arc tMatrix setmatrix lrx rad sub lry rad
  sub translate rad rad scale 0 0 1 270 90 arc tMatrix setmatrix
  closepath} bdef
/FlrRR {MlrRR stroke } bdef
/PlrRR {MlrRR fill } bdef
/MtbRR {/lry xdef /lrx xdef /uly xdef /ulx xdef /rad lrx ulx sub 2 div def
  newpath tMatrix currentmatrix pop ulx rad add uly rad add translate
  rad rad scale 0 0 1 180 360 arc tMatrix setmatrix lrx rad sub lry rad
  sub translate rad rad scale 0 0 1 0 180 arc tMatrix setmatrix
  closepath} bdef
/FtbRR {MtbRR stroke } bdef
/PtbRR {MtbRR fill } bdef
/stri 6 array def /dtri 6 array def
/smat 6 array def /dmat 6 array def
/tmat1 6 array def /tmat2 6 array def /dif 3 array def
/asub {/ind2 exch def /ind1 exch def dup dup
  ind1 get exch ind2 get sub exch } bdef
/tri_to_matrix {
  2 0 asub 3 1 asub 4 0 asub 5 1 asub
  dup 0 get exch 1 get 7 -1 roll astore } bdef
/compute_transform {
  dmat dtri tri_to_matrix tmat1 invertmatrix 
  smat stri tri_to_matrix tmat2 concatmatrix } bdef
/ds {stri astore pop} bdef
/dt {dtri astore pop} bdef
/db {2 copy /cols xdef /rows xdef mul dup 3 mul string
  currentfile 
  3 index 0 eq {/ASCIIHexDecode filter}
  {/ASCII85Decode filter 3 index 2 eq {/RunLengthDecode filter} if }
  ifelse exch readstring pop
  dup 0 3 index getinterval /rbmap xdef
  dup 2 index dup getinterval /gbmap xdef
  1 index dup 2 mul exch getinterval /bbmap xdef pop pop}bdef
/it {gs np dtri aload pop moveto lineto lineto cp c
  cols rows 8 compute_transform 
  rbmap gbmap bbmap true 3 colorimage gr}bdef
/il {newpath moveto lineto stroke}bdef
currentdict end def
%%EndProlog

%%BeginSetup
MathWorks begin

0 cap

end
%%EndSetup

%%Page: 1 1
%%BeginPageSetup
%%PageBoundingBox:    29    69   611   605
MathWorks begin
bpage
%%EndPageSetup

%%BeginObject: obj1
bplot

/dpi2point 8.33333 def
portraitMode -0158 5475 csm

  403   426  4848  4474 rc
84 dict begin %Colortable dictionary
/c0 { 0.000000 0.000000 0.000000 sr} bdef
/c1 { 1.000000 1.000000 1.000000 sr} bdef
/c2 { 0.900000 0.000000 0.000000 sr} bdef
/c3 { 0.000000 0.820000 0.000000 sr} bdef
/c4 { 0.000000 0.000000 0.800000 sr} bdef
/c5 { 0.910000 0.820000 0.320000 sr} bdef
/c6 { 1.000000 0.260000 0.820000 sr} bdef
/c7 { 0.000000 0.820000 0.820000 sr} bdef
c0
1 j
1 sg
   0    0 5651 5651 rf
12.5 w
0 3955 4237 0 0 -3955 848 4520 4 MP
PP
-4237 0 0 3955 4237 0 0 -3955 848 4520 5 MP stroke
8.33333 w
DO
SO
12.5 w
0.1 sg
 848 4520 mt 5085 4520 L
 848  565 mt 5085  565 L
 848 4520 mt  848  565 L
5085 4520 mt 5085  565 L
 848 4520 mt 5085 4520 L
 848 4520 mt  848  565 L
 848 4520 mt  848 4456 L
 848  565 mt  848  628 L
%%IncludeResource: font Helvetica
/Helvetica /ISOLatin1Encoding 133.333 FMSR

 811 4668 mt 
(0) s
1554 4520 mt 1554 4456 L
1554  565 mt 1554  628 L
1425 4668 mt 
(0.01) s
2260 4520 mt 2260 4456 L
2260  565 mt 2260  628 L
2131 4668 mt 
(0.02) s
2966 4520 mt 2966 4456 L
2966  565 mt 2966  628 L
2837 4668 mt 
(0.03) s
3672 4520 mt 3672 4456 L
3672  565 mt 3672  628 L
3543 4668 mt 
(0.04) s
4378 4520 mt 4378 4456 L
4378  565 mt 4378  628 L
4249 4668 mt 
(0.05) s
5085 4520 mt 5085 4456 L
5085  565 mt 5085  628 L
4956 4668 mt 
(0.06) s
 848 4520 mt  911 4520 L
5085 4520 mt 5021 4520 L
 750 4569 mt 
(0) s
 848 4080 mt  911 4080 L
5085 4080 mt 5021 4080 L
 750 4129 mt 
(2) s
 848 3641 mt  911 3641 L
5085 3641 mt 5021 3641 L
 750 3690 mt 
(4) s
 848 3201 mt  911 3201 L
5085 3201 mt 5021 3201 L
 750 3250 mt 
(6) s
 848 2762 mt  911 2762 L
5085 2762 mt 5021 2762 L
 750 2811 mt 
(8) s
 848 2322 mt  911 2322 L
5085 2322 mt 5021 2322 L
 676 2371 mt 
(10) s
 848 1883 mt  911 1883 L
5085 1883 mt 5021 1883 L
 676 1932 mt 
(12) s
 848 1443 mt  911 1443 L
5085 1443 mt 5021 1443 L
 676 1492 mt 
(14) s
 848 1004 mt  911 1004 L
5085 1004 mt 5021 1004 L
 676 1053 mt 
(16) s
 848  565 mt  911  565 L
5085  565 mt 5021  565 L
 676  614 mt 
(18) s
 848 4520 mt 5085 4520 L
 848  565 mt 5085  565 L
 848 4520 mt  848  565 L
5085 4520 mt 5085  565 L
gs 848 565 4238 3956 rc
16.6667 w
0 sg
13 2 12 4 13 -1 13 2 12 2 13 -1 12 3 13 -2 
12 0 13 -1 13 3 12 6 13 -1 12 2 13 14 12 -3 
13 -1 13 3 12 1 13 -5 12 -5 13 -5 13 -2 12 -1 
13 0 12 1 13 1 12 -2 13 9 13 -4 12 7 13 9 
12 5 13 1 12 -3 13 7 13 -1 12 3 13 7 12 0 
13 -7 12 -1 13 8 13 10 12 1 13 -3 12 10 13 3 
12 -9 13 -9 13 7 12 4 13 -4 12 -1 13 2 12 5 
13 1 13 -1 12 1 13 5 12 -3 13 -4 12 -5 13 -3 
13 1 12 5 13 -2 12 -2 13 -1 12 1 13 3 13 5 
12 2 13 6 12 2 13 6 12 -6 13 6 13 7 12 -5 
13 -5 12 3 13 -8 12 -5 13 4 13 3 12 8 13 7 
12 -1 13 -1 12 6 13 -10 13 -1 12 12 13 8 12 5 
13 -7 12 -4 13 7 13 9 12 2 13 2 12 8 13 -1 
12 -5 13 0 13 -1 12 -1 13 9 12 -3 13 -7 12 -5 
13 12 13 9 12 -5 13 -2 12 8 13 8 12 3 13 2 
13 -1 12 3 13 3 12 -8 13 3 12 2 13 -8 13 3 
12 7 13 0 12 -3 13 -1 13 -7 12 -3 13 -1 12 12 
13 -2 12 0 13 14 13 -5 12 -5 13 8 12 -3 13 -5 
12 8 13 5 13 -2 12 1 13 1 12 -1 13 -2 12 -4 
13 -6 13 3 12 -7 13 -11 12 2 13 -1 12 -7 13 5 
13 -5 12 2 13 -2 12 -9 13 -1 12 -6 13 21 13 4 
12 -3 13 2 12 -1 13 -13 12 -3 13 -9 13 -6 12 6 
13 4 12 -10 13 -11 12 -4 13 -11 13 0 12 -10 13 4 
12 -4 13 -15 12 -9 13 -3 13 -11 12 -16 13 -8 12 -15 
13 -8 12 0 13 -10 13 -12 12 -7 13 -13 12 -12 13 -24 
12 -16 13 -12 13 -12 12 -14 13 -17 12 -22 13 -21 12 -28 
13 -18 13 -24 12 -18 13 -21 12 -24 13 -27 12 -28 13 -27 
13 -30 12 -33 13 -31 12 -33 13 -29 12 -40 13 -33 13 -42 
12 -40 13 -45 12 -47 13 -48 12 -50 13 -51 13 -60 12 -63 
13 -65 12 -65 13 -60 12 -50 13 -37 13 -23 12 -17 13 -10 
12 -6 13 -4 12 -3 848 4516 244 MP stroke
gr

16.6667 w
0 sg
0.1 sg
%%IncludeResource: font Helvetica-Bold
/Helvetica-Bold /ISOLatin1Encoding 183.333 FMSR

2351 4842 mt 
(Vertical Strain) s
 596 3424 mt  -90 rotate
(Vertical Stress [kPa]) s
90 rotate
gs 848 565 4238 3956 rc
/c8 { 1.000000 0.000000 0.000000 sr} bdef
c8
12 1 12 -16 13 4 12 -5 12 11 13 -6 12 -9 12 -2 
12 9 13 4 12 -2 12 11 13 -5 12 5 12 -6 12 -8 
13 7 12 1 12 3 13 -6 12 4 12 -3 12 6 13 9 
12 9 12 5 13 3 12 2 12 -5 13 -8 12 -6 12 -8 
12 -12 13 14 12 7 12 -12 13 -2 12 -7 12 8 12 8 
13 -11 12 -4 12 7 13 10 12 -12 12 12 12 11 13 -9 
12 2 12 8 13 3 12 12 12 -5 12 -4 13 12 12 12 
12 2 13 -11 12 2 12 3 13 -8 12 13 12 2 12 -8 
13 2 12 2 12 -4 13 19 12 -3 12 -5 12 2 13 5 
12 11 12 -19 13 1 12 13 12 9 12 -10 13 19 12 10 
12 -13 13 12 12 14 12 2 12 -6 13 -1 12 8 12 5 
13 -8 12 -5 12 -3 13 -3 12 -10 12 15 12 -1 13 -10 
12 9 12 -4 13 6 12 4 12 12 12 1 13 -1 12 -14 
12 1 13 -10 12 10 12 1 12 -9 13 9 12 1 12 3 
13 15 12 -1 12 -3 12 8 13 5 12 -7 12 -4 13 11 
12 0 12 5 13 -2 12 1 12 -10 12 -5 13 4 12 4 
12 -10 13 -13 12 39 12 3 12 -11 13 -9 12 1 12 -8 
13 3 12 10 12 9 12 -2 13 -4 12 -15 12 12 13 0 
12 -3 12 -9 12 -1 13 3 12 -9 12 2 13 0 12 4 
12 3 13 -4 12 7 12 -15 12 -9 13 4 12 -6 12 8 
13 1 12 -10 12 7 12 1 13 17 12 -2 12 3 13 -8 
12 -15 12 5 12 -14 13 3 12 10 12 -3 13 7 12 -5 
12 -3 12 -21 13 -8 12 -5 12 7 13 2 12 7 12 -14 
13 -10 12 -4 12 -4 12 -10 13 0 12 7 12 -2 13 -11 
12 -8 12 4 12 -19 13 -5 12 -1 12 -11 13 -11 12 -13 
12 -8 12 -11 13 -7 12 -2 12 -11 13 -21 12 -8 12 -10 
12 -3 13 -21 12 -10 12 -23 13 -2 12 -16 12 -16 13 -15 
12 -19 12 -11 12 -25 13 -21 12 -17 12 -15 13 -15 12 1 
12 -22 12 -25 13 -22 12 -29 12 -17 13 -36 12 -23 12 -18 
12 -28 13 -29 12 -31 12 -21 13 -26 12 -35 12 -31 12 -34 
13 -35 12 -28 12 -35 13 -36 12 -35 12 -41 13 -41 12 -35 
12 -36 12 -40 13 -42 12 -46 12 -37 13 -44 12 -46 12 -43 
12 -50 13 -51 12 -45 12 -50 13 -53 12 -62 12 -66 12 -68 
13 -70 12 -61 12 -49 13 -35 12 -24 12 -14 12 -8 848 4515 272 MP stroke
/c9 { 0.000000 0.000000 1.000000 sr} bdef
c9
12 6 12 -9 12 -6 12 -8 12 16 13 -6 12 1 12 19 
12 0 12 15 12 7 12 -6 12 -13 12 1 12 10 13 -14 
12 5 12 -2 12 -19 12 10 12 36 12 -2 12 1 12 -14 
12 -15 13 9 12 6 12 -2 12 4 12 13 12 -9 12 8 
12 20 12 3 12 4 13 -13 12 19 12 -6 12 -17 12 5 
12 19 12 -3 12 0 12 7 12 -13 12 -7 13 16 12 -18 
12 -21 12 16 12 -4 12 -15 12 22 12 21 12 -5 12 7 
13 0 12 -2 12 -14 12 -8 12 3 12 14 12 0 12 6 
12 7 12 1 13 -4 12 8 12 20 12 -15 12 -4 12 0 
12 -17 12 5 12 14 12 -18 13 -8 12 5 12 1 12 -3 
12 9 12 -10 12 24 12 3 12 10 12 12 13 -28 12 3 
12 -12 12 11 12 -12 12 13 12 11 12 3 12 -9 12 -15 
13 -14 12 14 12 6 12 -3 12 -15 12 -12 12 13 12 4 
12 -10 12 3 13 3 12 -16 12 -6 12 16 12 0 12 0 
12 12 12 17 12 -15 12 -30 13 19 12 3 12 1 12 -9 
12 2 12 2 12 -26 12 -2 12 16 12 5 12 5 13 16 
12 -3 12 16 12 -17 12 -5 12 4 12 24 12 -2 12 -6 
12 12 13 -14 12 8 12 2 12 -11 12 -9 12 -12 12 13 
12 11 12 3 12 -7 13 10 12 -12 12 -16 12 -19 12 11 
12 -3 12 0 12 -10 12 11 12 1 13 -10 12 -15 12 -6 
12 13 12 3 12 0 12 -11 12 -21 12 -2 12 -8 13 -8 
12 -2 12 17 12 -9 12 -16 12 0 12 -15 12 4 12 -5 
12 -10 13 -6 12 -2 12 -9 12 13 12 -14 12 -2 12 -1 
12 -10 12 -20 12 8 13 6 12 -12 12 -11 12 -3 12 4 
12 -20 12 -5 12 -19 12 0 12 -10 13 -17 12 9 12 -19 
12 -8 12 -5 12 -15 12 -24 12 -11 12 -2 12 -12 13 -7 
12 -16 12 -18 12 -5 12 -32 12 -2 12 -10 12 -2 12 -25 
12 -23 12 5 13 -27 12 -9 12 -35 12 -4 12 7 12 -20 
12 -10 12 -27 12 -20 12 -6 13 -9 12 -30 12 -34 12 -16 
12 -5 12 -5 12 -12 12 -19 12 -26 12 -5 13 -32 12 -12 
12 -40 12 -22 12 -18 12 -27 12 -26 12 -17 12 -26 12 -35 
13 -29 12 -27 12 -21 12 -24 12 -37 12 -18 12 -38 12 -21 
12 -39 12 -23 13 -35 12 -28 12 -40 12 -29 12 -45 12 -33 
12 -26 12 -57 12 -7 12 -33 13 -35 12 -45 12 -38 12 -42 
12 -44 12 -42 12 -42 12 -38 12 -45 12 -45 13 -53 12 -47 
12 -40 12 -58 12 -42 12 -50 12 -43 12 -53 12 -55 12 -61 
13 -65 12 -66 12 -74 12 -76 12 -72 12 -59 12 -48 12 -38 
12 -25 12 -15 12 -10 848 4514 300 MP stroke
/c10 { 1.000000 0.000000 1.000000 sr} bdef
c10
2 -2 12 14 12 10 12 -10 12 -1 11 6 12 -22 12 1 
12 22 12 5 12 2 11 8 12 -10 12 16 12 -3 12 -2 
12 -5 11 0 12 -5 12 -16 12 6 12 -18 12 3 11 13 
12 1 12 0 12 21 12 -4 12 -10 11 0 12 1 12 17 
12 -2 12 -5 12 -5 11 3 12 5 12 -4 12 -8 12 -5 
12 -4 11 -11 12 13 12 3 12 -6 12 -1 12 14 11 -10 
12 -22 12 -10 12 15 12 7 12 -4 11 10 12 -21 12 3 
12 21 12 2 12 7 11 -6 12 -26 12 19 12 4 12 44 
12 3 11 -4 12 -8 12 2 12 -16 12 11 12 17 11 6 
12 19 12 -8 12 -3 12 7 12 -3 11 11 12 30 12 -16 
12 -17 12 18 12 -7 11 -21 12 10 12 -27 12 10 12 -16 
12 8 11 -2 12 21 12 15 12 -24 12 31 12 -8 11 -12 
12 17 12 5 12 -18 12 3 12 6 11 -28 12 7 12 1 
12 -2 12 -27 12 10 11 -4 12 22 12 0 12 -11 12 6 
12 2 11 -5 12 -6 12 -5 12 -10 12 -7 12 3 11 7 
12 -16 12 -6 12 35 12 -3 12 -17 11 2 12 -13 12 3 
12 -1 12 -14 12 5 11 -2 12 -26 12 6 12 15 12 6 
12 -14 11 14 12 7 12 -8 12 -4 12 -11 12 -15 11 -5 
12 -14 12 20 12 -2 12 1 12 23 11 12 12 -18 12 21 
12 11 12 -11 12 -12 11 -6 12 13 12 8 12 -19 12 -4 
12 -8 11 6 12 -17 12 9 12 -6 12 3 12 -14 11 1 
12 -18 12 20 12 7 12 -23 12 14 11 2 12 6 12 5 
12 -18 12 0 12 -12 11 13 12 -9 12 13 12 3 12 4 
12 9 11 -32 12 4 12 1 12 -3 12 -7 12 -1 11 -8 
12 -1 12 -13 12 -1 12 -4 12 21 11 10 12 -18 12 -1 
12 -24 12 -5 12 -13 11 4 12 0 12 -3 12 -17 12 18 
12 1 11 -5 12 -19 12 4 12 -19 12 -15 12 30 11 -16 
12 -12 12 5 12 5 12 -2 12 -20 11 -13 12 1 12 -9 
12 -12 12 -7 12 6 11 -4 12 -19 12 -9 12 -26 12 0 
12 5 11 -1 12 -3 12 -14 12 -11 12 -16 12 -7 11 -15 
12 -17 12 -10 12 -10 12 -5 12 -34 11 14 12 -3 12 1 
12 -8 12 -25 12 -16 11 -15 12 8 12 -22 12 -13 12 -12 
12 -30 11 -6 12 -11 12 -11 12 -23 12 -15 12 11 11 -17 
12 -19 12 -21 12 -25 12 -22 12 0 11 -12 12 -22 12 -14 
12 -12 12 -31 12 5 11 -26 12 -8 12 -22 12 -19 12 -16 
12 -25 11 -20 12 -19 12 -14 12 -16 12 -28 12 9 11 -37 
12 -6 12 -29 12 -10 12 -33 12 -17 11 -27 12 -19 12 -36 
12 -31 12 -15 12 -27 1557 2285 300 MP stroke
11 -35 12 -19 12 -32 12 -26 12 -35 12 -21 11 -19 12 -36 
12 -26 12 -30 12 -36 12 -22 11 -37 12 -26 12 -32 12 -36 
12 -35 12 -31 11 -32 12 -33 12 -31 12 -34 12 -38 12 -36 
11 -35 12 -38 12 -39 12 -35 12 -40 12 -30 11 -41 12 -43 
12 -33 12 -42 12 -40 12 -41 11 -39 12 -42 12 -51 12 -23 
12 -39 12 -50 11 -38 12 -54 12 -51 12 -36 12 -61 12 -62 
11 -66 12 -64 12 -69 12 -71 12 -67 12 -57 11 -42 12 -25 
12 -13 12 -7 12 -5 11 -4 848 4516 61 MP stroke
gr

c10
0 sg
%%IncludeResource: font Helvetica
/Helvetica /ISOLatin1Encoding 166.667 FMSR

 818 4587 mt 
( ) s
5056  631 mt 
( ) s
12.5 w
%%IncludeResource: font Symbol
/Symbol /ISOLatin1Encoding 125 FMSR

2678 3563 mt 
(D) s
%%IncludeResource: font Helvetica-Bold
/Helvetica-Bold /ISOLatin1Encoding 125 FMSR

2754 3563 mt 
( ) s
%%IncludeResource: font Symbol
/Symbol /ISOLatin1Encoding 125 FMSR

2788 3563 mt 
(g) s
%%IncludeResource: font Helvetica-Bold
/Helvetica-Bold /ISOLatin1Encoding 125 FMSR

2839 3563 mt 
( = 8 J/m) s
%%IncludeResource: font Helvetica-Bold
/Helvetica-Bold /ISOLatin1Encoding 100 FMSR

3301 3501 mt 
(2) s
gs 2353 3386 1227 951 rc
16.6667 w
250 0 2403 3515 2 MP stroke
gr

16.6667 w
%%IncludeResource: font Symbol
/Symbol /ISOLatin1Encoding 125 FMSR

2678 3793 mt 
(D) s
%%IncludeResource: font Helvetica-Bold
/Helvetica-Bold /ISOLatin1Encoding 125 FMSR

2754 3793 mt 
( ) s
%%IncludeResource: font Symbol
/Symbol /ISOLatin1Encoding 125 FMSR

2788 3793 mt 
(g) s
%%IncludeResource: font Helvetica-Bold
/Helvetica-Bold /ISOLatin1Encoding 125 FMSR

2839 3793 mt 
( = 12.5 J/m) s
%%IncludeResource: font Helvetica-Bold
/Helvetica-Bold /ISOLatin1Encoding 100 FMSR

3474 3731 mt 
(2) s
gs 2353 3386 1227 951 rc
c8
250 0 2403 3745 2 MP stroke
gr

c8
0 sg
%%IncludeResource: font Symbol
/Symbol /ISOLatin1Encoding 125 FMSR

2678 4024 mt 
(D) s
%%IncludeResource: font Helvetica-Bold
/Helvetica-Bold /ISOLatin1Encoding 125 FMSR

2754 4024 mt 
( ) s
%%IncludeResource: font Symbol
/Symbol /ISOLatin1Encoding 125 FMSR

2788 4024 mt 
(g) s
%%IncludeResource: font Helvetica-Bold
/Helvetica-Bold /ISOLatin1Encoding 125 FMSR

2839 4024 mt 
( = 18.5 J/m) s
%%IncludeResource: font Helvetica-Bold
/Helvetica-Bold /ISOLatin1Encoding 100 FMSR

3474 3962 mt 
(2) s
gs 2353 3386 1227 951 rc
c9
250 0 2403 3976 2 MP stroke
gr

c9
0 sg
%%IncludeResource: font Symbol
/Symbol /ISOLatin1Encoding 125 FMSR

2678 4254 mt 
(D) s
%%IncludeResource: font Helvetica-Bold
/Helvetica-Bold /ISOLatin1Encoding 125 FMSR

2754 4254 mt 
( ) s
%%IncludeResource: font Symbol
/Symbol /ISOLatin1Encoding 125 FMSR

2788 4254 mt 
(g) s
%%IncludeResource: font Helvetica-Bold
/Helvetica-Bold /ISOLatin1Encoding 125 FMSR

2839 4254 mt 
( = 23.5 J/m) s
%%IncludeResource: font Helvetica-Bold
/Helvetica-Bold /ISOLatin1Encoding 100 FMSR

3474 4192 mt 
(2) s
gs 2353 3386 1227 951 rc
c10
250 0 2403 4206 2 MP stroke
12.5 w
gr

12.5 w
c10

end %%Color Dict

eplot
%%EndObject

epage
end

showpage

%%Trailer
%%EOF
