%!PS-Adobe-3.0 EPSF-3.0
%%Creator: MATLAB, The MathWorks, Inc. Version 7.12.0.635 (R2011a). Operating System: Linux 2.6.32-358.6.2.el6.x86_64 #1 SMP Thu May 16 11:21:38 CDT 2013 x86_64.
%%Title: ./UC_StressStain_SE_18_5.eps
%%CreationDate: 08/15/2013  13:56:51
%%DocumentNeededFonts: Helvetica-Bold
%%+ Helvetica
%%DocumentProcessColors: Cyan Magenta Yellow Black
%%LanguageLevel: 2
%%Pages: 1
%%BoundingBox:    29    69   611   605
%%EndComments

%%BeginProlog
% MathWorks dictionary
/MathWorks 160 dict begin
% definition operators
/bdef {bind def} bind def
/ldef {load def} bind def
/xdef {exch def} bdef
/xstore {exch store} bdef
% operator abbreviations
/c  /clip ldef
/cc /concat ldef
/cp /closepath ldef
/gr /grestore ldef
/gs /gsave ldef
/mt /moveto ldef
/np /newpath ldef
/cm /currentmatrix ldef
/sm /setmatrix ldef
/rm /rmoveto ldef
/rl /rlineto ldef
/s {show newpath} bdef
/sc {setcmykcolor} bdef
/sr /setrgbcolor ldef
/sg /setgray ldef
/w /setlinewidth ldef
/j /setlinejoin ldef
/cap /setlinecap ldef
/rc {rectclip} bdef
/rf {rectfill} bdef
% page state control
/pgsv () def
/bpage {/pgsv save def} bdef
/epage {pgsv restore} bdef
/bplot /gsave ldef
/eplot {stroke grestore} bdef
% orientation switch
/portraitMode 0 def /landscapeMode 1 def /rotateMode 2 def
% coordinate system mappings
/dpi2point 0 def
% font control
/FontSize 0 def
/FMS {/FontSize xstore findfont [FontSize 0 0 FontSize neg 0 0]
  makefont setfont} bdef
/reencode {exch dup where {pop load} {pop StandardEncoding} ifelse
  exch dup 3 1 roll findfont dup length dict begin
  { 1 index /FID ne {def}{pop pop} ifelse } forall
  /Encoding exch def currentdict end definefont pop} bdef
/isroman {findfont /CharStrings get /Agrave known} bdef
/FMSR {3 1 roll 1 index dup isroman {reencode} {pop pop} ifelse
  exch FMS} bdef
/csm {1 dpi2point div -1 dpi2point div scale neg translate
 dup landscapeMode eq {pop -90 rotate}
  {rotateMode eq {90 rotate} if} ifelse} bdef
% line types: solid, dotted, dashed, dotdash
/SO { [] 0 setdash } bdef
/DO { [.5 dpi2point mul 4 dpi2point mul] 0 setdash } bdef
/DA { [6 dpi2point mul] 0 setdash } bdef
/DD { [.5 dpi2point mul 4 dpi2point mul 6 dpi2point mul 4
  dpi2point mul] 0 setdash } bdef
% macros for lines and objects
/L {lineto stroke} bdef
/MP {3 1 roll moveto 1 sub {rlineto} repeat} bdef
/AP {{rlineto} repeat} bdef
/PDlw -1 def
/W {/PDlw currentlinewidth def setlinewidth} def
/PP {closepath eofill} bdef
/DP {closepath stroke} bdef
/MR {4 -2 roll moveto dup  0 exch rlineto exch 0 rlineto
  neg 0 exch rlineto closepath} bdef
/FR {MR stroke} bdef
/PR {MR fill} bdef
/L1i {{currentfile picstr readhexstring pop} image} bdef
/tMatrix matrix def
/MakeOval {newpath tMatrix currentmatrix pop translate scale
0 0 1 0 360 arc tMatrix setmatrix} bdef
/FO {MakeOval stroke} bdef
/PO {MakeOval fill} bdef
/PD {currentlinewidth 2 div 0 360 arc fill
   PDlw -1 eq not {PDlw w /PDlw -1 def} if} def
/FA {newpath tMatrix currentmatrix pop translate scale
  0 0 1 5 -2 roll arc tMatrix setmatrix stroke} bdef
/PA {newpath tMatrix currentmatrix pop	translate 0 0 moveto scale
  0 0 1 5 -2 roll arc closepath tMatrix setmatrix fill} bdef
/FAn {newpath tMatrix currentmatrix pop translate scale
  0 0 1 5 -2 roll arcn tMatrix setmatrix stroke} bdef
/PAn {newpath tMatrix currentmatrix pop translate 0 0 moveto scale
  0 0 1 5 -2 roll arcn closepath tMatrix setmatrix fill} bdef
/vradius 0 def /hradius 0 def /lry 0 def
/lrx 0 def /uly 0 def /ulx 0 def /rad 0 def
/MRR {/vradius xdef /hradius xdef /lry xdef /lrx xdef /uly xdef
  /ulx xdef newpath tMatrix currentmatrix pop ulx hradius add uly
  vradius add translate hradius vradius scale 0 0 1 180 270 arc 
  tMatrix setmatrix lrx hradius sub uly vradius add translate
  hradius vradius scale 0 0 1 270 360 arc tMatrix setmatrix
  lrx hradius sub lry vradius sub translate hradius vradius scale
  0 0 1 0 90 arc tMatrix setmatrix ulx hradius add lry vradius sub
  translate hradius vradius scale 0 0 1 90 180 arc tMatrix setmatrix
  closepath} bdef
/FRR {MRR stroke } bdef
/PRR {MRR fill } bdef
/MlrRR {/lry xdef /lrx xdef /uly xdef /ulx xdef /rad lry uly sub 2 div def
  newpath tMatrix currentmatrix pop ulx rad add uly rad add translate
  rad rad scale 0 0 1 90 270 arc tMatrix setmatrix lrx rad sub lry rad
  sub translate rad rad scale 0 0 1 270 90 arc tMatrix setmatrix
  closepath} bdef
/FlrRR {MlrRR stroke } bdef
/PlrRR {MlrRR fill } bdef
/MtbRR {/lry xdef /lrx xdef /uly xdef /ulx xdef /rad lrx ulx sub 2 div def
  newpath tMatrix currentmatrix pop ulx rad add uly rad add translate
  rad rad scale 0 0 1 180 360 arc tMatrix setmatrix lrx rad sub lry rad
  sub translate rad rad scale 0 0 1 0 180 arc tMatrix setmatrix
  closepath} bdef
/FtbRR {MtbRR stroke } bdef
/PtbRR {MtbRR fill } bdef
/stri 6 array def /dtri 6 array def
/smat 6 array def /dmat 6 array def
/tmat1 6 array def /tmat2 6 array def /dif 3 array def
/asub {/ind2 exch def /ind1 exch def dup dup
  ind1 get exch ind2 get sub exch } bdef
/tri_to_matrix {
  2 0 asub 3 1 asub 4 0 asub 5 1 asub
  dup 0 get exch 1 get 7 -1 roll astore } bdef
/compute_transform {
  dmat dtri tri_to_matrix tmat1 invertmatrix 
  smat stri tri_to_matrix tmat2 concatmatrix } bdef
/ds {stri astore pop} bdef
/dt {dtri astore pop} bdef
/db {2 copy /cols xdef /rows xdef mul dup 3 mul string
  currentfile 
  3 index 0 eq {/ASCIIHexDecode filter}
  {/ASCII85Decode filter 3 index 2 eq {/RunLengthDecode filter} if }
  ifelse exch readstring pop
  dup 0 3 index getinterval /rbmap xdef
  dup 2 index dup getinterval /gbmap xdef
  1 index dup 2 mul exch getinterval /bbmap xdef pop pop}bdef
/it {gs np dtri aload pop moveto lineto lineto cp c
  cols rows 8 compute_transform 
  rbmap gbmap bbmap true 3 colorimage gr}bdef
/il {newpath moveto lineto stroke}bdef
currentdict end def
%%EndProlog

%%BeginSetup
MathWorks begin

0 cap

end
%%EndSetup

%%Page: 1 1
%%BeginPageSetup
%%PageBoundingBox:    29    69   611   605
MathWorks begin
bpage
%%EndPageSetup

%%BeginObject: obj1
bplot

/dpi2point 8.33333 def
portraitMode -0158 5475 csm

  403   426  4848  4474 rc
84 dict begin %Colortable dictionary
/c0 { 0.000000 0.000000 0.000000 sr} bdef
/c1 { 1.000000 1.000000 1.000000 sr} bdef
/c2 { 0.900000 0.000000 0.000000 sr} bdef
/c3 { 0.000000 0.820000 0.000000 sr} bdef
/c4 { 0.000000 0.000000 0.800000 sr} bdef
/c5 { 0.910000 0.820000 0.320000 sr} bdef
/c6 { 1.000000 0.260000 0.820000 sr} bdef
/c7 { 0.000000 0.820000 0.820000 sr} bdef
c0
1 j
1 sg
   0    0 5651 5651 rf
12.5 w
0 3956 4237 0 0 -3956 848 4520 4 MP
PP
-4237 0 0 3956 4237 0 0 -3956 848 4520 5 MP stroke
8.33333 w
DO
SO
12.5 w
0.1 sg
 848 4520 mt 5085 4520 L
 848  564 mt 5085  564 L
 848 4520 mt  848  564 L
5085 4520 mt 5085  564 L
 848 4520 mt 5085 4520 L
 848 4520 mt  848  564 L
 848 4520 mt  848 4456 L
 848  565 mt  848  628 L
%%IncludeResource: font Helvetica
/Helvetica /ISOLatin1Encoding 133.333 FMSR

 811 4668 mt 
(0) s
1554 4520 mt 1554 4456 L
1554  565 mt 1554  628 L
1425 4668 mt 
(0.01) s
2260 4520 mt 2260 4456 L
2260  565 mt 2260  628 L
2131 4668 mt 
(0.02) s
2966 4520 mt 2966 4456 L
2966  565 mt 2966  628 L
2837 4668 mt 
(0.03) s
3672 4520 mt 3672 4456 L
3672  565 mt 3672  628 L
3543 4668 mt 
(0.04) s
4378 4520 mt 4378 4456 L
4378  565 mt 4378  628 L
4249 4668 mt 
(0.05) s
5085 4520 mt 5085 4456 L
5085  565 mt 5085  628 L
4956 4668 mt 
(0.06) s
 848 4520 mt  911 4520 L
5085 4520 mt 5021 4520 L
 750 4569 mt 
(0) s
 848 3729 mt  911 3729 L
5085 3729 mt 5021 3729 L
 750 3778 mt 
(5) s
 848 2938 mt  911 2938 L
5085 2938 mt 5021 2938 L
 676 2987 mt 
(10) s
 848 2147 mt  911 2147 L
5085 2147 mt 5021 2147 L
 676 2196 mt 
(15) s
 848 1356 mt  911 1356 L
5085 1356 mt 5021 1356 L
 676 1405 mt 
(20) s
 848  565 mt  911  565 L
5085  565 mt 5021  565 L
 676  614 mt 
(25) s
 848 4520 mt 5085 4520 L
 848  564 mt 5085  564 L
 848 4520 mt  848  564 L
5085 4520 mt 5085  564 L
gs 848 565 4238 3956 rc
16.6667 w
/c8 { 0.000000 1.000000 1.000000 sr} bdef
c8
11 1 10 4 11 -3 11 -1 10 2 11 -1 11 -2 10 -1 
11 4 10 0 11 4 11 4 10 -6 11 -6 11 12 10 6 
11 -3 11 -2 10 -2 11 0 11 -7 10 7 11 7 11 -2 
10 -3 11 -1 11 -3 10 2 11 2 10 -2 11 -2 11 1 
10 -1 11 5 11 1 10 -5 11 2 11 -5 10 -4 11 -3 
11 -3 10 2 11 1 11 -2 10 -1 11 -3 11 -1 10 3 
11 -1 10 0 11 3 11 -2 10 -1 11 3 11 7 10 -3 
11 -6 11 4 10 -1 11 -6 11 -5 10 -5 11 -4 11 8 
10 5 11 3 11 -4 10 0 11 0 10 -4 11 -6 11 2 
10 5 11 5 11 5 10 -1 11 -1 11 -6 10 -3 11 -3 
11 -1 10 0 11 -3 11 3 10 5 11 -4 11 -1 10 -6 
11 9 10 9 11 -3 11 -4 10 1 11 -2 11 -1 10 -7 
11 2 11 -3 10 3 11 -4 11 -2 10 3 11 -1 11 5 
10 -2 11 -1 11 -7 10 -2 11 -6 10 6 11 3 11 3 
10 -2 11 4 11 -8 10 1 11 4 11 -4 10 -5 11 -2 
11 5 10 -4 11 4 11 4 10 -1 11 0 11 -2 10 -2 
11 -1 10 -2 11 -4 11 7 10 -6 11 -10 11 -5 10 3 
11 3 11 -4 10 8 11 -1 11 -1 10 -2 11 3 11 -1 
10 -6 11 -8 11 -6 10 6 11 2 10 -5 11 3 11 3 
10 -5 11 0 11 2 10 -4 11 -2 11 -7 10 -2 11 -6 
11 -4 10 -6 11 2 11 -1 10 -2 11 -8 11 -2 10 -2 
11 -3 10 -9 11 10 11 4 10 5 11 -4 11 -2 10 1 
11 -7 11 -1 10 -5 11 -1 11 -3 10 -5 11 -2 11 -4 
10 -2 11 -4 11 1 10 -4 11 -8 10 -1 11 0 11 -1 
10 -6 11 -7 11 2 10 -1 11 -7 11 -6 10 -6 11 0 
11 0 10 -8 11 -1 11 -2 10 -7 11 -2 11 -7 10 -3 
11 -8 10 1 11 -4 11 -1 10 -4 11 -5 11 2 10 -1 
11 -7 11 -6 10 -9 11 -2 11 -7 10 -8 11 -5 11 -7 
10 -1 11 -7 11 -11 10 -4 11 -1 10 -8 11 -6 11 -8 
10 -5 11 -9 11 -12 10 -2 11 -8 11 -6 10 -4 11 -9 
11 -11 10 -7 11 -10 11 -8 10 -8 11 -8 11 -12 10 -9 
11 -6 10 -10 11 -9 11 -10 10 -12 11 -10 11 -12 10 -7 
11 -12 11 -13 10 -9 11 -11 11 -12 10 -10 11 -12 11 -12 
10 -12 11 -11 11 -15 10 -11 11 -15 10 -13 11 -14 11 -16 
10 -16 11 -17 11 -19 10 -20 11 -19 11 -23 10 -24 11 -26 
11 -28 10 -25 11 -21 11 -16 10 -14 11 -11 11 -5 10 -4 
11 -2 10 -1 848 4517 291 MP stroke
gr

16.6667 w
c8
0.1 sg
%%IncludeResource: font Helvetica-Bold
/Helvetica-Bold /ISOLatin1Encoding 183.333 FMSR

2351 4842 mt 
(Vertical Strain) s
 596 3424 mt  -90 rotate
(Vertical Stress [kPa]) s
90 rotate
gs 848 565 4238 3956 rc
/c9 { 1.000000 0.000000 0.000000 sr} bdef
c9
11 -5 12 10 11 5 12 -7 11 -4 12 -9 11 20 12 2 
11 -2 12 -1 11 -9 12 13 11 4 12 0 11 -2 12 6 
11 3 12 -6 11 -11 12 4 11 -1 12 -6 11 3 12 2 
11 -5 12 -1 11 5 12 -10 11 6 12 -2 11 -3 12 -8 
11 -8 11 5 12 4 11 7 12 4 11 8 12 -2 11 10 
12 5 11 -7 12 -3 11 5 12 -2 11 -4 12 -12 11 10 
12 3 11 -6 12 -3 11 -2 12 4 11 -2 12 11 11 -2 
12 -1 11 -4 12 -10 11 -5 12 1 11 9 12 -6 11 0 
12 2 11 -6 12 7 11 7 12 20 11 -4 12 1 11 -8 
12 2 11 -2 12 -4 11 1 12 -4 11 -1 11 10 12 1 
11 -12 12 -9 11 13 12 -8 11 -3 12 -8 11 5 12 -5 
11 -2 12 4 11 -11 12 0 11 3 12 14 11 2 12 -3 
11 3 12 4 11 -11 12 5 11 -2 12 -2 11 4 12 -3 
11 3 12 11 11 -3 12 -2 11 -3 12 -2 11 3 12 -9 
11 -10 12 11 11 -12 12 1 11 15 12 1 11 -9 12 -7 
11 2 11 2 12 1 11 -15 12 12 11 -4 12 -8 11 -1 
12 -6 11 6 12 8 11 -1 12 -4 11 -1 12 -1 11 3 
12 14 11 -5 12 -5 11 17 12 1 11 -7 12 -4 11 -7 
12 3 11 -2 12 11 11 0 12 -6 11 -3 12 11 11 -9 
12 -11 11 3 12 -5 11 2 12 -14 11 5 12 0 11 0 
12 -6 11 3 12 -8 11 0 12 6 11 8 11 -4 12 -11 
11 -2 12 9 11 -5 12 -1 11 -4 12 -5 11 -4 12 -7 
11 -3 12 -13 11 -9 12 6 11 -14 12 -5 11 0 12 2 
11 0 12 -5 11 -2 12 -2 11 -1 12 -11 11 -3 12 7 
11 -8 12 -4 11 -14 12 2 11 4 12 1 11 -10 12 -13 
11 2 12 -11 11 -7 12 -6 11 9 12 -14 11 -3 12 -13 
11 0 11 1 12 -7 11 -8 12 -14 11 -8 12 -9 11 1 
12 -11 11 -11 12 3 11 -4 12 -7 11 -14 12 -9 11 -6 
12 -8 11 -14 12 -9 11 -3 12 -16 11 -5 12 -17 11 -4 
12 -13 11 -6 12 -9 11 -18 12 -3 11 -17 12 -8 11 -22 
12 -7 11 -14 12 -12 11 -15 12 -12 11 -19 12 -17 11 -20 
12 -10 11 -11 12 -16 11 -13 12 -16 11 -17 11 -17 12 -12 
11 -14 12 -20 11 -19 12 -20 11 -24 12 -11 11 -17 12 -15 
11 -20 12 -20 11 -18 12 -21 11 -24 12 -19 11 -21 12 -23 
11 -16 12 -22 11 -25 12 -21 11 -22 12 -22 11 -25 12 -26 
11 -27 12 -30 11 -31 12 -34 11 -35 12 -38 11 -41 12 -38 
11 -32 12 -26 11 -18 12 -14 11 -8 12 -5 11 -3 12 -3 
11 -2 11 -2 848 4518 299 MP stroke
/c10 { 0.000000 0.000000 1.000000 sr} bdef
c10
12 4 12 -6 12 -4 12 -6 12 11 13 -4 12 0 12 15 
12 -1 12 11 12 5 12 -4 12 -9 12 0 12 7 13 -10 
12 4 12 -2 12 -13 12 7 12 26 12 -1 12 0 12 -10 
12 -11 13 7 12 4 12 -1 12 2 12 10 12 -7 12 6 
12 14 12 3 12 3 13 -10 12 14 12 -4 12 -13 12 4 
12 14 12 -3 12 1 12 5 12 -10 12 -5 13 12 12 -13 
12 -15 12 11 12 -3 12 -11 12 16 12 15 12 -3 12 5 
13 0 12 -2 12 -10 12 -5 12 2 12 10 12 0 12 4 
12 5 12 1 13 -3 12 6 12 14 12 -11 12 -3 12 0 
12 -12 12 4 12 10 12 -13 13 -6 12 4 12 1 12 -2 
12 5 12 -6 12 17 12 2 12 7 12 9 13 -20 12 2 
12 -8 12 7 12 -8 12 9 12 8 12 2 12 -6 12 -11 
13 -10 12 10 12 4 12 -2 12 -11 12 -9 12 10 12 3 
12 -8 12 3 13 2 12 -12 12 -4 12 11 12 0 12 0 
12 9 12 12 12 -10 12 -22 13 14 12 2 12 0 12 -6 
12 1 12 2 12 -19 12 -1 12 12 12 3 12 3 13 12 
12 -2 12 11 12 -12 12 -3 12 2 12 17 12 -1 12 -4 
12 8 13 -10 12 6 12 2 12 -8 12 -7 12 -8 12 9 
12 8 12 2 12 -5 13 7 12 -8 12 -12 12 -14 12 8 
12 -2 12 0 12 -7 12 8 12 1 13 -8 12 -11 12 -4 
12 10 12 2 12 0 12 -8 12 -15 12 -2 12 -6 13 -5 
12 -2 12 13 12 -7 12 -12 12 0 12 -10 12 3 12 -4 
12 -7 13 -4 12 -2 12 -6 12 9 12 -10 12 -2 12 0 
12 -7 12 -15 12 6 13 4 12 -8 12 -9 12 -2 12 3 
12 -14 12 -3 12 -14 12 -1 12 -7 13 -12 12 7 12 -14 
12 -6 12 -3 12 -11 12 -17 12 -8 12 -2 12 -8 13 -6 
12 -11 12 -13 12 -3 12 -23 12 -2 12 -7 12 -2 12 -18 
12 -16 12 3 13 -19 12 -7 12 -25 12 -3 12 5 12 -14 
12 -7 12 -19 12 -15 12 -4 13 -7 12 -21 12 -25 12 -11 
12 -4 12 -4 12 -8 12 -14 12 -18 12 -4 13 -23 12 -9 
12 -29 12 -16 12 -12 12 -20 12 -19 12 -12 12 -18 12 -26 
13 -20 12 -20 12 -15 12 -17 12 -27 12 -13 12 -27 12 -15 
12 -29 12 -16 13 -26 12 -20 12 -28 12 -21 12 -33 12 -23 
12 -19 12 -41 12 -5 12 -24 13 -26 12 -32 12 -27 12 -30 
12 -32 12 -30 12 -30 12 -27 12 -33 12 -32 13 -39 12 -33 
12 -30 12 -41 12 -30 12 -36 12 -31 12 -38 12 -40 12 -44 
13 -46 12 -48 12 -53 12 -55 12 -52 12 -43 12 -34 12 -27 
12 -18 12 -11 12 -7 848 4515 300 MP stroke
/c11 { 1.000000 0.000000 1.000000 sr} bdef
c11
12 -2 13 1 12 -2 13 -3 13 -21 12 24 13 14 12 -5 
13 4 12 5 13 -4 12 6 13 12 13 -8 12 12 13 -7 
12 2 13 -14 12 5 13 -17 12 -1 13 4 13 0 12 8 
13 -10 12 -10 13 10 12 -2 13 8 12 7 13 8 13 -3 
12 25 13 1 12 -3 13 15 12 -8 13 4 12 0 13 -4 
13 2 12 0 13 2 12 -2 13 -9 12 3 13 -4 12 1 
13 5 13 -3 12 5 13 -6 12 3 13 13 12 -3 13 -7 
12 -7 13 2 13 12 12 12 13 5 12 3 13 -6 12 4 
13 -12 12 -4 13 16 13 1 12 8 13 -3 12 -10 13 6 
12 -7 13 -6 13 18 12 -1 13 0 12 -3 13 -9 12 -17 
13 7 12 14 13 3 13 18 12 8 13 -13 12 -2 13 -13 
12 7 13 4 12 -5 13 -5 13 -20 12 3 13 1 12 4 
13 12 12 -1 13 7 12 -2 13 5 13 -2 12 -6 13 -14 
12 -8 13 10 12 11 13 7 12 -1 13 -9 13 -1 12 -13 
13 0 12 -15 13 6 12 19 13 0 12 14 13 -5 13 0 
12 -5 13 -16 12 31 13 -10 12 -5 13 6 12 -15 13 -10 
13 7 12 2 13 -6 12 11 13 -19 12 1 13 -7 12 -6 
13 6 13 7 12 -14 13 -10 12 -5 13 -9 12 -14 13 -22 
12 24 13 20 13 7 12 3 13 -1 12 -3 13 -3 12 -20 
13 -6 13 -4 12 14 13 5 12 -17 13 3 12 -5 13 19 
12 -7 13 8 13 7 12 -12 13 -9 12 0 13 -7 12 1 
13 -3 12 21 13 -11 13 -8 12 9 13 -15 12 -1 13 -7 
12 -1 13 -3 12 -20 13 27 13 -6 12 -1 13 -10 12 -4 
13 -5 12 -2 13 -12 12 -10 13 -3 13 -3 12 -21 13 -23 
12 -13 13 -9 12 -15 13 -3 12 -22 13 -1 13 -2 12 -11 
13 -12 12 -6 13 12 12 -15 13 -2 12 -16 13 -13 13 -12 
12 -4 13 -12 12 -16 13 1 12 -10 13 -7 12 -12 13 -7 
13 -16 12 -16 13 -13 12 -22 13 -26 12 -7 13 -4 13 -32 
12 -19 13 -26 12 -18 13 -23 12 -9 13 -20 12 -24 13 -7 
13 -29 12 -12 13 -22 12 -26 13 -20 12 -20 13 -44 12 -11 
13 -22 13 -29 12 -21 13 -25 12 -16 13 -34 12 -20 13 -37 
12 -32 13 -22 13 -34 12 -26 13 -32 12 -29 13 -33 12 -34 
13 -40 12 -27 13 -38 13 -31 12 -32 13 -42 12 -36 13 -39 
12 -26 13 -37 12 -41 13 -40 13 -39 12 -32 13 -39 12 -53 
13 -19 12 -49 13 -56 12 -55 13 -63 13 -69 12 -70 13 -78 
12 -77 13 -72 12 -66 13 -52 12 -42 13 -35 13 -22 12 -13 
13 -8 12 -3 13 -4 12 -2 13 -2 12 -2 848 4517 295 MP stroke
0 sg
13 10 13 -3 13 11 13 1 13 -16 13 -5 13 -7 13 -7 
13 4 13 -5 13 -4 13 0 13 14 13 -2 13 -2 13 4 
13 18 13 12 13 6 13 -5 13 -13 13 20 13 -2 13 11 
13 -8 13 -12 13 -5 13 -1 13 10 13 -1 13 -2 13 -3 
13 -11 13 -9 13 3 13 16 13 -12 13 15 13 4 13 -12 
13 -16 13 8 13 -3 13 -2 13 4 13 3 13 -4 13 5 
12 -2 13 -3 13 -7 13 12 13 -5 13 -16 13 13 13 9 
13 2 13 5 13 -1 13 11 13 17 13 4 13 -5 13 -11 
13 5 13 -21 13 -4 13 4 13 17 13 5 13 -15 13 -22 
13 4 13 17 13 -7 13 18 13 -1 13 10 13 -5 13 -1 
13 2 13 10 13 11 13 7 13 13 13 5 13 -8 13 8 
13 13 13 -3 13 -5 13 4 13 -14 13 -1 13 -11 13 17 
13 4 13 -10 13 -2 13 -5 13 22 13 4 13 2 13 -5 
13 7 13 2 13 -4 13 -6 13 8 13 -1 13 -6 13 -2 
13 -18 13 3 13 0 13 1 13 13 13 4 13 -2 13 0 
13 10 13 26 13 6 13 -4 13 26 13 13 13 -10 13 -10 
13 -12 13 4 13 -4 13 -3 13 13 13 12 13 -3 13 -5 
13 -3 13 -14 13 9 13 -2 13 4 13 -8 13 6 13 12 
13 3 13 8 13 1 13 0 13 -17 13 -12 13 4 13 26 
13 14 13 -26 13 -7 13 19 13 25 13 9 13 9 13 -11 
13 4 13 -15 13 -5 13 -2 13 -7 13 14 13 -9 13 -17 
13 -6 13 -6 13 -17 13 -4 13 13 13 9 13 -10 13 -2 
13 -13 13 1 13 4 13 -8 13 -2 13 -15 13 1 13 -10 
13 4 13 2 13 -2 13 0 13 -11 13 -7 13 -5 13 1 
13 -6 13 1 13 -17 13 -2 13 3 13 16 13 -7 13 -22 
13 -2 13 0 13 6 13 -11 13 18 13 -14 13 -17 13 -16 
13 -6 13 -12 13 -15 13 -9 13 -18 13 3 13 -25 13 -1 
13 -23 13 -20 13 -11 13 -24 13 -2 13 -21 13 -15 13 -10 
13 -24 13 -12 13 -8 13 -4 13 3 13 -8 13 -20 13 -23 
13 -23 13 -11 13 -22 13 -4 13 -22 13 -22 13 -21 13 -26 
13 -20 13 -20 13 -39 13 -15 13 -1 13 -34 13 -29 13 -22 
13 -14 13 -14 13 -36 13 -33 13 -1 13 -27 13 -31 13 -21 
13 -26 13 -24 13 -33 13 -34 13 -35 13 -31 13 -27 13 -38 
13 -37 13 -26 13 -26 13 -36 13 -42 13 -35 13 -36 13 -43 
13 -47 13 -36 13 -50 13 -37 13 -51 13 -53 13 -53 13 -53 
13 -56 13 -54 13 -42 13 -56 13 -56 13 -60 13 -65 13 -58 
13 -66 13 -72 13 -75 13 -78 13 -83 13 -92 13 -94 13 -95 
13 -88 13 -83 13 -75 964 4307 300 MP stroke
13 -61 13 -47 13 -36 13 -23 13 -17 13 -11 13 -7 13 -5 
12 -3 848 4517 10 MP stroke
gr

0 sg
%%IncludeResource: font Helvetica
/Helvetica /ISOLatin1Encoding 166.667 FMSR

 818 4587 mt 
( ) s
5056  631 mt 
( ) s
12.5 w
%%IncludeResource: font Helvetica-Bold
/Helvetica-Bold /ISOLatin1Encoding 125 FMSR

4462 3489 mt 
(20 kPa) s
gs 4137 3324 838 1075 rc
16.6667 w
c8
250 0 4186 3443 2 MP stroke
gr

16.6667 w
c8
0 sg
4462 3698 mt 
(40 kPa) s
gs 4137 3324 838 1075 rc
c9
250 0 4186 3652 2 MP stroke
gr

c9
0 sg
4462 3908 mt 
(60 kPa) s
gs 4137 3324 838 1075 rc
c10
250 0 4186 3861 2 MP stroke
gr

c10
0 sg
4462 4117 mt 
(80 kPa) s
gs 4137 3324 838 1075 rc
c11
250 0 4186 4069 2 MP stroke
gr

c11
0 sg
4462 4326 mt 
(100 kPa) s
gs 4137 3324 838 1075 rc
250 0 4186 4278 2 MP stroke
12.5 w
gr

12.5 w

end %%Color Dict

eplot
%%EndObject

epage
end

showpage

%%Trailer
%%EOF
