%!PS-Adobe-3.0 EPSF-3.0
%%Creator: MATLAB, The MathWorks, Inc. Version 7.12.0.635 (R2011a). Operating System: Linux 2.6.32-358.6.2.el6.x86_64 #1 SMP Thu May 16 11:21:38 CDT 2013 x86_64.
%%Title: ./UC_StressStain_SE_20kPa.eps
%%CreationDate: 08/15/2013  13:56:55
%%DocumentNeededFonts: Helvetica-Bold
%%+ Helvetica
%%DocumentProcessColors: Cyan Magenta Yellow Black
%%LanguageLevel: 2
%%Pages: 1
%%BoundingBox:    29    69   611   605
%%EndComments

%%BeginProlog
% MathWorks dictionary
/MathWorks 160 dict begin
% definition operators
/bdef {bind def} bind def
/ldef {load def} bind def
/xdef {exch def} bdef
/xstore {exch store} bdef
% operator abbreviations
/c  /clip ldef
/cc /concat ldef
/cp /closepath ldef
/gr /grestore ldef
/gs /gsave ldef
/mt /moveto ldef
/np /newpath ldef
/cm /currentmatrix ldef
/sm /setmatrix ldef
/rm /rmoveto ldef
/rl /rlineto ldef
/s {show newpath} bdef
/sc {setcmykcolor} bdef
/sr /setrgbcolor ldef
/sg /setgray ldef
/w /setlinewidth ldef
/j /setlinejoin ldef
/cap /setlinecap ldef
/rc {rectclip} bdef
/rf {rectfill} bdef
% page state control
/pgsv () def
/bpage {/pgsv save def} bdef
/epage {pgsv restore} bdef
/bplot /gsave ldef
/eplot {stroke grestore} bdef
% orientation switch
/portraitMode 0 def /landscapeMode 1 def /rotateMode 2 def
% coordinate system mappings
/dpi2point 0 def
% font control
/FontSize 0 def
/FMS {/FontSize xstore findfont [FontSize 0 0 FontSize neg 0 0]
  makefont setfont} bdef
/reencode {exch dup where {pop load} {pop StandardEncoding} ifelse
  exch dup 3 1 roll findfont dup length dict begin
  { 1 index /FID ne {def}{pop pop} ifelse } forall
  /Encoding exch def currentdict end definefont pop} bdef
/isroman {findfont /CharStrings get /Agrave known} bdef
/FMSR {3 1 roll 1 index dup isroman {reencode} {pop pop} ifelse
  exch FMS} bdef
/csm {1 dpi2point div -1 dpi2point div scale neg translate
 dup landscapeMode eq {pop -90 rotate}
  {rotateMode eq {90 rotate} if} ifelse} bdef
% line types: solid, dotted, dashed, dotdash
/SO { [] 0 setdash } bdef
/DO { [.5 dpi2point mul 4 dpi2point mul] 0 setdash } bdef
/DA { [6 dpi2point mul] 0 setdash } bdef
/DD { [.5 dpi2point mul 4 dpi2point mul 6 dpi2point mul 4
  dpi2point mul] 0 setdash } bdef
% macros for lines and objects
/L {lineto stroke} bdef
/MP {3 1 roll moveto 1 sub {rlineto} repeat} bdef
/AP {{rlineto} repeat} bdef
/PDlw -1 def
/W {/PDlw currentlinewidth def setlinewidth} def
/PP {closepath eofill} bdef
/DP {closepath stroke} bdef
/MR {4 -2 roll moveto dup  0 exch rlineto exch 0 rlineto
  neg 0 exch rlineto closepath} bdef
/FR {MR stroke} bdef
/PR {MR fill} bdef
/L1i {{currentfile picstr readhexstring pop} image} bdef
/tMatrix matrix def
/MakeOval {newpath tMatrix currentmatrix pop translate scale
0 0 1 0 360 arc tMatrix setmatrix} bdef
/FO {MakeOval stroke} bdef
/PO {MakeOval fill} bdef
/PD {currentlinewidth 2 div 0 360 arc fill
   PDlw -1 eq not {PDlw w /PDlw -1 def} if} def
/FA {newpath tMatrix currentmatrix pop translate scale
  0 0 1 5 -2 roll arc tMatrix setmatrix stroke} bdef
/PA {newpath tMatrix currentmatrix pop	translate 0 0 moveto scale
  0 0 1 5 -2 roll arc closepath tMatrix setmatrix fill} bdef
/FAn {newpath tMatrix currentmatrix pop translate scale
  0 0 1 5 -2 roll arcn tMatrix setmatrix stroke} bdef
/PAn {newpath tMatrix currentmatrix pop translate 0 0 moveto scale
  0 0 1 5 -2 roll arcn closepath tMatrix setmatrix fill} bdef
/vradius 0 def /hradius 0 def /lry 0 def
/lrx 0 def /uly 0 def /ulx 0 def /rad 0 def
/MRR {/vradius xdef /hradius xdef /lry xdef /lrx xdef /uly xdef
  /ulx xdef newpath tMatrix currentmatrix pop ulx hradius add uly
  vradius add translate hradius vradius scale 0 0 1 180 270 arc 
  tMatrix setmatrix lrx hradius sub uly vradius add translate
  hradius vradius scale 0 0 1 270 360 arc tMatrix setmatrix
  lrx hradius sub lry vradius sub translate hradius vradius scale
  0 0 1 0 90 arc tMatrix setmatrix ulx hradius add lry vradius sub
  translate hradius vradius scale 0 0 1 90 180 arc tMatrix setmatrix
  closepath} bdef
/FRR {MRR stroke } bdef
/PRR {MRR fill } bdef
/MlrRR {/lry xdef /lrx xdef /uly xdef /ulx xdef /rad lry uly sub 2 div def
  newpath tMatrix currentmatrix pop ulx rad add uly rad add translate
  rad rad scale 0 0 1 90 270 arc tMatrix setmatrix lrx rad sub lry rad
  sub translate rad rad scale 0 0 1 270 90 arc tMatrix setmatrix
  closepath} bdef
/FlrRR {MlrRR stroke } bdef
/PlrRR {MlrRR fill } bdef
/MtbRR {/lry xdef /lrx xdef /uly xdef /ulx xdef /rad lrx ulx sub 2 div def
  newpath tMatrix currentmatrix pop ulx rad add uly rad add translate
  rad rad scale 0 0 1 180 360 arc tMatrix setmatrix lrx rad sub lry rad
  sub translate rad rad scale 0 0 1 0 180 arc tMatrix setmatrix
  closepath} bdef
/FtbRR {MtbRR stroke } bdef
/PtbRR {MtbRR fill } bdef
/stri 6 array def /dtri 6 array def
/smat 6 array def /dmat 6 array def
/tmat1 6 array def /tmat2 6 array def /dif 3 array def
/asub {/ind2 exch def /ind1 exch def dup dup
  ind1 get exch ind2 get sub exch } bdef
/tri_to_matrix {
  2 0 asub 3 1 asub 4 0 asub 5 1 asub
  dup 0 get exch 1 get 7 -1 roll astore } bdef
/compute_transform {
  dmat dtri tri_to_matrix tmat1 invertmatrix 
  smat stri tri_to_matrix tmat2 concatmatrix } bdef
/ds {stri astore pop} bdef
/dt {dtri astore pop} bdef
/db {2 copy /cols xdef /rows xdef mul dup 3 mul string
  currentfile 
  3 index 0 eq {/ASCIIHexDecode filter}
  {/ASCII85Decode filter 3 index 2 eq {/RunLengthDecode filter} if }
  ifelse exch readstring pop
  dup 0 3 index getinterval /rbmap xdef
  dup 2 index dup getinterval /gbmap xdef
  1 index dup 2 mul exch getinterval /bbmap xdef pop pop}bdef
/it {gs np dtri aload pop moveto lineto lineto cp c
  cols rows 8 compute_transform 
  rbmap gbmap bbmap true 3 colorimage gr}bdef
/il {newpath moveto lineto stroke}bdef
currentdict end def
%%EndProlog

%%BeginSetup
MathWorks begin

0 cap

end
%%EndSetup

%%Page: 1 1
%%BeginPageSetup
%%PageBoundingBox:    29    69   611   605
MathWorks begin
bpage
%%EndPageSetup

%%BeginObject: obj1
bplot

/dpi2point 8.33333 def
portraitMode -0158 5475 csm

  403   426  4848  4474 rc
84 dict begin %Colortable dictionary
/c0 { 0.000000 0.000000 0.000000 sr} bdef
/c1 { 1.000000 1.000000 1.000000 sr} bdef
/c2 { 0.900000 0.000000 0.000000 sr} bdef
/c3 { 0.000000 0.820000 0.000000 sr} bdef
/c4 { 0.000000 0.000000 0.800000 sr} bdef
/c5 { 0.910000 0.820000 0.320000 sr} bdef
/c6 { 1.000000 0.260000 0.820000 sr} bdef
/c7 { 0.000000 0.820000 0.820000 sr} bdef
c0
1 j
1 sg
   0    0 5651 5651 rf
12.5 w
0 3955 4237 0 0 -3955 848 4520 4 MP
PP
-4237 0 0 3955 4237 0 0 -3955 848 4520 5 MP stroke
8.33333 w
DO
SO
12.5 w
0.1 sg
 848 4520 mt 5085 4520 L
 848  565 mt 5085  565 L
 848 4520 mt  848  565 L
5085 4520 mt 5085  565 L
 848 4520 mt 5085 4520 L
 848 4520 mt  848  565 L
 848 4520 mt  848 4456 L
 848  565 mt  848  628 L
%%IncludeResource: font Helvetica
/Helvetica /ISOLatin1Encoding 133.333 FMSR

 811 4668 mt 
(0) s
1554 4520 mt 1554 4456 L
1554  565 mt 1554  628 L
1425 4668 mt 
(0.01) s
2260 4520 mt 2260 4456 L
2260  565 mt 2260  628 L
2131 4668 mt 
(0.02) s
2966 4520 mt 2966 4456 L
2966  565 mt 2966  628 L
2837 4668 mt 
(0.03) s
3672 4520 mt 3672 4456 L
3672  565 mt 3672  628 L
3543 4668 mt 
(0.04) s
4378 4520 mt 4378 4456 L
4378  565 mt 4378  628 L
4249 4668 mt 
(0.05) s
5085 4520 mt 5085 4456 L
5085  565 mt 5085  628 L
4956 4668 mt 
(0.06) s
 848 4520 mt  911 4520 L
5085 4520 mt 5021 4520 L
 750 4569 mt 
(0) s
 848 4124 mt  911 4124 L
5085 4124 mt 5021 4124 L
 750 4173 mt 
(1) s
 848 3729 mt  911 3729 L
5085 3729 mt 5021 3729 L
 750 3778 mt 
(2) s
 848 3333 mt  911 3333 L
5085 3333 mt 5021 3333 L
 750 3382 mt 
(3) s
 848 2938 mt  911 2938 L
5085 2938 mt 5021 2938 L
 750 2987 mt 
(4) s
 848 2542 mt  911 2542 L
5085 2542 mt 5021 2542 L
 750 2591 mt 
(5) s
 848 2147 mt  911 2147 L
5085 2147 mt 5021 2147 L
 750 2196 mt 
(6) s
 848 1751 mt  911 1751 L
5085 1751 mt 5021 1751 L
 750 1800 mt 
(7) s
 848 1356 mt  911 1356 L
5085 1356 mt 5021 1356 L
 750 1405 mt 
(8) s
 848  960 mt  911  960 L
5085  960 mt 5021  960 L
 750 1009 mt 
(9) s
 848  565 mt  911  565 L
5085  565 mt 5021  565 L
 676  614 mt 
(10) s
 848 4520 mt 5085 4520 L
 848  565 mt 5085  565 L
 848 4520 mt  848  565 L
5085 4520 mt 5085  565 L
gs 848 565 4238 3956 rc
16.6667 w
0 sg
12 -1 11 2 11 0 12 6 11 -1 12 3 11 0 11 7 
12 4 11 -1 11 -6 12 4 11 -5 11 3 12 -5 11 3 
12 3 11 -4 11 -2 12 1 11 7 11 3 12 3 11 0 
12 2 11 -3 11 2 12 6 11 3 11 -2 12 -1 11 -3 
12 7 11 -1 11 -2 12 5 11 -2 11 0 12 -2 11 -8 
12 5 11 3 11 0 12 -15 11 9 11 8 12 2 11 -2 
12 2 11 -7 11 2 12 4 11 6 11 3 12 -2 11 1 
11 3 12 -10 11 6 12 -1 11 -4 11 1 12 -6 11 1 
11 6 12 6 11 -3 12 4 11 2 11 0 12 -4 11 0 
11 5 12 -6 11 1 12 -5 11 -4 11 3 12 -3 11 3 
11 -3 12 -9 11 14 12 10 11 2 11 7 12 -5 11 3 
11 3 12 0 11 4 12 0 11 -2 11 -5 12 -4 11 -3 
11 0 12 -6 11 3 11 5 12 -5 11 5 12 5 11 0 
11 0 12 -3 11 -3 11 7 12 -1 11 -1 12 -3 11 -5 
11 -6 12 5 11 5 11 -4 12 3 11 3 12 -2 11 2 
11 2 12 6 11 -2 11 3 12 -2 11 1 12 -2 11 1 
11 0 12 4 11 0 11 -2 12 -4 11 0 12 3 11 8 
11 -5 12 5 11 -3 11 -2 12 2 11 4 11 -2 12 3 
11 10 12 -9 11 2 11 -1 12 -2 11 -7 11 5 12 -3 
11 -2 12 1 11 -3 11 4 12 1 11 5 11 -7 12 -9 
11 2 12 1 11 -2 11 6 12 5 11 -1 11 -1 12 0 
11 -6 12 0 11 -1 11 7 12 -4 11 -1 11 2 12 -4 
11 -7 12 3 11 4 11 4 12 -9 11 -5 11 -2 12 -5 
11 -4 11 6 12 2 11 3 12 3 11 -4 11 1 12 -3 
11 -8 11 0 12 -3 11 3 12 -1 11 -1 11 -2 12 -3 
11 -2 11 1 12 4 11 3 12 -5 11 -7 11 -9 12 -3 
11 -3 11 -2 12 -8 11 -1 12 -3 11 1 11 2 12 -10 
11 -7 11 -3 12 -12 11 -8 12 -13 11 -4 11 2 12 -8 
11 -14 11 -8 12 -13 11 -17 11 -4 12 -10 11 -7 12 -4 
11 -20 11 -15 12 -12 11 -18 11 -20 12 -14 11 -19 12 -20 
11 -9 11 -17 12 -21 11 -27 11 -29 12 -25 11 -24 12 -25 
11 -30 11 -32 12 -34 11 -39 11 -31 12 -44 11 -41 12 -46 
11 -52 11 -58 12 -60 11 -64 11 -68 12 -69 11 -42 11 -20 
848 4515 265 MP stroke
gr

16.6667 w
0 sg
0.1 sg
%%IncludeResource: font Helvetica-Bold
/Helvetica-Bold /ISOLatin1Encoding 183.333 FMSR

2351 4842 mt 
(Vertical Strain) s
 596 3424 mt  -90 rotate
(Vertical Stress [kPa]) s
90 rotate
gs 848 565 4238 3956 rc
/c8 { 1.000000 0.000000 0.000000 sr} bdef
c8
11 3 11 -1 11 -7 11 14 11 4 11 -6 12 -1 11 6 
11 8 11 -3 11 3 11 -5 11 -14 11 -9 11 18 11 -2 
11 6 11 -3 11 -4 11 -1 11 -4 11 0 11 -2 11 15 
11 0 11 -6 11 3 11 0 11 -8 11 -7 11 -7 11 -2 
11 -2 11 -6 11 -2 11 -3 11 -16 11 12 11 0 11 12 
11 -2 11 5 11 -2 11 -9 11 7 11 0 11 -13 11 -5 
11 11 11 2 11 -3 11 -6 11 8 11 8 11 2 11 4 
11 1 11 11 11 -2 12 1 11 -7 11 2 11 5 11 -4 
11 -6 11 -6 11 0 11 5 11 11 11 1 11 6 11 4 
11 4 11 12 11 -9 11 -12 11 -1 11 -4 11 -7 11 -9 
11 20 11 14 11 -4 11 -8 11 -2 11 9 11 5 11 13 
11 -9 11 7 11 -5 11 -7 11 2 11 -3 11 -7 11 4 
11 0 11 -2 11 12 11 -5 11 2 11 -5 11 9 11 13 
11 -11 11 5 11 11 11 1 11 5 11 4 11 4 11 2 
12 -17 11 5 11 2 11 0 11 -4 11 -5 11 -2 11 10 
11 -4 11 -3 11 11 11 7 11 0 11 2 11 -1 11 -3 
11 -8 11 -1 11 -3 11 4 11 -5 11 6 11 -7 11 -3 
11 -6 11 -1 11 -11 11 -3 11 16 11 0 11 -9 11 0 
11 2 11 2 11 14 11 2 11 -7 11 -14 11 -1 11 3 
11 -14 11 -14 11 5 11 14 11 1 11 -4 11 -8 11 -2 
11 -4 11 0 11 -6 11 -1 11 1 12 -5 11 0 11 11 
11 -3 11 -1 11 4 11 -4 11 -7 11 -1 11 -5 11 -8 
11 -5 11 5 11 -3 11 -12 11 -5 11 -4 11 2 11 4 
11 4 11 -3 11 2 11 -4 11 -4 11 -12 11 -6 11 -3 
11 -8 11 1 11 -11 11 -8 11 -12 11 -7 11 -14 11 -4 
11 -1 11 -8 11 -12 11 -7 11 -8 11 -10 11 -1 11 -13 
11 -5 11 -12 11 -14 11 -9 11 5 11 -1 11 -19 11 -19 
11 -13 11 -12 12 -16 11 -8 11 -18 11 -15 11 -8 11 -13 
11 -14 11 -29 11 -10 11 -5 11 -9 11 -16 11 -20 11 -26 
11 -30 11 -1 11 -17 11 -23 11 -29 11 -12 11 -26 11 -23 
11 -26 11 -18 11 -19 11 -29 11 -29 11 -23 11 -30 11 -34 
11 -27 11 -37 11 -27 11 -30 11 -36 11 -35 11 -36 11 -33 
11 -39 11 -40 11 -45 11 -43 11 -53 11 -57 11 -60 11 -67 
11 -72 11 -73 11 -65 11 -53 11 -35 11 -22 11 -10 848 4513 272 MP stroke
/c9 { 0.000000 0.000000 1.000000 sr} bdef
c9
11 1 10 10 11 -7 11 -4 10 6 11 -3 11 -4 10 -2 
11 10 10 -1 11 11 11 10 10 -16 11 -15 11 29 10 17 
11 -8 11 -5 10 -5 11 -1 11 -16 10 16 11 19 11 -6 
10 -7 11 -4 11 -6 10 6 11 3 10 -4 11 -5 11 3 
10 -4 11 12 11 4 10 -13 11 4 11 -10 10 -11 11 -8 
11 -7 10 4 11 3 11 -4 10 -4 11 -7 11 -2 10 6 
11 -1 10 1 11 7 11 -5 10 -4 11 9 11 16 10 -7 
11 -14 11 8 10 -1 11 -15 11 -12 10 -13 11 -10 11 21 
10 10 11 9 11 -10 10 -1 11 0 10 -9 11 -14 11 3 
10 13 11 14 11 12 10 -4 11 -2 11 -16 10 -6 11 -9 
11 -2 10 1 11 -8 11 7 10 13 11 -9 11 -3 10 -16 
11 24 10 22 11 -8 11 -10 10 3 11 -4 11 -4 10 -16 
11 3 11 -7 10 7 11 -10 11 -3 10 7 11 -3 11 13 
10 -6 11 -2 11 -19 10 -5 11 -13 10 13 11 10 11 7 
10 -7 11 12 11 -20 10 1 11 10 11 -9 10 -14 11 -4 
11 13 10 -9 11 10 11 9 10 -4 11 1 11 -5 10 -5 
11 -2 10 -6 11 -8 11 17 10 -16 11 -24 11 -13 10 6 
11 8 11 -9 10 19 11 -2 11 -2 10 -6 11 8 11 -3 
10 -15 11 -18 11 -16 10 14 11 7 10 -15 11 9 11 6 
10 -12 11 1 11 6 10 -12 11 -5 11 -18 10 -5 11 -13 
11 -10 10 -15 11 5 11 -3 10 -5 11 -19 11 -7 10 -4 
11 -8 10 -21 11 25 11 9 10 11 11 -10 11 -3 10 2 
11 -18 11 -3 10 -11 11 -3 11 -8 10 -11 11 -7 11 -9 
10 -4 11 -11 11 2 10 -11 11 -18 10 -4 11 0 11 -2 
10 -16 11 -16 11 6 10 -4 11 -18 11 -15 10 -15 11 2 
11 -2 10 -20 11 -3 11 -4 10 -18 11 -5 11 -17 10 -8 
11 -19 10 1 11 -9 11 -2 10 -11 11 -12 11 4 10 -1 
11 -18 11 -14 10 -23 11 -6 11 -17 10 -20 11 -13 11 -16 
10 -4 11 -16 11 -28 10 -10 11 -2 10 -21 11 -14 11 -21 
10 -12 11 -22 11 -31 10 -6 11 -19 11 -15 10 -10 11 -22 
11 -27 10 -19 11 -24 11 -20 10 -20 11 -19 11 -31 10 -23 
11 -14 10 -27 11 -22 11 -23 10 -31 11 -25 11 -30 10 -17 
11 -31 11 -32 10 -23 11 -28 11 -28 10 -27 11 -30 11 -30 
10 -28 11 -29 11 -36 10 -30 11 -37 10 -31 11 -37 11 -38 
10 -41 11 -43 11 -46 10 -51 11 -48 11 -56 10 -60 11 -65 
11 -70 10 -63 11 -52 11 -41 10 -34 11 -27 11 -15 10 -8 
11 -6 10 -3 848 4514 291 MP stroke
/c10 { 1.000000 0.000000 1.000000 sr} bdef
c10
10 17 10 9 11 17 10 10 11 12 10 1 11 -1 10 21 
11 -17 10 -18 10 -7 11 17 10 11 11 1 10 -2 11 -22 
10 25 11 -3 10 -4 11 -14 10 2 10 1 11 22 10 -2 
11 -22 10 14 11 15 10 -8 11 10 10 -9 10 12 11 -16 
10 11 11 -10 10 -16 11 -16 10 19 11 13 10 10 11 2 
10 -8 10 -10 11 -3 10 -29 11 21 10 9 11 -16 10 -8 
11 -1 10 -12 10 31 11 9 10 -9 11 -7 10 11 11 2 
10 -17 11 -11 10 -11 11 -30 10 40 10 11 11 -30 10 16 
11 7 10 -11 11 2 10 -15 11 26 10 -21 10 -6 11 -6 
10 -12 11 0 10 5 11 4 10 3 11 12 10 -19 11 -2 
10 8 10 7 11 2 10 -6 11 -13 10 -23 11 -2 10 10 
11 -8 10 -1 10 11 11 -12 10 -6 11 -13 10 -4 11 -12 
10 -3 11 16 10 5 11 -2 10 9 10 8 11 -12 10 6 
11 8 10 -12 11 -15 10 11 11 5 10 3 10 13 11 6 
10 2 11 -15 10 -7 11 -5 10 -12 11 -3 10 11 11 -2 
10 8 10 -6 11 -11 10 -1 11 -15 10 0 11 -1 10 7 
11 9 10 -10 10 -2 11 -11 10 7 11 -22 10 6 11 7 
10 -15 11 8 10 12 11 -8 10 11 10 -9 11 9 10 17 
11 7 10 -2 11 0 10 -7 11 -4 10 -1 10 13 11 -4 
10 -8 11 -4 10 14 11 3 10 3 11 -8 10 -11 11 1 
10 5 10 7 11 -12 10 -14 11 10 10 -17 11 -10 10 12 
11 2 10 -12 10 -8 11 0 10 0 11 12 10 -15 11 -14 
10 -5 11 -5 10 6 11 9 10 -8 10 -21 11 16 10 -10 
11 3 10 -7 11 -1 10 -6 11 -11 10 -4 10 3 11 10 
10 -5 11 -10 10 0 11 8 10 5 11 -5 10 -11 11 -7 
10 -16 10 -30 11 29 10 3 11 -14 10 -7 11 -5 10 4 
11 -6 10 -2 10 9 11 -6 10 -38 11 14 10 -7 11 -11 
10 -2 11 -13 10 10 11 8 10 -11 10 -5 11 -23 10 -5 
11 20 10 7 11 -5 10 -18 11 -31 10 7 10 -14 11 21 
10 -12 11 16 10 5 11 -12 10 -7 11 -1 10 -12 11 -11 
10 -4 10 -17 11 1 10 -5 11 -16 10 -11 11 2 10 -18 
11 8 10 -18 10 -10 11 -5 10 -5 11 -14 10 8 11 -2 
10 -13 11 -8 10 -15 11 2 10 -4 10 -7 11 -16 10 -10 
11 -23 10 0 11 2 10 -13 11 -14 10 -5 10 -22 11 -14 
10 -5 11 -2 10 -22 11 -15 10 4 11 -7 10 -14 11 -14 
10 -20 10 -6 11 -12 10 -23 11 -12 10 5 11 -15 10 -7 
11 -10 10 -14 10 -12 11 -19 10 -14 11 -19 10 -6 11 -13 
10 -14 11 -4 10 -21 1694 2339 300 MP stroke
11 -8 10 -1 10 -17 11 -18 10 -24 11 -18 10 -6 11 -11 
10 -20 11 -16 10 -15 10 -35 11 2 10 -16 11 -12 10 -22 
11 -21 10 -25 11 -7 10 -30 11 -20 10 -11 10 -15 11 -27 
10 -18 11 -22 10 -26 11 -25 10 -13 11 -20 10 -23 10 -25 
11 -25 10 -24 11 -22 10 -22 11 -25 10 -24 11 -21 10 -26 
11 -19 10 -25 10 -28 11 -22 10 -29 11 -24 10 -28 11 -30 
10 -26 11 -31 10 -29 10 -25 11 -32 10 -29 11 -26 10 -30 
11 -34 10 -37 11 -40 10 -40 11 -46 10 -44 10 -48 11 -51 
10 -50 11 -51 10 -51 11 -58 10 -59 11 -59 10 -49 10 -50 
11 -51 10 -45 11 -33 10 -24 11 -23 10 -16 11 -13 10 -10 
10 -6 848 4514 82 MP stroke
gr

c10
0 sg
%%IncludeResource: font Helvetica
/Helvetica /ISOLatin1Encoding 166.667 FMSR

 818 4587 mt 
( ) s
5056  631 mt 
( ) s
12.5 w
%%IncludeResource: font Symbol
/Symbol /ISOLatin1Encoding 125 FMSR

1266  927 mt 
(D) s
%%IncludeResource: font Helvetica-Bold
/Helvetica-Bold /ISOLatin1Encoding 125 FMSR

1342  927 mt 
( ) s
%%IncludeResource: font Symbol
/Symbol /ISOLatin1Encoding 125 FMSR

1376  927 mt 
(g) s
%%IncludeResource: font Helvetica-Bold
/Helvetica-Bold /ISOLatin1Encoding 125 FMSR

1427  927 mt 
( = 8 J/m) s
%%IncludeResource: font Helvetica-Bold
/Helvetica-Bold /ISOLatin1Encoding 100 FMSR

1889  865 mt 
(2) s
gs 941 750 1226 950 rc
16.6667 w
250 0 990 879 2 MP stroke
gr

16.6667 w
%%IncludeResource: font Symbol
/Symbol /ISOLatin1Encoding 125 FMSR

1266 1157 mt 
(D) s
%%IncludeResource: font Helvetica-Bold
/Helvetica-Bold /ISOLatin1Encoding 125 FMSR

1342 1157 mt 
( ) s
%%IncludeResource: font Symbol
/Symbol /ISOLatin1Encoding 125 FMSR

1376 1157 mt 
(g) s
%%IncludeResource: font Helvetica-Bold
/Helvetica-Bold /ISOLatin1Encoding 125 FMSR

1427 1157 mt 
( = 12.5 J/m) s
%%IncludeResource: font Helvetica-Bold
/Helvetica-Bold /ISOLatin1Encoding 100 FMSR

2062 1095 mt 
(2) s
gs 941 750 1226 950 rc
c8
250 0 990 1109 2 MP stroke
gr

c8
0 sg
%%IncludeResource: font Symbol
/Symbol /ISOLatin1Encoding 125 FMSR

1266 1387 mt 
(D) s
%%IncludeResource: font Helvetica-Bold
/Helvetica-Bold /ISOLatin1Encoding 125 FMSR

1342 1387 mt 
( ) s
%%IncludeResource: font Symbol
/Symbol /ISOLatin1Encoding 125 FMSR

1376 1387 mt 
(g) s
%%IncludeResource: font Helvetica-Bold
/Helvetica-Bold /ISOLatin1Encoding 125 FMSR

1427 1387 mt 
( = 18.5 J/m) s
%%IncludeResource: font Helvetica-Bold
/Helvetica-Bold /ISOLatin1Encoding 100 FMSR

2062 1325 mt 
(2) s
gs 941 750 1226 950 rc
c9
250 0 990 1339 2 MP stroke
gr

c9
0 sg
%%IncludeResource: font Symbol
/Symbol /ISOLatin1Encoding 125 FMSR

1266 1617 mt 
(D) s
%%IncludeResource: font Helvetica-Bold
/Helvetica-Bold /ISOLatin1Encoding 125 FMSR

1342 1617 mt 
( ) s
%%IncludeResource: font Symbol
/Symbol /ISOLatin1Encoding 125 FMSR

1376 1617 mt 
(g) s
%%IncludeResource: font Helvetica-Bold
/Helvetica-Bold /ISOLatin1Encoding 125 FMSR

1427 1617 mt 
( = 23.5 J/m) s
%%IncludeResource: font Helvetica-Bold
/Helvetica-Bold /ISOLatin1Encoding 100 FMSR

2062 1555 mt 
(2) s
gs 941 750 1226 950 rc
c10
250 0 990 1569 2 MP stroke
12.5 w
gr

12.5 w
c10

end %%Color Dict

eplot
%%EndObject

epage
end

showpage

%%Trailer
%%EOF
