%!PS-Adobe-3.0 EPSF-3.0
%%Creator: MATLAB, The MathWorks, Inc. Version 7.12.0.635 (R2011a). Operating System: Linux 2.6.32-358.6.2.el6.x86_64 #1 SMP Thu May 16 11:21:38 CDT 2013 x86_64.
%%Title: ./BeverlooComparison.eps
%%CreationDate: 08/15/2013  12:21:48
%%DocumentNeededFonts: Helvetica-Bold
%%+ Helvetica
%%DocumentProcessColors: Cyan Magenta Yellow Black
%%LanguageLevel: 2
%%Pages: 1
%%BoundingBox:    24    69   599   605
%%EndComments

%%BeginProlog
% MathWorks dictionary
/MathWorks 160 dict begin
% definition operators
/bdef {bind def} bind def
/ldef {load def} bind def
/xdef {exch def} bdef
/xstore {exch store} bdef
% operator abbreviations
/c  /clip ldef
/cc /concat ldef
/cp /closepath ldef
/gr /grestore ldef
/gs /gsave ldef
/mt /moveto ldef
/np /newpath ldef
/cm /currentmatrix ldef
/sm /setmatrix ldef
/rm /rmoveto ldef
/rl /rlineto ldef
/s {show newpath} bdef
/sc {setcmykcolor} bdef
/sr /setrgbcolor ldef
/sg /setgray ldef
/w /setlinewidth ldef
/j /setlinejoin ldef
/cap /setlinecap ldef
/rc {rectclip} bdef
/rf {rectfill} bdef
% page state control
/pgsv () def
/bpage {/pgsv save def} bdef
/epage {pgsv restore} bdef
/bplot /gsave ldef
/eplot {stroke grestore} bdef
% orientation switch
/portraitMode 0 def /landscapeMode 1 def /rotateMode 2 def
% coordinate system mappings
/dpi2point 0 def
% font control
/FontSize 0 def
/FMS {/FontSize xstore findfont [FontSize 0 0 FontSize neg 0 0]
  makefont setfont} bdef
/reencode {exch dup where {pop load} {pop StandardEncoding} ifelse
  exch dup 3 1 roll findfont dup length dict begin
  { 1 index /FID ne {def}{pop pop} ifelse } forall
  /Encoding exch def currentdict end definefont pop} bdef
/isroman {findfont /CharStrings get /Agrave known} bdef
/FMSR {3 1 roll 1 index dup isroman {reencode} {pop pop} ifelse
  exch FMS} bdef
/csm {1 dpi2point div -1 dpi2point div scale neg translate
 dup landscapeMode eq {pop -90 rotate}
  {rotateMode eq {90 rotate} if} ifelse} bdef
% line types: solid, dotted, dashed, dotdash
/SO { [] 0 setdash } bdef
/DO { [.5 dpi2point mul 4 dpi2point mul] 0 setdash } bdef
/DA { [6 dpi2point mul] 0 setdash } bdef
/DD { [.5 dpi2point mul 4 dpi2point mul 6 dpi2point mul 4
  dpi2point mul] 0 setdash } bdef
% macros for lines and objects
/L {lineto stroke} bdef
/MP {3 1 roll moveto 1 sub {rlineto} repeat} bdef
/AP {{rlineto} repeat} bdef
/PDlw -1 def
/W {/PDlw currentlinewidth def setlinewidth} def
/PP {closepath eofill} bdef
/DP {closepath stroke} bdef
/MR {4 -2 roll moveto dup  0 exch rlineto exch 0 rlineto
  neg 0 exch rlineto closepath} bdef
/FR {MR stroke} bdef
/PR {MR fill} bdef
/L1i {{currentfile picstr readhexstring pop} image} bdef
/tMatrix matrix def
/MakeOval {newpath tMatrix currentmatrix pop translate scale
0 0 1 0 360 arc tMatrix setmatrix} bdef
/FO {MakeOval stroke} bdef
/PO {MakeOval fill} bdef
/PD {currentlinewidth 2 div 0 360 arc fill
   PDlw -1 eq not {PDlw w /PDlw -1 def} if} def
/FA {newpath tMatrix currentmatrix pop translate scale
  0 0 1 5 -2 roll arc tMatrix setmatrix stroke} bdef
/PA {newpath tMatrix currentmatrix pop	translate 0 0 moveto scale
  0 0 1 5 -2 roll arc closepath tMatrix setmatrix fill} bdef
/FAn {newpath tMatrix currentmatrix pop translate scale
  0 0 1 5 -2 roll arcn tMatrix setmatrix stroke} bdef
/PAn {newpath tMatrix currentmatrix pop translate 0 0 moveto scale
  0 0 1 5 -2 roll arcn closepath tMatrix setmatrix fill} bdef
/vradius 0 def /hradius 0 def /lry 0 def
/lrx 0 def /uly 0 def /ulx 0 def /rad 0 def
/MRR {/vradius xdef /hradius xdef /lry xdef /lrx xdef /uly xdef
  /ulx xdef newpath tMatrix currentmatrix pop ulx hradius add uly
  vradius add translate hradius vradius scale 0 0 1 180 270 arc 
  tMatrix setmatrix lrx hradius sub uly vradius add translate
  hradius vradius scale 0 0 1 270 360 arc tMatrix setmatrix
  lrx hradius sub lry vradius sub translate hradius vradius scale
  0 0 1 0 90 arc tMatrix setmatrix ulx hradius add lry vradius sub
  translate hradius vradius scale 0 0 1 90 180 arc tMatrix setmatrix
  closepath} bdef
/FRR {MRR stroke } bdef
/PRR {MRR fill } bdef
/MlrRR {/lry xdef /lrx xdef /uly xdef /ulx xdef /rad lry uly sub 2 div def
  newpath tMatrix currentmatrix pop ulx rad add uly rad add translate
  rad rad scale 0 0 1 90 270 arc tMatrix setmatrix lrx rad sub lry rad
  sub translate rad rad scale 0 0 1 270 90 arc tMatrix setmatrix
  closepath} bdef
/FlrRR {MlrRR stroke } bdef
/PlrRR {MlrRR fill } bdef
/MtbRR {/lry xdef /lrx xdef /uly xdef /ulx xdef /rad lrx ulx sub 2 div def
  newpath tMatrix currentmatrix pop ulx rad add uly rad add translate
  rad rad scale 0 0 1 180 360 arc tMatrix setmatrix lrx rad sub lry rad
  sub translate rad rad scale 0 0 1 0 180 arc tMatrix setmatrix
  closepath} bdef
/FtbRR {MtbRR stroke } bdef
/PtbRR {MtbRR fill } bdef
/stri 6 array def /dtri 6 array def
/smat 6 array def /dmat 6 array def
/tmat1 6 array def /tmat2 6 array def /dif 3 array def
/asub {/ind2 exch def /ind1 exch def dup dup
  ind1 get exch ind2 get sub exch } bdef
/tri_to_matrix {
  2 0 asub 3 1 asub 4 0 asub 5 1 asub
  dup 0 get exch 1 get 7 -1 roll astore } bdef
/compute_transform {
  dmat dtri tri_to_matrix tmat1 invertmatrix 
  smat stri tri_to_matrix tmat2 concatmatrix } bdef
/ds {stri astore pop} bdef
/dt {dtri astore pop} bdef
/db {2 copy /cols xdef /rows xdef mul dup 3 mul string
  currentfile 
  3 index 0 eq {/ASCIIHexDecode filter}
  {/ASCII85Decode filter 3 index 2 eq {/RunLengthDecode filter} if }
  ifelse exch readstring pop
  dup 0 3 index getinterval /rbmap xdef
  dup 2 index dup getinterval /gbmap xdef
  1 index dup 2 mul exch getinterval /bbmap xdef pop pop}bdef
/it {gs np dtri aload pop moveto lineto lineto cp c
  cols rows 8 compute_transform 
  rbmap gbmap bbmap true 3 colorimage gr}bdef
/il {newpath moveto lineto stroke}bdef
currentdict end def
%%EndProlog

%%BeginSetup
MathWorks begin

0 cap

end
%%EndSetup

%%Page: 1 1
%%BeginPageSetup
%%PageBoundingBox:    24    69   599   605
MathWorks begin
bpage
%%EndPageSetup

%%BeginObject: obj1
bplot

/dpi2point 8.33333 def
portraitMode -0158 5475 csm

  366   426  4786  4474 rc
84 dict begin %Colortable dictionary
/c0 { 0.000000 0.000000 0.000000 sr} bdef
/c1 { 1.000000 1.000000 1.000000 sr} bdef
/c2 { 0.900000 0.000000 0.000000 sr} bdef
/c3 { 0.000000 0.820000 0.000000 sr} bdef
/c4 { 0.000000 0.000000 0.800000 sr} bdef
/c5 { 0.910000 0.820000 0.320000 sr} bdef
/c6 { 1.000000 0.260000 0.820000 sr} bdef
/c7 { 0.000000 0.820000 0.820000 sr} bdef
c0
1 j
1 sg
   0    0 5651 5651 rf
12.5 w
0 3955 4237 0 0 -3955 848 4520 4 MP
PP
-4237 0 0 3955 4237 0 0 -3955 848 4520 5 MP stroke
8.33333 w
DO
SO
12.5 w
0.1 sg
 848 4520 mt 5085 4520 L
 848  565 mt 5085  565 L
 848 4520 mt  848  565 L
5085 4520 mt 5085  565 L
 848 4520 mt 5085 4520 L
 848 4520 mt  848  565 L
 848 4520 mt  848 4456 L
 848  565 mt  848  628 L
%%IncludeResource: font Helvetica
/Helvetica /ISOLatin1Encoding 133.333 FMSR

 811 4668 mt 
(0) s
1789 4520 mt 1789 4456 L
1789  565 mt 1789  628 L
1752 4668 mt 
(5) s
2731 4520 mt 2731 4456 L
2731  565 mt 2731  628 L
2657 4668 mt 
(10) s
3672 4520 mt 3672 4456 L
3672  565 mt 3672  628 L
3598 4668 mt 
(15) s
4614 4520 mt 4614 4456 L
4614  565 mt 4614  628 L
4540 4668 mt 
(20) s
 848 4520 mt  911 4520 L
5085 4520 mt 5021 4520 L
 750 4569 mt 
(0) s
 848 3201 mt  911 3201 L
5085 3201 mt 5021 3201 L
 639 3250 mt 
(0.5) s
 848 1883 mt  911 1883 L
5085 1883 mt 5021 1883 L
 750 1932 mt 
(1) s
 848  565 mt  911  565 L
5085  565 mt 5021  565 L
 639  614 mt 
(1.5) s
 848 4520 mt 5085 4520 L
 848  565 mt 5085  565 L
 848 4520 mt  848  565 L
5085 4520 mt 5085  565 L
gs 848 565 4238 3956 rc
18.75 w
/c8 { 0.000000 0.000000 1.000000 sr} bdef
c8
1 -251 2 -1208 2 242 2 -1127 2 1771 1 -725 2 323 2 80 
2 -1369 2 1611 2 -484 2 -644 2 242 1 80 2 161 2 -80 
2 322 2 242 2 -242 2 -403 2 403 2 -161 1 -564 2 403 
2 564 2 -403 2 161 2 -805 2 805 2 -81 1 -402 2 -725 
2 805 2 564 2 -242 2 -563 2 161 2 402 2 0 1 0 
2 242 2 -403 2 -80 2 -725 2 0 2 483 2 886 1 -80 
2 -81 2 -966 2 886 2 -81 2 -1047 2 161 2 725 2 322 
1 81 2 -806 2 161 2 242 2 483 2 -483 2 -81 2 -322 
1 81 2 966 2 -725 2 -322 2 806 2 322 2 161 2 -644 
2 -323 1 645 2 -806 2 -161 2 -483 2 81 2 402 2 -241 
2 322 2 0 1 322 2 242 2 -81 2 483 2 -161 2 644 
2 -1530 2 -563 1 483 2 322 2 403 2 -403 2 322 2 161 
2 -1047 2 886 2 161 1 -242 2 -80 2 -805 2 644 2 80 
2 -322 2 -402 2 161 1 644 2 161 2 -564 2 403 2 -81 
2 161 2 -644 2 564 2 242 1 -162 2 -80 2 -403 2 242 
2 161 2 -161 2 403 2 -403 1 0 2 80 2 -644 2 -563 
2 -242 2 725 2 805 2 725 2 -1450 1 81 2 1208 2 -81 
2 -564 2 -644 2 -322 2 1772 2 241 1 -402 2 -484 2 -724 
2 80 2 242 2 0 2 402 2 645 2 -725 1 -886 2 -241 
2 805 2 -483 2 805 2 322 2 0 2 483 2 81 1 -322 
2 483 2 -1852 2 322 2 644 2 81 2 -645 2 322 1 -322 
2 322 2 242 2 -403 2 -483 2 0 2 1369 2 -322 2 -403 
1 -885 2 805 2 403 2 -242 2 403 2 -1369 2 966 2 483 
1 161 2 -805 2 -564 2 0 2 967 2 -242 2 -322 2 -564 
2 483 1 645 2 724 2 -402 2 -1369 2 724 2 -161 2 725 
2 -483 1 966 2 -1127 2 0 2 322 2 -161 2 564 2 0 
2 -242 2 -1288 1 563 2 967 2 -645 2 -322 2 242 2 161 
2 -886 2 242 1 -242 2 886 2 -403 2 -483 2 483 2 161 
2 81 2 -322 2 402 1 -161 2 -241 2 644 2 -886 2 886 
2 -242 2 -322 2 -322 2 1208 1 -564 2 81 2 -161 2 322 
2 -322 2 403 2 -725 2 644 1 725 2 -644 2 -81 2 -805 
2 886 2 -725 2 725 2 80 2 -403 1 -80 2 -81 2 243 
2 482 2 -966 2 80 2 -161 2 806 1 402 2 -161 2 -564 
2 -563 2 -242 2 483 2 -241 2 644 2 -81 1 0 2 403 
2 -725 2 -322 2 643 2 -401 2 644 2 -161 1 -322 2 725 
2 -403 2 242 2 -886 2 241 2 322 2 403 2 -161 1 0 
2 -805 2 161 2 402 2 161 2 -483 2 242 2 322 1 -242 
2 161 2 0 2 -563 874 2265 300 MP stroke
2 322 2 0 2 -322 2 725 2 -162 1 886 2 81 2 -242 
2 242 2 -967 2 967 2 -2979 2 -806 1 0 848 4520 15 MP stroke
2 -1056 2 -161 1 1047 2 -725 2 -725 2 -402 2 -242 2 403 
2 0 2 322 2 402 1 -80 2 -483 2 725 2 -645 2 161 
2 -322 2 725 2 81 1 -645 2 -1127 2 322 2 644 2 242 
2 -242 2 644 2 -966 2 1369 1 -886 2 322 2 323 2 -162 
2 -80 2 -644 2 483 2 403 1 -886 2 241 2 -80 2 725 
2 -323 2 -885 2 1288 2 -403 2 645 1 -645 2 -322 2 161 
2 -563 2 80 2 1128 2 -161 2 -323 1 0 2 -241 2 161 
2 0 2 241 2 -241 2 564 2 0 2 -484 1 -563 2 1127 
2 -80 2 -1128 2 161 2 322 2 564 2 -403 1 967 2 -644 
2 -403 2 483 2 81 2 -403 2 -161 2 80 2 484 1 -645 
2 1128 2 -1530 2 483 2 0 2 -242 2 81 2 805 2 -483 
1 -564 2 242 2 161 2 -322 2 -81 2 322 2 -322 2 -241 
1 80 2 -80 2 1530 2 -322 2 -967 2 1047 2 -403 2 -80 
2 564 1 241 2 -80 2 -1047 2 322 2 -242 2 -483 2 403 
2 -161 1 80 2 403 2 242 2 -484 2 -563 2 885 2 564 
2 -805 2 -81 1 -241 2 -403 2 886 2 322 2 -644 2 -81 
2 81 2 80 1 -80 2 80 2 322 2 162 2 241 2 -403 
2 242 2 -1047 2 644 1 -80 2 0 2 322 2 -161 2 -483 
2 -242 2 -402 2 724 1 564 2 -483 2 644 2 -483 2 -644 
2 0 2 805 2 -564 2 -241 1 1127 2 -725 2 322 2 81 
2 -161 2 -161 2 564 2 80 2 -725 1 322 2 242 2 -886 
2 886 2 81 2 80 2 242 2 -806 1 0 2 322 2 -80 
2 -886 2 886 2 -805 2 563 2 -241 2 0 1 -322 2 1530 
2 -967 2 81 2 564 2 -242 2 -403 2 242 1 -161 2 -644 
2 885 2 -644 2 403 2 -242 2 403 2 161 2 -81 1 -322 
2 -241 2 563 2 -402 2 644 2 -80 2 -242 2 -242 1 806 
2 -484 2 323 2 0 2 -967 2 -161 2 -402 2 1046 2 0 
1 -1288 2 403 2 1208 2 161 2 161 2 241 2 -161 2 -1369 
1 -322 2 1289 2 80 2 0 2 -322 2 -644 2 241 2 483 
2 -161 1 -966 2 483 2 0 2 967 2 -886 2 1047 2 -886 
2 -322 2 241 1 161 2 -483 2 0 2 725 2 483 2 -403 
2 -161 2 -1046 1 966 2 241 2 242 2 242 2 -645 2 242 
2 -644 2 402 2 -80 1 241 2 -161 2 0 2 81 2 80 
2 -402 2 -242 2 806 1 -162 2 323 2 -564 2 0 2 322 
2 -322 2 -322 2 483 2 80 1 -241 2 161 2 564 2 -806 
2 484 2 -564 2 -161 2 322 1 -644 2 885 2 725 2 -563 
2 0 2 80 2 81 2 -725 2 -403 1 886 2 725 2 -886 
2 -805 2 563 2 242 2770 1782 300 MP stroke
2 483 2 242 1 -1450 2 403 2 -403 2 1208 2 -1369 2 1450 
2 -645 2 161 2 242 1 -403 2 81 2 -161 2 805 2 -1127 
2 322 2 80 2 -322 2 403 1 161 2 -81 2 -241 2 403 
2 -323 2 -322 2 322 2 323 1 161 2 -484 2 -241 2 -242 
2 81 2 -322 2 644 2 -322 2 241 1 -80 2 0 2 322 
2 322 2 -322 2 322 2 -242 2 242 1 -483 2 161 2 -242 
2 -322 2 403 2 161 2 -403 2 483 2 81 1 -242 2 645 
2 -967 2 806 2 -886 2 0 2 402 2 645 1 -1208 2 -81 
2 564 2 241 2 -402 2 -403 2 886 2 -564 2 564 1 -886 
2 322 2 645 2 -403 2 403 2 -323 2 -322 2 -80 1 161 
2 1208 2 -1047 2 -725 2 161 2 81 2 1610 2 -563 2 -484 
1 0 2 323 2 -242 2 -81 2 1128 2 -1450 2 0 2 161 
2 242 1 -322 2 402 2 -322 2 -161 2 -80 2 402 2 -483 
2 -322 1 403 2 0 2 -242 2 0 2 242 2 80 2 -80 
2 1288 2 -483 1 -886 2 -241 2 805 2 -322 2 -483 2 563 
2 564 2 -483 1 -886 2 1289 2 161 2 -967 2 322 2 -80 
2 -644 2 -161 2 1207 1 -724 2 402 2 81 2 241 2 81 
2 -161 2 -242 2 -161 1 -80 2 -161 2 241 2 -80 2 80 
2 242 2 644 2 -725 2 403 1 -403 2 564 2 -1127 2 -242 
2 886 2 403 2 -403 2 483 1 -644 2 241 2 81 2 322 
2 -1127 2 161 2 -161 2 483 2 725 1 -242 2 644 2 0 
2 -563 2 -403 2 0 2 -161 2 80 2 161 1 242 2 -81 
2 81 2 -805 2 402 2 -402 2 402 2 -322 1 0 2 483 
2 403 2 -403 2 484 2 -564 2 -322 2 725 2 -806 1 806 
2 -806 2 81 2 -322 2 80 2 -402 2 1046 2 161 1 -1529 
2 563 2 644 2 -80 2 -161 2 0 2 805 2 403 2 -967 
1 -483 2 322 2 806 2 -564 2 0 2 403 2 -81 2 -966 
1 322 2 402 2 0 2 -563 2 -161 2 563 2 0 2 645 
2 -403 1 -242 2 81 2 -322 2 -725 2 966 2 242 2 564 
2 -645 1 -563 2 161 2 0 2 483 2 -483 2 483 2 -81 
2 0 2 242 1 -242 2 -322 2 322 2 -483 2 564 2 -322 
2 -322 2 80 2 -161 1 403 2 -322 2 644 2 -81 2 -563 
2 563 2 -80 2 -161 1 1449 2 -1852 2 483 2 -80 2 -322 
2 80 2 81 2 725 2 0 1 -81 2 -322 2 483 2 -161 
2 483 2 -564 2 -402 2 402 1 -322 2 725 2 0 2 -403 
2 -322 2 -402 2 886 2 -484 2 806 1 -484 2 0 2 -885 
2 322 2 -322 2 161 2 483 2 -564 1 161 2 -80 2 -81 
2 1369 2 -1288 2 -322 2207 2748 300 MP stroke
2 1127 2 -725 2 644 1 242 2 -161 2 -322 2 0 2 0 
2 403 2 -162 2 967 1 -725 2 161 2 -966 2 80 2 161 
2 -402 2 724 2 323 2 -967 1 564 2 -886 2 966 2 -483 
2 0 2 483 2 -885 2 402 2 1047 1 -1047 2 0 2 -80 
2 805 2 -644 2 -403 2 403 2 322 1 -725 2 886 2 -644 
2 -242 2 483 2 322 2 -322 2 161 2 -241 1 241 2 -402 
2 402 2 -80 2 403 2 -1208 2 644 2 1208 1 -886 2 0 
2 -483 2 322 2 -322 2 805 2 -886 2 725 2 81 1 -806 
2 -483 2 1047 2 403 2 -1128 2 322 2 564 2 483 1 -402 
2 -403 2 -403 2 -161 2 483 2 484 2 -645 2 886 2 -1047 
1 -402 2 322 2 -403 2 403 2 402 2 -563 2 644 2 805 
1 -1771 2 805 2 725 2 -1611 2 -161 2 1208 2 161 2 -564 
2 644 1 323 2 -564 2 161 2 242 2 -242 2 -644 2 402 
2 161 2 484 1 -725 2 -1208 2 805 2 161 2 -322 2 242 
2 402 2 -402 1 483 2 403 2 402 2 -886 2 -322 2 403 
2 0 2 -725 2 81 1 161 2 402 2 -1207 2 966 2 -403 
2 966 2 -80 2 -966 1 241 2 967 2 402 2 -80 2 -484 
2 725 2 -805 2 -644 2 1208 1 -242 2 -322 2 -403 2 806 
2 -323 2 81 2 725 2 -483 1 -1047 2 -161 2 80 2 725 
2 -322 2 -966 2 1046 2 242 2 -322 1 402 2 -1288 2 1611 
2 -806 2 564 2 -81 2 967 2 -2496 1 1449 2 -81 2 -241 
2 -1047 2 1208 2 644 2 -564 2 323 2 161 1 -81 2 -805 
2 402 2 0 2 -322 2 564 2 242 2 322 2 -1208 1 241 
2 886 2 -1047 2 403 2 -161 2 -644 2 1288 2 322 1 -644 
2 242 2 0 2 -161 2 -323 2 -402 2 -725 2 886 2 -242 
1 644 2 -322 2 322 2 242 2 -644 2 -81 2 403 2 403 
1 -403 2 161 2 -161 2 -644 2 161 2 241 2 -402 2 483 
2 -966 1 1288 2 -403 2 0 2 -1288 2 1691 2 0 2 -1208 
2 1369 1 -322 2 -483 2 161 2 241 2 0 2 0 2 -80 
2 403 2 483 1 80 2 -1530 2 886 2 -242 2 484 2 -323 
2 323 2 -484 1 484 2 -1450 2 161 2 966 2 -322 2 -241 
2 402 2 323 2 80 1 -564 2 1128 2 -1530 2 -322 2 1369 
2 -886 2 1047 2 -886 2 -161 1 644 2 403 2 -645 2 645 
2 -645 2 -483 2 242 2 483 1 322 2 -322 2 0 2 403 
2 -161 2 -242 2 -725 2 161 2 242 1 0 2 0 2 -725 
2 805 2 81 2 -805 2 322 2 0 1 80 2 645 2 -1289 
2 725 2 -81 2 0 2 483 2 -402 2 -966 1 1288 2 644 
2 -241 2 -1208 2 0 1644 2587 300 MP stroke
2 161 2 402 2 1047 1 -161 2 -564 2 323 2 161 2 -967 
2 -161 2 403 2 -161 2 322 1 0 2 -242 2 1450 2 -1289 
2 -1046 2 402 2 -322 2 805 1 81 2 -242 2 403 2 -403 
2 564 2 81 2 -1369 2 966 2 -403 1 -563 2 1046 2 806 
2 -967 2 242 2 322 2 483 2 -725 2 81 1 -564 2 161 
2 -483 2 886 2 -805 2 402 2 -80 2 -322 1 1127 2 -161 
2 -322 2 805 2 -483 2 -322 2 564 2 -1289 2 725 1 0 
2 -242 2 0 2 645 2 -806 2 403 2 -242 2 -563 1 161 
2 322 2 -483 2 1208 2 -242 2 -403 2 645 2 -725 2 161 
1 -564 2 0 2 242 2 402 2 161 2 -161 2 323 2 -162 
1 81 2 -805 2 402 2 -805 2 322 2 725 2 0 2 403 
2 -967 1 403 2 0 2 0 2 0 2 -161 2 564 2 322 
2 -484 1 -80 2 644 2 0 2 -483 2 -322 2 -161 2 80 
2 322 2 -483 1 645 2 -1047 2 885 2 1137 1437 565 111 MP stroke
2 -975 1 -806 2 403 2 161 2 0 2 -403 2 645 2 -242 
2 -242 2 -724 1 483 2 805 2 0 2 -80 2 241 2 -644 
2 161 2 322 1 -564 2 967 2 -322 2 80 2 -241 2 241 
2 734 3333 565 26 MP stroke
1 -492 2 -242 2 -322 2 0 2 -966 2 1047 1 -81 2 -644 
2 -161 2 805 2 -483 2 805 2 -644 2 -322 2 322 1 483 
2 0 2 -242 2 323 2 -645 2 725 1 734 3381 565 23 MP stroke
2 242 2 -322 2 80 2 -80 2 161 2 -323 2 323 1 0 
2 -242 2 322 2 -161 2 -242 2 81 2 242 2 -161 2 80 
1 81 2 -161 2 -81 2 161 2 81 2 -161 2 0 2 0 
1 -81 2 161 2 -80 2 161 2 0 2 0 2 0 2 0 
2 80 1 81 2 -161 2 -81 2 -80 2 80 2 161 2 0 
2 81 1 0 2 -322 2 80 2 -80 2 483 2 -403 2 0 
2 242 2 -161 1 161 2 -403 2 0 2 161 2 161 2 -80 
2 -161 2 0 1 0 2 161 2 -161 2 80 2 81 2 80 
2 0 2 0 2 0 1 -161 2 -161 2 242 2 -242 2 0 
2 161 2 81 2 -242 1 322 2 -161 2 81 2 161 2 -81 
2 -80 2 -81 2 0 2 -80 1 161 2 241 2 -161 2 0 
2 -241 2 -81 2 322 2 -161 2 403 1 -483 2 241 2 -161 
2 0 2 322 2 -402 2 161 2 -81 1 -80 2 80 2 0 
2 -161 2 242 2 161 2 0 2 -242 2 -161 1 81 2 80 
2 0 2 81 2 161 2 -161 2 0 2 80 1 -241 2 161 
2 161 2 -161 2 -161 2 322 2 0 2 -161 2 -323 1 162 
2 80 2 0 2 0 2 0 2 0 2 242 2 -161 1 -81 
2 -161 2 242 2 80 2 -80 2 241 2 -564 2 162 2 -81 
1 483 2 -402 2 241 2 -161 2 -161 2 322 2 -241 2 241 
1 0 2 -241 2 -81 2 725 2 -483 2 -161 2 0 2 161 
2 161 1 -81 2 0 2 -241 2 -81 2 81 2 241 2 -80 
2 80 2 -322 1 322 2 0 2 0 2 -322 2 161 2 -161 
2 161 2 -161 1 322 2 -241 2 -81 2 242 2 80 2 -80 
2 80 2 -241 2 -81 1 161 2 161 2 0 2 322 2 -80 
2 -242 2 -241 2 80 1 161 2 242 2 -403 2 161 2 -241 
2 0 2 241 2 -80 2 -81 1 161 2 -241 2 241 2 -80 
2 0 2 322 2 -161 2 -161 1 -81 2 81 2 0 2 0 
2 -81 2 403 2 -322 2 322 2 -242 1 -161 2 -80 2 322 
2 -81 2 81 2 0 2 -81 2 81 1 0 2 80 2 0 
2 -161 2 -161 2 483 2 -322 2 -80 2 80 1 81 2 -161 
2 241 2 -80 2 -81 2 0 2 0 2 -80 2 0 1 0 
2 402 2 -402 2 -81 2 242 2 0 2 0 2 -322 1 161 
2 -161 2 402 2 0 2 -161 2 81 2 0 2 0 2 0 
1 -161 2 -242 2 242 2 80 2 -241 2 322 2 161 2 -403 
1 161 2 81 2 -161 2 241 2 -80 2 -161 2 -242 2 161 
2 161 1 -241 2 0 2 241 2 242 2 -81 2 -241 2 161 
2 241 1 -402 2 0 2 -161 2 402 2 -161 2 161 2 -483 
2 483 2 -80 1 -242 4520 4278 300 MP stroke
2 564 2 -564 2 -80 2 241 2 -161 2 81 2 80 1 322 
2 483 2 -563 2 -242 2 161 2 -161 2 161 2 -161 2 81 
1 -161 2 0 2 -242 2 0 2 242 2 483 2 -242 2 -322 
2 161 1 161 2 -322 2 322 2 0 2 0 2 161 2 0 
2 -322 1 -80 2 322 2 -161 2 -242 2 -80 2 241 2 403 
2 -161 2 80 1 -402 2 161 2 -242 2 242 2 -161 2 161 
2 -161 2 -81 1 81 2 402 2 81 2 -403 2 -161 2 564 
2 -644 2 563 2 242 1 -161 2 -483 2 644 2 -242 2 -563 
2 483 2 161 2 -242 1 81 2 -322 2 -81 2 322 2 0 
2 -80 2 -161 2 -81 2 242 1 161 2 -242 2 644 2 -724 
2 402 2 -80 2 -81 2 81 1 -322 2 161 2 -242 2 322 
2 -241 2 402 2 -80 2 322 2 -403 1 564 2 -644 2 80 
2 -80 2 -242 2 322 2 322 2 -322 2 -161 1 -80 2 322 
2 -81 2 81 2 -161 2 0 2 -161 2 80 1 242 2 -161 
2 161 2 402 2 -322 2 -241 2 241 2 -161 2 161 1 -161 
2 -161 2 322 2 -322 2 403 2 80 2 81 2 -322 1 0 
2 0 2 0 2 80 2 161 2 -241 2 -81 2 0 2 -322 
1 322 2 81 2 -161 2 161 2 161 2 -483 2 724 2 -322 
1 81 2 -322 2 241 2 161 2 -724 2 161 2 80 2 322 
2 403 1 -886 2 644 2 -563 2 402 2 0 2 81 2 80 
2 -80 1 0 2 -483 2 80 2 725 2 -564 2 483 2 -483 
2 403 2 -403 1 -80 2 563 2 -80 2 -483 2 80 2 -80 
2 483 2 -161 2 161 1 241 2 -402 2 -161 2 -242 2 403 
2 80 2 -402 2 -81 1 242 2 0 2 161 2 80 2 -322 
2 644 2 -805 2 564 2 -403 1 81 2 402 2 -402 2 -645 
2 725 2 81 2 -242 2 322 1 81 2 -242 2 -161 2 161 
2 161 2 0 2 -402 2 0 2 241 1 0 2 644 2 -241 
2 0 2 161 2 -483 2 0 2 161 1 -403 2 -322 2 886 
2 -161 2 -242 2 -322 2 644 2 0 2 81 1 -161 2 -161 
2 -161 2 241 2 -80 2 0 2 -403 2 564 1 -161 2 563 
2 0 2 -322 2 -402 2 161 2 241 2 -161 2 81 1 80 
2 0 2 -80 2 -403 2 81 2 0 2 322 2 0 2 -161 
1 322 2 -161 2 483 2 -564 2 483 2 161 2 -966 2 564 
1 -644 2 563 2 0 2 -563 2 241 2 322 2 -402 2 80 
2 403 1 322 2 -81 2 -80 2 241 2 -241 2 -161 2 0 
2 402 1 0 2 242 2 -403 2 -322 2 -241 2 0 2 402 
2 -402 2 483 1 -242 2 -322 2 322 2 483 2 -322 2 81 
2 -161 2 80 1 564 3957 2748 300 MP stroke
2 -886 2 81 2 563 2 242 2 -886 2 161 2 81 2 -81 
1 483 2 -563 2 -161 2 805 2 -1047 2 322 2 81 2 563 
1 -241 2 0 2 -81 2 -80 2 80 2 242 2 -483 2 -483 
2 563 1 564 2 -322 2 -242 2 81 2 80 2 -161 2 -80 
2 80 2 322 1 322 2 -161 2 -80 2 -483 2 241 2 0 
2 -483 2 81 1 402 2 322 2 -483 2 0 2 483 2 -885 
2 0 2 161 2 483 1 885 2 -724 2 -644 2 241 2 483 
2 242 2 -242 2 -805 1 564 2 0 2 644 2 -322 2 -403 
2 161 2 81 2 -81 2 483 1 -402 2 -322 2 322 2 161 
2 -81 2 0 2 725 2 -564 1 161 2 -563 2 241 2 242 
2 322 2 -483 2 -483 2 724 2 -161 1 242 2 -403 2 -322 
2 -161 2 -80 2 402 2 161 2 -161 1 -80 2 -161 2 402 
2 -80 2 241 2 -563 2 885 2 -161 2 -322 1 161 2 242 
2 -81 2 -80 2 -161 2 -161 2 966 2 -81 2 -1207 1 402 
2 644 2 -885 2 563 2 -402 2 483 2 241 2 161 1 -483 
2 0 2 81 2 -644 2 80 2 1288 2 -885 2 -161 2 80 
1 -241 2 563 2 -563 2 563 2 -161 2 483 2 -161 2 -161 
1 -1046 2 322 2 241 2 1369 2 -483 2 161 2 -1047 2 805 
2 161 1 -885 2 1449 2 -644 2 -564 2 805 2 81 2 -886 
2 322 1 -80 2 483 2 1127 2 -483 2 403 2 -725 2 -242 
2 -644 2 -241 1 724 2 725 2 -241 2 402 2 -483 2 -322 
2 241 2 -805 1 81 2 886 2 -81 2 242 2 80 2 -80 
2 -1369 2 966 2 483 1 -725 2 242 2 -1047 2 564 2 1127 
2 483 2 -1127 2 483 2 -403 1 0 2 403 2 -1208 2 483 
2 -483 2 -483 2 1047 2 80 1 -161 2 -161 2 -483 2 81 
2 -161 2 1530 2 0 2 -645 2 323 1 -81 2 -966 2 322 
2 886 2 402 2 -1127 2 644 2 0 1 161 2 322 2 242 
2 -886 2 81 2 -81 2 -161 2 -886 2 886 1 -242 2 484 
2 -645 2 -161 2 0 2 967 2 80 2 -886 1 242 2 -403 
2 806 2 -886 2 724 2 162 2 644 2 -725 2 -161 1 403 
2 -564 2 241 2 -563 2 241 2 -402 2 161 2 1369 1 -644 
2 0 2 -725 2 161 2 -725 2 725 2 564 2 -1289 2 483 
1 322 2 -483 2 564 2 -725 2 564 2 -403 2 -161 2 1208 
2 -644 1 -322 2 483 2 805 2 -402 2 644 2 -967 2 725 
2 -805 1 0 2 -81 2 -80 2 -242 2 -402 2 -322 2 -161 
2 241 2 886 1 805 2 734 3422 565 285 MP stroke
gr

18.75 w
c8
0.1 sg
%%IncludeResource: font Helvetica-Bold
/Helvetica-Bold /ISOLatin1Encoding 183.333 FMSR

2614 4842 mt 
(Time [s]) s
 559 3499 mt  -90 rotate
(Mass Flow Rate [kg/s]) s
90 rotate
gs 848 565 4238 3956 rc
25 w
0 sg
2 -6 2 -10 2 0 2 3 1 7 2 0 2 13 2 0 
2 3 2 16 2 -3 2 0 1 6 2 7 2 3 2 10 
2 9 2 7 2 0 2 6 2 -3 1 13 2 3 2 3 
2 13 2 10 2 9 2 -3 2 -9 1 -4 2 4 2 0 
2 -7 2 -10 2 -12 2 0 2 -4 2 4 1 3 2 0 
2 0 2 -3 2 -4 2 4 2 -7 2 7 1 -23 2 -6 
2 0 2 -7 2 -10 2 -3 2 7 2 9 2 10 1 0 
2 0 2 3 2 3 2 0 2 0 2 17 2 6 1 3 
2 -9 2 -13 2 0 2 -7 2 16 2 4 2 3 2 6 
1 7 2 13 2 -7 2 10 2 -7 2 -3 2 -3 2 -10 
2 -13 1 0 2 10 2 10 2 3 2 -10 2 -16 2 -6 
2 -7 1 7 2 16 2 -3 2 3 2 -10 2 0 2 -3 
2 10 2 3 1 -16 2 13 2 6 2 3 2 -6 2 -3 
2 0 2 6 1 -3 2 -10 2 -10 2 10 2 10 2 3 
2 -6 2 3 2 3 1 -6 2 9 2 -13 2 -9 2 -4 
2 10 2 -13 2 3 1 4 2 -16 2 -4 2 -6 2 16 
2 10 2 -4 2 -6 2 23 1 3 2 -3 2 -13 2 0 
2 9 2 13 2 3 2 -9 1 -10 2 -16 2 16 2 7 
2 12 2 -19 2 10 2 0 2 6 1 0 2 -6 2 -3 
2 -7 2 -13 2 10 2 3 2 -29 2 0 1 10 2 6 
2 3 2 -12 2 -13 2 -7 2 10 2 13 1 22 2 10 
2 3 2 -9 2 6 2 0 2 10 2 -7 2 13 1 -3 
2 3 2 7 2 9 2 -6 2 9 2 4 2 3 1 -3 
2 0 2 9 2 13 2 10 2 0 2 -3 2 -4 2 -16 
1 -16 2 10 2 6 2 16 2 0 2 -16 2 -3 2 3 
1 10 2 13 2 3 2 3 2 10 2 3 2 16 2 7 
2 3 1 -3 2 3 2 -3 2 0 2 6 2 7 2 0 
2 9 1 10 2 -10 2 3 2 -9 2 -3 2 3 2 6 
2 10 2 -3 1 -10 2 0 2 3 2 0 2 -13 2 -9 
2 -16 2 6 2 13 1 -13 2 3 2 7 2 3 2 0 
2 0 2 -19 2 -7 1 0 2 -9 2 3 2 13 2 -4 
2 4 2 -10 2 0 2 13 1 0 2 -7 2 -16 2 4 
2 3 2 0 2 -16 2 -7 1 10 2 3 2 -6 2 0 
2 9 2 0 2 10 2 -6 2 6 1 10 2 3 2 -23 
2 13 2 3 2 -9 2 19 2 -13 1 -13 2 4 2 6 
2 3 2 0 2 23 2 42 2 9 2 -9 1 0 2 3 
2 3 2 -13 2 7 2 0 2 6 2 -19 1 -13 2 -10 
2 29 2 0 2 -10 4497 4082 300 MP stroke
2 7 2 -10 2 0 2 16 1 7 2 13 2 16 2 13 
2 -13 2 -36 2 0 2 4 2 -13 1 -10 2 -6 2 16 
2 6 2 16 2 0 2 16 2 7 1 6 2 -19 2 -3 
2 3 2 -7 2 -9 2 19 2 10 2 -7 1 -13 2 4 
2 -23 2 13 2 26 2 6 2 -6 2 29 1 22 2 -9 
2 -7 2 7 2 -7 2 13 2 -6 2 0 2 3 1 10 
2 0 2 0 2 0 2 6 2 -3 2 -16 2 25 1 4 
2 -4 2 20 2 -7 2 -13 2 -19 2 7 2 -29 2 -7 
1 7 2 3 2 -7 2 16 2 -3 2 32 2 10 2 0 
1 -3 2 -10 2 10 2 26 2 3 2 -10 2 -3 2 -16 
2 10 1 -4 2 -6 2 -3 2 -13 2 3 2 6 2 10 
2 3 2 29 1 0 2 -6 2 -10 2 0 2 -16 2 3 
2 -6 2 10 1 6 2 10 2 0 2 16 2 9 2 13 
2 0 2 4 2 3 1 16 2 6 2 10 2 6 2 -16 
2 3 2 0 2 -22 1 -3 2 13 2 -16 2 19 2 0 
2 9 2 4 2 0 2 19 1 -26 2 -22 2 -23 2 3 
2 20 2 -16 2 9 2 -16 1 -6 2 3 2 10 2 13 
2 22 2 10 2 -13 2 -3 2 19 1 -10 2 29 2 -19 
2 10 2 -10 2 0 2 13 2 3 1 13 2 10 2 3 
2 9 2 -12 2 29 2 12 2 20 2 -3 1 -13 2 0 
2 0 2 -13 2 -16 2 13 2 9 2 -13 2 13 1 -19 
2 26 2 -23 2 16 2 3 2 -16 2 4 2 6 1 -23 
2 10 2 -6 2 -10 2 -3 2 -10 2 -3 2 -3 2 13 
1 3 2 0 2 0 2 3 2 3 2 3 2 23 2 10 
1 22 2 3 2 17 2 -7 2 16 2 -3 2 -32 2 19 
2 39 1 0 2 -16 2 19 2 6 2 7 2 10 2 9 
2 -3 1 0 2 -3 2 13 2 -4 2 10 2 3 2 0 
2 10 2 -3 1 -26 2 0 2 10 2 -4 2 16 2 33 
2 -4 2 0 1 -6 2 10 2 -16 2 -4 2 -6 2 -7 
2 13 2 13 2 23 1 3 2 23 2 45 2 -16 2 12 
2 -35 2 -13 2 0 2 -6 1 -4 2 0 2 -9 2 -10 
2 3 2 16 2 17 2 29 1 35 2 26 2 6 2 7 
2 29 2 16 2 32 2 -3 2 6 1 -22 2 -29 2 25 
2 -13 2 33 2 0 2 -13 2 22 1 33 2 6 2 26 
2 16 2 3 2 13 2 -19 2 -13 2 0 1 19 2 -10 
2 -3 2 -16 2 -19 2 -10 2 -16 2 -10 1 33 2 -10 
2 -13 2 6 2 10 2 10 2 22 2 7 2 -16 1 0 
2 6 2 -6 2 -29 3934 3363 300 MP stroke
2 -29 2 29 2 13 2 -20 1 -26 2 13 2 0 2 -6 
2 0 2 -7 2 29 2 29 2 -6 1 16 2 13 2 10 
2 -33 2 -19 2 -3 2 13 2 -3 2 -7 1 3 2 -13 
2 7 2 -10 2 -13 2 36 2 16 2 -13 1 -6 2 19 
2 32 2 19 2 -25 2 -16 2 -10 2 19 2 26 1 0 
2 6 2 29 2 23 2 26 2 -4 2 4 2 16 1 3 
2 35 2 36 2 58 2 16 2 -13 2 -6 2 29 2 29 
1 22 2 -6 2 -16 2 45 2 16 2 26 2 -17 2 -16 
1 -6 2 -16 2 -3 2 6 2 -19 2 -7 2 0 2 3 
2 -6 1 6 2 -16 2 -9 2 6 2 -13 2 16 2 16 
2 4 1 -13 2 0 2 13 2 22 2 26 2 -32 2 0 
2 38 2 10 1 36 2 3 2 16 2 32 2 42 2 29 
2 13 2 19 2 -16 1 10 2 25 2 -3 2 3 2 0 
2 -19 2 7 2 -13 1 16 2 16 2 -3 2 -7 2 36 
2 -23 2 -35 2 9 2 42 1 39 2 26 2 -26 2 0 
2 26 2 -10 2 45 2 45 1 19 2 0 2 39 2 10 
2 19 2 26 2 22 2 91 2 48 1 71 2 22 2 20 
2 0 2 32 2 48 2 68 2 3 1 39 2 13 2 41 
2 20 2 -20 2 20 2 -4 2 20 2 51 1 23 2 16 
2 -3 2 22 2 45 2 -3 2 -38 2 -62 1 -54 2 19 
2 48 2 29 2 58 2 13 2 -16 2 10 2 -55 1 -16 
2 -23 2 -51 2 22 2 23 2 -20 2 -22 2 -52 2 -51 
1 -55 2 61 2 23 2 -23 2 20 2 6 2 10 2 0 
1 -10 2 -13 2 -13 2 -6 2 10 2 16 2 12 2 71 
2 16 1 39 2 55 2 6 2 -32 2 10 2 6 2 45 
2 16 1 16 2 -45 2 -6 2 22 2 -25 2 -13 2 10 
2 28 2 -41 1 -29 2 22 2 23 2 -7 2 -19 2 -16 
2 -48 2 -4 1 -29 2 -16 2 -26 2 17 2 35 2 19 
2 0 2 -3 2 10 1 -20 2 -29 2 -9 2 -26 2 -16 
2 13 2 -39 2 19 1 -38 2 -23 2 -64 2 -42 2 13 
2 -29 2 -19 2 -10 2 45 1 19 2 62 2 16 2 -10 
2 -16 2 -16 2 9 2 0 2 20 1 -26 2 -61 2 -16 
2 -26 2 -3 2 48 2 58 2 64 1 33 2 35 2 42 
2 -45 2 22 2 33 2 -13 2 -52 2 -3 1 -48 2 22 
2 -32 2 -13 2 0 2 23 2 25 2 26 1 55 2 42 
2 77 2 103 2 23 2 -42 2 -58 2 -29 2 -19 1 -23 
2 3 2 32 2 -19 2 -45 2 0 2 39 2 6 1 23 
2 0 2 0 2 19 3371 1724 300 MP stroke
2 19 2 -22 2 16 2 13 2 3 1 19 2 0 2 -3 
2 -3 2 22 2 49 2 13 2 -17 1 -16 2 -51 2 -26 
2 -16 2 26 2 22 2 -13 2 -32 2 0 1 -35 2 -3 
2 -23 2 -6 2 19 2 -45 2 -78 2 -67 2 -32 1 -33 
2 -74 2 -3 2 -35 2 -23 2 -29 2 13 2 42 1 45 
2 26 2 0 2 6 2 7 2 -26 2 3 2 -29 2 26 
1 6 2 -16 2 7 2 -13 2 38 2 58 2 33 2 13 
1 -20 2 -6 2 13 2 45 2 -23 2 13 2 -10 2 -16 
2 -9 1 3 2 19 2 23 2 6 2 23 2 -10 2 39 
2 6 1 -26 2 16 2 -22 2 16 2 -26 2 39 2 26 
2 3 2 45 1 45 2 -16 2 -16 2 0 2 19 2 3 
2 42 2 -19 1 -10 2 0 2 -32 2 -29 2 23 2 25 
2 -41 2 -29 2 22 1 3 2 -13 2 -22 2 -19 2 -68 
2 -39 2 -25 2 16 2 0 1 -23 2 26 2 6 2 -16 
2 32 2 -3 2 55 2 -7 1 7 2 6 2 -16 2 -32 
2 -19 2 6 2 13 2 16 2 10 1 -10 2 13 2 48 
2 26 2 19 2 13 2 -64 2 -16 1 35 2 -32 2 -19 
2 -13 2 -32 2 -45 2 -39 2 16 2 10 1 29 2 32 
2 26 2 -10 2 13 2 -7 2 -16 2 16 1 33 2 -23 
2 -55 2 -38 2 -7 2 26 2 23 2 12 2 -19 1 -19 
2 -16 2 13 2 -13 2 -20 2 23 2 -19 2 -13 1 -20 
2 -9 2 -26 2 39 2 16 2 -10 2 3 2 0 2 -29 
1 26 2 39 2 58 2 38 2 -16 2 3 2 -9 2 6 
2 -3 1 32 2 -32 2 13 2 13 2 -33 2 -16 2 33 
2 -10 1 0 2 29 2 -3 2 -23 2 16 2 -3 2 -39 
2 33 2 -29 1 -16 2 -29 2 -23 2 16 2 13 2 -13 
2 -19 2 38 1 -12 2 45 2 19 2 19 2 10 2 55 
2 -26 2 26 2 22 1 -38 2 -36 2 -35 2 -4 2 4 
2 -23 2 -42 2 33 1 22 2 39 2 32 2 19 2 -32 
2 -32 2 29 2 9 2 26 1 -13 2 -35 2 -16 2 13 
2 -26 2 -45 2 -39 2 -38 1 38 2 10 2 67 2 -9 
2 -23 2 39 2 29 2 -39 2 -45 1 -22 2 -13 2 -23 
2 26 2 -3 2 -16 2 -10 2 0 2 23 1 22 2 23 
2 -23 2 0 2 36 2 25 2 20 2 -20 1 20 2 -20 
2 0 2 3 2 26 2 13 2 45 2 23 2 -7 1 -13 
2 -9 2 -16 2 45 2 9 2 -9 2 -13 2 0 1 -7 
2 4 2 6 2 -16 2 0 2 -35 2 6 2 35 2 10 
1 7 2 25 2 39 2808 1753 300 MP stroke
2 -23 2 -32 2 -9 2 41 2 7 1 -39 2 -3 2 19 
2 20 2 25 2 -22 2 -13 2 -52 2 29 1 -45 2 36 
2 16 2 10 2 45 2 -7 2 -32 2 -16 1 16 2 -32 
2 -23 2 10 2 13 2 -7 2 -29 2 4 2 25 1 20 
2 -4 2 -35 2 -32 2 38 2 29 2 26 2 -32 2 13 
1 -42 2 -29 2 -10 2 -32 2 -6 2 -13 2 -7 2 -25 
1 32 2 6 2 16 2 20 2 13 2 -13 2 -4 2 -3 
2 -32 1 -3 2 16 2 -13 2 -6 2 -10 2 0 2 35 
2 7 1 35 2 13 2 -13 2 16 2 33 2 -13 2 -16 
2 -7 2 -10 1 -12 2 -42 2 3 2 -29 2 13 2 -29 
2 -7 2 33 1 0 2 9 2 13 2 -19 2 -26 2 -10 
2 13 2 10 2 -52 1 -9 2 -7 2 42 2 -6 2 22 
2 26 2 16 2 -3 1 10 2 70 2 -22 2 0 2 -16 
2 29 2 3 2 -6 2 -4 1 -25 2 -17 2 13 2 -3 
2 -22 2 -55 2 -13 2 6 2 0 1 7 2 -55 2 -35 
2 35 2 16 2 -32 2 -32 2 3 1 -55 2 -16 2 7 
2 22 2 -6 2 -29 2 6 2 26 2 -7 1 10 2 -10 
2 -16 2 -9 2 22 2 -6 2 19 2 23 1 22 2 23 
2 19 2 -42 2 -29 2 3 2 7 2 -16 2 -7 1 16 
2 4 2 6 2 -3 2 48 2 -19 2 -3 2 -10 1 -32 
2 6 2 49 2 38 2 10 2 13 2 6 2 7 2 9 
1 -38 2 -26 2 -23 2 4 2 35 2 32 2 48 2 52 
1 26 2 0 2 -26 2 -3 2 -16 2 6 2 -6 2 35 
2 48 1 -19 2 -19 2 -20 2 -22 2 -10 2 -19 2 -3 
2 0 2 29 1 42 2 25 2 -6 2 -7 2 -29 2 -22 
2 -55 2 -29 1 -26 2 -22 2 -32 2 6 2 7 2 -65 
2 -39 2 -16 2 13 1 -9 2 6 2 23 2 51 2 13 
2 -26 2 -29 2 20 1 -23 2 0 2 29 2 -3 2 -10 
2 -29 2 19 2 17 2 6 1 -3 2 35 2 -6 2 13 
2 58 2 25 2 4 2 -7 1 -29 2 10 2 -13 2 -6 
2 6 2 3 2 -3 2 -35 2 6 1 -13 2 -10 2 -9 
2 29 2 26 2 0 2 -13 2 22 1 10 2 10 2 -4 
2 -42 2 -22 2 -19 2 -7 2 -6 2 48 1 6 2 -25 
2 -26 2 -3 2 13 2 64 2 -10 2 -9 2 6 1 -26 
2 -19 2 -16 2 3 2 13 2 23 2 -4 2 36 1 6 
2 39 2 29 2 9 2 33 2 3 2 45 2 19 2 7 
1 16 2 -23 2 16 2 4 2 -23 2 32 2 13 2 -19 
1 6 2 -9 2 -7 2245 1808 300 MP stroke
2 -16 2 -39 2 -29 2 -19 2 -42 2 20 1 -52 2 -42 
2 20 2 -26 2 13 2 -7 2 -13 2 -9 1 3 2 19 
2 0 2 13 2 19 2 10 2 16 2 13 2 3 1 23 
2 0 2 9 2 46 2 0 2 25 2 -6 2 -23 1 10 
2 23 2 -4 2 -9 2 -20 2 13 2 -22 2 -10 2 -13 
1 19 2 -22 2 -32 2 -55 2 -13 2 -48 2 26 2 -4 
2 -19 1 16 2 0 2 -26 2 20 2 -13 2 32 2 -23 
2 13 1 10 2 6 2 -6 2 3 2 10 2 16 2 16 
2 0 2 -19 1 -7 2 42 2 -9 2 6 2 39 2 -29 
2 -23 2 29 1 26 2 -32 2 -7 2 10 2 38 2 13 
2 13 2 -19 2 -23 1 -19 2 48 2 -3 2 -16 2 -22 
2 -39 2 -7 2 -35 1 -6 2 -23 2 -10 2 -13 2 17 
2 -23 2 29 2 16 2 -64 1 -26 2 10 2 -7 2 -48 
2 -7 2 23 2 16 2 29 1 19 2 -9 2 -10 2 -29 
2 19 2 55 2 13 2 -19 2 -4 1 -12 2 -4 2 -19 
2 -35 2 19 2 6 2 -6 2 74 2 45 1 -16 2 -6 
2 16 2 -39 2 -48 2 -20 2 -9 2 -68 1 -19 2 -10 
2 13 2 3 2 -55 2 -16 2 71 2 55 2 45 1 39 
2 58 2 9 2 0 2 29 2 4 2 -26 2 -7 1 39 
2 10 2 13 2 70 2 49 2 0 2 -23 2 29 2 19 
1 23 2 -55 2 -9 2 38 2 16 2 -6 2 -74 2 -7 
1 -19 2 -26 2 3 2 68 2 -80 2 -13 2 -3 2 3 
2 -71 1 -10 2 13 2 -39 2 -6 2 42 2 45 2 10 
2 -4 1 10 2 35 2 17 2 16 2 42 2 -23 2 39 
2 9 2 0 1 -6 2 -10 2 -74 2 77 2 33 2 9 
2 29 2 71 2 16 1 -22 2 -16 2 -58 2 -29 2 -36 
2 23 2 -7 2 7 1 29 2 -20 2 -32 2 -29 2 36 
2 9 2 -19 2 16 2 -26 1 -13 2 23 2 -45 2 -39 
2 -51 2 -10 2 -26 2 -19 1 -58 2 26 2 55 2 -29 
2 35 2 -3 2 -10 2 -16 2 -16 1 10 2 12 2 -6 
2 -6 2 29 2 25 2 -29 2 33 1 16 2 25 2 29 
2 23 2 42 2 9 2 -32 2 -26 2 65 1 -16 2 -26 
2 39 2 -4 2 13 2 10 2 48 2 -22 1 -36 2 20 
2 -13 2 13 2 -42 2 -52 2 36 2 16 2 0 1 6 
2 -6 2 -39 2 -10 2 -9 2 61 2 42 2 3 2 32 
1 36 2 9 2 -32 2 -29 2 3 2 -41 2 19 2 3 
1 -19 2 19 2 -55 2 -6 2 0 2 -23 2 -13 2 -38 
2 -36 1 -12 2 6 1682 1972 300 MP stroke
2 16 2 -19 2 -71 2 -7 2 20 2 -7 1 -48 2 -39 
2 -3 2 7 2 38 2 32 2 10 2 52 2 25 1 -16 
2 10 2 13 2 6 2 16 2 -9 2 32 2 61 1 13 
2 -29 2 -32 2 -29 2 42 2 -7 2 -42 2 -16 2 16 
1 39 2 35 2 -35 2 -39 2 -48 2 -48 2 -20 2 7 
1 6 2 23 2 19 2 45 2 4 2 6 2 -6 2 -58 
2 -26 1 51 2 4 2 32 2 -3 2 -20 2 36 2 12 
2 17 2 25 1 4 2 45 2 29 2 -7 2 45 2 4 
2 -39 2 0 1 16 2 -29 2 -32 2 -13 2 -39 2 -9 
2 -4 2 -3 2 10 1 32 2 0 2 29 2 13 2 -26 
2 -42 2 -29 2 -51 1 -16 2 3 2 -26 2 39 2 3 
2 6 2 -16 2 0 2 -58 1 -13 2 0 2 10 2 48 
2 4 2 6 2 26 2 -23 1 -13 2 -3 2 -6 2 35 
2 10 2 29 2 55 2 45 2 9 1 -9 2 -10 2 -19 
2 0 2 -23 2 36 2 -23 2 45 1 84 2 38 2 -9 
2 -16 2 -23 2 32 2 4 2 16 2 19 1 -29 2 13 
2 -19 2 -26 2 -13 2 -35 2 -29 2 -13 2 13 1 29 
2 16 2 -13 2 22 2 -9 2 9 2 -9 2 -39 1 -39 
2 16 2 -25 2 51 2 -22 2 -10 2 -52 2 -22 2 55 
1 -20 2 -22 2 9 2 17 2 12 2 7 2 19 2 -9 
1 -23 2 -42 2 -26 2 -22 2 19 2 39 2 19 2 -42 
2 10 1 0 2 -10 2 -35 2 -3 2 25 2 58 2 -6 
2 -23 1 -3 2 39 2 13 2 -7 2 -19 2 -16 2 13 
2 0 2 -10 1 52 2 64 2 52 2 -10 2 -19 2 9 
2 16 2 -25 1 -42 2 3 2 13 2 -26 2 -26 2 -29 
2 16 2 20 2 6 1 7 2 19 2 48 2 0 2 -26 
2 -45 2 -3 2 26 2 -23 1 -22 2 -23 2 -38 2 9 
2 -9 2 12 2 17 2 3 1 26 2 12 2 10 2 -19 
2 -13 2 0 2 -3 2 -23 2 -26 1 -22 2 -42 2 -6 
2 38 2 29 2 10 2 -10 2 -10 1 -12 2 -13 2 22 
2 3 2 -19 2 -9 2 -4 2 4 2 -46 1 -58 2 -16 
2 33 2 54 2 -29 2 -32 2 39 2 19 1 0 2 -32 
2 -19 2 29 2 29 2 19 2 3 2 -10 2 -16 1 -13 
2 -6 2 -6 2 35 2 6 2 -32 2 -16 2 39 1 29 
2 32 2 13 2 -16 2 61 2 61 2 0 2 23 2 -29 
1 9 2 49 2 -20 2 -54 2 -26 2 -20 2 23 2 29 
2 3 1 -16 2 -32 2 -3 2 13 2 32 2 6 2 7 
2 42 1 0 2 3 1119 1756 300 MP stroke
2 -52 2 -32 2 -16 2 3 2 -48 2 3 2 -10 1 4 
2 -10 2 3 2 -32 2 0 2 13 2 32 2 32 1 -3 
2 26 2 -36 2 7 2 3 2 77 2 0 2 -16 2 7 
1 -16 2 61 2 22 2 -6 2 -65 2 -9 2 51 2 26 
1 -26 2 -6 2 13 2 0 2 -10 2 -45 2 -39 2 -38 
2 -4 1 -12 2 0 2 -26 2 -19 2 -42 2 -4 2 -12 
2 0 1 -29 2 -17 2 -25 2 -29 2 9 2 36 2 -26 
2 3 2 10 1 13 2 -7 2 45 2 7 2 42 2 35 
2 26 2 42 2 -10 1 19 2 -12 2 29 2 16 2 6 
2 13 2 -16 2 29 1 13 2 -16 2 0 2 6 2 -10 
2 29 2 20 2 3 2 -32 1 -29 2 -26 2 -6 2 -7 
2 -38 2 -13 2 6 2 10 1 -39 2 16 2 -29 2 -6 
2 3 2 -6 2 25 2 0 2 -9 1 -7 2 0 2 19 
2 4 2 -20 2 -13 2 -22 2 6 1 33 2 19 2 10 
2 -7 2 10 2 0 2 -10 2 19 2 10 1 -3 2 13 
2 -26 2 10 2 16 2 22 2 42 2 23 1 67 2 20 
2 45 2 -90 2 -116 2 -116 2 32 2 -15 2 11 1 -24 
2 -36 2 14 2 21 2 -78 2 -365 2 -623 2 -1213 1 -269 
848 4520 145 MP stroke
DA
18.75 w
/c9 { 1.000000 0.000000 0.000000 sr} bdef
c9
2 0 2 0 2 0 2 0 2 0 2 0 2 0 2 0 
1 0 2 0 2 0 2 0 2 0 2 0 2 0 2 0 
2 0 1 0 2 0 2 0 2 0 2 0 2 0 2 0 
2 0 1 0 2 0 2 0 2 0 2 0 2 0 2 0 
2 0 2 0 1 0 2 0 2 0 2 0 2 0 2 0 
2 0 2 0 1 0 2 0 2 0 2 0 2 0 2 0 
2 0 2 0 2 0 1 0 2 0 2 0 2 0 2 0 
2 0 2 0 2 0 1 0 2 0 2 0 2 0 2 0 
2 0 2 0 2 0 2 0 1 0 2 0 2 0 2 0 
2 0 2 0 2 0 2 0 1 0 2 0 2 0 2 0 
2 0 2 0 2 0 2 0 2 0 1 0 2 0 2 0 
2 0 2 0 2 0 2 0 2 0 2 0 1 0 2 0 
2 0 2 0 2 0 2 0 2 0 2 0 1 0 2 0 
2 0 2 0 2 0 2 0 2 0 2 0 2 0 1 0 
2 0 2 0 2 0 2 0 2 0 2 0 2 0 1 0 
2 0 2 0 2 0 2 0 2 0 2 0 2 0 2 0 
1 0 2 0 2 0 2 0 2 0 2 0 2 0 2 0 
1 0 2 0 2 0 2 0 2 0 2 0 2 0 2 0 
2 0 1 0 2 0 2 0 2 0 2 0 2 0 2 0 
2 0 1 0 2 0 2 0 2 0 2 0 2 0 2 0 
2 0 2 0 1 0 2 0 2 0 2 0 2 0 2 0 
2 0 2 0 2 0 1 0 2 0 2 0 2 0 2 0 
2 0 2 0 2 0 1 0 2 0 2 0 2 0 2 0 
2 0 2 0 2 0 2 0 1 0 2 0 2 0 2 0 
2 0 2 0 2 0 2 0 1 0 2 0 2 0 2 0 
2 0 2 0 2 0 2 0 2 0 1 0 2 0 2 0 
2 0 2 0 2 0 2 0 2 0 1 0 2 0 2 0 
2 0 2 0 2 0 2 0 2 0 2 0 1 0 2 0 
2 0 2 0 2 0 2 0 2 0 2 0 1 0 2 0 
2 0 2 0 2 0 2 0 2 0 2 0 2 0 1 0 
2 0 2 0 2 0 2 0 2 0 2 0 2 0 2 0 
1 0 2 0 2 0 2 0 2 0 2 0 2 0 2 0 
1 0 2 0 2 0 2 0 2 0 2 0 2 0 2 0 
2 0 1 0 2 0 2 0 2 0 2 0 2 0 2 0 
2 0 1 0 2 0 2 0 2 0 2 0 2 0 2 0 
2 0 2 0 1 0 2 0 2 0 2 0 2 0 2 0 
2 0 2 0 1 0 2 0 2 0 2 0 2 0 2 0 
2 0 2 0 2 0 4521 1858 300 MP stroke
1 0 2 0 2 0 2 0 2 0 2 0 2 0 2 0 
1 0 2 0 2 0 2 0 2 0 2 0 2 0 2 0 
2 0 1 0 2 0 2 0 2 0 2 0 2 0 2 0 
2 0 2 0 1 0 2 0 2 0 2 0 2 0 2 0 
2 0 2 0 1 0 2 0 2 0 2 0 2 0 2 0 
2 0 2 0 2 0 1 0 2 0 2 0 2 0 2 0 
2 0 2 0 2 0 1 0 2 0 2 0 2 0 2 0 
2 0 2 0 2 0 2 0 1 0 2 0 2 0 2 0 
2 0 2 0 2 0 2 0 1 0 2 0 2 0 2 0 
2 0 2 0 2 0 2 0 2 0 1 0 2 0 2 0 
2 0 2 0 2 0 2 0 2 0 1 0 2 0 2 0 
2 0 2 0 2 0 2 0 2 0 2 0 1 0 2 0 
2 0 2 0 2 0 2 0 2 0 2 0 2 0 1 0 
2 0 2 0 2 0 2 0 2 0 2 0 2 0 1 0 
2 0 2 0 2 0 2 0 2 0 2 0 2 0 2 0 
1 0 2 0 2 0 2 0 2 0 2 0 2 0 2 0 
1 0 2 0 2 0 2 0 2 0 2 0 2 0 2 0 
2 0 1 0 2 0 2 0 2 0 2 0 2 0 2 0 
2 0 1 0 2 0 2 0 2 0 2 0 2 0 2 0 
2 0 2 0 1 0 2 0 2 0 2 0 2 0 2 0 
2 0 2 0 1 0 2 0 2 0 2 0 2 0 2 0 
2 0 2 0 2 0 1 0 2 0 2 0 2 0 2 0 
2 0 2 0 2 0 2 0 1 0 2 0 2 0 2 0 
2 0 2 0 2 0 2 0 1 0 2 0 2 0 2 0 
2 0 2 0 2 0 2 0 2 0 1 0 2 0 2 0 
2 0 2 0 2 0 2 0 2 0 1 0 2 0 2 0 
2 0 2 0 2 0 2 0 2 0 2 0 1 0 2 0 
2 0 2 0 2 0 2 0 2 0 2 0 1 0 2 0 
2 0 2 0 2 0 2 0 2 0 2 0 2 0 1 0 
2 0 2 0 2 0 2 0 2 0 2 0 2 0 1 0 
2 0 2 0 2 0 2 0 2 0 2 0 2 0 2 0 
1 0 2 0 2 0 2 0 2 0 2 0 2 0 2 0 
2 0 1 0 2 0 2 0 2 0 2 0 2 0 2 0 
2 0 1 0 2 0 2 0 2 0 2 0 2 0 2 0 
2 0 2 0 1 0 2 0 2 0 2 0 2 0 2 0 
2 0 2 0 1 0 2 0 2 0 2 0 2 0 2 0 
2 0 2 0 2 0 1 0 2 0 2 0 2 0 2 0 
2 0 2 0 2 0 3958 1858 300 MP stroke
1 0 2 0 2 0 2 0 2 0 2 0 2 0 2 0 
2 0 1 0 2 0 2 0 2 0 2 0 2 0 2 0 
2 0 1 0 2 0 2 0 2 0 2 0 2 0 2 0 
2 0 2 0 1 0 2 0 2 0 2 0 2 0 2 0 
2 0 2 0 2 0 1 0 2 0 2 0 2 0 2 0 
2 0 2 0 2 0 1 0 2 0 2 0 2 0 2 0 
2 0 2 0 2 0 2 0 1 0 2 0 2 0 2 0 
2 0 2 0 2 0 2 0 1 0 2 0 2 0 2 0 
2 0 2 0 2 0 2 0 2 0 1 0 2 0 2 0 
2 0 2 0 2 0 2 0 2 0 1 0 2 0 2 0 
2 0 2 0 2 0 2 0 2 0 2 0 1 0 2 0 
2 0 2 0 2 0 2 0 2 0 2 0 1 0 2 0 
2 0 2 0 2 0 2 0 2 0 2 0 2 0 1 0 
2 0 2 0 2 0 2 0 2 0 2 0 2 0 2 0 
1 0 2 0 2 0 2 0 2 0 2 0 2 0 2 0 
1 0 2 0 2 0 2 0 2 0 2 0 2 0 2 0 
2 0 1 0 2 0 2 0 2 0 2 0 2 0 2 0 
2 0 1 0 2 0 2 0 2 0 2 0 2 0 2 0 
2 0 2 0 1 0 2 0 2 0 2 0 2 0 2 0 
2 0 2 0 1 0 2 0 2 0 2 0 2 0 2 0 
2 0 2 0 2 0 1 0 2 0 2 0 2 0 2 0 
2 0 2 0 2 0 1 0 2 0 2 0 2 0 2 0 
2 0 2 0 2 0 2 0 1 0 2 0 2 0 2 0 
2 0 2 0 2 0 2 0 2 0 1 0 2 0 2 0 
2 0 2 0 2 0 2 0 2 0 1 0 2 0 2 0 
2 0 2 0 2 0 2 0 2 0 2 0 1 0 2 0 
2 0 2 0 2 0 2 0 2 0 2 0 1 0 2 0 
2 0 2 0 2 0 2 0 2 0 2 0 2 0 1 0 
2 0 2 0 2 0 2 0 2 0 2 0 2 0 1 0 
2 0 2 0 2 0 2 0 2 0 2 0 2 0 2 0 
1 0 2 0 2 0 2 0 2 0 2 0 2 0 2 0 
1 0 2 0 2 0 2 0 2 0 2 0 2 0 2 0 
2 0 1 0 2 0 2 0 2 0 2 0 2 0 2 0 
2 0 2 0 1 0 2 0 2 0 2 0 2 0 2 0 
2 0 2 0 1 0 2 0 2 0 2 0 2 0 2 0 
2 0 2 0 2 0 1 0 2 0 2 0 2 0 2 0 
2 0 2 0 2 0 1 0 2 0 2 0 2 0 2 0 
2 0 2 0 2 0 3395 1858 300 MP stroke
2 0 1 0 2 0 2 0 2 0 2 0 2 0 2 0 
2 0 1 0 2 0 2 0 2 0 2 0 2 0 2 0 
2 0 2 0 1 0 2 0 2 0 2 0 2 0 2 0 
2 0 2 0 1 0 2 0 2 0 2 0 2 0 2 0 
2 0 2 0 2 0 1 0 2 0 2 0 2 0 2 0 
2 0 2 0 2 0 2 0 1 0 2 0 2 0 2 0 
2 0 2 0 2 0 2 0 1 0 2 0 2 0 2 0 
2 0 2 0 2 0 2 0 2 0 1 0 2 0 2 0 
2 0 2 0 2 0 2 0 2 0 1 0 2 0 2 0 
2 0 2 0 2 0 2 0 2 0 2 0 1 0 2 0 
2 0 2 0 2 0 2 0 2 0 2 0 1 0 2 0 
2 0 2 0 2 0 2 0 2 0 2 0 2 0 1 0 
2 0 2 0 2 0 2 0 2 0 2 0 2 0 1 0 
2 0 2 0 2 0 2 0 2 0 2 0 2 0 2 0 
1 0 2 0 2 0 2 0 2 0 2 0 2 0 2 0 
2 0 1 0 2 0 2 0 2 0 2 0 2 0 2 0 
2 0 1 0 2 0 2 0 2 0 2 0 2 0 2 0 
2 0 2 0 1 0 2 0 2 0 2 0 2 0 2 0 
2 0 2 0 1 0 2 0 2 0 2 0 2 0 2 0 
2 0 2 0 2 0 1 0 2 0 2 0 2 0 2 0 
2 0 2 0 2 0 1 0 2 0 2 0 2 0 2 0 
2 0 2 0 2 0 2 0 1 0 2 0 2 0 2 0 
2 0 2 0 2 0 2 0 1 0 2 0 2 0 2 0 
2 0 2 0 2 0 2 0 2 0 1 0 2 0 2 0 
2 0 2 0 2 0 2 0 2 0 2 0 1 0 2 0 
2 0 2 0 2 0 2 0 2 0 2 0 1 0 2 0 
2 0 2 0 2 0 2 0 2 0 2 0 2 0 1 0 
2 0 2 0 2 0 2 0 2 0 2 0 2 0 1 0 
2 0 2 0 2 0 2 0 2 0 2 0 2 0 2 0 
1 0 2 0 2 0 2 0 2 0 2 0 2 0 2 0 
1 0 2 0 2 0 2 0 2 0 2 0 2 0 2 0 
2 0 1 0 2 0 2 0 2 0 2 0 2 0 2 0 
2 0 1 0 2 0 2 0 2 0 2 0 2 0 2 0 
2 0 2 0 1 0 2 0 2 0 2 0 2 0 2 0 
2 0 2 0 2 0 1 0 2 0 2 0 2 0 2 0 
2 0 2 0 2 0 1 0 2 0 2 0 2 0 2 0 
2 0 2 0 2 0 2 0 1 0 2 0 2 0 2 0 
2 0 2 0 2 0 2832 1858 300 MP stroke
2 0 1 0 2 0 2 0 2 0 2 0 2 0 2 0 
2 0 2 0 1 0 2 0 2 0 2 0 2 0 2 0 
2 0 2 0 1 0 2 0 2 0 2 0 2 0 2 0 
2 0 2 0 2 0 1 0 2 0 2 0 2 0 2 0 
2 0 2 0 2 0 1 0 2 0 2 0 2 0 2 0 
2 0 2 0 2 0 2 0 1 0 2 0 2 0 2 0 
2 0 2 0 2 0 2 0 2 0 1 0 2 0 2 0 
2 0 2 0 2 0 2 0 2 0 1 0 2 0 2 0 
2 0 2 0 2 0 2 0 2 0 2 0 1 0 2 0 
2 0 2 0 2 0 2 0 2 0 2 0 1 0 2 0 
2 0 2 0 2 0 2 0 2 0 2 0 2 0 1 0 
2 0 2 0 2 0 2 0 2 0 2 0 2 0 1 0 
2 0 2 0 2 0 2 0 2 0 2 0 2 0 2 0 
1 0 2 0 2 0 2 0 2 0 2 0 2 0 2 0 
1 0 2 0 2 0 2 0 2 0 2 0 2 0 2 0 
2 0 1 0 2 0 2 0 2 0 2 0 2 0 2 0 
2 0 2 0 1 0 2 0 2 0 2 0 2 0 2 0 
2 0 2 0 1 0 2 0 2 0 2 0 2 0 2 0 
2 0 2 0 2 0 1 0 2 0 2 0 2 0 2 0 
2 0 2 0 2 0 1 0 2 0 2 0 2 0 2 0 
2 0 2 0 2 0 2 0 1 0 2 0 2 0 2 0 
2 0 2 0 2 0 2 0 1 0 2 0 2 0 2 0 
2 0 2 0 2 0 2 0 2 0 1 0 2 0 2 0 
2 0 2 0 2 0 2 0 2 0 1 0 2 0 2 0 
2 0 2 0 2 0 2 0 2 0 2 0 1 0 2 0 
2 0 2 0 2 0 2 0 2 0 2 0 2 0 1 0 
2 0 2 0 2 0 2 0 2 0 2 0 2 0 1 0 
2 0 2 0 2 0 2 0 2 0 2 0 2 0 2 0 
1 0 2 0 2 0 2 0 2 0 2 0 2 0 2 0 
1 0 2 0 2 0 2 0 2 0 2 0 2 0 2 0 
2 0 1 0 2 0 2 0 2 0 2 0 2 0 2 0 
2 0 1 0 2 0 2 0 2 0 2 0 2 0 2 0 
2 0 2 0 1 0 2 0 2 0 2 0 2 0 2 0 
2 0 2 0 1 0 2 0 2 0 2 0 2 0 2 0 
2 0 2 0 2 0 1 0 2 0 2 0 2 0 2 0 
2 0 2 0 2 0 2 0 1 0 2 0 2 0 2 0 
2 0 2 0 2 0 2 0 1 0 2 0 2 0 2 0 
2 0 2 0 2 0 2269 1858 300 MP stroke
2 0 2 0 1 0 2 0 2 0 2 0 2 0 2 0 
2 0 2 0 1 0 2 0 2 0 2 0 2 0 2 0 
2 0 2 0 2 0 1 0 2 0 2 0 2 0 2 0 
2 0 2 0 2 0 1 0 2 0 2 0 2 0 2 0 
2 0 2 0 2 0 2 0 1 0 2 0 2 0 2 0 
2 0 2 0 2 0 2 0 1 0 2 0 2 0 2 0 
2 0 2 0 2 0 2 0 2 0 1 0 2 0 2 0 
2 0 2 0 2 0 2 0 2 0 2 0 1 0 2 0 
2 0 2 0 2 0 2 0 2 0 2 0 1 0 2 0 
2 0 2 0 2 0 2 0 2 0 2 0 2 0 1 0 
2 0 2 0 2 0 2 0 2 0 2 0 2 0 1 0 
2 0 2 0 2 0 2 0 2 0 2 0 2 0 2 0 
1 0 2 0 2 0 2 0 2 0 2 0 2 0 2 0 
1 0 2 0 2 0 2 0 2 0 2 0 2 0 2 0 
2 0 1 0 2 0 2 0 2 0 2 0 2 0 2 0 
2 0 1 0 2 0 2 0 2 0 2 0 2 0 2 0 
2 0 2 0 1 0 2 0 2 0 2 0 2 0 2 0 
2 0 2 0 2 0 1 0 2 0 2 0 2 0 2 0 
2 0 2 0 2 0 1 0 2 0 2 0 2 0 2 0 
2 0 2 0 2 0 2 0 1 0 2 0 2 0 2 0 
2 0 2 0 2 0 2 0 1 0 2 0 2 0 2 0 
2 0 2 0 2 0 2 0 2 0 1 0 2 0 2 0 
2 0 2 0 2 0 2 0 2 0 1 0 2 0 2 0 
2 0 2 0 2 0 2 0 2 0 2 0 1 0 2 0 
2 0 2 0 2 0 2 0 2 0 2 0 1 0 2 0 
2 0 2 0 2 0 2 0 2 0 2 0 2 0 1 0 
2 0 2 0 2 0 2 0 2 0 2 0 2 0 2 0 
1 0 2 0 2 0 2 0 2 0 2 0 2 0 2 0 
1 0 2 0 2 0 2 0 2 0 2 0 2 0 2 0 
2 0 1 0 2 0 2 0 2 0 2 0 2 0 2 0 
2 0 1 0 2 0 2 0 2 0 2 0 2 0 2 0 
2 0 2 0 1 0 2 0 2 0 2 0 2 0 2 0 
2 0 2 0 1 0 2 0 2 0 2 0 2 0 2 0 
2 0 2 0 2 0 1 0 2 0 2 0 2 0 2 0 
2 0 2 0 2 0 1 0 2 0 2 0 2 0 2 0 
2 0 2 0 2 0 2 0 1 0 2 0 2 0 2 0 
2 0 2 0 2 0 2 0 2 0 1 0 2 0 2 0 
2 0 2 0 2 0 1706 1858 300 MP stroke
2 0 2 0 1 0 2 0 2 0 2 0 2 0 2 0 
2 0 2 0 2 0 1 0 2 0 2 0 2 0 2 0 
2 0 2 0 2 0 1 0 2 0 2 0 2 0 2 0 
2 0 2 0 2 0 2 0 1 0 2 0 2 0 2 0 
2 0 2 0 2 0 2 0 1 0 2 0 2 0 2 0 
2 0 2 0 2 0 2 0 2 0 1 0 2 0 2 0 
2 0 2 0 2 0 2 0 2 0 1 0 2 0 2 0 
2 0 2 0 2 0 2 0 2 0 2 0 1 0 2 0 
2 0 2 0 2 0 2 0 2 0 2 0 2 0 1 0 
2 0 2 0 2 0 2 0 2 0 2 0 2 0 1 0 
2 0 2 0 2 0 2 0 2 0 2 0 2 0 2 0 
1 0 2 0 2 0 2 0 2 0 2 0 2 0 2 0 
1 0 2 0 2 0 2 0 2 0 2 0 2 0 2 0 
2 0 1 0 2 0 2 0 2 0 2 0 2 0 2 0 
2 0 1 0 2 0 2 0 2 0 2 0 2 0 2 0 
2 0 2 0 1 0 2 0 2 0 2 0 2 0 2 0 
2 0 2 0 1 0 2 0 2 0 2 0 2 0 2 0 
2 0 2 0 2 0 1 0 2 0 2 0 2 0 2 0 
2 0 2 0 2 0 2 0 1 0 2 0 2 0 2 0 
2 0 2 0 2 0 2 0 1 0 2 0 2 0 2 0 
2 0 2 0 2 0 2 0 2 0 1 0 2 0 2 0 
2 0 2 0 2 0 2 0 2 0 1 0 2 0 2 0 
2 0 2 0 2 0 2 0 2 0 2 0 1 0 2 0 
2 0 2 0 2 0 2 0 2 0 2 0 1 0 2 0 
2 0 2 0 2 0 2 0 2 0 2 0 2 0 1 0 
2 0 2 0 2 0 2 0 2 0 2 0 2 0 1 0 
2 0 2 0 2 0 2 0 2 0 2 0 2 0 2 0 
1 0 2 0 2 0 2 0 2 0 2 0 2 0 2 0 
2 0 1 0 2 0 2 0 2 0 2 0 2 0 2 0 
2 0 1 0 2 0 2 0 2 0 2 0 2 0 2 0 
2 0 2 0 1 0 2 0 2 0 2 0 2 0 2 0 
2 0 2 0 1 0 2 0 2 0 2 0 2 0 2 0 
2 0 2 0 2 0 1 0 2 0 2 0 2 0 2 0 
2 0 2 0 2 0 1 0 2 0 2 0 2 0 2 0 
2 0 2 0 2 0 2 0 1 0 2 0 2 0 2 0 
2 0 2 0 2 0 2 0 1 0 2 0 2 0 2 0 
2 0 2 0 2 0 2 0 2 0 1 0 2 0 2 0 
2 0 2 0 2 0 1143 1858 300 MP stroke
2 0 2 0 2 0 1 0 2 0 2 0 2 0 2 0 
2 0 2 0 2 0 1 0 2 0 2 0 2 0 2 0 
2 0 2 0 2 0 2 0 1 0 2 0 2 0 2 0 
2 0 2 0 2 0 2 0 1 0 2 0 2 0 2 0 
2 0 2 0 2 0 2 0 2 0 1 0 2 0 2 0 
2 0 2 0 2 0 2 0 2 0 1 0 2 0 2 0 
2 0 2 0 2 0 2 0 2 0 2 0 1 0 2 0 
2 0 2 0 2 0 2 0 2 0 2 0 1 0 2 0 
2 0 2 0 2 0 2 0 2 0 2 0 2 0 1 0 
2 0 2 0 2 0 2 0 2 0 2 0 2 0 2 0 
1 0 2 0 2 0 2 0 2 0 2 0 2 0 2 0 
1 0 2 0 2 0 2 0 2 0 2 0 2 0 2 0 
2 0 1 0 2 0 2 0 2 0 2 0 2 0 2 0 
2 0 1 0 2 0 2 0 2 0 2 0 2 0 2 0 
2 0 2 0 1 0 2 0 2 0 2 0 2 0 2 0 
2 0 2 0 1 0 2 0 2 0 2 0 2 0 2 0 
2 0 2 0 2 0 1 0 2 0 2 0 2 0 2 0 
2 0 2 0 2 0 1 0 2 0 2 0 2 0 2 0 
2 0 2 0 2 0 2 0 1 0 2 0 2 0 2 0 
2 0 2 0 2 0 2 0 1 0 848 1858 158 MP stroke
gr

c9
DA
0 sg
%%IncludeResource: font Helvetica
/Helvetica /ISOLatin1Encoding 166.667 FMSR

 818 4587 mt 
( ) s
5056  631 mt 
( ) s
SO
12.5 w
%%IncludeResource: font Symbol
/Symbol /ISOLatin1Encoding 125 FMSR

1236 3854 mt 
(D) s
1312 3854 mt 
(g) s
%%IncludeResource: font Helvetica-Bold
/Helvetica-Bold /ISOLatin1Encoding 125 FMSR

1363 3854 mt 
( = 0 J/m) s
%%IncludeResource: font Helvetica-Bold
/Helvetica-Bold /ISOLatin1Encoding 100 FMSR

1825 3792 mt 
(2) s
%%IncludeResource: font Helvetica-Bold
/Helvetica-Bold /ISOLatin1Encoding 125 FMSR

1880 3854 mt 
( - Instant) s
gs 911 3677 2349 699 rc
18.75 w
c8
250 0 961 3806 2 MP stroke
gr

18.75 w
c8
0 sg
%%IncludeResource: font Symbol
/Symbol /ISOLatin1Encoding 125 FMSR

1236 4084 mt 
(D) s
1312 4084 mt 
(g) s
%%IncludeResource: font Helvetica-Bold
/Helvetica-Bold /ISOLatin1Encoding 125 FMSR

1363 4084 mt 
( = 0 J/m) s
%%IncludeResource: font Helvetica-Bold
/Helvetica-Bold /ISOLatin1Encoding 100 FMSR

1825 4022 mt 
(2) s
%%IncludeResource: font Helvetica-Bold
/Helvetica-Bold /ISOLatin1Encoding 125 FMSR

1880 4084 mt 
( - 0.25s Temporal Avg) s
gs 911 3677 2349 699 rc
25 w
250 0 961 4036 2 MP stroke
gr

25 w
1236 4303 mt 
(Beverloo Equation) s
gs 911 3677 2349 699 rc
DA
18.75 w
c9
250 0 961 4256 2 MP stroke
SO
12.5 w
gr

12.5 w
c9

end %%Color Dict

eplot
%%EndObject

epage
end

showpage

%%Trailer
%%EOF
