%!PS-Adobe-3.0 EPSF-3.0
%%Creator: MATLAB, The MathWorks, Inc. Version 7.12.0.635 (R2011a). Operating System: Linux 2.6.32-358.6.2.el6.x86_64 #1 SMP Thu May 16 11:21:38 CDT 2013 x86_64.
%%Title: ./Cumulative_Discharge.eps
%%CreationDate: 08/15/2013  12:21:49
%%DocumentNeededFonts: Helvetica-Bold
%%+ Helvetica
%%DocumentProcessColors: Cyan Magenta Yellow Black
%%LanguageLevel: 2
%%Pages: 1
%%BoundingBox:    29    69   604   605
%%EndComments

%%BeginProlog
% MathWorks dictionary
/MathWorks 160 dict begin
% definition operators
/bdef {bind def} bind def
/ldef {load def} bind def
/xdef {exch def} bdef
/xstore {exch store} bdef
% operator abbreviations
/c  /clip ldef
/cc /concat ldef
/cp /closepath ldef
/gr /grestore ldef
/gs /gsave ldef
/mt /moveto ldef
/np /newpath ldef
/cm /currentmatrix ldef
/sm /setmatrix ldef
/rm /rmoveto ldef
/rl /rlineto ldef
/s {show newpath} bdef
/sc {setcmykcolor} bdef
/sr /setrgbcolor ldef
/sg /setgray ldef
/w /setlinewidth ldef
/j /setlinejoin ldef
/cap /setlinecap ldef
/rc {rectclip} bdef
/rf {rectfill} bdef
% page state control
/pgsv () def
/bpage {/pgsv save def} bdef
/epage {pgsv restore} bdef
/bplot /gsave ldef
/eplot {stroke grestore} bdef
% orientation switch
/portraitMode 0 def /landscapeMode 1 def /rotateMode 2 def
% coordinate system mappings
/dpi2point 0 def
% font control
/FontSize 0 def
/FMS {/FontSize xstore findfont [FontSize 0 0 FontSize neg 0 0]
  makefont setfont} bdef
/reencode {exch dup where {pop load} {pop StandardEncoding} ifelse
  exch dup 3 1 roll findfont dup length dict begin
  { 1 index /FID ne {def}{pop pop} ifelse } forall
  /Encoding exch def currentdict end definefont pop} bdef
/isroman {findfont /CharStrings get /Agrave known} bdef
/FMSR {3 1 roll 1 index dup isroman {reencode} {pop pop} ifelse
  exch FMS} bdef
/csm {1 dpi2point div -1 dpi2point div scale neg translate
 dup landscapeMode eq {pop -90 rotate}
  {rotateMode eq {90 rotate} if} ifelse} bdef
% line types: solid, dotted, dashed, dotdash
/SO { [] 0 setdash } bdef
/DO { [.5 dpi2point mul 4 dpi2point mul] 0 setdash } bdef
/DA { [6 dpi2point mul] 0 setdash } bdef
/DD { [.5 dpi2point mul 4 dpi2point mul 6 dpi2point mul 4
  dpi2point mul] 0 setdash } bdef
% macros for lines and objects
/L {lineto stroke} bdef
/MP {3 1 roll moveto 1 sub {rlineto} repeat} bdef
/AP {{rlineto} repeat} bdef
/PDlw -1 def
/W {/PDlw currentlinewidth def setlinewidth} def
/PP {closepath eofill} bdef
/DP {closepath stroke} bdef
/MR {4 -2 roll moveto dup  0 exch rlineto exch 0 rlineto
  neg 0 exch rlineto closepath} bdef
/FR {MR stroke} bdef
/PR {MR fill} bdef
/L1i {{currentfile picstr readhexstring pop} image} bdef
/tMatrix matrix def
/MakeOval {newpath tMatrix currentmatrix pop translate scale
0 0 1 0 360 arc tMatrix setmatrix} bdef
/FO {MakeOval stroke} bdef
/PO {MakeOval fill} bdef
/PD {currentlinewidth 2 div 0 360 arc fill
   PDlw -1 eq not {PDlw w /PDlw -1 def} if} def
/FA {newpath tMatrix currentmatrix pop translate scale
  0 0 1 5 -2 roll arc tMatrix setmatrix stroke} bdef
/PA {newpath tMatrix currentmatrix pop	translate 0 0 moveto scale
  0 0 1 5 -2 roll arc closepath tMatrix setmatrix fill} bdef
/FAn {newpath tMatrix currentmatrix pop translate scale
  0 0 1 5 -2 roll arcn tMatrix setmatrix stroke} bdef
/PAn {newpath tMatrix currentmatrix pop translate 0 0 moveto scale
  0 0 1 5 -2 roll arcn closepath tMatrix setmatrix fill} bdef
/vradius 0 def /hradius 0 def /lry 0 def
/lrx 0 def /uly 0 def /ulx 0 def /rad 0 def
/MRR {/vradius xdef /hradius xdef /lry xdef /lrx xdef /uly xdef
  /ulx xdef newpath tMatrix currentmatrix pop ulx hradius add uly
  vradius add translate hradius vradius scale 0 0 1 180 270 arc 
  tMatrix setmatrix lrx hradius sub uly vradius add translate
  hradius vradius scale 0 0 1 270 360 arc tMatrix setmatrix
  lrx hradius sub lry vradius sub translate hradius vradius scale
  0 0 1 0 90 arc tMatrix setmatrix ulx hradius add lry vradius sub
  translate hradius vradius scale 0 0 1 90 180 arc tMatrix setmatrix
  closepath} bdef
/FRR {MRR stroke } bdef
/PRR {MRR fill } bdef
/MlrRR {/lry xdef /lrx xdef /uly xdef /ulx xdef /rad lry uly sub 2 div def
  newpath tMatrix currentmatrix pop ulx rad add uly rad add translate
  rad rad scale 0 0 1 90 270 arc tMatrix setmatrix lrx rad sub lry rad
  sub translate rad rad scale 0 0 1 270 90 arc tMatrix setmatrix
  closepath} bdef
/FlrRR {MlrRR stroke } bdef
/PlrRR {MlrRR fill } bdef
/MtbRR {/lry xdef /lrx xdef /uly xdef /ulx xdef /rad lrx ulx sub 2 div def
  newpath tMatrix currentmatrix pop ulx rad add uly rad add translate
  rad rad scale 0 0 1 180 360 arc tMatrix setmatrix lrx rad sub lry rad
  sub translate rad rad scale 0 0 1 0 180 arc tMatrix setmatrix
  closepath} bdef
/FtbRR {MtbRR stroke } bdef
/PtbRR {MtbRR fill } bdef
/stri 6 array def /dtri 6 array def
/smat 6 array def /dmat 6 array def
/tmat1 6 array def /tmat2 6 array def /dif 3 array def
/asub {/ind2 exch def /ind1 exch def dup dup
  ind1 get exch ind2 get sub exch } bdef
/tri_to_matrix {
  2 0 asub 3 1 asub 4 0 asub 5 1 asub
  dup 0 get exch 1 get 7 -1 roll astore } bdef
/compute_transform {
  dmat dtri tri_to_matrix tmat1 invertmatrix 
  smat stri tri_to_matrix tmat2 concatmatrix } bdef
/ds {stri astore pop} bdef
/dt {dtri astore pop} bdef
/db {2 copy /cols xdef /rows xdef mul dup 3 mul string
  currentfile 
  3 index 0 eq {/ASCIIHexDecode filter}
  {/ASCII85Decode filter 3 index 2 eq {/RunLengthDecode filter} if }
  ifelse exch readstring pop
  dup 0 3 index getinterval /rbmap xdef
  dup 2 index dup getinterval /gbmap xdef
  1 index dup 2 mul exch getinterval /bbmap xdef pop pop}bdef
/it {gs np dtri aload pop moveto lineto lineto cp c
  cols rows 8 compute_transform 
  rbmap gbmap bbmap true 3 colorimage gr}bdef
/il {newpath moveto lineto stroke}bdef
currentdict end def
%%EndProlog

%%BeginSetup
MathWorks begin

0 cap

end
%%EndSetup

%%Page: 1 1
%%BeginPageSetup
%%PageBoundingBox:    29    69   604   605
MathWorks begin
bpage
%%EndPageSetup

%%BeginObject: obj1
bplot

/dpi2point 8.33333 def
portraitMode -0158 5475 csm

  403   426  4792  4474 rc
84 dict begin %Colortable dictionary
/c0 { 0.000000 0.000000 0.000000 sr} bdef
/c1 { 1.000000 1.000000 1.000000 sr} bdef
/c2 { 0.900000 0.000000 0.000000 sr} bdef
/c3 { 0.000000 0.820000 0.000000 sr} bdef
/c4 { 0.000000 0.000000 0.800000 sr} bdef
/c5 { 0.910000 0.820000 0.320000 sr} bdef
/c6 { 1.000000 0.260000 0.820000 sr} bdef
/c7 { 0.000000 0.820000 0.820000 sr} bdef
c0
1 j
1 sg
   0    0 5651 5651 rf
12.5 w
0 3955 4237 0 0 -3955 848 4520 4 MP
PP
-4237 0 0 3955 4237 0 0 -3955 848 4520 5 MP stroke
8.33333 w
DO
SO
12.5 w
0.1 sg
 848 4520 mt 5085 4520 L
 848  565 mt 5085  565 L
 848 4520 mt  848  565 L
5085 4520 mt 5085  565 L
 848 4520 mt 5085 4520 L
 848 4520 mt  848  565 L
 848 4520 mt  848 4456 L
 848  565 mt  848  628 L
%%IncludeResource: font Helvetica
/Helvetica /ISOLatin1Encoding 133.333 FMSR

 811 4668 mt 
(0) s
1695 4520 mt 1695 4456 L
1695  565 mt 1695  628 L
1658 4668 mt 
(5) s
2542 4520 mt 2542 4456 L
2542  565 mt 2542  628 L
2468 4668 mt 
(10) s
3390 4520 mt 3390 4456 L
3390  565 mt 3390  628 L
3316 4668 mt 
(15) s
4237 4520 mt 4237 4456 L
4237  565 mt 4237  628 L
4163 4668 mt 
(20) s
5085 4520 mt 5085 4456 L
5085  565 mt 5085  628 L
5011 4668 mt 
(25) s
 848 4520 mt  911 4520 L
5085 4520 mt 5021 4520 L
 750 4569 mt 
(0) s
 848 4080 mt  911 4080 L
5085 4080 mt 5021 4080 L
 750 4129 mt 
(2) s
 848 3641 mt  911 3641 L
5085 3641 mt 5021 3641 L
 750 3690 mt 
(4) s
 848 3201 mt  911 3201 L
5085 3201 mt 5021 3201 L
 750 3250 mt 
(6) s
 848 2762 mt  911 2762 L
5085 2762 mt 5021 2762 L
 750 2811 mt 
(8) s
 848 2322 mt  911 2322 L
5085 2322 mt 5021 2322 L
 676 2371 mt 
(10) s
 848 1883 mt  911 1883 L
5085 1883 mt 5021 1883 L
 676 1932 mt 
(12) s
 848 1443 mt  911 1443 L
5085 1443 mt 5021 1443 L
 676 1492 mt 
(14) s
 848 1004 mt  911 1004 L
5085 1004 mt 5021 1004 L
 676 1053 mt 
(16) s
 848  565 mt  911  565 L
5085  565 mt 5021  565 L
 676  614 mt 
(18) s
 848 4520 mt 5085 4520 L
 848  565 mt 5085  565 L
 848 4520 mt  848  565 L
5085 4520 mt 5085  565 L
gs 848 565 4238 3956 rc
18.75 w
/c8 { 0.000000 0.000000 1.000000 sr} bdef
c8
2 0 2 0 1 -1 2 0 2 0 1 0 2 -1 2 0 
1 0 2 0 2 0 2 0 1 -1 2 0 2 0 1 0 
2 0 2 0 1 -1 2 0 2 0 1 0 2 0 2 0 
2 -1 1 0 2 0 2 0 1 0 2 0 2 -1 1 0 
2 0 2 0 2 -1 1 0 2 0 2 -1 1 0 2 0 
2 0 1 -1 2 0 2 0 1 -1 2 0 2 0 2 0 
1 -1 2 0 2 0 1 -1 2 0 2 0 1 0 2 0 
2 -1 1 0 2 0 2 0 2 0 1 -1 2 0 2 0 
1 0 2 0 2 -1 1 0 2 0 2 -1 2 0 1 0 
2 0 2 0 1 0 2 -1 2 0 1 0 2 0 2 -1 
1 0 2 0 2 -1 2 0 1 0 2 0 2 0 1 -1 
2 0 2 0 1 -1 2 0 2 0 2 0 1 -1 2 0 
2 0 1 0 2 -1 2 0 1 0 2 0 2 -1 1 0 
2 0 2 0 2 0 1 -1 2 0 2 0 1 -1 2 0 
2 0 1 0 2 0 2 0 1 -1 2 0 2 0 2 -1 
1 0 2 0 2 -1 1 0 2 0 2 0 1 -1 2 0 
2 0 2 0 1 0 2 -1 2 0 1 0 2 0 2 -1 
1 0 2 0 2 0 1 0 2 -1 2 0 2 0 1 0 
2 -1 2 0 1 0 2 0 2 -1 1 0 2 0 2 0 
2 0 1 -1 2 0 2 0 1 0 2 -1 2 0 1 0 
2 0 2 -1 1 0 2 0 2 -1 2 0 1 0 2 0 
2 0 1 -1 2 0 2 0 1 0 2 -1 2 0 1 0 
2 0 2 0 2 -1 1 0 2 0 2 0 1 0 2 0 
2 -1 1 0 2 0 2 -1 2 0 1 0 2 0 2 0 
1 -1 2 -1 2 0 1 0 2 0 2 -1 1 0 2 0 
2 -1 2 0 1 0 2 0 2 -1 1 0 2 0 2 0 
1 -1 2 0 2 0 1 -1 2 0 2 0 2 -1 1 0 
2 0 2 0 1 -1 2 0 2 0 1 -1 2 0 2 0 
2 -1 1 0 2 0 2 -1 1 0 2 0 2 -1 1 0 
2 -1 2 0 1 0 2 -1 2 0 2 -1 1 0 2 0 
2 -1 1 0 2 0 2 -1 1 0 2 0 2 -1 2 0 
1 0 2 -1 2 0 1 0 2 -1 2 0 1 0 2 -1 
2 0 1 0 2 0 2 -1 2 0 1 -1 2 0 2 0 
1 -1 2 0 2 -1 1 0 2 0 2 0 1 0 2 -1 
2 0 2 -1 1 0 2 0 2 -1 1 0 2 0 2 -1 
1 0 2 0 2 0 2 0 1 -1 2 0 2 0 1 -1 
2 0 2 -1 1 0 2 0 2 -1 1 0 2 0 2 -1 
2 0 1 0 2 -1 4154 896 300 MP stroke
2 0 1 0 2 -1 2 0 1 0 2 -1 2 0 2 0 
1 0 2 -1 2 -1 1 -1 2 0 2 0 1 -1 2 0 
2 0 1 -1 2 0 2 0 2 0 1 -1 2 0 2 0 
1 -1 2 0 2 0 1 -1 2 0 2 -1 1 0 2 -1 
2 0 2 -1 1 0 2 0 2 -1 1 0 2 -1 2 0 
1 0 2 -1 2 0 2 -1 1 0 2 0 2 -1 1 0 
2 0 2 -1 1 0 2 0 2 0 1 -1 2 -1 2 0 
2 0 1 -1 2 0 2 -1 1 -1 2 0 2 0 1 -1 
2 -1 2 0 1 -1 2 0 2 -1 2 0 1 0 2 -1 
2 0 1 -1 2 0 2 0 1 0 2 -1 2 0 2 -1 
1 -1 2 0 2 -1 1 0 2 -1 2 0 1 0 2 -1 
2 0 1 0 2 -1 2 0 2 -1 1 -1 2 0 2 -1 
1 0 2 -1 2 0 1 0 2 -1 2 -1 2 0 1 -1 
2 0 2 0 1 -1 2 0 2 -1 1 0 2 0 2 -1 
1 0 2 -1 2 0 2 -1 1 -1 2 0 2 -1 1 0 
2 -1 2 0 1 -1 2 0 2 -1 1 0 2 -1 2 -1 
2 0 1 -1 2 0 2 -1 1 0 2 -1 2 -1 1 0 
2 -1 2 0 2 0 1 -1 2 0 2 -1 1 -1 2 0 
2 -1 1 0 2 -1 2 0 1 -1 2 -1 2 0 2 0 
1 0 2 -1 2 -1 1 0 2 -1 2 0 1 -1 2 0 
2 -1 2 -1 1 0 2 -1 2 0 1 -1 2 -1 2 0 
1 -1 2 0 2 -1 1 -1 2 0 2 -1 2 -1 1 0 
2 -1 2 0 1 -1 2 -1 2 0 1 -1 2 -1 2 -1 
1 0 2 -1 2 0 2 -1 1 0 2 -1 2 0 1 -1 
2 -1 2 0 1 -1 2 0 2 -1 2 -1 1 0 2 -1 
2 -1 1 0 2 0 2 -1 1 0 2 -1 2 -1 1 0 
2 -1 2 -1 2 0 1 -1 2 0 2 -1 1 0 2 -1 
2 -1 1 -1 2 -1 2 -1 1 -1 2 0 2 -1 2 -1 
1 0 2 -1 2 -1 1 0 2 -1 2 -1 1 0 2 -1 
2 -1 2 -1 1 0 2 -1 2 -1 1 0 2 -1 2 -1 
1 0 2 -1 2 -2 1 0 2 -1 2 -1 2 0 1 -1 
2 -1 2 -1 1 -1 2 -1 2 0 1 -1 2 0 2 -1 
2 -1 1 0 2 -1 2 -1 1 -1 2 -1 2 -1 1 -1 
2 -1 2 -1 1 0 2 -1 2 -1 2 0 1 -1 2 -1 
2 0 1 -1 2 -1 2 -1 1 -1 2 -1 2 -2 1 -1 
2 -1 2 -1 2 -1 1 -1 2 -2 2 -1 1 -1 2 0 
2 -1 1 -1 2 -1 2 -1 2 -1 1 0 2 -1 2 -1 
1 -1 2 -1 2 -1 3647 1071 300 MP stroke
1 -1 2 -2 2 -1 1 0 2 -2 2 -1 2 -1 1 -1 
2 -1 2 -1 1 -1 2 -1 2 0 1 -2 2 0 2 -1 
2 -1 1 -1 2 -1 2 -1 1 -1 2 -1 2 -1 1 -1 
2 -1 2 -1 1 0 2 -2 2 -1 2 -1 1 -1 2 -1 
2 0 1 -1 2 -1 2 -1 1 -2 2 -1 2 -1 1 -1 
2 -1 2 -1 2 -1 1 0 2 -1 2 -2 1 0 2 -1 
2 -2 1 0 2 -1 2 0 2 -1 1 -2 2 -1 2 -1 
1 -1 2 -1 2 -2 1 -1 2 -1 2 -1 1 -1 2 -1 
2 -2 2 -1 1 -1 2 -1 2 -1 1 -2 2 -1 2 -1 
1 -1 2 -1 2 -2 1 -1 2 -2 2 -1 2 -2 1 -1 
2 -1 2 -2 1 -1 2 -2 2 -1 1 -1 2 -2 2 -1 
2 -2 1 -1 2 0 2 -1 1 -1 2 -2 2 -1 1 -1 
2 -1 2 -1 1 -1 2 -2 2 -1 2 -1 1 -2 2 -1 
2 -1 1 -2 2 -2 2 -1 1 -1 2 -2 2 -2 2 -2 
1 -1 2 -1 2 -2 1 -1 2 -1 2 -1 1 -2 2 -2 
2 -2 1 -1 2 -2 2 -2 2 -1 1 -1 2 -2 2 -1 
1 -2 2 -1 2 -1 1 -2 2 -1 2 -2 1 -2 2 -1 
2 -2 2 -2 1 -1 2 -1 2 -1 1 -3 2 -2 2 -2 
1 -1 2 -2 2 -2 2 -1 1 -3 2 -2 2 -1 1 -3 
2 -2 2 -1 1 -2 2 -2 2 -2 1 -3 2 -3 2 -3 
2 -2 1 -3 2 -1 2 -2 1 -2 2 -3 2 -2 1 -3 
2 -2 2 -2 2 -3 1 -1 2 -2 2 -3 1 -2 2 -3 
2 -2 1 -3 2 -1 2 -3 1 -2 2 -2 2 -3 2 -1 
1 -2 2 -3 2 -3 1 -2 2 -3 2 -2 1 -3 2 -2 
2 -2 1 -2 2 -2 2 -1 2 -2 1 -2 2 -3 2 -2 
1 -1 2 -2 2 -1 1 -3 2 -3 2 -2 2 -2 1 -3 
2 -1 2 -2 1 -3 2 -3 2 -2 1 -2 2 -3 2 -3 
1 -3 2 -3 2 -2 2 -3 1 -2 2 -2 2 -2 1 -2 
2 -2 2 -3 1 -2 2 -1 2 -2 1 -3 2 -3 2 -2 
2 -2 1 -1 2 -3 2 -2 1 -2 2 -3 2 -3 1 -2 
2 -2 2 -3 2 -2 1 -2 2 -2 2 -2 1 -2 2 -2 
2 -3 1 -2 2 -3 2 -2 1 -2 2 -1 2 -2 2 -3 
1 -1 2 -2 2 -2 1 -2 2 -2 2 -1 1 -2 2 -2 
2 -2 2 -2 1 -2 2 -2 2 -2 1 -3 2 -2 2 -3 
1 -3 2 -2 2 -3 1 -2 2 -2 2 -2 2 -2 1 -1 
2 -1 2 -1 1 -2 2 -2 2 -2 1 -4 2 -3 2 -2 
1 -3 2 -2 2 -2 2 -2 1 -3 2 -2 2 -1 1 -3 
2 -2 2 -2 1 -3 3141 1587 300 MP stroke
2 -1 2 -3 2 -2 1 -3 2 -2 2 -3 1 -2 2 -2 
2 -4 1 -2 2 -2 2 -2 1 -3 2 -2 2 -2 2 -2 
1 -2 2 -3 2 -1 1 -2 2 -2 2 -3 1 -3 2 -2 
2 -2 2 -3 1 -2 2 -2 2 -3 1 -3 2 -2 2 -3 
1 -3 2 -3 2 -2 1 -3 2 -3 2 -2 2 -2 1 -2 
2 -1 2 -2 1 -2 2 -2 2 -2 1 -2 2 -2 2 -3 
1 -2 2 -2 2 -2 2 -2 1 -3 2 -2 2 -1 1 -1 
2 -2 2 -2 1 -1 2 -3 2 -1 2 -3 1 -2 2 -2 
2 -3 1 -2 2 -2 2 -2 1 -2 2 -3 2 -1 1 -2 
2 -2 2 -3 2 -2 1 -1 2 -3 2 -2 1 -3 2 -2 
2 -2 1 -2 2 -2 2 -1 1 -3 2 -3 2 -2 2 -2 
1 -2 2 -2 2 -2 1 -3 2 -2 2 -2 1 -3 2 -2 
2 -2 2 -3 1 -2 2 -2 2 -2 1 -2 2 -2 2 -3 
1 -3 2 -2 2 -2 1 -3 2 -2 2 -3 2 -2 1 -2 
2 -3 2 -2 1 -3 2 -1 2 -3 1 -2 2 -2 2 -2 
2 -2 1 -3 2 -2 2 -2 1 -2 2 -2 2 -1 1 -2 
2 -2 2 -2 1 -2 2 -1 2 -3 2 -3 1 -1 2 -3 
2 -3 1 -2 2 -3 2 -2 1 -3 2 -2 2 -3 1 -2 
2 -1 2 -2 2 -2 1 -2 2 -3 2 -2 1 -2 2 -2 
2 -2 1 -3 2 -2 2 -2 2 -2 1 -2 2 -2 2 -2 
1 -2 2 -2 2 -2 1 -2 2 -2 2 -3 1 -2 2 -2 
2 -3 2 -2 1 -3 2 -2 2 -2 1 -2 2 -2 2 -3 
1 -2 2 -2 2 -1 1 -2 2 -2 2 -2 2 -2 1 -3 
2 -2 2 -1 1 -2 2 -2 2 -2 1 -2 2 -2 2 -2 
2 -2 1 -3 2 -2 2 -2 1 -2 2 -3 2 -2 1 -2 
2 -2 2 -2 1 -3 2 -2 2 -3 2 -2 1 -2 2 -2 
2 -3 1 -2 2 -2 2 -2 1 -2 2 -2 2 -2 2 -1 
1 -2 2 -3 2 -2 1 -2 2 -3 2 -2 1 -2 2 -3 
2 -2 1 -1 2 -3 2 -1 2 -3 1 -2 2 -2 2 -2 
1 -3 2 -2 2 -2 1 -2 2 -2 2 -2 1 -3 2 -2 
2 -2 2 -3 1 -2 2 -3 2 -3 1 -1 2 -2 2 -1 
1 -3 2 -2 2 -1 2 -1 1 -3 2 -3 2 -2 1 -3 
2 -3 2 -2 1 -1 2 -3 2 -2 1 -3 2 -2 2 -2 
2 -2 1 -2 2 -2 2 -2 1 -2 2 -1 2 -3 1 -2 
2 -3 2 -2 2 -1 1 -2 2 -2 2 -2 1 -2 2 -2 
2 -3 1 -2 2 -2 2 -2 1 -2 2 -2 2 -3 2 -2 
1 -3 2 -2 2 -2 1 -2 2 -2 2 -3 1 -2 2 -2 
2 -2 1 -3 2 -2 2634 2240 300 MP stroke
2 -1 2 -3 1 -2 2 -3 2 -2 1 -2 2 -3 2 -2 
1 -2 2 -2 2 -2 2 -2 1 -3 2 -2 2 -3 1 -2 
2 -2 2 -2 1 -2 2 -2 2 -2 1 -3 2 -2 2 -3 
2 -3 1 -2 2 -2 2 -2 1 -2 2 -3 2 -3 1 -1 
2 -2 2 -3 1 -2 2 -3 2 -2 2 -2 1 -1 2 -3 
2 -2 1 -2 2 -3 2 -2 1 -3 2 -2 2 -2 2 -2 
1 -3 2 -2 2 -2 1 -2 2 -2 2 -2 1 -3 2 -2 
2 -2 1 -3 2 -2 2 -2 2 -2 1 -3 2 -2 2 -3 
1 -2 2 -1 2 -2 1 -2 2 -2 2 -2 2 -2 1 -2 
2 -2 2 -2 1 -3 2 -2 2 -3 1 -2 2 -3 2 -2 
1 -2 2 -2 2 -2 2 -2 1 -2 2 -2 2 -3 1 -2 
2 -2 2 -3 1 -2 2 -3 2 -1 1 -2 2 -2 2 -3 
2 -2 1 -2 2 -2 2 -2 1 -2 2 -2 2 -2 1 -2 
2 -3 2 -1 2 -2 1 -3 2 -2 2 -2 1 -3 2 -2 
2 -1 1 -2 2 -3 2 -3 1 -1 2 -2 2 -2 2 -3 
1 -2 2 -2 2 -3 1 -2 2 -2 2 -3 1 -3 2 -2 
2 -2 2 -2 1 -2 2 -2 2 -2 1 -3 2 -1 2 -2 
1 -3 2 -1 2 -2 1 -2 2 -2 2 -1 2 -2 1 -2 
2 -2 2 -2 1 -3 2 -2 2 -2 1 -2 2 -2 2 -2 
1 -2 2 -2 2 -2 2 -2 1 -2 2 -2 2 -3 1 -2 
2 -2 2 -2 1 -1 2 -2 2 -2 2 -2 1 -2 2 -2 
2 -2 1 -3 2 -2 2 -2 1 -2 2 -2 2 -2 1 -2 
2 -1 2 -2 2 -2 1 -3 2 -2 2 -3 1 -2 2 -2 
2 -2 1 -1 2 -2 2 -3 1 -2 2 -3 2 -2 2 -2 
1 -2 2 -3 2 -1 1 -2 2 -2 2 -2 1 -2 2 -3 
2 -3 2 -3 1 -2 2 -2 2 -2 1 -2 2 -2 2 -3 
1 -2 2 -2 2 -3 1 -2 2 -2 2 -1 2 -3 1 -1 
2 -2 2 -2 1 -3 2 -2 2 -3 1 -2 2 -2 2 -2 
2 -2 1 -3 2 -1 2 -2 1 -2 2 -2 2 -1 1 -2 
2 -2 2 -1 1 -2 2 -2 2 -2 2 -2 1 -2 2 -2 
2 -3 1 -2 2 -2 2 -2 1 -3 2 -2 2 -2 1 -2 
2 -3 2 -1 2 -2 1 -3 2 -2 2 -1 1 -2 2 -2 
2 -2 1 -3 2 -2 2 -2 2 -2 1 -2 2 -2 2 -2 
1 -2 2 -3 2 -2 1 -2 2 -1 2 -2 1 -3 2 -2 
2 -2 2 -2 1 -2 2 -3 2 -2 1 -2 2 -2 2 -2 
1 -2 2 -2 2 -2 2 -2 1 -1 2 -2 2 -2 1 -2 
2 -3 2 -1 1 -3 2 -2 2 -2 1 -3 2 -2 2 -2 
2 -2 1 -1 2 -2 2127 2878 300 MP stroke
2 -2 1 -3 2 -2 2 -3 1 -2 2 -2 2 -3 1 -2 
2 -3 2 -2 2 -2 1 -2 2 -3 2 -3 1 -2 2 -2 
2 -2 1 -2 2 -2 2 -3 2 -2 1 -3 2 -1 2 -2 
1 -2 2 -2 2 -2 1 -1 2 -2 2 -2 1 -2 2 -3 
2 -1 2 -2 1 -2 2 -2 2 -2 1 -3 2 -2 2 -2 
1 -3 2 -2 2 -2 1 -3 2 -3 2 -2 2 -3 1 -2 
2 -2 2 -2 1 -2 2 -2 2 -3 1 -1 2 -3 2 -1 
2 -3 1 -2 2 -1 2 -3 1 -1 2 -2 2 -3 1 -2 
2 -2 2 -2 1 -2 2 -3 2 -1 2 -2 1 -2 2 -2 
2 -3 1 -1 2 -2 2 -2 1 -3 2 -2 2 -2 2 -2 
1 -2 2 -2 2 -2 1 -2 2 -3 2 -1 1 -2 2 -3 
2 -3 1 -2 2 -2 2 -2 2 -2 1 -2 2 -2 2 -3 
1 -2 2 -2 2 -1 1 -3 2 -2 2 -2 1 -2 2 -2 
2 -3 2 -2 1 -3 2 -1 2 -2 1 -2 2 -3 2 -2 
1 -2 2 -2 2 -2 2 -1 1 -2 2 -1 2 -3 1 -1 
2 -2 2 -3 1 -1 2 -3 2 -2 1 -1 2 -2 2 -2 
2 -2 1 -2 2 -2 2 -3 1 -2 2 -2 2 -3 1 -2 
2 -2 2 -2 2 -2 1 -3 2 -2 2 -1 1 -1 2 -2 
2 -2 1 -1 2 -2 2 -2 1 -2 2 -3 2 -3 2 -2 
1 -2 2 -2 2 -2 1 -1 2 -2 2 -2 1 -2 2 -1 
2 -2 1 -1 2 -3 2 -2 2 -1 1 -2 2 -3 2 -2 
1 -3 2 -3 2 -2 1 -3 2 -1 2 -3 2 -3 1 -2 
2 -2 2 -3 1 -2 2 -2 2 -3 1 -3 2 -2 2 -1 
1 -2 2 -2 2 -2 2 -2 1 -2 2 -2 2 -2 1 -2 
2 -2 2 -2 1 -2 2 -3 2 -2 1 -3 2 -1 2 -2 
2 -3 1 -2 2 -1 2 -2 1 -3 2 -2 2 -2 1 -3 
2 -2 2 -2 2 -3 1 -2 2 -2 2 -2 1 -3 2 -3 
2 -2 1 -2 2 -2 2 -2 1 -3 2 -2 2 -1 2 -3 
1 -3 2 -2 2 -3 1 -3 2 -2 2 -2 1 -2 2 -2 
2 -2 2 -1 1 -3 2 -2 2 -2 1 -3 2 -2 2 -2 
1 -2 2 -3 2 -2 1 -2 2 -3 2 -1 2 -2 1 -2 
2 -2 2 -2 1 -1 2 -3 2 -2 1 -2 2 -1 2 -2 
1 -3 2 -1 2 -3 2 -2 1 -2 2 -2 2 -2 1 -2 
2 -3 2 -2 1 -2 2 -3 2 -3 2 -2 1 -2 2 -2 
2 -3 1 -2 2 -3 2 -2 1 -3 2 -1 2 -2 1 -2 
2 -2 2 -2 2 -2 1 -3 2 -2 2 -2 1 -3 2 -2 
2 -2 1 -2 2 -2 2 -3 2 -2 1 -2 2 -2 2 -3 
1 -2 2 -3 2 -2 1620 3520 300 MP stroke
1 -2 2 -2 2 -2 1 -3 2 -2 2 -3 2 -3 1 -2 
2 -3 2 -1 1 -2 2 -3 2 -2 1 -2 2 -1 2 -3 
1 -2 2 -2 2 -1 2 -2 1 -2 2 -3 2 -1 1 -2 
2 -2 2 -2 1 -2 2 -2 2 -2 2 -2 1 -3 2 -2 
2 -2 1 -2 2 -1 2 -2 1 -3 2 -3 2 -2 1 -3 
2 -3 2 -2 2 -2 1 -2 2 -2 2 -2 1 -2 2 -2 
2 -4 1 -2 2 -1 2 -2 1 -1 2 -2 2 -3 2 -1 
1 -3 2 -2 2 -2 1 -3 2 -1 2 -2 1 -2 2 -1 
2 -2 2 -3 1 -2 2 -3 2 -2 1 -3 2 -3 2 -2 
1 -2 2 -2 2 -2 1 -2 2 -2 2 -2 2 -2 1 -2 
2 -2 2 -3 1 -2 2 -3 2 -3 1 -2 2 -3 2 -1 
2 -3 1 -2 2 -2 2 -2 1 -3 2 -2 2 -2 1 -2 
2 -2 2 -1 1 -2 2 -2 2 -3 2 -2 1 -2 2 -3 
2 -2 1 -2 2 -2 2 -1 1 -2 2 -2 2 -3 1 -2 
2 -2 2 -3 2 -2 1 -2 2 -2 2 -1 1 -2 2 -2 
2 -3 1 -2 2 -2 2 -2 2 -2 1 -3 2 -2 2 -2 
1 -2 2 -3 2 -2 1 -3 2 -2 2 -3 1 -3 2 -2 
2 -2 2 -2 1 -2 2 -2 2 -3 1 -1 2 -3 2 -3 
1 -3 2 -2 2 -2 2 -2 1 -3 2 -2 2 -2 1 -3 
2 -1 2 -3 1 -2 2 -2 2 -2 1 -2 2 -2 2 -3 
2 -2 1 -3 2 -2 2 -2 1 -3 2 -2 2 -2 1 -2 
2 -2 2 -3 1 -2 2 -2 2 -2 2 -3 1 -2 2 -1 
2 -2 1 -3 2 -2 2 -2 1 -2 2 -2 2 -3 2 -2 
1 -3 2 -2 2 -2 1 -1 2 -2 2 -2 1 -3 2 -2 
2 -3 1 -1 2 -3 2 -2 2 -2 1 -2 2 -2 2 -2 
1 -3 2 -2 2 -2 1 -2 2 -3 2 -2 1 -3 2 -1 
2 -3 2 -2 1 -3 2 -1 2 -3 1 -3 2 -3 2 -2 
1 -3 2 -2 2 -3 2 -1 1 -2 2 -2 2 -2 1 -1 
2 -2 2 -2 1 -3 2 -2 2 -3 1 -2 2 -3 2 -3 
2 -2 1 -2 2 -2 2 -2 1 -2 2 -2 2 -3 1 -2 
2 -2 2 -2 2 -3 1 -2 2 -3 2 -1 1 -2 2 -3 
2 -1 1 -2 2 -2 2 -2 1 -3 2 -1 2 -3 2 -2 
1 -2 2 -2 2 -2 1 -3 2 -2 2 -3 1 -1 2 -3 
2 -2 1 -2 2 -3 2 -2 2 -2 1 -2 2 -2 2 -1 
1 -1 2 -2 2 -2 1 -3 2 -1 2 -2 2 -3 1 -3 
2 -2 2 -1 1 -2 2 -3 2 -3 1 -3 2 -2 2 -2 
1 -1 2 -2 2 -3 2 -2 1 -3 2 -2 2 -2 1 -1 
2 -2 2 -2 1 -2 1114 4172 300 MP stroke
2 -2 2 -3 2 -3 1 -3 2 -3 2 -3 1 -1 2 -2 
2 -3 1 -2 2 -2 2 -2 1 -2 2 -2 2 -3 2 -2 
1 -2 2 -1 2 -3 1 -3 2 -2 2 -1 1 -3 2 -2 
2 -2 1 -3 2 -1 2 -3 2 -2 1 -3 2 -2 2 -2 
1 -2 2 -2 2 -2 1 -2 2 -2 2 -2 2 -2 1 -4 
2 -2 2 -2 1 -2 2 -2 2 -3 1 -2 2 -3 2 -2 
1 -3 2 -2 2 -2 2 -3 1 -3 2 -2 2 -2 1 -2 
2 -2 2 -3 1 -2 2 -2 2 -2 1 -2 2 -1 2 -2 
2 -2 1 -2 2 -2 2 -2 1 -2 2 -2 2 -2 1 -2 
2 -2 2 -2 2 -2 1 -2 2 -2 2 -3 1 -2 2 -1 
2 -3 1 -2 2 -2 2 -3 1 -2 2 -2 2 -3 2 -1 
1 -3 2 -3 2 -2 1 -3 2 -2 2 -2 1 -2 2 -2 
2 -3 2 -2 1 -2 2 -2 2 -3 1 -2 2 -2 2 -2 
1 -2 2 -2 2 -3 1 -3 2 -2 2 -2 2 -1 1 -2 
2 -2 2 -2 1 -3 2 -2 2 -2 1 -2 2 -2 2 -2 
1 -2 2 -3 2 -2 2 -2 1 -2 2 -3 2 -2 1 -2 
2 -2 2 -2 1 -3 2 -2 2 -2 2 -2 1 -2 2 -2 
2 -3 1 -2 2 -2 2 -2 1 -2 2 -3 2 -2 1 -2 
2 -2 2 -2 2 -2 1 -3 2 -2 2 -3 1 -3 2 -3 
2 -3 1 -3 2 -3 2 -1 1 0 848 4520 158 MP stroke
gr

18.75 w
c8
0.1 sg
%%IncludeResource: font Helvetica-Bold
/Helvetica-Bold /ISOLatin1Encoding 183.333 FMSR

2614 4842 mt 
(Time [s]) s
 596 3489 mt  -90 rotate
(Discharged Mass [kg]) s
90 rotate
gs 848 565 4238 3956 rc
/c9 { 1.000000 0.000000 0.000000 sr} bdef
c9
2 0 2 0 1 -1 2 0 2 0 1 0 2 -1 2 0 
1 0 2 0 2 0 2 0 1 0 2 -1 2 0 1 0 
2 0 2 0 1 -1 2 0 2 0 1 -1 2 0 2 0 
2 0 1 0 2 0 2 -1 1 0 2 0 2 0 1 0 
2 0 2 -1 2 0 1 -1 2 0 2 0 1 0 2 -1 
2 0 1 0 2 0 2 -1 1 0 2 0 2 0 2 0 
1 -1 2 0 2 0 1 0 2 0 2 0 1 0 2 -1 
2 0 1 0 2 0 2 0 2 -1 1 0 2 0 2 -1 
1 0 2 0 2 0 1 -1 2 0 2 0 2 -1 1 0 
2 0 2 -1 1 0 2 0 2 0 1 -1 2 0 2 0 
1 0 2 0 2 -1 2 0 1 -1 2 0 2 -1 1 0 
2 0 2 -1 1 0 2 0 2 -1 2 0 1 0 2 -1 
2 0 1 0 2 0 2 -1 1 0 2 0 2 -1 1 0 
2 -1 2 0 2 -1 1 0 2 0 2 0 1 -1 2 0 
2 0 1 0 2 -1 2 0 1 0 2 0 2 -1 2 0 
1 0 2 -1 2 0 1 0 2 -1 2 0 1 0 2 -1 
2 0 2 -1 1 0 2 0 2 0 1 -1 2 0 2 0 
1 0 2 -1 2 0 1 0 2 -1 2 0 2 -1 1 0 
2 0 2 0 1 -1 2 0 2 0 1 0 2 -1 2 0 
2 -1 1 0 2 0 2 -1 1 0 2 -1 2 0 1 -1 
2 -1 2 0 1 0 2 0 2 -1 2 0 1 0 2 -1 
2 0 1 -1 2 0 2 0 1 -1 2 0 2 -1 1 0 
2 0 2 -1 2 0 1 -1 2 0 2 -1 1 0 2 0 
2 -1 1 0 2 0 2 -1 2 0 1 -1 2 0 2 0 
1 0 2 0 2 -1 1 0 2 0 2 -1 1 0 2 -1 
2 0 2 -1 1 0 2 -1 2 0 1 0 2 -1 2 -1 
1 0 2 0 2 -1 1 0 2 0 2 -1 2 0 1 -1 
2 0 2 -1 1 0 2 0 2 -1 1 -1 2 0 2 0 
2 0 1 -1 2 0 2 -1 1 0 2 0 2 -1 1 0 
2 -1 2 0 1 -1 2 -1 2 0 2 0 1 -1 2 0 
2 -1 1 0 2 0 2 -1 1 -1 2 0 2 -1 2 0 
1 -1 2 0 2 0 1 -1 2 0 2 -1 1 0 2 0 
2 -1 1 0 2 0 2 0 2 -1 1 -1 2 0 2 0 
1 -1 2 -1 2 0 1 -1 2 -1 2 0 1 0 2 0 
2 -1 2 0 1 0 2 0 2 -1 1 0 2 -1 2 0 
1 0 2 -1 2 0 2 -1 1 0 2 0 2 -1 1 0 
2 -1 2 0 1 -1 2 -1 2 0 1 0 2 -1 2 -1 
2 0 1 -1 2 0 4154 926 300 MP stroke
2 0 1 0 2 -1 2 0 1 -1 2 0 2 -1 2 0 
1 -1 2 0 2 0 1 -1 2 0 2 0 1 -1 2 -1 
2 0 1 0 2 -1 2 0 2 -1 1 -1 2 0 2 0 
1 -1 2 0 2 -1 1 -1 2 0 2 -1 1 -1 2 0 
2 -1 2 0 1 -1 2 0 2 -1 1 -1 2 0 2 -1 
1 0 2 -1 2 0 2 -1 1 0 2 -1 2 -1 1 0 
2 0 2 -1 1 0 2 -2 2 0 1 -1 2 0 2 0 
2 -1 1 0 2 -1 2 0 1 -1 2 0 2 0 1 -1 
2 -1 2 0 1 -1 2 -1 2 -1 2 0 1 0 2 -1 
2 0 1 -1 2 0 2 -1 1 0 2 -1 2 0 2 -1 
1 -1 2 0 2 0 1 -1 2 0 2 -1 1 0 2 -1 
2 0 1 -1 2 -1 2 0 2 -1 1 0 2 -1 2 0 
1 -1 2 0 2 -1 1 0 2 -1 2 -1 2 -1 1 0 
2 -1 2 0 1 -1 2 0 2 -1 1 -1 2 0 2 -2 
1 0 2 -1 2 0 2 -1 1 0 2 -1 2 -1 1 0 
2 -1 2 -1 1 -1 2 0 2 -1 1 -1 2 0 2 -1 
2 0 1 -1 2 -1 2 0 1 -1 2 -1 2 -1 1 -1 
2 0 2 -1 2 -1 1 -1 2 0 2 0 1 -1 2 -1 
2 -1 1 0 2 0 2 -1 1 -1 2 -1 2 -1 2 -1 
1 0 2 -1 2 -1 1 -1 2 -1 2 0 1 -1 2 -1 
2 -1 2 0 1 -1 2 -1 2 -1 1 -1 2 -1 2 -1 
1 -1 2 0 2 -1 1 -1 2 -1 2 0 2 -1 1 -1 
2 0 2 -1 1 0 2 -1 2 0 1 -1 2 -1 2 -1 
1 -1 2 -1 2 -1 2 -1 1 -1 2 -1 2 -1 1 -1 
2 -1 2 -1 1 -1 2 -1 2 -1 2 -1 1 0 2 -2 
2 -1 1 0 2 -1 2 -1 1 -1 2 -1 2 0 1 -1 
2 -1 2 -1 2 -2 1 -1 2 -1 2 -1 1 -1 2 -1 
2 0 1 -2 2 -1 2 0 1 -1 2 -1 2 -1 2 -1 
1 -2 2 -1 2 -1 1 0 2 -1 2 -2 1 -1 2 -1 
2 -1 2 -1 1 -2 2 0 2 -2 1 -1 2 -1 2 0 
1 0 2 -1 2 -1 1 -1 2 -1 2 -2 2 -1 1 -1 
2 -1 2 -1 1 -1 2 -1 2 -2 1 -1 2 -2 2 -1 
2 -1 1 -1 2 -2 2 -2 1 -1 2 -2 2 -2 1 -1 
2 -2 2 -2 1 -1 2 -2 2 -1 2 -2 1 -1 2 -2 
2 -2 1 -1 2 -2 2 -2 1 -1 2 -1 2 -1 1 -2 
2 -1 2 -2 2 -2 1 -1 2 -2 2 -2 1 -1 2 -1 
2 -2 1 -1 2 -3 2 -1 2 -2 1 -2 2 -2 2 -1 
1 -3 2 -2 2 -1 3647 1179 300 MP stroke
1 -2 2 -2 2 -2 1 -1 2 -2 2 -2 2 -2 1 -2 
2 -1 2 -1 1 -2 2 -2 2 -3 1 -2 2 -2 2 -1 
2 -2 1 -2 2 -3 2 -2 1 -3 2 -2 2 -2 1 -2 
2 -2 2 -2 1 -3 2 -3 2 -2 2 -3 1 -1 2 -2 
2 -2 1 -2 2 -1 2 -1 1 -3 2 -2 2 -1 1 -2 
2 -3 2 -1 2 -2 1 -3 2 -2 2 -1 1 -3 2 -1 
2 -3 1 -3 2 -2 2 -2 2 -3 1 -3 2 -2 2 -2 
1 -2 2 -2 2 -2 1 -2 2 -2 2 -2 1 -2 2 -2 
2 -2 2 -1 1 -3 2 -2 2 -2 1 -2 2 -3 2 -1 
1 -2 2 -2 2 -2 1 -2 2 -2 2 -2 2 -2 1 -3 
2 -1 2 -3 1 -2 2 -3 2 -2 1 -2 2 -2 2 -2 
2 -2 1 -1 2 -3 2 -1 1 -1 2 -3 2 -2 1 -2 
2 -3 2 -2 1 -2 2 -1 2 -2 2 -3 1 -3 2 -2 
2 -2 1 -3 2 -3 2 -2 1 -2 2 -1 2 -2 2 -1 
1 -1 2 -2 2 -2 1 -3 2 -2 2 -2 1 -3 2 -2 
2 -2 1 -2 2 -2 2 -1 2 -2 1 -2 2 -2 2 -1 
1 -1 2 -2 2 -3 1 -3 2 -3 2 -2 1 -2 2 -2 
2 -1 2 -3 1 -2 2 -2 2 -2 1 -1 2 -3 2 -2 
1 -1 2 -2 2 -2 2 -2 1 -2 2 -2 2 -3 1 -2 
2 0 2 -2 1 -2 2 -2 2 -2 1 -2 2 -3 2 -1 
2 -2 1 -3 2 -2 2 -2 1 -1 2 -2 2 -2 1 -3 
2 -2 2 -2 2 -3 1 -2 2 -2 2 -2 1 -2 2 -2 
2 -2 1 -3 2 -2 2 -2 1 -3 2 -2 2 -2 2 -1 
1 -3 2 -2 2 -3 1 -2 2 -2 2 -1 1 -3 2 -1 
2 -2 1 -2 2 -1 2 -3 2 -2 1 -2 2 -2 2 -1 
1 -2 2 -3 2 -2 1 -2 2 -3 2 -1 2 -1 1 -3 
2 -2 2 -3 1 -3 2 -2 2 -3 1 -3 2 -2 2 -1 
1 -2 2 -1 2 -3 2 -1 1 -1 2 -1 2 -2 1 -2 
2 -2 2 -3 1 -2 2 -2 2 -3 1 -2 2 -2 2 -2 
2 -2 1 -2 2 -2 2 -1 1 -2 2 -2 2 -1 1 -3 
2 -2 2 -2 2 -3 1 -2 2 -2 2 -2 1 -2 2 -3 
2 -2 1 -3 2 -1 2 -2 1 -2 2 -3 2 -2 2 -3 
1 -2 2 -2 2 -2 1 -2 2 -1 2 -2 1 -3 2 -3 
2 -2 2 -1 1 -2 2 -3 2 -1 1 -2 2 -2 2 -3 
1 -2 2 -2 2 -2 1 -2 2 -2 2 -3 2 -1 1 -3 
2 -2 2 -2 1 -2 2 -2 2 -2 1 -2 2 -2 2 -2 
1 -2 2 -3 2 -2 2 -2 1 -1 2 -2 2 -2 1 -3 
2 -2 2 -2 1 -3 3141 1795 300 MP stroke
2 -1 2 -1 2 -2 1 -1 2 -2 2 -3 1 -2 2 -2 
2 -2 1 -2 2 -2 2 -2 1 -3 2 -2 2 -2 2 -2 
1 -1 2 -3 2 -1 1 -2 2 -2 2 -2 1 -2 2 -3 
2 -2 2 0 1 -2 2 -3 2 -3 1 -2 2 -2 2 -2 
1 -1 2 -3 2 -2 1 -2 2 -2 2 -2 2 -1 1 -2 
2 -2 2 -2 1 -2 2 -1 2 -2 1 -2 2 -3 2 -1 
1 -3 2 -2 2 -1 2 -2 1 -1 2 -2 2 -2 1 -2 
2 -3 2 -1 1 -3 2 -2 2 -3 2 -1 1 -3 2 -2 
2 -2 1 -3 2 -1 2 -2 1 -3 2 -2 2 -1 1 -2 
2 -2 2 -1 2 -2 1 -2 2 -3 2 -2 1 -2 2 -2 
2 -2 1 -2 2 -2 2 -2 1 -1 2 -3 2 -2 2 -2 
1 -2 2 -2 2 -2 1 -2 2 -2 2 -3 1 -3 2 -2 
2 -2 2 -2 1 -2 2 -3 2 -2 1 -1 2 -1 2 -1 
1 -3 2 -2 2 -2 1 -1 2 -2 2 -2 2 -2 1 -2 
2 -2 2 -2 1 -3 2 -2 2 -1 1 -2 2 -2 2 -3 
2 -2 1 -2 2 -2 2 -2 1 -1 2 -3 2 -2 1 -2 
2 -2 2 -2 1 -3 2 -1 2 -3 2 -2 1 -2 2 -1 
2 -2 1 -2 2 -2 2 -3 1 -2 2 -2 2 -2 1 -2 
2 -1 2 -3 2 -2 1 -2 2 -2 2 -2 1 -2 2 -2 
2 -2 1 -2 2 -3 2 -3 2 -2 1 -2 2 -3 2 -2 
1 -2 2 -2 2 -2 1 -2 2 -1 2 -2 1 -2 2 -2 
2 -2 2 -2 1 -2 2 -2 2 -2 1 -2 2 -2 2 -2 
1 -3 2 -2 2 -2 1 -2 2 -2 2 -1 2 -2 1 -2 
2 -2 2 -2 1 -2 2 -2 2 -1 1 -2 2 -3 2 -2 
2 -2 1 -3 2 -1 2 -2 1 -2 2 -3 2 -1 1 -1 
2 -2 2 -1 1 -3 2 -2 2 -2 2 -2 1 -3 2 -2 
2 -1 1 -2 2 -1 2 -2 1 -2 2 -2 2 -2 2 -2 
1 -1 2 -2 2 -3 1 -2 2 -2 2 -2 1 -2 2 -1 
2 -2 1 -2 2 -2 2 -2 2 -2 1 -2 2 -1 2 -3 
1 -1 2 -2 2 -2 1 -2 2 -2 2 -3 1 -1 2 -2 
2 -2 2 -1 1 -2 2 -2 2 -2 1 -2 2 -2 2 -2 
1 -1 2 -1 2 -2 2 -2 1 -3 2 -3 2 -3 1 -1 
2 -2 2 -2 1 -3 2 -2 2 -2 1 -2 2 -2 2 -2 
2 -3 1 -2 2 -2 2 -2 1 -2 2 -2 2 -1 1 -2 
2 -2 2 -2 2 -2 1 -2 2 -1 2 -2 1 -2 2 -2 
2 -2 1 -2 2 -3 2 -1 1 -2 2 -2 2 -3 2 -1 
1 -2 2 -2 2 -2 1 -2 2 -2 2 -2 1 -1 2 -3 
2 -2 1 -2 2 -3 2634 2391 300 MP stroke
2 -1 2 -2 1 -2 2 -3 2 -2 1 -3 2 -2 2 -2 
1 -2 2 -2 2 -1 2 -3 1 -2 2 -1 2 -3 1 -2 
2 -3 2 -2 1 -3 2 -1 2 -3 1 -2 2 -2 2 -2 
2 -1 1 -2 2 -2 2 -2 1 -2 2 -2 2 -2 1 -2 
2 -1 2 -2 1 -2 2 -1 2 -1 2 -3 1 -1 2 -2 
2 -1 1 -3 2 -2 2 -2 1 -2 2 -2 2 -2 2 -3 
1 -2 2 -2 2 -2 1 -3 2 -2 2 -3 1 -2 2 -2 
2 -2 1 -1 2 -3 2 -1 2 -2 1 -2 2 -2 2 -2 
1 -1 2 -2 2 -2 1 -2 2 -2 2 -2 2 -2 1 -2 
2 -2 2 -2 1 -2 2 -3 2 -1 1 -2 2 -2 2 -2 
1 -3 2 -2 2 -2 2 -2 1 -2 2 -2 2 -2 1 -3 
2 -2 2 -3 1 -2 2 -2 2 -2 1 -3 2 -2 2 -2 
2 -2 1 -2 2 -2 2 -1 1 -2 2 -2 2 -1 1 -3 
2 -2 2 -2 2 -2 1 -3 2 -2 2 -2 1 -2 2 -2 
2 -3 1 -2 2 -2 2 -2 1 -3 2 -1 2 -3 2 -1 
1 -3 2 -2 2 -1 1 -2 2 -2 2 -2 1 -2 2 -2 
2 -2 2 -2 1 -1 2 -3 2 -1 1 -2 2 -2 2 -2 
1 -2 2 -2 2 -3 1 -2 2 -3 2 -2 2 -2 1 -2 
2 -2 2 -2 1 -2 2 -2 2 -1 1 -2 2 -2 2 -2 
1 -2 2 -2 2 -3 2 -2 1 -3 2 -2 2 -2 1 -1 
2 -3 2 -2 1 -3 2 -2 2 -2 2 -2 1 -1 2 -2 
2 -1 1 -3 2 -3 2 -2 1 -2 2 -2 2 -2 1 -2 
2 -3 2 -2 2 -2 1 -2 2 -1 2 -2 1 -1 2 -2 
2 -3 1 -2 2 -2 2 -2 1 -3 2 -2 2 -2 2 -2 
1 -3 2 -2 2 -1 1 -2 2 -2 2 -3 1 -2 2 -2 
2 -2 2 -2 1 -2 2 -2 2 -1 1 -3 2 -2 2 -3 
1 -2 2 -2 2 -2 1 -2 2 -1 2 -2 2 -3 1 -2 
2 -1 2 -2 1 -2 2 -3 2 -1 1 -2 2 -2 2 -3 
2 -2 1 -2 2 -3 2 -1 1 -2 2 -3 2 -2 1 -3 
2 -1 2 -2 1 -3 2 -2 2 -2 2 -2 1 -1 2 -2 
2 -2 1 -2 2 -2 2 -2 1 -2 2 -2 2 -2 1 -2 
2 -1 2 -2 2 -2 1 -3 2 -3 2 -2 1 -3 2 -3 
2 -2 1 -1 2 -2 2 -2 2 -2 1 -2 2 -2 2 -2 
1 -1 2 -2 2 -1 1 -2 2 -1 2 -3 1 -3 2 -2 
2 -2 2 -2 1 -2 2 -1 2 -2 1 -1 2 -2 2 -2 
1 -1 2 -2 2 -3 2 -2 1 -2 2 -2 2 -2 1 -2 
2 -1 2 -2 1 -2 2 -2 2 -1 1 -3 2 -2 2 -2 
2 -2 1 -1 2 -3 2127 2999 300 MP stroke
2 -2 1 -2 2 -2 2 -3 1 -1 2 -2 2 -2 1 -2 
2 -2 2 -2 2 -2 1 -2 2 -2 2 -2 1 -2 2 -2 
2 -1 1 -2 2 -3 2 -2 2 -3 1 -2 2 -1 2 -3 
1 -2 2 -3 2 -2 1 -2 2 -2 2 -1 1 -3 2 -1 
2 -2 2 -3 1 -2 2 -2 2 -3 1 -2 2 -2 2 -2 
1 -3 2 -2 2 -3 1 -3 2 -2 2 -1 2 -2 1 -3 
2 -2 2 -1 1 -3 2 -2 2 -2 1 -2 2 -1 2 -2 
2 -2 1 -2 2 -1 2 -2 1 -2 2 -1 2 -2 1 -2 
2 -1 2 -2 1 -2 2 -1 2 -2 2 -2 1 -2 2 -2 
2 -3 1 -1 2 -1 2 -2 1 -2 2 -3 2 -2 2 -1 
1 -3 2 -2 2 -2 1 -1 2 -2 2 -2 1 -2 2 -2 
2 -2 1 -2 2 -2 2 -3 2 -2 1 -2 2 -2 2 -2 
1 -3 2 -2 2 -2 1 -1 2 -2 2 -1 1 -2 2 -2 
2 -2 2 -2 1 -1 2 -2 2 -3 1 -3 2 -2 2 -2 
1 -2 2 -2 2 -3 2 -2 1 -2 2 -1 2 -2 1 -3 
2 -2 2 -2 1 -2 2 -3 2 -2 1 -2 2 -3 2 -2 
2 -1 1 -2 2 -3 2 -2 1 -2 2 -2 2 -2 1 -2 
2 -2 2 -2 2 -2 1 -2 2 -2 2 -2 1 -2 2 -2 
2 -3 1 -1 2 -3 2 -2 1 -1 2 -2 2 -2 2 -1 
1 -2 2 -1 2 -2 1 -2 2 -2 2 -3 1 -2 2 -3 
2 -2 1 -1 2 -2 2 -1 2 -2 1 -1 2 -2 2 -1 
1 -2 2 -2 2 -2 1 -2 2 -2 2 -1 2 -2 1 -2 
2 -2 2 -2 1 -2 2 -3 2 -2 1 -2 2 -3 2 -2 
1 -2 2 -2 2 -1 2 -3 1 -2 2 -2 2 -2 1 -2 
2 -2 2 -2 1 -1 2 -1 2 -2 1 -3 2 -2 2 -3 
2 -1 1 -1 2 -2 2 -2 1 -2 2 -2 2 -1 1 -2 
2 -2 2 -2 2 -1 1 -2 2 -2 2 -3 1 -1 2 -3 
2 -2 1 -2 2 -1 2 -3 1 -2 2 -2 2 -2 2 -2 
1 -2 2 -1 2 -2 1 -2 2 -3 2 -1 1 -2 2 -1 
2 -2 2 -2 1 -3 2 -2 2 -2 1 -2 2 -2 2 -2 
1 -3 2 -2 2 -2 1 -2 2 -2 2 -1 2 -2 1 -2 
2 -2 2 -2 1 -2 2 -2 2 -3 1 -2 2 -2 2 -3 
1 -2 2 -1 2 -3 2 -1 1 -2 2 -2 2 -3 1 -1 
2 -2 2 -3 1 -1 2 -3 2 -2 2 -2 1 -2 2 -1 
2 -1 1 -3 2 -3 2 -2 1 -2 2 -3 2 -2 1 -3 
2 -2 2 -2 2 -2 1 -2 2 -2 2 -1 1 -2 2 -1 
2 -2 1 -2 2 -3 2 -1 2 -2 1 -1 2 -3 2 -2 
1 -2 2 -2 2 -2 1620 3596 300 MP stroke
1 -2 2 -3 2 -2 1 -2 2 -1 2 -2 2 -2 1 -2 
2 -2 2 -2 1 -3 2 -3 2 -2 1 -2 2 -2 2 -2 
1 -2 2 -2 2 -2 2 -2 1 -3 2 -1 2 -2 1 -2 
2 -1 2 -2 1 -1 2 -2 2 -2 2 -2 1 -2 2 -2 
2 -2 1 -2 2 -2 2 -2 1 -3 2 -2 2 -2 1 -2 
2 -2 2 -3 2 -1 1 -2 2 -3 2 -1 1 -2 2 -2 
2 -2 1 -2 2 -1 2 -3 1 -2 2 -1 2 -1 2 -2 
1 -2 2 -2 2 -3 1 -3 2 -2 2 -2 1 -1 2 -2 
2 -3 2 -2 1 -2 2 -1 2 -1 1 -2 2 -2 2 -2 
1 -2 2 -2 2 -2 1 -2 2 -2 2 -2 2 -2 1 -2 
2 -1 2 -2 1 -3 2 -3 2 -2 1 -2 2 -2 2 -1 
2 -2 1 -2 2 -2 2 -2 1 -2 2 -3 2 -2 1 -2 
2 -2 2 -2 1 -1 2 -2 2 -3 2 -2 1 -2 2 -2 
2 -2 1 -2 2 -3 2 -2 1 -2 2 -2 2 -2 1 -3 
2 -2 2 -2 2 -2 1 -2 2 -2 2 -2 1 -2 2 -3 
2 -2 1 -2 2 -3 2 -2 2 -2 1 -2 2 -2 2 -2 
1 -1 2 -2 2 -2 1 -3 2 -2 2 -2 1 -2 2 -3 
2 -1 2 -2 1 -2 2 -1 2 -3 1 -2 2 -3 2 -2 
1 -3 2 -2 2 -2 2 -3 1 -1 2 -2 2 -2 1 -2 
2 0 2 -1 1 -3 2 -1 2 -2 1 -2 2 -2 2 -2 
2 -2 1 -3 2 -1 2 -2 1 -2 2 -2 2 -2 1 -3 
2 -1 2 -3 1 -2 2 -1 2 -2 2 -3 1 -2 2 -2 
2 -2 1 -1 2 -2 2 -2 1 -3 2 -2 2 -2 2 -3 
1 -1 2 -2 2 -2 1 -3 2 -2 2 -2 1 -2 2 -2 
2 -1 1 -2 2 -2 2 -3 2 -2 1 -2 2 -3 2 -1 
1 -2 2 -2 2 -2 1 -1 2 -2 2 -2 1 -2 2 -2 
2 -2 2 -3 1 -3 2 -2 2 -2 1 -3 2 -1 2 -2 
1 -2 2 -2 2 -2 2 -2 1 -3 2 -2 2 -1 1 -2 
2 -2 2 -3 1 -1 2 -2 2 -1 1 -2 2 -3 2 -2 
2 -2 1 -1 2 -2 2 -3 1 -1 2 -2 2 -2 1 -3 
2 -3 2 -2 2 -2 1 -3 2 -2 2 -1 1 -2 2 -3 
2 -2 1 -2 2 -2 2 -2 1 -2 2 -1 2 -3 2 -2 
1 -3 2 -2 2 -3 1 -2 2 -2 2 -3 1 -1 2 -3 
2 -2 1 -2 2 -2 2 -2 2 -2 1 -2 2 -2 2 -2 
1 -3 2 -2 2 -2 1 -2 2 -3 2 -2 2 -2 1 -2 
2 -2 2 -2 1 -1 2 -3 2 -3 1 -2 2 -2 2 -2 
1 -2 2 -2 2 -2 2 -2 1 -2 2 -3 2 -2 1 -2 
2 -3 2 -2 1 -2 1114 4210 300 MP stroke
2 -2 2 -2 2 -2 1 -3 2 -2 2 -3 1 -2 2 -2 
2 -2 1 -3 2 -2 2 -2 1 -2 2 -2 2 -2 2 -2 
1 -2 2 -2 2 -3 1 -2 2 -2 2 -3 1 -2 2 -1 
2 -2 1 -2 2 -1 2 -2 2 -1 1 -2 2 -2 2 -1 
1 -2 2 -3 2 -2 1 -3 2 -2 2 -1 2 -2 1 -2 
2 -3 2 -1 1 -3 2 -1 2 -2 1 -1 2 -1 2 -2 
1 -1 2 -1 2 -2 2 -2 1 -2 2 -2 2 -2 1 -3 
2 -1 2 -2 1 -3 2 -2 2 -2 1 -2 2 -2 2 -2 
2 -2 1 -2 2 -3 2 -2 1 -2 2 -2 2 -1 1 -3 
2 -2 2 -3 2 -1 1 -2 2 -2 2 -2 1 -2 2 -2 
2 -2 1 -2 2 -2 2 -2 1 -2 2 -2 2 -2 2 -2 
1 -1 2 -1 2 -2 1 -2 2 -3 2 -2 1 -2 2 -1 
2 -2 2 -1 1 -3 2 -3 2 -2 1 -2 2 -2 2 -2 
1 -2 2 -2 2 -2 1 -2 2 -2 2 -3 2 -1 1 -2 
2 -2 2 -2 1 -3 2 -2 2 -3 1 -2 2 -2 2 -2 
1 -2 2 -2 2 -2 2 -2 1 -1 2 -2 2 -2 1 -1 
2 -2 2 -1 1 -2 2 -2 2 -3 2 -2 1 -2 2 -1 
2 -1 1 -2 2 -3 2 -2 1 -1 2 -2 2 -2 1 -2 
2 -2 2 -2 2 -3 1 -1 2 -2 2 -3 1 -1 2 -3 
2 -2 1 -2 2 -4 2 0 1 0 848 4520 158 MP stroke
0 sg
2 0 2 -1 2 0 1 0 2 -1 2 0 1 0 2 0 
2 0 1 0 2 0 2 0 1 -1 2 0 2 0 2 -1 
1 0 2 0 2 0 1 -1 2 0 2 0 1 0 2 -1 
2 0 2 0 1 -1 2 0 2 0 1 -1 2 0 2 0 
1 0 2 0 2 0 1 -1 2 0 2 0 2 0 1 -1 
2 -1 2 0 1 -1 2 0 2 0 1 0 2 0 2 -1 
1 0 2 0 2 0 2 0 1 0 2 -1 2 0 1 0 
2 0 2 0 1 -1 2 0 2 0 2 0 1 0 2 0 
2 -1 1 0 2 0 2 -1 1 0 2 0 2 0 1 -1 
2 0 2 0 2 -1 1 0 2 0 2 0 1 0 2 -1 
2 0 1 0 2 0 2 0 1 0 2 -1 2 0 2 0 
1 0 2 -1 2 0 1 -1 2 0 2 0 1 -1 2 0 
2 0 2 0 1 -1 2 0 2 0 1 -1 2 0 2 0 
1 0 2 -1 2 0 1 0 2 -1 2 0 2 -1 1 0 
2 -1 2 0 1 0 2 0 2 -1 1 0 2 0 2 -1 
2 0 1 -1 2 0 2 -1 1 0 2 0 2 -1 1 0 
2 0 2 0 1 0 2 -1 2 0 2 -1 1 0 2 -1 
2 0 1 0 2 -1 2 0 1 0 2 -1 2 0 1 0 
2 -1 2 -1 2 0 1 0 2 0 2 -1 1 0 2 0 
2 -1 1 -1 2 0 2 -1 2 0 1 -1 2 0 2 0 
1 0 2 -1 2 0 1 0 2 0 2 -1 1 0 2 0 
2 -1 2 0 1 -1 2 0 2 -1 1 0 2 0 2 -1 
1 0 2 -1 2 0 2 0 1 -1 2 -1 2 0 1 -1 
2 -1 2 0 1 0 2 -1 2 0 1 -1 2 -1 2 0 
2 -1 1 0 2 -1 2 -1 1 0 2 -1 2 0 1 -1 
2 0 2 -1 1 -1 2 0 2 0 2 -1 1 0 2 -1 
2 0 1 -1 2 -1 2 0 1 -1 2 0 2 -1 2 0 
1 -1 2 0 2 0 1 -1 2 0 2 0 1 -1 2 0 
2 -1 1 0 2 -1 2 0 2 0 1 -1 2 -1 2 -1 
1 -1 2 -1 2 0 1 0 2 -1 2 0 1 -1 2 -1 
2 0 2 -1 1 0 2 0 2 -1 1 0 2 -1 2 -1 
1 0 -1 0 1 0 2 -1 2 0 2 -1 1 0 2 -1 
2 -1 1 0 2 -1 2 0 1 -1 2 -1 2 0 1 -1 
2 0 2 -1 2 -1 1 0 2 -1 2 -1 1 -1 2 -1 
2 0 1 0 2 -1 2 0 2 -1 1 0 2 -1 2 0 
1 -1 2 0 2 -1 1 -1 2 0 2 0 1 -1 2 -1 
2 0 2 -1 1 -1 2 -1 2 0 1 -1 2 0 2 0 
1 -1 2 0 2 -1 4153 967 300 MP stroke
1 -1 2 -1 2 -1 2 -1 1 -1 2 -1 2 0 1 -1 
2 -1 2 0 1 -1 2 -1 2 0 2 -1 1 0 2 -1 
2 -1 1 -2 2 -1 2 0 1 -1 2 -1 2 0 1 -1 
2 -1 2 -1 2 0 1 -1 2 0 2 0 1 -1 2 0 
2 -1 1 0 2 -1 2 -1 2 -1 1 0 2 -1 2 -1 
1 -1 2 -1 2 0 1 -1 2 -1 2 0 1 -1 2 -1 
2 0 2 -1 1 -1 2 0 2 -1 1 -1 2 0 2 -1 
1 0 2 -1 2 -1 1 -1 2 0 2 -1 2 -1 1 -2 
2 -1 2 0 1 -1 2 -1 2 -1 1 -1 2 -1 2 -1 
2 -1 1 -1 2 -1 2 0 1 -2 2 0 2 -1 1 -1 
2 -1 2 -1 1 -1 2 -1 2 -1 2 -2 1 -1 2 -1 
2 -1 1 -1 2 -1 2 -1 1 -2 2 -1 2 -1 1 -2 
2 0 2 -1 2 -1 1 -1 2 -1 2 -1 1 -1 2 -1 
2 -1 1 -2 2 -1 2 -1 2 -1 1 -1 2 -2 2 -1 
1 -1 2 -1 2 -2 1 -1 2 -1 2 -1 1 -1 2 0 
2 -1 2 -1 1 -1 2 -1 2 -1 1 -1 2 -2 2 -1 
1 0 2 -1 2 -2 2 -2 1 -2 2 -1 2 -1 1 0 
2 -2 2 -1 1 -2 2 0 2 -1 1 -1 2 -1 2 -1 
2 -1 1 -1 2 -2 2 -1 1 -1 2 0 2 -2 1 -1 
2 -1 2 -2 1 -1 2 -3 2 -1 2 -1 1 -1 2 -2 
2 -1 1 -2 2 -1 2 -1 1 -2 2 -2 2 -2 2 -2 
1 -2 2 -2 2 -2 1 -2 2 -2 2 -2 1 -2 2 -1 
2 -2 1 -1 2 -2 2 -2 2 -1 1 -3 2 -2 2 -3 
1 -2 2 -2 2 -3 1 -2 2 -2 2 -1 1 -3 2 -2 
2 -2 2 -3 1 -2 2 -2 2 -2 1 -1 2 -2 2 -1 
1 -2 2 -2 2 -2 2 -2 1 -2 2 -2 2 -2 1 -3 
2 -2 2 -1 1 -1 2 -2 2 -3 1 -2 2 -2 2 -1 
2 -2 1 -3 2 -2 2 -2 1 -2 2 -1 2 -3 1 -1 
2 -2 2 -2 2 -3 1 -2 2 -2 2 -2 1 -1 2 -2 
2 -2 1 -3 2 -1 2 -1 1 -3 2 -2 2 -2 2 -2 
1 -2 2 -2 2 -3 1 -2 2 -2 2 -2 1 -2 2 -2 
2 -3 1 -2 2 -1 2 -1 2 -3 1 -3 2 -3 2 -3 
1 -2 2 -2 2 -1 1 -2 2 -2 2 -2 2 -3 1 -2 
2 -2 2 -2 1 -2 2 -2 2 -1 1 -2 2 -2 2 -3 
1 -2 2 -1 2 -2 2 -3 1 -2 2 -2 2 -2 1 -1 
2 -2 2 -2 1 -2 2 -1 2 -2 2 -2 1 -2 2 -2 
2 -2 1 -2 2 -2 2 -1 1 -2 2 -3 2 -2 1 -2 
2 -2 2 -2 2 -3 3646 1396 300 MP stroke
1 -3 2 -2 2 -3 1 -2 2 -1 2 -2 1 -1 2 -2 
2 -1 1 -2 2 -1 2 -2 2 -2 1 -2 2 -3 2 -2 
1 -1 2 -3 2 -2 1 -2 2 -2 2 -1 2 -2 1 -1 
2 -2 2 -2 1 -2 2 -1 2 -2 1 -1 2 -2 2 -1 
1 -2 2 -2 2 -2 2 -2 1 -1 2 -2 2 -2 1 -3 
2 -1 2 -2 1 -1 2 -2 2 -2 1 -2 2 -2 2 -2 
2 -2 1 -2 2 -2 2 -2 1 -1 2 -2 2 -2 1 -2 
2 -2 2 -2 2 -2 1 -1 2 -2 2 -1 1 -2 2 -2 
2 -3 1 -2 2 -1 2 -2 1 -1 2 -3 2 -2 2 -2 
1 -1 2 -2 2 -1 1 -3 2 -2 2 -2 1 -2 2 -3 
2 -2 2 -2 1 -1 2 -1 2 -2 1 -2 2 -2 2 -2 
1 -2 2 -2 2 -3 1 -1 2 -2 2 -3 2 -2 1 -2 
2 -1 2 -1 1 -2 2 -2 2 -1 1 -2 2 -2 2 -3 
1 -3 2 -2 2 -2 2 -1 1 -2 2 -2 2 -1 1 -3 
2 -2 2 -3 1 -2 2 -3 2 -2 2 -1 1 -2 2 -2 
2 -2 1 -2 2 -2 2 -3 1 -2 2 -1 2 -2 1 -2 
2 -2 2 -3 2 -2 1 -2 2 -2 2 -2 1 -1 2 -2 
2 -2 1 -1 2 -1 2 -2 2 -2 1 -2 2 -3 2 -1 
1 -3 2 -2 2 -1 1 -1 2 -1 2 -2 1 -3 2 -2 
2 -1 2 -2 1 -2 2 -2 2 -3 1 -1 2 -3 2 -2 
1 -2 2 -2 2 -2 1 -2 2 -1 2 -1 2 -3 1 -2 
2 -1 2 -2 1 -2 2 -2 2 -2 1 -2 2 -2 2 -3 
2 -2 1 -1 2 -2 2 -2 1 -3 2 -2 2 -1 1 -1 
2 -1 2 -2 1 -2 2 -2 2 -2 2 -3 1 -2 2 -2 
2 -1 1 -2 2 -2 2 -2 1 -2 2 -2 2 -2 1 -2 
2 -3 2 -2 2 -2 1 -2 2 -2 2 -3 1 -2 2 -2 
2 -3 1 -2 2 -2 2 -1 2 -2 1 -2 2 -2 2 -2 
1 -3 2 -3 2 -2 1 -3 2 -3 2 -2 1 -2 2 -3 
2 -1 2 -2 1 -2 2 -2 2 -1 1 -2 2 -2 2 -2 
1 -2 2 -2 2 -1 2 -3 1 -2 2 -2 2 -2 1 -2 
2 -3 2 -2 1 -2 2 -2 2 -1 1 -1 2 -2 2 -1 
2 -2 1 -2 2 -2 2 -3 1 -2 2 -2 2 -3 1 -1 
2 -3 2 -2 1 -2 2 -1 2 -2 2 -2 1 -2 2 -1 
2 -1 1 -3 2 -3 2 -1 1 -2 2 -2 2 -3 2 -2 
1 -2 2 -2 2 -1 1 -3 2 -1 2 -3 1 -3 2 -2 
2 -1 1 -1 2 -2 2 -3 2 -2 1 -2 2 -2 2 -1 
1 -3 2 -2 2 -2 1 -2 2 -2 2 -2 2 -2 1 -2 
2 -2 2 -2 1 -2 3140 1978 300 MP stroke
2 -2 2 -3 1 -2 2 -2 2 -2 1 -2 2 -2 2 -1 
2 -2 1 -2 2 -2 2 -1 1 -2 2 -2 2 -3 1 -2 
2 -2 2 -2 1 -1 2 -2 2 -1 2 -2 1 -2 2 -2 
2 -2 1 -3 2 -2 2 -2 1 -2 2 -1 2 -3 2 -1 
1 -2 2 -2 2 -2 1 -2 2 -2 2 -1 1 -2 2 -2 
2 -2 1 -1 2 -2 2 -2 2 -2 1 -2 2 -1 2 -3 
1 -2 2 -2 2 -2 1 -1 2 -2 2 -2 1 -2 2 -2 
2 -2 2 -1 1 -2 2 -3 2 -1 1 -1 2 -2 2 -2 
1 -2 2 -2 2 -2 2 -2 1 -3 2 -1 2 -2 1 -2 
2 -2 2 -3 1 -1 2 -3 2 -2 1 -2 2 0 2 -2 
2 -3 1 -2 2 -2 2 -3 1 -2 2 -2 2 -2 1 -2 
2 -1 2 -1 2 -2 1 -1 2 -2 2 -3 1 -2 2 -1 
2 -2 1 -1 2 -1 2 -2 1 -2 2 -3 2 -3 2 -2 
1 -3 2 -2 2 -2 1 -2 2 -3 2 -1 1 -2 2 -1 
2 -2 1 -1 2 -2 2 -2 2 -2 1 -2 2 -2 2 -2 
1 -2 2 -1 2 -3 1 -1 2 -2 2 -2 2 -2 1 -2 
2 -2 2 -1 1 -2 2 -2 2 -3 1 -2 2 -2 2 0 
1 -1 2 -2 2 -3 2 -3 1 -2 2 -3 2 -2 1 -2 
2 -2 2 -2 1 -1 2 -2 2 -2 2 -1 1 -3 2 -2 
2 -1 1 -2 2 -2 2 -2 1 -2 2 -2 2 -2 1 -2 
2 0 2 -2 2 -1 1 -2 2 -2 2 -2 1 -2 2 -2 
2 -2 1 -2 2 -2 2 -2 1 -3 2 -2 2 -2 2 -1 
1 -2 2 -2 2 -1 1 -2 2 -2 2 -2 1 -3 2 -1 
2 -3 2 -1 1 -1 2 -2 2 -3 1 -2 2 -2 2 -2 
1 -1 2 -3 2 -2 1 -3 2 -1 2 -1 2 -2 1 -2 
2 -3 2 -2 1 -2 2 -1 2 -2 1 -2 2 -2 2 -2 
1 -3 2 -1 2 -3 2 -2 1 -2 2 -2 2 -2 1 -2 
2 -2 2 -2 1 -1 2 -2 2 -1 2 -2 1 -2 2 -2 
2 -2 1 -2 2 -2 2 -1 1 -2 2 -2 2 -2 1 -2 
2 -3 2 -2 2 -1 1 -2 2 -1 2 -2 1 -2 2 -2 
2 -2 1 -1 2 -3 2 -2 2 -2 1 -1 2 -2 2 -2 
1 -1 2 -2 2 -2 1 -2 2 -2 2 -1 1 -2 2 -3 
2 -2 2 -2 1 -1 2 -2 2 -2 1 -2 2 -2 2 -3 
1 -1 2 -2 2 -3 1 -2 2 -2 2 -2 2 -1 1 -3 
2 -1 2 -2 1 -2 2 -2 2 -2 1 -3 2 -2 2 -2 
2 -2 1 -1 2 -2 2 -1 1 -2 2 -2 2 -1 1 -3 
2 -2 2 -3 1 -2 2 -2 2 -3 2 -2 1 -1 2 -2 
2 -2 1 -1 2 -2 2633 2551 300 MP stroke
2 -1 1 -2 2 -3 2 -2 2 -1 1 -1 2 -2 2 -2 
1 -2 2 -2 2 -3 1 -2 2 -2 2 -2 1 -2 2 -1 
2 -2 2 -2 1 -2 2 -3 2 -3 1 -1 2 -2 2 -2 
1 -2 2 -2 2 -1 1 -2 2 -1 2 -2 2 -2 1 -2 
2 -3 2 -1 1 -2 2 -2 2 -1 1 -3 2 -2 2 -2 
2 -2 1 -2 2 -3 2 -2 1 -2 2 -1 2 -2 1 -1 
2 -2 2 -1 1 -2 2 -2 2 -1 2 -2 1 -1 2 -2 
2 -2 1 -2 2 -2 2 -3 1 -3 2 -2 2 -2 1 -1 
2 -1 2 -2 2 -1 1 -2 2 -2 2 -2 1 -1 2 -2 
2 -2 1 -2 2 -2 2 -2 2 -2 1 -2 2 -2 2 -3 
1 -1 2 -2 2 -2 1 -2 2 -2 2 -2 1 -1 2 -1 
2 -1 2 -2 1 -2 2 -2 2 -1 1 -2 2 -2 2 -2 
1 -2 2 -3 2 -1 2 -3 1 -2 2 -2 2 -2 1 -1 
2 -2 2 -2 1 -2 2 -1 2 -1 1 -3 2 -2 2 -1 
2 -2 1 -2 2 -2 2 -2 1 -2 2 -2 2 -1 1 -2 
2 -2 2 -2 1 -1 2 -3 2 -2 2 -2 1 -2 2 -1 
2 -3 1 -2 2 -2 2 -2 1 -1 2 -1 2 -1 2 -1 
1 -2 2 -3 2 -2 1 -2 2 -2 2 -1 1 -1 2 -2 
2 -3 1 -2 2 -2 2 -2 2 -2 1 -2 2 -2 2 -1 
1 -2 2 -2 2 -2 1 -2 2 -1 2 -2 2 -2 1 -3 
2 -2 2 -3 1 -2 2 -2 2 -1 1 -2 2 -2 2 -2 
1 -2 2 -2 2 -2 2 -2 1 -2 2 -2 2 -2 1 -2 
2 -3 2 -2 1 -3 2 -2 2 -2 1 -1 2 -1 2 -2 
2 -2 1 -1 2 -2 2 -2 1 -2 2 -2 2 -1 1 -2 
2 -2 2 -2 2 -2 1 -2 2 -2 2 -2 1 -2 2 -2 
2 -2 1 -1 2 -2 2 -2 1 -2 2 -2 2 -2 2 -2 
1 -2 2 -3 2 -2 1 -2 2 -1 2 -1 1 -2 2 -3 
2 -3 1 -2 2 -2 2 -3 2 -2 1 -3 2 -2 2 -2 
1 -2 2 -2 2 -3 1 -1 2 -1 2 -2 2 -3 1 -2 
2 -2 2 -2 1 -3 2 -2 2 -2 1 -3 2 -2 2 -2 
1 -2 2 -2 2 -1 2 -2 1 -2 2 -3 2 -1 1 -2 
2 -2 2 -2 1 -3 2 -2 2 -2 2 -3 1 -2 2 -2 
2 -2 1 -2 2 -1 2 -2 1 -2 2 -2 2 -1 1 -2 
2 -1 2 -2 2 -3 1 -2 2 -1 2 -2 1 -2 2 -1 
2 -2 1 -1 2 -3 2 -2 1 -2 2 -2 2 -2 2 -1 
1 -1 2 -2 2 -2 1 -1 2 -3 2 -2 1 -2 2 -2 
2 -2 2 -1 1 -2 2 -1 2 -1 1 -2 2 -2 2 -2 
1 -2 2 -2 2 -2 2126 3122 300 MP stroke
1 -1 2 -2 2 -2 2 -2 1 -1 2 -3 2 -1 1 -1 
2 -2 2 -3 1 -3 2 -2 2 -3 2 -2 1 -2 2 -2 
2 -2 1 -2 2 -2 2 -2 1 -3 2 -3 2 -2 1 -1 
2 -1 2 -1 2 -2 1 -1 2 -2 2 -2 1 -1 2 -2 
2 -2 1 -3 2 -2 2 -3 1 -2 2 -2 2 -3 2 -2 
1 -2 2 -2 2 -1 1 -2 2 -2 2 -1 1 -3 2 -2 
2 -2 2 -2 1 -2 2 -2 2 -2 1 -2 2 -1 2 -2 
1 -2 2 -2 2 -2 1 -3 2 -1 2 -2 2 -2 1 -3 
2 -2 2 -2 1 -2 2 -2 2 -2 1 -1 2 -3 2 -3 
1 -2 2 -2 2 -2 2 -2 1 -2 2 -2 2 -2 1 -1 
2 -2 2 -2 1 -2 2 -2 2 -1 2 -2 1 -2 2 -2 
2 -2 1 -2 2 -1 2 -3 1 -2 2 -1 2 -2 1 -2 
2 -2 2 -2 2 -2 1 -2 2 -1 2 -2 1 -1 2 -2 
2 -2 1 -2 2 -1 2 -2 2 -2 1 -2 2 -2 2 -2 
1 -2 2 -3 2 -2 1 -1 2 -2 2 -2 1 -2 2 -3 
2 -2 2 -2 1 -1 2 -2 2 -1 1 -3 2 -1 2 -2 
1 -2 2 -2 2 -3 1 -2 2 -2 2 -2 2 -2 1 -2 
2 -1 2 -2 1 -1 2 -2 2 -2 1 -2 2 -3 2 -1 
2 -3 1 -1 2 -2 2 -2 1 -2 2 -1 2 -2 1 -2 
2 -1 2 -1 1 -3 2 -2 2 -2 2 -2 1 -2 2 -2 
2 -1 1 -1 2 -3 2 -2 1 -1 2 -2 2 -1 1 -3 
2 -2 2 -2 2 -2 1 -3 2 -1 2 -1 1 -2 2 -2 
2 -3 1 -2 2 -2 2 -2 2 -1 1 -1 2 -2 2 -2 
1 -2 2 -1 2 -3 1 -2 2 -3 2 -2 1 -2 2 -2 
2 -2 2 -2 1 -2 2 -1 2 -1 1 -2 2 -2 2 -2 
1 -2 2 -1 2 -2 2 -1 1 -3 2 -2 2 -2 1 -1 
2 -2 2 -2 1 -2 2 -2 2 -2 1 -3 2 -2 2 -1 
2 -2 1 -2 2 -2 2 -1 1 -2 2 -1 2 -2 1 -2 
2 -2 2 -2 1 -2 2 -1 2 -3 2 -2 1 -2 2 -2 
2 -2 1 -2 2 -2 2 -2 1 -2 2 -1 2 -3 2 -2 
1 -2 2 -2 2 -2 1 -1 2 -1 2 -2 1 -2 2 -2 
2 -2 1 -3 2 -2 2 -2 2 -3 1 -1 2 -3 2 -2 
1 -2 2 -1 2 -2 1 -3 2 -2 2 -1 2 -2 1 -3 
2 -2 2 -1 1 -2 2 -2 2 -2 1 -1 2 -2 2 -1 
1 -2 2 -2 2 -2 2 -1 1 -2 2 -2 2 -3 1 -3 
2 -2 2 -2 1 -2 2 -2 2 -2 1 -2 2 -1 2 -2 
2 -1 1 -2 2 -1 2 -2 1 -2 2 -2 2 -2 1 -2 
2 -2 2 -2 2 -3 1619 3697 300 MP stroke
1 -2 2 -1 2 -3 1 -2 2 -2 2 -2 1 -2 2 -1 
2 -2 1 -2 2 -1 2 -1 2 -2 1 -2 2 -1 2 -3 
1 -2 2 -2 2 -1 1 -2 2 -2 2 -2 1 -2 2 -1 
2 -1 2 -2 1 -2 2 -2 2 -2 1 -2 2 -2 2 -2 
1 -2 2 -2 2 -2 2 -2 1 -2 2 -3 2 -2 1 -2 
2 -1 2 -3 1 -2 2 -2 2 -2 1 -2 2 -2 2 -2 
2 -2 1 -3 2 -2 -1 1 1 -1 2 -1 1 -3 2 -2 
2 -1 1 -2 2 -2 2 -2 2 -2 1 -2 2 -2 2 -2 
1 -2 2 -3 2 -3 1 -3 2 -1 2 -3 1 -1 2 -2 
2 -2 2 -1 1 -2 2 -2 2 -2 1 -2 2 -2 2 -2 
1 -2 2 -2 2 -2 1 -1 2 -2 2 -1 2 -1 1 -2 
2 -1 2 -2 1 -2 2 -2 2 -2 1 -1 2 -2 2 -1 
2 -2 1 -2 2 -2 2 -2 1 -2 2 -2 2 -2 1 -2 
2 -2 2 -2 1 -2 2 -2 2 -2 2 -1 1 -3 2 -3 
2 -1 1 -2 2 -1 2 -2 1 -2 2 -1 2 -2 2 -1 
1 -2 2 -3 2 -1 1 -2 2 -2 2 -2 1 -2 2 -2 
2 -2 1 -1 2 -3 2 -2 2 -1 1 -2 2 -2 2 -2 
1 -3 2 -2 2 -2 1 -2 2 -2 2 -3 1 -2 2 -3 
2 -1 2 -1 1 -2 2 -3 2 -1 1 -2 2 -2 2 -3 
1 -2 2 -3 2 -3 2 -1 1 -1 2 -3 2 -2 1 -2 
2 -2 2 -3 1 -2 2 -1 2 -3 1 -2 2 -2 2 -3 
2 -2 1 -1 2 -2 2 -1 1 -1 2 -2 2 -2 1 -2 
2 -2 2 -1 1 -2 2 -2 2 -3 2 -2 1 -3 2 -2 
2 -3 1 -2 2 -3 2 -1 1 -2 2 -2 2 -2 2 -2 
1 -1 2 -3 2 -2 1 -2 2 -2 2 -3 1 -2 2 -2 
2 -2 1 -2 2 -1 2 -1 2 -2 1 -2 2 -2 2 -2 
1 -3 2 -2 2 -2 1 -2 2 -1 2 -3 2 -1 1 -2 
2 -1 2 -2 1 -2 2 -3 2 -2 1 -2 2 -2 2 -1 
1 -2 2 -3 2 -2 2 -2 1 -2 2 -1 2 -1 1 -2 
2 -3 2 -1 1 -2 2 -2 2 -2 1 -2 2 -2 2 -2 
2 -2 1 -2 2 -2 2 -3 1 -2 2 -1 2 -2 1 -2 
2 -2 2 -1 2 -2 1 -1 2 -2 2 -3 1 -2 2 -2 
2 -2 1 -2 2 -2 2 -1 1 -1 2 -2 2 -1 2 -3 
1 -1 2 -2 2 -2 1 -1 2 -2 2 -3 1 -1 2 -1 
2 -2 2 -2 1 -3 2 -3 2 -2 1 -3 2 -2 2 -1 
1 -1 2 -1 2 -1 1 -2 2 -2 2 -2 2 -2 1 -2 
2 -2 2 -3 1 -1 2 -2 2 -2 1 -2 2 -2 2 -1 
1 -2 2 -1 2 -2 1116 4269 300 MP stroke
2 -2 1 -2 2 -2 2 -1 1 -2 2 -2 2 -2 1 -2 
2 -2 2 -1 2 -2 1 -2 2 -2 2 -1 1 -2 2 -1 
2 -2 1 -2 2 -2 2 -2 1 -2 2 -2 -1 1 2 -2 
1 -1 2 -1 1 -1 2 -2 2 -2 1 -3 2 -2 2 -3 
1 -2 1 -1 2 -3 2 -1 1 -2 2 -2 1 -1 2 -2 
1 -3 2 -2 19 -16 -16 14 2 -1 2 -1 1 -2 2 -2 
2 -2 2 -1 1 -2 5 -4 -2 2 1 -1 2 -2 2 -2 
2 -3 1 -2 2 0 2 -2 1 -2 2 -1 2 -2 1 -1 
2 -2 2 -2 1 -2 2 -2 2 -2 2 -2 1 -2 2 -1 
2 -2 1 -1 2 -2 2 -1 1 -2 2 -3 2 -1 2 -3 
1 -2 2 -2 2 -1 1 -2 2 -2 2 -2 1 -1 2 -1 
2 0 1 -1 2 -2 2 -2 2 -2 1 -2 2 -1 2 -1 
1 -2 2 -1 2 -2 1 -1 2 -2 2 -2 2 -1 1 -1 
2 -2 2 -1 1 -3 2 -1 2 -1 1 -2 2 0 2 0 
1 -1 2 -1 2 -1 2 -2 1 -1 2 -1 2 -1 1 -2 
2 -2 2 -1 1 -1 2 -1 2 0 1 -1 2 -1 2 -1 
2 -1 1 -1 2 -1 2 -1 1 -1 2 -2 2 -1 1 -1 
2 -1 2 -3 2 -2 1 -2 2 -2 2 -1 1 -2 2 -3 
2 -1 1 -1 2 -2 2 -1 1 -1 2 -1 2 -2 2 -1 
1 -2 2 -1 2 -2 1 -2 2 -2 2 -1 1 -2 2 -2 
2 0 1 0 848 4520 163 MP stroke
/c10 { 1.000000 0.000000 1.000000 sr} bdef
c10
2 -1 2 -1 1 0 2 -1 2 -1 1 0 2 -1 2 0 
1 -1 2 0 2 0 2 -1 1 0 2 0 2 -1 1 0 
2 -1 2 0 1 -1 2 0 2 -1 1 0 2 0 2 -1 
2 0 1 -1 2 -1 2 0 1 0 2 -1 2 0 1 -1 
2 0 2 -1 2 0 1 -1 2 0 2 0 1 0 2 -1 
2 -1 1 0 2 0 2 -1 1 0 2 -1 2 -1 2 -1 
1 0 2 -1 2 -1 1 0 2 -1 2 -1 1 -1 2 0 
2 -1 1 0 2 -1 2 0 2 -1 1 0 2 -1 2 0 
1 -1 2 0 2 -1 1 0 2 -1 2 -1 2 0 1 -1 
2 -1 2 0 1 -1 2 0 2 -1 1 -1 2 0 2 -1 
1 0 2 0 2 -1 2 -1 1 -1 2 -1 2 0 1 -1 
2 0 2 -1 1 0 2 -1 2 0 2 -1 1 -1 2 -1 
2 0 1 -1 2 0 2 -1 1 -1 2 -1 2 -1 1 -1 
2 -1 2 -1 2 0 1 -1 2 0 2 -1 1 0 2 -1 
2 0 1 -1 2 0 2 -1 1 -1 2 -1 2 -1 2 0 
1 -1 2 -1 2 -1 1 -1 2 -1 2 0 1 -1 2 -1 
2 0 2 -1 1 0 2 -1 2 0 1 -1 2 -1 2 -1 
1 -1 2 -1 2 -1 1 0 2 -1 2 -1 2 -1 1 0 
2 -1 2 -1 1 -1 2 -1 2 0 1 -1 2 0 2 0 
2 -1 1 -1 2 0 2 -1 1 -1 2 -1 2 -1 1 -1 
2 -1 2 0 1 -1 2 -2 2 -2 2 -1 1 -1 2 0 
2 0 1 -1 2 -1 2 -1 1 -1 2 0 2 -1 1 -1 
2 -1 2 -1 2 -1 1 -1 2 0 2 -1 1 -2 2 -1 
2 -1 1 -1 2 -2 2 0 2 -1 1 0 2 -1 2 -1 
1 0 2 -1 2 -1 1 -1 2 -2 2 -1 1 -1 2 -1 
2 -2 2 -1 1 -1 2 -1 2 -1 1 -2 2 -1 2 -1 
1 -1 2 -1 2 0 1 -2 2 -1 2 -1 2 -2 1 -1 
2 0 2 -1 1 -1 2 -2 2 -2 1 -1 2 -1 2 -2 
2 -1 1 -1 2 0 2 -1 1 -2 2 -1 2 -1 1 -1 
2 -1 2 -1 1 -1 2 -1 2 -2 2 -1 1 -1 2 -1 
2 -1 1 -2 2 -1 2 -2 1 -1 2 -2 2 -1 2 -2 
1 -1 2 -1 2 -1 1 -1 2 -2 2 -1 1 -2 2 -1 
2 -2 1 -1 2 -2 2 -1 2 -3 1 -1 2 -1 2 -2 
1 0 2 -1 2 -1 1 -2 2 -1 2 -1 1 -1 2 -1 
2 -2 2 -1 1 -2 2 -1 2 -1 1 -2 2 -1 2 -3 
1 -2 2 -2 2 -2 2 -2 1 -3 2 -1 2 -1 1 -3 
2 -1 2 -2 1 -1 2 -2 2 0 1 -2 2 -3 2 -2 
2 -2 1 -1 2 -2 4154 1166 300 MP stroke
2 -1 1 -3 2 -2 2 -3 1 -2 2 -3 2 -2 2 -2 
1 -1 2 -2 2 -2 1 -2 2 -1 2 -3 1 -2 2 -2 
2 -3 1 -2 2 -1 2 -2 2 -2 1 -2 2 -2 2 -2 
1 -2 2 -1 2 -3 1 -2 2 -1 2 -2 1 -3 2 -2 
2 -2 2 -2 1 -1 2 -3 2 -2 1 -2 2 -1 2 -1 
1 -2 2 -2 2 -2 2 -2 1 -3 2 -2 2 -2 1 -2 
2 -1 2 -1 1 -2 2 -2 2 -2 1 -2 2 -2 2 -2 
2 -2 1 -1 2 -3 2 -2 1 -1 2 -1 2 -2 1 -2 
2 -2 2 -2 1 -1 2 -2 2 -2 2 -2 1 -2 2 -2 
2 -2 1 -2 2 -3 2 -2 1 -2 2 -3 2 -2 2 -2 
1 -3 2 -2 2 -2 1 -2 2 -2 2 -2 1 -2 2 -2 
2 -1 1 -2 2 -2 2 -1 2 -1 1 -1 2 -2 2 -2 
1 -2 2 -2 2 -2 1 -1 2 -2 2 -2 2 -1 1 -3 
2 -1 2 -1 1 -2 2 -3 2 -2 1 -2 2 -1 2 -3 
1 -1 2 -3 2 -2 2 -2 1 -1 2 -2 2 -2 1 -1 
2 -2 2 -2 1 -2 2 -1 2 -2 1 -1 2 -3 2 -1 
2 -2 1 -2 2 -2 2 -2 1 -1 2 -2 2 -1 1 -2 
2 -2 2 -1 2 -2 1 -2 2 -2 2 -1 1 -2 2 -2 
2 -3 1 -2 2 -2 2 -3 1 -1 2 -1 2 -2 2 -1 
1 -2 2 -1 2 -3 1 -3 2 -1 2 -1 1 -2 2 -1 
2 -2 2 -1 1 -2 2 -2 2 -2 1 -2 2 -2 2 -2 
1 -2 2 -2 2 -2 1 -2 2 -1 2 -2 2 -2 1 -2 
2 -3 2 -2 1 -2 2 -1 2 -2 1 -3 2 -2 2 -1 
1 -1 2 -2 2 -2 2 -2 1 -1 2 -2 2 -1 1 -2 
2 -1 2 -3 1 -2 2 -1 2 -3 2 -2 1 -2 2 -2 
2 -2 1 -2 2 -2 2 -3 1 -1 2 -2 2 -2 1 -1 
2 -2 2 -2 2 -1 1 -3 2 -3 2 -2 1 -1 2 -2 
2 -2 1 -2 2 -2 2 -2 1 -2 2 -2 2 -2 2 -1 
1 -1 2 -2 2 -1 1 -2 2 -2 2 -3 1 -2 2 -1 
2 -1 2 -2 1 -2 2 -3 2 -1 1 -2 2 -2 2 -1 
1 -2 2 -2 2 -2 1 -2 2 -2 2 -2 2 -2 1 -1 
2 -3 2 -1 1 -2 2 -2 2 -1 1 -3 2 -1 2 -2 
2 -2 1 -2 2 -2 2 -2 1 -3 2 -2 2 -2 1 -2 
2 -2 2 -3 1 -2 2 -1 2 -1 2 -1 1 -2 2 -2 
2 -2 1 -2 2 -2 2 -1 1 -1 2 -1 2 -1 1 -2 
2 -3 2 -2 2 -2 1 -2 2 -2 2 -2 1 -2 2 -2 
2 -2 1 -1 2 -2 2 -2 2 -3 1 -2 2 -1 2 -2 
1 -2 2 -2 2 -1 3647 1726 300 MP stroke
1 -2 2 -2 2 -1 1 -2 2 -2 2 -1 2 -2 1 -2 
2 -3 2 -2 1 -2 2 -1 2 -3 1 -2 2 -1 2 -1 
2 -2 1 -2 2 -2 2 -2 1 -2 2 -2 2 -1 1 -2 
2 -1 2 -2 1 -1 2 -2 2 -1 2 -2 1 -2 2 -2 
2 -3 1 -2 2 0 2 -2 1 -2 2 -2 2 -2 1 -2 
2 -2 2 -2 2 -1 1 -2 2 -1 2 -2 1 -2 2 -2 
2 -3 1 -1 2 -2 2 -1 2 -1 1 -1 2 -2 2 -2 
1 -2 2 -2 2 -3 1 -2 2 -2 2 -2 1 -1 2 -2 
2 -3 2 -1 1 -2 2 -2 2 -1 1 -2 2 -1 2 -2 
1 -1 2 -2 2 -2 1 -1 2 -1 2 -2 2 -2 1 -3 
2 -2 2 -2 1 -2 2 -2 2 -1 1 -2 2 -3 2 -2 
2 -2 1 -2 2 -2 2 -3 1 -1 2 -2 2 -2 1 -2 
2 -1 2 -1 1 -2 2 -3 2 -2 2 -1 1 -1 2 -2 
2 -2 1 -2 2 -1 2 -2 1 -3 2 -1 2 -2 2 -1 
1 -2 2 -2 2 -2 1 -2 2 -2 2 -2 1 -2 2 -2 
2 -2 1 -2 2 -1 2 -2 2 -3 1 -2 2 -1 2 -2 
1 -2 2 -2 2 -2 1 -2 2 -2 2 -2 1 -1 2 -2 
2 -2 2 -1 1 -3 2 -1 2 -2 1 -3 2 -1 2 -2 
1 -2 2 -2 2 -2 2 -2 1 -1 2 -2 2 -2 1 -2 
2 -2 2 -3 1 -2 2 -1 2 -2 1 -2 2 -2 2 -1 
2 -2 1 -2 2 -2 2 -2 1 -1 2 -1 2 -1 1 -2 
2 -1 2 -1 2 -2 1 -1 2 -2 2 -2 1 -1 2 -2 
2 -2 1 -2 2 -2 2 -2 1 -1 2 -1 2 -2 2 -2 
1 -2 2 -2 2 -3 1 -2 2 -1 2 -2 1 -2 2 -2 
2 -2 1 -2 2 -2 2 -3 2 -1 1 -2 2 -2 2 -1 
1 -1 2 -2 2 -2 1 -2 2 -2 2 -1 2 -2 1 -2 
2 -2 2 -3 1 -1 2 -2 2 -1 1 -2 2 -2 2 -2 
1 -2 2 -2 2 -1 2 -2 1 -2 2 -2 2 -2 1 -1 
2 -3 2 -2 1 -2 2 -2 2 -2 1 -1 2 -2 2 -2 
2 -1 1 -3 2 -2 2 -1 1 -2 2 -2 2 -2 1 -2 
2 -3 2 -2 2 -2 1 -1 2 -2 2 -3 1 -1 2 -2 
2 -2 1 -2 2 -2 2 -1 1 -2 2 -1 2 -2 2 -2 
1 -2 2 -2 2 -1 1 -3 2 -1 2 -2 1 -2 2 -1 
2 -2 2 -2 1 -2 2 -3 2 -2 1 -2 2 -2 2 -1 
1 -2 2 -2 2 -1 1 -2 2 -2 2 -2 2 -1 1 -2 
2 -2 2 -2 1 -1 2 -2 2 -2 1 -1 2 -2 2 -2 
1 -2 2 -1 2 -2 2 -1 1 -1 2 -2 2 -2 1 -2 
2 -1 2 -1 1 -1 3141 2267 300 MP stroke
2 -2 2 -2 2 -2 1 -2 2 -2 2 -2 1 -2 2 -2 
2 -2 1 -2 2 -2 2 -2 1 -1 2 -3 2 -2 2 -2 
1 -2 2 -2 2 -1 1 -2 2 -2 2 -1 1 -2 2 -1 
2 -2 2 -3 1 -1 2 -2 2 -2 1 -2 2 -2 2 -2 
1 -1 2 -2 2 -2 1 -2 2 -1 2 -1 2 -3 1 -2 
2 -1 2 -2 1 -2 2 -2 2 -2 1 -2 2 -1 2 -3 
1 -2 2 -2 2 -2 2 -1 1 -2 2 -3 2 -2 1 -1 
2 -2 2 -2 1 -1 2 -2 2 -2 2 -1 1 -2 2 -2 
2 -2 1 -2 2 -2 2 -1 1 -2 2 -2 2 -3 1 -1 
2 -1 2 -1 2 -2 1 -2 2 -1 2 -2 1 -1 2 -2 
2 -2 1 -1 2 -2 2 -2 1 -3 2 -1 2 -2 2 -2 
1 -1 2 -3 2 -2 1 -2 2 -3 2 -2 1 -2 2 -1 
2 -2 2 -2 1 -2 2 -2 2 -1 1 -2 2 -2 2 -1 
1 -2 2 -1 2 -3 1 -1 2 -2 2 -2 2 -2 1 -1 
2 -2 2 -1 1 -3 2 -1 2 -2 1 -2 2 -2 2 -1 
2 -2 1 -3 2 -3 2 -2 1 -2 2 -2 2 -2 1 -2 
2 -3 2 -1 1 -1 2 -1 2 -3 2 -2 1 -1 2 -2 
2 -2 1 -1 2 -1 2 -3 1 -1 2 -2 2 -2 1 -1 
2 -1 2 -2 2 -2 1 -2 2 -2 2 -3 1 -1 2 -2 
2 -1 1 -2 2 -2 2 -3 2 -2 1 -2 2 -2 2 -1 
1 -1 2 -3 2 -2 1 -3 2 -1 2 -1 1 -2 2 -1 
2 -2 2 -2 1 -2 2 -2 2 -1 1 -1 2 -2 2 -2 
1 -2 2 -2 2 -2 1 -2 2 -1 2 -1 2 -2 1 -1 
2 -2 2 -2 1 -1 2 -2 2 -2 1 -1 2 -2 2 -2 
2 -2 1 -2 2 -2 2 -2 1 -2 2 -2 2 -1 1 -2 
2 -2 2 -1 1 -3 2 -2 2 -2 2 -1 1 -2 2 -2 
2 -2 1 -2 2 -2 2 -1 1 -3 2 -1 2 -2 2 -2 
1 -2 2 -2 2 -1 1 -2 2 -2 2 -2 1 -2 2 -1 
2 -2 1 -2 2 -3 2 -2 2 -2 1 -2 2 -2 2 -1 
1 -3 2 -2 2 -3 1 -1 2 -3 2 -1 1 -3 2 -2 
2 -2 2 -2 1 -2 2 -2 2 -2 1 -2 2 -1 2 -1 
1 -2 2 -2 2 -3 2 -2 1 -2 2 -2 2 -2 1 -2 
2 -2 2 -2 1 -2 2 -1 2 -2 1 -2 2 -1 2 -3 
2 -3 1 -1 2 -2 2 -2 1 -3 2 -2 2 -1 1 -2 
2 -2 2 -2 2 -2 1 -1 2 -2 2 -2 1 -2 2 -3 
2 -1 1 -2 2 -1 2 -1 1 -2 2 -1 2 -2 2 -3 
1 -3 2 -2 2 -1 1 -3 2 -2 2 -2 1 -1 2 -2 
2 -2 1 -2 2 -3 2634 2823 300 MP stroke
2 -2 2 -1 1 -1 2 -2 2 -2 1 -2 2 -2 2 -2 
1 -2 2 -1 2 -2 2 -1 1 -2 2 -2 2 -2 1 -2 
2 -2 2 -2 1 -1 2 -2 2 -2 1 -3 2 -1 2 -1 
2 -1 1 -2 2 -2 2 -2 1 -2 2 -1 2 -2 1 -2 
2 -2 2 -1 1 -1 2 -2 2 -2 2 -1 1 -3 2 -2 
2 -3 1 -2 2 -2 2 -3 1 -1 2 -2 2 -3 2 -1 
1 -2 2 -2 2 -1 1 -1 2 -1 2 -2 1 -1 2 -2 
2 -2 1 -2 2 -2 2 -2 2 -2 1 -2 2 -1 2 -2 
1 0 2 -2 2 -1 1 -2 2 -2 2 -2 2 -2 1 -2 
2 -3 2 -2 1 -2 2 -2 2 -2 1 -1 2 -1 2 -2 
1 -2 2 -2 2 -2 2 -3 1 -1 2 -2 2 -2 1 -3 
2 -2 2 -3 1 -1 2 -2 2 -3 1 -2 2 -2 2 -2 
2 -1 1 -2 2 -2 2 -2 1 -2 2 -2 2 -2 1 -2 
2 -2 2 -2 2 -1 1 -2 2 -2 2 -2 1 -3 2 -2 
2 -2 1 0 2 -2 2 -3 1 -2 2 -2 2 -2 2 -1 
1 -2 2 -2 2 -2 1 -2 2 -1 2 -2 1 -2 2 -1 
2 -2 2 -2 1 -2 2 -1 2 -2 1 -1 2 -2 2 -2 
1 -2 2 -1 2 -3 1 -2 2 -1 2 -1 2 -2 1 -3 
2 -2 2 -2 1 -2 2 -2 2 -2 1 -2 2 -1 2 -2 
1 -2 2 -2 2 -2 2 -1 1 -2 2 -1 2 -2 1 -2 
2 -2 2 -1 1 -3 2 -2 2 -2 2 -1 1 -2 2 -2 
2 -3 1 -2 2 -2 2 -1 1 -1 2 -3 2 -2 1 -3 
2 -2 2 -2 2 -2 1 -2 2 -1 2 -2 1 -2 2 -3 
2 -2 1 -2 2 -1 2 -2 1 -1 2 -2 2 -1 2 -3 
1 -2 2 -2 2 -1 1 -2 2 -2 2 -1 1 -2 2 -2 
2 -2 2 -2 1 -3 2 -2 2 -2 1 -1 2 -2 2 -2 
1 -2 2 -1 2 -2 1 -1 2 -2 2 -2 2 -3 1 -1 
2 -2 2 -2 1 -2 2 -2 2 -2 1 -2 2 -3 2 -2 
2 -2 1 -1 2 -2 2 -1 1 -3 2 -2 2 -2 1 -2 
2 -2 2 -2 1 -2 2 -1 2 -2 2 -1 1 -2 2 -3 
2 -2 1 -2 2 -2 2 -2 1 -3 2 -1 2 -2 1 -2 
2 -2 2 -1 2 -1 1 -2 2 -2 2 -2 1 -2 2 -2 
2 -1 1 -2 2 -2 2 -1 2 -1 1 -2 2 -2 2 -2 
1 -2 2 -3 2 -2 1 -2 2 -1 2 -2 1 -2 2 -2 
2 -2 2 -1 1 -2 2 -2 2 -2 1 -1 2 -2 2 -2 
1 -2 2 -2 2 -1 2 -1 1 -1 2 -2 2 -2 1 -2 
2 -2 2 -1 1 -2 2 -3 2 -2 1 -2 2 -2 2 -2 
2 -3 1 -1 2 -2 2127 3377 300 MP stroke
2 -2 1 -2 2 -3 2 -1 1 -2 2 -2 2 -1 1 -3 
2 -2 2 -2 2 -2 1 -2 2 -1 2 -3 1 -1 2 -2 
2 -2 1 -2 2 -3 2 -2 2 -2 1 -2 2 -1 2 -2 
1 -2 2 -1 2 -2 1 -2 2 -2 2 -2 1 -2 2 -2 
2 -2 2 -2 1 -2 2 -1 2 -2 1 -1 2 -2 2 -2 
1 -2 2 -2 2 -2 1 -1 2 -2 2 -1 2 -1 1 -2 
2 -3 2 -2 1 -2 2 -2 2 -3 1 -1 2 -2 2 -2 
2 -3 1 -2 2 -1 2 -2 1 -1 2 -2 2 -1 1 -2 
2 -2 2 -2 1 -2 2 -3 2 -2 2 -1 1 -2 2 -1 
2 -3 1 -2 2 -1 2 -2 1 -2 2 -2 2 -1 2 -2 
1 -2 2 -2 2 -2 1 -2 2 -2 2 -1 1 -3 2 -2 
2 -3 1 -2 2 -1 2 -2 2 -2 1 -2 2 -2 2 -2 
1 -2 2 -2 2 -2 1 -2 2 -3 2 -1 1 -2 2 -1 
2 -3 2 -2 1 -2 2 -2 2 -1 1 -1 2 -2 2 -1 
1 -2 2 -3 2 -2 2 -2 1 -2 2 -2 2 -2 1 -2 
2 -2 2 -1 1 -1 2 -1 2 -1 1 -2 2 -3 2 -2 
2 -2 1 -3 2 -2 2 -2 1 -1 2 -3 2 -2 1 -2 
2 -2 2 -2 2 -2 1 -3 2 -2 2 -2 1 -2 2 -2 
2 -1 1 -1 2 -3 2 -2 1 -3 2 -2 2 -2 2 -2 
1 -2 2 -1 2 -2 1 -2 2 -2 2 -2 1 -1 2 -2 
2 -3 1 -1 2 -2 2 -3 2 -1 1 -2 2 -3 2 -2 
1 -2 2 -2 2 -2 1 -2 2 -2 2 -2 2 -2 1 -2 
2 -2 2 -2 1 -2 2 -2 2 -2 1 -3 2 -1 2 -2 
1 -2 2 -2 2 -2 2 -2 1 -1 2 -2 2 -1 1 -1 
2 -2 2 -3 1 -1 2 -2 2 -2 1 -2 2 -2 2 0 
2 -2 1 -2 2 -2 2 -3 1 -2 2 -2 2 -1 1 -1 
2 -2 2 -2 2 -2 1 -2 2 -2 2 -2 1 -2 2 -2 
2 -2 1 -1 2 -1 2 -2 1 -2 2 -2 2 -1 2 -1 
1 -3 2 -2 2 -2 1 -2 2 -1 2 -2 1 -2 2 -1 
2 -1 2 -2 1 -2 2 -1 2 -1 1 -3 2 -2 2 -2 
1 -1 2 -2 2 -2 1 -2 2 -2 2 -2 2 -3 1 -1 
2 -2 2 -2 1 -2 2 -2 2 -2 1 -2 2 -1 2 -2 
1 -1 2 -2 2 -2 2 -1 1 -2 2 -2 2 -3 1 -3 
2 -2 2 -3 1 -1 2 -2 2 -3 2 -1 1 -2 2 -1 
2 -1 1 -2 2 -2 2 -2 1 -2 2 -2 2 -2 1 -1 
2 -2 2 -3 2 -2 1 -3 2 -1 2 -1 1 -2 2 -2 
2 -2 1 -2 2 -1 2 -1 2 -2 1 -2 2 -1 2 -3 
1 -2 2 -2 2 -3 1620 3942 300 MP stroke
1 -1 2 -2 2 -2 1 -2 2 -1 2 -2 2 -2 1 -1 
2 -2 2 -2 1 -2 2 -1 2 -2 1 -2 2 -1 2 -2 
1 -2 2 -2 2 -2 2 -2 1 -2 2 -2 2 -2 1 -3 
2 -3 2 -1 1 -2 2 -2 2 -1 2 -2 1 -2 2 -1 
2 -3 1 -1 2 -3 2 -2 1 -2 2 -1 2 -2 1 -2 
2 -2 2 -3 2 -2 1 -2 2 -2 2 -2 1 -2 2 -1 
2 -2 1 -1 2 -1 2 -2 1 -2 2 -2 2 -3 2 -2 
1 -2 2 -2 2 -1 1 -1 2 -2 2 -3 1 -1 2 -3 
2 -3 2 -2 1 -1 2 -2 2 -1 1 -3 2 -1 2 -2 
1 -3 2 -1 2 -2 1 -1 2 -2 2 -2 2 -1 1 -2 
2 -2 2 -2 1 -2 2 -2 2 -2 1 -2 2 -1 2 -3 
2 -1 1 -2 2 -2 2 -2 1 -2 2 -2 2 -2 1 -2 
2 -3 2 -1 1 -2 2 -2 2 -1 2 -1 1 -2 2 -2 
2 -1 1 -1 2 -2 2 -2 1 -3 2 -2 2 -1 1 -1 
2 -1 2 -2 2 -3 1 -1 2 -3 2 -2 1 -1 2 -2 
2 -2 1 -2 2 -3 2 -2 2 -2 1 -2 2 -2 2 -2 
1 -2 2 -2 2 -2 1 -2 2 -3 2 -1 1 -2 2 -2 
2 -2 2 -1 1 -2 2 -1 2 -3 1 -2 2 -1 2 -1 
1 -2 2 -2 2 -1 2 -3 1 -3 2 -2 2 -1 1 -2 
2 -1 2 -2 1 -3 2 -2 2 -2 1 -2 2 -2 2 -2 
2 -1 1 -2 2 -2 2 -2 1 -1 2 -2 2 -2 1 -2 
2 -1 2 -3 1 -2 2 -2 2 -2 2 -2 1 0 2 -1 
2 -2 1 -1 2 -2 2 -2 1 -1 2 -2 2 -2 2 -2 
1 -1 2 -1 2 0 1 -1 2 -2 2 -2 1 -3 2 -2 
2 -1 1 -2 2 -2 2 -3 2 -2 1 -2 2 -2 2 -3 
1 -2 2 -1 2 -1 1 -3 2 -2 2 -2 1 -1 2 -2 
2 -2 2 -1 1 -2 2 0 2 -2 1 -2 2 -2 2 -1 
1 -2 2 -1 2 -2 2 -2 1 0 2 -2 2 -2 1 -3 
2 -2 2 -3 1 -2 2 -2 2 -2 1 0 2 -2 2 -2 
2 -2 1 -2 2 -2 2 -2 1 -1 2 -1 2 -3 1 -2 
2 -3 2 -2 2 -2 1 -2 2 -3 2 -1 1 -2 2 -1 
2 -2 1 0 2 0 2 -1 1 -2 2 -1 2 -2 2 -1 
1 -2 2 -1 2 -1 1 -1 2 -2 2 -2 1 -2 2 -1 
2 -1 1 0 2 0 2 -1 2 0 1 -1 2 0 2 -1 
1 -1 2 -1 2 0 1 -1 2 -1 2 -1 2 0 1 -1 
2 -1 2 0 1 -1 2 -1 2 0 1 -1 2 0 2 -1 
1 0 2 0 2 -1 2 0 1 -1 2 -2 2 -3 1 -2 
2 -1 2 -1 1 -1 1114 4446 300 MP stroke
2 -2 2 -2 2 0 1 -1 2 0 2 -1 1 0 2 -1 
2 0 1 0 2 0 2 0 1 0 2 0 2 -1 2 0 
1 0 2 0 2 0 1 0 2 -1 2 -1 1 -1 2 -1 
2 -2 1 -3 2 -3 2 -2 2 -1 1 -1 2 0 2 0 
1 0 2 0 2 0 1 0 2 0 2 0 2 0 1 0 
2 0 2 0 1 0 2 0 2 0 1 0 2 0 2 0 
1 0 2 0 2 0 2 0 1 0 2 -1 2 0 1 0 
2 0 2 0 1 0 2 0 2 0 1 0 2 0 2 0 
2 0 1 0 2 0 2 0 1 0 2 0 2 0 1 0 
2 0 2 0 2 0 1 0 2 0 2 0 1 0 2 0 
2 0 1 0 2 0 2 0 1 0 2 0 2 0 2 0 
1 0 2 0 2 0 1 0 2 0 2 0 1 0 2 0 
2 0 2 0 1 0 2 0 2 0 1 0 2 0 2 0 
1 0 2 0 2 0 1 0 2 0 2 0 2 -1 1 0 
2 0 2 -1 1 0 2 -1 2 0 1 -1 2 -1 2 -1 
1 0 2 -1 2 -2 2 -1 1 -1 2 -1 2 -1 1 -2 
2 -2 2 -1 1 -1 2 -1 2 0 2 -2 1 -2 2 -2 
2 -2 1 -1 2 -1 2 -1 1 0 2 -1 2 0 1 -1 
2 -1 2 -1 2 -2 1 -2 2 -2 2 -2 1 -1 2 -1 
2 -2 1 -1 2 -1 2 0 1 0 848 4520 158 MP stroke
gr

c10
0 sg
%%IncludeResource: font Helvetica
/Helvetica /ISOLatin1Encoding 166.667 FMSR

 818 4587 mt 
( ) s
5056  631 mt 
( ) s
12.5 w
%%IncludeResource: font Symbol
/Symbol /ISOLatin1Encoding 125 FMSR

4108 2245 mt 
(D) s
4184 2245 mt 
(g) s
%%IncludeResource: font Helvetica-Bold
/Helvetica-Bold /ISOLatin1Encoding 125 FMSR

4235 2245 mt 
( = 0 J/m) s
%%IncludeResource: font Helvetica-Bold
/Helvetica-Bold /ISOLatin1Encoding 100 FMSR

4697 2183 mt 
(2) s
gs 3783 2068 1191 950 rc
18.75 w
c8
250 0 3833 2197 2 MP stroke
gr

18.75 w
c8
0 sg
%%IncludeResource: font Symbol
/Symbol /ISOLatin1Encoding 125 FMSR

4108 2475 mt 
(D) s
4184 2475 mt 
(g) s
%%IncludeResource: font Helvetica-Bold
/Helvetica-Bold /ISOLatin1Encoding 125 FMSR

4235 2475 mt 
( = 5 J/m) s
%%IncludeResource: font Helvetica-Bold
/Helvetica-Bold /ISOLatin1Encoding 100 FMSR

4697 2413 mt 
(2) s
gs 3783 2068 1191 950 rc
c9
250 0 3833 2427 2 MP stroke
gr

c9
0 sg
%%IncludeResource: font Symbol
/Symbol /ISOLatin1Encoding 125 FMSR

4108 2705 mt 
(D) s
4184 2705 mt 
(g) s
%%IncludeResource: font Helvetica-Bold
/Helvetica-Bold /ISOLatin1Encoding 125 FMSR

4235 2705 mt 
( = 10 J/m) s
%%IncludeResource: font Helvetica-Bold
/Helvetica-Bold /ISOLatin1Encoding 100 FMSR

4766 2643 mt 
(2) s
gs 3783 2068 1191 950 rc
250 0 3833 2657 2 MP stroke
gr

%%IncludeResource: font Symbol
/Symbol /ISOLatin1Encoding 125 FMSR

4108 2935 mt 
(D) s
4184 2935 mt 
(g) s
%%IncludeResource: font Helvetica-Bold
/Helvetica-Bold /ISOLatin1Encoding 125 FMSR

4235 2935 mt 
( = 12.5 J/m) s
%%IncludeResource: font Helvetica-Bold
/Helvetica-Bold /ISOLatin1Encoding 100 FMSR

4870 2873 mt 
(2) s
gs 3783 2068 1191 950 rc
c10
250 0 3833 2887 2 MP stroke
12.5 w
gr

12.5 w
c10

end %%Color Dict

eplot
%%EndObject

epage
end

showpage

%%Trailer
%%EOF
