%!PS-Adobe-3.0 EPSF-3.0
%%Creator: MATLAB, The MathWorks, Inc. Version 7.12.0.635 (R2011a). Operating System: Linux 2.6.32-358.6.2.el6.x86_64 #1 SMP Thu May 16 11:21:38 CDT 2013 x86_64.
%%Title: ./Discharge_Rates_25ptavg.eps
%%CreationDate: 08/15/2013  12:21:49
%%DocumentNeededFonts: Helvetica-Bold
%%+ Helvetica
%%DocumentProcessColors: Cyan Magenta Yellow Black
%%LanguageLevel: 2
%%Pages: 1
%%BoundingBox:    24    69   599   605
%%EndComments

%%BeginProlog
% MathWorks dictionary
/MathWorks 160 dict begin
% definition operators
/bdef {bind def} bind def
/ldef {load def} bind def
/xdef {exch def} bdef
/xstore {exch store} bdef
% operator abbreviations
/c  /clip ldef
/cc /concat ldef
/cp /closepath ldef
/gr /grestore ldef
/gs /gsave ldef
/mt /moveto ldef
/np /newpath ldef
/cm /currentmatrix ldef
/sm /setmatrix ldef
/rm /rmoveto ldef
/rl /rlineto ldef
/s {show newpath} bdef
/sc {setcmykcolor} bdef
/sr /setrgbcolor ldef
/sg /setgray ldef
/w /setlinewidth ldef
/j /setlinejoin ldef
/cap /setlinecap ldef
/rc {rectclip} bdef
/rf {rectfill} bdef
% page state control
/pgsv () def
/bpage {/pgsv save def} bdef
/epage {pgsv restore} bdef
/bplot /gsave ldef
/eplot {stroke grestore} bdef
% orientation switch
/portraitMode 0 def /landscapeMode 1 def /rotateMode 2 def
% coordinate system mappings
/dpi2point 0 def
% font control
/FontSize 0 def
/FMS {/FontSize xstore findfont [FontSize 0 0 FontSize neg 0 0]
  makefont setfont} bdef
/reencode {exch dup where {pop load} {pop StandardEncoding} ifelse
  exch dup 3 1 roll findfont dup length dict begin
  { 1 index /FID ne {def}{pop pop} ifelse } forall
  /Encoding exch def currentdict end definefont pop} bdef
/isroman {findfont /CharStrings get /Agrave known} bdef
/FMSR {3 1 roll 1 index dup isroman {reencode} {pop pop} ifelse
  exch FMS} bdef
/csm {1 dpi2point div -1 dpi2point div scale neg translate
 dup landscapeMode eq {pop -90 rotate}
  {rotateMode eq {90 rotate} if} ifelse} bdef
% line types: solid, dotted, dashed, dotdash
/SO { [] 0 setdash } bdef
/DO { [.5 dpi2point mul 4 dpi2point mul] 0 setdash } bdef
/DA { [6 dpi2point mul] 0 setdash } bdef
/DD { [.5 dpi2point mul 4 dpi2point mul 6 dpi2point mul 4
  dpi2point mul] 0 setdash } bdef
% macros for lines and objects
/L {lineto stroke} bdef
/MP {3 1 roll moveto 1 sub {rlineto} repeat} bdef
/AP {{rlineto} repeat} bdef
/PDlw -1 def
/W {/PDlw currentlinewidth def setlinewidth} def
/PP {closepath eofill} bdef
/DP {closepath stroke} bdef
/MR {4 -2 roll moveto dup  0 exch rlineto exch 0 rlineto
  neg 0 exch rlineto closepath} bdef
/FR {MR stroke} bdef
/PR {MR fill} bdef
/L1i {{currentfile picstr readhexstring pop} image} bdef
/tMatrix matrix def
/MakeOval {newpath tMatrix currentmatrix pop translate scale
0 0 1 0 360 arc tMatrix setmatrix} bdef
/FO {MakeOval stroke} bdef
/PO {MakeOval fill} bdef
/PD {currentlinewidth 2 div 0 360 arc fill
   PDlw -1 eq not {PDlw w /PDlw -1 def} if} def
/FA {newpath tMatrix currentmatrix pop translate scale
  0 0 1 5 -2 roll arc tMatrix setmatrix stroke} bdef
/PA {newpath tMatrix currentmatrix pop	translate 0 0 moveto scale
  0 0 1 5 -2 roll arc closepath tMatrix setmatrix fill} bdef
/FAn {newpath tMatrix currentmatrix pop translate scale
  0 0 1 5 -2 roll arcn tMatrix setmatrix stroke} bdef
/PAn {newpath tMatrix currentmatrix pop translate 0 0 moveto scale
  0 0 1 5 -2 roll arcn closepath tMatrix setmatrix fill} bdef
/vradius 0 def /hradius 0 def /lry 0 def
/lrx 0 def /uly 0 def /ulx 0 def /rad 0 def
/MRR {/vradius xdef /hradius xdef /lry xdef /lrx xdef /uly xdef
  /ulx xdef newpath tMatrix currentmatrix pop ulx hradius add uly
  vradius add translate hradius vradius scale 0 0 1 180 270 arc 
  tMatrix setmatrix lrx hradius sub uly vradius add translate
  hradius vradius scale 0 0 1 270 360 arc tMatrix setmatrix
  lrx hradius sub lry vradius sub translate hradius vradius scale
  0 0 1 0 90 arc tMatrix setmatrix ulx hradius add lry vradius sub
  translate hradius vradius scale 0 0 1 90 180 arc tMatrix setmatrix
  closepath} bdef
/FRR {MRR stroke } bdef
/PRR {MRR fill } bdef
/MlrRR {/lry xdef /lrx xdef /uly xdef /ulx xdef /rad lry uly sub 2 div def
  newpath tMatrix currentmatrix pop ulx rad add uly rad add translate
  rad rad scale 0 0 1 90 270 arc tMatrix setmatrix lrx rad sub lry rad
  sub translate rad rad scale 0 0 1 270 90 arc tMatrix setmatrix
  closepath} bdef
/FlrRR {MlrRR stroke } bdef
/PlrRR {MlrRR fill } bdef
/MtbRR {/lry xdef /lrx xdef /uly xdef /ulx xdef /rad lrx ulx sub 2 div def
  newpath tMatrix currentmatrix pop ulx rad add uly rad add translate
  rad rad scale 0 0 1 180 360 arc tMatrix setmatrix lrx rad sub lry rad
  sub translate rad rad scale 0 0 1 0 180 arc tMatrix setmatrix
  closepath} bdef
/FtbRR {MtbRR stroke } bdef
/PtbRR {MtbRR fill } bdef
/stri 6 array def /dtri 6 array def
/smat 6 array def /dmat 6 array def
/tmat1 6 array def /tmat2 6 array def /dif 3 array def
/asub {/ind2 exch def /ind1 exch def dup dup
  ind1 get exch ind2 get sub exch } bdef
/tri_to_matrix {
  2 0 asub 3 1 asub 4 0 asub 5 1 asub
  dup 0 get exch 1 get 7 -1 roll astore } bdef
/compute_transform {
  dmat dtri tri_to_matrix tmat1 invertmatrix 
  smat stri tri_to_matrix tmat2 concatmatrix } bdef
/ds {stri astore pop} bdef
/dt {dtri astore pop} bdef
/db {2 copy /cols xdef /rows xdef mul dup 3 mul string
  currentfile 
  3 index 0 eq {/ASCIIHexDecode filter}
  {/ASCII85Decode filter 3 index 2 eq {/RunLengthDecode filter} if }
  ifelse exch readstring pop
  dup 0 3 index getinterval /rbmap xdef
  dup 2 index dup getinterval /gbmap xdef
  1 index dup 2 mul exch getinterval /bbmap xdef pop pop}bdef
/it {gs np dtri aload pop moveto lineto lineto cp c
  cols rows 8 compute_transform 
  rbmap gbmap bbmap true 3 colorimage gr}bdef
/il {newpath moveto lineto stroke}bdef
currentdict end def
%%EndProlog

%%BeginSetup
MathWorks begin

0 cap

end
%%EndSetup

%%Page: 1 1
%%BeginPageSetup
%%PageBoundingBox:    24    69   599   605
MathWorks begin
bpage
%%EndPageSetup

%%BeginObject: obj1
bplot

/dpi2point 8.33333 def
portraitMode -0158 5475 csm

  366   426  4786  4473 rc
84 dict begin %Colortable dictionary
/c0 { 0.000000 0.000000 0.000000 sr} bdef
/c1 { 1.000000 1.000000 1.000000 sr} bdef
/c2 { 0.900000 0.000000 0.000000 sr} bdef
/c3 { 0.000000 0.820000 0.000000 sr} bdef
/c4 { 0.000000 0.000000 0.800000 sr} bdef
/c5 { 0.910000 0.820000 0.320000 sr} bdef
/c6 { 1.000000 0.260000 0.820000 sr} bdef
/c7 { 0.000000 0.820000 0.820000 sr} bdef
c0
1 j
1 sg
   0    0 5651 5651 rf
12.5 w
0 3956 4237 0 0 -3956 848 4520 4 MP
PP
-4237 0 0 3956 4237 0 0 -3956 848 4520 5 MP stroke
8.33333 w
DO
SO
12.5 w
0.1 sg
 848 4520 mt 5085 4520 L
 848  564 mt 5085  564 L
 848 4520 mt  848  564 L
5085 4520 mt 5085  564 L
 848 4520 mt 5085 4520 L
 848 4520 mt  848  564 L
 848 4520 mt  848 4456 L
 848  564 mt  848  628 L
%%IncludeResource: font Helvetica
/Helvetica /ISOLatin1Encoding 133.333 FMSR

 811 4667 mt 
(0) s
1789 4520 mt 1789 4456 L
1789  564 mt 1789  628 L
1752 4667 mt 
(5) s
2731 4520 mt 2731 4456 L
2731  564 mt 2731  628 L
2657 4667 mt 
(10) s
3672 4520 mt 3672 4456 L
3672  564 mt 3672  628 L
3598 4667 mt 
(15) s
4614 4520 mt 4614 4456 L
4614  564 mt 4614  628 L
4540 4667 mt 
(20) s
 848 4520 mt  911 4520 L
5085 4520 mt 5021 4520 L
 750 4569 mt 
(0) s
 848 3860 mt  911 3860 L
5085 3860 mt 5021 3860 L
 639 3909 mt 
(0.2) s
 848 3201 mt  911 3201 L
5085 3201 mt 5021 3201 L
 639 3250 mt 
(0.4) s
 848 2542 mt  911 2542 L
5085 2542 mt 5021 2542 L
 639 2591 mt 
(0.6) s
 848 1883 mt  911 1883 L
5085 1883 mt 5021 1883 L
 639 1932 mt 
(0.8) s
 848 1224 mt  911 1224 L
5085 1224 mt 5021 1224 L
 750 1273 mt 
(1) s
 848  564 mt  911  564 L
5085  564 mt 5021  564 L
 639  613 mt 
(1.2) s
 848 4520 mt 5085 4520 L
 848  564 mt 5085  564 L
 848 4520 mt  848  564 L
5085 4520 mt 5085  564 L
gs 848 565 4238 3956 rc
18.75 w
/c8 { 0.000000 0.000000 1.000000 sr} bdef
c8
2 -8 2 -12 2 0 2 4 1 8 2 0 2 16 2 0 
2 4 2 20 2 -4 2 0 1 8 2 9 2 4 2 12 
2 12 2 8 2 0 2 8 2 -4 1 16 2 4 2 4 
2 16 2 12 2 12 2 -4 2 -12 1 -4 2 4 2 0 
2 -8 2 -12 2 -16 2 0 2 -4 2 4 1 4 2 0 
2 0 2 -4 2 -4 2 4 2 -8 2 8 1 -28 2 -8 
2 0 2 -8 2 -13 2 -4 2 9 2 12 2 12 1 0 
2 0 2 4 2 4 2 0 2 0 2 20 2 8 1 4 
2 -12 2 -16 2 0 2 -8 2 20 2 4 2 4 2 8 
1 8 2 16 2 -8 2 12 2 -8 2 -4 2 -4 2 -12 
2 -16 1 0 2 12 2 12 2 4 2 -12 2 -20 2 -8 
2 -8 1 8 2 20 2 -4 2 4 2 -12 2 0 2 -4 
2 12 2 4 1 -20 2 16 2 8 2 4 2 -8 2 -4 
2 0 2 8 1 -4 2 -12 2 -12 2 12 2 12 2 4 
2 -8 2 4 2 4 1 -8 2 12 2 -16 2 -12 2 -4 
2 12 2 -16 2 4 1 4 2 -20 2 -4 2 -8 2 20 
2 12 2 -4 2 -8 2 28 1 4 2 -4 2 -16 2 0 
2 12 2 16 2 4 2 -12 1 -12 2 -20 2 20 2 8 
2 16 2 -24 2 12 2 0 2 8 1 0 2 -8 2 -4 
2 -8 2 -16 2 12 2 4 2 -36 2 0 1 12 2 8 
2 4 2 -16 2 -16 2 -9 2 13 2 16 1 28 2 12 
2 4 2 -12 2 8 2 0 2 12 2 -8 2 16 1 -4 
2 4 2 8 2 12 2 -8 2 12 2 4 2 4 1 -4 
2 0 2 12 2 16 2 12 2 0 2 -4 2 -4 2 -20 
1 -20 2 12 2 8 2 20 2 0 2 -20 2 -4 2 4 
1 12 2 16 2 4 2 5 2 12 2 4 2 20 2 8 
2 4 1 -4 2 4 2 -4 2 0 2 8 2 8 2 0 
2 12 1 12 2 -12 2 4 2 -12 2 -4 2 4 2 8 
2 12 2 -4 1 -12 2 0 2 4 2 0 2 -16 2 -12 
2 -20 2 8 2 16 1 -16 2 4 2 8 2 4 2 0 
2 0 2 -24 2 -8 1 0 2 -12 2 4 2 16 2 -4 
2 4 2 -12 2 0 2 16 1 0 2 -8 2 -20 2 4 
2 4 2 0 2 -21 2 -8 1 12 2 4 2 -8 2 0 
2 13 2 0 2 12 2 -8 2 8 1 12 2 4 2 -28 
2 16 2 4 2 -12 2 24 2 -16 1 -16 2 4 2 8 
2 4 2 0 2 28 2 52 2 12 2 -12 1 0 2 4 
2 4 2 -16 2 8 2 0 2 8 2 -24 1 -16 2 -12 
2 36 2 0 2 -12 4497 3972 300 MP stroke
2 8 2 -12 2 0 2 20 1 8 2 16 2 20 2 16 
2 -16 2 -44 2 0 2 4 2 -16 1 -12 2 -8 2 20 
2 8 2 20 2 0 2 20 2 8 1 8 2 -24 2 -4 
2 4 2 -8 2 -12 2 24 2 12 2 -8 1 -16 2 4 
2 -28 2 16 2 32 2 8 2 -8 2 37 1 28 2 -12 
2 -8 2 8 2 -8 2 16 2 -8 2 0 2 4 1 12 
2 0 2 0 2 0 2 8 2 -4 2 -20 2 32 1 4 
2 -4 2 24 2 -8 2 -16 2 -24 2 8 2 -36 2 -8 
1 8 2 4 2 -8 2 20 2 -4 2 40 2 12 2 0 
1 -4 2 -12 2 12 2 32 2 4 2 -12 2 -4 2 -20 
2 12 1 -4 2 -8 2 -4 2 -16 2 4 2 8 2 12 
2 4 2 36 1 0 2 -8 2 -12 2 0 2 -20 2 4 
2 -8 2 12 1 8 2 12 2 0 2 20 2 12 2 16 
2 0 2 5 2 4 1 20 2 8 2 12 2 8 2 -20 
2 4 2 0 2 -28 1 -4 2 16 2 -20 2 24 2 0 
2 12 2 4 2 0 2 24 1 -32 2 -28 2 -29 2 4 
2 25 2 -21 2 12 2 -20 1 -8 2 4 2 12 2 17 
2 28 2 12 2 -16 2 -4 2 24 1 -12 2 36 2 -24 
2 12 2 -12 2 0 2 16 2 4 1 16 2 12 2 4 
2 12 2 -16 2 36 2 16 2 25 2 -4 1 -17 2 0 
2 0 2 -16 2 -20 2 16 2 12 2 -16 2 16 1 -24 
2 32 2 -28 2 20 2 4 2 -20 2 4 2 8 1 -28 
2 12 2 -8 2 -12 2 -4 2 -12 2 -4 2 -4 2 16 
1 4 2 0 2 0 2 4 2 4 2 4 2 28 2 12 
1 29 2 4 2 20 2 -8 2 20 2 -4 2 -40 2 24 
2 48 1 0 2 -20 2 24 2 8 2 8 2 12 2 12 
2 -4 1 0 2 -4 2 16 2 -4 2 12 2 4 2 0 
2 13 2 -4 1 -33 2 0 2 12 2 -4 2 20 2 41 
2 -4 2 0 1 -8 2 12 2 -20 2 -4 2 -8 2 -9 
2 17 2 16 2 28 1 4 2 28 2 56 2 -20 2 16 
2 -44 2 -16 2 0 2 -8 1 -4 2 0 2 -12 2 -12 
2 4 2 20 2 20 2 36 1 45 2 32 2 8 2 8 
2 36 2 20 2 41 2 -5 2 9 1 -29 2 -36 2 32 
2 -16 2 40 2 0 2 -16 2 29 1 40 2 8 2 32 
2 20 2 4 2 16 2 -24 2 -16 2 0 1 24 2 -12 
2 -4 2 -20 2 -24 2 -12 2 -20 2 -12 1 40 2 -12 
2 -16 2 8 2 12 2 12 2 28 2 8 2 -20 1 0 
2 8 2 -8 2 -36 3934 3074 300 MP stroke
2 -37 2 37 2 16 2 -24 1 -33 2 17 2 0 2 -8 
2 0 2 -9 2 37 2 36 2 -8 1 20 2 16 2 12 
2 -40 2 -24 2 -4 2 16 2 -4 2 -8 1 4 2 -16 
2 8 2 -12 2 -16 2 44 2 20 2 -16 1 -8 2 24 
2 40 2 24 2 -32 2 -20 2 -12 2 24 2 32 1 0 
2 8 2 37 2 28 2 32 2 -4 2 4 2 20 1 4 
2 44 2 45 2 72 2 20 2 -16 2 -8 2 36 2 37 
1 28 2 -8 2 -20 2 56 2 20 2 32 2 -20 2 -20 
1 -8 2 -20 2 -4 2 8 2 -24 2 -8 2 0 2 4 
2 -8 1 8 2 -20 2 -12 2 8 2 -17 2 21 2 20 
2 4 1 -16 2 0 2 16 2 28 2 32 2 -40 2 0 
2 48 2 12 1 45 2 4 2 20 2 40 2 52 2 37 
2 16 2 24 2 -20 1 12 2 32 2 -4 2 4 2 0 
2 -24 2 8 2 -16 1 20 2 20 2 -4 2 -8 2 44 
2 -28 2 -44 2 12 2 52 1 48 2 33 2 -33 2 0 
2 33 2 -12 2 56 2 56 1 24 2 0 2 49 2 12 
2 24 2 32 2 28 2 113 2 60 1 89 2 28 2 24 
2 0 2 41 2 60 2 85 2 4 1 48 2 16 2 52 
2 24 2 -24 2 24 2 -4 2 25 2 64 1 28 2 20 
2 -4 2 28 2 57 2 -4 2 -48 2 -77 1 -68 2 24 
2 60 2 36 2 73 2 16 2 -20 2 12 2 -69 1 -20 
2 -28 2 -64 2 28 2 28 2 -24 2 -28 2 -65 2 -64 
1 -69 2 77 2 28 2 -28 2 24 2 8 2 12 2 0 
1 -12 2 -16 2 -16 2 -8 2 12 2 20 2 16 2 89 
2 20 1 48 2 69 2 8 2 -41 2 13 2 8 2 56 
2 20 1 20 2 -56 2 -8 2 28 2 -32 2 -16 2 12 
2 36 2 -52 1 -37 2 29 2 28 2 -8 2 -24 2 -21 
2 -60 2 -4 1 -36 2 -20 2 -33 2 21 2 44 2 24 
2 0 2 -4 2 12 1 -24 2 -36 2 -12 2 -33 2 -20 
2 16 2 -48 2 24 1 -48 2 -28 2 -81 2 -52 2 16 
2 -36 2 -24 2 -12 2 56 1 24 2 77 2 20 2 -12 
2 -21 2 -20 2 12 2 0 2 25 1 -33 2 -76 2 -20 
2 -32 2 -4 2 60 2 72 2 81 1 40 2 44 2 53 
2 -57 2 29 2 40 2 -16 2 -65 2 -4 1 -60 2 28 
2 -40 2 -16 2 0 2 28 2 32 2 32 1 69 2 52 
2 97 2 129 2 28 2 -53 2 -72 2 -36 2 -24 1 -29 
2 4 2 41 2 -25 2 -56 2 0 2 48 2 8 1 29 
2 0 2 0 2 24 3371 1025 300 MP stroke
2 24 2 -28 2 20 2 16 2 4 1 24 2 0 2 -4 
2 -4 2 28 2 61 2 16 2 -20 1 -20 2 -65 2 -32 
2 -20 2 32 2 28 2 -16 2 -40 2 0 1 -44 2 -4 
2 -29 2 -8 2 24 2 -56 2 -97 2 -84 2 -40 1 -41 
2 -92 2 -4 2 -44 2 -29 2 -36 2 16 2 53 1 56 
2 32 2 0 2 8 2 8 2 -32 2 4 2 -36 2 32 
1 8 2 -20 2 8 2 -16 2 48 2 73 2 40 2 16 
1 -24 2 -8 2 16 2 56 2 -28 2 16 2 -12 2 -20 
2 -12 1 4 2 24 2 28 2 8 2 28 2 -12 2 49 
2 8 1 -32 2 20 2 -28 2 20 2 -33 2 49 2 32 
2 4 2 56 1 57 2 -20 2 -21 2 0 2 25 2 4 
2 52 2 -24 1 -12 2 0 2 -41 2 -36 2 28 2 33 
2 -53 2 -36 2 28 1 4 2 -16 2 -28 2 -24 2 -85 
2 -48 2 -32 2 20 2 0 1 -28 2 32 2 8 2 -20 
2 40 2 -4 2 69 2 -9 1 9 2 8 2 -21 2 -40 
2 -24 2 8 2 16 2 20 2 12 1 -12 2 16 2 61 
2 32 2 24 2 16 2 -80 2 -20 1 44 2 -40 2 -25 
2 -16 2 -40 2 -56 2 -49 2 21 2 12 1 36 2 40 
2 32 2 -12 2 16 2 -8 2 -20 2 20 1 41 2 -29 
2 -68 2 -48 2 -8 2 32 2 28 2 16 2 -24 1 -24 
2 -20 2 16 2 -16 2 -24 2 28 2 -24 2 -17 1 -24 
2 -12 2 -32 2 48 2 20 2 -12 2 4 2 0 2 -36 
1 32 2 49 2 72 2 48 2 -20 2 4 2 -12 2 8 
2 -4 1 41 2 -41 2 16 2 16 2 -40 2 -20 2 40 
2 -12 1 0 2 37 2 -5 2 -28 2 20 2 -4 2 -48 
2 40 2 -36 1 -20 2 -36 2 -28 2 20 2 16 2 -16 
2 -24 2 48 1 -16 2 56 2 24 2 24 2 13 2 68 
2 -32 2 32 2 28 1 -48 2 -44 2 -45 2 -4 2 4 
2 -28 2 -52 2 40 1 28 2 48 2 41 2 24 2 -40 
2 -41 2 37 2 12 2 32 1 -16 2 -44 2 -21 2 16 
2 -32 2 -56 2 -48 2 -49 1 49 2 12 2 84 2 -12 
2 -28 2 48 2 37 2 -49 2 -56 1 -28 2 -16 2 -29 
2 33 2 -4 2 -21 2 -12 2 0 2 29 1 28 2 28 
2 -28 2 0 2 44 2 32 2 24 2 -24 1 24 2 -24 
2 0 2 4 2 32 2 17 2 56 2 28 2 -8 1 -16 
2 -12 2 -20 2 56 2 12 2 -12 2 -16 2 0 1 -8 
2 4 2 8 2 -20 2 0 2 -44 2 8 2 44 2 12 
1 8 2 32 2 49 2808 1061 300 MP stroke
2 -29 2 -40 2 -12 2 52 2 8 1 -48 2 -4 2 24 
2 24 2 33 2 -29 2 -16 2 -64 2 36 1 -56 2 44 
2 20 2 12 2 57 2 -8 2 -41 2 -20 1 20 2 -40 
2 -28 2 12 2 16 2 -8 2 -36 2 4 2 32 1 24 
2 -4 2 -44 2 -40 2 48 2 36 2 32 2 -40 2 16 
1 -52 2 -36 2 -12 2 -41 2 -8 2 -16 2 -8 2 -32 
1 40 2 8 2 20 2 24 2 17 2 -17 2 -4 2 -4 
2 -40 1 -4 2 20 2 -16 2 -8 2 -12 2 0 2 44 
2 8 1 45 2 16 2 -16 2 20 2 40 2 -16 2 -20 
2 -8 2 -12 1 -16 2 -53 2 4 2 -36 2 16 2 -36 
2 -8 2 40 1 0 2 12 2 16 2 -24 2 -32 2 -12 
2 16 2 12 2 -64 1 -12 2 -8 2 52 2 -8 2 28 
2 32 2 20 2 -4 1 12 2 89 2 -28 2 0 2 -20 
2 36 2 4 2 -8 2 -4 1 -32 2 -21 2 17 2 -4 
2 -29 2 -68 2 -16 2 8 2 0 1 8 2 -69 2 -44 
2 44 2 21 2 -41 2 -40 2 4 1 -68 2 -20 2 8 
2 28 2 -8 2 -36 2 8 2 32 2 -8 1 12 2 -12 
2 -20 2 -12 2 28 2 -8 2 24 2 28 1 28 2 28 
2 24 2 -52 2 -36 2 4 2 8 2 -20 2 -8 1 20 
2 4 2 8 2 -4 2 60 2 -24 2 -4 2 -12 1 -40 
2 8 2 60 2 49 2 12 2 16 2 8 2 8 2 12 
1 -48 2 -33 2 -28 2 4 2 45 2 40 2 60 2 65 
1 32 2 0 2 -32 2 -4 2 -21 2 9 2 -9 2 45 
2 60 1 -24 2 -24 2 -24 2 -28 2 -13 2 -24 2 -4 
2 0 2 36 1 53 2 32 2 -8 2 -8 2 -36 2 -28 
2 -69 2 -36 1 -32 2 -29 2 -40 2 8 2 8 2 -80 
2 -49 2 -20 2 16 1 -12 2 8 2 29 2 64 2 16 
2 -32 2 -36 2 24 1 -28 2 0 2 36 2 -4 2 -12 
2 -36 2 24 2 20 2 8 1 -4 2 44 2 -8 2 16 
2 73 2 32 2 4 2 -8 1 -36 2 12 2 -16 2 -8 
2 8 2 4 2 -4 2 -45 2 8 1 -16 2 -12 2 -12 
2 36 2 33 2 0 2 -17 2 29 1 12 2 12 2 -4 
2 -53 2 -28 2 -24 2 -8 2 -8 2 60 1 8 2 -32 
2 -32 2 -4 2 16 2 81 2 -12 2 -13 2 8 1 -32 
2 -24 2 -20 2 4 2 16 2 28 2 -4 2 45 1 8 
2 48 2 36 2 12 2 40 2 5 2 56 2 24 2 8 
1 20 2 -28 2 20 2 4 2 -28 2 40 2 16 2 -24 
1 8 2 -12 2 -8 2245 1130 300 MP stroke
2 -20 2 -48 2 -37 2 -24 2 -52 2 24 1 -64 2 -53 
2 25 2 -33 2 16 2 -8 2 -16 2 -12 1 4 2 24 
2 0 2 16 2 25 2 12 2 20 2 16 2 4 1 28 
2 0 2 12 2 57 2 0 2 32 2 -8 2 -28 1 12 
2 28 2 -4 2 -12 2 -24 2 16 2 -29 2 -12 2 -16 
1 24 2 -28 2 -40 2 -68 2 -17 2 -60 2 32 2 -4 
2 -24 1 20 2 0 2 -32 2 24 2 -16 2 40 2 -28 
2 16 1 12 2 8 2 -8 2 4 2 12 2 21 2 20 
2 0 2 -24 1 -8 2 52 2 -12 2 8 2 48 2 -36 
2 -28 2 36 1 32 2 -40 2 -8 2 12 2 48 2 16 
2 16 2 -24 2 -28 1 -24 2 60 2 -4 2 -20 2 -28 
2 -48 2 -8 2 -45 1 -8 2 -28 2 -12 2 -16 2 20 
2 -28 2 36 2 20 2 -80 1 -32 2 12 2 -8 2 -61 
2 -8 2 28 2 20 2 37 1 24 2 -12 2 -12 2 -37 
2 25 2 68 2 16 2 -24 2 -4 1 -16 2 -4 2 -24 
2 -45 2 25 2 8 2 -8 2 92 2 56 1 -20 2 -8 
2 20 2 -48 2 -60 2 -24 2 -12 2 -85 1 -24 2 -12 
2 16 2 4 2 -69 2 -20 2 89 2 68 2 57 1 48 
2 72 2 13 2 0 2 36 2 4 2 -32 2 -8 1 48 
2 12 2 16 2 89 2 60 2 0 2 -28 2 36 2 24 
1 28 2 -68 2 -12 2 48 2 20 2 -8 2 -92 2 -8 
1 -25 2 -32 2 4 2 85 2 -101 2 -16 2 -4 2 4 
2 -89 1 -12 2 16 2 -48 2 -8 2 52 2 57 2 12 
2 -4 1 12 2 44 2 20 2 20 2 53 2 -28 2 48 
2 12 2 0 1 -8 2 -12 2 -93 2 97 2 40 2 12 
2 36 2 89 2 20 1 -28 2 -20 2 -73 2 -36 2 -44 
2 28 2 -8 2 8 1 36 2 -24 2 -40 2 -36 2 44 
2 12 2 -24 2 20 2 -32 1 -16 2 28 2 -56 2 -49 
2 -64 2 -12 2 -32 2 -25 1 -72 2 32 2 69 2 -37 
2 45 2 -4 2 -13 2 -20 2 -20 1 12 2 16 2 -8 
2 -8 2 37 2 32 2 -36 2 40 1 20 2 32 2 36 
2 29 2 52 2 12 2 -40 2 -33 2 81 1 -20 2 -32 
2 48 2 -4 2 16 2 12 2 60 2 -28 1 -44 2 24 
2 -16 2 16 2 -52 2 -65 2 45 2 20 2 0 1 8 
2 -8 2 -48 2 -13 2 -12 2 77 2 52 2 4 2 40 
1 45 2 12 2 -40 2 -37 2 4 2 -52 2 24 2 4 
1 -24 2 24 2 -68 2 -8 2 0 2 -28 2 -17 2 -48 
2 -44 1 -16 2 8 1682 1335 300 MP stroke
2 20 2 -24 2 -89 2 -8 2 24 2 -8 1 -60 2 -48 
2 -4 2 8 2 48 2 40 2 12 2 65 2 32 1 -20 
2 12 2 16 2 8 2 20 2 -12 2 40 2 77 1 16 
2 -36 2 -41 2 -36 2 52 2 -8 2 -52 2 -20 2 20 
1 48 2 45 2 -45 2 -48 2 -60 2 -61 2 -24 2 8 
1 8 2 28 2 25 2 56 2 4 2 8 2 -8 2 -72 
2 -33 1 65 2 4 2 40 2 -4 2 -24 2 44 2 16 
2 20 2 33 1 4 2 56 2 36 2 -8 2 56 2 5 
2 -49 2 0 1 20 2 -36 2 -40 2 -16 2 -49 2 -12 
2 -4 2 -4 2 12 1 41 2 0 2 36 2 16 2 -32 
2 -53 2 -36 2 -64 1 -20 2 4 2 -33 2 49 2 4 
2 8 2 -20 2 0 2 -73 1 -16 2 0 2 12 2 61 
2 4 2 8 2 32 2 -28 1 -16 2 -4 2 -8 2 44 
2 12 2 36 2 69 2 56 2 12 1 -12 2 -12 2 -24 
2 0 2 -28 2 44 2 -28 2 56 1 105 2 48 2 -12 
2 -20 2 -28 2 40 2 4 2 20 2 24 1 -36 2 16 
2 -24 2 -32 2 -16 2 -45 2 -36 2 -16 2 16 1 36 
2 20 2 -16 2 28 2 -12 2 12 2 -12 2 -48 1 -48 
2 20 2 -32 2 64 2 -28 2 -12 2 -65 2 -28 2 69 
1 -24 2 -29 2 12 2 21 2 16 2 8 2 24 2 -12 
1 -28 2 -53 2 -32 2 -28 2 24 2 48 2 25 2 -53 
2 12 1 0 2 -12 2 -44 2 -4 2 32 2 73 2 -8 
2 -29 1 -4 2 49 2 16 2 -8 2 -24 2 -21 2 16 
2 0 2 -12 1 65 2 80 2 65 2 -12 2 -24 2 12 
2 20 2 -32 1 -53 2 4 2 16 2 -32 2 -32 2 -36 
2 20 2 24 2 8 1 8 2 24 2 61 2 0 2 -33 
2 -56 2 -4 2 32 2 -28 1 -28 2 -28 2 -49 2 12 
2 -12 2 16 2 21 2 4 1 32 2 16 2 12 2 -24 
2 -16 2 0 2 -4 2 -28 2 -33 1 -28 2 -52 2 -8 
2 48 2 36 2 12 2 -12 2 -12 1 -16 2 -16 2 28 
2 4 2 -24 2 -12 2 -4 2 4 2 -56 1 -73 2 -20 
2 40 2 69 2 -36 2 -41 2 49 2 24 1 0 2 -41 
2 -24 2 37 2 36 2 24 2 4 2 -12 2 -20 1 -16 
2 -8 2 -8 2 44 2 8 2 -40 2 -21 2 49 1 36 
2 40 2 16 2 -20 2 77 2 76 2 0 2 28 2 -36 
1 12 2 61 2 -25 2 -68 2 -32 2 -24 2 28 2 36 
2 4 1 -20 2 -40 2 -4 2 16 2 40 2 8 2 8 
2 53 1 0 2 4 1119 1065 300 MP stroke
2 -65 2 -40 2 -20 2 4 2 -61 2 4 2 -12 1 4 
2 -12 2 4 2 -40 2 0 2 16 2 40 2 41 1 -4 
2 32 2 -44 2 8 2 4 2 96 2 0 2 -20 2 8 
1 -20 2 77 2 28 2 -8 2 -81 2 -12 2 64 2 33 
1 -33 2 -8 2 17 2 0 2 -13 2 -56 2 -48 2 -49 
2 -4 1 -16 2 0 2 -32 2 -24 2 -52 2 -4 2 -16 
2 0 1 -37 2 -20 2 -32 2 -36 2 12 2 44 2 -32 
2 4 2 12 1 16 2 -8 2 56 2 8 2 53 2 44 
2 32 2 53 2 -12 1 24 2 -16 2 36 2 20 2 8 
2 16 2 -20 2 36 1 16 2 -20 2 0 2 8 2 -12 
2 36 2 25 2 4 2 -41 1 -36 2 -32 2 -8 2 -8 
2 -48 2 -17 2 8 2 13 1 -49 2 20 2 -36 2 -8 
2 4 2 -8 2 32 2 0 2 -12 1 -8 2 0 2 24 
2 4 2 -24 2 -16 2 -28 2 8 1 40 2 24 2 12 
2 -8 2 12 2 0 2 -12 2 24 2 12 1 -3 2 16 
2 -33 2 12 2 21 2 28 2 52 2 28 1 85 2 24 
2 56 2 -112 2 -145 2 -145 2 40 2 -19 2 14 1 -30 
2 -45 2 18 2 25 2 -97 2 -455 2 -780 2 -1516 1 -336 
848 4520 145 MP stroke
gr

18.75 w
c8
0.1 sg
%%IncludeResource: font Helvetica-Bold
/Helvetica-Bold /ISOLatin1Encoding 183.333 FMSR

2614 4841 mt 
(Time [s]) s
 559 3499 mt  -90 rotate
(Mass Flow Rate [kg/s]) s
90 rotate
gs 848 565 4238 3956 rc
/c9 { 1.000000 0.000000 0.000000 sr} bdef
c9
2 403 2 20 2 -49 2 -49 2 -32 2 -6 2 -5 2 9 
1 17 2 4 2 8 2 -18 2 8 2 9 2 -25 2 -12 
2 -8 1 -4 2 8 2 8 2 20 2 29 2 4 2 8 
2 -4 1 4 2 16 2 -8 2 12 2 0 2 -4 2 0 
2 -4 2 -16 1 -4 2 0 2 8 2 4 2 0 2 -8 
2 0 2 -4 1 -4 2 0 2 0 2 -8 2 -21 2 0 
2 4 2 5 2 0 1 -17 2 17 2 -5 2 13 2 0 
2 8 2 8 2 8 1 16 2 0 2 12 2 8 2 -8 
2 16 2 0 2 0 2 20 1 -8 2 -12 2 8 2 40 
2 16 2 -4 2 16 2 5 1 0 2 -17 2 8 2 0 
2 0 2 0 2 4 2 13 2 -13 1 5 2 4 2 -13 
2 9 2 16 2 12 2 40 2 -4 2 12 1 16 2 0 
2 -40 2 -24 2 -4 2 -8 2 -8 2 12 1 -4 2 4 
2 -12 2 0 2 -4 2 -4 2 -9 2 4 2 0 1 13 
2 28 2 -16 2 -8 2 8 2 -29 2 -16 2 -4 1 0 
2 -12 2 0 2 8 2 12 2 -4 2 -4 2 0 2 24 
1 9 2 8 2 -8 2 4 2 4 2 -4 2 0 2 -13 
1 -8 2 -20 2 28 2 5 2 -13 2 -12 2 29 2 28 
2 12 1 20 2 32 2 16 2 0 2 -12 2 0 2 -4 
2 -8 1 -16 2 4 2 20 2 16 2 -20 2 4 2 24 
2 28 2 -12 1 4 2 -16 2 -4 2 8 2 33 2 -4 
2 -17 2 -4 2 -20 1 -16 2 -12 2 4 2 24 2 12 
2 0 2 -16 2 4 1 -20 2 -12 2 -20 2 8 2 8 
2 0 2 -4 2 -4 2 20 1 16 2 -4 2 0 2 -20 
2 4 2 16 2 0 2 0 1 -12 2 8 2 -20 2 0 
2 20 2 16 2 20 2 0 2 37 1 -4 2 0 2 24 
2 8 2 -28 2 -4 2 12 2 -24 1 12 2 -8 2 -17 
2 8 2 0 2 -12 2 -8 2 8 2 33 1 16 2 16 
2 0 2 -16 2 -12 2 -8 2 12 2 -16 1 12 2 20 
2 -4 2 4 2 12 2 12 2 8 2 0 2 -28 1 8 
2 20 2 -4 2 -16 2 -4 2 -16 2 -8 2 -16 2 -21 
1 21 2 4 2 0 2 28 2 -8 2 0 2 12 2 24 
1 -16 2 -8 2 -32 2 -12 2 -5 2 -28 2 4 2 8 
2 -4 1 -4 2 0 2 16 2 8 2 17 2 16 2 -20 
2 4 1 -17 2 0 2 9 2 -21 2 21 2 4 2 -8 
2 -33 2 16 1 12 2 17 2 24 2 -16 2 4 2 12 
2 -4 2 12 1 0 2 -4 2 12 2 0 2 -12 2 -8 
2 24 2 0 2 -24 4521 3859 300 MP stroke
1 -24 2 8 2 20 2 -12 2 -24 2 12 2 12 2 4 
1 8 2 8 2 -28 2 28 2 8 2 32 2 8 2 -4 
2 20 1 32 2 -24 2 -4 2 16 2 16 2 0 2 21 
2 32 2 28 1 0 2 -16 2 20 2 4 2 -4 2 -12 
2 4 2 -24 1 -4 2 8 2 -8 2 20 2 8 2 20 
2 -4 2 -32 2 -24 1 4 2 -8 2 8 2 8 2 -8 
2 -24 2 -21 2 4 1 4 2 -8 2 -4 2 49 2 -4 
2 -8 2 -21 2 13 2 -8 1 28 2 -8 2 -12 2 -37 
2 -20 2 24 2 37 2 -4 1 8 2 -4 2 -8 2 -33 
2 12 2 21 2 20 2 -24 2 -9 1 25 2 -8 2 -17 
2 -16 2 25 2 4 2 4 2 -4 1 -13 2 13 2 44 
2 8 2 8 2 -12 2 -16 2 8 2 -4 1 16 2 12 
2 32 2 4 2 24 2 4 2 37 2 -17 2 -32 1 4 
2 -12 2 36 2 0 2 9 2 12 2 28 2 -8 1 8 
2 -8 2 -12 2 -4 2 4 2 8 2 28 2 0 2 20 
1 12 2 0 2 4 2 -32 2 24 2 -8 2 8 2 16 
1 -20 2 4 2 -12 2 20 2 -4 2 -32 2 16 2 32 
2 16 1 -16 2 12 2 4 2 8 2 20 2 -16 2 8 
2 -20 1 12 2 -12 2 12 2 16 2 -28 2 4 2 24 
2 25 2 52 1 16 2 8 2 -4 2 20 2 20 2 -20 
2 0 2 -8 1 -12 2 -16 2 -12 2 -36 2 -20 2 -4 
2 8 2 16 2 4 1 48 2 8 2 4 2 12 2 0 
2 20 2 -4 2 0 2 0 1 12 2 20 2 -16 2 20 
2 13 2 -8 2 12 2 36 1 -4 2 56 2 16 2 28 
2 21 2 -21 2 -16 2 4 2 -12 1 24 2 8 2 13 
2 12 2 0 2 -20 2 -17 2 21 1 0 2 -37 2 -16 
2 28 2 29 2 12 2 20 2 -4 2 20 1 -40 2 40 
2 36 2 -28 2 48 2 32 2 21 2 12 1 -49 2 29 
2 0 2 -9 2 -52 2 -12 2 -4 2 -12 2 -16 1 20 
2 68 2 -16 2 -4 2 -8 2 -8 2 -8 2 24 1 45 
2 48 2 -12 2 20 2 8 2 0 2 12 2 64 2 21 
1 8 2 44 2 28 2 93 2 92 2 20 2 29 2 52 
2 40 1 0 2 49 2 8 2 32 2 52 2 44 2 -20 
2 -24 1 -4 2 -8 2 44 2 12 2 37 2 -12 2 -37 
2 37 2 -21 1 -32 2 8 2 -4 2 12 2 45 2 -25 
2 25 2 24 1 12 2 24 2 36 2 -8 2 -20 2 20 
2 73 2 48 2 -8 1 28 2 24 2 4 2 -36 2 4 
2 8 2 28 2 97 3958 1798 300 MP stroke
1 32 2 0 2 -12 2 -20 2 12 2 84 2 9 2 52 
2 28 1 0 2 16 2 16 2 36 2 33 2 80 2 32 
2 41 1 -33 2 -24 2 20 2 41 2 4 2 -37 2 -4 
2 -40 2 -4 1 32 2 33 2 -25 2 4 2 9 2 -13 
2 -84 2 24 2 -48 1 32 2 84 2 -36 2 -12 2 -24 
2 4 2 12 2 40 1 12 2 -4 2 21 2 48 2 16 
2 4 2 0 2 -20 2 -8 1 -12 2 40 2 0 2 -48 
2 56 2 44 2 -68 2 44 1 -60 2 -65 2 12 2 -4 
2 -56 2 -28 2 -12 2 -16 2 28 1 56 2 4 2 -16 
2 24 2 4 2 -16 2 36 2 -20 1 33 2 -65 2 -64 
2 44 2 -28 2 4 2 56 2 8 2 4 1 -28 2 8 
2 12 2 65 2 -8 2 8 2 40 2 40 1 -20 2 -36 
2 -36 2 -41 2 -40 2 -36 2 -4 2 24 2 12 1 56 
2 77 2 20 2 -8 2 -32 2 -16 2 -69 2 -24 2 44 
1 -4 2 -60 2 -105 2 -24 2 -44 2 44 2 0 2 4 
1 32 2 12 2 37 2 20 2 48 2 8 2 28 2 -72 
2 4 1 -8 2 -61 2 -28 2 4 2 4 2 29 2 36 
2 8 1 0 2 32 2 -36 2 32 2 -16 2 -69 2 -44 
2 -28 2 32 1 -28 2 8 2 44 2 12 2 -4 2 -60 
2 -4 2 4 1 44 2 -4 2 24 2 61 2 24 2 -16 
2 8 2 -8 2 8 1 -16 2 149 2 -12 2 24 2 44 
2 44 2 -44 2 -80 1 96 2 4 2 -12 2 -28 2 16 
2 20 2 40 2 -8 2 -64 1 0 2 -56 2 -37 2 -12 
2 45 2 -41 2 -28 2 -12 2 52 1 -84 2 44 2 20 
2 -88 2 -77 2 49 2 68 2 8 1 44 2 -12 2 57 
2 24 2 20 2 -36 2 -20 2 -9 2 13 1 16 2 -65 
2 -76 2 -28 2 40 2 16 2 24 2 0 1 -4 2 36 
2 -20 2 36 2 21 2 0 2 -17 2 -72 2 -97 1 -16 
2 -64 2 -69 2 29 2 48 2 40 2 57 2 16 1 24 
2 28 2 80 2 25 2 16 2 40 2 -48 2 -37 2 29 
1 -33 2 17 2 44 2 24 2 4 2 -52 2 -4 2 40 
1 -4 2 32 2 93 2 -25 2 -60 2 4 2 -4 2 -68 
2 8 1 28 2 4 2 -12 2 0 2 -44 2 36 2 12 
2 0 2 -77 1 37 2 -33 2 -20 2 -28 2 40 2 33 
2 0 2 -4 1 -9 2 -40 2 28 2 57 2 -36 2 -61 
2 20 2 20 2 21 1 0 2 4 2 0 2 -21 2 -68 
2 -40 2 -28 2 44 1 -40 2 12 2 -8 2 20 2 16 
2 -44 2 20 2 48 3395 1464 300 MP stroke
2 32 1 -16 2 -64 2 -45 2 49 2 -8 2 4 2 -4 
2 -41 1 -4 2 12 2 -32 2 -40 2 52 2 77 2 36 
2 28 2 -12 1 -28 2 -16 2 24 2 4 2 4 2 0 
2 -64 2 -69 1 -20 2 56 2 -16 2 -32 2 12 2 20 
2 -24 2 57 2 -53 1 -4 2 16 2 49 2 0 2 -105 
2 -44 2 -41 2 33 2 44 1 0 2 -4 2 8 2 36 
2 -36 2 64 2 29 2 40 1 -8 2 32 2 12 2 40 
2 -12 2 -4 2 -52 2 -4 2 -57 1 -12 2 53 2 8 
2 80 2 16 2 29 2 -21 2 -48 1 24 2 -32 2 -56 
2 16 2 0 2 -8 2 4 2 -24 2 -41 1 45 2 -29 
2 37 2 64 2 -4 2 32 2 32 2 77 1 28 2 -52 
2 -16 2 -85 2 -44 2 -8 2 32 2 -8 2 -44 1 20 
2 0 2 -40 2 4 2 -12 2 12 2 28 2 60 1 -80 
2 -20 2 -37 2 -12 2 16 2 8 2 8 2 -68 2 -40 
1 36 2 32 2 57 2 36 2 32 2 -16 2 -4 2 76 
2 -12 1 16 2 -44 2 28 2 -28 2 -4 2 12 2 -40 
2 84 1 21 2 -49 2 -44 2 12 2 -24 2 0 2 28 
2 4 2 -4 1 -36 2 24 2 44 2 16 2 25 2 40 
2 -28 2 20 1 16 2 64 2 -4 2 -12 2 -24 2 -68 
2 -9 2 -52 2 32 1 20 2 -8 2 -16 2 20 2 13 
2 -13 2 41 2 -24 1 32 2 -8 2 -32 2 -53 2 -56 
2 -44 2 -41 2 -4 2 16 1 4 2 -24 2 4 2 -12 
2 20 2 49 2 20 2 16 1 20 2 0 2 -4 2 -24 
2 -12 2 -12 2 -73 2 0 2 -60 1 16 2 0 2 8 
2 20 2 56 2 49 2 -36 2 -61 2 -52 1 16 2 28 
2 12 2 8 2 -44 2 -40 2 -45 2 25 1 44 2 0 
2 -24 2 -24 2 -9 2 25 2 48 2 56 2 -68 1 8 
2 -8 2 -36 2 -21 2 -20 2 12 2 49 2 12 1 16 
2 12 2 -16 2 -28 2 -4 2 32 2 0 2 -44 2 -61 
1 4 2 28 2 8 2 13 2 -33 2 -44 2 12 2 93 
1 60 2 12 2 8 2 -36 2 24 2 28 2 8 2 49 
2 -8 1 -12 2 24 2 60 2 8 2 20 2 28 2 0 
2 -12 1 -8 2 -16 2 8 2 12 2 41 2 8 2 -41 
2 -104 2 -57 1 4 2 8 2 33 2 16 2 -53 2 4 
2 -44 2 28 2 -20 1 -28 2 -44 2 4 2 -12 2 8 
2 -20 2 12 2 28 1 52 2 -4 2 40 2 9 2 -9 
2 17 2 96 2 -4 2 12 1 12 2 24 2 -28 2 -8 
2 -40 2 48 2 -32 2832 1448 300 MP stroke
2 -8 1 40 2 33 2 40 2 28 2 -4 2 4 2 68 
2 21 2 -41 1 -36 2 -40 2 -16 2 12 2 -24 2 -8 
2 -17 2 -36 1 -32 2 -60 2 -4 2 8 2 -37 2 -44 
2 8 2 -12 2 -28 1 -40 2 -37 2 17 2 -9 2 -8 
2 -56 2 -16 2 52 1 57 2 -16 2 56 2 20 2 52 
2 -12 2 12 2 4 2 25 1 12 2 32 2 4 2 56 
2 12 2 8 2 -4 2 -20 2 20 1 -28 2 -40 2 -4 
2 8 2 36 2 -20 2 -60 2 8 1 44 2 -32 2 -36 
2 -45 2 -16 2 12 2 45 2 -5 2 13 1 -37 2 33 
2 0 2 24 2 16 2 52 2 65 2 28 1 40 2 -12 
2 16 2 28 2 32 2 -12 2 0 2 -52 2 -52 1 -25 
2 17 2 -8 2 0 2 4 2 -41 2 12 2 65 1 12 
2 8 2 8 2 -16 2 -28 2 -4 2 -8 2 -29 2 4 
1 -4 2 0 2 -28 2 -28 2 20 2 -20 2 8 2 61 
1 -25 2 -8 2 37 2 8 2 -37 2 -24 2 8 2 -68 
2 -24 1 -16 2 4 2 12 2 -12 2 -4 2 24 2 28 
2 -12 2 24 1 -4 2 0 2 -12 2 -28 2 12 2 4 
2 -61 2 53 1 -8 2 -4 2 12 2 60 2 32 2 16 
2 45 2 4 2 -32 1 8 2 0 2 40 2 -8 2 -32 
2 -29 2 -28 2 -36 1 -56 2 32 2 60 2 45 2 -5 
2 25 2 68 2 -16 2 40 1 -24 2 -24 2 -44 2 -25 
2 -68 2 -56 2 8 2 64 1 -24 2 8 2 -36 2 52 
2 8 2 -28 2 32 2 57 2 40 1 -24 2 -89 2 -40 
2 64 2 24 2 -8 2 -12 2 -48 1 4 2 12 2 -20 
2 28 2 77 2 60 2 -12 2 -24 2 0 1 -4 2 -40 
2 -77 2 20 2 40 2 -44 2 -56 2 12 2 48 1 0 
2 4 2 -28 2 -28 2 28 2 20 2 32 2 -16 1 -8 
2 53 2 28 2 -24 2 -49 2 16 2 0 2 37 2 -29 
1 21 2 12 2 -57 2 -40 2 28 2 52 2 -24 2 -24 
1 24 2 4 2 -48 2 -44 2 -49 2 21 2 24 2 80 
2 24 1 4 2 4 2 -16 2 -44 2 12 2 -4 2 -48 
2 36 1 24 2 -16 2 -24 2 24 2 -28 2 -60 2 -13 
2 45 2 16 1 20 2 32 2 24 2 0 2 -32 2 -56 
2 -101 2 -24 1 -89 2 -56 2 0 2 77 2 -9 2 25 
2 32 2 -36 2 -25 1 -12 2 25 2 8 2 4 2 20 
2 60 2 -72 2 -29 2 -20 1 -20 2 36 2 0 2 41 
2 32 2 64 2 -44 2 44 1 16 2 13 2 -45 2 40 
2 -24 2 -28 2 0 2269 1597 300 MP stroke
2 8 2 44 1 9 2 -29 2 37 2 20 2 -8 2 60 
2 -8 2 -8 1 36 2 0 2 48 2 -20 2 -4 2 -44 
2 28 2 24 2 -20 1 -24 2 48 2 -40 2 36 2 49 
2 40 2 16 2 0 1 16 2 65 2 44 2 12 2 -28 
2 -57 2 25 2 12 2 -4 1 -41 2 -24 2 -12 2 0 
2 16 2 -4 2 -28 2 -4 1 16 2 -56 2 -37 2 -44 
2 -68 2 -49 2 -24 2 -32 2 -28 1 -48 2 -73 2 -44 
2 -4 2 -4 2 12 2 36 2 -44 2 -32 1 -8 2 -4 
2 32 2 -4 2 0 2 48 2 36 2 -20 1 0 2 4 
2 0 2 32 2 49 2 0 2 24 2 4 2 64 1 20 
2 29 2 32 2 24 2 4 2 -24 2 24 2 12 1 -48 
2 0 2 -57 2 8 2 33 2 -57 2 -72 2 4 2 88 
1 69 2 16 2 20 2 -12 2 16 2 36 2 4 2 -52 
1 -24 2 -8 2 0 2 8 2 -36 2 20 2 60 2 40 
2 37 1 28 2 20 2 -20 2 -8 2 40 2 60 2 33 
2 -53 1 -72 2 20 2 -12 2 -8 2 0 2 -32 2 8 
2 -12 2 24 1 -8 2 4 2 -28 2 28 2 -12 2 -81 
2 -20 2 -24 2 -57 1 -24 2 -20 2 0 2 -32 2 20 
2 8 2 28 2 49 1 -37 2 -12 2 -16 2 -52 2 -32 
2 -45 2 -8 2 -24 2 -8 1 -60 2 20 2 -8 2 -28 
2 8 2 12 2 28 2 32 1 -8 2 81 2 -8 2 44 
2 -12 2 4 2 4 2 -36 2 -16 1 -13 2 29 2 80 
2 44 2 21 2 20 2 16 2 20 1 -4 2 -60 2 -13 
2 41 2 52 2 12 2 -52 2 -36 2 40 1 -44 2 8 
2 -65 2 -56 2 -36 2 -49 2 28 2 -8 1 0 2 0 
2 -20 2 -12 2 48 2 -8 2 8 2 -36 2 77 1 80 
2 4 2 -52 2 -44 2 -29 2 37 2 16 2 0 2 48 
1 -64 2 28 2 -4 2 8 2 28 2 16 2 53 2 32 
1 -20 2 -45 2 29 2 48 2 -8 2 -32 2 80 2 -76 
2 -57 1 -16 2 12 2 12 2 37 2 16 2 32 2 8 
2 -24 1 80 2 53 2 28 2 -28 2 44 2 -89 2 -40 
2 4 2 12 1 -4 2 -24 2 -20 2 -8 2 60 2 -44 
2 16 2 20 1 -12 2 -36 2 32 2 44 2 -16 2 20 
2 20 2 25 2 0 1 -29 2 21 2 28 2 -45 2 21 
2 -29 2 -32 2 -44 1 20 2 32 2 -32 2 4 2 -48 
2 -49 2 73 2 4 2 28 1 44 2 -44 2 -36 2 36 
2 -24 2 -44 2 -77 2 -60 2 -12 1 8 2 -4 2 16 
2 80 2 89 2 24 1706 1452 300 MP stroke
2 48 2 41 1 -45 2 -56 2 32 2 36 2 53 2 -45 
2 -20 2 -8 2 0 1 -20 2 -64 2 -69 2 -8 2 -16 
2 61 2 60 2 -16 1 -4 2 -16 2 -45 2 -48 2 16 
2 -12 2 -16 2 12 2 12 1 69 2 -37 2 -32 2 53 
2 -57 2 16 2 12 2 -8 1 0 2 33 2 60 2 4 
2 -16 2 -61 2 -56 2 -4 2 16 1 69 2 60 2 24 
2 -60 2 -45 2 13 2 4 2 -8 1 -45 2 -4 2 -28 
2 -64 2 12 2 36 2 4 2 -20 2 36 1 20 2 -16 
2 -20 2 56 2 28 2 -8 2 -20 2 37 2 -4 1 -33 
2 12 2 -24 2 24 2 -32 2 -20 2 4 2 12 1 32 
2 53 2 32 2 20 2 -40 2 4 2 -8 2 0 2 40 
1 -4 2 24 2 -40 2 32 2 36 2 69 2 -20 2 -73 
1 -12 2 0 2 36 2 41 2 24 2 -24 2 -4 2 8 
2 28 1 -4 2 -16 2 28 2 44 2 32 2 8 2 8 
2 -20 1 -20 2 -28 2 0 2 -24 2 8 2 16 2 -24 
2 12 2 16 1 -24 2 -52 2 -17 2 -16 2 -4 2 69 
2 -12 2 -20 1 32 2 28 2 -20 2 4 2 -36 2 8 
2 -16 2 -57 2 16 1 -52 2 -32 2 8 2 -40 2 -41 
2 -40 2 28 2 -4 2 16 1 57 2 -37 2 16 2 21 
2 -73 2 20 2 -8 2 -44 1 -8 2 -12 2 -65 2 0 
2 65 2 4 2 12 2 -8 2 56 1 36 2 0 2 69 
2 16 2 32 2 16 2 -56 2 -8 1 4 2 56 2 16 
2 4 2 0 2 -36 2 -40 2 4 2 -28 1 44 2 73 
2 -9 2 -40 2 -12 2 -16 2 0 2 20 1 -36 2 -4 
2 -40 2 0 2 -4 2 -21 2 77 2 32 2 12 1 4 
2 -16 2 -28 2 -4 2 24 2 61 2 -17 2 -16 1 8 
2 -40 2 -40 2 -4 2 36 2 48 2 -16 2 -4 2 8 
1 -8 2 36 2 -4 2 -12 2 -68 2 -28 2 -12 2 -37 
2 -40 1 8 2 49 2 48 2 8 2 -8 2 56 2 12 
2 -76 1 8 2 64 2 16 2 -28 2 4 2 44 2 -36 
2 32 2 17 1 -17 2 37 2 40 2 93 2 -13 2 -12 
2 57 2 -20 1 -8 2 -17 2 -44 2 20 2 -40 2 -32 
2 20 2 20 2 0 1 20 2 4 2 8 2 -8 2 20 
2 57 2 16 2 4 1 -28 2 -81 2 -60 2 0 2 44 
2 -8 2 -44 2 64 2 -8 1 -12 2 -8 2 -40 2 44 
2 20 2 -4 2 20 2 57 1 -25 2 -24 2 -4 2 -8 
2 -48 2 16 2 8 2 24 2 24 1 29 2 56 2 -4 
2 -28 2 -33 2 -4 1143 1235 300 MP stroke
2 -4 2 8 2 -8 1 33 2 12 2 16 2 -12 2 -12 
2 48 2 -81 2 -56 1 -4 2 -20 2 -36 2 -12 2 -65 
2 -28 2 -52 2 -41 2 4 1 25 2 -20 2 -5 2 37 
2 -37 2 -28 2 -8 2 32 1 -32 2 20 2 -92 2 -12 
2 -65 2 -92 2 0 2 -8 2 -29 1 13 2 20 2 32 
2 32 2 8 2 65 2 -17 2 -28 1 -8 2 8 2 -4 
2 -12 2 12 2 4 2 37 2 -29 2 89 1 -44 2 40 
2 -8 2 52 2 93 2 20 2 60 2 20 1 4 2 0 
2 -16 2 -20 2 57 2 -53 2 16 2 28 2 -32 1 -52 
2 -4 2 16 2 40 2 -56 2 -85 2 -32 2 -40 2 32 
1 40 2 0 2 -28 2 -56 2 -44 2 12 2 48 2 8 
1 36 2 24 2 0 2 -36 2 4 2 49 2 -37 2 4 
2 65 1 -49 2 -40 2 -12 2 85 2 104 2 49 2 0 
2 16 1 -49 2 16 2 53 2 16 2 32 2 -48 2 -65 
2 -40 2 -28 1 -40 2 24 2 -81 2 -44 2 28 2 57 
2 -17 2 -44 1 12 2 -28 2 16 2 -4 2 -76 2 -25 
2 -40 2 -20 2 12 1 -40 2 28 2 0 2 -8 2 24 
2 49 2 24 2 32 1 60 2 -8 2 133 2 -76 2 -169 
2 -149 2 -13 2 77 2 -93 1 10 2 -35 2 9 2 -180 
2 -93 2 -203 2 -647 2 -1510 1 0 848 4520 158 MP stroke
0 sg
2 12 2 -12 1 -8 2 -16 2 -4 2 -4 2 12 2 16 
2 0 2 8 2 -8 1 8 2 -8 2 -8 2 16 2 36 
2 32 2 16 2 -12 1 -4 2 -8 2 12 2 -8 2 -20 
2 -12 2 -4 2 -12 2 -12 1 0 2 -12 2 20 2 12 
2 -12 2 -4 2 -12 2 0 1 0 2 12 2 -4 2 -12 
2 -32 2 -29 2 -16 2 16 2 4 1 5 2 16 2 -4 
2 20 2 0 2 -12 2 4 2 8 1 4 2 24 2 -12 
2 -16 2 0 2 0 2 4 2 8 2 12 1 -12 2 4 
2 -4 2 12 2 4 2 12 2 4 2 0 2 8 1 -20 
2 0 2 0 2 16 2 12 2 4 2 -4 2 0 1 -20 
2 12 2 4 2 16 2 16 2 32 2 5 2 16 2 16 
1 8 2 -12 2 -16 2 -4 2 -4 2 8 2 12 2 8 
1 8 2 0 2 16 2 4 2 0 2 4 2 4 2 -12 
2 4 1 0 2 0 2 12 2 0 2 -12 2 8 2 -12 
2 4 1 0 2 16 2 -12 2 4 2 8 2 -8 2 12 
2 4 2 -8 1 4 2 -28 2 -4 2 8 2 4 2 28 
2 28 2 20 1 8 2 13 2 -9 2 0 2 -16 2 -8 
2 -4 2 -12 2 -12 1 -12 2 8 2 -4 2 -8 2 0 
2 -16 2 8 2 28 2 -4 1 12 2 -4 2 -8 2 8 
2 -20 2 -12 2 4 2 0 1 28 2 8 2 32 2 17 
2 4 2 0 2 12 2 28 2 28 1 8 2 16 2 12 
2 16 2 41 2 -8 2 -4 2 12 1 0 2 20 2 8 
2 4 2 24 2 -12 2 0 2 -4 2 -20 1 -8 2 -33 
2 4 2 29 2 12 2 12 2 -4 2 -20 1 16 2 -4 
2 -20 2 -21 2 -44 2 -8 2 -12 2 12 2 -8 1 -12 
2 20 2 -12 2 -44 2 20 2 -4 2 32 2 36 1 24 
2 29 2 -12 2 -25 2 -8 2 -8 2 16 2 21 2 0 
1 -17 2 17 2 -13 2 0 2 13 2 28 2 0 2 24 
2 8 1 -12 2 16 2 12 2 16 2 -4 2 -24 2 -32 
2 -16 1 -20 2 20 2 16 2 20 -2 16 2 -24 2 -8 
2 -12 2 32 2 8 2 32 1 40 2 29 2 -21 2 -24 
2 -12 2 4 2 -12 2 -8 1 4 2 -12 2 4 2 12 
2 -4 2 4 2 8 2 -16 2 -20 1 -24 2 12 2 -8 
2 8 2 56 2 -8 2 -16 2 4 1 -36 2 -48 2 -12 
2 20 2 28 2 32 2 28 2 24 2 25 1 16 2 20 
2 -16 2 0 2 24 2 4 2 24 2 28 1 4 2 -32 
2 24 2 12 2 -24 2 36 2 41 2 4 2 16 1 16 
2 12 2 20 2 20 4498 3320 300 MP stroke
2 -32 2 -20 2 -28 2 -25 2 -24 1 -32 2 0 2 0 
2 -36 2 0 2 -4 2 4 2 12 1 24 2 4 2 4 
2 -12 2 -32 2 -32 2 4 2 -8 2 24 1 4 2 -24 
2 -28 2 0 2 12 2 20 2 16 2 8 1 4 2 28 
2 28 2 16 2 -16 2 -8 2 8 2 28 2 21 1 28 
2 -12 2 -12 2 24 2 52 2 4 2 16 2 4 1 12 
2 16 2 25 2 -8 2 36 2 -16 2 0 2 16 2 36 
1 12 2 20 2 32 2 37 2 52 2 -12 2 8 2 0 
1 4 2 4 2 36 2 16 2 4 2 12 2 21 2 -4 
2 12 1 4 2 -21 2 21 2 -21 2 53 2 28 2 8 
2 16 2 -4 1 -12 2 16 2 4 2 -4 2 24 2 4 
2 -8 2 -4 1 24 2 0 2 -32 2 -16 2 -32 2 -28 
2 0 2 -16 2 12 1 8 2 20 2 36 2 -24 2 -12 
2 8 2 28 2 44 1 29 2 -21 2 -24 2 -32 2 -4 
2 20 2 16 2 -32 2 -12 1 -32 2 0 2 -16 2 28 
2 68 2 28 2 45 2 -32 1 -25 2 0 2 -24 2 32 
2 45 2 32 2 32 2 -28 2 -32 1 -4 2 36 2 36 
2 28 2 -8 2 0 2 65 2 48 1 56 2 113 2 77 
2 32 2 -4 2 64 2 45 2 36 2 88 1 24 2 21 
2 -4 2 32 2 -20 2 -20 2 56 2 56 2 125 1 40 
2 61 2 36 2 20 2 52 2 0 2 33 2 20 1 -8 
2 36 2 32 2 0 2 -56 2 -24 2 32 2 -32 2 16 
1 -4 2 28 2 28 2 20 2 36 2 -16 2 36 2 -84 
1 -48 2 -69 2 -20 2 44 2 -12 2 4 2 -40 2 12 
2 -16 1 -40 2 12 2 -4 2 0 2 40 2 0 2 20 
2 20 1 41 2 16 2 -37 2 17 2 -73 2 12 2 -24 
2 28 2 12 1 8 2 8 2 4 2 -12 2 33 2 12 
2 0 2 12 1 0 2 8 2 12 2 -12 2 -24 2 80 
2 16 2 -60 2 -44 1 20 2 60 2 64 2 89 2 16 
2 -20 2 -52 2 24 2 40 1 0 2 -12 2 36 2 -24 
2 0 2 -8 2 -52 2 -16 1 -29 2 -8 2 65 2 0 
2 -93 2 20 2 57 2 52 2 -20 1 -89 2 -76 2 -61 
2 -40 2 36 2 -8 2 8 2 -8 1 -40 2 8 2 -28 
2 -24 2 -8 2 -12 2 24 2 56 2 16 1 0 2 -52 
2 -4 2 93 2 32 2 32 2 8 2 -16 1 4 2 4 
2 -52 2 8 2 -53 2 24 2 -32 2 -4 2 20 1 -24 
2 24 2 29 2 -8 2 36 2 0 2 -16 2 -45 1 -4 
2 -12 2 -32 2 -48 3935 1661 300 MP stroke
2 -73 2 -60 2 -69 2 0 2 -8 1 -12 2 33 2 0 
2 24 2 8 2 24 2 -40 2 16 2 0 1 0 2 -32 
2 8 2 -81 2 -20 2 -32 2 48 2 32 1 36 2 21 
2 -8 2 28 2 -4 2 24 2 -8 2 36 2 28 1 24 
2 -12 2 -12 2 -8 2 -16 2 4 2 -20 2 16 1 0 
2 32 2 0 2 20 2 -8 2 25 2 -25 2 -4 2 -44 
1 4 2 -32 2 12 2 16 2 73 2 16 2 8 2 4 
1 -4 2 -29 2 -36 2 45 2 28 2 12 2 28 2 -12 
2 -28 1 24 2 4 2 40 2 44 2 17 2 -13 2 -64 
2 4 1 0 2 20 2 -64 2 -16 2 -49 2 37 2 56 
2 28 2 -16 1 4 2 28 2 -36 2 -20 2 36 2 -8 
2 60 2 25 2 8 1 12 2 -24 2 -37 2 -24 2 28 
2 53 2 36 2 28 1 24 2 20 2 -8 2 -28 2 -4 
2 -36 2 -12 2 44 2 4 1 12 2 0 2 8 2 -28 
2 -48 2 -117 2 -48 2 -32 1 24 2 48 2 12 2 -8 
2 4 2 -56 2 -57 2 -72 2 -12 1 60 2 28 2 4 
2 -48 2 -28 2 4 2 4 2 12 1 16 2 28 2 20 
2 4 2 45 2 44 2 -12 2 -24 2 -16 1 -16 2 -25 
2 -8 2 -52 2 85 2 72 2 56 2 4 1 -8 2 16 
2 -28 2 4 2 0 2 8 2 -8 2 -36 2 -52 1 -61 
2 -40 2 4 2 4 2 36 2 73 2 32 2 -20 2 -60 
1 8 2 0 2 64 2 -36 2 8 2 -8 2 4 2 -4 
1 12 2 28 2 4 2 -16 2 44 2 -4 2 93 2 48 
2 81 1 8 2 -24 2 -29 2 -44 2 8 2 8 2 44 
2 85 1 68 2 45 2 12 2 48 2 -20 2 32 2 -24 
2 -76 2 -25 1 33 2 -21 2 -36 2 -68 2 -16 2 -41 
2 8 2 -56 1 69 2 12 2 40 2 12 2 -4 2 4 
2 4 2 -44 2 -89 1 -88 2 -73 2 -80 2 -33 2 -20 
2 12 2 53 2 56 1 4 2 20 2 85 2 -36 2 32 
2 -4 2 -16 2 16 2 -73 1 16 2 -32 2 -56 2 -45 
2 21 2 -8 2 0 2 44 2 32 1 52 2 73 2 36 
2 -36 2 -16 2 28 2 -85 2 21 1 44 2 -28 2 -29 
2 -56 2 8 2 24 2 41 2 36 2 -4 1 -20 2 60 
2 12 2 -36 2 -8 2 12 2 -8 2 36 1 -24 2 -69 
2 33 2 36 2 4 2 -4 2 28 2 -36 2 -36 1 -8 
2 52 2 -4 2 32 2 -40 2 -40 2 -45 2 8 1 37 
2 24 2 32 2 -24 2 -32 2 -33 2 -12 2 -56 2 4 
1 8 2 -24 2 -8 3372 1653 300 MP stroke
2 56 2 -20 2 4 2 4 2 -36 1 0 2 -28 2 36 
2 -4 2 24 2 -12 2 8 2 -20 2 -12 1 -32 2 -61 
2 16 2 12 2 29 2 20 2 -4 2 -29 2 45 1 20 
2 0 2 -60 2 -45 2 4 2 4 2 8 2 4 1 12 
2 -20 2 -28 2 12 2 -20 2 -16 2 4 2 28 2 8 
1 36 2 -28 2 -12 2 49 2 -13 2 29 2 36 2 -4 
1 -12 2 -16 2 36 2 44 2 -28 2 -89 2 29 2 32 
2 12 1 60 2 12 2 20 2 41 2 60 2 0 2 -68 
2 -101 1 -16 2 12 2 16 2 4 2 -24 2 -20 2 -24 
2 -61 2 -52 1 4 2 -16 2 36 2 61 2 128 2 8 
2 -36 2 16 1 -24 2 36 2 -64 2 -16 2 -77 2 -4 
2 12 2 113 2 8 1 28 2 0 2 -96 2 36 2 60 
2 -28 2 69 2 12 2 0 1 -33 2 -52 2 -20 2 -60 
2 -37 2 -4 2 -16 2 49 1 -41 2 -12 2 -68 2 12 
2 -8 2 96 2 29 2 40 2 44 1 -8 2 40 2 -28 
2 -20 2 24 2 -52 2 16 2 -8 1 64 2 -8 2 -32 
2 16 2 -8 2 16 2 12 2 -64 2 -12 1 16 2 8 
2 4 2 8 2 -72 2 -65 2 -12 2 -48 1 -16 2 -12 
2 44 2 4 2 24 2 52 2 17 2 12 2 -61 1 4 
2 0 2 -36 2 24 2 4 2 8 2 16 2 -12 1 45 
2 40 2 -16 2 4 2 64 2 40 2 -4 2 -44 2 0 
1 77 2 -21 2 -4 2 -48 2 -40 2 -20 2 16 2 60 
2 -12 1 12 2 16 2 16 2 -28 2 -20 2 8 2 24 
2 -40 1 73 2 68 2 24 2 -64 2 -12 2 -25 2 41 
2 12 2 -93 1 -12 2 -68 2 36 2 24 2 -4 2 -16 
2 -36 2 32 1 -36 2 -12 2 12 2 4 2 36 2 -4 
2 0 2 -12 2 -61 1 -32 2 -20 2 12 2 -8 2 -24 
2 -12 2 24 2 44 1 4 2 29 2 -4 2 -25 2 -24 
2 -16 2 48 2 -20 2 28 1 -32 2 8 2 24 2 -32 
2 -20 2 -44 2 56 2 4 1 41 2 20 2 16 2 -20 
2 4 2 68 2 -24 2 -12 2 4 1 4 2 32 2 4 
2 24 2 24 2 -48 2 24 2 37 1 88 2 -40 2 -40 
2 0 2 -17 2 -16 2 -12 2 -12 2 -52 1 16 2 16 
2 52 2 37 2 -33 2 33 2 -12 2 -17 2 0 1 -32 
2 -24 2 -8 2 -12 2 12 2 0 2 -24 2 -56 1 -33 
2 0 2 24 2 -8 2 81 2 8 2 40 2 24 2 -28 
1 -28 2 -56 2 -28 2 -21 2 -12 2 61 2 48 2 -4 
1 -8 2 56 2 8 2809 1569 300 MP stroke
2 16 2 -32 2 -60 2 -48 2 32 2 52 1 44 2 0 
2 0 2 -36 2 -36 2 -32 2 28 2 0 1 16 2 36 
2 32 2 25 2 -13 2 -56 2 -48 2 -4 2 0 1 -36 
2 -41 2 -4 2 16 2 0 2 8 2 -32 2 8 1 -52 
2 -20 2 44 2 32 2 97 2 0 2 4 2 -36 2 -61 
1 -60 2 -52 2 -25 2 -4 2 -28 2 20 2 33 2 0 
2 24 1 44 2 32 2 -8 2 65 2 36 2 36 2 -32 
2 0 1 8 2 -16 2 -16 2 -113 2 -8 2 -97 2 12 
2 61 2 20 1 12 2 -28 2 -4 2 16 2 20 2 20 
2 40 2 -32 1 36 2 -12 2 29 2 -61 2 -20 2 4 
2 16 2 -8 2 -48 1 -36 2 12 2 32 2 -20 2 100 
2 29 2 -17 2 -16 1 53 2 4 2 -29 2 33 2 -12 
2 -61 2 -56 2 60 2 -32 1 32 2 -48 2 8 2 48 
2 -16 2 0 2 57 2 -8 1 -17 2 -68 2 -56 2 44 
2 8 2 8 2 28 2 0 2 -80 1 -4 2 24 2 20 
2 4 2 48 2 28 2 -32 2 8 2 -44 1 -32 2 12 
2 4 2 -4 2 4 2 -69 2 29 2 80 1 77 2 88 
2 49 2 -49 2 -16 2 -36 2 4 2 52 2 40 1 9 
2 -49 2 -16 2 36 2 0 2 16 2 -36 2 12 1 101 
2 60 2 0 2 29 2 -41 2 -4 2 4 2 -36 2 -48 
1 -77 2 -76 2 36 2 12 2 4 2 -24 2 -12 2 16 
1 16 2 -12 2 -12 2 -48 2 4 2 12 2 60 2 -24 
2 -101 1 -48 2 -20 2 -12 2 48 2 36 2 8 2 20 
2 37 1 64 2 24 2 -76 2 -24 2 12 2 84 2 57 
2 -12 2 -9 1 81 2 48 2 28 2 5 2 -9 2 -44 
2 28 2 89 2 -16 1 -61 2 -8 2 16 2 21 2 24 
2 12 2 20 2 -12 1 -16 2 104 2 29 2 4 2 -16 
2 -61 2 -56 2 8 2 -65 1 9 2 -61 2 -24 2 12 
2 24 2 12 2 -20 2 32 1 89 2 44 2 -16 2 -20 
2 -24 2 -69 2 -48 2 -28 2 12 1 -72 2 -33 2 -36 
2 0 2 32 2 32 2 -40 2 12 1 -60 2 8 2 -12 
2 -48 2 16 2 -28 2 0 2 12 2 -61 1 -104 2 -33 
2 -36 2 16 2 24 2 37 2 16 2 24 1 28 2 12 
2 8 2 -56 2 -65 2 -24 2 12 2 12 2 21 1 44 
2 28 2 -20 2 -44 2 -21 2 17 2 -45 2 -12 2 77 
1 -24 2 8 2 16 2 48 2 28 2 40 2 21 2 0 
1 16 2 28 2 32 2 68 2 9 2 20 2 16 2 64 
2 -12 1 -20 2 -20 2246 1492 300 MP stroke
2 -24 2 -29 2 -40 2 28 2 8 2 -40 1 40 2 49 
2 -16 2 0 2 -16 2 -21 2 0 2 21 2 4 1 4 
2 -12 2 -33 2 -8 2 -32 2 -32 2 -44 2 8 1 4 
2 60 2 56 2 37 2 24 2 -4 2 12 2 8 2 20 
1 -24 2 8 2 -8 2 -81 2 4 2 -36 2 0 2 28 
1 -24 2 36 2 25 2 4 2 -8 2 32 2 32 2 4 
2 16 1 8 2 12 2 0 2 20 2 -16 2 -36 2 0 
2 0 2 16 1 -24 2 -60 2 44 2 -40 2 4 2 -29 
2 -40 2 -20 1 20 2 -16 2 0 2 32 2 -32 2 -68 
2 -37 2 25 2 8 1 -73 2 -36 2 -69 2 25 2 36 
2 28 2 -64 2 16 1 -20 2 48 2 -20 2 36 2 8 
2 48 2 4 2 17 2 -61 1 0 2 56 2 25 2 24 
2 -12 2 -24 2 0 2 -57 1 65 2 32 2 40 2 -16 
2 32 2 -8 2 81 2 -4 2 8 1 -4 2 16 2 -41 
2 -32 2 -84 2 0 2 28 2 24 1 32 2 -60 2 -4 
2 -44 2 -4 2 84 2 -56 2 8 2 -40 1 24 2 -41 
2 -28 2 -8 2 4 2 -28 2 4 2 8 2 -20 1 -56 
2 8 2 44 2 48 2 -20 2 -52 2 -57 2 25 1 44 
2 -4 2 44 2 48 2 -56 2 -28 2 36 2 28 2 20 
1 65 2 40 2 -28 2 -73 2 -32 2 -16 2 -8 2 -4 
1 40 2 69 2 0 2 8 2 48 2 48 2 53 2 -69 
2 -28 1 -12 2 -64 2 -37 2 -8 2 77 2 4 2 -44 
2 -73 1 -40 2 -12 2 24 2 101 2 28 2 -40 2 28 
2 0 2 12 1 -61 2 -12 2 16 2 -12 2 -48 2 0 
2 0 2 8 1 -20 2 4 2 -28 2 28 2 20 2 -4 
2 28 2 12 2 8 1 29 2 24 2 -40 2 0 2 48 
2 -16 2 -16 2 24 2 8 1 -24 2 -24 2 0 2 48 
2 20 2 -16 2 -44 2 -4 1 36 2 60 2 -12 2 -20 
2 8 2 48 2 24 2 41 2 -28 1 -17 2 0 2 13 
2 -41 2 -12 2 85 2 -12 2 -37 1 37 2 12 2 -28 
2 -37 2 0 2 16 2 41 2 -4 2 -8 1 -53 2 -20 
2 -24 2 -12 2 -69 2 -8 2 -16 2 65 1 16 2 12 
2 0 2 40 2 16 2 -52 2 -12 2 -12 2 -28 1 -41 
2 -32 2 -4 2 -20 2 16 2 28 2 32 2 4 1 57 
2 20 2 36 2 28 2 0 2 25 2 24 2 -69 2 -12 
1 -44 2 -40 2 -12 2 -8 2 -57 2 -40 2 40 2 -8 
2 8 1 69 2 52 2 -4 2 -56 2 -9 2 -36 2 20 
2 -32 1 -24 2 -64 1683 1838 300 MP stroke
2 -16 2 28 2 -53 2 -24 2 -4 2 -8 2 36 1 41 
2 12 2 24 2 56 2 65 2 40 2 28 2 0 1 -68 
2 28 2 32 2 48 2 -16 2 57 2 -57 2 24 2 57 
1 92 2 -28 2 9 2 41 2 -33 2 37 2 -21 2 -8 
1 -40 2 8 2 4 2 -4 2 -4 2 -44 2 -20 -1 40 
1 64 2 16 2 25 1 4 2 20 2 -73 2 33 2 0 
2 -57 2 -44 2 16 1 -9 2 -20 2 4 2 -8 2 0 
2 28 2 20 2 -44 2 -49 1 -32 2 -72 2 -16 2 -12 
2 -37 2 -12 2 -56 2 -64 2 -29 1 -36 2 8 2 -24 
2 16 2 4 2 -8 2 16 2 -20 1 44 2 45 2 -21 
2 9 2 -13 2 -4 2 21 2 12 2 72 1 97 2 4 
2 -12 2 -16 2 -13 2 -24 2 -32 2 8 1 -8 2 36 
2 61 2 -28 2 36 2 -4 2 -49 2 29 2 -25 1 -48 
2 8 2 28 2 -28 2 -20 2 16 2 28 2 -44 1 8 
2 20 2 32 2 57 2 8 2 52 2 77 2 52 2 -12 
1 -56 2 0 2 28 2 -28 2 -4 2 28 2 20 2 44 
1 81 2 36 2 -77 2 -24 2 57 2 -12 2 24 2 28 
2 16 1 -16 2 -36 2 -20 2 4 2 -13 2 29 2 -37 
2 25 2 12 1 -69 2 -72 2 20 2 16 2 8 2 -44 
2 -73 2 -84 1 -8 2 84 2 20 2 37 2 36 2 12 
2 8 2 -24 2 -12 1 12 2 -20 2 4 2 -16 2 -81 
2 12 2 28 2 53 1 52 2 89 2 8 2 32 2 -12 
2 28 2 -24 2 -32 2 -25 1 -64 2 20 2 -36 2 0 
2 -24 2 -24 2 -45 2 4 1 33 2 -4 2 -29 2 -64 
2 52 2 -8 2 8 2 -8 2 -8 1 -36 2 -32 2 -32 
2 12 2 16 2 56 2 40 2 -24 1 -24 2 0 2 -8 
2 -64 2 -41 2 53 2 -12 2 32 2 -4 1 4 2 12 
2 44 2 4 2 24 2 -20 2 -40 2 -8 2 12 1 20 
2 -24 2 -40 2 -53 2 -4 2 28 2 29 2 52 1 -4 
2 24 2 12 2 -4 2 -113 2 9 2 -49 2 12 2 -4 
1 4 2 -12 2 -72 2 -28 2 36 2 0 2 -24 2 -33 
1 21 2 44 2 88 2 37 2 72 2 -28 2 -48 2 -65 
2 -52 1 -89 2 20 2 29 2 68 2 20 2 24 2 8 
2 29 1 -17 2 13 2 52 2 -8 2 -53 2 25 2 -12 
2 -41 2 20 1 -16 2 -56 2 -36 2 -109 2 -16 2 48 
2 101 2 48 1 24 2 -48 2 4 2 0 2 -32 2 -16 
2 -53 2 -28 2 -16 1 20 2 16 2 -4 2 8 2 17 
2 36 2 64 2 -56 1123 1810 300 MP stroke
2 -57 1 -32 2 -4 2 49 2 80 2 4 2 8 2 20 
2 53 1 84 0 -28 1 -48 1 52 2 36 2 53 2 36 
2 24 2 -41 2 -48 2 -12 1 -48 1 -20 2 -8 2 -12 
2 -8 2 36 1 0 2 9 2 -44 1 -80 21 4 -17 8 
2 -25 2 -104 2 -44 2 24 2 -37 2 -40 1 -32 6 -48 
-3 -29 2 17 2 32 2 20 2 28 2 85 2 -17 1 -36 
2 -24 2 16 2 -24 2 44 2 43 2 20 2 41 1 -8 
2 -57 2 8 2 69 2 -4 2 -16 2 28 2 -45 2 -64 
1 -52 2 -16 2 24 2 -24 2 -12 2 -25 2 -76 2 -4 
2 36 1 0 2 -8 2 8 2 -36 2 -56 2 -37 2 -4 
2 -56 1 20 2 0 2 -48 2 -40 2 -65 2 -60 2 -37 
2 21 2 44 1 24 2 -97 2 -44 2 -32 2 12 2 48 
2 -8 2 -56 1 -32 2 -61 2 -40 2 -16 2 -32 2 -28 
2 -77 2 -12 2 -60 1 -29 2 33 2 -21 2 21 2 76 
2 133 2 117 2 24 1 -44 2 24 2 96 2 81 2 -32 
2 -41 2 21 2 20 2 -8 1 44 2 44 2 8 2 36 
2 49 2 48 2 81 2 40 1 4 2 24 2 20 2 -60 
2 -93 2 -157 2 -107 2 7 2 -177 1 -6 2 -13 2 36 
2 -79 2 -92 2 -330 2 -475 2 -906 1 0 848 4520 151 MP stroke
/c10 { 1.000000 0.000000 1.000000 sr} bdef
c10
2 -16 2 -12 2 -4 2 -12 1 8 2 -8 2 4 2 4 
2 4 2 0 2 -8 2 4 1 -4 2 4 2 32 2 -28 
2 -16 2 4 2 8 2 0 2 32 1 36 2 -4 2 24 
2 -20 2 12 2 24 2 13 2 28 1 12 2 20 2 -8 
2 -4 2 4 2 0 2 16 2 16 2 0 1 -8 2 8 
2 8 2 20 2 4 2 24 2 -12 2 -24 1 -4 2 0 
2 -4 2 8 2 8 2 -12 2 -24 2 -32 2 -8 1 -24 
2 20 2 28 2 32 2 28 2 -8 2 -8 2 -8 1 16 
2 -16 2 16 2 0 2 4 2 -16 2 20 2 0 2 -20 
1 -4 2 28 2 8 2 25 2 24 2 24 2 32 2 28 
2 8 1 4 2 -40 2 -40 2 -12 2 8 2 8 2 16 
2 -28 1 8 2 12 2 24 2 24 2 -28 2 -4 2 52 
2 16 2 45 1 -12 2 -12 2 -13 2 -4 2 -28 2 -40 
2 -24 2 -12 1 -28 2 16 2 48 2 28 2 20 2 61 
2 12 2 4 2 8 1 -8 2 16 2 -32 2 28 2 4 
2 -8 2 -8 2 -53 1 -32 2 -16 2 -44 2 -4 2 36 
2 12 2 -4 2 40 2 53 1 24 2 -4 2 -16 2 -24 
2 -21 2 61 2 68 2 28 1 21 2 -61 2 -8 2 -32 
2 12 2 0 2 -4 2 24 2 24 1 41 2 40 2 36 
2 -4 2 8 2 -8 2 12 2 12 2 8 1 20 2 37 
2 40 2 -44 2 -77 2 -52 2 -20 2 -25 1 25 2 24 
2 32 2 20 2 12 2 36 2 33 2 32 2 20 1 8 
2 -28 2 40 2 40 2 57 2 -12 2 -20 2 0 1 -45 
2 -28 2 0 2 36 2 53 2 60 2 8 2 -4 2 8 
1 12 2 57 2 40 2 -8 2 12 2 4 2 -12 2 -24 
1 -17 2 9 2 0 2 -33 2 -8 2 -20 2 -4 2 -4 
2 40 1 29 2 32 2 -12 2 -24 2 -9 2 0 2 45 
2 32 1 52 2 -12 2 -36 2 -8 2 16 2 -8 2 16 
2 4 2 0 1 56 2 0 2 41 2 28 2 48 2 4 
2 61 2 8 2 48 1 -4 2 12 2 24 2 -40 2 -8 
2 -8 2 20 2 -44 1 -57 2 -28 2 -12 2 36 2 20 
2 -4 2 12 2 33 2 -24 1 -4 2 60 2 48 2 32 
2 61 2 8 2 64 2 -52 1 -16 2 68 2 12 2 29 
2 20 2 40 2 -52 2 60 2 101 1 76 2 77 2 -89 
2 32 2 -4 2 77 2 68 2 73 1 64 2 -8 2 -32 
2 0 2 -57 2 -24 2 0 2 32 2 12 1 17 2 52 
2 36 2 57 2 12 2 64 2 0 2 -28 1 -4 2 -36 
2 64 2 -20 2 36 4497 1452 300 MP stroke
2 -16 2 -32 2 -53 2 -28 1 24 2 -32 2 36 2 53 
2 -36 2 -13 2 53 2 16 2 -81 1 -72 2 -52 2 -8 
2 12 2 36 2 20 2 24 2 20 1 -8 2 -24 2 -36 
2 -44 2 -4 2 0 2 16 2 12 2 -49 1 33 2 -53 
2 16 2 33 2 -45 2 -92 2 -28 2 60 1 52 2 40 
2 -40 2 -36 2 -16 2 -28 2 0 2 -32 2 40 1 56 
2 97 2 52 2 12 2 20 2 0 2 12 2 49 1 0 
2 24 2 -40 2 32 2 12 2 72 2 20 2 -24 2 -28 
1 8 2 12 2 -52 2 -73 2 8 2 -12 2 -4 2 -40 
1 -28 2 -68 2 -5 2 -32 2 -36 2 0 2 -60 2 -81 
2 0 1 16 2 32 2 -16 2 -8 2 -16 2 -8 2 65 
2 24 2 -16 1 0 2 44 2 92 2 -44 2 -20 2 4 
2 -4 2 -16 1 0 2 -12 2 20 2 -4 2 -4 2 40 
2 20 2 -16 2 -40 1 -20 2 -44 2 -21 2 21 2 -12 
2 -73 2 4 2 12 1 -8 2 0 2 -32 2 101 2 40 
2 16 2 44 2 -36 2 -28 1 4 2 -24 2 -16 2 -21 
2 8 2 77 2 -4 2 -36 1 -16 2 8 2 4 2 -37 
2 29 2 12 2 -24 2 8 2 40 1 36 2 32 2 -96 
2 -29 2 -16 2 -20 2 36 2 53 1 20 2 72 2 57 
2 0 2 -69 2 -40 2 40 2 57 2 -8 1 -16 2 24 
2 4 2 4 2 -20 2 -29 2 0 2 -40 2 -32 1 28 
2 4 2 -28 2 60 2 8 2 0 2 -8 2 -20 1 -40 
2 16 2 40 2 37 2 -49 2 -12 2 -32 2 -8 2 40 
1 -8 2 32 2 65 2 40 2 8 2 0 2 32 2 28 
1 -56 2 20 2 32 2 -40 2 -28 2 -12 2 -24 2 -16 
2 -45 1 -56 2 -16 2 40 2 36 2 -24 2 -20 2 28 
2 12 1 41 2 -33 2 -100 2 -12 2 24 2 -16 2 -8 
2 -4 2 20 1 -8 2 -12 2 -24 2 16 2 64 2 -4 
2 16 2 12 1 8 2 4 2 -56 2 -12 2 52 2 36 
2 12 2 -12 2 25 1 28 2 64 2 0 2 -4 2 56 
2 0 2 -48 2 -68 2 -16 1 -8 2 -4 2 24 2 -49 
2 45 2 -8 2 -37 2 -60 1 -72 2 12 2 56 2 -24 
2 24 2 12 2 32 2 -52 2 -36 1 -12 2 0 2 -20 
2 -81 2 52 2 77 2 44 2 16 1 -8 2 8 2 -36 
2 -12 2 4 2 20 2 12 2 52 2 49 1 0 2 -57 
2 -4 2 21 2 0 2 -41 2 -12 2 40 1 -16 2 -20 
2 -16 2 36 2 -44 2 -24 2 0 2 12 2 -4 1 -8 
2 -4 2 0 2 -16 3934 1814 300 MP stroke
2 -49 2 17 2 -13 2 -20 1 8 2 12 2 53 2 -40 
2 -73 2 8 2 24 2 -20 2 12 1 -8 2 73 2 -8 
2 -33 2 -52 2 -36 2 24 2 20 2 16 1 61 2 20 
2 -32 2 8 2 -17 2 -24 2 24 2 5 1 4 2 -41 
2 37 2 84 2 12 2 -36 2 -52 2 -4 2 68 1 -28 
2 0 2 12 2 24 2 24 2 -64 2 -4 2 -45 1 -24 
2 0 2 -32 2 0 2 44 2 45 2 32 2 12 2 20 
1 8 2 -68 2 -77 2 0 2 101 2 56 2 -4 2 -64 
1 40 2 44 2 4 2 16 2 0 2 41 2 -20 2 0 
2 -8 1 28 2 76 2 0 2 -44 2 -8 2 -16 2 -28 
2 -61 1 -12 2 52 2 33 2 -29 2 -112 2 -16 2 24 
2 8 2 -24 1 -28 2 0 2 -5 2 45 2 -4 2 36 
2 24 2 -24 2 20 1 -20 2 16 2 36 2 41 2 -17 
2 33 2 16 2 -4 1 -24 2 -8 2 -4 2 48 2 -16 
2 -8 2 -12 2 4 2 24 1 -12 2 0 2 -57 2 8 
2 29 2 12 2 -4 2 -53 1 -4 2 53 2 16 2 0 
2 4 2 -20 2 12 2 -16 2 -33 1 29 2 4 2 4 
2 -4 2 -13 2 13 2 -81 2 -72 1 0 2 -37 2 -32 
2 4 2 -80 2 -16 2 40 2 -20 2 12 1 -32 2 -41 
2 12 2 -20 2 -8 2 -60 2 -8 2 12 1 20 2 40 
2 32 2 21 2 -25 2 4 2 69 2 36 2 40 1 65 
2 64 2 20 2 28 2 29 2 -41 2 -28 2 -16 2 -12 
1 4 2 -24 2 16 2 -12 2 84 2 21 2 32 2 24 
1 -56 2 -81 2 -24 2 20 2 16 2 8 2 4 2 -32 
2 -28 1 -40 2 -12 2 8 2 8 2 -4 2 72 2 48 
2 12 1 17 2 -13 2 -16 2 16 2 -36 2 -20 2 28 
2 -48 2 20 1 4 2 20 2 20 2 21 2 16 2 32 
2 0 2 -8 1 32 2 12 2 16 2 -44 2 52 2 -32 
2 -48 2 -45 2 21 1 -21 2 0 2 17 2 20 2 4 
2 -61 2 24 2 0 1 21 2 -12 2 -25 2 -24 2 -28 
2 -20 2 32 2 44 2 4 1 -36 2 -40 2 20 2 4 
2 -36 2 4 2 32 2 -20 2 16 1 24 2 -16 2 -32 
2 -32 2 52 2 -48 2 12 2 4 1 -4 2 0 2 -20 
2 -8 2 -65 2 -48 2 -20 2 -20 2 -4 1 24 2 -53 
2 -88 2 36 2 40 2 0 2 12 2 21 1 8 2 -25 
2 49 2 64 2 -20 2 0 2 -8 2 0 2 44 1 32 
2 25 2 8 2 56 2 -12 2 -8 2 0 2 -4 1 -8 
2 44 2 40 2 45 3371 1673 300 MP stroke
2 -37 2 21 2 -33 2 16 2 -4 1 13 2 -85 2 -20 
2 0 2 24 2 -4 2 -40 2 12 1 -28 2 -16 2 -13 
2 17 2 16 2 -8 2 40 2 -20 2 52 1 28 2 20 
2 -28 2 -16 2 0 2 69 2 -41 2 -40 2 16 1 77 
2 -37 2 -36 2 20 2 -20 2 28 2 -36 2 0 1 32 
2 32 2 -48 2 4 2 28 2 12 2 17 2 -85 2 -80 
1 0 2 4 2 -17 2 -32 2 -76 2 8 2 12 2 -12 
1 -12 2 40 2 64 2 -36 2 32 2 -12 2 -28 2 40 
2 -4 1 8 2 73 2 56 2 -36 2 -93 2 41 2 52 
2 44 1 12 2 -20 2 28 2 16 2 13 2 -25 2 4 
2 29 2 -37 1 -4 2 -16 2 12 2 -44 2 32 2 8 
2 -24 2 -24 1 -24 2 -36 2 -29 2 -36 2 53 2 48 
2 44 2 20 2 0 1 32 2 29 2 12 2 44 2 0 
2 -36 2 -45 2 41 2 0 1 -36 2 4 2 40 2 -32 
2 -17 2 0 2 0 2 -20 1 -16 2 -32 2 -4 2 -32 
2 -48 2 -25 2 29 2 4 2 -29 1 -44 2 -16 2 -44 
2 44 2 105 2 44 2 -8 2 -12 1 -24 2 -24 2 32 
2 68 2 61 2 -33 2 -44 2 -16 2 -8 1 4 2 76 
2 61 2 -53 2 -44 2 -64 2 -16 2 -4 1 24 2 20 
2 8 2 -12 2 -73 2 -48 2 -28 2 -40 2 60 1 -12 
2 -28 2 -28 2 -61 2 -28 2 40 2 65 2 4 1 32 
2 -20 2 8 2 48 2 -4 2 12 2 -8 2 -4 2 -8 
1 20 2 49 2 -29 2 -32 2 32 2 61 2 24 2 -8 
2 44 1 0 2 16 2 24 2 41 2 4 2 -49 2 8 
2 -20 1 -28 2 -28 2 4 2 20 2 -8 2 -8 2 48 
2 49 2 0 1 -49 2 20 2 61 2 -4 2 -4 2 64 
2 8 2 -12 1 24 2 -28 2 44 2 0 2 4 2 49 
2 12 2 20 2 20 1 -20 2 -32 2 -36 2 12 2 40 
2 28 2 -28 2 -28 1 32 2 4 2 -8 2 8 2 -36 
2 -49 2 -32 2 -12 2 -8 1 -24 2 -4 2 68 2 -16 
2 -32 2 0 2 60 2 -32 1 -16 2 24 2 32 2 37 
2 -29 2 -72 2 -48 2 12 2 -8 1 68 2 -28 2 -16 
2 -56 2 -33 2 0 2 -16 2 16 2 69 1 12 2 -48 
2 0 2 40 2 12 2 -65 2 8 2 9 1 0 2 20 
2 20 2 0 2 -4 2 4 2 -20 2 -4 2 -65 1 20 
2 29 2 48 2 24 2 -20 2 0 2 -12 2 -65 1 -36 
2 0 2 8 2 -20 2 -36 2 -12 2 48 2 40 2 -48 
1 -32 2 -85 2 8 2808 1883 300 MP stroke
2 4 2 20 2 29 2 -37 2 -4 1 8 2 -8 2 -48 
2 -28 2 28 2 8 2 -16 2 44 2 16 1 37 2 28 
2 20 2 44 2 -12 2 -16 2 0 2 20 1 0 2 69 
2 -33 2 -32 2 -68 2 -36 2 8 2 -16 2 -9 1 25 
2 68 2 56 2 17 2 8 2 -13 2 -48 2 -104 2 -85 
1 -52 2 -12 2 -25 2 4 2 17 2 4 2 44 2 60 
1 -36 2 16 2 44 2 49 2 4 2 24 2 -4 2 4 
2 -8 1 36 2 -28 2 -8 2 28 2 60 2 37 2 116 
2 25 1 24 2 12 2 12 2 12 2 -12 2 -32 2 -37 
2 -48 2 16 1 57 2 8 2 24 2 20 2 0 2 0 
2 -12 2 -4 1 -77 2 65 2 48 2 4 2 -93 2 -64 
2 -28 2 28 2 24 1 -44 2 -12 2 -16 2 4 2 24 
2 0 2 4 2 -24 1 -53 2 -28 2 -16 2 -36 2 12 
2 20 2 8 2 -36 2 -12 1 -81 2 -40 2 -12 2 48 
2 69 2 20 2 -56 2 -61 2 0 1 28 2 29 2 -5 
2 5 2 20 2 -4 2 48 2 -16 1 0 2 40 2 36 
2 -16 2 -44 2 -8 2 -16 2 36 2 52 1 -36 2 -16 
2 32 2 16 2 -48 2 28 2 48 2 13 1 -8 2 0 
2 4 2 -69 2 -36 2 48 2 24 2 73 2 44 1 -16 
2 -8 2 -8 2 -8 2 44 2 40 2 37 2 28 1 -8 
2 -24 2 -45 2 -68 2 8 2 4 2 28 2 4 2 -28 
1 -48 2 -25 2 77 2 -16 2 -52 2 -49 2 -32 2 -20 
1 60 2 24 2 -8 2 37 2 -29 2 -16 2 -28 2 -64 
2 -12 1 12 2 4 2 72 2 45 2 -21 2 -48 2 12 
2 4 2 57 1 28 2 -12 2 80 2 12 2 -4 2 -44 
2 0 2 -89 1 -8 2 37 2 28 2 28 2 4 2 4 
2 16 2 0 2 8 1 -8 2 -28 2 12 2 60 2 20 
2 -16 2 16 2 29 1 -57 2 -12 2 -16 2 -32 2 -56 
2 -4 2 0 2 20 2 24 1 -40 2 -29 2 -32 2 -8 
2 -16 2 -24 2 8 2 16 1 8 2 8 2 -28 2 16 
2 20 2 -16 2 -60 2 -53 2 69 1 8 2 -69 2 8 
2 45 2 40 2 0 2 0 2 -40 1 28 2 8 2 24 
2 -60 2 -32 2 -5 2 0 2 5 2 20 1 -12 2 -25 
2 -76 2 28 2 52 2 49 2 4 2 -12 2 8 1 36 
2 44 2 16 2 -8 2 24 2 -28 2 -8 2 8 1 0 
2 8 2 113 2 12 2 44 2 57 2 -45 2 9 2 -4 
1 20 2 -8 2 -25 2 -12 2 8 2 33 2 0 2 -57 
1 -8 2 -24 2 -32 2245 1645 300 MP stroke
2 0 2 -28 2 24 2 28 2 -12 2 20 1 -4 2 -20 
2 -8 2 -20 2 -53 2 16 2 -40 2 0 1 16 2 16 
2 -20 2 -56 2 -24 2 -77 2 -44 2 28 2 57 1 28 
2 52 2 20 2 36 2 -4 2 -32 2 0 2 28 1 8 
2 -44 2 -8 2 -16 2 4 2 12 2 12 2 -12 2 -4 
1 52 2 49 2 -4 2 0 2 8 2 28 2 28 2 -28 
2 -36 1 -20 2 -41 2 -40 2 -40 2 28 2 36 2 -56 
2 -8 1 44 2 20 2 0 2 89 2 20 2 44 2 16 
2 -28 2 -64 1 -33 2 17 2 16 2 56 2 0 2 -16 
2 -12 2 60 1 20 2 16 2 -24 2 41 2 8 2 -33 
2 21 2 -17 2 -48 1 -4 2 -24 2 -81 2 9 2 12 
2 -12 2 24 2 32 1 -20 2 16 2 32 2 -24 2 -28 
2 -77 2 -56 2 -77 2 -36 1 40 2 45 2 68 2 0 
2 20 2 8 2 -48 2 52 1 33 2 92 2 36 2 -4 
2 -48 2 40 2 0 2 -20 2 20 1 -8 2 -84 2 -20 
2 88 2 93 2 96 2 65 2 8 2 -8 1 -28 2 -81 
2 -40 2 -36 2 -8 2 28 2 -28 2 12 1 -21 2 -28 
2 -12 2 36 2 -44 2 -28 2 60 2 16 2 0 1 41 
2 12 2 -57 2 -4 2 -16 2 0 2 0 2 -60 1 28 
2 36 2 37 2 36 2 28 2 -20 2 12 2 -16 2 -40 
1 44 2 -12 2 -49 2 -16 2 -16 2 -96 2 -49 2 45 
1 -21 2 37 2 20 2 -20 2 -53 2 -108 2 -33 2 49 
2 24 1 20 2 -12 2 -16 2 -52 2 -13 2 9 2 4 
2 4 1 -17 2 -20 2 37 2 36 2 44 2 56 2 -36 
2 -88 2 12 1 -24 2 -21 2 -8 2 -20 2 97 2 48 
2 -4 2 -56 2 -48 1 -21 2 0 2 -32 2 0 2 -8 
2 -20 2 -12 2 -56 1 80 2 -32 2 -4 2 -28 2 -12 
2 20 2 96 2 8 2 33 1 20 2 -28 2 60 2 -4 
2 8 2 -4 2 8 2 -4 1 0 2 -20 2 24 2 20 
2 -16 2 8 2 24 2 49 2 16 1 60 2 28 2 28 
2 -16 2 28 2 -12 2 -20 2 -24 1 -60 2 -12 2 8 
2 -8 2 -33 2 -20 2 28 2 4 2 13 1 16 2 40 
2 48 2 61 2 0 2 -53 2 -40 2 -64 1 -25 2 -32 
2 -84 2 -12 2 0 2 -45 2 20 2 29 2 72 1 61 
2 8 2 -8 2 -17 2 12 2 -16 2 16 2 0 2 -20 
1 -44 2 -24 2 -56 2 0 2 36 2 16 2 -20 2 -36 
1 -29 2 89 2 60 2 -12 2 12 2 16 2 -48 2 -24 
2 52 1 49 2 -17 1682 1702 300 MP stroke
2 25 2 -33 2 -28 2 8 2 -12 2 4 1 45 2 -13 
2 53 2 20 2 20 2 -20 2 -8 2 20 2 68 1 21 
2 -13 2 41 2 -8 2 -28 2 8 2 -33 2 -44 1 -117 
2 -36 2 -28 2 28 2 40 2 61 2 32 2 12 2 4 
1 -48 2 -73 2 -4 2 20 2 37 2 64 2 56 2 -44 
1 -52 2 -57 2 -68 2 52 2 8 2 0 2 57 2 -41 
2 49 1 12 2 0 2 4 2 -16 2 -57 2 -24 2 -4 
2 4 2 69 1 28 2 -8 2 -65 2 29 2 -61 2 -80 
2 8 2 32 1 36 2 40 2 -48 2 48 2 45 2 -41 
2 9 2 -33 2 28 1 -8 2 -4 2 -32 2 -48 2 -48 
2 28 2 4 2 36 1 -20 2 -60 2 -17 2 -44 2 48 
2 21 2 -21 2 25 2 16 1 -28 2 12 2 -33 2 -56 
2 60 2 29 2 24 2 64 1 36 2 -12 2 41 2 84 
2 32 2 8 2 -12 2 -64 2 16 1 76 2 29 2 -25 
2 -20 2 -32 2 65 2 -25 2 -44 1 -32 2 -20 2 -28 
2 12 2 -37 2 61 2 12 2 -60 2 -25 1 -12 2 -4 
2 -12 2 40 2 -16 2 -8 2 8 2 8 2 -20 1 24 
2 49 2 -41 2 -4 2 -64 2 28 2 8 2 45 1 36 
2 28 2 20 2 -4 2 -97 2 -72 2 -44 2 16 2 -16 
1 8 2 -53 2 -56 2 -44 2 12 2 4 2 -36 2 -61 
1 -76 2 -65 2 45 2 28 2 68 2 -48 2 -36 2 24 
2 24 1 60 2 -4 2 -20 2 41 2 84 2 52 2 -36 
2 28 1 16 2 29 2 40 2 8 2 -36 2 20 2 0 
2 40 2 16 1 32 2 0 2 -16 2 -64 2 -24 2 16 
2 -16 2 -57 1 -120 2 -25 2 37 2 -4 2 36 2 68 
2 49 2 12 2 -57 1 -76 2 -40 2 56 2 32 2 -20 
2 44 2 12 2 17 2 0 1 12 2 36 2 72 2 45 
2 48 2 40 2 24 2 57 1 4 2 -73 2 -56 2 -121 
2 -173 2 -56 2 -45 2 33 2 64 1 -4 2 -64 2 -45 
2 -52 2 -65 2 -4 2 77 2 44 1 -100 2 -101 2 -149 
2 -117 2 -76 2 -113 2 -101 2 -88 2 -77 1 12 2 -32 
2 -28 2 32 2 0 2 8 2 -96 2 -81 1 -8 2 -68 
2 -33 2 -24 2 -28 2 -68 2 -121 2 -81 2 -16 1 -20 
2 4 2 20 2 16 2 85 2 117 2 88 2 41 1 -29 
2 41 2 100 2 49 2 -8 2 -49 2 -8 2 4 2 -28 
1 4 2 -36 2 -8 2 -28 2 -21 2 -20 2 -48 2 -8 
2 -16 1 -24 2 -33 2 -48 2 -104 2 -109 2 -28 2 -20 
2 24 1 36 2 64 1119 3610 300 MP stroke
2 65 2 60 2 77 2 32 2 -16 2 -33 2 -20 1 -16 
2 -20 2 -4 2 -8 2 -4 2 -4 2 -8 2 0 1 0 
2 -4 2 -8 2 -16 2 -40 2 -85 2 -48 2 -77 2 -117 
1 -185 2 -153 2 -108 2 -101 2 -44 2 -12 2 -4 2 -4 
1 0 2 0 2 0 2 0 2 0 2 0 2 0 2 0 
2 0 1 0 2 0 2 0 2 0 2 0 2 0 2 0 
2 0 1 0 2 0 2 0 2 -5 2 0 2 0 2 5 
2 0 2 0 1 0 2 0 2 0 2 0 2 0 2 0 
2 0 2 0 2 4 1 0 2 0 2 0 2 0 2 0 
2 0 2 4 2 0 1 0 2 0 2 4 2 0 2 4 
2 -4 2 4 2 4 2 20 1 16 2 16 2 28 2 28 
2 33 2 24 2 40 2 28 1 44 2 53 2 40 2 64 
2 113 2 69 2 40 2 72 2 69 1 84 2 105 2 56 
2 65 2 56 2 44 2 85 2 121 1 116 2 73 2 40 
2 32 2 -4 2 -4 2 0 2 16 2 0 1 0 2 29 
2 32 2 8 2 48 2 65 2 36 2 -4 1 16 2 -28 
2 -53 2 -68 2 -56 2 -49 2 -103 2 -113 2 -15 1 100 
2 59 2 62 2 -71 2 -304 2 -406 2 -469 2 -423 1 0 
848 4520 145 MP stroke
gr

c10
0 sg
%%IncludeResource: font Helvetica
/Helvetica /ISOLatin1Encoding 166.667 FMSR

 818 4587 mt 
( ) s
5056  631 mt 
( ) s
12.5 w
%%IncludeResource: font Symbol
/Symbol /ISOLatin1Encoding 125 FMSR

2696 3563 mt 
(D) s
2772 3563 mt 
(g) s
%%IncludeResource: font Helvetica-Bold
/Helvetica-Bold /ISOLatin1Encoding 125 FMSR

2823 3563 mt 
( = 0 J/m) s
%%IncludeResource: font Helvetica-Bold
/Helvetica-Bold /ISOLatin1Encoding 100 FMSR

3285 3501 mt 
(2) s
gs 2371 3386 1191 951 rc
18.75 w
c8
250 0 2421 3515 2 MP stroke
gr

18.75 w
c8
0 sg
%%IncludeResource: font Symbol
/Symbol /ISOLatin1Encoding 125 FMSR

2696 3793 mt 
(D) s
2772 3793 mt 
(g) s
%%IncludeResource: font Helvetica-Bold
/Helvetica-Bold /ISOLatin1Encoding 125 FMSR

2823 3793 mt 
( = 5 J/m) s
%%IncludeResource: font Helvetica-Bold
/Helvetica-Bold /ISOLatin1Encoding 100 FMSR

3285 3731 mt 
(2) s
gs 2371 3386 1191 951 rc
c9
250 0 2421 3745 2 MP stroke
gr

c9
0 sg
%%IncludeResource: font Symbol
/Symbol /ISOLatin1Encoding 125 FMSR

2696 4024 mt 
(D) s
2772 4024 mt 
(g) s
%%IncludeResource: font Helvetica-Bold
/Helvetica-Bold /ISOLatin1Encoding 125 FMSR

2823 4024 mt 
( = 10 J/m) s
%%IncludeResource: font Helvetica-Bold
/Helvetica-Bold /ISOLatin1Encoding 100 FMSR

3354 3962 mt 
(2) s
gs 2371 3386 1191 951 rc
250 0 2421 3976 2 MP stroke
gr

%%IncludeResource: font Symbol
/Symbol /ISOLatin1Encoding 125 FMSR

2696 4254 mt 
(D) s
2772 4254 mt 
(g) s
%%IncludeResource: font Helvetica-Bold
/Helvetica-Bold /ISOLatin1Encoding 125 FMSR

2823 4254 mt 
( = 12.5 J/m) s
%%IncludeResource: font Helvetica-Bold
/Helvetica-Bold /ISOLatin1Encoding 100 FMSR

3458 4192 mt 
(2) s
gs 2371 3386 1191 951 rc
c10
250 0 2421 4206 2 MP stroke
12.5 w
gr

12.5 w
c10

end %%Color Dict

eplot
%%EndObject

epage
end

showpage

%%Trailer
%%EOF
