%!PS-Adobe-3.0 EPSF-3.0
%%Creator: MATLAB, The MathWorks, Inc. Version 7.12.0.635 (R2011a). Operating System: Linux 2.6.32-358.6.2.el6.x86_64 #1 SMP Thu May 16 11:21:38 CDT 2013 x86_64.
%%Title: ./Discharge_Rates_50ptavg.eps
%%CreationDate: 08/15/2013  12:21:49
%%DocumentNeededFonts: Helvetica-Bold
%%+ Helvetica
%%DocumentProcessColors: Cyan Magenta Yellow Black
%%LanguageLevel: 2
%%Pages: 1
%%BoundingBox:    24    69   599   605
%%EndComments

%%BeginProlog
% MathWorks dictionary
/MathWorks 160 dict begin
% definition operators
/bdef {bind def} bind def
/ldef {load def} bind def
/xdef {exch def} bdef
/xstore {exch store} bdef
% operator abbreviations
/c  /clip ldef
/cc /concat ldef
/cp /closepath ldef
/gr /grestore ldef
/gs /gsave ldef
/mt /moveto ldef
/np /newpath ldef
/cm /currentmatrix ldef
/sm /setmatrix ldef
/rm /rmoveto ldef
/rl /rlineto ldef
/s {show newpath} bdef
/sc {setcmykcolor} bdef
/sr /setrgbcolor ldef
/sg /setgray ldef
/w /setlinewidth ldef
/j /setlinejoin ldef
/cap /setlinecap ldef
/rc {rectclip} bdef
/rf {rectfill} bdef
% page state control
/pgsv () def
/bpage {/pgsv save def} bdef
/epage {pgsv restore} bdef
/bplot /gsave ldef
/eplot {stroke grestore} bdef
% orientation switch
/portraitMode 0 def /landscapeMode 1 def /rotateMode 2 def
% coordinate system mappings
/dpi2point 0 def
% font control
/FontSize 0 def
/FMS {/FontSize xstore findfont [FontSize 0 0 FontSize neg 0 0]
  makefont setfont} bdef
/reencode {exch dup where {pop load} {pop StandardEncoding} ifelse
  exch dup 3 1 roll findfont dup length dict begin
  { 1 index /FID ne {def}{pop pop} ifelse } forall
  /Encoding exch def currentdict end definefont pop} bdef
/isroman {findfont /CharStrings get /Agrave known} bdef
/FMSR {3 1 roll 1 index dup isroman {reencode} {pop pop} ifelse
  exch FMS} bdef
/csm {1 dpi2point div -1 dpi2point div scale neg translate
 dup landscapeMode eq {pop -90 rotate}
  {rotateMode eq {90 rotate} if} ifelse} bdef
% line types: solid, dotted, dashed, dotdash
/SO { [] 0 setdash } bdef
/DO { [.5 dpi2point mul 4 dpi2point mul] 0 setdash } bdef
/DA { [6 dpi2point mul] 0 setdash } bdef
/DD { [.5 dpi2point mul 4 dpi2point mul 6 dpi2point mul 4
  dpi2point mul] 0 setdash } bdef
% macros for lines and objects
/L {lineto stroke} bdef
/MP {3 1 roll moveto 1 sub {rlineto} repeat} bdef
/AP {{rlineto} repeat} bdef
/PDlw -1 def
/W {/PDlw currentlinewidth def setlinewidth} def
/PP {closepath eofill} bdef
/DP {closepath stroke} bdef
/MR {4 -2 roll moveto dup  0 exch rlineto exch 0 rlineto
  neg 0 exch rlineto closepath} bdef
/FR {MR stroke} bdef
/PR {MR fill} bdef
/L1i {{currentfile picstr readhexstring pop} image} bdef
/tMatrix matrix def
/MakeOval {newpath tMatrix currentmatrix pop translate scale
0 0 1 0 360 arc tMatrix setmatrix} bdef
/FO {MakeOval stroke} bdef
/PO {MakeOval fill} bdef
/PD {currentlinewidth 2 div 0 360 arc fill
   PDlw -1 eq not {PDlw w /PDlw -1 def} if} def
/FA {newpath tMatrix currentmatrix pop translate scale
  0 0 1 5 -2 roll arc tMatrix setmatrix stroke} bdef
/PA {newpath tMatrix currentmatrix pop	translate 0 0 moveto scale
  0 0 1 5 -2 roll arc closepath tMatrix setmatrix fill} bdef
/FAn {newpath tMatrix currentmatrix pop translate scale
  0 0 1 5 -2 roll arcn tMatrix setmatrix stroke} bdef
/PAn {newpath tMatrix currentmatrix pop translate 0 0 moveto scale
  0 0 1 5 -2 roll arcn closepath tMatrix setmatrix fill} bdef
/vradius 0 def /hradius 0 def /lry 0 def
/lrx 0 def /uly 0 def /ulx 0 def /rad 0 def
/MRR {/vradius xdef /hradius xdef /lry xdef /lrx xdef /uly xdef
  /ulx xdef newpath tMatrix currentmatrix pop ulx hradius add uly
  vradius add translate hradius vradius scale 0 0 1 180 270 arc 
  tMatrix setmatrix lrx hradius sub uly vradius add translate
  hradius vradius scale 0 0 1 270 360 arc tMatrix setmatrix
  lrx hradius sub lry vradius sub translate hradius vradius scale
  0 0 1 0 90 arc tMatrix setmatrix ulx hradius add lry vradius sub
  translate hradius vradius scale 0 0 1 90 180 arc tMatrix setmatrix
  closepath} bdef
/FRR {MRR stroke } bdef
/PRR {MRR fill } bdef
/MlrRR {/lry xdef /lrx xdef /uly xdef /ulx xdef /rad lry uly sub 2 div def
  newpath tMatrix currentmatrix pop ulx rad add uly rad add translate
  rad rad scale 0 0 1 90 270 arc tMatrix setmatrix lrx rad sub lry rad
  sub translate rad rad scale 0 0 1 270 90 arc tMatrix setmatrix
  closepath} bdef
/FlrRR {MlrRR stroke } bdef
/PlrRR {MlrRR fill } bdef
/MtbRR {/lry xdef /lrx xdef /uly xdef /ulx xdef /rad lrx ulx sub 2 div def
  newpath tMatrix currentmatrix pop ulx rad add uly rad add translate
  rad rad scale 0 0 1 180 360 arc tMatrix setmatrix lrx rad sub lry rad
  sub translate rad rad scale 0 0 1 0 180 arc tMatrix setmatrix
  closepath} bdef
/FtbRR {MtbRR stroke } bdef
/PtbRR {MtbRR fill } bdef
/stri 6 array def /dtri 6 array def
/smat 6 array def /dmat 6 array def
/tmat1 6 array def /tmat2 6 array def /dif 3 array def
/asub {/ind2 exch def /ind1 exch def dup dup
  ind1 get exch ind2 get sub exch } bdef
/tri_to_matrix {
  2 0 asub 3 1 asub 4 0 asub 5 1 asub
  dup 0 get exch 1 get 7 -1 roll astore } bdef
/compute_transform {
  dmat dtri tri_to_matrix tmat1 invertmatrix 
  smat stri tri_to_matrix tmat2 concatmatrix } bdef
/ds {stri astore pop} bdef
/dt {dtri astore pop} bdef
/db {2 copy /cols xdef /rows xdef mul dup 3 mul string
  currentfile 
  3 index 0 eq {/ASCIIHexDecode filter}
  {/ASCII85Decode filter 3 index 2 eq {/RunLengthDecode filter} if }
  ifelse exch readstring pop
  dup 0 3 index getinterval /rbmap xdef
  dup 2 index dup getinterval /gbmap xdef
  1 index dup 2 mul exch getinterval /bbmap xdef pop pop}bdef
/it {gs np dtri aload pop moveto lineto lineto cp c
  cols rows 8 compute_transform 
  rbmap gbmap bbmap true 3 colorimage gr}bdef
/il {newpath moveto lineto stroke}bdef
currentdict end def
%%EndProlog

%%BeginSetup
MathWorks begin

0 cap

end
%%EndSetup

%%Page: 1 1
%%BeginPageSetup
%%PageBoundingBox:    24    69   599   605
MathWorks begin
bpage
%%EndPageSetup

%%BeginObject: obj1
bplot

/dpi2point 8.33333 def
portraitMode -0158 5475 csm

  366   426  4786  4473 rc
84 dict begin %Colortable dictionary
/c0 { 0.000000 0.000000 0.000000 sr} bdef
/c1 { 1.000000 1.000000 1.000000 sr} bdef
/c2 { 0.900000 0.000000 0.000000 sr} bdef
/c3 { 0.000000 0.820000 0.000000 sr} bdef
/c4 { 0.000000 0.000000 0.800000 sr} bdef
/c5 { 0.910000 0.820000 0.320000 sr} bdef
/c6 { 1.000000 0.260000 0.820000 sr} bdef
/c7 { 0.000000 0.820000 0.820000 sr} bdef
c0
1 j
1 sg
   0    0 5651 5651 rf
12.5 w
0 3956 4237 0 0 -3956 848 4520 4 MP
PP
-4237 0 0 3956 4237 0 0 -3956 848 4520 5 MP stroke
8.33333 w
DO
SO
12.5 w
0.1 sg
 848 4520 mt 5085 4520 L
 848  564 mt 5085  564 L
 848 4520 mt  848  564 L
5085 4520 mt 5085  564 L
 848 4520 mt 5085 4520 L
 848 4520 mt  848  564 L
 848 4520 mt  848 4456 L
 848  564 mt  848  628 L
%%IncludeResource: font Helvetica
/Helvetica /ISOLatin1Encoding 133.333 FMSR

 811 4667 mt 
(0) s
1789 4520 mt 1789 4456 L
1789  564 mt 1789  628 L
1752 4667 mt 
(5) s
2731 4520 mt 2731 4456 L
2731  564 mt 2731  628 L
2657 4667 mt 
(10) s
3672 4520 mt 3672 4456 L
3672  564 mt 3672  628 L
3598 4667 mt 
(15) s
4614 4520 mt 4614 4456 L
4614  564 mt 4614  628 L
4540 4667 mt 
(20) s
 848 4520 mt  911 4520 L
5085 4520 mt 5021 4520 L
 750 4569 mt 
(0) s
 848 3860 mt  911 3860 L
5085 3860 mt 5021 3860 L
 639 3909 mt 
(0.2) s
 848 3201 mt  911 3201 L
5085 3201 mt 5021 3201 L
 639 3250 mt 
(0.4) s
 848 2542 mt  911 2542 L
5085 2542 mt 5021 2542 L
 639 2591 mt 
(0.6) s
 848 1883 mt  911 1883 L
5085 1883 mt 5021 1883 L
 639 1932 mt 
(0.8) s
 848 1224 mt  911 1224 L
5085 1224 mt 5021 1224 L
 750 1273 mt 
(1) s
 848  564 mt  911  564 L
5085  564 mt 5021  564 L
 639  613 mt 
(1.2) s
 848 4520 mt 5085 4520 L
 848  564 mt 5085  564 L
 848 4520 mt  848  564 L
5085 4520 mt 5085  564 L
gs 848 565 4238 3956 rc
18.75 w
/c8 { 0.000000 0.000000 1.000000 sr} bdef
c8
1 6 2 -4 2 8 2 -4 2 -2 2 -2 2 10 2 0 
2 -4 1 2 2 -6 2 2 2 4 2 4 2 0 2 7 
2 4 1 2 2 6 2 4 2 -4 2 0 2 -2 2 -2 
2 2 2 6 1 -4 2 6 2 -2 2 0 2 4 2 2 
2 0 2 -4 1 -6 2 -4 2 2 2 10 2 4 2 0 
2 -6 2 -10 2 -2 1 2 2 10 2 0 2 -6 2 0 
2 0 2 2 2 -4 1 -4 2 4 2 2 2 0 2 -4 
2 -6 2 4 2 8 2 8 1 -2 2 -2 2 -2 2 -2 
2 -4 2 -2 2 2 2 -2 2 2 1 8 2 -4 2 6 
2 10 2 2 2 -4 2 11 2 2 1 2 2 -8 2 -9 
2 -4 2 -2 2 0 2 0 2 2 2 4 1 -6 2 -4 
2 -8 2 4 2 8 2 -2 2 8 2 -16 1 0 2 -8 
2 8 2 -2 2 -4 2 2 2 -6 2 4 2 0 1 4 
2 4 2 2 2 -6 2 8 2 -4 2 -2 2 2 1 4 
2 6 2 4 2 2 2 -8 2 -6 2 -4 2 0 2 4 
1 2 2 -10 2 2 2 6 2 -2 2 -10 2 -2 2 2 
1 2 2 -4 2 4 2 -2 2 -4 2 2 2 -2 2 0 
2 4 1 2 2 -6 2 -5 2 3 2 -5 2 19 2 12 
2 8 2 -10 1 2 2 0 2 10 2 5 2 0 2 0 
2 -7 2 0 1 5 2 4 2 -11 2 -4 2 6 2 5 
2 0 2 4 2 2 1 -2 2 2 2 6 2 4 2 -2 
2 -2 2 6 2 6 1 6 2 0 2 -4 2 2 2 6 
2 9 2 6 2 10 2 0 1 8 2 11 2 6 2 4 
2 2 2 -4 2 14 2 8 1 2 2 0 2 2 2 -10 
2 -2 2 2 2 6 2 4 2 0 1 -8 2 2 2 -2 
2 15 2 4 2 -4 2 4 2 6 1 2 2 0 2 -2 
2 -4 2 6 2 -2 2 -2 2 4 2 6 1 4 2 4 
2 0 2 -4 2 -8 2 2 2 -12 2 2 2 10 1 2 
2 -2 2 2 2 -4 2 2 2 2 2 -4 2 -10 1 -8 
2 -5 2 -6 2 -2 2 -8 2 6 2 6 2 -2 2 0 
1 11 2 -7 2 -4 2 -6 2 4 2 0 2 6 2 -6 
1 6 2 -6 2 -2 2 15 2 -7 2 -8 2 -2 2 2 
2 0 1 6 2 4 2 17 2 6 2 -2 2 2 2 -2 
2 2 1 2 2 10 2 0 2 -2 2 -2 2 -10 2 -8 
2 14 2 4 1 -6 2 2 2 0 2 -6 2 6 2 12 
2 9 2 8 1 14 2 6 2 -2 2 0 2 -2 2 -2 
2 -8 2 -8 2 12 1 8 2 15 2 -6 2 2 2 -9 
2 11 2 -6 2 0 4474 3946 300 MP stroke
2 2 1 -15 2 2 2 15 2 10 2 4 2 -2 2 10 
2 -14 1 -12 2 8 2 10 2 -6 2 14 2 4 2 -6 
2 4 2 13 1 6 2 14 2 6 2 -2 2 -6 2 0 
2 6 2 -2 1 -8 2 6 2 2 2 -4 2 12 2 -10 
2 0 2 6 2 6 1 0 2 -4 2 7 2 2 2 4 
2 -13 2 2 2 -2 1 17 2 2 2 22 2 0 2 7 
2 0 2 -2 2 8 2 14 1 -4 2 -10 2 -2 2 10 
2 -6 2 12 2 -6 2 -12 1 -13 2 2 2 -8 2 -6 
2 12 2 11 2 -2 2 -2 2 2 1 6 2 12 2 0 
2 -4 2 6 2 2 2 15 2 10 2 8 1 6 2 -10 
2 8 2 -2 2 2 2 8 2 0 2 7 1 2 2 0 
2 0 2 8 2 -6 2 0 2 -4 2 -7 2 -2 1 6 
2 7 2 0 2 12 2 8 2 -18 2 -6 2 0 1 10 
2 12 2 -8 2 6 2 -4 2 6 2 10 2 11 2 6 
1 8 2 4 2 -18 2 -9 2 17 2 -4 2 12 2 -4 
1 10 2 4 2 -6 2 17 2 4 2 -11 2 -10 2 -4 
2 8 1 4 2 9 2 12 2 -2 2 0 2 -4 2 6 
2 16 1 -2 2 -6 2 4 2 0 2 0 2 15 2 -13 
2 13 2 -11 1 13 2 -4 2 -7 2 23 2 8 2 -10 
2 0 2 -8 2 8 1 0 2 16 2 0 2 -4 2 -2 
2 0 2 2 2 -8 1 4 2 8 2 -10 2 21 2 2 
2 14 2 8 2 6 2 9 1 -2 2 -11 2 -6 2 15 
2 12 2 -6 2 -11 2 3 1 -5 2 9 2 8 2 10 
2 -4 2 0 2 8 2 10 2 -6 1 9 2 0 2 12 
2 20 2 -4 2 6 2 -4 2 13 1 6 2 -2 2 10 
2 27 2 6 2 -6 2 2 2 -6 2 0 1 6 2 6 
2 10 2 2 2 15 2 10 2 23 2 20 1 -4 2 -6 
2 -17 2 -2 2 -6 2 -8 2 -2 2 2 2 2 1 12 
2 0 2 13 2 16 2 23 2 12 2 6 2 0 2 4 
1 19 2 22 2 23 2 14 2 6 2 11 2 -4 2 10 
1 -14 2 -3 2 0 2 3 2 6 2 12 2 8 2 8 
2 2 1 5 2 20 2 8 2 9 2 22 2 21 2 -2 
2 6 1 0 2 2 2 2 2 2 2 -14 2 2 2 0 
2 -7 2 13 1 12 2 6 2 21 2 12 2 2 2 15 
2 18 2 -4 1 -25 2 -8 2 8 2 -6 2 -6 2 0 
2 2 2 -12 2 -15 1 -18 2 0 2 16 2 19 2 16 
2 -6 2 10 2 -2 1 -8 2 2 2 4 2 0 2 -4 
2 -6 2 10 2 -14 3911 3059 300 MP stroke
2 -29 1 -2 2 8 2 17 2 -9 2 -2 2 0 2 11 
2 18 2 0 1 -6 2 12 2 -8 2 35 2 19 2 6 
2 -4 2 4 1 2 2 16 2 8 2 -2 2 0 2 17 
2 26 2 13 2 16 1 10 2 21 2 4 2 8 2 19 
2 29 2 14 2 -6 1 4 2 4 2 12 2 15 2 0 
2 -4 2 6 2 14 2 8 1 -4 2 6 2 2 2 0 
2 21 2 27 2 8 2 18 1 -8 2 2 2 23 2 22 
2 9 2 0 2 2 2 18 2 29 1 27 2 -21 2 -2 
2 25 2 -2 2 10 2 2 2 2 1 19 2 30 2 11 
2 6 2 10 2 -6 2 -23 2 25 2 -2 1 8 2 4 
2 -8 2 -2 2 -4 2 22 2 0 2 17 2 6 1 12 
2 -6 2 6 2 15 2 39 2 22 2 31 2 6 1 31 
2 25 2 4 2 35 2 33 2 -4 2 20 2 31 2 4 
1 6 2 6 2 21 2 53 2 45 2 31 2 15 2 39 
1 12 2 -10 2 30 2 35 2 39 2 37 2 19 2 6 
2 25 1 4 2 4 2 43 2 39 2 12 2 37 2 39 
2 2 1 33 2 31 2 27 2 18 2 -4 2 -2 2 31 
2 47 2 45 1 50 2 33 2 -3 2 21 2 -14 2 24 
2 -8 2 -25 1 25 2 -10 2 2 2 12 2 -20 2 -21 
2 -2 2 29 2 31 1 2 2 -19 2 -8 2 -43 2 -17 
2 13 2 39 2 16 2 15 1 -5 2 7 2 4 2 22 
2 9 2 4 2 22 2 17 1 -29 2 -4 2 -17 2 -6 
2 -20 2 10 2 -14 2 -2 2 18 1 -10 2 22 2 -2 
2 -10 2 -45 2 2 2 -6 2 20 1 2 2 -12 2 29 
2 2 2 20 2 19 2 -2 2 -15 2 -6 1 33 2 29 
2 27 2 12 2 -23 2 -41 2 -6 2 0 1 -31 2 6 
2 7 2 -29 2 -25 2 -14 2 -17 2 -26 2 -35 1 -13 
2 -35 2 -20 2 -10 2 12 2 6 2 45 2 -2 1 23 
2 -10 2 6 2 8 2 6 2 -25 2 -36 2 -23 2 -33 
1 -16 2 -15 2 29 2 31 2 12 2 -10 2 0 2 4 
2 -31 1 10 2 2 2 0 2 -10 2 21 2 4 2 -10 
2 -11 1 -18 2 8 2 16 2 35 2 11 2 4 2 20 
2 27 2 41 1 25 2 -11 2 19 2 8 2 19 2 12 
2 -2 2 8 1 10 2 -20 2 -29 2 2 2 -14 2 8 
2 -4 2 0 2 4 1 14 2 2 2 33 2 35 2 45 
2 44 2 43 2 41 1 -8 2 -33 2 8 2 -4 2 -15 
2 -24 2 -6 2 -23 2 -21 1 5 2 18 2 -4 2 -4 
2 -6 2 -6 2 6 3348 1046 300 MP stroke
2 -11 1 -4 2 -2 2 -12 2 -49 2 -25 2 -27 2 -43 
2 -20 2 16 1 -18 2 12 2 -10 2 8 2 0 2 2 
2 6 2 8 2 8 1 -2 2 -24 2 -17 2 -24 2 10 
2 -2 2 -33 2 14 1 -20 2 4 2 -14 2 -17 2 -18 
2 -54 2 -22 2 10 2 -21 1 -10 2 8 2 13 2 22 
2 13 2 18 2 4 2 8 1 11 2 10 2 -23 2 23 
2 16 2 -4 2 -18 2 -13 2 19 1 37 2 53 2 21 
2 4 2 23 2 8 2 22 2 -16 1 8 2 13 2 -13 
2 21 2 -17 2 13 2 0 2 -17 2 8 1 23 2 12 
2 -20 2 -6 2 20 2 -20 2 -13 2 -20 1 -13 2 -10 
2 -12 2 0 2 37 2 0 2 -21 2 15 2 4 1 8 
2 18 2 25 2 17 2 -5 2 -10 2 -16 2 -17 2 9 
1 -25 2 -21 2 19 2 20 2 0 2 -28 2 4 2 -6 
1 -11 2 -2 2 -20 2 -33 2 0 2 12 2 -6 2 -21 
2 -2 1 -28 2 8 2 -2 2 6 2 16 2 21 2 -10 
2 8 1 -4 2 6 2 0 2 8 2 19 2 6 2 2 
2 2 2 -10 1 10 2 -14 2 -19 2 23 2 -17 2 -22 
2 -21 2 -14 1 -35 2 -39 2 16 2 -10 2 4 2 18 
2 5 2 4 2 16 1 8 2 -16 2 4 2 25 2 -21 
2 -12 2 10 2 14 1 27 2 17 2 -7 2 -6 2 8 
2 -12 2 8 2 -14 2 2 1 -6 2 -14 2 -27 2 6 
2 -8 2 -13 2 29 2 6 2 -2 1 4 2 -8 2 -20 
2 14 2 4 2 25 2 0 2 -4 1 12 2 -6 2 -2 
2 8 2 23 2 -9 2 23 2 27 2 -9 1 5 2 16 
2 2 2 14 2 19 2 -21 2 -26 2 -19 1 0 2 -6 
2 -16 2 -29 2 0 2 2 2 0 2 27 2 22 1 -20 
2 -27 2 29 2 8 2 29 2 6 2 -4 2 2 1 22 
2 -20 2 -21 2 -10 2 -25 2 7 2 -7 2 15 2 -4 
1 4 2 -13 2 9 2 -15 2 -8 2 0 2 8 2 0 
1 4 2 -16 2 -6 2 10 2 0 2 8 2 -2 2 10 
2 -26 1 -4 2 -15 2 -8 2 12 2 17 2 29 2 4 
2 -6 2 20 1 31 2 -4 2 0 2 -19 2 -24 2 -13 
2 15 2 14 1 -6 2 -6 2 -13 2 0 2 31 2 4 
2 4 2 -6 2 15 1 10 2 -6 2 -8 2 32 2 -8 
2 15 2 24 2 21 1 -2 2 0 2 22 2 23 2 -12 
2 -23 2 -4 2 29 2 16 1 17 2 -27 2 -23 2 -16 
2 8 2 -10 2 16 2 2 1 0 2 10 2 0 2 0 
2 -6 2 25 2 2 2785 1110 300 MP stroke
2 -10 2 -4 1 -21 2 4 2 8 2 -2 2 0 2 19 
2 -2 2 -13 1 3 2 6 2 -4 2 4 2 -15 2 -6 
2 0 2 -16 2 16 1 -14 2 -27 2 -14 2 -15 2 -8 
2 -2 2 8 2 27 2 -2 1 -14 2 -5 2 21 2 0 
2 -14 2 -17 2 -18 2 8 1 10 2 23 2 -15 2 37 
2 -24 2 12 2 -14 2 -21 2 0 1 14 2 -12 2 -35 
2 8 2 7 2 -7 2 -8 2 4 1 -14 2 2 2 -14 
2 -17 2 8 2 7 2 8 2 -8 2 -21 1 -10 2 0 
2 37 2 8 2 -2 2 -14 2 -5 2 31 1 19 2 6 
2 -2 2 -2 2 0 2 -10 2 24 2 -18 2 -6 1 -7 
2 7 2 6 2 6 2 -6 2 0 2 -15 2 -6 1 -12 
2 -37 2 -2 2 -23 2 -6 2 -6 2 -10 2 -25 2 4 
1 39 2 12 2 -16 2 -12 2 18 2 -12 2 -10 2 -11 
2 27 1 6 2 -33 2 11 2 4 2 -13 2 4 2 5 
2 -17 1 -51 2 6 2 6 2 12 2 13 2 -23 2 -6 
2 2 2 -4 1 -16 2 -13 2 -14 2 -37 2 -2 2 0 
2 2 2 12 1 2 2 2 2 0 2 19 2 -8 2 -25 
2 10 2 29 2 8 1 21 2 10 2 16 2 13 2 18 
2 -8 2 -37 2 -29 1 6 2 31 2 4 2 29 2 41 
2 12 2 -12 2 0 2 19 1 -13 2 -12 2 18 2 9 
2 12 2 8 2 23 2 -19 1 11 2 -9 2 -10 2 -4 
2 4 2 -2 2 16 2 7 2 0 1 22 2 -4 2 19 
2 -4 2 -9 2 -33 2 -12 2 -33 2 4 1 -6 2 -16 
2 4 2 -2 2 -15 2 -8 2 -20 2 16 1 21 2 -7 
2 -26 2 10 2 27 2 16 2 4 2 -4 2 0 1 -41 
2 -33 2 -8 2 2 2 -12 2 -13 2 0 2 -4 1 7 
2 -3 2 -10 2 13 2 -7 2 -14 2 0 2 14 2 29 
1 0 2 -25 2 -10 2 -22 2 4 2 0 2 -6 2 12 
1 -8 2 18 2 10 2 11 2 16 2 14 2 3 2 -11 
2 21 1 8 2 -12 2 0 2 -4 2 12 2 -10 2 -35 
2 4 1 14 2 2 2 19 2 -15 2 -2 2 -14 2 -21 
2 7 2 0 1 8 2 8 2 21 2 16 2 14 2 11 
2 6 2 2 2 -2 1 6 2 6 2 43 2 19 2 2 
2 -21 2 -14 2 22 1 7 2 26 2 2 2 15 2 -21 
2 -10 2 -19 2 -20 2 -2 1 -8 2 -13 2 -2 2 -18 
2 24 2 0 2 -10 2 23 1 -6 2 18 2 8 2 6 
2 13 2 -2 2 0 2 14 2 -27 1 46 2 14 2 20 
2 5 2 4 2 6 2222 1192 300 MP stroke
2 -23 2 -4 1 6 2 -10 2 -8 2 -27 2 -14 2 -13 
2 -2 2 0 2 -14 1 -23 2 5 2 -13 2 -4 2 4 
2 2 2 -2 2 -33 1 -10 2 -2 2 2 2 16 2 9 
2 -2 2 -2 2 20 2 8 1 15 2 10 2 -18 2 4 
2 22 2 -8 2 21 2 -27 2 -17 1 19 2 4 2 4 
2 -8 2 -10 2 -15 2 -18 2 -23 1 -8 2 18 2 -4 
2 -20 2 16 2 8 2 -28 2 4 2 4 1 39 2 4 
2 6 2 -4 2 -20 2 14 2 16 2 -26 1 22 2 -4 
2 -12 2 -25 2 -18 2 2 2 2 2 -21 2 15 1 12 
2 -16 2 10 2 16 2 -33 2 -28 2 -2 2 8 1 -13 
2 15 2 12 2 0 2 -6 2 31 2 8 2 -39 2 -6 
1 -2 2 22 2 -4 2 -26 2 -27 2 0 2 -27 2 -22 
1 8 2 10 2 -4 2 -4 2 35 2 4 2 -19 2 -20 
2 -10 1 -19 2 -6 2 2 2 0 2 -43 2 -2 2 -35 
2 16 2 25 1 -8 2 8 2 23 2 22 2 35 2 6 
2 4 2 29 1 -8 2 4 2 39 2 35 2 -6 2 10 
2 16 2 2 2 13 1 14 2 -16 2 -27 2 -18 2 16 
2 -2 2 -31 2 -16 1 8 2 31 2 20 2 -16 2 33 
2 6 2 10 2 19 2 30 1 -43 2 -16 2 4 2 6 
2 -31 2 0 2 35 2 19 1 22 2 17 2 45 2 0 
2 20 2 -4 2 -10 2 29 2 29 1 12 2 -29 2 -20 
2 14 2 -31 2 0 2 13 2 -35 1 4 2 20 2 15 
2 0 2 8 2 2 2 -25 2 -22 2 -15 1 13 2 4 
2 2 2 2 2 35 2 14 2 -8 2 -2 2 -2 1 41 
2 -10 2 14 2 -4 2 -19 2 -39 2 31 2 -16 1 -2 
2 -21 2 39 2 -2 2 -18 2 -37 2 -2 2 -7 2 -34 
1 20 2 2 2 -10 2 2 2 -6 2 -13 2 -20 2 8 
1 12 2 2 2 31 2 -18 2 8 2 19 2 -3 2 -18 
2 6 1 -12 2 0 2 -33 2 -21 2 15 2 24 2 -4 
2 13 1 4 2 14 2 -8 2 14 2 -8 2 -14 2 10 
2 -23 2 15 1 -13 2 -12 2 21 2 26 2 4 2 31 
2 2 2 15 1 -13 2 11 2 18 2 43 2 0 2 11 
2 37 2 -5 2 -14 1 2 2 4 2 -2 2 -2 2 -20 
2 2 2 -7 2 -39 2 -32 1 6 2 -15 2 9 2 -37 
2 -11 2 -20 2 -8 2 -9 1 19 2 -10 2 -3 2 23 
2 23 2 -19 2 -27 2 -24 2 0 1 -2 2 33 2 26 
2 0 2 27 2 -25 2 -6 2 8 1 -12 2 -14 2 2 
2 -21 2 33 2 12 1659 1246 300 MP stroke
2 -20 2 -23 2 -39 1 -10 2 -8 2 -25 2 -10 2 -14 
2 18 2 16 2 -24 1 0 2 -10 2 -7 2 0 2 19 
2 14 2 13 2 20 2 31 1 -4 2 31 2 -2 2 4 
2 -9 2 2 2 -8 2 27 1 -8 2 -33 2 2 2 29 
2 20 2 37 2 15 2 -21 2 -2 1 -21 2 -10 2 -14 
2 4 2 8 2 15 2 -3 2 0 2 -6 1 -14 2 -47 
2 -6 2 8 2 28 2 31 2 0 2 15 1 2 2 -4 
2 -9 2 -22 2 -19 2 27 2 6 2 13 2 34 1 5 
2 -15 2 -10 2 -6 2 -35 2 -39 2 -2 2 -4 1 20 
2 -8 2 14 2 -8 2 12 2 2 2 0 2 23 2 2 
1 -6 2 0 2 -4 2 8 2 4 2 -18 2 10 2 -6 
1 2 2 -4 2 12 2 -31 2 13 2 35 2 30 2 15 
2 16 1 -20 2 37 2 -13 2 2 2 15 2 -37 2 22 
2 6 1 5 2 10 2 6 2 0 2 -6 2 6 2 4 
2 2 2 -10 1 20 2 7 2 12 2 14 2 11 2 0 
2 -7 2 -2 2 9 1 6 2 -4 2 -23 2 2 2 2 
2 -12 2 -15 2 -8 1 -14 2 -15 2 -2 2 13 2 6 
2 2 2 -25 2 -12 2 -16 1 32 2 9 2 -27 2 -41 
2 12 2 4 2 6 2 -34 1 2 2 2 2 2 2 16 
2 -20 2 -2 2 26 2 8 2 5 1 -9 2 -4 2 13 
2 -13 2 -14 2 16 2 15 2 22 1 21 2 2 2 4 
2 -6 2 -15 2 -6 2 -24 2 -13 2 -8 1 19 2 -3 
2 -8 2 4 2 17 2 24 2 11 2 26 1 -12 2 -33 
2 -10 2 0 2 29 2 18 2 15 2 -5 2 -28 1 -4 
2 24 2 -4 2 -4 2 2 2 14 2 -2 2 -18 2 -31 
1 -6 2 6 2 4 2 -22 2 0 2 0 2 12 2 -6 
1 -17 2 9 2 12 2 -10 2 -29 2 -27 2 -6 2 -2 
2 -8 1 2 2 6 2 21 2 2 2 -23 2 -23 2 -12 
2 8 1 19 2 -25 2 -20 2 -2 2 0 2 -31 2 -9 
2 -2 2 31 1 29 2 8 2 6 2 -20 2 -23 2 11 
2 -13 2 -6 1 16 2 0 2 -2 2 -24 2 -6 2 -11 
2 21 2 25 2 8 1 16 2 33 2 14 2 29 2 -22 
2 2 2 4 2 0 1 -13 2 -2 2 0 2 2 2 5 
2 -3 2 -24 2 -15 2 21 1 10 2 17 2 8 2 35 
2 27 2 0 2 -9 2 -6 2 17 1 -2 2 4 2 -2 
2 0 2 8 2 -13 2 -24 2 -23 1 -24 2 6 2 20 
2 33 2 23 2 -23 2 -20 2 -7 2 35 1 29 2 33 
2 16 2 -4 2 -4 1096 1104 300 MP stroke
2 -8 2 -6 2 -8 1 -7 2 -51 2 10 2 27 2 -6 
2 -17 2 7 2 2 2 -13 1 -14 2 -27 2 6 2 9 
2 -4 2 -27 2 -15 2 -2 1 13 2 2 2 -13 2 -12 
2 -6 2 6 2 4 2 -14 2 -27 1 -14 2 31 2 16 
2 -6 2 -4 2 12 2 19 2 16 1 -18 2 -21 2 8 
2 27 2 6 2 -10 2 -6 2 -13 2 -18 1 12 2 2 
2 -8 2 -6 2 -15 2 -2 2 -20 2 14 2 -4 1 -8 
2 18 2 23 2 2 2 -16 2 0 2 6 2 6 1 0 
2 8 2 21 2 18 2 -4 2 -14 2 10 2 -10 2 10 
1 12 2 -12 2 29 2 -4 2 8 2 -6 2 8 2 -15 
1 11 2 4 2 8 2 -20 2 -9 2 -8 2 14 2 -14 
2 -27 1 -2 2 -6 2 19 2 -4 2 0 2 -11 2 -12 
2 -10 1 10 2 8 2 25 2 14 2 33 2 37 2 16 
2 21 2 -66 1 -82 2 -68 2 31 2 21 2 -6 2 -17 
2 26 2 10 1 -15 2 -14 2 -22 2 30 2 -24 2 -33 
2 40 2 -19 2 14 1 -30 2 -45 2 18 2 25 2 -97 
2 -455 2 -780 2 -1516 1 -336 848 4520 133 MP stroke
gr

18.75 w
c8
0.1 sg
%%IncludeResource: font Helvetica-Bold
/Helvetica-Bold /ISOLatin1Encoding 183.333 FMSR

2614 4841 mt 
(Time [s]) s
 559 3499 mt  -90 rotate
(Mass Flow Rate [kg/s]) s
90 rotate
gs 848 565 4238 3956 rc
/c9 { 1.000000 0.000000 0.000000 sr} bdef
c9
2 403 2 20 2 -49 2 -49 2 -32 2 -6 2 -5 2 9 
1 17 2 4 2 8 2 -18 2 4 2 -4 2 -6 2 6 
2 21 1 4 2 -1 2 8 2 1 2 3 2 -6 2 -5 
2 4 1 0 2 -8 2 -8 2 -4 2 -4 2 -3 2 5 
2 6 2 8 1 -2 2 4 2 4 2 0 2 4 2 -8 
2 14 2 0 1 0 2 5 2 2 2 0 2 0 2 8 
2 4 2 6 2 0 1 0 2 6 2 0 2 -2 2 4 
2 -4 2 -10 2 -2 1 16 2 8 2 5 2 6 2 -2 
2 -4 2 0 2 4 2 2 1 4 2 4 2 10 2 8 
2 3 2 2 2 6 2 -6 1 8 2 14 2 8 2 21 
2 2 2 2 2 2 2 8 2 -4 1 -6 2 0 2 2 
2 2 2 -6 2 0 2 0 2 -4 2 0 1 -2 2 4 
2 -4 2 4 2 -4 2 8 2 12 2 -8 1 10 2 13 
2 -4 2 -2 2 6 2 -2 2 -19 2 -12 2 0 1 -2 
2 -2 2 0 2 2 2 8 2 4 2 0 2 -4 1 -2 
2 0 2 0 2 2 2 -12 2 10 2 -2 2 -2 2 6 
1 -14 2 -9 2 7 2 12 2 4 2 12 2 17 2 10 
1 2 2 -4 2 -6 2 2 2 2 2 2 2 2 2 8 
2 8 1 -6 2 0 2 15 2 -4 2 -11 2 9 2 -7 
2 0 1 4 2 17 2 6 2 4 2 8 2 2 2 5 
2 -3 2 7 1 10 2 0 2 -10 2 -11 2 0 2 -4 
2 0 2 -4 2 0 1 4 2 21 2 -2 2 -2 2 4 
2 0 2 4 2 10 1 -8 2 -6 2 6 2 -2 2 -14 
2 -11 2 2 2 2 2 11 1 12 2 2 2 8 2 -2 
2 4 2 -10 2 6 2 10 1 -4 2 -8 2 2 2 2 
2 0 2 8 2 -4 2 -14 2 -2 1 2 2 2 2 4 
2 -2 2 12 2 9 2 -2 2 4 1 4 2 4 2 2 
2 14 2 2 2 7 2 12 2 4 2 -2 1 0 2 10 
2 -4 2 -8 2 -4 2 0 2 6 2 -6 1 -15 2 0 
2 -4 2 0 2 0 2 8 2 9 2 -4 2 -5 1 9 
2 -2 2 -4 2 10 2 18 2 -8 2 -4 2 -4 2 -4 
1 2 2 -6 2 -13 2 4 2 7 2 0 2 -7 2 0 
1 9 2 0 2 -9 2 -18 2 2 2 0 2 4 2 6 
2 2 1 2 2 7 2 0 2 -9 2 2 2 0 2 -2 
2 2 1 -10 2 -4 2 8 2 -2 2 2 2 2 2 0 
2 8 2 17 1 -2 2 -4 2 4 2 -8 2 -15 2 -8 
2 -4 2 16 1 -4 2 -12 2 -6 2 6 2 8 2 21 
2 8 2 -10 2 18 4521 3848 300 MP stroke
1 -2 2 21 2 4 2 2 2 12 2 8 2 -8 2 6 
1 -2 2 15 2 2 2 10 2 2 2 2 2 6 2 -2 
2 4 1 -6 2 8 2 -8 2 4 2 0 2 -6 2 2 
2 12 2 2 1 27 2 8 2 0 2 -2 2 -10 2 -6 
2 8 2 6 1 6 2 -2 2 11 2 4 2 0 2 -2 
2 0 2 14 2 12 1 0 2 -14 2 -10 2 2 2 4 
2 2 2 4 2 -20 1 4 2 0 2 2 2 0 2 0 
2 0 2 -2 2 -7 2 -10 1 -6 2 4 2 0 2 -12 
2 2 2 2 2 8 2 6 1 -2 2 -4 2 4 2 6 
2 -2 2 0 2 0 2 -2 2 -2 1 6 2 13 2 4 
2 2 2 2 2 2 2 -4 2 10 1 8 2 27 2 0 
2 4 2 -2 2 -12 2 -15 2 3 2 20 1 6 2 2 
2 17 2 -2 2 0 2 10 2 12 2 2 2 -8 1 -4 
2 10 2 13 2 4 2 16 2 19 2 4 2 0 1 0 
2 24 2 4 2 -10 2 0 2 -16 2 12 2 2 2 14 
1 -2 2 2 2 13 2 10 2 -4 2 0 2 4 2 0 
1 8 2 17 2 6 2 0 2 0 2 8 2 -4 2 -6 
2 6 1 -8 2 14 2 19 2 10 2 16 2 2 2 7 
2 8 1 2 2 -2 2 6 2 6 2 -4 2 0 2 -2 
2 -8 2 -15 1 -8 2 4 2 -6 2 2 2 10 2 19 
2 14 2 -4 1 2 2 10 2 21 2 19 2 14 2 8 
2 2 2 21 2 10 1 0 2 -4 2 -6 2 10 2 12 
2 -6 2 17 2 -17 2 15 1 10 2 -6 2 -13 2 19 
2 6 2 18 2 15 2 6 1 4 2 8 2 -18 2 -2 
2 14 2 4 2 -8 2 -8 2 24 1 11 2 4 2 27 
2 18 2 10 2 15 2 14 2 35 1 -8 2 10 2 2 
2 4 2 8 2 -8 2 23 2 6 2 -10 1 -17 2 -24 
2 -5 2 3 2 -15 2 10 2 17 2 10 1 12 2 -6 
2 4 2 17 2 -6 2 28 2 25 2 19 2 12 1 22 
2 0 2 17 2 29 2 -2 2 20 2 23 2 4 1 41 
2 31 2 -4 2 16 2 31 2 39 2 2 2 20 2 11 
1 0 2 33 2 28 2 4 2 -4 2 4 2 29 2 10 
2 13 1 8 2 4 2 35 2 2 2 10 2 11 2 35 
2 45 1 39 2 24 2 13 2 33 2 16 2 16 2 35 
2 33 2 0 1 27 2 27 2 18 2 -4 2 6 2 33 
2 19 2 14 1 -17 2 -26 2 29 2 12 2 37 2 12 
2 -12 2 -8 2 18 1 17 2 28 2 17 2 43 2 6 
2 31 2 24 2 -18 3958 1835 300 MP stroke
1 23 2 53 2 72 2 14 2 31 2 -6 2 0 2 6 
2 10 1 -6 2 -8 2 20 2 33 2 7 2 6 2 2 
2 -17 1 31 2 21 2 -2 2 -7 2 7 2 -13 2 45 
2 35 2 -6 1 10 2 35 2 21 2 23 2 2 2 4 
2 22 2 19 2 14 1 -14 2 -27 2 16 2 -4 2 9 
2 6 2 -2 2 -13 1 -8 2 0 2 2 2 -29 2 3 
2 6 2 -17 2 -16 2 -33 1 -10 2 -15 2 33 2 6 
2 9 2 30 2 19 2 24 1 0 2 -4 2 11 2 -2 
2 -19 2 35 2 -37 2 -49 2 20 1 29 2 -8 2 24 
2 -10 2 -35 2 -12 2 -6 2 -15 1 21 2 -25 2 17 
2 20 2 31 2 10 2 -24 2 -2 2 -23 1 -25 2 3 
2 0 2 0 2 20 2 -8 2 14 2 2 1 2 2 11 
2 -7 2 -14 2 -14 2 4 2 -6 2 -17 2 -18 1 -31 
2 2 2 29 2 2 2 10 2 0 2 -8 2 -6 2 -7 
1 9 2 14 2 -2 2 16 2 27 2 -12 2 -15 2 -14 
1 -16 2 -9 2 -2 2 19 2 4 2 -12 2 -33 2 -33 
2 -19 1 -26 2 -27 2 -10 2 14 2 35 2 -2 2 18 
2 35 1 17 2 0 2 -39 2 -15 2 -10 2 0 2 -12 
2 14 2 23 1 39 2 2 2 0 2 2 2 23 2 12 
2 55 2 -2 1 -37 2 -4 2 10 2 -24 2 -13 2 29 
2 11 2 4 2 -2 1 -7 2 9 2 4 2 -11 2 -2 
2 2 2 -16 2 2 1 19 2 6 2 -25 2 -12 2 0 
2 57 2 -4 2 29 2 8 1 -27 2 -14 2 -16 2 37 
2 28 2 11 2 -9 2 29 2 37 1 21 2 -17 2 -43 
2 -4 2 -4 2 -39 2 -43 2 -13 1 -12 2 0 2 -8 
2 20 2 -18 2 0 2 35 2 -25 2 -31 1 19 2 25 
2 -21 2 -10 2 -33 2 -2 2 -13 2 -8 1 15 2 12 
2 10 2 25 2 33 2 -8 2 -23 2 6 2 21 1 22 
2 19 2 -31 2 6 2 -8 2 8 2 29 2 31 1 6 
2 -8 2 -52 2 -35 2 -6 2 -33 2 -8 2 29 2 20 
1 -8 2 17 2 16 2 -10 2 28 2 31 2 23 2 -6 
1 14 2 -16 2 -13 2 15 2 -27 2 -21 2 29 2 4 
2 -4 1 -14 2 6 2 31 2 2 2 -2 2 22 2 -6 
2 11 2 0 1 -31 2 -23 2 -12 2 24 2 0 2 11 
2 -13 2 -6 1 -2 2 -29 2 -20 2 -25 2 -6 2 -14 
2 -2 2 -11 2 23 1 16 2 -12 2 14 2 7 2 -9 
2 -2 2 9 2 -25 1 -4 2 8 2 -14 2 8 2 -23 
2 15 2 -7 2 0 3395 1474 300 MP stroke
2 -41 1 -8 2 19 2 33 2 -11 2 -4 2 -6 2 -4 
2 14 1 2 2 -10 2 16 2 -22 2 -23 2 -26 2 8 
2 -15 2 11 1 4 2 -15 2 -14 2 6 2 -14 2 -8 
2 18 2 19 1 12 2 -21 2 -12 2 -10 2 6 2 20 
2 -14 2 4 2 29 1 -2 2 -27 2 -6 2 0 2 27 
2 26 2 -22 2 20 2 23 1 -18 2 4 2 -19 2 -22 
2 -21 2 33 2 18 2 -22 1 2 2 -19 2 11 2 10 
2 4 2 -14 2 -15 2 -2 2 6 1 6 2 25 2 12 
2 -14 2 14 2 17 2 0 2 31 1 26 2 -26 2 24 
2 -4 2 11 2 22 2 -8 2 22 2 -18 1 -21 2 -10 
2 4 2 0 2 -35 2 -8 2 -20 2 4 1 -25 2 4 
2 -2 2 4 2 29 2 -31 2 -31 2 19 2 22 1 9 
2 30 2 29 2 -18 2 -25 2 6 2 -2 2 2 1 -16 
2 16 2 21 2 -15 2 21 2 14 2 -20 2 -19 2 -6 
1 -12 2 8 2 31 2 -15 2 27 2 -39 2 -39 2 2 
2 -2 1 2 2 -10 2 -19 2 5 2 12 2 22 2 37 
2 11 1 8 2 37 2 29 2 -4 2 24 2 8 2 13 
2 -2 2 -25 1 -18 2 -35 2 22 2 10 2 -4 2 -22 
2 -10 2 -15 1 8 2 31 2 -4 2 6 2 -16 2 10 
2 14 2 -22 2 -10 1 10 2 -33 2 -19 2 15 2 39 
2 0 2 0 2 -21 1 -30 2 -5 2 5 2 10 2 29 
2 10 2 -17 2 -4 2 -4 1 10 2 -12 2 -29 2 2 
2 -32 2 0 2 -31 2 -19 1 0 2 11 2 -5 2 -12 
2 -25 2 -24 2 14 2 6 2 11 1 4 2 8 2 -27 
2 -4 2 27 2 14 2 -14 2 -23 2 4 1 -37 2 -4 
2 11 2 0 2 -19 2 0 2 6 2 4 1 21 2 -12 
2 -15 2 -2 2 -6 2 20 2 19 2 -8 2 -35 1 -4 
2 -19 2 -14 2 4 2 -14 2 0 2 -2 2 14 1 6 
2 -20 2 18 2 -2 2 29 2 26 2 2 2 -20 2 -23 
1 19 2 31 2 28 2 11 2 2 2 6 2 0 2 18 
1 21 2 14 2 -12 2 -19 2 -20 2 8 2 2 2 23 
2 0 1 -25 2 -6 2 12 2 -28 2 2 2 22 2 -6 
2 4 1 21 2 -21 2 25 2 -21 2 11 2 4 2 0 
2 -2 2 6 1 8 2 14 2 2 2 -16 2 8 2 25 
2 14 2 37 2 2 1 -16 2 -27 2 -10 2 -6 2 24 
2 19 2 4 2 -8 1 -29 2 -21 2 9 2 0 2 -13 
2 -10 2 10 2 17 2 8 1 12 2 11 2 22 2 27 
2 0 2 -10 2 -5 2832 1437 300 MP stroke
2 -10 1 10 2 15 2 14 2 -16 2 2 2 -15 2 -34 
2 16 2 -27 1 -16 2 -29 2 14 2 -4 2 -2 2 -12 
2 4 2 12 1 19 2 0 2 -21 2 -8 2 29 2 -2 
2 -17 2 23 2 12 1 -8 2 10 2 -16 2 -2 2 -14 
2 -15 2 37 2 -4 1 -12 2 -6 2 22 2 -27 2 -28 
2 -23 2 -25 2 -6 2 15 1 -31 2 -13 2 3 2 16 
2 23 2 14 2 0 2 6 2 -27 1 11 2 8 2 37 
2 14 2 -6 2 14 2 31 2 11 1 2 2 37 2 14 
2 25 2 10 2 -12 2 -9 2 27 2 12 1 13 2 -31 
2 -12 2 4 2 -41 2 -23 2 -12 2 -25 1 4 2 8 
2 4 2 15 2 10 2 19 2 6 2 8 2 -10 1 24 
2 23 2 10 2 10 2 11 2 -9 2 23 2 -20 1 8 
2 10 2 -27 2 -14 2 6 2 -16 2 6 2 2 2 2 
1 -33 2 -6 2 12 2 -6 2 -10 2 -2 2 -2 2 -13 
1 -8 2 -12 2 8 2 4 2 10 2 -4 2 7 2 -37 
2 8 1 -4 2 6 2 14 2 -12 2 2 2 6 2 0 
2 6 2 19 1 4 2 -12 2 10 2 -13 2 -22 2 10 
2 2 2 15 1 -13 2 6 2 -12 2 -2 2 -23 2 -8 
2 -6 2 29 2 29 1 0 2 -5 2 35 2 -2 2 9 
2 -17 2 12 2 9 1 -13 2 -12 2 -6 2 0 2 8 
2 -8 2 12 2 -2 2 2 1 -4 2 -20 2 2 2 8 
2 12 2 -12 2 -2 2 2 1 31 2 39 2 4 2 -4 
2 -15 2 -20 2 -13 2 -18 2 -6 1 4 2 22 2 11 
2 -9 2 -8 2 -10 2 -18 2 -21 1 21 2 14 2 -2 
2 8 2 2 2 -18 2 -25 2 6 2 4 1 -10 2 27 
2 -15 2 15 2 -17 2 6 2 21 2 43 2 21 1 -7 
2 -14 2 4 2 6 2 -6 2 -35 2 -18 2 6 1 -23 
2 -16 2 14 2 2 2 15 2 8 2 -25 2 -33 2 -28 
1 8 2 20 2 25 2 19 2 28 2 9 2 6 2 -19 
1 -22 2 4 2 2 2 -17 2 33 2 17 2 -37 2 -27 
2 12 1 -2 2 -22 2 -29 2 37 2 14 2 0 2 -2 
2 -31 1 -2 2 -12 2 4 2 -29 2 -10 2 -51 2 -11 
2 7 2 8 1 0 2 -4 2 14 2 4 2 -2 2 -14 
2 6 2 2 1 -27 2 0 2 15 2 -13 2 -2 2 15 
2 10 2 12 2 -12 1 -4 2 -21 2 -8 2 -35 2 -31 
2 7 2 34 2 -20 2 22 1 9 2 -19 2 -8 2 10 
2 21 2 -2 2 2 2 22 1 17 2 -12 2 10 2 -17 
2 -6 2 17 2 12 2269 1570 300 MP stroke
2 29 2 14 1 29 2 -19 2 25 2 10 2 -4 2 -16 
2 8 2 -10 1 10 2 25 2 24 2 25 2 8 2 2 
2 33 2 35 2 -8 1 10 2 -4 2 6 2 10 2 -4 
2 -8 2 -4 2 -8 1 -4 2 12 2 0 2 -12 2 -13 
2 15 2 -41 2 -17 2 2 1 -10 2 -4 2 -10 2 -13 
2 2 2 -10 2 -12 2 -27 1 -23 2 -2 2 17 2 10 
2 -27 2 -49 2 2 2 -8 2 35 1 -4 2 -13 2 23 
2 18 2 -20 2 -21 2 -33 2 -22 2 -15 1 13 2 -10 
2 -9 2 -28 2 0 2 -9 2 2 2 23 1 -2 2 12 
2 0 2 6 2 -30 2 -17 2 -8 2 -2 2 2 1 18 
2 -4 2 -26 2 10 2 43 2 25 2 20 2 21 1 18 
2 15 2 24 2 -2 2 11 2 2 2 0 2 24 2 -4 
1 -25 2 33 2 54 2 -6 2 4 2 -11 2 11 2 -9 
1 -10 2 -2 2 15 2 26 2 15 2 -13 2 15 2 -11 
2 15 1 2 2 6 2 -31 2 -6 2 0 2 -21 2 15 
2 -21 1 2 2 15 2 6 2 8 2 -8 2 -10 2 -7 
2 -34 2 18 1 19 2 22 2 -14 2 -6 2 4 2 -15 
2 -10 2 -2 2 -43 1 -12 2 -27 2 2 2 -8 2 -25 
2 -21 2 9 2 -13 1 -30 2 -11 2 -4 2 -8 2 -4 
2 0 2 10 2 -6 2 10 1 0 2 15 2 32 2 -24 
2 -17 2 -12 2 12 2 15 1 6 2 -10 2 0 2 4 
2 -17 2 -8 2 -37 2 -12 2 31 1 26 2 15 2 -6 
2 -11 2 31 2 -12 2 14 2 -33 1 -33 2 -18 2 -17 
2 9 2 -15 2 -4 2 39 2 21 2 22 1 19 2 8 
2 12 2 -4 2 21 2 8 2 4 2 0 1 -2 2 -14 
2 -4 2 2 2 -11 2 17 2 -41 2 -13 2 -37 1 -16 
2 16 2 25 2 19 2 -2 2 -13 2 -24 2 26 2 33 
1 -4 2 -14 2 39 2 12 2 -14 2 -25 2 -21 2 -2 
1 31 2 23 2 -2 2 16 2 0 2 33 2 43 2 -4 
2 -6 1 25 2 -17 2 -2 2 0 2 4 2 -20 2 -11 
2 27 1 -12 2 35 2 -23 2 -20 2 -7 2 -4 2 -16 
2 29 2 34 1 7 2 8 2 2 2 45 2 19 2 30 
2 2 2 -6 1 -6 2 -33 2 -33 2 -6 2 4 2 -24 
2 -19 2 15 2 6 1 -31 2 -8 2 45 2 4 2 4 
2 0 2 -12 2 8 1 8 2 -8 2 -8 2 -35 2 -39 
2 10 2 21 2 -31 2 47 1 29 2 10 2 0 2 31 
2 8 2 -31 2 -10 2 -8 2 10 1 10 2 13 2 0 
2 18 2 -16 2 -45 1706 1469 300 MP stroke
2 -17 2 -37 1 -22 2 -29 2 -4 2 6 2 -8 2 4 
2 -17 2 15 2 18 1 35 2 17 2 12 2 -2 2 -8 
2 22 2 -2 2 19 1 0 2 -19 2 -6 2 2 2 2 
2 -27 2 -18 2 6 2 2 1 2 2 -4 2 -16 2 -15 
2 15 2 10 2 4 2 -14 1 -9 2 -30 2 -2 2 22 
2 17 2 -17 2 -22 2 -23 2 -10 1 -2 2 16 2 4 
2 2 2 25 2 27 2 2 2 0 1 0 2 -21 2 -12 
2 -23 2 41 2 31 2 12 2 -16 2 -14 1 -11 2 -24 
2 6 2 -17 2 9 2 10 2 -23 2 35 2 0 1 -10 
2 10 2 -2 2 8 2 17 2 -2 2 20 2 11 1 24 
2 8 2 5 2 -5 2 -37 2 -6 2 15 2 26 2 4 
1 -14 2 -2 2 4 2 15 2 39 2 8 2 20 2 -4 
1 10 2 37 2 -16 2 2 2 14 2 -2 2 -22 2 -4 
2 16 1 23 2 -6 2 -15 2 -14 2 -4 2 14 2 -12 
2 12 1 -12 2 -6 2 32 2 -8 2 2 2 8 2 25 
2 6 2 11 1 22 2 -12 2 -27 2 -12 2 -6 2 -29 
2 -37 2 2 1 -33 2 -16 2 2 2 6 2 -6 2 4 
2 -4 2 -19 2 8 1 7 2 -9 2 -12 2 0 2 -6 
2 6 2 -22 2 -40 2 19 1 16 2 -14 2 4 2 4 
2 0 2 -6 2 -2 2 -6 1 4 2 12 2 6 2 -22 
2 27 2 6 2 18 2 19 2 -27 1 -2 2 -21 2 -37 
2 -18 2 2 2 -2 2 16 2 11 1 4 2 8 2 -12 
2 30 2 27 2 -29 2 17 2 -6 2 24 1 -4 2 -2 
2 8 2 15 2 31 2 12 2 0 2 -4 1 -15 2 -4 
2 17 2 -23 2 0 2 35 2 -4 2 -43 2 0 1 20 
2 17 2 -6 2 6 2 -25 2 -22 2 4 2 6 1 -19 
2 -8 2 -2 2 6 2 -16 2 -17 2 2 2 21 2 29 
1 20 2 11 2 20 2 -16 2 -41 2 4 2 10 2 14 
2 15 1 18 2 6 2 6 2 -6 2 6 2 -4 2 27 
2 12 1 0 2 -24 2 -6 2 10 2 -19 2 13 2 14 
2 -6 2 0 1 -2 2 12 2 -10 2 -10 2 24 2 23 
2 -2 2 -6 1 22 2 19 2 31 2 6 2 -11 2 -16 
2 -8 2 16 2 15 1 4 2 8 2 8 2 10 2 -16 
2 -16 2 -15 2 -16 1 -8 2 16 2 27 2 -4 2 20 
2 2 2 0 2 -10 2 -4 1 12 2 23 2 2 2 10 
2 -23 2 -14 2 -2 2 18 1 -4 2 -37 2 17 2 12 
2 -4 2 2 2 -8 2 10 2 17 1 0 2 10 2 20 
2 -30 2 -29 2 -6 1143 1276 300 MP stroke
2 -17 2 -33 2 -22 1 -19 2 -14 2 -2 2 -2 2 18 
2 11 2 -15 2 -2 1 4 2 -35 2 2 2 -2 2 23 
2 -4 2 -2 2 -41 2 -4 1 -33 2 -56 2 -18 2 -21 
2 -18 2 -6 2 2 2 -15 1 -6 2 -23 2 19 2 -25 
2 -24 2 8 2 4 2 12 2 0 1 -26 2 0 2 20 
2 -8 2 35 2 -33 2 -14 2 -2 1 -31 2 33 2 20 
2 12 2 3 2 14 2 8 2 10 2 -2 1 33 2 13 
2 -19 2 -23 2 3 2 -21 2 -8 2 26 1 9 2 -25 
2 -39 2 -8 2 4 2 31 2 12 2 31 2 2 1 4 
2 2 2 33 2 20 2 9 2 10 2 6 2 -6 2 -19 
1 23 2 21 2 -37 2 0 2 14 2 -27 2 0 2 0 
1 0 2 29 2 -29 2 27 2 19 2 -9 2 13 2 -19 
2 2 1 -12 2 -2 2 -15 2 -12 2 4 2 -4 2 -23 
2 -32 1 -9 2 21 2 8 2 19 2 -7 2 -28 2 -35 
2 37 2 41 1 6 2 -21 2 -10 2 -12 2 -2 2 6 
2 25 2 24 1 -22 2 -15 2 6 2 -18 2 8 2 27 
2 -8 2 33 2 -72 1 -48 2 -69 2 4 2 3 2 -58 
2 -37 2 -17 2 -33 1 -19 2 18 2 11 2 -1 2 80 
2 -96 2 -13 2 77 2 -93 1 10 2 -35 2 9 2 -180 
2 -93 2 -203 2 -647 2 -1510 1 0 848 4520 158 MP stroke
0 sg
2 -2 2 -4 2 -15 2 -6 2 -6 2 0 2 10 1 13 
2 -5 2 0 2 -6 2 4 2 -2 2 -2 2 -6 2 2 
1 6 2 2 2 -2 2 0 2 2 2 7 2 2 2 -5 
1 0 2 -8 2 -4 2 -8 2 6 2 -2 2 14 2 -2 
2 -4 1 -4 2 -4 2 0 2 4 2 8 2 -4 2 -12 
2 -19 1 -4 2 -4 2 11 2 4 2 6 2 4 2 -4 
2 6 2 6 1 2 2 8 2 0 2 4 2 5 2 -7 
2 -2 2 4 2 7 1 10 2 16 2 7 2 10 2 6 
2 -2 2 -8 2 2 1 2 2 0 2 6 2 10 2 0 
2 2 2 -4 2 15 2 10 1 6 2 -2 2 4 2 -14 
2 2 2 6 2 4 2 12 1 8 2 7 2 4 2 10 
2 6 2 0 2 -6 2 -6 2 -2 1 2 2 2 2 12 
2 13 2 -2 2 -3 2 -8 2 2 1 9 2 2 2 18 
2 10 2 6 2 9 2 2 2 0 2 -8 1 -5 2 -8 
2 0 2 -4 2 0 2 -4 2 0 2 -2 1 -6 2 -4 
2 0 2 12 2 12 2 -12 2 -4 2 0 2 2 1 4 
2 14 2 2 2 9 2 8 2 10 2 4 2 15 2 0 
1 0 2 -2 2 2 2 6 2 16 2 2 2 2 2 4 
1 -2 2 19 2 12 2 8 2 9 2 -2 2 6 2 4 
2 -8 1 12 2 -14 2 4 2 0 2 4 2 0 2 6 
2 6 1 17 2 10 2 14 2 11 2 2 2 12 2 4 
2 -6 2 -4 1 -8 2 -7 2 4 2 9 2 -4 2 4 
2 10 2 -4 1 -4 2 -6 2 2 2 2 2 18 2 -4 
2 12 2 -2 2 4 1 0 2 -4 2 4 2 9 2 4 
2 -11 2 -6 2 -30 1 -5 2 2 2 13 2 8 2 -2 
2 4 2 2 2 -8 2 8 1 2 2 2 2 0 2 6 
2 4 2 0 2 -6 2 6 2 5 1 6 2 2 2 -4 
2 0 2 16 2 8 2 9 2 20 1 23 2 -4 2 0 
2 -2 -2 -5 2 2 2 11 2 0 2 -2 2 -13 2 -12 
1 -8 2 -8 2 10 2 -2 2 0 2 -4 2 4 2 -12 
1 0 2 36 2 5 2 6 2 10 2 -4 2 -17 2 -10 
2 -2 1 8 2 19 2 8 2 16 2 5 2 8 2 10 
2 -4 1 0 2 14 2 2 2 2 2 5 2 -11 2 0 
2 4 2 13 1 8 2 18 2 11 2 -9 2 -10 2 2 
2 8 2 15 1 16 2 9 2 2 2 0 2 -2 2 -7 
2 -12 2 -2 2 -2 1 -8 2 10 2 10 2 19 2 -11 
2 17 2 2 2 -14 2 6 1 10 2 -8 2 12 2 10 
2 21 2 0 2 -12 4475 3449 300 MP stroke
2 -15 1 -6 2 -4 2 -2 2 -2 2 -12 2 -3 2 13 
2 0 2 -2 1 -11 2 -8 2 21 2 20 2 15 2 10 
2 -8 2 -19 1 2 2 17 2 6 2 10 2 17 2 -4 
2 -15 2 15 2 0 1 28 2 2 2 11 2 12 2 16 
2 19 2 29 2 14 1 10 2 17 2 8 2 12 2 13 
2 10 2 0 2 16 2 27 1 16 2 17 2 8 2 12 
2 15 2 2 2 4 2 4 1 8 2 21 2 20 2 15 
2 10 2 2 2 14 2 31 2 17 1 10 2 6 2 4 
2 -6 2 14 2 19 2 4 2 -16 2 6 1 -9 2 -8 
2 6 2 -2 2 -4 2 13 2 -5 2 35 1 9 2 6 
2 0 2 18 2 15 2 12 2 2 2 -23 2 0 1 0 
2 15 2 0 2 -4 2 -6 2 -21 2 -19 2 -8 1 -4 
2 29 2 14 2 19 2 -10 2 -11 2 6 2 -4 2 11 
1 24 2 8 2 37 2 7 2 -13 2 -2 2 -2 2 6 
1 13 2 14 2 2 2 16 2 19 2 25 2 47 2 47 
2 27 1 26 2 56 2 35 2 4 2 25 2 0 2 18 
2 14 1 37 2 -16 2 4 2 21 2 26 2 74 2 35 
2 39 2 21 1 16 2 45 2 23 2 51 2 35 2 52 
2 51 2 8 2 12 1 5 2 39 2 32 2 9 2 20 
2 0 2 6 2 35 1 -22 2 37 2 28 2 48 2 12 
2 -8 2 -10 2 14 2 39 1 6 2 0 2 2 2 -16 
2 4 2 14 2 17 2 -23 1 -18 2 41 2 -13 2 6 
2 21 2 23 2 -2 2 26 2 -4 1 -29 2 7 2 -29 
2 6 2 -33 2 -25 2 9 2 14 1 0 2 0 2 -2 
2 -12 2 -9 2 -2 2 21 2 12 2 -12 1 12 2 45 
2 7 2 -9 2 -14 2 -6 2 47 2 10 1 25 2 -4 
2 4 2 4 2 15 2 6 2 -15 2 15 2 16 1 8 
2 -8 2 -8 2 -14 2 -17 2 8 2 9 2 0 2 12 
1 -12 2 6 2 0 2 4 2 2 2 -6 2 8 2 -12 
1 -13 2 8 2 -6 2 15 2 -2 2 -37 2 24 2 -14 
2 -10 1 -13 2 -20 2 -2 2 8 2 10 2 15 2 -15 
2 -31 1 27 2 54 2 39 2 -3 2 -36 2 -37 2 -35 
2 -48 2 2 1 9 2 -7 2 -22 2 -4 2 -21 2 -6 
2 10 2 4 1 -12 2 25 2 6 2 14 2 -8 2 -20 
2 -21 2 0 2 -8 1 -13 2 -18 2 -27 2 9 2 -3 
2 -10 2 -10 2 -17 1 25 2 -6 2 -6 2 -4 2 -17 
2 8 2 23 2 -8 2 -2 1 -29 2 -33 2 -10 2 16 
2 23 2 0 2 -37 3912 1759 300 MP stroke
2 -29 2 -14 1 -25 2 -6 2 2 2 14 2 31 2 -2 
2 4 2 6 1 7 2 -13 2 -12 2 -14 2 4 2 8 
2 12 2 -20 2 -19 1 -29 2 25 2 6 2 27 2 -6 
2 -10 2 -9 2 23 1 18 2 31 2 15 2 24 2 17 
2 -4 2 -23 2 -16 2 16 1 23 2 -15 2 0 2 -2 
2 10 2 21 2 23 2 12 1 10 2 8 2 -16 2 -25 
2 -14 2 -6 2 -13 2 -8 2 -2 1 10 2 15 2 39 
2 18 2 -6 2 -14 2 2 2 6 1 10 2 15 2 -13 
2 29 2 6 2 25 2 18 2 4 2 -20 1 8 2 0 
2 25 2 2 2 25 2 -7 2 -6 2 -43 2 -12 1 8 
2 18 2 15 2 31 2 6 2 -15 2 -8 2 8 1 -14 
2 -31 2 -16 2 -31 2 6 2 10 2 7 2 -23 2 10 
1 35 2 -6 2 -27 2 -22 2 20 2 33 2 -4 2 -29 
1 -45 2 -10 2 24 2 31 2 -2 2 13 2 16 2 0 
2 -8 1 -39 2 -6 2 -42 2 -12 2 15 2 16 2 -23 
2 -8 1 -18 2 18 2 -4 2 -6 2 12 2 33 2 19 
2 -42 2 -24 1 -4 2 6 2 25 2 -27 2 -15 2 -18 
2 -6 2 18 1 23 2 37 2 12 2 -8 2 -21 2 -20 
2 -15 2 -10 2 43 1 29 2 37 2 -4 2 -16 2 16 
2 23 2 -2 2 -9 2 -14 1 27 2 16 2 12 2 -4 
2 13 2 -5 2 -16 2 -14 1 20 2 29 2 4 2 10 
2 35 2 25 2 39 2 6 2 17 1 -3 2 11 2 -25 
2 -31 2 25 2 12 2 -18 2 -37 1 -4 2 26 2 19 
2 31 2 4 2 29 2 -13 2 -12 2 -10 1 10 2 16 
2 43 2 9 2 -21 2 -39 2 -12 2 -29 1 -14 2 -2 
2 -17 2 -10 2 39 2 12 2 0 2 -16 2 -21 1 -4 
2 -8 2 -19 2 9 2 4 2 10 2 -6 2 -43 1 -17 
2 4 2 -4 2 -26 2 -21 2 -29 2 -10 2 19 2 -13 
1 -8 2 14 2 17 2 -21 2 33 2 41 2 4 2 -26 
2 -13 1 -8 2 23 2 -6 2 16 2 -12 2 -23 2 -10 
2 -13 1 -16 2 14 2 25 2 21 2 26 2 19 2 0 
2 14 2 4 1 -10 2 -14 2 -9 2 5 2 -21 2 18 
2 -16 2 -12 1 16 2 -6 2 10 2 -14 2 8 2 25 
2 24 2 -6 2 -24 1 -2 2 -15 2 -2 2 -29 2 -16 
2 -14 2 20 2 8 1 4 2 19 2 -17 2 -16 2 -25 
2 33 2 -2 2 2 2 2 1 -14 2 -14 2 -9 2 9 
2 -13 2 2 2 -18 2 -13 1 -2 2 4 2 -10 2 -18 
2 4 2 -8 2 12 3349 1646 300 MP stroke
2 6 2 -25 1 -18 2 4 2 4 2 -16 2 8 2 6 
2 -25 2 9 2 12 1 -2 2 -21 2 -8 2 -10 2 -10 
2 12 2 -10 2 8 1 35 2 12 2 -6 2 19 2 2 
2 10 2 -31 2 4 2 2 1 -12 2 -23 2 -2 2 39 
2 -6 2 8 2 2 2 29 1 14 2 21 2 -2 2 -29 
2 -31 2 -4 2 -10 2 2 2 27 1 2 2 -2 2 -17 
2 -39 2 -16 2 2 2 18 2 19 1 16 2 39 2 0 
2 15 2 12 2 10 2 15 2 6 2 14 1 -20 2 -19 
2 -26 2 8 2 14 2 10 2 -22 2 -17 1 7 2 10 
2 -29 2 2 2 -2 2 -16 2 -21 2 6 2 52 1 -7 
2 -34 2 6 2 -27 2 29 2 -17 2 -20 2 -52 2 -14 
1 12 2 74 2 31 2 29 2 25 2 -29 2 16 2 2 
1 13 2 14 2 2 2 4 2 -12 2 -6 2 -29 2 -31 
2 -2 1 -21 2 7 2 -9 2 -22 2 10 2 -4 2 -8 
2 -11 1 11 2 -21 2 -6 2 8 2 0 2 13 2 -9 
2 -6 2 29 1 -8 2 22 2 13 2 10 2 -10 2 -17 
2 0 2 -2 1 -6 2 16 2 -28 2 6 2 10 2 54 
2 6 2 -15 2 -37 1 -2 2 -6 2 -16 2 -19 2 -8 
2 45 2 -6 2 14 1 -6 2 -6 2 6 2 -14 2 25 
2 -7 2 -2 2 11 2 -7 1 -4 2 -6 2 17 2 14 
2 29 2 41 2 16 2 13 2 -3 1 -6 2 -4 2 10 
2 5 2 -25 2 -14 2 -33 2 -15 1 -2 2 -2 2 8 
2 5 2 10 2 -2 2 -8 2 -3 2 -6 1 4 2 21 
2 -8 2 2 2 18 2 -2 2 -31 2 -16 1 -8 2 6 
2 4 2 -23 2 9 2 -11 2 7 2 4 2 -4 1 -23 
2 -31 2 35 2 -6 2 4 2 -33 2 17 2 16 1 -16 
2 -2 2 -11 2 -6 2 -14 2 6 2 12 2 -2 2 -6 
1 -12 2 33 2 12 2 8 2 27 2 -10 2 8 2 0 
1 -2 2 0 2 -6 2 24 2 29 2 6 2 -6 2 -23 
2 -14 1 -10 2 -13 2 19 2 -4 2 -11 2 15 2 10 
2 33 1 12 2 4 2 7 2 0 2 4 2 -9 2 5 
2 0 2 2 1 -31 2 10 2 10 2 33 2 -26 2 -35 
2 -7 2 9 2 8 1 0 2 20 2 -4 2 -8 2 -8 
2 6 2 2 2 -37 1 6 2 6 2 29 2 27 2 -27 
2 -2 2 17 2 -7 2 2 1 -18 2 -39 2 -37 2 10 
2 13 2 16 2 16 2 17 1 -12 2 8 2 6 2 -2 
2 -17 2 -12 2 2 2 -4 2 2 1 6 2 8 2 3 
2 -13 2 10 2 3 2786 1623 300 MP stroke
2 -21 2 -6 1 -10 2 -27 2 -4 2 10 2 16 2 -22 
2 10 2 -2 2 0 1 37 2 -6 2 14 2 -20 2 -15 
2 -14 2 -21 2 -4 1 -26 2 -31 2 14 2 8 2 -18 
2 10 2 -6 2 27 2 16 1 31 2 -2 2 2 2 -23 
2 -22 2 14 2 8 2 11 2 -4 1 -25 2 -35 2 -23 
2 -2 2 -20 2 -27 2 -12 2 0 1 2 2 27 2 18 
2 21 2 14 2 14 2 13 2 30 2 -4 1 4 2 0 
2 13 2 -17 2 -33 2 -26 2 -33 2 12 1 -37 2 35 
2 23 2 20 2 -2 2 13 2 -9 2 0 2 9 1 4 
2 -13 2 -20 2 22 2 -18 2 33 2 -27 2 -18 1 10 
2 8 2 12 2 9 2 -29 2 -27 2 -10 2 -12 2 34 
1 33 2 -4 2 25 2 -8 2 -15 2 -8 2 4 2 8 
1 -4 2 -8 2 10 2 -12 2 -8 2 -4 2 -13 2 -2 
2 11 1 -2 2 18 2 -2 2 4 2 8 2 13 2 43 
2 8 2 -6 1 -4 2 14 2 -33 2 10 2 27 2 -8 
2 -10 2 18 1 39 2 -20 2 12 2 -43 2 27 2 34 
2 5 2 18 2 12 1 -30 2 0 2 14 2 25 2 16 
2 -18 2 -35 2 8 1 -12 2 16 2 -4 2 6 2 23 
2 -11 2 -18 2 -12 2 0 1 -3 2 15 2 10 2 31 
2 -23 2 -22 2 10 2 4 1 29 2 4 2 -23 2 -4 
2 -10 2 -10 2 2 2 -23 2 -6 1 21 2 12 2 14 
2 13 2 10 2 31 2 -6 2 14 1 -8 2 28 2 -18 
2 -6 2 -8 2 -31 2 -35 2 20 2 39 1 13 2 8 
2 27 2 39 2 22 2 -24 2 24 2 6 2 35 1 11 
2 -25 2 -25 2 21 2 4 2 23 2 -19 2 -27 1 5 
2 6 2 51 2 6 2 -4 2 16 2 19 2 12 2 -2 
1 -14 2 -27 2 -18 2 -4 2 20 2 0 2 -16 2 -27 
1 -18 2 -3 2 -4 2 -41 2 -14 2 -23 2 -16 2 -29 
2 2 1 0 2 -8 2 14 2 33 2 -10 2 -43 2 -15 
2 -32 1 -13 2 -24 2 6 2 12 2 -20 2 0 2 -13 
2 -14 2 -17 1 -6 2 -20 2 -2 2 -13 2 19 2 18 
2 -20 2 -21 1 -29 2 -8 2 6 2 -35 2 -39 2 5 
2 -17 2 -16 2 30 1 25 2 35 2 27 2 26 2 17 
2 14 2 0 2 -16 2 12 1 4 2 2 2 27 2 47 
2 19 2 -6 2 -39 2 -27 1 -23 2 -20 2 10 2 18 
2 0 2 23 2 0 2 10 2 7 1 18 2 4 2 12 
2 21 2 12 2 31 2 10 2 9 1 -7 2 -20 2 0 
2 2 2 8 2 6 2223 1556 300 MP stroke
2 15 2 12 2 -12 1 14 2 14 2 -14 2 17 2 28 
2 -20 2 -11 2 -12 1 -43 2 -4 2 -6 2 12 2 12 
2 2 2 -6 2 17 2 -15 1 -33 2 -16 2 25 2 20 
2 25 2 31 2 33 2 8 1 10 2 2 2 -12 2 -4 
2 4 2 -4 2 -23 2 -35 2 -10 1 -25 2 -14 2 -4 
2 -11 2 -2 2 21 2 12 2 2 2 0 1 -10 2 -14 
2 0 2 6 2 6 2 -23 2 -22 2 -23 1 8 2 2 
2 0 2 -16 2 0 2 -29 2 31 2 -22 2 12 1 -10 
2 6 2 4 2 -12 2 -23 2 10 2 35 2 -4 1 -14 
2 -23 2 -21 2 3 2 -29 2 10 2 -16 2 6 2 18 
1 19 2 -4 2 16 2 10 2 7 2 6 2 6 2 -10 
1 -13 2 -16 2 14 2 -8 2 -2 2 27 2 -13 2 11 
2 -2 1 -7 2 11 2 -31 2 12 2 8 2 31 2 -27 
2 -14 1 0 2 31 2 -6 2 22 2 -14 2 6 2 -41 
2 -10 2 -15 1 7 2 -5 2 -4 2 -30 2 10 2 -2 
2 -4 2 26 2 31 1 -18 2 -17 2 -2 2 6 2 21 
2 14 2 -10 2 -10 1 -48 2 -20 2 10 2 -16 2 -4 
2 0 2 41 2 28 2 11 1 6 2 8 2 -20 2 6 
2 -15 2 13 2 -4 2 -31 1 6 2 18 2 21 2 -29 
2 4 2 9 2 -13 2 0 2 19 1 -9 2 -14 2 8 
2 25 2 2 2 -12 2 -2 2 28 1 27 2 12 2 -32 
2 -17 2 -8 2 -21 2 -26 2 -17 2 35 1 10 2 5 
2 -25 2 -23 2 -8 2 17 2 49 2 14 1 0 2 15 
2 2 2 -4 2 -21 2 -8 2 -19 2 -8 2 2 1 10 
2 13 2 -11 2 -24 2 10 2 10 2 19 2 -10 2 -3 
1 31 2 37 2 11 2 18 2 -10 2 -11 2 0 2 27 
1 -20 2 -4 2 32 2 5 2 -21 2 -8 2 4 2 12 
2 -8 1 12 2 -6 2 6 2 6 2 21 2 -23 2 -30 
2 -13 1 11 2 -5 2 2 2 -4 2 11 2 18 2 6 
2 2 2 9 1 12 2 -6 2 -6 2 -15 2 -10 2 -17 
2 -28 2 -21 1 10 2 25 2 23 2 4 2 -8 2 12 
2 -10 2 2 2 0 1 -17 2 -6 2 23 2 -17 2 13 
2 -23 2 2 2 8 1 -35 2 -28 2 -9 2 -12 2 -20 
2 2 2 24 2 6 2 0 1 -24 2 20 2 -10 2 29 
2 6 2 -10 2 -25 2 27 2 2 1 -25 2 -22 2 -27 
2 2 2 -4 2 2 2 6 2 4 1 6 2 31 2 23 
2 14 2 19 2 -9 2 31 2 8 2 -14 1 -4 2 16 
2 -28 2 8 2 0 1660 1654 300 MP stroke
2 8 2 12 2 -6 1 -16 2 -4 2 -2 2 14 2 13 
2 -13 2 15 2 35 2 24 1 9 2 4 2 0 2 4 
2 -2 2 41 2 49 2 -8 1 25 2 -31 2 4 2 20 
2 5 2 -7 2 7 -1 16 1 -14 2 0 2 -2 1 -5 
2 7 2 -9 2 -20 2 -19 2 -24 2 -50 2 -18 1 -6 
2 20 2 -22 2 -4 2 -9 2 -14 2 -23 2 2 2 -20 
1 0 2 -41 2 4 2 10 2 -15 2 25 2 4 2 -2 
2 4 1 21 2 -15 2 -12 2 -10 2 14 2 23 2 -7 
2 -32 1 -21 2 -37 2 -29 2 -26 2 -21 2 10 2 4 
2 11 2 14 1 0 2 -6 2 -10 2 10 2 10 2 -16 
2 2 2 4 1 -4 2 -2 2 20 2 21 2 29 2 35 
2 10 2 2 2 14 1 -4 2 31 2 27 2 24 2 0 
2 -12 2 2 2 27 1 -11 2 -16 2 14 2 -2 2 11 
2 35 2 16 2 -29 2 -14 1 16 2 8 2 -4 2 -6 
2 41 2 9 2 -9 2 11 1 10 2 41 2 37 2 10 
2 -6 2 -37 2 -18 2 -29 2 2 1 16 2 4 2 -12 
2 -2 2 -12 2 -2 2 28 2 7 2 26 1 13 2 24 
2 -6 2 19 2 -15 2 -31 2 -4 2 -14 1 -6 2 -31 
2 22 2 37 2 -10 2 -6 2 31 2 8 2 19 1 -13 
2 -20 2 -56 2 -47 2 25 2 8 2 -12 2 14 1 0 
2 -2 2 -27 2 4 2 6 2 -4 2 -8 2 -23 2 -53 
1 14 2 7 2 35 2 20 2 27 2 2 2 -17 2 -2 
1 17 2 24 2 17 2 -23 2 -31 2 -14 2 -31 2 -8 
2 -39 1 -27 2 13 2 4 2 16 2 4 2 -8 2 -8 
2 10 1 10 2 5 2 -3 2 -26 2 -23 2 4 2 -22 
2 -9 2 -18 1 10 2 31 2 4 2 17 2 2 2 -15 
2 4 2 -20 2 -17 1 -22 2 6 2 -25 2 13 2 4 
2 26 2 -22 2 -23 1 -14 2 20 2 -22 2 -17 2 5 
2 4 2 8 2 18 2 0 1 48 2 2 2 4 2 -31 
2 -37 2 -8 2 10 2 -29 1 19 2 0 2 -11 2 15 
2 12 2 -4 2 -18 2 -9 2 -8 1 15 2 -7 2 -28 
2 -27 2 27 2 20 2 17 2 -17 1 -22 2 -21 2 2 
2 23 2 -25 2 -2 2 -12 2 30 2 15 1 8 2 -25 
2 -10 2 -4 2 -6 2 29 2 14 2 -29 1 19 2 14 
2 6 2 -4 2 -25 2 -53 2 -18 2 -56 2 17 1 45 
2 37 2 53 2 31 2 14 2 17 2 -19 2 -20 2 22 
1 -10 2 2 2 23 2 0 2 -19 2 -6 2 -8 2 -19 
1 11 0 22 1 -20 1104 1732 300 MP stroke
1 -21 2 -6 2 0 2 5 2 2 2 -21 2 -12 2 33 
1 6 1 -14 2 -9 2 -6 2 -22 2 10 1 0 2 -8 
2 16 1 -2 21 -10 -17 6 2 2 2 16 2 -16 2 -29 
2 -4 2 17 1 -2 6 24 -3 2 2 -28 2 -3 2 -20 
2 -6 2 -17 2 -22 1 4 2 10 2 -35 2 -31 2 -59 
2 -54 2 -4 2 31 1 2 2 6 2 15 2 -13 2 -14 
2 -4 2 0 2 -6 2 2 1 1 2 -4 2 -6 2 -6 
2 -54 2 17 2 37 2 -25 2 -29 1 -4 2 -45 2 -33 
2 -24 2 -17 2 0 2 -35 2 -31 1 -24 2 -23 2 21 
2 0 2 -21 2 -25 2 -24 2 -41 2 -29 1 -31 2 -41 
2 -41 2 -31 2 -18 2 -13 2 -6 2 -31 1 -8 2 17 
2 67 2 62 2 4 2 -35 2 -10 2 25 2 28 1 0 
2 2 2 -8 2 -10 2 -25 2 -6 2 0 2 4 1 6 
2 -14 2 12 2 0 2 2 2 15 2 26 2 13 2 -8 
1 -13 2 -22 2 -27 2 29 2 -8 2 -19 2 33 2 48 
1 25 2 58 2 30 2 -4 2 63 2 -73 2 -107 2 7 
2 -177 1 -6 2 -13 2 36 2 -79 2 -92 2 -330 2 -475 
2 -906 1 0 848 4520 139 MP stroke
/c10 { 1.000000 0.000000 1.000000 sr} bdef
c10
1 -9 2 9 2 -2 2 2 2 22 2 0 2 11 2 -5 
2 9 1 4 2 -4 2 10 2 2 2 -6 2 12 2 4 
2 -6 1 8 2 -2 2 13 2 2 2 6 2 10 2 6 
2 -6 2 4 1 19 2 -7 2 -4 2 2 2 0 2 -4 
2 4 2 21 1 20 2 15 2 4 2 0 2 -12 2 4 
2 10 2 10 2 6 1 -4 2 4 2 -4 2 -12 2 2 
2 -8 2 18 2 2 1 19 2 0 2 -6 2 12 2 4 
2 4 2 8 2 -2 2 0 1 0 2 0 2 5 2 0 
2 -15 2 10 2 7 2 16 2 -4 1 -4 2 6 2 16 
2 11 2 16 2 8 2 -8 2 19 1 10 2 -4 2 -4 
2 4 2 -13 2 -20 2 -10 2 10 2 18 1 15 2 39 
2 -2 2 -4 2 6 2 2 2 22 2 -12 1 0 2 8 
2 23 2 8 2 -25 2 -12 2 -29 2 -16 2 -4 1 -2 
2 -13 2 -2 2 7 2 26 2 23 2 14 2 6 1 -2 
2 21 2 43 2 27 2 14 2 0 2 -20 2 -2 2 -15 
1 -12 2 14 2 -16 2 -6 2 6 2 -2 2 6 2 29 
1 16 2 4 2 0 2 27 2 25 2 2 2 10 2 14 
2 -12 1 -8 2 2 2 -4 2 8 2 -21 2 9 2 -5 
2 0 2 2 1 25 2 29 2 27 2 30 2 31 2 12 
2 -4 2 31 1 27 2 8 2 -6 2 2 2 4 2 -4 
2 12 2 -2 2 -20 1 -6 2 12 2 2 2 8 2 17 
2 18 2 23 2 22 1 23 2 22 2 17 2 4 2 -2 
2 -14 2 2 2 26 2 15 1 -2 2 -23 2 -4 2 -8 
2 -2 2 6 2 37 2 12 1 8 2 19 2 14 2 19 
2 20 2 29 2 6 2 -2 2 0 1 14 2 -4 2 2 
2 -4 2 0 2 11 2 6 2 6 1 18 2 13 2 -2 
2 45 2 16 2 31 2 17 2 -9 2 -10 1 -6 2 12 
2 10 2 25 2 -22 2 -44 2 -12 2 -12 2 31 1 12 
2 12 2 10 2 13 2 -2 2 20 2 41 2 54 1 31 
2 30 2 29 2 35 2 -12 2 14 2 39 2 0 2 8 
1 0 2 15 2 -29 2 14 2 27 2 31 2 18 2 -10 
1 21 2 8 2 49 2 19 2 35 2 32 2 23 2 12 
2 29 1 -29 2 13 2 10 2 6 2 14 2 35 2 48 
2 30 1 33 2 11 2 26 2 43 2 27 2 35 2 -19 
2 13 2 12 1 21 2 24 2 15 2 10 2 -12 2 10 
2 -21 2 17 1 -6 2 -39 2 30 2 42 2 -13 2 -12 
2 -4 2 -6 2 8 1 43 2 14 2 2 2 0 2 7 
2 22 2 -16 2 -4 4474 1545 300 MP stroke
2 -41 1 -13 2 -22 2 -15 2 -2 2 2 2 -4 2 19 
2 14 1 -23 2 -8 2 -12 2 -35 2 -8 2 4 2 -15 
2 -18 2 -8 1 6 2 2 2 2 2 8 2 10 2 23 
2 27 2 -6 1 10 2 14 2 0 2 -8 2 43 2 -22 
2 4 2 12 2 0 1 -29 2 17 2 16 2 17 2 16 
2 -6 2 -19 2 -53 1 -41 2 -6 2 -15 2 11 2 2 
2 26 2 15 2 -6 2 -7 1 -12 2 -6 2 -14 2 -15 
2 4 2 4 2 13 2 14 1 14 2 23 2 -18 2 22 
2 8 2 7 2 0 2 -23 2 20 1 -28 2 -8 2 -9 
2 -28 2 -31 2 -13 2 -18 2 -6 2 -15 1 -14 2 -18 
2 -5 2 -16 2 4 2 -14 2 -15 2 -33 1 23 2 -12 
2 0 2 6 2 6 2 23 2 14 2 0 2 29 1 14 
2 21 2 8 2 -14 2 -25 2 0 2 0 2 -23 1 6 
2 27 2 35 2 -27 2 -30 2 -15 2 -6 2 -23 2 9 
1 -31 2 -6 2 2 2 10 2 21 2 -15 2 39 2 -10 
1 -2 2 14 2 6 2 5 2 8 2 0 2 39 2 8 
2 -14 1 -19 2 23 2 14 2 8 2 4 2 -4 2 -20 
2 16 1 8 2 -18 2 -19 2 15 2 0 2 -15 2 2 
2 -28 2 -25 1 23 2 28 2 19 2 2 2 2 2 27 
2 26 2 2 2 -39 1 0 2 27 2 0 2 -4 2 14 
2 -6 2 19 2 35 1 14 2 -18 2 -7 2 -2 2 -16 
2 23 2 -5 2 0 2 13 1 -4 2 -15 2 -20 2 -43 
2 -25 2 -2 2 29 2 2 1 -2 2 -15 2 -6 2 19 
2 8 2 12 2 0 2 -6 2 23 1 -7 2 7 2 10 
2 -33 2 31 2 6 2 -37 2 -4 1 4 2 23 2 -13 
2 -14 2 -27 2 -18 2 12 2 -2 2 -2 1 29 2 16 
2 4 2 6 2 9 2 -19 2 6 2 19 1 -9 2 19 
2 -4 2 -29 2 -14 2 -19 2 -20 2 8 2 23 1 10 
2 18 2 4 2 -16 2 -41 2 -45 2 -15 2 39 2 27 
1 14 2 5 2 2 2 -2 2 14 2 6 2 6 2 -10 
1 -19 2 25 2 0 2 12 2 -4 2 -12 2 4 2 -29 
2 7 1 12 2 8 2 -14 2 -17 2 8 2 -8 2 -16 
2 6 1 18 2 11 2 -31 2 -23 2 2 2 -2 2 -2 
2 -47 2 0 1 27 2 22 2 21 2 6 2 -12 2 -13 
2 -6 2 -16 1 8 2 2 2 25 2 14 2 -8 2 -33 
2 2 2 21 2 -9 1 -43 2 0 2 8 2 -2 2 5 
2 4 2 30 2 -30 1 -29 2 -27 2 -6 2 23 2 -7 
2 15 2 31 2 -9 3911 1819 300 MP stroke
2 -18 1 0 2 -10 2 -23 2 4 2 -2 2 6 2 -10 
2 10 2 21 1 12 2 -31 2 -20 2 12 2 47 2 -2 
2 -8 2 -10 1 -15 2 0 2 -8 2 -4 2 -6 2 18 
2 0 2 -10 2 -8 1 18 2 11 2 16 2 -2 2 -10 
2 14 2 13 2 -23 1 0 2 31 2 2 2 14 2 -22 
2 22 2 31 2 18 2 13 1 -13 2 3 2 -23 2 -37 
2 4 2 31 2 25 2 0 1 8 2 -6 2 6 2 -19 
2 -20 2 -11 2 -4 2 -12 2 4 1 0 2 -4 2 -8 
2 -4 2 10 2 10 2 6 2 -2 1 43 2 3 2 18 
2 -12 2 -9 2 58 2 14 2 -14 2 4 1 -2 2 -8 
2 -13 2 -16 2 23 2 22 2 -16 2 -49 2 -5 1 -10 
2 21 2 -31 2 -10 2 20 2 -8 2 -2 2 -6 1 16 
2 33 2 -2 2 -25 2 -8 2 12 2 35 2 17 2 6 
1 8 2 8 2 -4 2 -12 2 -10 2 12 2 10 2 6 
1 -24 2 10 2 -12 2 -37 2 -17 2 -6 2 -43 2 -21 
2 0 1 -20 2 2 2 -14 2 -9 2 11 2 0 2 -25 
2 21 1 -19 2 -4 2 -33 2 -4 2 0 2 25 2 6 
2 31 2 -11 1 4 2 -12 2 -14 2 8 2 14 2 19 
2 8 2 -4 1 -12 2 18 2 -8 2 -21 2 -24 2 -15 
2 -22 2 6 2 0 1 -17 2 19 2 23 2 2 2 34 
2 -24 2 -8 2 -17 2 8 1 37 2 27 2 10 2 17 
2 20 2 -14 2 31 2 0 1 2 2 0 2 10 2 17 
2 12 2 -21 2 11 2 -5 2 23 1 4 2 6 2 6 
2 -10 2 -31 2 -16 2 6 2 17 1 12 2 16 2 6 
2 -16 2 -16 2 -9 2 23 2 -6 2 0 1 41 2 2 
2 -2 2 -12 2 2 2 -9 2 2 2 -12 1 4 2 -8 
2 -37 2 31 2 10 2 6 2 -10 2 -4 2 -4 1 0 
2 12 2 15 2 26 2 0 2 0 2 -31 2 13 1 6 
2 -41 2 -6 2 -4 2 -2 2 8 2 6 2 -2 2 -2 
1 -39 2 14 2 -4 2 14 2 -2 2 -22 2 -15 2 -22 
2 -21 1 -20 2 -6 2 0 2 -17 2 -10 2 4 2 -41 
2 -23 1 2 2 37 2 -14 2 14 2 19 2 2 2 -25 
2 21 2 24 1 -8 2 -4 2 0 2 4 2 12 2 15 
2 4 2 -6 1 -8 2 -35 2 -6 2 2 2 8 2 -10 
2 -21 2 16 2 23 1 2 2 6 2 -10 2 14 2 9 
2 -3 2 -6 2 -12 1 16 2 2 2 -4 2 -14 2 18 
2 11 2 0 2 20 2 25 1 -16 2 0 2 24 2 -14 
2 43 2 39 2 8 3348 1714 300 MP stroke
2 -12 1 -6 2 0 2 14 2 -10 2 0 2 -19 2 0 
2 -20 2 -2 1 16 2 -14 2 -23 2 -16 2 -2 2 12 
2 8 2 6 2 -10 1 14 2 33 2 -2 2 -22 2 -23 
2 -14 2 8 2 -25 1 0 2 -33 2 -4 2 0 2 19 
2 4 2 0 2 18 2 0 1 23 2 -35 2 -16 2 26 
2 17 2 4 2 35 2 22 1 -24 2 -4 2 -9 2 -10 
2 -10 2 6 2 6 2 -10 2 -27 1 -6 2 4 2 -6 
2 -6 2 4 2 16 2 0 2 17 1 -15 2 0 2 -12 
2 -2 2 -12 2 16 2 15 2 -7 2 -49 1 14 2 60 
2 53 2 0 2 5 2 30 2 21 2 18 1 13 2 -2 
2 -19 2 -22 2 4 2 -17 2 0 2 2 2 13 1 -2 
2 -41 2 0 2 -17 2 -31 2 -22 2 -4 2 -5 2 -22 
1 8 2 19 2 8 2 16 2 2 2 -10 2 4 2 2 
1 19 2 20 2 19 2 2 2 -15 2 -18 2 12 2 13 
2 28 1 2 2 -4 2 -26 2 -21 2 -12 2 16 2 8 
2 -16 1 -41 2 -15 2 -24 2 -8 2 -15 2 -4 2 -8 
2 6 2 31 1 6 2 -27 2 -12 2 -16 2 10 2 -15 
2 15 2 22 1 -28 2 -19 2 4 2 21 2 6 2 35 
2 14 2 13 2 -5 1 -30 2 -21 2 2 2 6 2 0 
2 25 2 8 2 -37 1 -33 2 -6 2 25 2 8 2 19 
2 -9 2 -20 2 0 2 0 1 24 2 15 2 0 2 8 
2 -14 2 -31 2 24 2 21 2 12 1 -16 2 0 2 18 
2 15 2 20 2 -10 2 10 2 23 1 6 2 43 2 10 
2 29 2 0 2 6 2 17 2 37 2 4 1 -17 2 23 
2 -2 2 6 2 -24 2 -11 2 6 2 -12 1 -6 2 23 
2 37 2 -11 2 -18 2 20 2 29 2 2 2 -20 1 12 
2 -10 2 -11 2 -6 2 -6 2 -8 2 14 2 37 1 0 
2 2 2 8 2 52 2 -27 2 -20 2 8 2 8 2 16 
1 -16 2 -25 2 -35 2 13 2 6 2 33 2 -11 2 -26 
1 -50 2 -30 2 -4 2 -27 2 16 2 4 2 21 2 10 
2 -24 1 16 2 4 2 8 2 -12 2 0 2 27 2 12 
2 6 2 -31 1 -12 2 -18 2 -15 2 2 2 4 2 -4 
2 6 2 0 1 -2 2 -8 2 -22 2 22 2 -27 2 -32 
2 18 2 -4 2 6 1 -45 2 18 2 21 2 8 2 -14 
2 -23 2 -22 2 10 1 14 2 -14 2 4 2 -51 2 16 
2 8 2 31 2 -8 2 -17 1 15 2 -27 2 -20 2 -11 
2 0 2 37 2 -10 2 10 1 11 2 8 2 8 2 8 
2 -14 2 -33 2 12 2785 1786 300 MP stroke
2 -4 2 -4 1 -39 2 -12 2 -15 2 -2 2 -10 2 18 
2 15 2 22 1 23 2 -16 2 6 2 -17 2 -53 2 -10 
2 -27 2 23 2 4 1 -15 2 -4 2 35 2 25 2 41 
2 -10 2 2 2 8 2 -29 1 8 2 0 2 -8 2 -4 
2 39 2 47 2 -6 2 14 1 7 2 14 2 -6 2 -12 
2 -13 2 -24 2 6 2 16 2 0 1 -10 2 8 2 6 
2 -18 2 14 2 47 2 48 2 2 1 14 2 8 2 -4 
2 -22 2 2 2 -21 2 19 2 34 2 15 1 -8 2 14 
2 16 2 29 2 -6 2 -4 2 8 2 -16 1 -11 2 -2 
2 -24 2 2 2 -6 2 -2 2 8 2 -8 2 -17 1 17 
2 4 2 -15 2 -35 2 -12 2 -18 2 0 2 -23 1 -2 
2 -10 2 14 2 -12 2 -43 2 -11 2 17 2 4 2 4 
1 18 2 11 2 -8 2 -11 2 -14 2 -4 2 2 2 2 
2 8 1 -12 2 -17 2 -4 2 -26 2 -17 2 -20 2 16 
2 47 1 13 2 -25 2 -10 2 4 2 2 2 20 2 2 
2 -6 2 -16 1 -10 2 28 2 29 2 37 2 27 2 12 
2 -8 2 -6 1 -21 2 25 2 22 2 33 2 19 2 -19 
2 -20 2 -11 2 -32 1 8 2 22 2 19 2 -10 2 -9 
2 -20 2 -21 2 13 1 -17 2 -22 2 12 2 20 2 -4 
2 25 2 12 2 13 2 2 1 18 2 -4 2 -8 2 4 
2 -16 2 -31 2 -17 2 29 1 16 2 -12 2 -12 2 0 
2 -6 2 6 2 29 2 24 2 0 1 -29 2 -26 2 -25 
2 4 2 -16 2 12 2 35 2 -6 2 12 1 -20 2 -21 
2 17 2 -5 2 -4 2 15 2 10 2 21 1 4 2 -4 
2 6 2 26 2 33 2 -39 2 27 2 18 2 -20 1 -39 
2 -17 2 -26 2 -19 2 29 2 -4 2 -6 2 4 1 -10 
2 4 2 10 2 -6 2 2 2 -19 2 -8 2 17 2 37 
1 0 2 -5 2 -32 2 -9 2 2 2 -10 2 -22 2 -15 
1 6 2 4 2 19 2 -14 2 -11 2 -4 2 -16 2 14 
2 -43 1 -21 2 9 2 -11 2 9 2 6 2 -21 2 -27 
2 -12 1 23 2 14 2 -22 2 22 2 2 2 2 2 13 
2 37 2 16 1 0 2 21 2 -42 2 7 2 14 2 0 
2 23 2 22 2 -2 1 27 2 10 2 -18 2 6 2 -8 
2 -25 2 -27 2 19 1 39 2 8 2 4 2 -2 2 8 
2 4 2 2 2 -20 2 0 1 6 2 -8 2 6 2 4 
2 -2 2 51 2 29 2 -4 1 16 2 -18 2 -21 2 -8 
2 4 2 23 2 -33 2 -18 2 -15 1 -6 2 -29 2 -29 
2 5 2 10 2 8 2222 1718 300 MP stroke
2 10 2 -2 1 39 2 -6 2 -14 2 4 2 8 2 -2 
2 0 2 -31 2 -20 1 6 2 -19 2 0 2 -12 2 25 
2 6 2 12 2 -20 1 -23 2 -25 2 15 2 22 2 9 
2 6 2 0 2 -8 2 6 1 -41 2 6 2 12 2 -18 
2 4 2 26 2 -10 2 6 2 43 1 13 2 22 2 -12 
2 2 2 -16 2 24 2 0 2 25 1 27 2 0 2 -15 
2 -12 2 10 2 0 2 -18 2 -4 2 -4 1 10 2 -19 
2 -12 2 18 2 7 2 -4 2 -9 2 -4 1 10 2 35 
2 -16 2 -12 2 -25 2 16 2 9 2 37 2 0 1 -29 
2 -39 2 -23 2 -18 2 2 2 22 2 39 2 17 1 -8 
2 20 2 -4 2 -29 2 23 2 12 2 -6 2 4 2 -14 
1 2 2 18 2 21 2 -19 2 19 2 -4 2 -35 2 -10 
1 24 2 15 2 -5 2 5 2 -2 2 30 2 4 2 -28 
2 -13 1 -8 2 0 2 10 2 11 2 31 2 24 2 -14 
2 -27 2 27 1 -17 2 -10 2 23 2 18 2 -20 2 -2 
2 10 2 35 1 41 2 27 2 22 2 -22 2 -23 2 -16 
2 -11 2 -4 2 6 1 39 2 -26 2 0 2 -25 2 -14 
2 10 2 -8 2 -19 1 -24 2 -9 2 -37 2 -2 2 45 
2 -2 2 -16 2 -2 2 -19 1 -32 2 -37 2 -35 2 16 
2 37 2 21 2 8 2 2 1 -2 2 -19 2 -2 2 -12 
2 2 2 8 2 -37 2 23 2 8 1 -16 2 -17 2 -20 
2 -21 2 -2 2 0 2 -10 2 -15 1 -43 2 13 2 20 
2 0 2 -10 2 -23 2 -20 2 -13 2 -8 1 -24 2 2 
2 -2 2 -27 2 -14 2 28 2 15 2 14 2 18 1 3 
2 -33 2 39 2 -17 2 6 2 11 2 -2 2 43 1 26 
2 0 2 -14 2 -16 2 -19 2 -12 2 4 2 10 2 -18 
1 -8 2 0 2 -7 2 21 2 18 2 27 2 6 2 4 
1 13 2 26 2 27 2 -14 2 4 2 -17 2 2 2 -2 
2 -2 1 -14 2 4 2 23 2 -6 2 -7 2 29 2 31 
2 10 1 33 2 6 2 -4 2 -41 2 2 2 17 2 4 
2 -33 2 -4 1 -23 2 0 2 -20 2 8 2 35 2 2 
2 4 2 -10 1 -21 2 6 2 17 2 2 2 4 2 6 
2 -2 2 6 2 0 1 -6 2 -10 2 -41 2 -40 2 -16 
2 -25 2 21 2 12 2 -22 1 16 2 0 2 14 2 29 
2 25 2 33 2 -2 2 2 1 -25 2 0 2 0 2 -10 
2 -12 2 -5 2 -30 2 26 2 31 1 21 2 -19 2 -31 
2 11 2 53 2 37 2 6 2 21 1 2 2 -29 2 -18 
2 -19 2 -2 2 -23 1659 1706 300 MP stroke
2 -12 2 -18 2 -2 1 12 2 31 2 16 2 17 2 10 
2 -27 2 -10 2 10 1 23 2 10 2 20 2 54 2 -14 
2 -21 2 -16 2 -21 2 21 1 0 2 -7 2 -16 2 -47 
2 10 2 -19 2 -2 2 15 1 0 2 8 2 2 2 -8 
2 18 2 -18 2 -6 2 -4 2 0 1 28 2 -20 2 -23 
2 -20 2 2 2 -19 2 4 2 11 2 20 1 33 2 -14 
2 16 2 12 2 11 2 -21 2 -8 2 -47 1 -33 2 -29 
2 4 2 45 2 37 2 -14 2 -45 2 -27 2 -27 1 -24 
2 10 2 -4 2 43 2 25 2 -37 2 12 2 4 1 -25 
2 37 2 7 2 18 2 43 2 -4 2 -6 2 2 2 23 
1 -11 2 6 2 5 2 -11 2 -2 2 27 2 -27 2 -8 
1 6 2 -10 2 12 2 13 2 -19 2 -29 2 -22 2 -33 
2 2 1 14 2 54 2 10 2 16 2 -14 2 4 2 25 
2 41 1 -4 2 -4 2 -19 2 4 2 33 2 25 2 8 
2 -8 2 -25 1 -2 2 -33 2 19 2 0 2 -13 2 13 
2 10 2 -18 2 -3 1 -8 2 -59 2 -25 2 0 2 -25 
2 -14 2 -2 2 -37 1 -21 2 21 2 -2 2 -25 2 -20 
2 -19 2 -31 2 15 2 -21 1 15 2 16 2 -2 2 10 
2 39 2 35 2 -2 2 -43 1 6 2 15 2 14 2 -12 
2 -9 2 0 2 -8 2 -8 2 -12 1 -2 2 4 2 -15 
2 -12 2 -35 2 6 2 17 2 4 1 -33 2 0 2 -16 
2 -17 2 -4 2 -37 2 -12 2 24 2 41 1 56 2 41 
2 20 2 -6 2 -2 2 -18 2 -6 2 10 1 12 2 13 
2 39 2 32 2 7 2 -17 2 8 2 -12 2 29 1 41 
2 -4 2 -8 2 -23 2 -6 2 0 2 -33 2 -31 2 -33 
1 -28 2 -23 2 -37 2 0 2 -6 2 -13 2 -4 2 -20 
1 -15 2 -14 2 23 2 28 2 7 2 -35 2 -31 2 -35 
2 -27 1 -35 2 -37 2 -12 2 -39 2 -58 2 -24 2 -66 
2 -82 1 -37 2 -29 2 -4 2 -10 2 -27 2 -45 2 -55 
2 -27 2 -49 1 -35 2 -21 2 -33 2 -41 2 -61 2 -79 
2 -55 2 -41 1 -47 2 -6 2 18 2 4 2 0 2 -10 
2 16 2 58 2 16 1 -10 2 -45 2 -47 2 -23 2 -27 
2 -31 2 -18 2 -21 1 -47 2 -70 2 -65 2 -15 2 -14 
2 -10 2 -9 2 -18 2 -15 1 -8 2 8 2 29 2 -16 
2 18 2 50 2 74 2 49 2 16 1 43 2 11 2 -27 
2 -8 2 -25 2 -14 2 -17 2 -14 1 -12 2 -27 2 -8 
2 -9 2 -12 2 -18 2 -29 2 -62 2 -76 1 -57 2 -35 
2 -27 2 -41 2 -62 1096 3836 300 MP stroke
2 -45 2 -24 2 -15 1 -4 2 -14 2 -19 2 -12 2 -8 
2 -11 2 -2 2 -4 2 -2 1 -2 2 -4 2 0 2 0 
2 -2 2 -4 2 -8 2 -21 1 -43 2 -25 2 -39 2 -59 
2 -95 2 -78 2 -55 2 -54 2 -22 1 -6 2 -2 2 0 
2 0 2 0 2 0 2 0 2 0 1 0 2 0 2 0 
2 0 2 0 2 2 2 0 2 0 2 0 1 0 2 0 
2 0 2 2 2 0 2 0 2 -2 2 2 2 0 1 2 
2 0 2 2 2 2 2 10 2 8 2 9 2 14 1 14 
2 17 2 12 2 21 2 16 2 23 2 26 2 21 2 33 
1 57 2 35 2 23 2 37 2 35 2 43 2 55 2 29 
1 33 2 29 2 24 2 45 2 72 2 68 2 45 2 35 
2 31 1 14 2 11 2 18 2 25 2 22 2 27 2 35 
2 49 1 62 2 57 2 56 2 55 2 33 2 50 2 41 
2 0 2 0 1 -2 2 -3 2 44 2 44 2 38 2 39 
2 36 2 28 1 -28 2 16 2 -4 2 -49 2 7 2 27 
2 -103 2 -113 2 -15 1 100 2 59 2 62 2 -71 2 -304 
2 -406 2 -469 2 -423 1 0 848 4520 133 MP stroke
gr

c10
0 sg
%%IncludeResource: font Helvetica
/Helvetica /ISOLatin1Encoding 166.667 FMSR

 818 4587 mt 
( ) s
5056  631 mt 
( ) s
12.5 w
%%IncludeResource: font Symbol
/Symbol /ISOLatin1Encoding 125 FMSR

2696 3563 mt 
(D) s
2772 3563 mt 
(g) s
%%IncludeResource: font Helvetica-Bold
/Helvetica-Bold /ISOLatin1Encoding 125 FMSR

2823 3563 mt 
( = 0 J/m) s
%%IncludeResource: font Helvetica-Bold
/Helvetica-Bold /ISOLatin1Encoding 100 FMSR

3285 3501 mt 
(2) s
gs 2371 3386 1191 951 rc
18.75 w
c8
250 0 2421 3515 2 MP stroke
gr

18.75 w
c8
0 sg
%%IncludeResource: font Symbol
/Symbol /ISOLatin1Encoding 125 FMSR

2696 3793 mt 
(D) s
2772 3793 mt 
(g) s
%%IncludeResource: font Helvetica-Bold
/Helvetica-Bold /ISOLatin1Encoding 125 FMSR

2823 3793 mt 
( = 5 J/m) s
%%IncludeResource: font Helvetica-Bold
/Helvetica-Bold /ISOLatin1Encoding 100 FMSR

3285 3731 mt 
(2) s
gs 2371 3386 1191 951 rc
c9
250 0 2421 3745 2 MP stroke
gr

c9
0 sg
%%IncludeResource: font Symbol
/Symbol /ISOLatin1Encoding 125 FMSR

2696 4024 mt 
(D) s
2772 4024 mt 
(g) s
%%IncludeResource: font Helvetica-Bold
/Helvetica-Bold /ISOLatin1Encoding 125 FMSR

2823 4024 mt 
( = 10 J/m) s
%%IncludeResource: font Helvetica-Bold
/Helvetica-Bold /ISOLatin1Encoding 100 FMSR

3354 3962 mt 
(2) s
gs 2371 3386 1191 951 rc
250 0 2421 3976 2 MP stroke
gr

%%IncludeResource: font Symbol
/Symbol /ISOLatin1Encoding 125 FMSR

2696 4254 mt 
(D) s
2772 4254 mt 
(g) s
%%IncludeResource: font Helvetica-Bold
/Helvetica-Bold /ISOLatin1Encoding 125 FMSR

2823 4254 mt 
( = 12.5 J/m) s
%%IncludeResource: font Helvetica-Bold
/Helvetica-Bold /ISOLatin1Encoding 100 FMSR

3458 4192 mt 
(2) s
gs 2371 3386 1191 951 rc
c10
250 0 2421 4206 2 MP stroke
12.5 w
gr

12.5 w
c10

end %%Color Dict

eplot
%%EndObject

epage
end

showpage

%%Trailer
%%EOF
