%!PS-Adobe-3.0 EPSF-3.0
%%Creator: MATLAB, The MathWorks, Inc. Version 7.12.0.635 (R2011a). Operating System: Linux 2.6.32-358.6.2.el6.x86_64 #1 SMP Thu May 16 11:21:38 CDT 2013 x86_64.
%%Title: ./Discharge_Rates_50ptavg_Zoom.eps
%%CreationDate: 08/15/2013  12:21:49
%%DocumentNeededFonts: Helvetica-Bold
%%+ Helvetica
%%DocumentProcessColors: Cyan Magenta Yellow Black
%%LanguageLevel: 2
%%Pages: 1
%%BoundingBox:    24    69   604   605
%%EndComments

%%BeginProlog
% MathWorks dictionary
/MathWorks 160 dict begin
% definition operators
/bdef {bind def} bind def
/ldef {load def} bind def
/xdef {exch def} bdef
/xstore {exch store} bdef
% operator abbreviations
/c  /clip ldef
/cc /concat ldef
/cp /closepath ldef
/gr /grestore ldef
/gs /gsave ldef
/mt /moveto ldef
/np /newpath ldef
/cm /currentmatrix ldef
/sm /setmatrix ldef
/rm /rmoveto ldef
/rl /rlineto ldef
/s {show newpath} bdef
/sc {setcmykcolor} bdef
/sr /setrgbcolor ldef
/sg /setgray ldef
/w /setlinewidth ldef
/j /setlinejoin ldef
/cap /setlinecap ldef
/rc {rectclip} bdef
/rf {rectfill} bdef
% page state control
/pgsv () def
/bpage {/pgsv save def} bdef
/epage {pgsv restore} bdef
/bplot /gsave ldef
/eplot {stroke grestore} bdef
% orientation switch
/portraitMode 0 def /landscapeMode 1 def /rotateMode 2 def
% coordinate system mappings
/dpi2point 0 def
% font control
/FontSize 0 def
/FMS {/FontSize xstore findfont [FontSize 0 0 FontSize neg 0 0]
  makefont setfont} bdef
/reencode {exch dup where {pop load} {pop StandardEncoding} ifelse
  exch dup 3 1 roll findfont dup length dict begin
  { 1 index /FID ne {def}{pop pop} ifelse } forall
  /Encoding exch def currentdict end definefont pop} bdef
/isroman {findfont /CharStrings get /Agrave known} bdef
/FMSR {3 1 roll 1 index dup isroman {reencode} {pop pop} ifelse
  exch FMS} bdef
/csm {1 dpi2point div -1 dpi2point div scale neg translate
 dup landscapeMode eq {pop -90 rotate}
  {rotateMode eq {90 rotate} if} ifelse} bdef
% line types: solid, dotted, dashed, dotdash
/SO { [] 0 setdash } bdef
/DO { [.5 dpi2point mul 4 dpi2point mul] 0 setdash } bdef
/DA { [6 dpi2point mul] 0 setdash } bdef
/DD { [.5 dpi2point mul 4 dpi2point mul 6 dpi2point mul 4
  dpi2point mul] 0 setdash } bdef
% macros for lines and objects
/L {lineto stroke} bdef
/MP {3 1 roll moveto 1 sub {rlineto} repeat} bdef
/AP {{rlineto} repeat} bdef
/PDlw -1 def
/W {/PDlw currentlinewidth def setlinewidth} def
/PP {closepath eofill} bdef
/DP {closepath stroke} bdef
/MR {4 -2 roll moveto dup  0 exch rlineto exch 0 rlineto
  neg 0 exch rlineto closepath} bdef
/FR {MR stroke} bdef
/PR {MR fill} bdef
/L1i {{currentfile picstr readhexstring pop} image} bdef
/tMatrix matrix def
/MakeOval {newpath tMatrix currentmatrix pop translate scale
0 0 1 0 360 arc tMatrix setmatrix} bdef
/FO {MakeOval stroke} bdef
/PO {MakeOval fill} bdef
/PD {currentlinewidth 2 div 0 360 arc fill
   PDlw -1 eq not {PDlw w /PDlw -1 def} if} def
/FA {newpath tMatrix currentmatrix pop translate scale
  0 0 1 5 -2 roll arc tMatrix setmatrix stroke} bdef
/PA {newpath tMatrix currentmatrix pop	translate 0 0 moveto scale
  0 0 1 5 -2 roll arc closepath tMatrix setmatrix fill} bdef
/FAn {newpath tMatrix currentmatrix pop translate scale
  0 0 1 5 -2 roll arcn tMatrix setmatrix stroke} bdef
/PAn {newpath tMatrix currentmatrix pop translate 0 0 moveto scale
  0 0 1 5 -2 roll arcn closepath tMatrix setmatrix fill} bdef
/vradius 0 def /hradius 0 def /lry 0 def
/lrx 0 def /uly 0 def /ulx 0 def /rad 0 def
/MRR {/vradius xdef /hradius xdef /lry xdef /lrx xdef /uly xdef
  /ulx xdef newpath tMatrix currentmatrix pop ulx hradius add uly
  vradius add translate hradius vradius scale 0 0 1 180 270 arc 
  tMatrix setmatrix lrx hradius sub uly vradius add translate
  hradius vradius scale 0 0 1 270 360 arc tMatrix setmatrix
  lrx hradius sub lry vradius sub translate hradius vradius scale
  0 0 1 0 90 arc tMatrix setmatrix ulx hradius add lry vradius sub
  translate hradius vradius scale 0 0 1 90 180 arc tMatrix setmatrix
  closepath} bdef
/FRR {MRR stroke } bdef
/PRR {MRR fill } bdef
/MlrRR {/lry xdef /lrx xdef /uly xdef /ulx xdef /rad lry uly sub 2 div def
  newpath tMatrix currentmatrix pop ulx rad add uly rad add translate
  rad rad scale 0 0 1 90 270 arc tMatrix setmatrix lrx rad sub lry rad
  sub translate rad rad scale 0 0 1 270 90 arc tMatrix setmatrix
  closepath} bdef
/FlrRR {MlrRR stroke } bdef
/PlrRR {MlrRR fill } bdef
/MtbRR {/lry xdef /lrx xdef /uly xdef /ulx xdef /rad lrx ulx sub 2 div def
  newpath tMatrix currentmatrix pop ulx rad add uly rad add translate
  rad rad scale 0 0 1 180 360 arc tMatrix setmatrix lrx rad sub lry rad
  sub translate rad rad scale 0 0 1 0 180 arc tMatrix setmatrix
  closepath} bdef
/FtbRR {MtbRR stroke } bdef
/PtbRR {MtbRR fill } bdef
/stri 6 array def /dtri 6 array def
/smat 6 array def /dmat 6 array def
/tmat1 6 array def /tmat2 6 array def /dif 3 array def
/asub {/ind2 exch def /ind1 exch def dup dup
  ind1 get exch ind2 get sub exch } bdef
/tri_to_matrix {
  2 0 asub 3 1 asub 4 0 asub 5 1 asub
  dup 0 get exch 1 get 7 -1 roll astore } bdef
/compute_transform {
  dmat dtri tri_to_matrix tmat1 invertmatrix 
  smat stri tri_to_matrix tmat2 concatmatrix } bdef
/ds {stri astore pop} bdef
/dt {dtri astore pop} bdef
/db {2 copy /cols xdef /rows xdef mul dup 3 mul string
  currentfile 
  3 index 0 eq {/ASCIIHexDecode filter}
  {/ASCII85Decode filter 3 index 2 eq {/RunLengthDecode filter} if }
  ifelse exch readstring pop
  dup 0 3 index getinterval /rbmap xdef
  dup 2 index dup getinterval /gbmap xdef
  1 index dup 2 mul exch getinterval /bbmap xdef pop pop}bdef
/it {gs np dtri aload pop moveto lineto lineto cp c
  cols rows 8 compute_transform 
  rbmap gbmap bbmap true 3 colorimage gr}bdef
/il {newpath moveto lineto stroke}bdef
currentdict end def
%%EndProlog

%%BeginSetup
MathWorks begin

0 cap

end
%%EndSetup

%%Page: 1 1
%%BeginPageSetup
%%PageBoundingBox:    24    69   604   605
MathWorks begin
bpage
%%EndPageSetup

%%BeginObject: obj1
bplot

/dpi2point 8.33333 def
portraitMode -0158 5475 csm

  366   426  4829  4473 rc
84 dict begin %Colortable dictionary
/c0 { 0.000000 0.000000 0.000000 sr} bdef
/c1 { 1.000000 1.000000 1.000000 sr} bdef
/c2 { 0.900000 0.000000 0.000000 sr} bdef
/c3 { 0.000000 0.820000 0.000000 sr} bdef
/c4 { 0.000000 0.000000 0.800000 sr} bdef
/c5 { 0.910000 0.820000 0.320000 sr} bdef
/c6 { 1.000000 0.260000 0.820000 sr} bdef
/c7 { 0.000000 0.820000 0.820000 sr} bdef
c0
1 j
1 sg
   0    0 5651 5651 rf
12.5 w
0 3956 4237 0 0 -3956 848 4520 4 MP
PP
-4237 0 0 3956 4237 0 0 -3956 848 4520 5 MP stroke
8.33333 w
DO
SO
12.5 w
0.1 sg
 848 4520 mt 5085 4520 L
 848  564 mt 5085  564 L
 848 4520 mt  848  564 L
5085 4520 mt 5085  564 L
 848 4520 mt 5085 4520 L
 848 4520 mt  848  564 L
 848 4520 mt  848 4456 L
 848  564 mt  848  628 L
%%IncludeResource: font Helvetica
/Helvetica /ISOLatin1Encoding 133.333 FMSR

 811 4667 mt 
(0) s
1695 4520 mt 1695 4456 L
1695  564 mt 1695  628 L
1658 4667 mt 
(2) s
2542 4520 mt 2542 4456 L
2542  564 mt 2542  628 L
2505 4667 mt 
(4) s
3390 4520 mt 3390 4456 L
3390  564 mt 3390  628 L
3353 4667 mt 
(6) s
4237 4520 mt 4237 4456 L
4237  564 mt 4237  628 L
4200 4667 mt 
(8) s
5085 4520 mt 5085 4456 L
5085  564 mt 5085  628 L
5011 4667 mt 
(10) s
 848 4520 mt  911 4520 L
5085 4520 mt 5021 4520 L
 750 4569 mt 
(0) s
 848 3860 mt  911 3860 L
5085 3860 mt 5021 3860 L
 639 3909 mt 
(0.2) s
 848 3201 mt  911 3201 L
5085 3201 mt 5021 3201 L
 639 3250 mt 
(0.4) s
 848 2542 mt  911 2542 L
5085 2542 mt 5021 2542 L
 639 2591 mt 
(0.6) s
 848 1883 mt  911 1883 L
5085 1883 mt 5021 1883 L
 639 1932 mt 
(0.8) s
 848 1224 mt  911 1224 L
5085 1224 mt 5021 1224 L
 750 1273 mt 
(1) s
 848  564 mt  911  564 L
5085  564 mt 5021  564 L
 639  613 mt 
(1.2) s
 848 4520 mt 5085 4520 L
 848  564 mt 5085  564 L
 848 4520 mt  848  564 L
5085 4520 mt 5085  564 L
gs 848 565 4238 3956 rc
18.75 w
/c8 { 0.000000 0.000000 1.000000 sr} bdef
c8
1 -3 5 -5 4 21 4 0 4 -14 5 -17 4 -18 4 8 
4 10 5 23 4 -15 4 37 4 -24 5 12 4 -14 4 -21 
4 0 5 14 4 -12 4 -35 4 8 4 7 5 -7 4 -8 
4 4 4 -14 5 2 4 -14 4 -17 4 8 5 7 4 8 
4 -8 4 -21 5 -10 4 0 4 37 4 8 5 -2 4 -14 
4 -5 4 31 4 19 5 6 4 -2 4 -2 4 0 5 -10 
4 24 4 -18 4 -6 5 -7 4 7 4 6 4 6 5 -6 
4 0 4 -15 4 -6 4 -12 5 -37 4 -2 4 -23 4 -6 
5 -6 4 -10 4 -25 4 4 5 39 4 12 4 -16 4 -12 
5 18 4 -12 4 -10 4 -11 5 27 4 6 4 -33 4 11 
4 4 5 -13 4 4 4 5 4 -17 5 -51 4 6 4 6 
4 12 5 13 4 -23 4 -6 4 2 5 -4 4 -16 4 -13 
4 -14 4 -37 5 -2 4 0 4 2 4 12 5 2 4 2 
4 0 4 19 5 -8 4 -25 4 10 4 29 5 8 4 21 
4 10 4 16 5 13 4 18 4 -8 4 -37 4 -29 5 6 
4 31 4 4 4 29 5 41 4 12 4 -12 4 0 5 19 
4 -13 4 -12 4 18 5 9 4 12 4 8 4 23 4 -19 
5 11 4 -9 4 -10 4 -4 5 4 4 -2 4 16 4 7 
5 0 4 22 4 -4 4 19 5 -4 4 -9 4 -33 4 -12 
5 -33 4 4 4 -6 4 -16 4 4 5 -2 4 -15 4 -8 
4 -20 5 16 4 21 4 -7 4 -26 5 10 4 27 4 16 
4 4 5 -4 4 0 4 -41 4 -33 5 -8 4 2 4 -12 
4 -13 4 0 5 -4 4 7 4 -3 4 -10 5 13 4 -7 
4 -14 4 0 5 14 4 29 4 0 4 -25 5 -10 4 -22 
4 4 4 0 4 -6 5 12 4 -8 4 18 4 10 5 11 
4 16 4 14 4 3 5 -11 4 21 4 8 4 -12 5 0 
4 -4 4 12 4 -10 5 -35 4 4 4 14 4 2 4 19 
5 -15 4 -2 4 -14 4 -21 5 7 4 0 4 8 4 8 
5 21 4 16 4 14 4 11 5 6 4 2 4 -2 4 6 
4 6 5 43 4 19 4 2 4 -21 5 -14 4 22 4 7 
4 26 5 2 4 15 4 -21 4 -10 5 -19 4 -20 4 -2 
4 -8 5 -13 4 -2 4 -18 4 24 4 0 5 -10 4 23 
4 -6 4 18 5 8 4 6 4 13 4 -2 5 0 4 14 
4 -27 4 46 5 14 4 20 4 5 4 4 4 6 5 -23 
4 -4 4 6 4 -10 5 -8 4 -27 4 -14 4 -13 5 -2 
4 0 4 -14 4 -23 5 5 4 -13 4 -4 4 4 5 2 
4 -2 4 -33 4 -10 4 -2 5 2 4 16 4 9 4 -2 
5 -2 4 20 4 8 3822 1326 300 MP stroke
4 15 5 10 4 -18 4 4 4 22 5 -8 4 21 4 -27 
4 -17 4 19 5 4 4 4 4 -8 4 -10 5 -15 4 -18 
4 -23 4 -8 5 18 4 -4 4 -20 4 16 5 8 4 -28 
4 4 4 4 5 39 4 4 4 6 4 -4 4 -20 5 14 
4 16 4 -26 4 22 5 -4 4 -12 4 -25 4 -18 5 2 
4 2 4 -21 4 15 5 12 4 -16 4 10 4 16 5 -33 
4 -28 4 -2 4 8 4 -13 5 15 4 12 4 0 4 -6 
5 31 4 8 4 -39 4 -6 5 -2 4 22 4 -4 4 -26 
5 -27 4 0 4 -27 4 -22 4 8 5 10 4 -4 4 -4 
4 35 5 4 4 -19 4 -20 4 -10 5 -19 4 -6 4 2 
4 0 5 -43 4 -2 4 -35 4 16 5 25 4 -8 4 8 
4 23 4 22 5 35 4 6 4 4 4 29 5 -8 4 4 
4 39 4 35 5 -6 4 10 4 16 4 2 5 13 4 14 
4 -16 4 -27 4 -18 5 16 4 -2 4 -31 4 -16 5 8 
4 31 4 20 4 -16 5 33 4 6 4 10 4 19 5 30 
4 -43 4 -16 4 4 5 6 4 -31 4 0 4 35 4 19 
5 22 4 17 4 45 4 0 5 20 4 -4 4 -10 4 29 
5 29 4 12 4 -29 4 -20 5 14 4 -31 4 0 4 13 
4 -35 5 4 4 20 4 15 4 0 5 8 4 2 4 -25 
4 -22 5 -15 4 13 4 4 4 2 5 2 4 35 4 14 
4 -8 5 -2 4 -2 4 41 4 -10 4 14 5 -4 4 -19 
4 -39 4 31 5 -16 4 -2 4 -21 4 39 5 -2 4 -18 
4 -37 4 -2 5 -7 4 -34 4 20 4 2 4 -10 5 2 
4 -6 4 -13 4 -20 5 8 4 12 4 2 4 31 5 -18 
4 8 4 19 4 -3 5 -18 4 6 4 -12 4 0 5 -33 
4 -21 4 15 4 24 4 -4 5 13 4 4 4 14 4 -8 
5 14 4 -8 4 -14 4 10 5 -23 4 15 4 -13 4 -12 
5 21 4 26 4 4 4 31 5 2 4 15 4 -13 4 11 
4 18 5 43 4 0 4 11 4 37 5 -5 4 -14 4 2 
4 4 5 -2 4 -2 4 -20 4 2 5 -7 4 -39 4 -32 
4 6 4 -15 5 9 4 -37 4 -11 4 -20 5 -8 4 -9 
4 19 4 -10 5 -3 4 23 4 23 4 -19 5 -27 4 -24 
4 0 4 -2 5 33 4 26 4 0 4 27 4 -25 5 -6 
4 8 4 -12 4 -14 5 2 4 -21 4 33 4 12 5 -20 
4 -23 4 -39 4 -10 5 -8 4 -25 4 -10 4 -14 4 18 
5 16 4 -24 4 0 4 -10 5 -7 4 0 4 19 4 14 
5 13 4 20 4 31 4 -4 5 31 4 -2 4 4 4 -9 
5 2 4 -8 4 27 2555 1264 300 MP stroke
4 -8 4 -33 5 2 4 29 4 20 4 37 5 15 4 -21 
4 -2 4 -21 5 -10 4 -14 4 4 4 8 5 15 4 -3 
4 0 4 -6 4 -14 5 -47 4 -6 4 8 4 28 5 31 
4 0 4 15 4 2 5 -4 4 -9 4 -22 4 -19 5 27 
4 6 4 13 4 34 5 5 4 -15 4 -10 4 -6 4 -35 
5 -39 4 -2 4 -4 4 20 5 -8 4 14 4 -8 4 12 
5 2 4 0 4 23 4 2 5 -6 4 0 4 -4 4 8 
4 4 5 -18 4 10 4 -6 4 2 5 -4 4 12 4 -31 
4 13 5 35 4 30 4 15 4 16 5 -20 4 37 4 -13 
4 2 5 15 4 -37 4 22 4 6 4 5 5 10 4 6 
4 0 4 -6 5 6 4 4 4 2 4 -10 5 20 4 7 
4 12 4 14 5 11 4 0 4 -7 4 -2 5 9 4 6 
4 -4 4 -23 4 2 5 2 4 -12 4 -15 4 -8 5 -14 
4 -15 4 -2 4 13 5 6 4 2 4 -25 4 -12 5 -16 
4 32 4 9 4 -27 4 -41 5 12 4 4 4 6 4 -34 
5 2 4 2 4 2 4 16 5 -20 4 -2 4 26 4 8 
5 5 4 -9 4 -4 4 13 5 -13 4 -14 4 16 4 15 
4 22 5 21 4 2 4 4 4 -6 5 -15 4 -6 4 -24 
4 -13 5 -8 4 19 4 -3 4 -8 5 4 4 17 4 24 
4 11 4 26 5 -12 4 -33 4 -10 4 0 5 29 4 18 
4 15 4 -5 5 -28 4 -4 4 24 4 -4 5 -4 4 2 
4 14 4 -2 5 -18 4 -31 4 -6 4 6 4 4 5 -22 
4 0 4 0 4 12 5 -6 4 -17 4 9 4 12 5 -10 
4 -29 4 -27 4 -6 5 -2 4 -8 4 2 4 6 4 21 
5 2 4 -23 4 -23 4 -12 5 8 4 19 4 -25 4 -20 
5 -2 4 0 4 -31 4 -9 5 -2 4 31 4 29 4 8 
5 6 4 -20 4 -23 4 11 4 -13 5 -6 4 16 4 0 
4 -2 5 -24 4 -6 4 -11 4 21 5 25 4 8 4 16 
4 33 5 14 4 29 4 -22 4 2 4 4 5 0 4 -13 
4 -2 4 0 5 2 4 5 4 -3 4 -24 5 -15 4 21 
4 10 4 17 5 8 4 35 4 27 4 0 5 -9 4 -6 
4 17 4 -2 4 4 5 -2 4 0 4 8 4 -13 5 -24 
4 -23 4 -24 4 6 5 20 4 33 4 23 4 -23 5 -20 
4 -7 4 35 4 29 5 33 4 16 4 -4 4 -4 4 -8 
5 -6 4 -8 4 -7 4 -51 5 10 4 27 4 -6 4 -17 
5 7 4 2 4 -13 4 -14 5 -27 4 6 4 9 4 -4 
4 -27 5 -15 4 -2 4 13 4 2 5 -13 4 -12 4 -6 
4 6 5 4 4 -14 1288 1268 300 MP stroke
4 -27 4 -14 5 31 4 16 4 -6 4 -4 5 12 4 19 
4 16 4 -18 4 -21 5 8 4 27 4 6 4 -10 5 -6 
4 -13 4 -18 4 12 5 2 4 -8 4 -6 4 -15 5 -2 
4 -20 4 14 4 -4 4 -8 5 18 4 23 4 2 4 -16 
5 0 4 6 4 6 4 0 5 8 4 21 4 18 4 -4 
5 -14 4 10 4 -10 4 10 5 12 4 -12 4 29 4 -4 
4 8 5 -6 4 8 4 -15 4 11 5 4 4 8 4 -20 
4 -9 5 -8 4 14 4 -14 4 -27 5 -2 4 -6 4 19 
4 -4 4 0 5 -11 4 -12 4 -10 4 10 5 8 4 25 
4 14 4 33 5 37 4 16 4 21 4 -66 5 -82 4 -68 
4 31 4 21 5 -6 4 -17 4 26 4 10 4 -15 5 -14 
4 -22 4 30 4 -24 5 -33 4 40 4 -19 4 14 5 -30 
4 -45 4 18 4 25 5 -97 4 -455 4 -780 4 -1516 4 -336 
848 4520 105 MP stroke
gr

18.75 w
c8
0.1 sg
%%IncludeResource: font Helvetica-Bold
/Helvetica-Bold /ISOLatin1Encoding 183.333 FMSR

2614 4841 mt 
(Time [s]) s
 559 3499 mt  -90 rotate
(Mass Flow Rate [kg/s]) s
90 rotate
gs 848 565 4238 3956 rc
/c9 { 1.000000 0.000000 0.000000 sr} bdef
c9
1 3 5 8 4 37 4 14 4 -6 5 14 4 31 4 11 
4 2 5 37 4 14 4 25 4 10 5 -12 4 -9 4 27 
4 12 5 13 4 -31 4 -12 4 4 4 -41 5 -23 4 -12 
4 -25 4 4 5 8 4 4 4 15 4 10 5 19 4 6 
4 8 4 -10 5 24 4 23 4 10 4 10 5 11 4 -9 
4 23 4 -20 4 8 5 10 4 -27 4 -14 4 6 5 -16 
4 6 4 2 4 2 5 -33 4 -6 4 12 4 -6 5 -10 
4 -2 4 -2 4 -13 4 -8 5 -12 4 8 4 4 4 10 
5 -4 4 7 4 -37 4 8 5 -4 4 6 4 14 4 -12 
5 2 4 6 4 0 4 6 5 19 4 4 4 -12 4 10 
4 -13 5 -22 4 10 4 2 4 15 5 -13 4 6 4 -12 
4 -2 5 -23 4 -8 4 -6 4 29 5 29 4 0 4 -5 
4 35 4 -2 5 9 4 -17 4 12 4 9 5 -13 4 -12 
4 -6 4 0 5 8 4 -8 4 12 4 -2 5 2 4 -4 
4 -20 4 2 5 8 4 12 4 -12 4 -2 4 2 5 31 
4 39 4 4 4 -4 5 -15 4 -20 4 -13 4 -18 5 -6 
4 4 4 22 4 11 5 -9 4 -8 4 -10 4 -18 4 -21 
5 21 4 14 4 -2 4 8 5 2 4 -18 4 -25 4 6 
5 4 4 -10 4 27 4 -15 5 15 4 -17 4 6 4 21 
5 43 4 21 4 -7 4 -14 4 4 5 6 4 -6 4 -35 
4 -18 5 6 4 -23 4 -16 4 14 5 2 4 15 4 8 
4 -25 5 -33 4 -28 4 8 4 20 5 25 4 19 4 28 
4 9 4 6 5 -19 4 -22 4 4 4 2 5 -17 4 33 
4 17 4 -37 5 -27 4 12 4 -2 4 -22 5 -29 4 37 
4 14 4 0 4 -2 5 -31 4 -2 4 -12 4 4 5 -29 
4 -10 4 -51 4 -11 5 7 4 8 4 0 4 -4 5 14 
4 4 4 -2 4 -14 5 6 4 2 4 -27 4 0 4 15 
5 -13 4 -2 4 15 4 10 5 12 4 -12 4 -4 4 -21 
5 -8 4 -35 4 -31 4 7 5 34 4 -20 4 22 4 9 
4 -19 5 -8 4 10 4 21 4 -2 5 2 4 22 4 17 
4 -12 5 10 4 -17 4 -6 4 17 5 12 4 29 4 14 
4 29 5 -19 4 25 4 10 4 -4 4 -16 5 8 4 -10 
4 10 4 25 5 24 4 25 4 8 4 2 5 33 4 35 
4 -8 4 10 5 -4 4 6 4 10 4 -4 4 -8 5 -4 
4 -8 4 -4 4 12 5 0 4 -12 4 -13 4 15 5 -41 
4 -17 4 2 4 -10 5 -4 4 -10 4 -13 4 2 5 -10 
4 -12 4 -27 4 -23 4 -2 5 17 4 10 4 -27 4 -49 
5 2 4 -8 4 35 3822 1539 300 MP stroke
4 -4 5 -13 4 23 4 18 4 -20 5 -21 4 -33 4 -22 
4 -15 4 13 5 -10 4 -9 4 -28 4 0 5 -9 4 2 
4 23 4 -2 5 12 4 0 4 6 4 -30 5 -17 4 -8 
4 -2 4 2 5 18 4 -4 4 -26 4 10 4 43 5 25 
4 20 4 21 4 18 5 15 4 24 4 -2 4 11 5 2 
4 0 4 24 4 -4 5 -25 4 33 4 54 4 -6 5 4 
4 -11 4 11 4 -9 4 -10 5 -2 4 15 4 26 4 15 
5 -13 4 15 4 -11 4 15 5 2 4 6 4 -31 4 -6 
5 0 4 -21 4 15 4 -21 4 2 5 15 4 6 4 8 
4 -8 5 -10 4 -7 4 -34 4 18 5 19 4 22 4 -14 
4 -6 5 4 4 -15 4 -10 4 -2 5 -43 4 -12 4 -27 
4 2 4 -8 5 -25 4 -21 4 9 4 -13 5 -30 4 -11 
4 -4 4 -8 5 -4 4 0 4 10 4 -6 5 10 4 0 
4 15 4 32 4 -24 5 -17 4 -12 4 12 4 15 5 6 
4 -10 4 0 4 4 5 -17 4 -8 4 -37 4 -12 5 31 
4 26 4 15 4 -6 5 -11 4 31 4 -12 4 14 4 -33 
5 -33 4 -18 4 -17 4 9 5 -15 4 -4 4 39 4 21 
5 22 4 19 4 8 4 12 5 -4 4 21 4 8 4 4 
4 0 5 -2 4 -14 4 -4 4 2 5 -11 4 17 4 -41 
4 -13 5 -37 4 -16 4 16 4 25 5 19 4 -2 4 -13 
4 -24 5 26 4 33 4 -4 4 -14 4 39 5 12 4 -14 
4 -25 4 -21 5 -2 4 31 4 23 4 -2 5 16 4 0 
4 33 4 43 5 -4 4 -6 4 25 4 -17 4 -2 5 0 
4 4 4 -20 4 -11 5 27 4 -12 4 35 4 -23 5 -20 
4 -7 4 -4 4 -16 5 29 4 34 4 7 4 8 5 2 
4 45 4 19 4 30 4 2 5 -6 4 -6 4 -33 4 -33 
5 -6 4 4 4 -24 4 -19 5 15 4 6 4 -31 4 -8 
5 45 4 4 4 4 4 0 5 -12 4 8 4 8 4 -8 
4 -8 5 -35 4 -39 4 10 4 21 5 -31 4 47 4 29 
4 10 5 0 4 31 4 8 4 -31 5 -10 4 -8 4 10 
4 10 4 13 5 0 4 18 4 -16 4 -45 5 -17 4 -37 
4 -22 4 -29 5 -4 4 6 4 -8 4 4 5 -17 4 15 
4 18 4 35 5 17 4 12 4 -2 4 -8 4 22 5 -2 
4 19 4 0 4 -19 5 -6 4 2 4 2 4 -27 5 -18 
4 6 4 2 4 2 5 -4 4 -16 4 -15 4 15 4 10 
5 4 4 -14 4 -9 4 -30 5 -2 4 22 4 17 4 -17 
5 -22 4 -23 4 -10 4 -2 5 16 4 4 4 2 4 25 
5 27 4 2 4 0 2555 1543 300 MP stroke
4 0 4 -21 5 -12 4 -23 4 41 4 31 5 12 4 -16 
4 -14 4 -11 5 -24 4 6 4 -17 4 9 5 10 4 -23 
4 35 4 0 4 -10 5 10 4 -2 4 8 4 17 5 -2 
4 20 4 11 4 24 5 8 4 5 4 -5 4 -37 5 -6 
4 15 4 26 4 4 5 -14 4 -2 4 4 4 15 4 39 
5 8 4 20 4 -4 4 10 5 37 4 -16 4 2 4 14 
5 -2 4 -22 4 -4 4 16 5 23 4 -6 4 -15 4 -14 
4 -4 5 14 4 -12 4 12 4 -12 5 -6 4 32 4 -8 
4 2 5 8 4 25 4 6 4 11 5 22 4 -12 4 -27 
4 -12 5 -6 4 -29 4 -37 4 2 4 -33 5 -16 4 2 
4 6 4 -6 5 4 4 -4 4 -19 4 8 5 7 4 -9 
4 -12 4 0 5 -6 4 6 4 -22 4 -40 5 19 4 16 
4 -14 4 4 4 4 5 0 4 -6 4 -2 4 -6 5 4 
4 12 4 6 4 -22 5 27 4 6 4 18 4 19 5 -27 
4 -2 4 -21 4 -37 4 -18 5 2 4 -2 4 16 4 11 
5 4 4 8 4 -12 4 30 5 27 4 -29 4 17 4 -6 
5 24 4 -4 4 -2 4 8 5 15 4 31 4 12 4 0 
4 -4 5 -15 4 -4 4 17 4 -23 5 0 4 35 4 -4 
4 -43 5 0 4 20 4 17 4 -6 5 6 4 -25 4 -22 
4 4 4 6 5 -19 4 -8 4 -2 4 6 5 -16 4 -17 
4 2 4 21 5 29 4 20 4 11 4 20 5 -16 4 -41 
4 4 4 10 5 14 4 15 4 18 4 6 4 6 5 -6 
4 6 4 -4 4 27 5 12 4 0 4 -24 4 -6 5 10 
4 -19 4 13 4 14 5 -6 4 0 4 -2 4 12 4 -10 
5 -10 4 24 4 23 4 -2 5 -6 4 22 4 19 4 31 
5 6 4 -11 4 -16 4 -8 5 16 4 15 4 4 4 8 
5 8 4 10 4 -16 4 -16 4 -15 5 -16 4 -8 4 16 
4 27 5 -4 4 20 4 2 4 0 5 -10 4 -4 4 12 
4 23 5 2 4 10 4 -23 4 -14 4 -2 5 18 4 -4 
4 -37 4 17 5 12 4 -4 4 2 4 -8 5 10 4 17 
4 0 4 10 5 20 4 -30 4 -29 4 -6 5 -17 4 -33 
4 -22 4 -19 4 -14 5 -2 4 -2 4 18 4 11 5 -15 
4 -2 4 4 4 -35 5 2 4 -2 4 23 4 -4 5 -2 
4 -41 4 -4 4 -33 5 -56 4 -18 4 -21 4 -18 4 -6 
5 2 4 -15 4 -6 4 -23 5 19 4 -25 4 -24 4 8 
5 4 4 12 4 0 4 -26 5 0 4 20 4 -8 4 35 
4 -33 5 -14 4 -2 4 -31 4 33 5 20 4 12 4 3 
4 14 5 8 4 10 1288 1591 300 MP stroke
4 -2 4 33 5 13 4 -19 4 -23 4 3 5 -21 4 -8 
4 26 4 9 4 -25 5 -39 4 -8 4 4 4 31 5 12 
4 31 4 2 4 4 5 2 4 33 4 20 4 9 5 10 
4 6 4 -6 4 -19 4 23 5 21 4 -37 4 0 4 14 
5 -27 4 0 4 0 4 0 5 29 4 -29 4 27 4 19 
5 -9 4 13 4 -19 4 2 5 -12 4 -2 4 -15 4 -12 
4 4 5 -4 4 -23 4 -32 4 -9 5 21 4 8 4 19 
4 -7 5 -28 4 -35 4 37 4 41 5 6 4 -21 4 -10 
4 -12 4 -2 5 6 4 25 4 24 4 -22 5 -15 4 6 
4 -18 4 8 5 27 4 -8 4 33 4 -72 5 -48 4 -69 
4 4 4 3 5 -58 4 -37 4 -17 4 -33 4 -19 5 18 
4 11 4 -1 4 80 5 -96 4 -13 4 77 4 -93 5 10 
4 -35 4 9 4 -180 5 -93 4 -203 4 -647 4 -1510 4 0 
848 4520 105 MP stroke
0 sg
4 -1 4 2 4 -23 4 -22 5 14 4 8 4 11 4 -4 
5 -25 4 -35 4 -23 4 -2 4 -20 5 -27 4 -12 4 0 
4 2 5 27 4 18 4 21 4 14 5 14 4 13 4 30 
4 -4 5 4 4 0 4 13 4 -17 4 -33 5 -26 4 -33 
4 12 4 -37 5 35 4 23 4 20 4 -2 5 13 4 -9 
4 0 4 9 5 4 4 -13 4 -20 4 22 5 -18 4 33 
4 -27 4 -18 4 10 5 8 4 12 4 9 4 -29 5 -27 
4 -10 4 -12 4 34 5 33 4 -4 4 25 4 -8 5 -15 
4 -8 4 4 4 8 4 -4 5 -8 4 10 4 -12 4 -8 
5 -4 4 -13 4 -2 4 11 5 -2 4 18 4 -2 4 4 
5 8 4 13 4 43 4 8 5 -6 4 -4 4 14 4 -33 
4 10 5 27 4 -8 4 -10 4 18 5 39 4 -20 4 12 
4 -43 5 27 4 34 4 5 4 18 5 12 4 -30 4 0 
4 14 5 25 4 16 4 -18 4 -35 4 8 5 -12 4 16 
4 -4 4 6 5 23 4 -11 4 -18 4 -12 5 0 4 -3 
4 15 4 10 5 31 4 -23 4 -22 4 10 4 4 5 29 
4 4 4 -23 4 -4 5 -10 4 -10 4 2 4 -23 5 -6 
4 21 4 12 4 14 5 13 4 10 4 31 4 -6 5 14 
4 -8 4 28 4 -18 4 -6 5 -8 4 -31 4 -35 4 20 
5 39 4 13 4 8 4 27 5 39 4 22 4 -24 4 24 
5 6 4 35 4 11 4 -25 4 -25 5 21 4 4 4 23 
4 -19 5 -27 4 5 4 6 4 51 5 6 4 -4 4 16 
4 19 5 12 4 -2 4 -14 4 -27 5 -18 4 -4 4 20 
4 0 4 -16 5 -27 4 -18 4 -3 4 -4 5 -41 4 -14 
4 -23 4 -16 5 -29 4 2 4 0 4 -8 5 14 4 33 
4 -10 4 -43 4 -15 5 -32 4 -13 4 -24 4 6 5 12 
4 -20 4 0 4 -13 5 -14 4 -17 4 -6 4 -20 5 -2 
4 -13 4 19 4 18 5 -20 4 -21 4 -29 4 -8 4 6 
5 -35 4 -39 4 5 4 -17 5 -16 4 30 4 25 4 35 
5 27 4 26 4 17 4 14 5 0 4 -16 4 12 4 4 
4 2 5 27 4 47 4 19 4 -6 5 -39 4 -27 4 -23 
4 -20 5 10 4 18 4 0 4 23 5 0 4 10 4 7 
4 18 5 4 4 12 4 21 4 12 4 31 5 10 4 9 
4 -7 4 -20 5 0 4 2 4 8 4 6 5 15 4 12 
4 -12 4 14 5 14 4 -14 4 17 4 28 5 -20 4 -11 
4 -12 4 -43 4 -4 5 -6 4 12 4 12 4 2 5 -6 
4 17 4 -15 4 -33 5 -16 4 25 4 20 4 25 5 31 
4 33 4 8 4 10 3820 1453 300 MP stroke
4 2 5 -12 4 -4 4 4 4 -4 5 -23 4 -35 4 -10 
4 -25 5 -14 4 -4 4 -11 4 -2 5 21 4 12 4 2 
4 0 5 -10 4 -14 4 0 4 6 4 6 5 -23 4 -22 
4 -23 4 8 5 2 4 0 4 -16 4 0 5 -29 4 31 
4 -22 4 12 5 -10 4 6 4 4 4 -12 4 -23 5 10 
4 35 4 -4 4 -14 5 -23 4 -21 4 3 4 -29 5 10 
4 -16 4 6 4 18 5 19 4 -4 4 16 4 10 5 7 
4 6 4 6 4 -10 4 -13 5 -16 4 14 4 -8 4 -2 
5 27 4 -13 4 11 4 -2 5 -7 4 11 4 -31 4 12 
5 8 4 31 4 -27 4 -14 4 0 5 31 4 -6 4 22 
4 -14 5 6 4 -41 4 -10 4 -15 5 7 4 -5 4 -4 
4 -30 5 10 4 -2 4 -4 4 26 5 31 4 -18 4 -17 
4 -2 4 6 5 21 4 14 4 -10 4 -10 5 -48 4 -20 
4 10 4 -16 5 -4 4 0 4 41 4 28 5 11 4 6 
4 8 4 -20 4 6 5 -15 4 13 4 -4 4 -31 5 6 
4 18 4 21 4 -29 5 4 4 9 4 -13 4 0 5 19 
4 -9 4 -14 4 8 5 25 4 2 4 -12 4 -2 4 28 
5 27 4 12 4 -32 4 -17 5 -8 4 -21 4 -26 4 -17 
5 35 4 10 4 5 4 -25 5 -23 4 -8 4 17 4 49 
5 14 4 0 4 15 4 2 4 -4 5 -21 4 -8 4 -19 
4 -8 5 2 4 10 4 13 4 -11 5 -24 4 10 4 10 
4 19 5 -10 4 -3 4 31 4 37 4 11 5 18 4 -10 
4 -11 4 0 5 27 4 -20 4 -4 4 32 5 5 4 -21 
4 -8 4 4 5 12 4 -8 4 12 4 -6 5 6 4 6 
4 21 4 -23 4 -30 5 -13 4 11 4 -5 4 2 5 -4 
4 11 4 18 4 6 5 2 4 9 4 12 4 -6 5 -6 
4 -15 4 -10 4 -17 4 -28 5 -21 4 10 4 25 4 23 
5 4 4 -8 4 12 4 -10 5 2 4 0 4 -17 4 -6 
5 23 4 -17 4 13 4 -23 5 2 4 8 4 -35 4 -28 
4 -9 5 -12 4 -20 4 2 4 24 5 6 4 0 4 -24 
4 20 5 -10 4 29 4 6 4 -10 5 -25 4 27 4 2 
4 -25 4 -22 5 -27 4 2 4 -4 4 2 5 6 4 4 
4 6 4 31 5 23 4 14 4 19 4 -9 5 31 4 8 
4 -14 4 -4 5 16 4 -28 4 8 4 0 4 8 5 12 
4 -6 4 -16 4 -4 5 -2 4 14 4 13 4 -13 5 15 
4 35 4 24 4 9 5 4 4 0 4 4 4 -2 5 41 
4 49 4 -8 4 25 4 -31 5 4 4 20 4 5 4 -7 
5 7 -3 16 3 -14 2561 1452 300 MP stroke
4 0 4 -2 4 -5 5 7 4 -9 4 -20 4 -19 5 -24 
4 -50 4 -18 4 -6 4 20 5 -22 4 -4 4 -9 4 -14 
5 -23 4 2 4 -20 4 0 5 -41 4 4 4 10 4 -15 
5 25 4 4 4 -2 4 4 5 21 4 -15 4 -12 4 -10 
4 14 5 23 4 -7 4 -32 4 -21 5 -37 4 -29 4 -26 
4 -21 5 10 4 4 4 11 4 14 5 0 4 -6 4 -10 
4 10 4 10 5 -16 4 2 4 4 4 -4 5 -2 4 20 
4 21 4 29 5 35 4 10 4 2 4 14 5 -4 4 31 
4 27 4 24 5 0 4 -12 4 2 4 27 4 -11 5 -16 
4 14 4 -2 4 11 5 35 4 16 4 -29 4 -14 5 16 
4 8 4 -4 4 -6 5 41 4 9 4 -9 4 11 4 10 
5 41 4 37 4 10 4 -6 5 -37 4 -18 4 -29 4 2 
5 16 4 4 4 -12 4 -2 5 -12 4 -2 4 28 4 7 
5 26 4 13 4 24 4 -6 4 19 5 -15 4 -31 4 -4 
4 -14 5 -6 4 -31 4 22 4 37 5 -10 4 -6 4 31 
4 8 5 19 4 -13 4 -20 4 -56 4 -47 5 25 4 8 
4 -12 4 14 5 0 4 -2 4 -27 4 4 5 6 4 -4 
4 -8 4 -23 5 -53 4 14 4 7 4 35 5 20 4 27 
4 2 4 -17 4 -2 5 17 4 24 4 17 4 -23 5 -31 
4 -14 4 -31 4 -8 5 -39 4 -27 4 13 4 4 5 16 
4 4 4 -8 4 -8 5 10 4 10 4 5 4 -3 4 -26 
5 -23 4 4 4 -22 4 -9 5 -18 4 10 4 31 4 4 
5 17 4 2 4 -15 4 4 5 -20 4 -17 4 -22 4 6 
4 -25 5 13 4 4 4 26 4 -22 5 -23 4 -14 4 20 
4 -22 5 -17 4 5 4 4 4 8 5 18 4 0 4 48 
4 2 5 4 4 -31 4 -37 4 -8 4 10 5 -29 4 19 
4 0 4 -11 5 15 4 12 4 -4 4 -18 5 -9 4 -8 
4 15 4 -7 5 -28 4 -27 4 27 4 20 4 17 5 -17 
4 -22 4 -21 4 2 5 23 4 -25 4 -2 4 -12 5 30 
4 15 4 8 4 -25 5 -10 4 -4 4 -6 4 29 5 14 
4 -29 4 19 4 14 4 6 5 -4 4 -25 4 -53 4 -18 
5 -56 4 17 4 45 4 37 5 53 4 31 4 14 4 17 
5 -19 4 -20 4 22 4 -10 4 2 5 23 4 0 4 -19 
4 -6 5 -8 4 -19 4 11 -2 22 4 -20 2 -21 5 -6 
4 0 4 5 4 2 5 -21 4 -12 4 33 4 6 2 -14 
5 -9 4 -6 4 -22 4 10 2 0 5 -8 4 16 4 -2 
47 -10 -38 6 4 2 4 16 4 -16 5 -29 4 -4 4 17 
4 -2 13 24 -6 2 1309 1775 300 MP stroke
4 -28 4 -3 4 -20 5 -6 4 -17 4 -22 4 4 5 10 
4 -35 4 -31 4 -59 5 -54 4 -4 4 31 4 2 4 6 
5 15 4 -13 4 -14 4 -4 5 0 4 -6 4 2 4 1 
5 -4 4 -6 4 -6 4 -54 5 17 4 37 4 -25 4 -29 
4 -4 5 -45 4 -33 4 -24 4 -17 5 0 4 -35 4 -31 
4 -24 5 -23 4 21 4 0 4 -21 5 -25 4 -24 4 -41 
4 -29 5 -31 4 -41 4 -41 4 -31 4 -18 5 -13 4 -6 
4 -31 4 -8 5 17 4 67 4 62 4 4 5 -35 4 -10 
4 25 4 28 5 0 4 2 4 -8 4 -10 4 -25 5 -6 
4 0 4 4 4 6 5 -14 4 12 4 0 4 2 5 15 
4 26 4 13 4 -8 5 -13 4 -22 4 -27 4 29 5 -8 
4 -19 4 33 4 48 4 25 5 58 4 30 4 -4 4 63 
5 -73 4 -107 4 7 4 -177 5 -6 4 -13 4 36 4 -79 
5 -92 4 -330 4 -475 4 -906 4 0 848 4520 110 MP stroke
/c10 { 1.000000 0.000000 1.000000 sr} bdef
c10
1 2 5 0 4 -8 4 -4 4 39 5 47 4 -6 4 14 
4 7 5 14 4 -6 4 -12 4 -13 5 -24 4 6 4 16 
4 0 5 -10 4 8 4 6 4 -18 4 14 5 47 4 48 
4 2 4 14 5 8 4 -4 4 -22 4 2 5 -21 4 19 
4 34 4 15 5 -8 4 14 4 16 4 29 5 -6 4 -4 
4 8 4 -16 4 -11 5 -2 4 -24 4 2 4 -6 5 -2 
4 8 4 -8 4 -17 5 17 4 4 4 -15 4 -35 5 -12 
4 -18 4 0 4 -23 4 -2 5 -10 4 14 4 -12 4 -43 
5 -11 4 17 4 4 4 4 5 18 4 11 4 -8 4 -11 
5 -14 4 -4 4 2 4 2 5 8 4 -12 4 -17 4 -4 
4 -26 5 -17 4 -20 4 16 4 47 5 13 4 -25 4 -10 
4 4 5 2 4 20 4 2 4 -6 5 -16 4 -10 4 28 
4 29 4 37 5 27 4 12 4 -8 4 -6 5 -21 4 25 
4 22 4 33 5 19 4 -19 4 -20 4 -11 5 -32 4 8 
4 22 4 19 5 -10 4 -9 4 -20 4 -21 4 13 5 -17 
4 -22 4 12 4 20 5 -4 4 25 4 12 4 13 5 2 
4 18 4 -4 4 -8 5 4 4 -16 4 -31 4 -17 4 29 
5 16 4 -12 4 -12 4 0 5 -6 4 6 4 29 4 24 
5 0 4 -29 4 -26 4 -25 5 4 4 -16 4 12 4 35 
5 -6 4 12 4 -20 4 -21 4 17 5 -5 4 -4 4 15 
4 10 5 21 4 4 4 -4 4 6 5 26 4 33 4 -39 
4 27 5 18 4 -20 4 -39 4 -17 5 -26 4 -19 4 29 
4 -4 4 -6 5 4 4 -10 4 4 4 10 5 -6 4 2 
4 -19 4 -8 5 17 4 37 4 0 4 -5 5 -32 4 -9 
4 2 4 -10 4 -22 5 -15 4 6 4 4 4 19 5 -14 
4 -11 4 -4 4 -16 5 14 4 -43 4 -21 4 9 5 -11 
4 9 4 6 4 -21 5 -27 4 -12 4 23 4 14 4 -22 
5 22 4 2 4 2 4 13 5 37 4 16 4 0 4 21 
5 -42 4 7 4 14 4 0 5 23 4 22 4 -2 4 27 
4 10 5 -18 4 6 4 -8 4 -25 5 -27 4 19 4 39 
4 8 5 4 4 -2 4 8 4 4 5 2 4 -20 4 0 
4 6 5 -8 4 6 4 4 4 -2 4 51 5 29 4 -4 
4 16 4 -18 5 -21 4 -8 4 4 4 23 5 -33 4 -18 
4 -15 4 -6 5 -29 4 -29 4 5 4 10 4 8 5 10 
4 -2 4 39 4 -6 5 -14 4 4 4 8 4 -2 5 0 
4 -31 4 -20 4 6 5 -19 4 0 4 -12 4 25 5 6 
4 12 4 -20 4 -23 4 -25 5 15 4 22 4 9 4 6 
5 0 4 -8 4 6 3822 1732 300 MP stroke
4 -41 5 6 4 12 4 -18 4 4 5 26 4 -10 4 6 
4 43 4 13 5 22 4 -12 4 2 4 -16 5 24 4 0 
4 25 4 27 5 0 4 -15 4 -12 4 10 5 0 4 -18 
4 -4 4 -4 5 10 4 -19 4 -12 4 18 4 7 5 -4 
4 -9 4 -4 4 10 5 35 4 -16 4 -12 4 -25 5 16 
4 9 4 37 4 0 5 -29 4 -39 4 -23 4 -18 5 2 
4 22 4 39 4 17 4 -8 5 20 4 -4 4 -29 4 23 
5 12 4 -6 4 4 4 -14 5 2 4 18 4 21 4 -19 
5 19 4 -4 4 -35 4 -10 4 24 5 15 4 -5 4 5 
4 -2 5 30 4 4 4 -28 4 -13 5 -8 4 0 4 10 
4 11 5 31 4 24 4 -14 4 -27 5 27 4 -17 4 -10 
4 23 4 18 5 -20 4 -2 4 10 4 35 5 41 4 27 
4 22 4 -22 5 -23 4 -16 4 -11 4 -4 5 6 4 39 
4 -26 4 0 4 -25 5 -14 4 10 4 -8 4 -19 5 -24 
4 -9 4 -37 4 -2 5 45 4 -2 4 -16 4 -2 5 -19 
4 -32 4 -37 4 -35 5 16 4 37 4 21 4 8 4 2 
5 -2 4 -19 4 -2 4 -12 5 2 4 8 4 -37 4 23 
5 8 4 -16 4 -17 4 -20 5 -21 4 -2 4 0 4 -10 
4 -15 5 -43 4 13 4 20 4 0 5 -10 4 -23 4 -20 
4 -13 5 -8 4 -24 4 2 4 -2 5 -27 4 -14 4 28 
4 15 5 14 4 18 4 3 4 -33 4 39 5 -17 4 6 
4 11 4 -2 5 43 4 26 4 0 4 -14 5 -16 4 -19 
4 -12 4 4 5 10 4 -18 4 -8 4 0 4 -7 5 21 
4 18 4 27 4 6 5 4 4 13 4 26 4 27 5 -14 
4 4 4 -17 4 2 5 -2 4 -2 4 -14 4 4 5 23 
4 -6 4 -7 4 29 4 31 5 10 4 33 4 6 4 -4 
5 -41 4 2 4 17 4 4 5 -33 4 -4 4 -23 4 0 
5 -20 4 8 4 35 4 2 5 4 4 -10 4 -21 4 6 
4 17 5 2 4 4 4 6 4 -2 5 6 4 0 4 -6 
4 -10 5 -41 4 -40 4 -16 4 -25 5 21 4 12 4 -22 
4 16 4 0 5 14 4 29 4 25 4 33 5 -2 4 2 
4 -25 4 0 5 0 4 -10 4 -12 4 -5 5 -30 4 26 
4 31 4 21 5 -19 4 -31 4 11 4 53 4 37 5 6 
4 21 4 2 4 -29 5 -18 4 -19 4 -2 4 -23 5 -12 
4 -18 4 -2 4 12 5 31 4 16 4 17 4 10 4 -27 
5 -10 4 10 4 23 4 10 5 20 4 54 4 -14 4 -21 
5 -16 4 -21 4 21 4 0 5 -7 4 -16 4 -47 4 10 
5 -19 4 -2 4 15 2555 1689 300 MP stroke
4 0 4 8 5 2 4 -8 4 18 4 -18 5 -6 4 -4 
4 0 4 28 5 -20 4 -23 4 -20 4 2 5 -19 4 4 
4 11 4 20 4 33 5 -14 4 16 4 12 4 11 5 -21 
4 -8 4 -47 4 -33 5 -29 4 4 4 45 4 37 5 -14 
4 -45 4 -27 4 -27 5 -24 4 10 4 -4 4 43 4 25 
5 -37 4 12 4 4 4 -25 5 37 4 7 4 18 4 43 
5 -4 4 -6 4 2 4 23 5 -11 4 6 4 5 4 -11 
4 -2 5 27 4 -27 4 -8 4 6 5 -10 4 12 4 13 
4 -19 5 -29 4 -22 4 -33 4 2 5 14 4 54 4 10 
4 16 5 -14 4 4 4 25 4 41 4 -4 5 -4 4 -19 
4 4 4 33 5 25 4 8 4 -8 4 -25 5 -2 4 -33 
4 19 4 0 5 -13 4 13 4 10 4 -18 5 -3 4 -8 
4 -59 4 -25 4 0 5 -25 4 -14 4 -2 4 -37 5 -21 
4 21 4 -2 4 -25 5 -20 4 -19 4 -31 4 15 5 -21 
4 15 4 16 4 -2 4 10 5 39 4 35 4 -2 4 -43 
5 6 4 15 4 14 4 -12 5 -9 4 0 4 -8 4 -8 
5 -12 4 -2 4 4 4 -15 5 -12 4 -35 4 6 4 17 
4 4 5 -33 4 0 4 -16 4 -17 5 -4 4 -37 4 -12 
4 24 5 41 4 56 4 41 4 20 5 -6 4 -2 4 -18 
4 -6 4 10 5 12 4 13 4 39 4 32 5 7 4 -17 
4 8 4 -12 5 29 4 41 4 -4 4 -8 5 -23 4 -6 
4 0 4 -33 5 -31 4 -33 4 -28 4 -23 4 -37 5 0 
4 -6 4 -13 4 -4 5 -20 4 -15 4 -14 4 23 5 28 
4 7 4 -35 4 -31 5 -35 4 -27 4 -35 4 -37 4 -12 
5 -39 4 -58 4 -24 4 -66 5 -82 4 -37 4 -29 4 -4 
5 -10 4 -27 4 -45 4 -55 5 -27 4 -49 4 -35 4 -21 
5 -33 4 -41 4 -61 4 -79 4 -55 5 -41 4 -47 4 -6 
4 18 5 4 4 0 4 -10 4 16 5 58 4 16 4 -10 
4 -45 5 -47 4 -23 4 -27 4 -31 4 -18 5 -21 4 -47 
4 -70 4 -65 5 -15 4 -14 4 -10 4 -9 5 -18 4 -15 
4 -8 4 8 5 29 4 -16 4 18 4 50 5 74 4 49 
4 16 4 43 4 11 5 -27 4 -8 4 -25 4 -14 5 -17 
4 -14 4 -12 4 -27 5 -8 4 -9 4 -12 4 -18 5 -29 
4 -62 4 -76 4 -57 5 -35 4 -27 4 -41 4 -62 4 -45 
5 -24 4 -15 4 -4 4 -14 5 -19 4 -12 4 -8 4 -11 
5 -2 4 -4 4 -2 4 -2 5 -4 4 0 4 0 4 -2 
4 -4 5 -8 4 -21 4 -43 4 -25 5 -39 4 -59 4 -95 
4 -78 5 -55 4 -54 1288 4485 300 MP stroke
4 -22 4 -6 5 -2 4 0 4 0 4 0 5 0 4 0 
4 0 4 0 4 0 5 0 4 0 4 0 4 2 5 0 
4 0 4 0 4 0 5 0 4 0 4 2 4 0 5 0 
4 -2 4 2 4 0 4 2 5 0 4 2 4 2 4 10 
5 8 4 9 4 14 4 14 5 17 4 12 4 21 4 16 
5 23 4 26 4 21 4 33 5 57 4 35 4 23 4 37 
4 35 5 43 4 55 4 29 4 33 5 29 4 24 4 45 
4 72 5 68 4 45 4 35 4 31 5 14 4 11 4 18 
4 25 4 22 5 27 4 35 4 49 4 62 5 57 4 56 
4 55 4 33 5 50 4 41 4 0 4 0 5 -2 4 -3 
4 44 4 44 5 38 4 39 4 36 4 28 4 -28 5 16 
4 -4 4 -49 4 7 5 27 4 -103 4 -113 4 -15 5 100 
4 59 4 62 4 -71 5 -304 4 -406 4 -469 4 -423 4 0 
848 4520 105 MP stroke
gr

c10
0 sg
%%IncludeResource: font Helvetica
/Helvetica /ISOLatin1Encoding 166.667 FMSR

 818 4587 mt 
( ) s
5056  631 mt 
( ) s
12.5 w
%%IncludeResource: font Symbol
/Symbol /ISOLatin1Encoding 125 FMSR

4108 3563 mt 
(D) s
4184 3563 mt 
(g) s
%%IncludeResource: font Helvetica-Bold
/Helvetica-Bold /ISOLatin1Encoding 125 FMSR

4235 3563 mt 
( = 0 J/m) s
%%IncludeResource: font Helvetica-Bold
/Helvetica-Bold /ISOLatin1Encoding 100 FMSR

4697 3501 mt 
(2) s
gs 3783 3386 1191 951 rc
18.75 w
c8
250 0 3833 3515 2 MP stroke
gr

18.75 w
c8
0 sg
%%IncludeResource: font Symbol
/Symbol /ISOLatin1Encoding 125 FMSR

4108 3793 mt 
(D) s
4184 3793 mt 
(g) s
%%IncludeResource: font Helvetica-Bold
/Helvetica-Bold /ISOLatin1Encoding 125 FMSR

4235 3793 mt 
( = 5 J/m) s
%%IncludeResource: font Helvetica-Bold
/Helvetica-Bold /ISOLatin1Encoding 100 FMSR

4697 3731 mt 
(2) s
gs 3783 3386 1191 951 rc
c9
250 0 3833 3745 2 MP stroke
gr

c9
0 sg
%%IncludeResource: font Symbol
/Symbol /ISOLatin1Encoding 125 FMSR

4108 4024 mt 
(D) s
4184 4024 mt 
(g) s
%%IncludeResource: font Helvetica-Bold
/Helvetica-Bold /ISOLatin1Encoding 125 FMSR

4235 4024 mt 
( = 10 J/m) s
%%IncludeResource: font Helvetica-Bold
/Helvetica-Bold /ISOLatin1Encoding 100 FMSR

4766 3962 mt 
(2) s
gs 3783 3386 1191 951 rc
250 0 3833 3976 2 MP stroke
gr

%%IncludeResource: font Symbol
/Symbol /ISOLatin1Encoding 125 FMSR

4108 4254 mt 
(D) s
4184 4254 mt 
(g) s
%%IncludeResource: font Helvetica-Bold
/Helvetica-Bold /ISOLatin1Encoding 125 FMSR

4235 4254 mt 
( = 12.5 J/m) s
%%IncludeResource: font Helvetica-Bold
/Helvetica-Bold /ISOLatin1Encoding 100 FMSR

4870 4192 mt 
(2) s
gs 3783 3386 1191 951 rc
c10
250 0 3833 4206 2 MP stroke
12.5 w
gr

12.5 w
c10

end %%Color Dict

eplot
%%EndObject

epage
end

showpage

%%Trailer
%%EOF
