%!PS-Adobe-3.0 EPSF-3.0
%%Creator: MATLAB, The MathWorks, Inc. Version 7.12.0.635 (R2011a). Operating System: Linux 2.6.32-358.6.2.el6.x86_64 #1 SMP Thu May 16 11:21:38 CDT 2013 x86_64.
%%Title: ./Confined_StressStain_SE_0_1_Old.eps
%%CreationDate: 08/14/2013  11:48:52
%%DocumentNeededFonts: Helvetica-Bold
%%+ Helvetica
%%DocumentProcessColors: Cyan Magenta Yellow Black
%%LanguageLevel: 2
%%Pages: 1
%%BoundingBox:    20    69   606   602
%%EndComments

%%BeginProlog
% MathWorks dictionary
/MathWorks 160 dict begin
% definition operators
/bdef {bind def} bind def
/ldef {load def} bind def
/xdef {exch def} bdef
/xstore {exch store} bdef
% operator abbreviations
/c  /clip ldef
/cc /concat ldef
/cp /closepath ldef
/gr /grestore ldef
/gs /gsave ldef
/mt /moveto ldef
/np /newpath ldef
/cm /currentmatrix ldef
/sm /setmatrix ldef
/rm /rmoveto ldef
/rl /rlineto ldef
/s {show newpath} bdef
/sc {setcmykcolor} bdef
/sr /setrgbcolor ldef
/sg /setgray ldef
/w /setlinewidth ldef
/j /setlinejoin ldef
/cap /setlinecap ldef
/rc {rectclip} bdef
/rf {rectfill} bdef
% page state control
/pgsv () def
/bpage {/pgsv save def} bdef
/epage {pgsv restore} bdef
/bplot /gsave ldef
/eplot {stroke grestore} bdef
% orientation switch
/portraitMode 0 def /landscapeMode 1 def /rotateMode 2 def
% coordinate system mappings
/dpi2point 0 def
% font control
/FontSize 0 def
/FMS {/FontSize xstore findfont [FontSize 0 0 FontSize neg 0 0]
  makefont setfont} bdef
/reencode {exch dup where {pop load} {pop StandardEncoding} ifelse
  exch dup 3 1 roll findfont dup length dict begin
  { 1 index /FID ne {def}{pop pop} ifelse } forall
  /Encoding exch def currentdict end definefont pop} bdef
/isroman {findfont /CharStrings get /Agrave known} bdef
/FMSR {3 1 roll 1 index dup isroman {reencode} {pop pop} ifelse
  exch FMS} bdef
/csm {1 dpi2point div -1 dpi2point div scale neg translate
 dup landscapeMode eq {pop -90 rotate}
  {rotateMode eq {90 rotate} if} ifelse} bdef
% line types: solid, dotted, dashed, dotdash
/SO { [] 0 setdash } bdef
/DO { [.5 dpi2point mul 4 dpi2point mul] 0 setdash } bdef
/DA { [6 dpi2point mul] 0 setdash } bdef
/DD { [.5 dpi2point mul 4 dpi2point mul 6 dpi2point mul 4
  dpi2point mul] 0 setdash } bdef
% macros for lines and objects
/L {lineto stroke} bdef
/MP {3 1 roll moveto 1 sub {rlineto} repeat} bdef
/AP {{rlineto} repeat} bdef
/PDlw -1 def
/W {/PDlw currentlinewidth def setlinewidth} def
/PP {closepath eofill} bdef
/DP {closepath stroke} bdef
/MR {4 -2 roll moveto dup  0 exch rlineto exch 0 rlineto
  neg 0 exch rlineto closepath} bdef
/FR {MR stroke} bdef
/PR {MR fill} bdef
/L1i {{currentfile picstr readhexstring pop} image} bdef
/tMatrix matrix def
/MakeOval {newpath tMatrix currentmatrix pop translate scale
0 0 1 0 360 arc tMatrix setmatrix} bdef
/FO {MakeOval stroke} bdef
/PO {MakeOval fill} bdef
/PD {currentlinewidth 2 div 0 360 arc fill
   PDlw -1 eq not {PDlw w /PDlw -1 def} if} def
/FA {newpath tMatrix currentmatrix pop translate scale
  0 0 1 5 -2 roll arc tMatrix setmatrix stroke} bdef
/PA {newpath tMatrix currentmatrix pop	translate 0 0 moveto scale
  0 0 1 5 -2 roll arc closepath tMatrix setmatrix fill} bdef
/FAn {newpath tMatrix currentmatrix pop translate scale
  0 0 1 5 -2 roll arcn tMatrix setmatrix stroke} bdef
/PAn {newpath tMatrix currentmatrix pop translate 0 0 moveto scale
  0 0 1 5 -2 roll arcn closepath tMatrix setmatrix fill} bdef
/vradius 0 def /hradius 0 def /lry 0 def
/lrx 0 def /uly 0 def /ulx 0 def /rad 0 def
/MRR {/vradius xdef /hradius xdef /lry xdef /lrx xdef /uly xdef
  /ulx xdef newpath tMatrix currentmatrix pop ulx hradius add uly
  vradius add translate hradius vradius scale 0 0 1 180 270 arc 
  tMatrix setmatrix lrx hradius sub uly vradius add translate
  hradius vradius scale 0 0 1 270 360 arc tMatrix setmatrix
  lrx hradius sub lry vradius sub translate hradius vradius scale
  0 0 1 0 90 arc tMatrix setmatrix ulx hradius add lry vradius sub
  translate hradius vradius scale 0 0 1 90 180 arc tMatrix setmatrix
  closepath} bdef
/FRR {MRR stroke } bdef
/PRR {MRR fill } bdef
/MlrRR {/lry xdef /lrx xdef /uly xdef /ulx xdef /rad lry uly sub 2 div def
  newpath tMatrix currentmatrix pop ulx rad add uly rad add translate
  rad rad scale 0 0 1 90 270 arc tMatrix setmatrix lrx rad sub lry rad
  sub translate rad rad scale 0 0 1 270 90 arc tMatrix setmatrix
  closepath} bdef
/FlrRR {MlrRR stroke } bdef
/PlrRR {MlrRR fill } bdef
/MtbRR {/lry xdef /lrx xdef /uly xdef /ulx xdef /rad lrx ulx sub 2 div def
  newpath tMatrix currentmatrix pop ulx rad add uly rad add translate
  rad rad scale 0 0 1 180 360 arc tMatrix setmatrix lrx rad sub lry rad
  sub translate rad rad scale 0 0 1 0 180 arc tMatrix setmatrix
  closepath} bdef
/FtbRR {MtbRR stroke } bdef
/PtbRR {MtbRR fill } bdef
/stri 6 array def /dtri 6 array def
/smat 6 array def /dmat 6 array def
/tmat1 6 array def /tmat2 6 array def /dif 3 array def
/asub {/ind2 exch def /ind1 exch def dup dup
  ind1 get exch ind2 get sub exch } bdef
/tri_to_matrix {
  2 0 asub 3 1 asub 4 0 asub 5 1 asub
  dup 0 get exch 1 get 7 -1 roll astore } bdef
/compute_transform {
  dmat dtri tri_to_matrix tmat1 invertmatrix 
  smat stri tri_to_matrix tmat2 concatmatrix } bdef
/ds {stri astore pop} bdef
/dt {dtri astore pop} bdef
/db {2 copy /cols xdef /rows xdef mul dup 3 mul string
  currentfile 
  3 index 0 eq {/ASCIIHexDecode filter}
  {/ASCII85Decode filter 3 index 2 eq {/RunLengthDecode filter} if }
  ifelse exch readstring pop
  dup 0 3 index getinterval /rbmap xdef
  dup 2 index dup getinterval /gbmap xdef
  1 index dup 2 mul exch getinterval /bbmap xdef pop pop}bdef
/it {gs np dtri aload pop moveto lineto lineto cp c
  cols rows 8 compute_transform 
  rbmap gbmap bbmap true 3 colorimage gr}bdef
/il {newpath moveto lineto stroke}bdef
currentdict end def
%%EndProlog

%%BeginSetup
MathWorks begin

0 cap

end
%%EndSetup

%%Page: 1 1
%%BeginPageSetup
%%PageBoundingBox:    20    69   606   602
MathWorks begin
bpage
%%EndPageSetup

%%BeginObject: obj1
bplot

/dpi2point 8.33333 def
portraitMode -0158 5475 csm

  329   455  4885  4445 rc
84 dict begin %Colortable dictionary
/c0 { 0.000000 0.000000 0.000000 sr} bdef
/c1 { 1.000000 1.000000 1.000000 sr} bdef
/c2 { 0.900000 0.000000 0.000000 sr} bdef
/c3 { 0.000000 0.820000 0.000000 sr} bdef
/c4 { 0.000000 0.000000 0.800000 sr} bdef
/c5 { 0.910000 0.820000 0.320000 sr} bdef
/c6 { 1.000000 0.260000 0.820000 sr} bdef
/c7 { 0.000000 0.820000 0.820000 sr} bdef
c0
1 j
1 sg
   0    0 5651 5651 rf
12.5 w
0 3955 4237 0 0 -3955 848 4520 4 MP
PP
-4237 0 0 3955 4237 0 0 -3955 848 4520 5 MP stroke
8.33333 w
DO
SO
12.5 w
0.1 sg
 848 4520 mt 5085 4520 L
 848  565 mt 5085  565 L
 848 4520 mt  848  565 L
5085 4520 mt 5085  565 L
 848 4520 mt 5085 4520 L
 848 4520 mt  848  565 L
 848 4520 mt  848 4456 L
 848  565 mt  848  628 L
%%IncludeResource: font Helvetica
/Helvetica /ISOLatin1Encoding 133.333 FMSR

 811 4668 mt 
(0) s
1695 4520 mt 1695 4456 L
1695  565 mt 1695  628 L
1566 4668 mt 
(0.02) s
2542 4520 mt 2542 4456 L
2542  565 mt 2542  628 L
2413 4668 mt 
(0.04) s
3390 4520 mt 3390 4456 L
3390  565 mt 3390  628 L
3261 4668 mt 
(0.06) s
4237 4520 mt 4237 4456 L
4237  565 mt 4237  628 L
4108 4668 mt 
(0.08) s
5085 4520 mt 5085 4456 L
5085  565 mt 5085  628 L
4993 4668 mt 
(0.1) s
 848 4520 mt  911 4520 L
5085 4520 mt 5021 4520 L
 750 4569 mt 
(0) s
 848 4160 mt  911 4160 L
5085 4160 mt 5021 4160 L
 676 4209 mt 
(50) s
 848 3800 mt  911 3800 L
5085 3800 mt 5021 3800 L
 602 3849 mt 
(100) s
 848 3441 mt  911 3441 L
5085 3441 mt 5021 3441 L
 602 3490 mt 
(150) s
 848 3081 mt  911 3081 L
5085 3081 mt 5021 3081 L
 602 3130 mt 
(200) s
 848 2722 mt  911 2722 L
5085 2722 mt 5021 2722 L
 602 2771 mt 
(250) s
 848 2362 mt  911 2362 L
5085 2362 mt 5021 2362 L
 602 2411 mt 
(300) s
 848 2003 mt  911 2003 L
5085 2003 mt 5021 2003 L
 602 2052 mt 
(350) s
 848 1643 mt  911 1643 L
5085 1643 mt 5021 1643 L
 602 1692 mt 
(400) s
 848 1284 mt  911 1284 L
5085 1284 mt 5021 1284 L
 602 1333 mt 
(450) s
 848  924 mt  911  924 L
5085  924 mt 5021  924 L
 602  973 mt 
(500) s
 848  565 mt  911  565 L
5085  565 mt 5021  565 L
 602  614 mt 
(550) s
 848 4520 mt 5085 4520 L
 848  565 mt 5085  565 L
 848 4520 mt  848  565 L
5085 4520 mt 5085  565 L
gs 848 565 4238 3956 rc
20.8333 w
0 sg
-103 0 -102 0 -103 9 -103 22 -102 37 -103 53 -103 71 -102 91 
-103 116 -103 144 -102 185 10 -10 10 -9 10 -9 11 -9 10 -9 
10 -10 10 -9 11 -9 10 -10 10 -9 10 -9 11 -9 10 -9 
10 -9 11 -9 10 -9 10 -9 10 -9 11 -8 10 -9 10 -8 
10 -9 11 -9 10 -9 10 -8 10 -8 11 -8 10 -8 10 -3 
11 -7 10 -7 10 -6 10 -6 11 -7 10 -7 10 -8 10 -7 
11 -7 10 -7 10 -7 10 2 11 -5 10 -7 10 -8 11 -8 
10 -7 10 -7 10 -7 11 -7 10 -7 10 -7 10 -7 11 -6 
10 -8 10 -7 10 -5 11 -7 10 -7 10 -6 11 -6 10 -5 
10 -6 10 -6 11 -6 10 -6 10 -6 10 -6 11 -6 10 -6 
10 -6 10 -6 11 -5 10 -6 10 -5 11 -6 10 -5 10 -5 
10 -5 11 -6 10 -4 10 -4 10 -5 11 -3 10 -4 10 -5 
10 -4 11 0 10 -4 10 -3 11 -4 10 -4 10 -4 10 -4 
11 -4 10 -4 10 -4 10 -3 11 -4 10 -4 10 -2 10 -4 
11 -4 10 0 10 -3 11 -3 10 -4 10 -2 10 -3 11 -3 
10 -4 10 8 10 10 11 7 10 -2 10 -2 10 -2 11 -2 
10 -1 10 -3 11 -3 10 -2 10 -3 10 1 11 -3 10 -3 
10 -4 10 -1 11 -2 10 -4 10 3 10 -1 11 0 10 -2 
10 -2 11 -2 10 -2 10 -2 10 -3 11 -2 10 -3 10 -3 
10 -1 11 6 10 0 10 3 10 -1 11 1 10 1 10 -2 
11 -1 10 -2 10 -2 10 -1 11 1 10 1 10 -1 10 -2 
11 1 10 -1 10 -1 10 -2 11 -1 10 -1 10 -1 11 -1 
10 -1 10 -1 10 -2 11 0 10 -1 10 0 10 -2 11 -1 
10 1 10 -1 10 -1 11 1 10 1 10 -1 11 -2 10 -1 
10 -1 10 -1 11 0 10 -1 10 0 10 1 11 -1 10 0 
10 -1 10 -1 11 0 10 0 10 3 11 0 10 0 10 0 
10 0 11 -1 10 -1 10 0 10 1 11 1 10 1 10 1 
10 0 11 -1 10 -1 10 0 11 0 10 0 10 -1 10 0 
11 -1 10 -1 10 -1 10 -1 11 -1 10 0 10 0 10 0 
11 0 10 -1 10 0 10 -1 848 4520 237 MP stroke
gr

20.8333 w
0 sg
0.1 sg
%%IncludeResource: font Helvetica-Bold
/Helvetica-Bold /ISOLatin1Encoding 183.333 FMSR

2351 4842 mt 
(Vertical Strain) s
 522 3424 mt  -90 rotate
(Vertical Stress [kPa]) s
90 rotate
gs 848 565 4238 3956 rc
/c8 { 1.000000 0.000000 0.000000 sr} bdef
c8
-103 3 -103 12 -102 22 -103 33 -103 44 -102 56 -103 71 -103 85 
-102 104 -103 121 -103 140 -102 164 -103 191 -103 220 -102 254 -103 286 
10 -16 10 -17 11 -16 10 -16 10 -16 10 -17 11 -15 10 -16 
10 -15 11 -16 10 -15 10 -16 10 -16 11 -15 10 -16 10 -15 
10 -16 11 -15 10 -16 10 -15 10 -15 11 -15 10 -15 10 -15 
11 -15 10 -14 10 -15 10 -15 11 -14 10 -14 10 -15 10 -14 
11 -15 10 -14 10 -14 10 -15 11 -14 10 -14 10 -13 11 -14 
10 -14 10 -14 10 -13 11 -14 10 -12 10 -12 10 -12 11 -11 
10 -12 10 -11 10 -11 11 -12 10 -11 10 -12 11 -11 10 -11 
10 -12 10 -11 11 -11 10 -11 10 -11 10 -11 11 -11 10 -11 
10 -12 10 -11 11 -12 10 -11 10 -11 11 -12 10 -11 10 -12 
10 -12 11 -10 10 -11 10 -11 10 -11 11 -12 10 -10 10 7 
10 7 11 -9 10 -9 10 -10 11 -9 10 -10 10 -9 10 -9 
11 -9 10 -9 10 -10 10 -9 11 -9 10 -10 10 -9 10 -9 
11 -9 10 -9 10 -9 11 -9 10 -9 10 -9 10 -9 11 -8 
10 -9 10 -8 10 -9 11 -9 10 -9 10 -8 10 -8 11 -8 
10 -8 10 -3 11 -7 10 -7 10 -6 10 -6 11 -7 10 -7 
10 -8 10 -7 11 -7 10 -7 10 -7 10 2 11 -5 10 -7 
10 -8 11 -8 10 -7 10 -7 10 -7 11 -7 10 -7 10 -7 
10 -7 11 -6 10 -8 10 -7 10 -5 11 -7 10 -7 10 -6 
11 -6 10 -5 10 -6 10 -6 11 -6 10 -6 10 -6 10 -6 
11 -6 10 -6 10 -6 10 -6 11 -5 10 -6 10 -5 11 -6 
10 -5 10 -5 10 -5 11 -6 10 -4 10 -4 10 -5 11 -3 
10 -4 10 -5 10 -4 11 0 10 -4 10 -3 11 -4 10 -4 
10 -4 10 -4 11 -4 10 -4 10 -4 10 -3 11 -4 10 -4 
10 -2 10 -4 11 -4 10 0 10 -3 11 -3 10 -4 10 -2 
10 -3 11 -3 10 -4 10 8 10 10 11 7 10 -2 10 -2 
10 -2 11 -2 10 -1 10 -3 11 -3 10 -2 10 -3 10 1 
11 -3 10 -3 10 -4 10 -1 11 -2 10 -4 10 3 10 -1 
11 0 10 -2 10 -2 11 -2 10 -2 10 -2 10 -3 11 -2 
10 -3 10 -3 10 -1 11 6 10 0 10 3 10 -1 11 1 
10 1 10 -2 11 -1 10 -2 10 -2 10 -1 11 1 10 1 
10 -1 10 -2 11 1 10 -1 10 -1 10 -2 11 -1 10 -1 
10 -1 11 -1 10 -1 10 -1 10 -2 11 0 10 -1 10 0 
10 -2 11 -1 10 1 10 -1 10 -1 11 1 10 1 10 -1 
11 -2 10 -1 10 -1 10 -1 11 0 10 -1 10 0 10 1 
11 -1 10 0 10 -1 10 -1 11 0 10 0 10 3 11 0 
10 0 10 0 10 0 1125 4512 300 MP stroke
11 -1 10 -1 10 0 10 1 11 1 10 1 10 1 10 0 
11 -1 10 -1 10 0 11 0 10 0 10 -1 10 0 11 -1 
10 -1 10 -1 10 -1 11 -1 10 0 10 0 10 0 11 0 
10 -1 10 0 10 -1 848 4520 28 MP stroke
/c9 { 0.000000 0.000000 1.000000 sr} bdef
c9
-103 14 -103 22 -102 32 -103 43 -103 52 -102 60 -103 72 -103 84 
-102 98 -103 111 -103 127 -102 141 -103 163 -103 182 -102 203 -103 226 
-103 256 -102 284 -103 313 -103 343 -102 375 -103 399 10 -24 11 -23 
10 -24 10 -23 10 -23 11 -24 10 -23 10 -23 11 -23 10 -24 
10 -23 10 -23 11 -24 10 -23 10 -23 10 -22 11 -23 10 -23 
10 -23 10 -23 11 -21 10 -22 10 -22 11 -23 10 -22 10 -22 
10 -22 11 -21 10 -22 10 -22 10 -21 11 -22 10 -21 10 -22 
10 -21 11 -22 10 -21 10 -21 11 -21 10 -21 10 -20 10 -20 
11 -19 10 -20 10 -20 10 -20 11 -20 10 -19 10 -20 10 -19 
11 -20 10 -20 10 -19 11 -20 10 -19 10 -20 10 -19 11 -19 
10 -20 10 -19 10 -19 11 -19 10 -20 10 -19 10 -19 11 -19 
10 -20 10 -20 11 -21 10 -17 10 -19 10 -19 11 -14 10 -14 
10 -17 10 -18 11 -17 10 -17 10 -18 10 -17 11 -18 10 -14 
10 -16 11 -17 10 -17 10 -17 10 -16 11 -17 10 -17 10 -16 
10 -17 11 -16 10 -16 10 -16 10 -17 11 -15 10 -16 10 -15 
11 -16 10 -15 10 -16 10 -16 11 -15 10 -16 10 -15 10 -16 
11 -15 10 -16 10 -15 10 -15 11 -15 10 -15 10 -15 11 -15 
10 -14 10 -15 10 -15 11 -14 10 -14 10 -15 10 -14 11 -15 
10 -14 10 -14 10 -15 11 -14 10 -14 10 -13 11 -14 10 -14 
10 -14 10 -13 11 -14 10 -12 10 -12 10 -12 11 -11 10 -12 
10 -11 10 -11 11 -12 10 -11 10 -12 11 -11 10 -11 10 -12 
10 -11 11 -11 10 -11 10 -11 10 -11 11 -11 10 -11 10 -12 
10 -11 11 -12 10 -11 10 -11 11 -12 10 -11 10 -12 10 -12 
11 -10 10 -11 10 -11 10 -11 11 -12 10 -10 10 7 10 7 
11 -9 10 -9 10 -10 11 -9 10 -10 10 -9 10 -9 11 -9 
10 -9 10 -10 10 -9 11 -9 10 -10 10 -9 10 -9 11 -9 
10 -9 10 -9 11 -9 10 -9 10 -9 10 -9 11 -8 10 -9 
10 -8 10 -9 11 -9 10 -9 10 -8 10 -8 11 -8 10 -8 
10 -3 11 -7 10 -7 10 -6 10 -6 11 -7 10 -7 10 -8 
10 -7 11 -7 10 -7 10 -7 10 2 11 -5 10 -7 10 -8 
11 -8 10 -7 10 -7 10 -7 11 -7 10 -7 10 -7 10 -7 
11 -6 10 -8 10 -7 10 -5 11 -7 10 -7 10 -6 11 -6 
10 -5 10 -6 10 -6 11 -6 10 -6 10 -6 10 -6 11 -6 
10 -6 10 -6 10 -6 11 -5 10 -6 10 -5 11 -6 10 -5 
10 -5 10 -5 11 -6 10 -4 10 -4 10 -5 11 -3 10 -4 
10 -5 10 -4 11 0 10 -4 10 -3 11 -4 10 -4 10 -4 
10 -4 11 -4 10 -4 10 -4 10 -3 11 -4 10 -4 10 -2 
10 -4 11 -4 10 0 2100 4440 300 MP stroke
10 -3 11 -3 10 -4 10 -2 10 -3 11 -3 10 -4 10 8 
10 10 11 7 10 -2 10 -2 10 -2 11 -2 10 -1 10 -3 
11 -3 10 -2 10 -3 10 1 11 -3 10 -3 10 -4 10 -1 
11 -2 10 -4 10 3 10 -1 11 0 10 -2 10 -2 11 -2 
10 -2 10 -2 10 -3 11 -2 10 -3 10 -3 10 -1 11 6 
10 0 10 3 10 -1 11 1 10 1 10 -2 11 -1 10 -2 
10 -2 10 -1 11 1 10 1 10 -1 10 -2 11 1 10 -1 
10 -1 10 -2 11 -1 10 -1 10 -1 11 -1 10 -1 10 -1 
10 -2 11 0 10 -1 10 0 10 -2 11 -1 10 1 10 -1 
10 -1 11 1 10 1 10 -1 11 -2 10 -1 10 -1 10 -1 
11 0 10 -1 10 0 10 1 11 -1 10 0 10 -1 10 -1 
11 0 10 0 10 3 11 0 10 0 10 0 10 0 11 -1 
10 -1 10 0 10 1 11 1 10 1 10 1 10 0 11 -1 
10 -1 10 0 11 0 10 0 10 -1 10 0 11 -1 10 -1 
10 -1 10 -1 11 -1 10 0 10 0 10 0 11 0 10 -1 
10 0 10 -1 848 4520 123 MP stroke
gr

c9
0 sg
%%IncludeResource: font Helvetica
/Helvetica /ISOLatin1Encoding 83.3333 FMSR

 829 4558 mt 
( ) s
5067  602 mt 
( ) s
12.5 w
%%IncludeResource: font Helvetica-Bold
/Helvetica-Bold /ISOLatin1Encoding 125 FMSR

1283 2380 mt 
(100 kPa) s
gs 958 2215 838 657 rc
20.8333 w
250 0 1007 2334 2 MP stroke
gr

20.8333 w
1283 2590 mt 
(200 kPa) s
gs 958 2215 838 657 rc
c8
250 0 1007 2543 2 MP stroke
gr

c8
0 sg
1283 2799 mt 
(500 kPa) s
gs 958 2215 838 657 rc
c9
250 0 1007 2751 2 MP stroke
12.5 w
gr

12.5 w
c9

end %%Color Dict

eplot
%%EndObject

epage
end

showpage

%%Trailer
%%EOF
