%!PS-Adobe-3.0 EPSF-3.0
%%Creator: MATLAB, The MathWorks, Inc. Version 7.12.0.635 (R2011a). Operating System: Linux 2.6.32-358.6.2.el6.x86_64 #1 SMP Thu May 16 11:21:38 CDT 2013 x86_64.
%%Title: ./JKR_Force_Overlap.eps
%%CreationDate: 08/14/2013  12:03:07
%%DocumentNeededFonts: Helvetica-Bold
%%+ Helvetica
%%DocumentProcessColors: Cyan Magenta Yellow Black
%%LanguageLevel: 2
%%Pages: 1
%%BoundingBox:    15    69   604   600
%%EndComments

%%BeginProlog
% MathWorks dictionary
/MathWorks 160 dict begin
% definition operators
/bdef {bind def} bind def
/ldef {load def} bind def
/xdef {exch def} bdef
/xstore {exch store} bdef
% operator abbreviations
/c  /clip ldef
/cc /concat ldef
/cp /closepath ldef
/gr /grestore ldef
/gs /gsave ldef
/mt /moveto ldef
/np /newpath ldef
/cm /currentmatrix ldef
/sm /setmatrix ldef
/rm /rmoveto ldef
/rl /rlineto ldef
/s {show newpath} bdef
/sc {setcmykcolor} bdef
/sr /setrgbcolor ldef
/sg /setgray ldef
/w /setlinewidth ldef
/j /setlinejoin ldef
/cap /setlinecap ldef
/rc {rectclip} bdef
/rf {rectfill} bdef
% page state control
/pgsv () def
/bpage {/pgsv save def} bdef
/epage {pgsv restore} bdef
/bplot /gsave ldef
/eplot {stroke grestore} bdef
% orientation switch
/portraitMode 0 def /landscapeMode 1 def /rotateMode 2 def
% coordinate system mappings
/dpi2point 0 def
% font control
/FontSize 0 def
/FMS {/FontSize xstore findfont [FontSize 0 0 FontSize neg 0 0]
  makefont setfont} bdef
/reencode {exch dup where {pop load} {pop StandardEncoding} ifelse
  exch dup 3 1 roll findfont dup length dict begin
  { 1 index /FID ne {def}{pop pop} ifelse } forall
  /Encoding exch def currentdict end definefont pop} bdef
/isroman {findfont /CharStrings get /Agrave known} bdef
/FMSR {3 1 roll 1 index dup isroman {reencode} {pop pop} ifelse
  exch FMS} bdef
/csm {1 dpi2point div -1 dpi2point div scale neg translate
 dup landscapeMode eq {pop -90 rotate}
  {rotateMode eq {90 rotate} if} ifelse} bdef
% line types: solid, dotted, dashed, dotdash
/SO { [] 0 setdash } bdef
/DO { [.5 dpi2point mul 4 dpi2point mul] 0 setdash } bdef
/DA { [6 dpi2point mul] 0 setdash } bdef
/DD { [.5 dpi2point mul 4 dpi2point mul 6 dpi2point mul 4
  dpi2point mul] 0 setdash } bdef
% macros for lines and objects
/L {lineto stroke} bdef
/MP {3 1 roll moveto 1 sub {rlineto} repeat} bdef
/AP {{rlineto} repeat} bdef
/PDlw -1 def
/W {/PDlw currentlinewidth def setlinewidth} def
/PP {closepath eofill} bdef
/DP {closepath stroke} bdef
/MR {4 -2 roll moveto dup  0 exch rlineto exch 0 rlineto
  neg 0 exch rlineto closepath} bdef
/FR {MR stroke} bdef
/PR {MR fill} bdef
/L1i {{currentfile picstr readhexstring pop} image} bdef
/tMatrix matrix def
/MakeOval {newpath tMatrix currentmatrix pop translate scale
0 0 1 0 360 arc tMatrix setmatrix} bdef
/FO {MakeOval stroke} bdef
/PO {MakeOval fill} bdef
/PD {currentlinewidth 2 div 0 360 arc fill
   PDlw -1 eq not {PDlw w /PDlw -1 def} if} def
/FA {newpath tMatrix currentmatrix pop translate scale
  0 0 1 5 -2 roll arc tMatrix setmatrix stroke} bdef
/PA {newpath tMatrix currentmatrix pop	translate 0 0 moveto scale
  0 0 1 5 -2 roll arc closepath tMatrix setmatrix fill} bdef
/FAn {newpath tMatrix currentmatrix pop translate scale
  0 0 1 5 -2 roll arcn tMatrix setmatrix stroke} bdef
/PAn {newpath tMatrix currentmatrix pop translate 0 0 moveto scale
  0 0 1 5 -2 roll arcn closepath tMatrix setmatrix fill} bdef
/vradius 0 def /hradius 0 def /lry 0 def
/lrx 0 def /uly 0 def /ulx 0 def /rad 0 def
/MRR {/vradius xdef /hradius xdef /lry xdef /lrx xdef /uly xdef
  /ulx xdef newpath tMatrix currentmatrix pop ulx hradius add uly
  vradius add translate hradius vradius scale 0 0 1 180 270 arc 
  tMatrix setmatrix lrx hradius sub uly vradius add translate
  hradius vradius scale 0 0 1 270 360 arc tMatrix setmatrix
  lrx hradius sub lry vradius sub translate hradius vradius scale
  0 0 1 0 90 arc tMatrix setmatrix ulx hradius add lry vradius sub
  translate hradius vradius scale 0 0 1 90 180 arc tMatrix setmatrix
  closepath} bdef
/FRR {MRR stroke } bdef
/PRR {MRR fill } bdef
/MlrRR {/lry xdef /lrx xdef /uly xdef /ulx xdef /rad lry uly sub 2 div def
  newpath tMatrix currentmatrix pop ulx rad add uly rad add translate
  rad rad scale 0 0 1 90 270 arc tMatrix setmatrix lrx rad sub lry rad
  sub translate rad rad scale 0 0 1 270 90 arc tMatrix setmatrix
  closepath} bdef
/FlrRR {MlrRR stroke } bdef
/PlrRR {MlrRR fill } bdef
/MtbRR {/lry xdef /lrx xdef /uly xdef /ulx xdef /rad lrx ulx sub 2 div def
  newpath tMatrix currentmatrix pop ulx rad add uly rad add translate
  rad rad scale 0 0 1 180 360 arc tMatrix setmatrix lrx rad sub lry rad
  sub translate rad rad scale 0 0 1 0 180 arc tMatrix setmatrix
  closepath} bdef
/FtbRR {MtbRR stroke } bdef
/PtbRR {MtbRR fill } bdef
/stri 6 array def /dtri 6 array def
/smat 6 array def /dmat 6 array def
/tmat1 6 array def /tmat2 6 array def /dif 3 array def
/asub {/ind2 exch def /ind1 exch def dup dup
  ind1 get exch ind2 get sub exch } bdef
/tri_to_matrix {
  2 0 asub 3 1 asub 4 0 asub 5 1 asub
  dup 0 get exch 1 get 7 -1 roll astore } bdef
/compute_transform {
  dmat dtri tri_to_matrix tmat1 invertmatrix 
  smat stri tri_to_matrix tmat2 concatmatrix } bdef
/ds {stri astore pop} bdef
/dt {dtri astore pop} bdef
/db {2 copy /cols xdef /rows xdef mul dup 3 mul string
  currentfile 
  3 index 0 eq {/ASCIIHexDecode filter}
  {/ASCII85Decode filter 3 index 2 eq {/RunLengthDecode filter} if }
  ifelse exch readstring pop
  dup 0 3 index getinterval /rbmap xdef
  dup 2 index dup getinterval /gbmap xdef
  1 index dup 2 mul exch getinterval /bbmap xdef pop pop}bdef
/it {gs np dtri aload pop moveto lineto lineto cp c
  cols rows 8 compute_transform 
  rbmap gbmap bbmap true 3 colorimage gr}bdef
/il {newpath moveto lineto stroke}bdef
currentdict end def
%%EndProlog

%%BeginSetup
MathWorks begin

0 cap

end
%%EndSetup

%%Page: 1 1
%%BeginPageSetup
%%PageBoundingBox:    15    69   604   600
MathWorks begin
bpage
%%EndPageSetup

%%BeginObject: obj1
bplot

/dpi2point 8.33333 def
portraitMode -0158 5475 csm

  288   475  4906  4425 rc
84 dict begin %Colortable dictionary
/c0 { 0.000000 0.000000 0.000000 sr} bdef
/c1 { 1.000000 1.000000 1.000000 sr} bdef
/c2 { 0.900000 0.000000 0.000000 sr} bdef
/c3 { 0.000000 0.820000 0.000000 sr} bdef
/c4 { 0.000000 0.000000 0.800000 sr} bdef
/c5 { 0.910000 0.820000 0.320000 sr} bdef
/c6 { 1.000000 0.260000 0.820000 sr} bdef
/c7 { 0.000000 0.820000 0.820000 sr} bdef
c0
1 j
1 sg
   0    0 5651 5651 rf
12.5 w
0 3955 4237 0 0 -3955 848 4520 4 MP
PP
-4237 0 0 3955 4237 0 0 -3955 848 4520 5 MP stroke
8.33333 w
DO
SO
12.5 w
0.1 sg
 848 4520 mt 5085 4520 L
 848  565 mt 5085  565 L
 848 4520 mt  848  565 L
5085 4520 mt 5085  565 L
 848 4520 mt 5085 4520 L
 848 4520 mt  848  565 L
1233 4520 mt 1233 4456 L
1233  565 mt 1233  628 L
%%IncludeResource: font Helvetica
/Helvetica /ISOLatin1Encoding 133.333 FMSR

1196 4668 mt 
(0) s
2003 4520 mt 2003 4456 L
2003  565 mt 2003  628 L
1966 4668 mt 
(2) s
2773 4520 mt 2773 4456 L
2773  565 mt 2773  628 L
2736 4668 mt 
(4) s
3544 4520 mt 3544 4456 L
3544  565 mt 3544  628 L
3507 4668 mt 
(6) s
4314 4520 mt 4314 4456 L
4314  565 mt 4314  628 L
4277 4668 mt 
(8) s
5084 4520 mt 5084 4456 L
5084  565 mt 5084  628 L
5010 4668 mt 
(10) s
4732 4869 mt 
(x 10) s
%%IncludeResource: font Helvetica
/Helvetica /ISOLatin1Encoding 88.8889 FMSR

4984 4787 mt 
(-5) s
 848 4256 mt  911 4256 L
5085 4256 mt 5021 4256 L
%%IncludeResource: font Helvetica
/Helvetica /ISOLatin1Encoding 133.333 FMSR

 561 4305 mt 
(-0.5) s
 848 3728 mt  911 3728 L
5085 3728 mt 5021 3728 L
 561 3777 mt 
(-0.4) s
 848 3201 mt  911 3201 L
5085 3201 mt 5021 3201 L
 561 3250 mt 
(-0.3) s
 848 2674 mt  911 2674 L
5085 2674 mt 5021 2674 L
 561 2723 mt 
(-0.2) s
 848 2146 mt  911 2146 L
5085 2146 mt 5021 2146 L
 561 2195 mt 
(-0.1) s
 848 1619 mt  911 1619 L
5085 1619 mt 5021 1619 L
 750 1668 mt 
(0) s
 848 1092 mt  911 1092 L
5085 1092 mt 5021 1092 L
 639 1141 mt 
(0.1) s
 848 4520 mt 5085 4520 L
 848  565 mt 5085  565 L
 848 4520 mt  848  565 L
5085 4520 mt 5085  565 L
%%IncludeResource: font Helvetica-Bold
/Helvetica-Bold /ISOLatin1Encoding 183.333 FMSR

2114 4842 mt 
(Normal Overlap [m]) s
 481 3285 mt  -90 rotate
(Normal Force [N]) s
90 rotate
gs 848 565 4238 3956 rc
20.8333 w
/c8 { 0.000000 0.000000 1.000000 sr} bdef
c8
0 -2761 -1 1 -1 0 -1 1 -1 0 -1 1 -1 1 -1 0 
-1 1 -1 1 -1 0 -1 1 -1 1 -1 0 -1 1 -1 0 
-1 1 -1 1 -1 0 -1 1 -1 1 -1 1 -1 0 -1 1 
-1 0 -1 1 -1 1 -1 0 -1 1 -1 1 -1 1 -1 0 
-1 1 -1 0 -1 1 -1 1 -1 0 -1 1 -1 0 -1 1 
-1 1 -1 1 -1 0 -1 1 -1 0 -1 1 -1 1 -1 1 
-1 0 -1 1 -1 0 -1 1 -1 1 -1 1 -1 0 -1 1 
-1 0 -1 1 -1 1 -1 1 -1 0 -1 1 -1 0 -1 1 
-1 1 -1 1 -1 1 -1 0 -1 1 -1 0 -1 1 -1 1 
-1 0 -1 1 -1 1 -1 0 -1 1 -1 1 -1 0 -1 1 
-1 1 -1 1 -1 0 -1 1 -1 1 -1 0 -1 1 -1 0 
-1 1 -1 1 -1 1 -1 1 -1 0 -1 1 -1 0 -1 1 
-1 1 -1 0 -1 1 -1 1 -1 1 -1 0 -1 1 -1 1 
-1 0 -1 1 -1 1 -1 0 -1 1 -1 1 -1 1 -1 0 
-1 1 -1 1 -1 0 -1 1 -1 1 -1 0 -1 1 -1 1 
-1 0 -1 1 -1 1 -1 1 -1 0 -1 1 -1 1 -1 0 
-1 1 -1 1 -1 0 -1 1 -1 1 -1 0 -1 1 -1 1 
-1 1 -1 1 -1 0 -1 1 -1 1 -1 0 -1 1 -1 1 
-1 0 -1 1 -1 1 -1 0 -1 1 -1 1 -1 1 -1 0 
-1 1 -1 1 -1 1 -1 0 -1 1 -1 1 -1 1 -1 0 
-1 1 -1 1 -1 1 -1 0 -1 1 -1 1 -1 0 -1 1 
-1 1 -1 0 -1 1 -1 1 -1 0 -1 1 -1 1 -1 1 
-1 0 -1 1 -1 1 -1 0 -1 1 -1 1 -1 1 -1 0 
-1 1 -1 1 -1 1 -1 0 -1 1 -1 1 -1 1 -1 0 
-1 1 -1 1 -1 1 -1 0 -1 1 -1 1 -1 1 -1 0 
-1 1 -1 1 -1 1 -1 0 -1 1 -1 1 -1 1 -1 0 
-1 1 -1 1 -1 1 -1 0 -1 1 -1 1 -1 0 -1 1 
-1 1 -1 1 -1 0 -1 1 -1 1 -1 1 -1 0 -1 1 
-1 1 -1 1 -1 0 -1 1 -1 1 -1 1 -1 0 -1 1 
-1 1 -1 1 -1 0 -1 1 -1 1 -1 1 -1 0 -1 1 
-1 1 -1 0 -1 1 -1 1 -1 1 -1 1 -1 0 -1 1 
-1 1 -1 1 -1 1 -1 0 -1 1 -1 1 -1 1 -1 1 
-1 0 -1 1 -1 1 -1 0 -1 1 -1 1 -1 1 -1 0 
-1 1 -1 1 -1 1 -1 0 -1 1 -1 1 -1 1 -1 0 
-1 1 -1 1 -1 1 -1 1 -1 1 -1 0 -1 1 -1 1 
-1 1 -1 0 -1 1 -1 1 -1 1 -1 0 -1 1 -1 1 
-1 1 -1 0 -1 1 -1 1 -1 1 -1 1 -1 1 -1 0 
-1 1 -1 1 -1 1 1531 4167 300 MP stroke
-1 0 -1 1 -1 1 -1 1 -1 0 -1 1 -1 1 -1 1 
-1 1 -1 0 -1 1 -1 1 -1 1 -1 1 -1 0 -1 1 
-1 1 -1 1 -1 0 -1 1 -1 1 -1 1 -1 1 -1 1 
-1 0 -1 1 -1 1 -1 1 -1 0 -1 1 -1 1 -1 1 
-1 1 -1 0 -1 1 -1 1 -1 1 -1 1 -1 0 -1 1 
-1 1 -1 1 -1 0 -1 1 -1 1 -1 1 -1 1 -1 1 
-1 1 -1 0 -1 1 -1 1 -1 0 -1 1 -1 1 -1 1 
-1 1 -1 1 -1 1 -1 0 -1 1 -1 1 -1 1 -1 0 
-1 1 -1 1 -1 1 -1 1 -1 1 -1 0 -1 1 -1 1 
-1 1 -1 1 -1 1 -1 1 -1 0 -1 1 -1 1 -1 0 
-1 1 -1 1 -1 1 -1 1 -1 1 -1 1 -1 0 -1 1 
-1 1 -1 1 -1 1 -1 1 -1 0 -1 1 -1 1 -1 1 
-1 0 -1 1 -1 1 -1 1 -1 1 -1 1 -1 0 -1 1 
-1 1 -1 1 -1 1 -1 1 -1 1 -1 0 -1 1 -1 1 
-1 1 -1 1 -1 1 -1 0 -1 1 -1 1 -1 1 -1 1 
-1 1 -1 1 -1 0 -1 1 -1 1 -1 0 -1 1 -1 1 
-1 1 -1 1 -1 1 -1 1 -1 0 -1 1 -1 1 -1 1 
-1 1 -1 1 -1 0 -1 1 -1 1 -1 1 -1 1 -1 1 
-1 1 -1 0 -1 1 -1 1 -1 1 -1 1 -1 1 -1 0 
-1 1 -1 1 -1 1 -1 1 -1 1 -1 1 -1 0 -1 1 
-1 1 -1 1 -1 1 -1 1 -1 1 -1 1 -1 1 -1 0 
-1 1 -1 1 -1 1 -1 1 -1 1 -1 0 -1 1 -1 1 
-1 1 -1 1 -1 1 -1 0 -1 1 -1 1 -1 1 -1 1 
-1 1 -1 1 -1 0 -1 1 -1 1 -1 1 -1 1 -1 1 
-1 1 -1 1 -1 1 -1 0 -1 1 -1 1 -1 1 -1 1 
-1 1 -1 0 -1 1 -1 1 -1 1 -1 1 -1 1 -1 1 
-1 1 -1 1 -1 0 -1 1 -1 1 -1 1 -1 1 -1 1 
-1 1 -1 0 -1 1 -1 1 -1 1 -1 1 -1 1 -1 1 
-1 1 -1 1 -1 0 -1 1 -1 1 -1 1 -1 1 -1 1 
-1 1 -1 1 -1 1 -1 0 -1 1 -1 1 -1 1 -1 1 
-1 1 -1 0 1 0 -2 2 -1 1 -1 0 -1 1 -1 1 
-1 1 -1 1 -1 1 -1 0 1 0 -2 2 -1 1 -1 0 
-1 1 -1 1 -1 1 -1 1 -1 1 -1 0 1 0 -2 2 
-1 1 -1 0 -1 1 -1 1 -1 1 -1 1 -1 1 -1 1 
-1 1 -1 1 -1 0 -1 1 -1 1 -1 1 -1 1 -1 1 
-1 1 -1 1 -1 1 -1 0 -1 1 -1 1 -1 1 -1 1 
-1 1 -1 1 -1 1 -1 1 -1 0 1 0 -2 2 -1 1 
-1 0 -1 1 -1 1 1826 3918 300 MP stroke
-1 1 -1 1 -1 1 -1 1 -1 1 -1 1 -1 0 0 1 
-2 2 -1 0 -1 1 -1 1 -1 1 -1 1 -1 1 -1 1 
-1 1 -1 1 -1 0 -1 1 -1 1 -1 1 -1 1 -1 1 
-1 1 -1 1 -1 1 -1 1 -1 1 -1 1 -1 0 1 0 
-2 2 -1 0 -1 1 -1 1 -1 1 -1 1 -1 1 -1 1 
-1 1 -1 1 -1 1 -1 1 -1 1 -1 0 -1 1 -1 1 
-1 1 -1 1 -1 1 -1 1 -1 1 -1 1 -1 1 -1 1 
-1 1 -1 1 -1 1 -1 0 -1 1 -1 1 -1 1 -1 1 
-1 1 -1 1 -1 1 -1 1 -1 1 -1 1 -1 1 -1 1 
-1 1 -1 1 -1 0 -1 1 -1 1 -1 1 -1 1 -1 1 
-1 1 -1 1 -1 1 -1 1 -1 1 -1 1 -1 1 -1 1 
-1 0 1 0 -2 2 -1 1 -1 0 0 1 -2 2 -1 0 
-1 1 -1 1 -1 1 -1 1 -1 1 -1 1 -1 1 -1 1 
-1 1 -1 1 -1 1 -1 1 -1 1 -1 0 1 0 -2 2 
-1 1 -1 0 -1 1 -1 1 -1 1 -1 1 -1 1 -1 1 
-1 1 -1 1 -1 1 -1 1 -1 1 -1 1 -1 1 -1 1 
-1 1 -1 1 -1 1 -1 1 -1 0 1 0 -2 2 -1 1 
-1 0 0 1 -2 2 -1 0 -1 1 -1 1 -1 1 -1 1 
-1 1 -1 1 -1 1 -1 1 -1 1 -1 1 -1 1 -1 1 
-1 1 -1 1 -1 1 -1 1 -1 1 -1 1 -1 0 1 0 
-2 2 -1 1 -1 0 1 0 -2 2 -1 1 -1 0 1 0 
-2 2 -1 0 -1 1 -1 1 -1 1 -1 1 -1 1 -1 1 
-1 1 -1 1 -1 1 -1 1 -1 1 -1 1 -1 1 -1 1 
-1 1 -1 1 -1 1 -1 1 -1 1 -1 1 -1 1 -1 1 
-1 1 -1 1 -1 1 -1 1 -1 1 -1 1 -1 1 -1 1 
-1 1 -1 1 -1 1 -1 1 -1 1 -1 1 -1 1 -1 1 
-1 1 -1 1 -1 1 -1 1 -1 1 -1 0 1 0 -2 2 
-1 1 -1 0 1 0 -2 2 -1 1 -1 0 1 0 -2 2 
-1 0 0 1 -2 2 -1 0 0 1 -2 2 -1 0 1 0 
-2 2 -1 0 0 1 -2 2 -1 0 0 1 -2 2 -1 0 
-1 1 -1 1 0 1 -2 2 -1 0 0 1 -2 2 -1 0 
-1 1 -1 1 0 1 -2 2 -1 0 0 1 -2 2 -1 0 
1 0 -2 2 -1 0 0 1 -2 2 -1 0 0 1 -2 2 
-1 0 1 0 -2 2 -1 0 0 1 -2 2 -1 0 1 0 
-2 2 -1 1 -1 0 1 0 -2 2 -1 0 1 0 -2 2 
-1 1 -1 0 1 0 -2 2 -1 1 -1 1 -1 1 -1 0 
1 0 -2 2 -1 1 -1 1 -1 1 -1 1 -1 1 -1 1 
-1 1 -1 1 -1 1 2107 3647 300 MP stroke
-1 1 -1 1 -1 1 -1 1 -1 1 -1 1 -1 1 -1 1 
-1 1 -1 1 -1 1 -1 1 -1 1 -1 1 -1 1 -1 1 
-1 1 -1 1 -1 1 -1 1 -1 1 -1 1 -1 1 -1 1 
-1 1 -1 1 -1 1 -1 1 -1 1 0 1 -2 2 -1 0 
1 0 -2 2 -1 1 -1 0 1 0 -2 2 -1 0 1 0 
-2 2 -1 1 -1 1 -1 1 -1 1 -1 1 -1 1 -1 1 
-1 1 -1 1 -1 1 -1 1 -1 1 -1 1 -1 1 -1 1 
-1 1 -1 1 -1 1 -1 1 -1 1 0 1 -2 2 -1 0 
1 0 -2 2 -1 0 1 0 -2 2 -1 1 -1 1 -1 1 
-1 1 -1 1 -1 1 -1 1 -1 1 -1 1 -1 1 -1 1 
-1 1 -1 1 -1 1 -1 1 -1 1 -1 1 0 1 -2 2 
-1 0 1 0 -2 2 -1 0 1 0 -2 2 -1 1 -1 1 
-1 1 -1 1 -1 1 -1 1 -1 1 -1 1 -1 1 -1 1 
-1 1 -1 1 -1 1 -1 1 0 1 -2 2 -1 0 1 0 
-2 2 -1 1 -1 1 -1 1 -1 1 -1 1 -1 1 -1 1 
-1 1 -1 1 -1 1 -1 1 -1 1 -1 1 -1 1 0 1 
-2 2 -1 0 1 0 -2 2 -1 0 1 0 -2 2 -1 1 
-1 1 -1 1 -1 1 -1 1 -1 1 -1 1 -1 1 -1 1 
0 1 -2 2 -1 0 1 0 -2 2 -1 0 1 0 -2 2 
-1 1 -1 1 -1 1 -1 1 -1 1 -1 1 -1 1 -1 1 
-1 1 0 1 -2 2 -1 0 1 0 -2 2 -1 0 1 0 
-2 2 -1 1 -1 1 -1 1 -1 1 -1 1 -1 1 -1 1 
-1 1 0 1 -2 2 -1 1 -1 1 -1 1 -1 1 -1 1 
-1 1 -1 1 -1 1 -1 1 -1 1 -1 1 0 1 -2 2 
-1 0 1 0 -2 2 -1 1 -1 1 -1 1 -1 1 -1 1 
-1 1 0 1 -2 2 -1 0 1 0 -2 2 -1 0 1 0 
-2 2 -1 1 -1 1 -1 1 -1 1 -1 1 -1 1 0 1 
-2 2 -1 0 1 0 -2 2 -1 1 -1 1 -1 1 -1 1 
-1 1 -1 1 -1 1 -1 1 0 1 -2 2 -1 1 -1 1 
-1 1 -1 1 -1 1 -1 1 -1 1 -1 1 0 1 -2 2 
-1 0 1 0 -2 2 -1 1 -1 1 -1 1 -1 1 -1 1 
-1 1 0 1 -2 2 -1 0 1 0 -2 2 -1 1 -1 1 
-1 1 -1 1 -1 1 -1 1 0 1 -2 2 -1 1 -1 1 
-1 1 -1 1 -1 1 -1 1 -1 1 0 1 -2 2 -1 0 
1 0 -2 2 -1 1 -1 1 -1 1 -1 1 -1 1 -1 1 
0 1 -2 2 -1 1 -1 1 -1 1 -1 1 -1 1 -1 1 
-1 1 0 1 -2 2 -1 1 -1 1 -1 1 -1 1 -1 1 
-1 1 0 1 -2 2 2385 3350 300 MP stroke
-1 0 1 0 -2 2 -1 1 -1 1 -1 1 -1 1 -1 1 
0 1 -2 2 -1 0 1 0 -2 2 -1 1 -1 1 -1 1 
-1 1 -1 1 0 1 -2 2 -1 1 -1 1 -1 1 -1 1 
-1 1 -1 1 0 1 -2 2 -1 1 -1 1 -1 1 -1 1 
-1 1 0 1 -2 2 -1 0 1 0 -2 2 -1 1 -1 1 
-1 1 0 1 -2 2 -1 0 1 0 -2 2 -1 1 -1 1 
-1 1 -1 1 -1 1 0 1 -2 2 -1 1 -1 1 -1 1 
-1 1 -1 1 0 1 -2 2 -1 1 -1 1 -1 1 -1 1 
-1 1 -1 1 0 1 -2 2 -1 1 -1 1 -1 1 -1 1 
-1 1 0 1 -2 2 -1 1 -1 1 -1 1 -1 1 -1 1 
0 1 -2 2 -1 1 -1 1 -1 1 -1 1 -1 1 0 1 
-2 2 -1 1 -1 1 -1 1 -1 1 -1 1 0 1 -2 2 
-1 1 -1 1 -1 1 -1 1 0 1 -2 2 -1 1 -1 1 
-1 1 -1 1 -1 1 0 1 -2 2 -1 1 -1 1 -1 1 
-1 1 -1 1 0 1 -2 2 -1 1 -1 1 -1 1 0 1 
-2 2 -1 0 1 0 -2 2 -1 1 -1 1 -1 1 0 1 
-2 2 -1 1 -1 1 -1 1 0 1 -2 2 -1 0 1 0 
-2 2 -1 1 -1 1 -1 1 0 1 -2 2 -1 1 -1 1 
-1 1 -1 1 0 1 -2 2 -1 1 -1 1 -1 1 -1 1 
-1 1 0 1 -2 2 -1 1 -1 1 -1 1 0 1 -2 2 
-1 1 -1 1 -1 1 0 1 -2 2 -1 0 1 0 -2 2 
-1 1 -1 1 -1 1 0 1 -2 2 -1 1 -1 1 -1 1 
-1 1 0 1 -2 2 -1 1 -1 1 -1 1 0 1 -2 2 
-1 1 -1 1 -1 1 -1 1 0 1 -2 2 -1 1 -1 1 
-1 1 0 1 -2 2 -1 0 1 0 -2 2 -1 1 0 1 
-2 2 -1 0 1 0 -2 2 -1 1 -1 1 0 1 -2 2 
-1 1 -1 1 -1 1 0 1 -2 2 -1 0 1 0 -2 2 
-1 1 -1 1 -1 1 0 1 -2 2 -1 1 -1 1 0 1 
-2 2 -1 0 1 0 -2 2 -1 1 0 1 -2 2 -1 1 
-1 1 -1 1 -1 1 0 1 -2 2 -1 1 -1 1 -1 1 
0 1 -2 2 -1 1 -1 1 -1 1 0 1 -2 2 -1 1 
-1 1 -1 1 -1 1 0 1 -2 2 -1 1 -1 1 0 1 
-2 2 -1 1 -1 1 -1 1 0 1 -2 2 -1 1 -1 1 
-1 1 0 1 -2 2 -1 1 -1 1 -1 1 -1 1 0 1 
-2 2 -1 1 -1 1 0 1 -2 2 -1 1 -1 1 -1 1 
0 1 -2 2 -1 1 -1 1 -1 1 0 1 -2 2 -1 1 
-1 1 0 1 -2 2 -1 1 -1 1 -1 1 -1 1 0 1 
-2 2 -1 1 0 1 2672 3015 300 MP stroke
-2 2 -1 1 -1 1 -1 1 -1 1 0 1 -2 2 -1 1 
-1 1 0 1 -2 2 -1 1 -1 1 -1 1 0 1 -2 2 
-1 1 -1 1 0 1 -2 2 -1 1 -1 1 -1 1 0 1 
-2 2 -1 1 -1 1 0 1 -2 2 -1 1 -1 1 -1 1 
0 1 -2 2 -1 1 -1 1 0 1 -2 2 -1 1 -1 1 
-1 1 0 1 -2 2 -1 1 -1 1 0 1 -2 2 -1 1 
-1 1 0 1 -2 2 -1 1 -1 1 -1 1 0 1 -2 2 
-1 1 -1 1 0 1 -2 2 -1 1 -1 1 0 1 -2 2 
-1 1 -1 1 -1 1 0 1 -2 2 -1 1 -1 1 0 1 
-2 2 -1 1 -1 1 0 1 -2 2 -1 1 -1 1 0 1 
-2 2 -1 1 -1 1 -1 1 0 1 -2 2 -1 1 -1 1 
0 1 -2 2 -1 1 -1 1 0 1 -2 2 -1 1 0 1 
-2 2 -1 1 -1 1 0 1 -2 2 -1 1 -1 1 0 1 
-2 2 -1 0 1 0 -2 2 -1 1 0 1 -2 2 -1 1 
-1 1 0 1 -2 2 -1 1 -1 1 0 1 -2 2 -1 1 
-1 1 0 1 -2 2 -1 1 -1 1 0 1 -2 2 -1 1 
0 1 -2 2 -1 1 -1 1 0 1 -2 2 -1 1 -1 1 
0 1 -2 2 -1 1 -1 1 0 1 -2 2 -1 1 -1 1 
0 1 -2 2 -1 1 0 1 -2 2 -1 1 -1 1 0 1 
-2 2 -1 1 -1 1 0 1 -2 2 -1 1 -1 1 0 1 
-2 2 -1 1 0 1 -2 2 -1 1 -1 1 0 1 -2 2 
-1 1 -1 1 0 1 -2 2 -1 1 -1 1 0 1 -2 2 
-1 1 -1 1 0 1 -2 2 -1 1 0 1 -2 2 -1 1 
-1 1 0 1 -2 2 -1 1 -1 1 0 1 -2 2 -1 1 
-1 1 0 1 -2 2 -1 1 -1 1 0 1 -2 2 -1 1 
0 1 -2 2 -1 1 -1 1 0 1 -2 2 -1 1 -1 1 
0 1 -2 2 0 1 -2 2 -1 1 -1 1 0 1 -2 2 
-1 1 -1 1 0 1 -2 2 -1 1 0 1 -2 2 -1 1 
-1 1 0 1 -2 2 -1 1 -1 1 0 1 -2 2 0 1 
-2 2 -1 1 -1 1 0 1 -2 2 -1 1 -1 1 0 1 
-2 2 -1 1 -1 1 0 1 -2 2 -1 1 0 1 -2 2 
-1 1 0 1 -2 2 -1 1 0 1 -2 2 -1 1 -1 1 
0 1 -2 2 -1 1 -1 1 0 1 -2 2 0 1 -2 2 
-1 1 -1 1 0 1 -2 2 -1 1 -1 1 0 1 -2 2 
0 1 -2 2 -1 1 -1 1 0 1 -2 2 -1 1 0 1 
-2 2 -1 1 -1 1 0 1 -2 2 0 1 -2 2 -1 1 
-1 1 0 1 -2 2 -1 1 -1 1 0 1 -2 2 0 1 
-2 2 -1 1 -1 1 2971 2639 300 MP stroke
0 1 -2 2 -1 1 -1 1 0 1 -2 2 0 1 -2 2 
-1 1 -1 1 0 1 -2 2 -1 1 0 1 -2 2 -1 1 
0 1 -2 2 -1 1 0 1 -2 2 -1 1 0 1 -2 2 
-1 1 0 1 -2 2 -1 1 -1 1 0 1 -2 2 0 1 
-2 2 -1 1 -1 1 0 1 -2 2 -1 1 0 1 -2 2 
-1 1 0 1 -2 2 -1 1 -1 1 0 1 -2 2 0 1 
-2 2 -1 1 -1 1 0 1 -2 2 0 1 -2 2 -1 1 
-1 1 0 1 -2 2 -1 1 0 1 -1 1 -1 1 -1 1 
0 1 -2 2 -1 1 0 1 -2 2 -1 1 0 1 -2 2 
-1 1 0 1 -2 2 -1 1 0 1 -2 2 -1 1 0 1 
-2 2 -1 1 0 1 -2 2 -1 1 0 1 -2 2 -1 1 
0 1 -2 2 -1 1 0 1 -2 2 -1 1 0 1 -2 2 
-1 1 0 1 -2 2 -1 1 0 1 -2 2 -1 1 0 1 
-2 2 -1 1 0 1 -2 2 0 1 -2 2 -1 1 -1 1 
0 1 -2 2 0 1 -2 2 -1 1 -1 1 0 1 -2 2 
0 1 -2 2 -1 1 -1 1 0 1 -2 2 0 1 -2 2 
-1 1 -1 1 0 1 -2 2 0 1 -2 2 -1 1 0 1 
-2 2 -1 1 0 1 -2 2 0 1 -2 2 -1 1 -1 1 
0 1 -2 2 0 1 -2 2 -1 1 0 1 -2 2 -1 1 
0 1 -2 2 -1 1 0 1 -1 1 -1 1 -1 1 0 1 
-2 2 0 1 -2 2 -1 1 0 1 -2 2 -1 1 0 1 
-2 2 0 1 -2 2 -1 1 -1 1 0 1 -2 2 0 1 
-2 2 -1 1 0 1 -1 1 -1 1 -1 1 0 1 -2 2 
0 1 -2 2 -1 1 0 1 -2 2 -1 1 0 1 -2 2 
-1 1 0 1 -2 2 0 1 -2 2 -1 1 -1 1 0 1 
-2 2 0 1 -2 2 0 1 -2 2 -1 1 -1 1 0 1 
-2 2 0 1 -2 2 0 1 -2 2 -1 1 -1 1 0 1 
-2 2 0 1 -2 2 -1 1 0 1 -1 1 -1 1 -1 1 
0 1 -2 2 0 1 -2 2 -1 1 0 1 -1 1 -1 1 
-1 1 0 1 -2 2 0 1 -2 2 -1 1 0 1 -2 2 
0 1 -2 2 -1 1 -1 1 0 1 -2 2 0 1 -2 2 
0 1 -2 2 -1 1 0 1 -2 2 -1 1 0 1 -2 2 
0 1 -2 2 -1 1 0 1 -1 1 -1 1 0 1 -2 2 
-1 1 0 1 -2 2 0 1 -2 2 -1 1 0 1 -2 2 
-1 1 0 1 -2 2 -1 1 0 1 -2 2 0 1 -2 2 
0 1 -2 2 -1 1 0 1 -2 2 -1 1 0 1 -2 2 
0 1 -2 2 0 1 -2 2 -1 1 0 1 -2 2 -1 1 
0 1 -2 2 0 1 3263 2243 300 MP stroke
-2 2 -1 1 0 1 -2 2 0 1 -2 2 -1 1 0 1 
-2 2 -1 1 0 1 -2 2 0 1 -2 2 0 1 -2 2 
-1 1 0 1 -1 1 -1 1 0 1 -2 2 -1 1 0 1 
-2 2 -1 1 0 1 -2 2 0 1 -2 2 0 1 -2 2 
-1 1 0 1 -1 1 -1 1 0 1 -2 2 -1 1 0 1 
-2 2 0 1 -2 2 0 1 -2 2 -1 1 0 1 -2 2 
0 1 -2 2 -1 1 0 1 -2 2 -1 1 0 1 -2 2 
0 1 -2 2 0 1 -2 2 0 1 -2 2 -1 1 0 1 
-2 2 0 1 -2 2 -1 1 0 1 -2 2 -1 1 0 1 
-2 2 0 1 -2 2 0 1 -2 2 0 1 -2 2 -1 1 
0 1 -1 1 -1 1 0 1 -2 2 0 1 -2 2 -1 1 
0 1 -2 2 -1 1 0 1 -2 2 0 1 -2 2 0 1 
-2 2 0 1 -2 2 -1 1 0 1 -2 2 0 1 -2 2 
0 1 -2 2 -1 1 0 1 -2 2 0 1 -2 2 -1 1 
0 1 -2 2 0 1 -2 2 0 1 -2 2 -1 1 0 1 
-2 2 0 1 -2 2 0 1 -2 2 -1 1 0 1 -1 1 
-1 1 0 1 -1 1 -1 1 0 1 -2 2 0 1 -2 2 
-1 1 0 1 -2 2 0 1 -2 2 -1 1 0 1 -2 2 
0 1 -2 2 0 1 -2 2 -1 1 0 1 -2 2 0 1 
-2 2 0 1 -2 2 0 1 -2 2 0 1 -2 2 -1 1 
0 1 -1 1 -1 1 0 1 -2 2 0 1 -2 2 0 1 
-2 2 -1 1 0 1 -1 1 -1 1 0 1 -2 2 0 1 
-2 2 0 1 -2 2 -1 1 0 1 -2 2 0 1 -2 2 
0 1 -2 2 -1 1 0 1 -2 2 0 1 -2 2 0 1 
-2 2 0 1 -2 2 -1 1 0 1 -2 2 0 1 -2 2 
0 1 -2 2 0 1 -2 2 -1 1 0 1 -2 2 0 1 
-2 2 0 1 -2 2 0 1 -2 2 0 1 -2 2 -1 1 
0 1 -2 2 0 1 -2 2 0 1 -2 2 0 1 -2 2 
0 1 -2 2 0 1 -2 2 -1 1 0 1 -2 2 0 1 
-2 2 0 1 -2 2 0 1 -2 2 0 1 -2 2 -1 1 
0 1 -2 2 0 1 -2 2 0 1 -2 2 0 1 -2 2 
0 1 -2 2 0 1 -2 2 0 1 -2 2 0 1 -2 2 
-1 1 0 1 -2 2 0 1 -2 2 0 1 -2 2 0 1 
-2 2 0 1 -2 2 0 1 -2 2 0 1 -2 2 0 1 
-2 2 0 1 -2 2 -1 1 0 1 -1 1 -1 1 0 1 
-1 1 -1 1 0 1 -2 2 0 1 -2 2 0 1 -2 2 
0 1 -2 2 0 1 -2 2 0 1 -2 2 -1 1 0 1 
-2 2 0 1 -2 2 3554 1826 300 MP stroke
0 1 -2 2 0 1 -2 2 0 1 -2 2 0 1 -2 2 
0 1 -2 2 0 1 -2 2 0 1 -2 2 0 1 -2 2 
0 1 -2 2 -1 1 0 1 -1 1 -1 1 0 1 -1 1 
-1 1 0 1 -2 2 0 1 -2 2 0 1 -2 2 0 1 
-2 2 0 1 -2 2 0 1 -2 2 0 1 -2 2 0 1 
-2 2 0 1 -2 2 0 1 -2 2 0 1 -2 2 0 1 
-2 2 0 1 -2 2 0 1 -2 2 0 1 -2 2 0 1 
-2 2 -1 1 -1 1 0 2 -2 2 0 1 -2 2 0 1 
-2 2 0 1 -2 2 0 1 -2 2 -1 1 -1 1 0 2 
-2 2 0 1 -2 2 -1 1 0 1 -1 1 -1 1 -1 1 
0 2 -2 2 0 1 -2 2 -1 1 0 1 -1 1 -1 1 
0 1 -2 2 -1 1 0 2 -2 2 0 1 -2 2 0 1 
-2 2 0 1 -2 2 -1 1 -1 1 0 2 -2 2 0 1 
-2 2 0 1 -2 2 0 1 -2 2 0 1 -2 2 0 1 
-2 2 0 1 -2 2 0 1 -2 2 0 1 -2 2 0 1 
-2 2 0 1 -2 2 0 1 -2 2 0 1 -2 2 0 1 
-2 2 0 1 -1 1 -1 1 0 1 -2 2 0 1 -2 2 
0 1 -2 2 0 1 -2 2 0 1 -2 2 -1 1 0 2 
0 -1 1 -1 0 -1 2 -2 0 -1 0 1 -2 2 -1 1 
0 2 -2 2 0 1 -2 2 0 1 -2 2 0 1 -2 2 
0 1 -2 2 0 1 -2 2 0 1 -2 2 0 1 -2 2 
0 1 -2 2 0 1 -1 1 0 1 -2 2 -1 1 0 1 
-2 2 0 1 -1 1 0 1 -2 2 0 1 -2 2 -1 1 
-1 1 0 2 -2 2 0 1 -2 2 0 1 -2 2 0 1 
-1 1 -1 1 0 1 -2 2 0 1 -2 2 -1 1 0 2 
-2 2 0 1 -2 2 -1 1 -1 1 0 2 -2 2 0 1 
-2 2 0 1 -2 2 0 1 -1 1 0 1 -2 2 -1 1 
0 1 -2 2 -1 1 0 2 -2 2 0 1 -2 2 0 1 
-2 2 0 1 -1 1 -1 1 0 1 -2 2 0 1 -2 2 
-1 1 0 2 -2 2 0 1 -2 2 0 1 -2 2 0 1 
-1 1 -1 1 0 1 -2 2 0 1 -2 2 0 1 -1 1 
0 1 -2 2 0 1 -2 2 0 1 -2 2 0 1 -1 1 
-1 1 0 1 -2 2 0 1 -2 2 0 1 -1 1 0 1 
-2 2 0 1 -2 2 0 1 -2 2 0 1 -1 1 -1 1 
0 1 -2 2 0 1 -2 2 0 1 -1 1 0 1 -2 2 
0 1 -2 2 -1 1 0 2 -2 2 0 1 -2 2 0 1 
-2 2 -1 1 0 1 -1 1 0 1 -2 2 0 1 -2 2 
-1 1 0 2 -2 2 3827 1412 300 MP stroke
0 1 -2 2 0 1 -2 2 0 1 -1 1 0 1 -2 2 
0 1 -2 2 -1 1 -1 1 0 2 -2 2 0 1 -2 2 
0 1 -2 2 0 1 -1 1 0 1 -2 2 0 1 -2 2 
-1 1 0 2 -2 2 0 1 -2 2 0 1 -2 2 0 1 
-1 1 0 1 -2 2 -1 1 0 1 -2 2 -1 1 0 2 
-2 2 0 1 -2 2 0 1 -2 2 0 1 -1 1 0 1 
-2 2 0 1 -2 2 -1 1 0 2 -2 2 0 1 -2 2 
0 1 -2 2 0 1 -1 1 0 1 -2 2 0 1 -2 2 
0 1 -2 2 0 1 -1 1 0 1 -2 2 0 1 -2 2 
0 1 -2 2 0 1 -2 2 0 1 -2 2 0 1 -2 2 
0 1 -1 1 0 1 -2 2 0 1 -2 2 0 1 -1 1 
0 1 -2 2 0 1 -2 2 0 1 -2 2 0 1 -1 1 
0 1 -2 2 0 1 -2 2 -1 1 0 2 -2 2 0 1 
-2 2 0 1 -2 2 0 1 -1 1 0 1 -2 2 0 1 
-2 2 0 1 -2 2 0 1 -1 1 0 1 -2 2 0 1 
-2 2 -1 1 0 2 -2 2 0 1 -2 2 0 1 -2 2 
0 1 -1 1 0 1 -2 2 0 1 -2 2 -1 1 0 2 
-2 2 0 1 -2 2 0 1 -2 2 0 1 -1 1 0 1 
-2 2 0 1 -2 2 0 1 -2 2 0 1 -1 1 0 1 
-2 2 0 1 -2 2 -1 1 0 2 -2 2 0 1 -2 2 
0 1 -2 2 0 1 -1 1 -1 1 0 2 -2 2 0 1 
-2 2 0 1 -1 1 0 1 -2 2 0 1 -2 2 -1 1 
0 2 -2 2 0 1 -2 2 0 1 -2 2 0 1 -1 1 
0 1 -2 2 0 1 -2 2 0 1 -2 2 0 1 -1 1 
0 1 -2 2 0 1 -2 2 0 1 -1 1 0 1 -2 2 
0 1 -2 2 0 1 -2 2 0 2 -2 2 0 1 -2 2 
0 1 -2 2 0 1 -1 1 0 1 -2 2 0 1 -2 2 
-1 1 0 2 -2 2 0 1 -2 2 0 1 -2 2 0 1 
-1 1 0 1 -2 2 0 1 -2 2 0 1 -1 1 0 1 
-1 1 0 1 -2 2 0 1 -2 2 -1 1 0 2 -2 2 
0 1 -2 2 0 1 -2 2 0 1 -1 1 0 1 -2 2 
0 1 -2 2 0 1 -1 1 0 1 -1 1 0 1 -2 2 
0 1 -2 2 0 1 -2 2 0 1 -1 1 0 1 -2 2 
0 1 -2 2 0 1 -1 1 0 1 -2 2 -1 1 0 2 
-2 2 0 1 -1 1 0 1 -2 2 0 1 -2 2 -1 1 
0 2 -2 2 0 1 -2 2 0 1 -2 2 0 1 -1 1 
0 1 -1 1 0 1 -2 2 0 1 -2 2 0 1 -1 1 
0 1 -2 2 0 1 4093 989 300 MP stroke
-2 2 -1 1 0 2 -2 2 -1 1 0 2 -2 2 -1 1 
0 2 -2 2 0 1 -2 2 0 1 -2 2 0 1 -1 1 
-1 1 0 2 -2 2 0 1 -2 2 0 1 -2 2 0 1 
-1 1 0 1 -1 1 0 1 -2 2 0 1 -2 2 0 1 
-2 2 0 1 -1 1 0 1 -1 1 0 1 -2 2 0 1 
-2 2 -1 1 0 2 -2 2 0 1 -1 1 0 1 -2 2 
0 1 -2 2 0 1 -2 2 0 1 -1 1 0 1 -1 1 
0 1 -2 2 0 1 -1 1 0 1 -2 2 -1 1 0 1 
-1 1 -1 1 0 2 -2 2 -1 1 0 2 -2 2 0 1 
-1 1 -1 1 0 1 -1 1 0 1 -2 2 -1 1 0 2 
-2 2 0 1 -1 1 -1 1 0 1 -1 1 0 1 -1 1 
-1 1 -1 1 0 2 -2 2 0 1 -1 1 -1 1 0 1 
-1 1 -1 1 0 2 -2 2 0 1 -1 1 0 1 -2 2 
-1 1 0 2 -2 2 0 1 -2 2 0 1 -1 1 0 1 
-2 2 -1 1 0 2 -2 2 0 1 -2 2 1 0 -1 0 
2 -2 1 -1 0 -2 2 -2 1 -1 0 -2 2 -2 1 -1 
0 -2 2 -2 1 -1 0 -2 2 -2 1 -1 0 -2 2 -2 
0 -1 2 -2 1 -1 0 -2 2 -2 1 -1 0 -2 2 -2 
1 -1 0 -2 2 -2 0 -1 2 -2 1 -1 0 -2 2 -2 
1 -1 0 -2 2 -2 1 -1 0 -2 2 -2 0 -1 2 -2 
1 -1 0 -2 2 -2 1 -1 0 -2 2 -2 1 -1 0 -2 
2 -2 1 -1 0 -2 2 -2 0 -1 2 -2 1 -1 0 -2 
2 -2 1 -1 0 -2 2 -2 0 -1 2 -2 1 -1 0 -2 
2 -2 1 -1 0 -2 2 -2 1 -1 0 -2 2 -2 0 -1 
2 -2 1 -1 0 -2 2 -2 1 -1 0 -2 2 -2 0 -1 
2 -2 1 -1 0 -2 2 -2 1 -1 0 -2 2 -2 0 -1 
2 -2 1 -1 0 -2 2 -2 0 -1 2 -2 1 -1 0 -2 
2 -2 1 -1 0 -2 2 -2 0 -1 2 -2 1 -1 0 -2 
2 -2 1 -1 0 -2 2 -2 0 -1 2 -2 1 -1 0 -2 
2 -2 0 -1 2 -2 1 -1 0 -2 2 -2 1 -1 0 -2 
2 -2 0 -1 2 -2 1 -1 0 -2 2 -2 1 -1 0 -2 
2 -2 0 -1 2 -2 1 -1 0 -2 2 -2 0 -1 2 -2 
1 -1 0 -2 2 -2 0 -1 2 -2 1 -1 0 -2 2 -2 
1 -1 0 -2 2 -2 0 -1 2 -2 1 -1 0 -2 2 -2 
0 -1 2 -2 1 -1 0 -2 2 -2 0 -1 2 -2 1 -1 
0 -2 2 -2 0 -1 2 -2 1 -1 0 -2 2 -2 1 -1 
0 -2 2 -2 0 -1 2 -2 0 -1 2 -2 1 -1 0 -2 
2 -2 1 -1 0 -2 4014 1118 300 MP stroke
2 -2 0 -1 2 -2 0 -1 2 -2 1 -1 0 -2 2 -2 
0 -1 2 -2 1 -1 0 -2 2 -2 0 -1 2 -2 1 -1 
0 -2 2 -2 0 -1 2 -2 1 -1 0 -2 2 -2 0 -1 
2 -2 1 -1 0 -2 2 -2 0 -1 2 -2 1 -1 0 -2 
2 -2 0 -1 2 -2 1 -1 0 -2 2 -2 0 -1 2 -2 
0 -1 2 -2 1 -1 0 -2 2 -2 0 -1 2 -2 1 -1 
0 -2 2 -2 0 -1 2 -2 1 -1 0 -2 2 -2 0 -1 
2 -2 1 -1 0 -2 2 -2 0 -1 2 -2 0 -1 2 -2 
1 -1 0 -2 2 -2 0 -1 2 -2 0 -1 2 -2 1 -1 
0 -2 2 -2 0 -1 2 -2 1 -1 0 -2 2 -2 0 -1 
2 -2 0 -1 2 -2 1 -1 0 -2 2 -2 0 -1 2 -2 
1 -1 0 -2 2 -2 0 -1 2 -2 0 -1 2 -2 0 -1 
2 -2 1 -1 0 -2 2 -2 0 -1 2 -2 1 -1 0 -2 
2 -2 0 -1 2 -2 0 -1 2 -2 1 -1 0 -2 2 -2 
0 -1 2 -2 0 -1 2 -2 1 -1 0 -2 2 -2 0 -1 
2 -2 0 -1 2 -2 0 -1 2 -2 1 -1 0 -2 2 -2 
0 -1 2 -2 1 -1 0 -2 2 -2 0 -1 2 -2 0 -1 
2 -2 0 -1 2 -2 1 -1 0 -2 2 -2 0 -1 2 -2 
0 -1 2 -2 1 -1 0 -2 2 -2 0 -1 2 -2 0 -1 
2 -2 0 -1 2 -2 1 -1 0 -2 2 -2 0 -1 2 -2 
0 -1 2 -2 1 -1 0 -2 2 -2 0 -1 2 -2 0 -1 
2 -2 0 -1 2 -2 0 -1 2 -2 1 -1 0 -2 2 -2 
0 -1 2 -2 0 -1 2 -2 1 -1 0 -2 2 -2 0 -1 
2 -2 0 -1 2 -2 0 -1 2 -2 0 -1 2 -2 0 -1 
2 -2 1 -1 0 -2 2 -2 0 -1 2 -2 0 -1 2 -2 
0 -1 2 -2 1 -1 0 -2 2 -2 0 -1 2 -2 0 -1 
2 -2 0 -1 2 -2 1 -1 0 -2 2 -2 0 -1 2 -2 
0 -1 2 -2 0 -1 2 -2 0 -1 2 -2 0 -1 2 -2 
1 -1 0 -2 2 -2 0 -1 2 -2 0 -1 2 -2 0 -1 
2 -2 0 -1 2 -2 1 -1 0 -2 2 -2 0 -1 2 -2 
0 -1 2 -2 0 -1 2 -2 0 -1 2 -2 0 -1 2 -2 
0 -1 2 -2 1 -1 0 -2 2 -2 0 -1 2 -2 0 -1 
2 -2 0 -1 2 -2 0 -1 2 -2 0 -1 2 -2 0 -1 
2 -2 0 -1 2 -2 1 -1 0 -2 2 -2 0 -1 2 -2 
0 -1 2 -2 0 -1 2 -2 0 -1 2 -2 1 -1 0 -2 
2 -2 0 -1 2 -2 0 -1 2 -2 1 -1 0 -1 1 -1 
0 -1 2 -2 1 -1 0 -1 1 -1 1 -1 0 -1 1 -1 
0 -1 1 -1 0 -1 3719 1579 300 MP stroke
1 -1 1 0 -1 0 2 -2 1 -1 0 -1 1 -2 1 -1 
0 -1 1 -1 1 -1 1 -1 0 -1 1 -1 1 -1 1 -2 
0 -1 1 -1 1 -1 1 -1 1 -2 0 -1 1 -1 1 -1 
1 -2 1 -1 1 -1 1 -2 0 -1 1 -1 1 -2 1 -1 
1 -1 1 -2 1 -1 1 -1 1 -2 0 -1 1 -1 1 -2 
1 -1 1 -1 1 -2 1 -1 1 -1 0 -2 1 -1 1 -1 
1 -1 1 -2 1 -1 0 -1 1 -1 1 -1 1 -2 0 -1 
1 -1 1 -1 0 -1 1 -1 1 -1 0 -1 1 -1 1 0 
-1 0 2 -2 0 -1 1 -1 0 -1 2 -2 -1 1 0 1 
-2 2 0 1 -1 1 -1 1 -1 1 0 1 -1 2 -1 1 
-1 2 -1 2 -2 1 -1 2 -1 2 -2 2 -1 3 -2 2 
-1 2 -2 3 -2 3 -2 3 -2 3 -2 3 -2 3 -2 3 
-2 4 -3 3 -2 4 -3 4 -2 4 -3 4 -3 4 -3 5 
-3 4 -3 5 -3 5 -3 5 -3 5 -4 5 -3 5 -4 6 
-4 5 -3 6 -4 6 -4 6 -4 6 -4 6 -4 7 -4 6 
-5 7 -4 6 -5 7 -4 7 -5 7 -4 8 -5 7 -5 7 
-5 8 -5 8 -5 7 -5 8 -5 8 -5 8 -5 8 -5 8 
-6 9 -5 8 -5 8 -6 9 -5 8 -6 9 -5 8 -6 9 
-5 9 -6 8 -5 9 -6 9 -5 8 -6 9 -5 8 -6 9 
-5 9 -5 8 -6 9 -5 8 -5 8 -5 8 -5 9 -5 8 
-5 7 -5 8 -5 8 -5 7 -4 7 -5 8 -4 6 -4 7 
-4 7 -4 6 -4 6 -3 5 -4 6 -3 5 -3 5 -3 4 
-2 5 -3 3 -2 4 -2 3 -1 2 -2 3 -1 1 -1 2 
0 1 0 -1 1 -1 1 -1 1 -3 2 -2 2 -4 3 -4 
3 -5 3 -5 3 -6 5 -6 4 -8 5 -8 6 -9 5 -9 
7 -10 7 -11 7 -12 8 -12 8 -14 9 -14 9 -15 10 -15 
11 -17 11 -17 11 -18 12 -19 13 -20 13 -21 14 -22 14 -22 
15 -23 16 -24 16 -25 17 -26 17 -27 18 -28 19 -28 19 -30 
20 -30 20 -31 21 -31 22 -33 22 -33 23 -35 24 -34 24 -36 
25 -37 25 -37 26 -37 27 -39 27 -39 27 -40 29 -40 29 -41 
29 -41 30 -42 30 -43 31 -43 32 -43 32 -44 33 -44 33 -44 
33 -45 34 -45 34 -45 35 -45 35 -45 35 -46 36 -45 36 -46 
37 -45 36 -46 37 -45 37 -45 38 -45 37 -44 38 -45 38 -44 
38 -43 38 -43 38 -43 38 -42 38 -42 38 -41 37 -40 38 -40 
38 -39 37 -38 37 -38 37 -37 36 -36 36 -35 36 -34 35 -34 
35 -32 34 -32 34 -30 33 -30 33 -28 32 -28 31 -26 30 -26 
30 -24 29 -24 28 -22 27 -22 26 -20 25 -19 24 -18 23 -17 
22 -16 21 -15 20 -14 1367 4289 300 MP stroke
18 -13 18 -12 15 -11 15 -10 13 -9 12 -8 11 -7 9 -6 
8 -5 6 -4 4 -3 3 -2 2 -1 0 2761 1233 1619 15 MP stroke
0 sg
0 -1104 -1 0 -1 1 -1 0 -1 0 -1 1 -1 0 -1 1 
-1 0 -1 1 -1 0 -1 1 -1 0 -1 1 -1 0 -1 1 
-1 0 -1 0 -1 1 -1 1 -1 0 -1 1 -1 0 -1 1 
-1 0 -1 1 -1 0 -1 0 -1 1 -1 0 -1 1 -1 1 
-1 0 -1 1 -1 0 -1 0 -1 1 -1 0 -1 1 -1 1 
-1 0 -1 1 -1 0 -1 0 -1 1 -1 0 -1 1 -1 1 
-1 0 -1 0 -1 1 -1 0 -1 1 -1 1 -1 0 -1 1 
-1 0 -1 0 -1 1 -1 1 -1 0 -1 1 -1 0 -1 0 
-1 1 -1 1 -1 0 -1 1 -1 0 -1 1 -1 0 -1 1 
-1 0 -1 1 -1 1 -1 0 -1 0 -1 1 -1 0 -1 1 
-1 1 -1 0 -1 0 -1 1 -1 1 -1 0 -1 1 -1 0 
-1 1 -1 0 -1 1 -1 0 -1 1 -1 0 -1 1 -1 0 
-1 1 -1 1 -1 0 -1 0 -1 1 -1 1 -1 0 -1 1 
-1 0 -1 1 -1 0 -1 1 -1 1 -1 0 -1 0 -1 1 
-1 1 -1 0 -1 1 -1 0 -1 1 -1 0 -1 1 -1 1 
-1 0 -1 0 -1 1 -1 1 -1 0 -1 1 -1 0 -1 1 
-1 1 -1 0 -1 1 -1 0 -1 1 -1 0 -1 1 -1 1 
-1 0 -1 0 -1 1 -1 1 -1 0 -1 1 -1 0 -1 1 
-1 1 -1 0 -1 0 -1 1 -1 1 -1 0 -1 1 -1 0 
-1 1 -1 1 -1 0 -1 1 -1 0 -1 1 -1 1 -1 0 
-1 0 -1 1 -1 1 -1 0 -1 1 -1 0 -1 1 -1 1 
-1 0 -1 1 -1 0 -1 1 -1 1 -1 0 -1 1 -1 0 
-1 1 -1 1 -1 0 -1 0 -1 1 -1 1 -1 1 -1 0 
-1 0 -1 1 -1 1 -1 0 -1 1 -1 0 -1 1 -1 1 
-1 1 -1 0 -1 0 -1 1 -1 1 -1 0 -1 1 -1 0 
-1 1 -1 1 -1 0 -1 1 -1 1 -1 0 -1 1 -1 0 
-1 1 -1 1 -1 0 -1 1 -1 0 -1 1 -1 1 -1 0 
-1 1 -1 0 -1 1 -1 1 -1 0 -1 1 -1 0 -1 1 
-1 0 -1 1 -1 1 -1 1 -1 0 -1 1 -1 0 -1 1 
-1 1 -1 0 -1 1 -1 0 -1 1 -1 0 -1 1 -1 1 
-1 1 -1 0 -1 1 -1 0 -1 1 -1 1 -1 0 -1 1 
-1 1 -1 0 -1 1 -1 0 -1 1 -1 1 -1 0 -1 1 
-1 1 -1 0 -1 1 -1 0 -1 1 -1 1 -1 0 -1 1 
-1 1 -1 0 -1 1 -1 0 -1 1 -1 1 -1 1 -1 0 
-1 1 -1 0 -1 1 -1 1 -1 0 -1 1 -1 1 -1 0 
-1 1 -1 1 -1 0 -1 1 -1 0 -1 1 -1 1 -1 0 
-1 1 -1 1 -1 1 -1 0 -1 1 -1 0 -1 1 -1 0 
-1 1 -1 1 -1 1 1531 2554 300 MP stroke
-1 0 -1 1 -1 1 -1 0 -1 1 -1 0 -1 1 -1 1 
-1 0 -1 1 -1 1 -1 1 -1 0 -1 1 -1 1 -1 0 
-1 1 -1 0 -1 1 -1 1 -1 0 -1 1 -1 1 -1 1 
-1 0 -1 1 -1 1 -1 0 -1 1 -1 0 -1 1 -1 1 
-1 0 -1 1 -1 1 -1 1 -1 0 -1 1 -1 1 -1 0 
-1 1 -1 1 -1 0 -1 1 -1 1 -1 0 -1 1 -1 1 
-1 0 -1 1 -1 1 -1 0 -1 1 -1 1 -1 1 -1 0 
-1 1 -1 1 -1 0 -1 1 -1 1 -1 0 -1 1 -1 1 
-1 0 -1 1 -1 1 -1 0 -1 1 -1 1 -1 0 -1 1 
-1 1 -1 1 -1 0 -1 1 -1 1 -1 0 -1 1 -1 1 
-1 1 -1 0 -1 1 -1 1 -1 0 -1 1 -1 1 -1 1 
-1 0 -1 1 -1 1 -1 0 -1 1 -1 1 -1 0 -1 1 
-1 1 -1 0 -1 1 -1 1 -1 0 -1 1 -1 1 -1 1 
-1 0 -1 1 -1 1 -1 0 -1 1 -1 1 -1 1 -1 0 
-1 1 -1 1 -1 0 -1 1 -1 1 -1 1 -1 0 -1 1 
-1 1 -1 1 -1 0 -1 1 -1 1 -1 0 -1 1 -1 1 
-1 1 -1 0 -1 1 -1 1 -1 1 -1 0 -1 1 -1 1 
-1 0 -1 1 -1 1 -1 1 -1 0 -1 1 -1 1 -1 0 
-1 1 -1 1 -1 1 -1 0 -1 1 -1 1 -1 1 -1 0 
-1 1 -1 1 -1 1 -1 0 -1 1 -1 1 -1 1 -1 0 
-1 1 -1 1 -1 1 -1 0 -1 1 -1 1 -1 1 -1 1 
-1 0 -1 1 -1 1 -1 0 -1 1 -1 1 -1 1 -1 0 
-1 1 -1 1 -1 0 -1 1 -1 1 -1 1 -1 0 -1 1 
-1 1 -1 1 -1 0 -1 1 -1 1 -1 1 -1 1 -1 0 
-1 1 -1 1 -1 1 -1 1 -1 0 -1 1 -1 1 -1 0 
-1 1 -1 1 -1 1 -1 0 -1 1 -1 1 -1 1 -1 1 
-1 0 -1 1 -1 1 -1 1 -1 1 -1 0 -1 1 -1 1 
-1 0 -1 1 -1 1 -1 1 -1 0 -1 1 -1 1 -1 1 
-1 1 -1 1 -1 0 -1 1 -1 1 -1 1 -1 0 -1 1 
-1 1 -1 0 -1 1 -1 1 -1 1 -1 1 -1 1 -1 0 
-1 1 -1 1 -1 1 -1 0 -1 1 -1 1 -1 1 -1 0 
-1 1 -1 1 -1 1 -1 1 -1 1 -1 0 -1 1 -1 1 
-1 1 -1 0 -1 1 -1 1 -1 1 -1 1 -1 1 -1 0 
-1 1 -1 1 -1 0 -1 1 -1 1 -1 1 -1 1 -1 1 
-1 0 -1 1 -1 1 -1 1 -1 0 -1 1 -1 1 -1 1 
-1 1 -1 1 -1 0 -1 1 -1 1 -1 1 -1 0 -1 1 
-1 1 -1 1 -1 1 -1 1 -1 0 -1 1 -1 1 -1 1 
-1 0 -1 1 -1 1 1830 2335 300 MP stroke
-1 1 -1 1 -1 1 -1 0 -1 1 -1 1 -1 1 -1 1 
-1 1 -1 0 -1 1 -1 1 -1 1 -1 0 -1 1 -1 1 
-1 1 -1 1 -1 1 -1 0 -1 1 -1 1 -1 1 -1 1 
-1 1 -1 0 -1 1 -1 1 -1 1 -1 1 -1 0 -1 1 
-1 1 -1 1 -1 1 -1 0 -1 1 -1 1 -1 1 -1 1 
-1 1 -1 1 -1 0 -1 1 -1 1 -1 1 -1 1 -1 1 
-1 0 -1 1 -1 1 -1 1 -1 1 -1 1 -1 0 -1 1 
-1 1 -1 1 -1 1 -1 1 -1 0 -1 1 -1 1 -1 1 
-1 1 -1 1 -1 1 -1 0 -1 1 -1 1 -1 1 -1 1 
-1 1 -1 0 -1 1 -1 1 -1 1 -1 1 -1 1 -1 0 
-1 1 -1 1 -1 1 -1 1 -1 1 -1 0 -1 1 -1 1 
-1 1 -1 1 -1 1 -1 1 -1 0 -1 1 -1 1 -1 1 
-1 1 -1 1 -1 0 1 0 -2 2 -1 0 -1 1 -1 1 
-1 1 -1 1 -1 1 -1 1 -1 0 -1 1 -1 1 -1 1 
-1 1 -1 1 -1 0 -1 1 -1 1 -1 1 -1 1 -1 1 
-1 1 -1 1 -1 1 -1 0 -1 1 -1 1 -1 1 -1 1 
-1 1 -1 0 -1 1 -1 1 -1 1 -1 1 -1 1 -1 1 
-1 1 -1 1 -1 0 -1 1 -1 1 -1 1 -1 1 -1 1 
-1 0 -1 1 -1 1 -1 1 -1 1 -1 1 -1 1 -1 1 
-1 1 -1 0 -1 1 -1 1 -1 1 -1 1 -1 1 -1 1 
-1 1 -1 1 -1 0 -1 1 -1 1 -1 1 -1 1 -1 1 
-1 1 -1 1 -1 1 -1 0 -1 1 -1 1 -1 1 -1 1 
-1 1 -1 1 -1 1 -1 1 -1 0 -1 1 -1 1 -1 1 
-1 1 -1 1 -1 1 -1 1 -1 1 -1 0 -1 1 -1 1 
-1 1 -1 1 -1 1 -1 1 -1 1 -1 1 -1 0 1 0 
-2 2 -1 0 -1 1 -1 1 -1 1 -1 1 -1 1 -1 1 
-1 1 -1 1 -1 0 -1 1 -1 1 -1 1 -1 1 -1 1 
-1 1 -1 1 -1 1 -1 0 1 0 -2 2 -1 1 -1 0 
-1 1 -1 1 -1 1 -1 1 -1 1 -1 1 -1 1 -1 0 
0 1 -2 2 -1 0 -1 1 -1 1 -1 1 -1 1 -1 1 
-1 1 -1 1 -1 1 -1 0 1 0 -2 2 -1 1 -1 0 
-1 1 -1 1 -1 1 -1 1 -1 1 -1 1 -1 1 -1 1 
-1 1 -1 1 -1 0 0 1 -2 2 -1 0 -1 1 -1 1 
-1 1 -1 1 -1 1 -1 1 -1 1 -1 1 -1 1 -1 1 
-1 0 0 1 -2 2 -1 0 -1 1 -1 1 -1 1 -1 1 
-1 1 -1 1 -1 1 -1 1 -1 1 -1 1 -1 1 -1 0 
1 0 -2 2 -1 0 -1 1 -1 1 -1 1 -1 1 -1 1 
-1 1 -1 1 -1 1 2124 2077 300 MP stroke
-1 1 -1 1 -1 1 -1 1 -1 1 -1 0 1 0 -2 2 
-1 1 -1 0 -1 1 -1 1 -1 1 -1 1 -1 1 -1 1 
-1 1 -1 1 -1 1 -1 1 -1 1 -1 1 -1 1 -1 1 
-1 1 -1 1 -1 0 1 0 -2 2 -1 0 -1 1 -1 1 
-1 1 -1 1 -1 1 -1 1 -1 1 -1 1 -1 1 -1 1 
-1 1 -1 1 -1 1 -1 1 -1 1 -1 1 -1 1 -1 1 
-1 1 -1 0 1 0 -2 2 -1 1 -1 0 1 0 -2 2 
-1 0 0 1 -2 2 -1 0 -1 1 -1 1 -1 1 -1 1 
-1 1 -1 1 -1 1 -1 1 -1 1 -1 1 -1 1 -1 1 
-1 1 -1 1 -1 1 -1 1 -1 1 -1 1 -1 1 -1 1 
-1 1 -1 1 -1 1 -1 1 -1 1 -1 1 -1 0 0 1 
-2 2 -1 0 0 1 -2 2 -1 0 -1 1 -1 1 -1 1 
-1 1 -1 1 -1 1 -1 1 -1 1 -1 1 -1 1 -1 1 
-1 1 -1 1 -1 1 -1 1 -1 1 -1 1 -1 1 -1 1 
-1 1 -1 1 -1 1 -1 1 -1 1 -1 1 -1 1 -1 1 
-1 1 -1 1 -1 1 -1 1 -1 1 -1 1 -1 1 -1 1 
-1 1 -1 1 -1 1 -1 1 -1 1 -1 1 -1 1 -1 1 
-1 1 -1 1 -1 1 -1 1 -1 1 -1 1 -1 1 -1 1 
-1 1 -1 1 -1 1 -1 1 -1 1 -1 1 -1 1 -1 1 
-1 1 -1 1 -1 1 -1 1 -1 1 -1 1 -1 1 -1 1 
-1 1 -1 1 -1 1 -1 1 -1 1 -1 1 -1 1 -1 1 
-1 1 -1 1 -1 1 -1 1 -1 1 -1 1 -1 1 -1 1 
-1 1 -1 1 -1 1 -1 1 -1 1 -1 1 -1 1 -1 1 
-1 1 -1 1 -1 1 -1 1 -1 1 -1 1 -1 1 -1 1 
-1 1 0 1 -2 2 -1 0 -1 1 -1 1 0 1 -2 2 
-1 0 1 0 -2 2 -1 1 -1 0 1 0 -2 2 -1 0 
1 0 -2 2 -1 1 -1 1 -1 1 -1 1 -1 1 -1 1 
-1 1 -1 1 -1 1 -1 1 -1 1 -1 1 -1 1 -1 1 
-1 1 -1 1 -1 1 -1 1 -1 1 -1 1 -1 1 -1 1 
-1 1 -1 1 -1 1 -1 1 -1 1 0 1 -2 2 -1 0 
1 0 -2 2 -1 1 -1 1 -1 1 -1 1 -1 1 -1 1 
-1 1 -1 1 -1 1 -1 1 -1 1 -1 1 -1 1 -1 1 
-1 1 -1 1 -1 1 -1 1 -1 1 0 1 -2 2 -1 0 
1 0 -2 2 -1 1 -1 1 -1 1 -1 1 -1 1 -1 1 
-1 1 -1 1 -1 1 -1 1 -1 1 -1 1 -1 1 -1 1 
-1 1 -1 1 -1 1 -1 1 -1 1 0 1 -2 2 -1 0 
1 0 -2 2 -1 1 -1 1 -1 1 -1 1 -1 1 -1 1 
-1 1 -1 1 -1 1 2413 1788 300 MP stroke
0 1 -2 2 -1 0 1 0 -2 2 -1 0 1 0 -2 2 
-1 1 -1 1 -1 1 -1 1 -1 1 -1 1 -1 1 -1 1 
-1 1 -1 1 -1 1 -1 1 -1 1 -1 1 0 1 -2 2 
-1 1 -1 1 -1 1 -1 1 -1 1 -1 1 -1 1 -1 1 
-1 1 -1 1 0 1 -2 2 -1 0 1 0 -2 2 -1 0 
1 0 -2 2 -1 1 -1 1 -1 1 -1 1 -1 1 -1 1 
-1 1 -1 1 0 1 -2 2 -1 0 1 0 -2 2 -1 1 
-1 1 -1 1 -1 1 -1 1 -1 1 -1 1 -1 1 -1 1 
0 1 -2 2 -1 0 1 0 -2 2 -1 1 -1 1 -1 1 
-1 1 -1 1 -1 1 -1 1 0 1 -2 2 -1 0 1 0 
-2 2 -1 1 -1 1 -1 1 -1 1 -1 1 -1 1 -1 1 
-1 1 -1 1 0 1 -2 2 -1 0 1 0 -2 2 -1 1 
-1 1 -1 1 -1 1 -1 1 -1 1 0 1 -2 2 -1 1 
-1 0 1 0 -2 2 -1 1 -1 1 -1 1 -1 1 -1 1 
-1 1 0 1 -2 2 -1 1 -1 1 -1 1 -1 1 -1 1 
-1 1 -1 1 0 1 -2 2 -1 1 -1 1 -1 1 -1 1 
-1 1 -1 1 -1 1 -1 1 0 1 -2 2 -1 1 -1 1 
-1 1 -1 1 -1 1 -1 1 -1 1 0 1 -2 2 -1 1 
-1 1 -1 1 -1 1 -1 1 -1 1 -1 1 -1 1 -1 1 
-1 1 0 1 -2 2 -1 1 -1 1 -1 1 -1 1 -1 1 
-1 1 -1 1 0 1 -2 2 0 1 0 -1 2 -2 1 -1 
1 -1 0 -1 0 0 -1 1 0 1 -2 2 -1 1 -1 1 
-1 1 -1 1 -1 1 -1 1 0 1 -2 2 -1 1 -1 1 
-1 1 -1 1 0 1 -2 2 -1 1 -1 1 -1 1 -1 1 
-1 1 -1 1 -1 1 -1 1 -1 1 0 1 -2 2 -1 1 
-1 1 -1 1 -1 1 -1 1 0 1 -2 2 -1 1 -1 1 
-1 1 -1 1 -1 1 0 1 -2 2 -1 1 -1 1 -1 1 
-1 1 -1 1 0 1 -1 1 -1 1 -1 1 -1 1 -1 1 
-1 1 -1 1 0 1 -2 2 -1 1 -1 1 -1 1 -1 1 
-1 1 -1 1 -1 1 0 1 -2 2 -1 1 -1 1 -1 1 
-1 1 -1 1 -1 1 0 1 -2 2 -1 1 -1 1 -1 1 
-1 1 0 1 -2 2 -1 1 -1 1 -1 1 0 1 -2 2 
-1 1 -1 1 -1 1 -1 1 -1 1 0 1 -2 2 -1 1 
-1 1 -1 1 -1 1 -1 1 -1 1 -1 1 -1 1 0 1 
-2 2 -1 1 -1 1 -1 1 0 1 -2 2 -1 1 -1 1 
-1 1 0 1 -2 2 -1 1 -1 1 -1 1 -1 1 -1 1 
0 1 -2 2 -1 1 -1 1 -1 1 -1 1 -1 1 -1 1 
0 1 -2 2 -1 1 2691 1479 300 MP stroke
-1 1 -1 1 0 1 -2 2 -1 1 -1 1 -1 1 0 1 
-1 1 -1 1 -1 1 -1 1 -1 1 -1 1 -1 1 -1 1 
0 1 -2 2 -1 1 -1 1 -1 1 0 1 -2 2 -1 1 
-1 1 -1 1 0 1 -2 2 -1 1 -1 1 -1 1 -1 1 
-1 1 -1 1 0 1 -2 2 -1 1 -1 1 -1 1 0 1 
-2 2 -1 1 -1 1 -1 1 0 1 -1 1 -1 1 -1 1 
-1 1 -1 1 -1 1 -1 1 0 1 -2 2 -1 1 -1 1 
0 1 -2 2 -1 1 -1 1 -1 1 0 1 -1 1 -1 1 
-1 1 -1 1 -1 1 -1 1 -1 1 0 1 -2 2 -1 1 
-1 1 0 1 -2 2 -1 1 -1 1 -1 1 0 1 -2 2 
-1 1 -1 1 -1 1 -1 1 -1 1 0 1 -2 2 -1 1 
-1 1 0 1 -2 2 -1 1 -1 1 -1 1 -1 1 0 1 
-2 2 -1 1 -1 1 -1 1 0 1 -2 2 -1 1 -1 1 
0 1 -1 1 -1 1 -1 1 -1 1 -1 1 -1 1 -1 1 
0 1 -2 2 -1 1 0 1 -2 2 -1 1 -1 1 -1 1 
-1 1 -1 1 0 1 -2 2 -1 1 -1 1 0 1 -2 2 
-1 1 -1 1 0 1 -2 2 -1 1 -1 1 -1 1 -1 1 
0 1 -2 2 -1 1 -1 1 0 1 -1 1 -1 1 -1 1 
-1 1 -1 1 -1 1 0 1 -2 2 -1 1 0 1 -2 2 
-1 1 -1 1 -1 1 -1 1 0 1 -2 2 -1 1 -1 1 
0 1 -2 2 -1 1 -1 1 0 1 -2 2 -1 1 -1 1 
-1 1 -1 1 0 1 -2 2 -1 1 -1 1 0 1 -1 1 
-1 1 -1 1 -1 1 -1 1 0 1 -2 2 -1 1 0 1 
-2 2 -1 1 -1 1 -1 1 -1 1 0 1 -2 2 -1 1 
0 1 -2 2 -1 1 -1 1 -1 1 -1 1 0 1 -2 2 
-1 1 0 1 -2 2 -1 1 -1 1 -1 1 0 1 -2 2 
-1 1 -1 1 0 1 -2 2 -1 1 -1 1 0 1 -2 2 
-1 1 -1 1 -1 1 0 1 -2 2 -1 1 -1 1 0 1 
-1 1 -1 1 -1 1 -1 1 0 1 -2 2 -1 1 -1 1 
0 1 -1 1 -1 1 -1 1 -1 1 -1 1 0 1 -2 2 
-1 1 -1 1 0 1 -1 1 -1 1 -1 1 -1 1 0 1 
-2 2 -1 1 -1 1 0 1 -1 1 -1 1 -1 1 -1 1 
0 1 -2 2 -1 1 -1 1 0 1 -1 1 -1 1 -1 1 
-1 1 0 1 -2 2 -1 1 -1 1 0 1 -1 1 -1 1 
-1 1 -1 1 0 1 -2 2 -1 1 -1 1 0 1 -1 1 
-1 1 -1 1 -1 1 0 1 -2 2 -1 1 -1 1 0 1 
-1 1 -1 1 -1 1 -1 1 0 1 -2 2 -1 1 0 1 
-2 2 -1 1 -1 1 2976 1134 300 MP stroke
-1 1 0 1 -2 2 -1 1 0 1 -2 2 -1 1 -1 1 
0 1 -2 2 -1 1 -1 1 0 1 -2 2 -1 1 -1 1 
0 1 -2 2 -1 1 -1 1 0 1 -2 2 -1 1 0 1 
-2 2 -1 1 -1 1 -1 1 0 1 -2 2 0 1 -2 2 
-1 1 -1 1 -1 1 0 1 -2 2 -1 1 0 1 -2 2 
-1 1 -1 1 0 1 -2 2 -1 1 0 1 -2 2 -1 1 
-1 1 0 1 -2 2 -1 1 -1 1 0 1 -1 1 -1 1 
-1 1 0 1 -2 2 -1 1 -1 1 0 1 -1 1 -1 1 
-1 1 0 1 -2 2 -1 1 -1 1 0 1 -2 2 -1 1 
0 1 -2 2 -1 1 -1 1 0 1 -2 2 -1 1 0 1 
-2 2 -1 1 -1 1 -1 1 0 1 -2 2 0 1 -2 2 
-1 1 -1 1 -1 1 0 1 -2 2 0 1 -2 2 -1 1 
-1 1 0 1 -2 2 -1 1 0 1 -2 2 -1 1 -1 1 
0 1 -2 2 -1 1 0 1 -1 1 -1 1 -1 1 -1 1 
0 1 -2 2 -1 1 0 1 -2 2 -1 1 0 1 -2 2 
-1 1 -1 1 0 1 -2 2 -1 1 0 1 -1 1 -1 1 
-1 1 0 1 -2 2 -1 1 -1 1 0 1 -2 2 -1 1 
0 1 -1 1 -1 1 -1 1 0 1 -2 2 -1 1 -1 1 
0 1 -2 2 -1 1 -1 1 0 1 -2 2 0 1 -2 2 
-1 1 0 1 -2 2 -1 1 -1 1 0 1 -2 2 -1 1 
0 1 -1 1 -1 1 -1 1 0 1 -2 2 -1 1 0 1 
-2 2 -1 1 -1 1 0 1 -2 2 -1 1 0 1 -1 1 
-1 1 -1 1 -1 1 0 1 -2 2 0 1 -2 2 -1 1 
0 1 -2 2 -1 1 0 1 -2 2 -1 1 -1 1 0 1 
-2 2 -1 1 0 1 -2 2 -1 1 0 1 -2 2 0 1 
-2 2 -1 1 -1 1 0 1 -2 2 -1 1 0 1 -2 2 
-1 1 0 1 -1 1 -1 1 -1 1 0 1 -2 2 -1 1 
-1 1 0 1 -2 2 -1 1 0 1 -2 2 0 1 -2 2 
-1 1 -1 1 0 1 -1 1 -1 1 0 1 -2 2 -1 1 
-1 1 0 1 -2 2 -1 1 0 1 -2 2 0 1 -2 2 
-1 1 -1 1 0 1 -2 2 -1 1 -1 1 1 0 1 -1 
0 -1 2 -2 1 -1 0 -1 2 -2 0 -1 2 -2 1 -1 
1 -1 0 -1 2 -2 1 -1 0 -1 2 -2 1 -1 0 -1 
2 -2 1 -1 0 -1 2 -2 1 -1 0 -1 2 -2 1 -1 
0 -1 2 -2 1 -1 0 -1 2 -2 1 -1 0 -1 2 -2 
1 -1 0 -1 2 -2 1 -1 0 -1 2 -2 1 -1 0 -1 
2 -2 1 -1 0 -1 2 -2 1 -1 0 -1 2 -2 1 -1 
0 -1 2 -2 1 -1 3160 896 300 MP stroke
1 -1 0 -1 2 -2 1 -1 0 -1 2 -2 1 -1 0 -1 
2 -2 1 -1 0 -1 2 -2 1 -1 0 -1 2 -2 1 -1 
0 -1 2 -2 1 -1 1 -1 0 -1 2 -2 1 -1 0 -1 
2 -2 1 -1 0 -1 2 -2 1 -1 0 -1 2 -2 1 -1 
1 -1 0 -1 2 -2 1 -1 0 -1 2 -2 1 -1 0 -1 
2 -2 1 -1 0 -1 2 -2 1 -1 0 -1 2 -2 1 -1 
1 -1 0 -1 2 -2 1 -1 0 -1 2 -2 1 -1 1 -1 
0 -1 2 -2 1 -1 0 -1 2 -2 1 -1 0 -1 2 -2 
1 -1 1 -1 0 -1 2 -2 1 -1 0 -1 2 -2 1 -1 
1 -1 0 -1 2 -2 1 -1 0 -1 2 -2 1 -1 0 -1 
2 -2 1 -1 1 -1 0 -1 2 -2 1 -1 0 -1 2 -2 
1 -1 0 -1 2 -2 1 -1 1 -1 0 -1 2 -2 1 -1 
0 -1 2 -2 1 -1 1 -1 0 -1 2 -2 1 -1 0 -1 
2 -2 1 -1 1 -1 0 -1 2 -2 1 -1 0 -1 2 -2 
1 -1 1 -1 0 -1 2 -2 1 -1 1 -1 0 -1 2 -2 
1 -1 0 -1 2 -2 1 -1 1 -1 0 -1 2 -2 1 -1 
0 -1 2 -2 1 -1 1 -1 0 -1 2 -2 1 -1 0 -1 
2 -2 1 -1 1 -1 0 -1 2 -2 1 -1 1 -1 0 -1 
2 -2 1 -1 1 -1 0 -1 2 -2 1 -1 0 -1 2 -2 
1 -1 1 -1 0 -1 2 -2 1 -1 1 -1 0 -1 2 -2 
1 -1 1 -1 0 -1 2 -2 1 -1 0 -1 2 -2 1 -1 
1 -1 0 -1 2 -2 1 -1 1 -1 0 -1 2 -2 1 -1 
1 -1 0 -1 2 -2 1 -1 0 -1 2 -2 1 -1 1 -1 
0 -1 2 -2 1 -1 1 -1 0 -1 2 -2 1 -1 1 -1 
0 -1 2 -2 1 -1 1 -1 0 -1 2 -2 1 -1 1 -1 
0 -1 2 -2 1 -1 1 -1 0 -1 2 -2 1 -1 1 -1 
0 -1 2 -2 1 -1 1 -1 0 -1 2 -2 1 -1 1 -1 
0 -1 2 -2 1 -1 1 -1 0 -1 2 -2 1 -1 1 -1 
0 -1 2 -2 1 -1 1 -1 0 -1 2 -2 1 -1 1 -1 
0 -1 2 -2 1 -1 1 -1 0 -1 2 -2 1 -1 1 -1 
0 -1 2 -2 1 -1 1 -1 1 -1 0 -1 2 -2 1 -1 
1 -1 0 -1 2 -2 1 -1 1 -1 0 -1 2 -2 1 -1 
1 -1 0 -1 2 -2 1 -1 1 -1 0 -1 2 -2 1 -1 
1 -1 1 -1 0 -1 2 -2 1 -1 1 -1 0 -1 2 -2 
1 -1 1 -1 0 -1 2 -2 1 -1 1 -1 1 -1 0 -1 
2 -2 1 -1 1 -1 0 -1 2 -2 1 -1 1 -1 0 -1 
2 -2 1 -1 1 -1 1 -1 0 -1 2 -2 1 -1 1 -1 
1 -1 0 -1 2 -2 2861 1276 300 MP stroke
1 -1 1 -1 0 -1 2 -2 1 -1 1 -1 0 -1 2 -2 
1 -1 1 -1 1 -1 0 -1 2 -2 1 -1 1 -1 1 -1 
0 -1 2 -2 1 -1 1 -1 1 -1 0 -1 2 -2 1 -1 
1 -1 1 -1 0 -1 2 -2 1 -1 1 -1 0 -1 2 -2 
1 -1 1 -1 1 -1 0 -1 2 -2 1 -1 1 -1 1 -1 
0 -1 2 -2 1 -1 1 -1 1 -1 0 -1 2 -2 1 -1 
1 -1 1 -1 0 -1 2 -2 1 -1 1 -1 1 -1 0 -1 
2 -2 1 -1 1 -1 1 -1 0 -1 2 -2 1 -1 1 -1 
1 -1 0 -1 2 -2 1 -1 1 -1 1 -1 0 -1 2 -2 
1 -1 1 -1 0 -1 2 -2 1 -1 1 -1 1 -1 1 -1 
0 -1 2 -2 1 -1 1 -1 1 -1 0 -1 2 -2 1 -1 
1 -1 1 -1 0 -1 2 -2 1 -1 1 -1 1 -1 0 -1 
2 -2 1 -1 1 -1 1 -1 1 -1 0 -1 2 -2 1 -1 
1 -1 1 -1 0 -1 2 -2 1 -1 1 -1 1 -1 1 -1 
0 -1 2 -2 1 -1 1 -1 1 -1 1 -1 0 -1 2 -2 
1 -1 1 -1 1 -1 0 -1 2 -2 1 -1 1 -1 1 -1 
1 -1 0 -1 2 -2 1 -1 1 -1 1 -1 1 -1 0 -1 
2 -2 1 -1 1 -1 1 -1 0 -1 2 -2 1 -1 1 -1 
1 -1 1 -1 0 -1 2 -2 1 -1 1 -1 1 -1 1 -1 
0 -1 2 -2 1 -1 1 -1 1 -1 1 -1 0 -1 2 -2 
1 -1 1 -1 1 -1 1 -1 0 -1 2 -2 1 -1 1 -1 
1 -1 1 -1 0 -1 2 -2 1 -1 1 -1 1 -1 1 -1 
0 -1 2 -2 1 -1 1 -1 1 -1 1 -1 1 -1 0 -1 
2 -2 1 -1 1 -1 1 -1 1 -1 0 -1 2 -2 1 -1 
1 -1 1 -1 1 -1 1 -1 0 -1 2 -2 1 -1 1 -1 
1 -1 0 -1 2 -2 1 -1 1 -1 1 -1 1 -1 0 -1 
2 -2 1 -1 1 -1 1 -1 1 -1 1 -1 0 -1 1 -1 
1 -1 1 -1 1 -1 1 -1 1 -1 1 -1 0 -1 2 -2 
1 -1 1 -1 1 -1 1 -1 0 -1 2 -2 1 0 0 -1 
2 -2 1 -1 1 -1 1 -1 0 -1 1 -1 1 -1 1 -1 
1 -1 1 -1 1 -1 1 -1 1 -1 1 -1 0 -1 2 -2 
-1 1 -1 1 -1 1 0 1 -2 2 -1 1 -1 1 -1 1 
-1 1 0 1 -1 1 -1 0 -1 1 -1 1 -1 1 0 1 
-1 2 -1 1 -1 1 -2 1 -1 1 -1 2 -1 1 -1 1 
-1 2 -2 1 -1 2 -1 1 -2 2 -1 2 -2 1 -1 2 
-2 2 -1 2 -2 2 -2 1 -1 2 -2 2 -2 2 -2 3 
-1 2 -2 2 -2 2 -2 2 -2 2 -2 3 -2 2 -2 3 
-2 2 -2 2 -3 3 2685 1486 300 MP stroke
-2 2 -2 3 -2 3 -3 2 -2 3 -2 3 -3 2 -2 3 
-2 3 -3 3 -2 3 -3 2 -2 3 -3 3 -2 3 -3 3 
-2 3 -3 3 -2 3 -3 3 -2 3 -3 3 -2 3 -3 3 
-3 3 -2 3 -3 3 -2 3 -3 4 -3 3 -2 3 -3 3 
-2 3 -3 3 -2 3 -3 2 -2 3 -3 3 -2 3 -2 3 
-3 3 -2 2 -2 3 -2 3 -3 2 -2 3 -2 2 -2 3 
-2 2 -2 3 -1 2 -2 2 -2 2 -2 2 -1 2 -2 2 
-1 1 -1 2 -2 1 -1 2 -1 1 -1 1 -1 1 0 1 
-1 1 -1 1 -1 1 1 0 -1 0 2 -2 1 -1 1 -1 
1 -1 1 -2 1 -2 2 -1 2 -3 1 -2 3 -2 2 -3 
2 -3 3 -3 3 -3 3 -4 3 -4 3 -4 4 -4 4 -5 
4 -5 4 -5 4 -5 5 -6 5 -5 5 -6 5 -7 6 -6 
6 -7 6 -7 6 -8 7 -7 7 -8 7 -9 7 -8 7 -9 
8 -9 8 -9 8 -10 9 -10 9 -10 9 -10 9 -11 10 -11 
10 -11 10 -11 10 -12 11 -12 10 -12 12 -12 11 -13 12 -13 
12 -13 12 -13 12 -14 13 -14 13 -14 13 -14 13 -14 14 -15 
14 -15 14 -15 14 -15 15 -15 15 -16 15 -15 15 -16 15 -16 
16 -16 16 -16 16 -16 16 -16 17 -17 17 -16 16 -16 17 -17 
18 -17 17 -16 17 -17 18 -16 18 -17 17 -16 18 -17 18 -16 
19 -17 18 -16 18 -16 19 -17 18 -16 19 -16 18 -16 19 -15 
18 -16 19 -15 18 -15 19 -15 18 -15 19 -15 18 -14 19 -15 
18 -14 18 -13 18 -14 18 -13 18 -13 18 -13 17 -12 17 -12 
18 -12 16 -12 17 -11 17 -11 16 -11 16 -10 15 -10 16 -10 
15 -9 15 -9 14 -9 14 -8 14 -8 13 -8 13 -7 13 -7 
12 -7 11 -7 12 -6 10 -5 11 -6 9 -5 10 -5 9 -4 
8 -4 7 -4 8 -4 6 -3 6 -3 5 -2 5 -3 4 1103 
1233 1619 209 MP stroke
/c9 { 1.000000 0.000000 1.000000 sr} bdef
c9
0 -552 -1 0 -2 1 -1 0 -1 1 -1 0 -1 0 -1 1 
-2 0 -1 1 -1 0 -1 1 -1 0 -1 1 -1 0 -1 0 
-2 1 -1 0 -1 1 -1 0 -1 1 -1 0 -1 0 -1 1 
-1 0 -1 1 -1 0 -1 1 -2 0 -1 0 -1 1 -1 0 
-1 1 -1 0 -1 1 -1 0 -1 0 -1 1 -1 0 -1 1 
-1 0 -1 1 -1 0 -1 0 -1 1 -1 0 -1 1 -1 0 
-1 0 -1 1 -1 0 -1 1 -1 0 -1 1 -1 0 -1 0 
-1 1 -1 0 -1 1 -1 0 -1 1 -1 0 -1 0 -1 1 
-1 0 -1 1 -1 0 -1 0 -1 1 -1 0 -1 1 -1 0 
-1 1 -1 0 -1 0 -1 1 -1 0 -1 1 -1 0 -1 1 
-1 0 -1 1 -1 0 -1 1 -1 0 -1 0 -1 1 -1 0 
-1 1 -1 0 -1 1 -1 0 -1 1 -1 0 -1 1 -1 0 
-1 0 -1 1 -1 0 -1 1 -1 0 -1 1 -1 0 -1 1 
-1 0 -1 1 -1 0 -1 0 -1 1 -1 0 -1 1 -1 1 
-1 0 -1 0 -1 1 -1 0 -1 1 -1 0 -1 1 -1 0 
-1 1 -1 0 -1 0 -1 1 -1 0 -1 1 -1 1 -1 0 
-1 0 -1 1 -1 0 -1 1 -1 0 -1 1 -1 0 -1 1 
-1 0 -1 1 -1 0 -1 1 -1 0 -1 1 -1 0 -1 1 
-1 0 -1 1 -1 0 -1 1 -1 0 -1 1 -1 0 -1 1 
-1 0 -1 0 -1 1 -1 1 -1 0 -1 1 -1 0 -1 1 
-1 0 -1 1 -1 0 -1 1 -1 0 -1 1 -1 0 -1 1 
-1 0 -1 1 -1 0 -1 1 -1 0 -1 1 -1 0 -1 1 
-1 0 -1 1 -1 0 -1 1 -1 0 -1 1 -1 0 -1 1 
-1 0 -1 1 -1 0 -1 1 -1 1 -1 0 -1 1 -1 0 
-1 1 -1 0 -1 1 -1 0 -1 1 -1 0 -1 1 -1 0 
-1 1 -1 0 -1 1 -1 1 -1 0 -1 0 -1 1 -1 1 
-1 0 -1 1 -1 0 -1 1 -1 0 -1 1 -1 0 -1 1 
-1 0 -1 1 -1 0 -1 1 -1 1 -1 0 -1 1 -1 0 
-1 1 -1 0 -1 1 -1 0 -1 1 -1 1 -1 0 -1 1 
-1 0 -1 1 -1 0 -1 1 -1 0 -1 1 -1 1 -1 0 
-1 1 -1 0 -1 1 -1 0 -1 1 -1 0 -1 1 -1 1 
-1 0 -1 1 -1 0 -1 1 -1 1 -1 0 -1 0 -1 1 
-1 1 -1 0 -1 1 -1 0 -1 1 -1 1 -1 0 -1 1 
-1 0 -1 1 -1 0 -1 1 -1 1 -1 0 -1 1 -1 0 
-1 1 -1 1 -1 0 -1 0 -1 1 -1 1 -1 1 -1 0 
-1 0 -1 1 -1 1 -1 0 -1 1 -1 0 -1 1 -1 1 
-1 0 -1 1 -1 0 -1 1 -1 0 -1 1 -1 1 -1 1 
-1 0 -1 0 -1 1 1535 2023 300 MP stroke
-1 1 -1 0 -1 1 -1 1 -1 0 -1 1 -1 0 -1 1 
-1 1 -1 0 -1 1 -1 0 -1 1 -1 1 -1 0 -1 1 
-1 0 -1 1 -1 0 -1 1 -1 1 -1 1 -1 0 -1 1 
-1 0 -1 1 -1 0 -1 1 -1 1 -1 1 -1 0 -1 1 
-1 0 -1 1 -1 0 -1 1 -1 1 -1 0 -1 1 -1 0 
-1 1 -1 1 -1 0 -1 1 -1 1 -1 0 -1 1 -1 0 
-1 1 -1 1 -1 0 -1 1 -1 1 -1 0 -1 1 -1 0 
-1 1 -1 1 -1 0 -1 1 -1 1 -1 1 -1 0 -1 1 
-1 0 -1 1 -1 0 -1 1 -1 1 -1 1 -1 0 -1 1 
-1 0 -1 1 -1 1 -1 0 -1 1 -1 1 -1 0 -1 1 
-1 1 -1 0 -1 1 -1 0 -1 1 -1 1 -1 0 -1 1 
-1 1 -1 0 -1 1 -1 1 -1 1 -1 0 -1 1 -1 0 
-1 1 -1 0 -1 1 -1 1 -1 1 -1 0 -1 1 -1 1 
-1 0 -1 1 -1 1 -1 0 -1 1 -1 0 -1 1 -1 1 
-1 0 -1 1 -1 1 -1 1 -1 0 -1 1 -1 1 -1 0 
-1 1 -1 1 -1 0 -1 1 -1 0 -1 1 -1 1 -1 0 
-1 1 -1 1 -1 1 -1 0 -1 1 -1 1 -1 0 -1 1 
-1 1 -1 0 -1 1 -1 1 -1 0 -1 1 -1 1 -1 0 
-1 1 -1 1 -1 0 -1 1 -1 1 -1 0 -1 1 -1 1 
-1 1 -1 0 -1 1 -1 1 -1 0 -1 1 -1 1 -1 1 
-1 0 -1 1 -1 1 -1 0 -1 1 -1 1 -1 0 -1 1 
-1 1 -1 0 -1 1 -1 1 -1 0 -1 1 -1 1 -1 0 
-1 1 -1 1 -1 1 -1 0 -1 1 -1 1 -1 0 -1 1 
-1 1 -1 1 -1 0 -1 1 -1 1 -1 0 -1 1 -1 1 
-1 1 -1 0 -1 1 -1 1 -1 0 -1 1 -1 1 -1 1 
-1 0 -1 1 -1 1 -1 0 -1 1 -1 1 -1 1 -1 0 
-1 1 -1 1 -1 0 -1 1 -1 1 -1 1 -1 0 -1 1 
-1 1 -1 0 -1 1 -1 1 -1 1 -1 0 -1 1 -1 1 
-1 1 -1 0 -1 1 -1 1 -1 0 -1 1 -1 1 -1 1 
-1 0 -1 1 -1 1 -1 1 -1 0 -1 1 -1 1 -1 1 
-1 0 -1 1 -1 1 -1 1 -1 0 -1 1 -1 1 -1 1 
-1 0 -1 1 -1 1 -1 1 -1 0 -1 1 -1 1 -1 1 
-1 0 -1 1 -1 1 -1 0 -1 1 -1 1 -1 1 -1 0 
-1 1 -1 1 -1 1 -1 0 -1 1 -1 1 -1 1 -1 1 
-1 0 -1 1 -1 1 -1 1 -1 0 -1 1 -1 1 -1 1 
-1 0 -1 1 -1 1 -1 0 -1 1 -1 1 -1 1 -1 1 
-1 0 -1 1 -1 1 -1 1 -1 1 -1 0 -1 1 -1 1 
-1 1 -1 0 -1 1 1834 1818 300 MP stroke
-1 1 -1 0 -1 1 -1 1 -1 1 -1 1 -1 0 -1 1 
-1 1 -1 1 -1 1 -1 0 -1 1 -1 1 -1 1 -1 0 
-1 1 -1 1 -1 1 -1 0 -1 1 -1 1 -1 1 -1 1 
-1 0 -1 1 -1 1 -1 1 -1 0 -1 1 -1 1 -1 1 
-1 1 -1 1 -1 0 -1 1 -1 1 -1 1 -1 0 -1 1 
-1 1 -1 1 -1 1 -1 0 -1 1 -1 1 -1 1 -1 0 
-1 1 -1 1 -1 1 -1 1 -1 1 -1 0 -1 1 -1 1 
-1 1 -1 0 -1 1 -1 1 -1 1 -1 1 -1 1 -1 0 
-1 1 -1 1 -1 0 -1 1 -1 1 -1 1 -1 1 -1 1 
-1 0 -1 1 -1 1 -1 1 -1 1 -1 1 -1 0 -1 1 
-1 1 -1 1 -1 1 -1 1 -1 0 -1 1 -1 1 -1 1 
-1 0 -1 1 -1 1 -1 1 -1 1 -1 0 -1 1 -1 1 
-1 1 -1 1 -1 0 -1 1 -1 1 -1 1 -1 1 -1 1 
-1 0 -1 1 -1 1 -1 1 -1 1 -1 1 -1 0 -1 1 
-1 1 -1 1 -1 1 -1 0 -1 1 -1 1 -1 1 -1 1 
-1 1 -1 0 -1 1 -1 1 -1 1 -1 1 -1 1 -1 1 
-1 0 -1 1 -1 1 -1 1 -1 1 -1 1 -1 0 -1 1 
-1 1 -1 1 -1 1 -1 1 -1 1 -1 0 -1 1 -1 1 
-1 1 -1 1 -1 0 -1 1 -1 1 -1 1 -1 1 -1 1 
-1 0 -1 1 -1 1 -1 1 -1 1 -1 1 -1 1 -1 1 
-1 0 -1 1 -1 1 -1 1 -1 1 -1 1 -1 1 -1 0 
-1 1 -1 1 -1 1 -1 1 -1 1 -1 0 -1 1 -1 1 
-1 1 -1 1 -1 0 -1 1 -1 1 -1 1 -1 1 -1 1 
-1 1 -1 1 -1 1 -1 1 -1 1 -1 0 -1 1 -1 1 
-1 1 -1 1 -1 0 -1 1 -1 1 -1 1 -1 1 -1 1 
-1 1 -1 0 -1 1 -1 1 -1 1 -1 1 -1 1 -1 1 
-1 1 -1 1 -1 0 -1 1 -1 1 -1 1 -1 1 -1 1 
-1 0 -1 1 -1 1 -1 1 -1 1 -1 1 -1 1 -1 1 
-1 1 -1 0 -1 1 -1 1 -1 1 -1 1 -1 1 -1 1 
-1 1 -1 0 -1 1 -1 1 -1 1 -1 1 -1 1 -1 1 
-1 1 1 0 1 -1 1 -1 1 -1 1 -1 1 -1 1 -1 
1 -1 -1 0 -1 1 -1 1 -1 1 -1 1 -1 1 -1 1 
-1 1 -1 0 -1 1 -1 1 -1 1 -1 1 -1 1 -1 1 
-1 1 -1 1 -1 1 -1 1 -1 1 -1 0 -1 1 -1 1 
-1 1 -1 1 -1 1 -1 1 -1 1 -1 0 -1 1 -1 1 
-1 1 -1 1 -1 1 -1 1 -1 1 -1 1 -1 1 -1 1 
-1 0 -1 1 -1 1 -1 1 -1 1 -1 1 -1 1 -1 1 
-1 1 -1 1 -1 1 2117 1580 300 MP stroke
-1 0 -1 1 -1 1 -1 1 -1 1 -1 1 -1 1 -1 1 
-1 0 1 0 -2 2 -1 1 -1 1 -1 0 -1 1 -1 1 
-1 1 -1 1 -1 1 -1 1 -1 0 0 1 -2 2 -1 1 
-1 0 -1 1 -1 1 -1 1 -1 1 -1 1 -1 1 -1 1 
-1 0 0 1 -2 2 -1 1 -1 1 -1 0 -1 1 -1 1 
-1 1 -1 1 -1 1 -1 1 -1 1 -1 0 1 0 -2 2 
-1 1 -1 1 -1 0 -1 1 -1 1 -1 1 -1 1 -1 1 
-1 1 -1 1 -1 1 -1 1 -1 1 -1 1 -1 1 -1 1 
-1 0 -1 1 -1 1 -1 1 -1 1 -1 1 -1 1 -1 1 
-1 1 -1 1 -1 1 -1 1 -1 1 -1 1 -1 0 -1 1 
0 1 -2 2 -1 1 -1 0 -1 1 -1 1 -1 1 -1 1 
-1 1 -1 1 -1 1 -1 1 -1 1 -1 1 -1 1 -1 1 
-1 1 -1 1 -1 0 -1 1 -1 1 -1 1 -1 1 -1 1 
-1 1 -1 1 -1 1 -1 1 -1 1 -1 1 -1 1 -1 1 
-1 1 -1 1 -1 0 1 0 -2 2 -1 1 -1 1 -1 1 
-1 1 -1 0 -1 1 -1 1 -1 1 -1 1 -1 1 -1 1 
-1 1 -1 1 -1 1 -1 1 -1 1 -1 1 -1 1 -1 1 
-1 1 -1 1 -1 1 -1 1 -1 1 -1 1 -1 1 -1 1 
-1 1 -1 1 -1 0 -1 1 0 1 -2 2 -1 1 -1 1 
-1 0 -1 1 -1 1 -1 1 -1 1 -1 1 -1 1 -1 1 
-1 1 -1 1 -1 1 -1 1 -1 1 -1 1 -1 1 -1 1 
-1 1 -1 1 -1 1 -1 1 -1 1 -1 1 -1 1 -1 1 
-1 1 -1 1 -1 1 -1 1 -1 1 -1 1 -1 1 -1 1 
-1 1 -1 1 -1 1 -1 1 -1 1 -1 1 -1 0 -1 1 
0 1 -2 2 -1 1 -1 1 -1 1 -1 1 -1 1 -1 0 
-1 1 -1 1 0 1 -2 2 -1 1 -1 1 -1 1 -1 1 
-1 1 -1 0 -1 1 -1 1 -1 1 0 1 -2 2 -1 1 
-1 1 -1 1 -1 1 -1 0 -1 1 -1 1 -1 1 -1 1 
0 1 -2 2 -1 1 -1 1 -1 1 -1 1 -1 0 -1 1 
-1 1 -1 1 0 1 -2 2 -1 1 -1 1 -1 1 -1 1 
-1 1 -1 1 -1 0 -1 1 -1 1 0 1 -2 2 -1 1 
-1 1 -1 1 -1 1 -1 1 -1 1 -1 1 -1 1 -1 1 
-1 1 -1 1 -1 1 -1 1 -1 1 -1 1 -1 1 -1 1 
-1 1 -1 1 -1 1 -1 1 -1 1 -1 1 -1 1 -1 1 
-1 1 -1 1 -1 1 -1 1 -1 1 -1 1 -1 1 -1 1 
-1 1 -1 1 -1 1 -1 1 -1 1 -1 1 0 1 -2 2 
-1 1 -1 1 -1 1 -1 1 -1 1 -1 1 -1 1 -1 1 
-1 0 1 0 -2 2 2412 1294 300 MP stroke
-1 1 -1 1 -1 1 -1 1 -1 1 -1 1 -1 1 -1 1 
-1 1 -1 1 -1 1 -1 1 -1 1 -1 1 -1 1 -1 1 
-1 1 -1 1 0 1 -2 2 -1 1 -1 1 -1 1 -1 1 
-1 1 -1 1 -1 1 -1 1 -1 1 -1 1 -1 1 -1 1 
-1 1 -1 1 -1 1 -1 1 -1 1 -1 1 0 1 -2 2 
-1 1 -1 1 -1 1 -1 1 -1 1 -1 1 -1 1 -1 1 
-1 1 -1 1 -1 1 -1 1 -1 1 -1 1 -1 1 -1 1 
-1 1 -1 1 0 1 -2 2 -1 1 -1 1 -1 1 -1 1 
-1 1 -1 1 -1 1 -1 1 -1 1 -1 1 -1 1 -1 1 
-1 1 -1 1 -1 1 -1 1 -1 1 0 1 -2 2 -1 1 
-1 1 -1 1 -1 1 -1 1 -1 1 -1 1 -1 1 -1 1 
-1 1 0 1 -2 2 -1 1 -1 1 -1 1 -1 1 -1 1 
-1 1 -1 1 -1 1 -1 1 -1 1 -1 1 -1 1 -1 1 
-1 1 -1 1 0 1 -2 2 -1 1 -1 1 -1 1 -1 1 
-1 1 -1 1 -1 1 -1 1 0 1 -2 2 -1 1 -1 1 
-1 1 -1 1 -1 1 -1 1 -1 1 -1 1 -1 1 -1 1 
-1 1 -1 1 0 1 -2 2 -1 1 -1 1 -1 1 -1 1 
-1 1 -1 1 -1 1 -1 1 -1 1 -1 1 -1 1 -1 1 
0 1 -2 2 -1 1 -1 1 -1 1 -1 1 -1 1 -1 1 
-1 1 -1 1 0 1 -2 2 -1 1 -1 1 -1 1 -1 1 
-1 1 -1 1 -1 1 -1 1 0 1 -2 2 -1 1 -1 1 
-1 1 -1 1 -1 1 -1 1 -1 1 0 1 -2 2 -1 1 
-1 1 -1 1 -1 1 -1 1 -1 1 -1 1 0 1 -2 2 
-1 1 -1 1 -1 1 -1 1 -1 1 -1 1 -1 1 0 1 
-2 2 -1 1 -1 1 -1 1 -1 1 -1 1 -1 1 -1 1 
-1 1 0 1 -2 2 -1 1 -1 1 -1 1 -1 1 -1 1 
-1 1 -1 1 0 1 -2 2 -1 1 -1 1 -1 1 -1 1 
-1 1 -1 1 -1 1 0 1 -2 2 -1 1 -1 1 -1 1 
-1 1 -1 1 -1 1 -1 1 0 1 -2 2 -1 1 -1 1 
-1 1 -1 1 -1 1 -1 1 -1 1 0 1 -2 2 -1 1 
-1 1 -1 1 -1 1 -1 1 -1 1 0 1 -2 2 -1 1 
-1 1 -1 1 -1 1 -1 1 0 1 -2 2 -1 1 -1 1 
-1 1 -1 1 0 1 -2 2 -1 1 -1 1 -1 1 -1 1 
-1 1 0 1 -1 1 -1 1 -1 1 -1 1 -1 1 -1 1 
-1 1 0 1 -2 2 -1 1 -1 1 -1 1 -1 1 -1 1 
-1 1 -1 1 0 1 -2 2 -1 1 -1 1 -1 1 -1 1 
0 1 -2 2 -1 1 -1 1 -1 1 -1 1 -1 1 -1 1 
0 1 -2 2 -1 1 2710 969 300 MP stroke
-1 1 -1 1 -1 1 0 1 -2 2 -1 1 -1 1 -1 1 
-1 1 -1 1 0 1 -2 2 -1 1 -1 1 -1 1 -1 1 
0 1 -2 2 -1 1 -1 1 -1 1 -1 1 0 1 -2 2 
-1 1 -1 1 -1 1 -1 1 -1 1 -1 1 0 1 -2 2 
-1 1 -1 1 -1 1 0 1 -2 2 -1 1 -1 1 -1 1 
-1 1 0 1 -2 2 -1 1 -1 1 -1 1 -1 1 -1 1 
0 1 -2 2 -1 1 -1 1 0 1 -2 2 -1 1 -1 1 
-1 1 -1 1 -1 1 0 1 -2 2 -1 1 -1 1 -1 1 
-1 1 0 1 -2 2 -1 1 -1 1 -1 1 0 1 -2 2 
-1 1 -1 1 -1 1 -1 1 0 1 -2 2 -1 1 -1 1 
-1 1 0 1 -2 2 -1 1 -1 1 -1 1 -1 1 0 1 
-2 2 -1 1 -1 1 -1 1 -1 1 -1 1 0 1 -2 2 
-1 1 -1 1 -1 1 -1 1 0 1 -2 2 -1 1 -1 1 
-1 1 0 1 -2 2 -1 1 -1 1 -1 1 0 1 -2 2 
-1 1 -1 1 -1 1 -1 1 0 1 -2 2 -1 1 -1 1 
-1 1 -1 1 1 0 1 -1 1 -1 0 -1 2 -2 1 -1 
1 -1 1 -1 1 -1 0 -1 2 -2 1 -1 1 -1 1 -1 
0 -1 2 -2 1 -1 1 -1 1 -1 0 -1 2 -2 1 -1 
1 -1 1 -1 1 -1 0 -1 2 -2 1 -1 1 -1 1 -1 
0 -1 2 -2 1 -1 1 -1 1 -1 1 -1 0 -1 2 -2 
1 -1 1 -1 1 -1 0 -1 2 -2 1 -1 1 -1 1 -1 
1 -1 0 -1 2 -2 1 -1 1 -1 1 -1 1 -1 0 -1 
2 -2 1 -1 1 -1 1 -1 0 -1 2 -2 1 -1 1 -1 
1 -1 1 -1 1 -1 0 -1 2 -2 1 -1 1 -1 1 -1 
1 -1 0 -1 2 -2 1 -1 1 -1 1 -1 1 -1 0 -1 
2 -2 1 -1 1 -1 1 -1 1 -1 0 -1 2 -2 1 -1 
1 -1 1 -1 1 -1 0 -1 2 -2 1 -1 1 -1 1 -1 
1 -1 0 -1 2 -2 1 -1 1 -1 1 -1 1 -1 1 -1 
0 -1 2 -2 1 -1 1 -1 1 -1 1 -1 1 -1 0 -1 
2 -2 1 -1 1 -1 1 -1 1 -1 0 -1 2 -2 1 -1 
1 -1 1 -1 1 -1 0 -1 2 -2 1 -1 1 -1 1 -1 
1 -1 1 -1 1 -1 0 -1 2 -2 1 -1 1 -1 1 -1 
1 -1 1 -1 0 -1 2 -2 1 -1 1 -1 1 -1 1 -1 
1 -1 0 -1 2 -2 1 -1 1 -1 1 -1 1 -1 1 -1 
0 -1 2 -2 1 -1 1 -1 1 -1 1 -1 1 -1 0 -1 
2 -2 1 -1 1 -1 1 -1 1 -1 1 -1 1 -1 0 -1 
2 -2 1 -1 1 -1 1 -1 1 -1 1 -1 1 -1 0 -1 
2 -2 1 -1 1 -1 2655 1031 300 MP stroke
1 -1 1 -1 1 -1 1 -1 0 -1 2 -2 1 -1 1 -1 
1 -1 1 -1 1 -1 0 -1 2 -2 1 -1 1 -1 1 -1 
1 -1 1 -1 1 -1 0 -1 2 -2 1 -1 1 -1 1 -1 
1 -1 1 -1 1 -1 1 -1 0 -1 2 -2 1 -1 1 -1 
1 -1 1 -1 1 -1 1 -1 0 -1 2 -2 1 -1 1 -1 
1 -1 1 -1 1 -1 1 -1 1 -1 0 -1 2 -2 1 -1 
1 -1 1 -1 1 -1 1 -1 1 -1 1 -1 1 -1 0 -1 
2 -2 1 -1 1 -1 1 -1 1 -1 1 -1 1 -1 1 -1 
1 -1 0 -1 2 -2 1 -1 1 -1 1 -1 1 -1 1 -1 
1 -1 1 -1 0 -1 2 -2 1 -1 1 -1 1 -1 1 -1 
1 -1 1 -1 1 -1 1 -1 1 -1 0 -1 2 -2 1 -1 
1 -1 1 -1 1 -1 1 -1 1 -1 1 -1 1 -1 1 -1 
0 -1 2 -2 1 -1 1 -1 1 -1 1 -1 1 -1 1 -1 
1 -1 1 -1 1 -1 0 -1 2 -2 1 -1 1 -1 1 -1 
1 -1 1 -1 1 -1 1 -1 1 -1 1 -1 1 -1 0 -1 
2 -2 1 -1 1 -1 1 -1 1 -1 1 -1 1 -1 1 -1 
1 -1 1 -1 1 -1 1 -1 0 -1 2 -2 1 -1 1 -1 
1 -1 1 -1 1 -1 1 -1 1 -1 1 -1 1 -1 1 -1 
0 -1 2 -2 1 0 -1 0 2 -2 1 -1 1 -1 1 -1 
1 -1 1 -1 1 -1 1 -1 1 -1 1 -1 1 -1 1 -1 
0 -1 2 -2 1 -1 1 -1 1 -1 1 -1 1 -1 1 -1 
1 -1 1 -1 1 -1 1 -1 1 -1 1 -1 1 -1 0 -1 
2 -2 1 0 -1 0 2 -2 1 -1 1 -1 1 -1 1 -1 
1 -1 1 -1 1 -1 1 -1 1 -1 1 -1 1 -1 1 -1 
1 -1 1 -1 0 -1 2 -2 1 0 -1 0 2 -2 1 -1 
1 -1 1 -1 1 -1 1 -1 1 -1 1 -1 1 -1 1 -1 
1 -1 1 -1 1 -1 1 -1 1 -1 1 -1 1 -1 1 -1 
0 -1 2 -2 1 0 -1 0 2 -2 1 -1 1 -1 1 -1 
1 -1 1 -1 1 -1 1 -1 1 -1 1 -1 1 -1 1 -1 
1 -1 1 -1 1 -1 1 -1 1 -1 1 -1 1 -1 1 -1 
1 -1 1 -1 0 -1 2 -2 1 0 -1 0 2 -2 1 -1 
1 -1 1 -1 1 -1 1 -1 1 -1 1 -1 1 -1 1 -1 
1 -1 1 -1 1 -1 1 -1 1 -1 1 -1 1 -1 1 -1 
1 -1 1 -1 1 -1 1 -1 1 -1 1 -1 1 -1 1 -1 
1 -1 1 -1 1 -1 1 -1 1 -1 1 -1 1 -1 1 -1 
1 -1 1 -1 1 -1 0 -1 2 -2 1 0 -1 0 2 -2 
1 -1 1 0 -1 0 2 -2 1 -1 1 -1 1 -1 1 -1 
1 -1 1 -1 1 -1 2363 1344 300 MP stroke
1 -1 1 -1 1 -1 1 -1 1 -1 1 -1 1 -1 1 -1 
1 -1 1 -1 1 -1 1 -1 1 -1 1 -1 1 -1 1 -1 
1 -1 1 -1 1 -1 1 -1 1 -1 1 -1 1 -1 1 -1 
1 -1 1 -1 1 -1 1 -1 1 -1 1 -1 1 -1 1 -1 
1 -1 1 -1 1 -1 1 -1 1 -1 1 -1 1 -1 1 -1 
1 -1 1 -1 1 -1 1 -1 1 -1 1 -1 1 -1 1 -1 
1 -1 1 -1 1 -1 1 -1 1 -1 1 -1 1 -1 1 -1 
1 -1 1 -1 1 -1 1 -1 1 -1 1 -1 1 -1 1 -1 
1 -1 1 -1 1 -1 1 -1 1 -1 1 -1 1 -1 1 0 
0 -1 2 -2 1 0 1 -1 1 -1 1 -1 1 -1 1 -1 
1 -1 1 -1 1 -1 1 -1 1 -1 1 -1 1 -1 1 -1 
1 -1 1 -1 1 -1 1 -1 1 -1 1 -1 1 -1 1 -1 
1 -1 1 -1 1 -1 1 -1 1 -1 1 -1 1 -1 1 -1 
1 -1 1 -1 1 -1 1 -1 1 -1 1 -1 1 -1 1 0 
1 -1 1 -1 1 -1 1 -1 1 -1 1 -1 1 -1 1 -1 
1 -1 1 -1 1 -1 1 -1 1 -1 1 -1 1 -1 1 -1 
1 -1 1 -1 1 -1 1 -1 1 -1 1 -1 1 -1 1 -1 
1 -1 1 0 1 -1 1 -1 1 -1 1 -1 1 -1 1 -1 
1 -1 1 -1 1 -1 1 -1 1 -1 1 -1 1 -1 1 -1 
1 -1 1 -1 1 -1 1 -1 1 -1 1 0 1 -1 1 -1 
1 -1 1 -1 1 -1 1 -1 1 -1 1 -1 1 -1 1 -1 
1 -1 1 -1 1 -1 1 -1 1 -1 1 -1 1 -1 1 0 
1 -1 1 -1 1 -1 1 -1 1 -1 1 -1 1 -1 1 -1 
1 -1 1 -1 1 -1 1 -1 1 -1 1 0 1 -1 1 -1 
1 -1 1 -1 1 -1 1 -1 1 -1 1 -1 1 -1 1 -1 
1 -1 1 -1 1 -1 1 -1 1 0 1 -1 1 -1 1 -1 
1 -1 1 -1 1 -1 1 -1 1 -1 1 -1 1 -1 1 -1 
1 0 1 -1 1 -1 1 -1 1 -1 1 -1 1 -1 1 -1 
1 -1 1 -1 1 -1 1 -1 1 0 1 -1 1 -1 1 -1 
1 -1 1 -1 1 -1 1 -1 1 -1 1 -1 1 -1 1 -1 
1 0 -1 0 2 -2 1 0 1 -1 1 -1 1 -1 1 -1 
1 -1 1 -1 1 -1 1 -1 1 0 1 -1 1 -1 1 -1 
1 -1 1 -1 1 -1 -1 0 -1 1 -1 1 -1 1 -1 1 
-1 1 -1 1 -1 1 -1 1 -1 1 -1 1 -1 1 -1 0 
-1 1 -1 1 -1 1 -1 1 -1 1 -1 1 -1 1 -1 0 
1 0 -2 2 -1 1 -1 1 -1 0 -1 1 -1 1 -1 1 
-1 1 -1 1 -1 1 -1 1 -1 1 -1 0 -1 1 -1 1 
-1 1 -1 1 -1 1 2144 1556 300 MP stroke
-1 1 -1 1 -2 2 -1 1 -1 1 -1 1 -1 1 -1 1 
-2 1 -1 1 -1 1 -1 1 -2 2 -1 1 -1 1 -1 1 
-2 1 -1 1 -1 2 -1 1 -2 1 -1 1 -1 1 -2 2 
-1 1 -1 1 -1 1 -2 1 -1 2 -1 1 -1 1 -2 1 
-1 1 -1 1 -1 2 -2 1 -1 1 -1 1 -1 1 -2 1 
-1 1 -1 1 -1 2 -1 1 -1 1 -1 1 -1 1 -1 1 
-1 1 -1 1 -1 0 -1 1 -1 1 -1 1 -1 1 -1 1 
-1 1 -1 1 -1 0 -1 1 -1 1 -1 1 0 1 0 0 
1 -1 1 -1 1 -1 1 -1 1 -1 1 -1 1 -1 1 -1 
1 -1 2 -2 1 -1 2 -1 1 -2 2 -1 2 -2 1 -2 
2 -2 2 -2 3 -2 2 -2 2 -2 3 -2 2 -3 3 -2 
3 -3 3 -2 3 -3 3 -3 3 -3 3 -3 4 -3 3 -4 
4 -3 4 -3 4 -4 4 -4 4 -3 4 -4 4 -4 5 -4 
4 -5 5 -4 5 -4 5 -5 5 -4 5 -5 6 -5 5 -5 
6 -5 5 -5 6 -5 6 -5 6 -5 7 -6 6 -5 6 -6 
7 -6 7 -5 6 -6 7 -6 7 -6 8 -6 7 -6 7 -7 
8 -6 7 -6 8 -7 8 -6 8 -7 8 -6 8 -7 8 -7 
9 -6 8 -7 9 -7 9 -7 8 -7 9 -7 9 -7 9 -7 
9 -7 9 -7 10 -7 9 -7 9 -7 10 -7 9 -7 10 -7 
10 -7 9 -7 10 -7 10 -7 10 -7 9 -7 10 -7 10 -7 
10 -7 10 -6 10 -7 10 -7 10 -7 10 -6 10 -7 10 -6 
10 -7 10 -6 10 -6 10 -6 10 -6 10 -6 10 -6 10 -6 
9 -6 10 -5 10 -6 9 -5 9 -6 10 -5 9 -5 9 -5 
9 -5 9 -5 9 -4 9 -5 9 -4 8 -5 8 -4 9 -4 
8 -4 7 -4 8 -4 8 -3 7 -4 7 -3 7 -3 7 -3 
7 -3 6 -3 6 -3 6 -2 6 -3 6 -2 5 -2 5 -3 
5 -2 5 -1 4 -2 4 -2 4 -1 3 -2 4 -1 3 -1 
2 -1 3 -1 2 -1 2 -1 1 0 1 -1 1 0 1 0 
0 552 1233 1619 226 MP stroke
/c10 { 0.000000 1.000000 0.000000 sr} bdef
c10
-1 -110 -1 0 -2 0 -1 1 -2 0 -1 0 -2 1 -1 0 
-2 0 -1 1 -2 0 -1 0 -1 1 -2 0 -1 0 -2 1 
-1 0 -1 1 -2 0 -1 0 -2 1 -1 0 -1 0 -2 1 
-1 0 -1 0 -2 1 -1 0 -2 1 -1 0 -1 0 -1 1 
-2 0 -1 0 -1 1 -2 0 -1 0 -1 1 -2 0 -1 1 
-1 0 -2 0 -1 1 -1 0 -1 1 -2 0 -1 0 -1 1 
-1 0 -2 0 -1 1 -1 0 -1 1 -2 0 -1 0 -1 1 
-1 0 -2 1 -1 0 -1 0 -1 1 -1 0 -2 1 -1 0 
-1 0 -1 1 -1 0 -2 1 -1 0 -1 0 -1 1 -1 0 
-2 1 -1 0 -1 0 -1 1 -1 0 -2 1 -1 0 -1 0 
-1 1 -1 0 -1 1 -2 0 -1 0 -1 1 -1 0 -1 1 
-1 0 -1 1 -2 0 -1 0 -1 1 -1 0 -1 1 -1 0 
-1 0 -2 1 -1 0 -1 1 -1 0 -1 1 -1 0 -1 0 
-1 1 -2 0 -1 1 -1 0 -1 1 -1 0 -1 0 -1 1 
-1 0 -1 1 -2 0 -1 1 -1 0 -1 0 -1 1 -1 0 
-1 1 -1 0 -1 1 -1 0 -1 0 -1 1 -2 0 -1 1 
-1 0 -1 1 -1 0 -1 0 -1 1 -1 0 -1 1 -1 0 
-1 1 -1 0 -1 0 -1 1 -1 0 -1 1 -1 0 -1 1 
-1 0 -1 1 -2 0 -1 0 -1 1 -1 0 -1 1 -1 0 
-1 1 -1 0 -1 0 -1 1 -1 0 -1 1 -1 0 -1 1 
-1 0 -1 0 -1 1 -1 0 -1 1 -1 0 -1 1 -1 0 
-1 1 -1 0 -1 1 -1 0 -1 1 -1 0 -1 0 -1 1 
-1 0 -1 1 -1 0 -1 1 -1 0 -1 0 -1 1 -1 0 
-1 1 -1 1 -1 0 -1 0 -1 1 -1 0 -1 1 -1 0 
-1 1 -1 0 -1 1 -1 0 -1 0 -1 1 -1 1 -1 0 
-1 0 -1 1 -1 0 -1 1 -1 0 -1 1 -1 0 -1 1 
-1 0 -1 1 -1 0 -1 1 -1 0 -1 0 -1 1 -1 1 
-1 0 -1 1 -1 0 -1 1 -1 0 -1 0 -1 1 -1 0 
-1 1 -1 0 -1 1 -1 0 -1 1 -1 0 -1 1 -1 0 
-1 1 -1 0 -1 1 -1 0 -1 1 -1 0 -1 1 -1 0 
-1 1 -1 0 -1 1 -1 0 -1 1 -1 0 -1 1 -1 0 
-1 1 -1 0 -1 1 -1 0 -1 1 -1 0 -1 1 -1 0 
-1 1 -1 0 1 0 0 0 1 0 1 -1 1 0 1 -1 
1 0 1 -1 1 0 1 -1 1 0 1 -1 1 0 1 -1 
1 0 1 -1 1 0 -1 0 -1 0 -1 1 -1 0 -1 1 
-1 0 -1 1 -1 0 -1 1 -1 0 -1 1 -1 0 -1 1 
-1 0 -1 1 -1 1 -1 0 -1 1 -1 0 -1 1 -1 0 
-1 1 -1 0 -1 1 1530 1614 300 MP stroke
-1 0 -1 1 -1 0 -1 1 -1 0 -1 1 -1 1 -1 0 
-1 1 -1 0 -1 1 -1 0 -1 1 -1 0 -1 1 -1 0 
-1 1 -1 0 -1 1 -1 1 -1 0 -1 1 -1 0 -1 0 
-1 1 -1 1 -1 0 -1 1 -1 0 -1 1 -1 1 -1 0 
-1 1 -1 0 -1 1 -1 0 -1 1 -1 1 -1 0 -1 1 
-1 0 -1 1 -1 0 -1 1 -1 1 -1 0 -1 1 -1 0 
-1 1 -1 0 -1 1 -1 0 -1 1 -1 1 -1 0 -1 1 
-1 0 -1 1 -1 0 -1 1 -1 0 -1 1 -1 1 -1 0 
-1 1 -1 0 -1 1 -1 0 -1 1 -1 1 -1 0 -1 1 
-1 0 -1 1 -1 0 -1 1 -1 0 -1 1 -1 1 -1 0 
-1 1 -1 0 -1 1 -1 0 -1 1 -1 1 -1 1 -1 0 
-1 1 -1 0 -1 1 -1 1 -1 0 -1 1 -1 0 -1 1 
-1 1 -1 0 -1 1 -1 0 -1 1 -1 0 -1 1 -1 1 
-1 0 -1 1 -1 0 -1 1 -1 1 -1 0 -1 1 -1 0 
-1 1 -1 1 -1 0 -1 1 -1 0 -1 1 -1 1 -1 0 
-1 1 -1 1 -1 0 -1 1 -1 1 -1 0 -1 1 -1 0 
-1 1 -1 1 -1 0 -1 1 -1 0 -1 1 -1 1 -1 0 
-1 1 -1 0 -1 1 -1 1 -1 0 -1 1 -1 1 -1 0 
-1 1 -1 0 -1 1 -1 1 -1 0 -1 1 -1 0 1 0 
-2 2 -1 0 -1 1 -1 0 -1 1 -1 1 -1 0 -1 1 
-1 1 -1 0 -1 1 -1 0 -1 1 -1 1 -1 0 -1 1 
-1 1 -1 0 -1 1 -1 0 -1 1 -1 1 -1 0 -1 1 
-1 1 -1 0 -1 1 -1 1 -1 1 -1 0 -1 1 -1 0 
-1 1 -1 1 -1 0 -1 1 -1 1 -1 0 -1 1 -1 1 
-1 0 -1 1 -1 0 -1 1 -1 1 -1 0 -1 1 -1 1 
-1 0 -1 1 -1 1 -1 1 -1 0 -1 1 -1 1 -1 0 
-1 1 -1 1 -1 0 -1 1 -1 1 -1 0 -1 1 -1 1 
-1 0 -1 1 -1 1 -1 0 -1 1 -1 1 -1 0 -1 1 
-1 0 -1 1 -1 1 -1 1 -1 1 -1 0 -1 1 -1 1 
-1 0 -1 1 -1 1 -1 0 -1 1 -1 1 -1 0 -1 1 
-1 1 -1 0 -1 1 -1 1 -1 0 -1 1 -1 1 -1 1 
-1 0 -1 1 -1 1 -1 0 -1 1 -1 1 -1 0 -1 1 
-1 1 -1 1 -1 0 -1 1 -1 1 -1 0 -1 1 -1 1 
-1 0 -1 1 -1 1 -1 0 -1 1 -1 1 -1 1 -1 1 
-1 0 -1 1 -1 1 -1 0 -1 1 -1 1 -1 0 -1 1 
-1 1 -1 0 -1 1 -1 1 -1 0 -1 1 -1 1 -1 1 
-1 1 -1 0 -1 1 -1 1 -1 1 -1 0 -1 1 -1 1 
-1 0 -1 1 -1 1 1828 1426 300 MP stroke
-1 0 -1 1 -1 1 -1 1 -1 0 -1 1 -1 1 -1 1 
-1 1 -1 0 -1 1 -1 1 -1 0 -1 1 -1 1 -1 0 
-1 1 -1 1 -1 1 -1 0 -1 1 -1 1 -1 0 -1 1 
-1 1 -1 1 -1 1 -1 0 -1 1 -1 1 -1 1 -1 0 
-1 1 -1 1 -1 0 -1 1 -1 1 -1 1 -1 0 -1 1 
-1 1 -1 1 -1 0 -1 1 -1 1 -1 1 -1 1 -1 0 
-1 1 -1 1 -1 1 -1 0 -1 1 -1 1 -1 0 -1 1 
-1 1 -1 1 -1 0 -1 1 -1 1 -1 1 -1 1 -1 1 
-1 0 -1 1 -1 1 -1 0 -1 1 -1 1 -1 1 -1 0 
-1 1 -1 1 -1 1 -1 0 1 0 -2 2 -1 0 -1 1 
-1 1 -1 1 -1 0 -1 1 -1 1 -1 0 -1 1 -1 1 
-1 1 -1 0 -1 1 -1 1 -1 1 -1 0 1 0 -2 2 
-1 0 -1 1 -1 1 -1 1 -1 0 -1 1 -1 1 -1 1 
-1 0 -1 1 -1 1 -1 1 -1 0 -1 1 -1 1 -1 1 
-1 1 -1 1 -1 1 -1 0 -1 1 -1 1 -1 1 -1 0 
-1 1 -1 1 -1 1 -1 0 -1 1 -1 1 -1 1 -1 1 
-1 1 -1 0 -1 1 -1 1 -1 1 -1 0 -1 1 -1 1 
-1 1 -1 1 -1 0 -1 1 -1 1 -1 1 -1 1 -1 1 
-1 0 -1 1 -1 1 -1 1 -1 1 -1 0 -1 1 -1 1 
-1 1 -1 0 -1 1 -1 1 -1 1 -1 1 -1 1 -1 1 
-1 0 -1 1 -1 1 -1 1 -1 0 -1 1 -1 1 -1 1 
-1 1 -1 0 -1 1 -1 1 -1 1 -1 1 -1 1 -1 1 
-1 0 -1 1 -1 1 -1 1 -1 1 -1 0 -1 1 -1 1 
-1 1 -1 0 1 0 -2 2 -1 1 -1 0 -1 1 -1 1 
-1 1 -1 1 -1 0 -1 1 -1 1 -1 1 -1 1 -1 0 
-1 1 -1 1 -1 1 -1 1 -1 1 -1 1 -1 0 -1 1 
-1 1 -1 1 -1 1 -1 0 -1 1 -1 1 -1 1 -1 1 
-1 1 -1 1 -1 1 -1 0 -1 1 -1 1 -1 1 -1 1 
-1 0 -1 1 -1 1 -1 1 -1 1 -1 1 -1 1 -1 1 
-1 0 -1 1 -1 1 -1 1 -1 1 -1 0 -1 1 -1 1 
-1 1 -1 1 -1 1 -1 1 -1 1 -1 1 -1 0 -1 1 
-1 1 -1 1 -1 1 -1 0 -1 1 -1 1 -1 1 -1 1 
-1 1 -1 1 -1 1 -1 1 -1 0 -1 1 -1 1 -1 1 
-1 1 -1 0 -1 1 -1 1 -1 1 -1 1 -1 1 -1 1 
-1 1 -1 1 -1 0 -1 1 -1 1 -1 1 -1 1 -1 1 
-1 0 0 1 -2 2 -1 0 -1 1 -1 1 -1 1 -1 1 
-1 1 -1 1 -1 0 -1 1 -1 1 -1 1 -1 1 -1 1 
-1 1 -1 1 -1 1 2124 1187 300 MP stroke
-1 0 -1 1 -1 1 -1 1 -1 1 -1 1 -1 0 -1 1 
0 1 -2 2 -1 0 -1 1 -1 1 -1 1 -1 1 -1 1 
-1 0 -1 1 -1 1 -1 1 -1 1 -1 1 -1 1 -1 1 
-1 1 -1 1 -1 1 -1 0 -1 1 -1 1 -1 1 -1 1 
-1 1 -1 1 -1 1 -1 1 -1 1 -1 0 -1 1 -1 1 
-1 1 -1 1 -1 1 -1 1 -1 1 -1 0 0 1 -2 2 
-1 0 -1 1 -1 1 -1 1 -1 1 -1 1 -1 1 -1 1 
-1 0 -1 1 0 1 -2 2 -1 0 -1 1 -1 1 -1 1 
-1 1 -1 1 -1 1 -1 0 -1 1 -1 1 -1 1 -1 1 
-1 1 -1 1 -1 1 -1 1 -1 1 -1 1 -1 1 -1 1 
-1 0 -1 1 0 1 -2 2 -1 0 -1 1 -1 1 -1 1 
-1 1 -1 1 -1 1 -1 1 -1 0 -1 1 0 1 -2 2 
-1 1 -1 0 -1 1 -1 1 -1 1 -1 1 -1 1 -1 1 
-1 1 -1 1 -1 0 1 0 -2 2 -1 1 -1 1 -1 0 
-1 1 -1 1 -1 1 -1 1 -1 1 -1 1 -1 1 -1 1 
-1 1 -1 1 -1 1 -1 1 -1 1 -1 0 -1 1 -1 1 
-1 1 -1 1 -1 1 -1 1 -1 1 -1 1 -1 1 -1 1 
-1 1 -1 1 -1 1 -1 1 -1 0 0 1 -2 2 -1 1 
-1 1 -1 0 -1 1 -1 1 -1 1 -1 1 -1 1 -1 1 
-1 1 -1 1 -1 1 -1 1 -1 1 -1 1 -1 1 -1 1 
-1 1 -1 1 -1 0 0 1 -2 2 -1 1 -1 1 -1 1 
-1 0 -1 1 -1 1 -1 1 -1 1 -1 1 -1 1 -1 1 
-1 1 -1 1 -1 1 -1 1 -1 1 -1 1 -1 1 -1 1 
-1 1 -1 1 -1 1 -1 1 -1 1 -1 1 -1 1 -1 1 
-1 1 -1 0 -1 1 -1 1 -1 1 0 1 -2 2 -1 1 
-1 1 -1 0 -1 1 -1 1 -1 1 -1 1 -1 1 -1 1 
-1 1 -1 1 -1 1 -1 1 -1 1 -1 1 -1 1 -1 1 
-1 1 -1 1 -1 1 -1 1 -1 1 -1 1 -1 1 -1 1 
-1 1 -1 1 -1 1 -1 1 -1 1 -1 1 -1 1 -1 1 
-1 1 -1 1 -1 1 -1 1 -1 1 -1 1 -1 1 -1 1 
-1 1 -1 0 0 1 -2 2 -1 1 -1 1 -1 1 -1 1 
-1 1 -1 1 -1 1 -1 1 -1 1 -1 1 -1 0 -1 1 
0 1 -2 2 -1 1 -1 1 -1 1 -1 1 -1 1 -1 1 
-1 1 -1 0 0 1 -2 2 -1 1 -1 1 -1 1 -1 1 
-1 1 -1 1 -1 0 1 0 -2 2 -1 1 -1 1 -1 1 
-1 1 -1 1 -1 1 -1 1 -1 1 -1 1 -1 1 -1 1 
-1 1 -1 1 -1 1 -1 1 -1 1 -1 1 -1 1 -1 1 
-1 1 -1 1 -1 1 2421 905 300 MP stroke
-1 1 -1 1 -1 1 -1 1 -1 1 -1 1 -1 1 -1 1 
-1 1 -1 1 -1 1 -1 1 -1 1 0 1 -2 2 -1 0 
0 1 -2 2 -1 1 -1 0 0 1 -2 2 -1 0 0 1 
-2 2 -1 1 -1 0 1 0 -2 2 -1 1 -1 1 -1 1 
-1 1 -1 1 -1 1 -1 1 -1 1 -1 1 -1 1 -1 1 
-1 1 -1 1 -1 1 -1 1 -1 1 -1 1 -1 1 -1 1 
-1 1 -1 1 -1 1 -1 1 -1 1 0 1 -2 2 -1 1 
-1 1 -1 1 -1 0 1 0 -2 2 -1 1 -1 1 -1 1 
-1 1 -1 1 -1 1 -1 1 -1 1 -1 1 -1 1 -1 1 
-1 1 -1 1 -1 1 -1 1 -1 1 -1 1 1 0 1 -1 
1 -1 1 -1 1 -1 1 -1 1 -1 1 -1 1 -1 1 -1 
1 -1 1 -1 1 -1 0 -1 2 -2 1 -1 1 -1 1 -1 
1 -1 1 -1 1 -1 1 -1 1 -1 1 -1 1 -1 1 -1 
1 -1 1 -1 1 -1 1 -1 1 -1 1 -1 1 -1 1 -1 
1 -1 1 -1 1 -1 1 -1 1 -1 0 -1 2 -2 1 0 
-1 0 2 -2 1 -1 1 -1 1 -1 1 -1 1 -1 1 -1 
1 -1 1 -1 1 -1 1 -1 1 -1 1 -1 1 -1 1 -1 
1 -1 1 -1 1 -1 1 -1 1 -1 1 -1 1 -1 1 -1 
1 -1 1 -1 1 -1 1 -1 1 -1 1 -1 1 -1 1 -1 
1 -1 1 -1 1 -1 1 -1 1 -1 1 -1 1 -1 1 -1 
1 -1 0 -1 2 -2 1 0 0 -1 2 -2 1 -1 1 -1 
1 -1 1 -1 1 -1 1 -1 1 -1 1 -1 1 -1 1 -1 
1 -1 1 -1 1 -1 1 -1 1 -1 1 -1 1 -1 1 -1 
1 -1 1 -1 1 -1 1 -1 1 -1 1 -1 1 -1 1 -1 
1 -1 1 -1 1 -1 1 -1 1 -1 1 -1 1 -1 1 -1 
1 -1 1 -1 1 -1 1 -1 1 -1 1 -1 1 -1 1 -1 
1 -1 1 -1 1 -1 1 -1 1 -1 1 -1 1 -1 1 -1 
1 -1 1 -1 1 -1 1 -1 1 -1 1 0 -1 0 2 -2 
1 -1 1 0 0 -1 2 -2 1 -1 1 0 1 -1 1 -1 
1 -1 1 -1 1 -1 1 -1 1 -1 1 -1 1 -1 1 -1 
1 -1 1 -1 1 -1 1 -1 1 -1 1 -1 1 -1 1 -1 
1 -1 1 -1 1 -1 1 -1 1 -1 1 -1 1 -1 1 -1 
1 -1 1 -1 1 -1 1 -1 1 -1 1 -1 1 -1 1 -1 
1 -1 1 -1 1 -1 1 -1 1 0 -1 0 2 -2 1 -1 
1 0 1 -1 1 -1 1 -1 1 -1 1 -1 1 -1 1 -1 
1 -1 1 -1 1 -1 1 -1 1 -1 1 -1 1 -1 1 -1 
1 -1 1 -1 1 -1 1 -1 1 -1 1 -1 1 -1 1 -1 
1 0 1 -1 1 -1 2279 1044 300 MP stroke
1 -1 1 -1 1 -1 1 -1 1 -1 1 -1 1 -1 1 -1 
1 -1 1 -1 1 -1 1 -1 1 -1 1 -1 1 -1 1 -1 
1 -1 1 0 1 -1 1 -1 1 -1 1 -1 1 -1 1 -1 
1 -1 1 -1 1 -1 1 -1 1 -1 1 -1 1 -1 1 -1 
1 -1 1 -1 1 -1 1 -1 1 -1 1 0 1 -1 1 -1 
1 -1 1 -1 1 -1 1 -1 1 -1 1 -1 1 -1 1 -1 
1 -1 1 -1 1 -1 1 -1 1 0 1 -1 1 -1 1 -1 
1 -1 1 -1 1 -1 1 -1 1 -1 1 -1 1 -1 1 -1 
1 -1 1 -1 1 0 1 -1 1 -1 1 -1 1 -1 1 -1 
1 -1 1 -1 1 -1 1 -1 1 -1 1 -1 1 -1 1 0 
1 -1 1 -1 1 -1 1 -1 1 -1 1 -1 1 -1 1 -1 
1 -1 1 -1 1 0 1 -1 1 -1 1 -1 1 -1 1 -1 
1 -1 1 -1 1 -1 1 -1 1 -1 1 0 1 -1 1 -1 
1 -1 1 -1 1 -1 1 -1 1 -1 1 -1 1 -1 1 -1 
1 0 1 -1 1 -1 1 -1 1 -1 1 -1 1 -1 1 -1 
1 -1 1 -1 1 -1 1 0 1 -1 1 -1 1 -1 1 -1 
1 -1 1 -1 1 -1 1 -1 1 0 1 -1 1 -1 1 -1 
1 -1 1 -1 1 -1 1 -1 1 -1 1 0 1 -1 1 -1 
1 -1 1 -1 1 -1 1 -1 1 -1 1 -1 1 0 1 -1 
1 -1 1 -1 1 -1 1 -1 1 -1 1 -1 1 -1 1 0 
1 -1 1 -1 1 -1 1 -1 1 -1 1 -1 1 -1 1 0 
1 -1 1 -1 1 -1 1 -1 1 -1 1 -1 1 0 1 -1 
1 -1 1 -1 1 -1 1 -1 1 -1 1 -1 1 0 1 -1 
1 -1 1 -1 1 -1 1 -1 1 -1 1 -1 1 0 1 -1 
1 -1 1 -1 1 -1 1 -1 1 -1 1 0 1 -1 1 -1 
1 -1 1 -1 1 -1 1 -1 1 0 1 -1 1 -1 1 -1 
1 -1 1 -1 1 -1 1 -1 1 0 1 -1 1 -1 1 -1 
1 -1 1 -1 1 -1 1 0 1 -1 1 -1 1 -1 1 -1 
1 -1 1 0 1 -1 1 -1 1 -1 1 -1 1 -1 1 0 
1 -1 1 -1 1 -1 1 -1 1 -1 1 -1 1 0 1 -1 
1 -1 1 -1 1 -1 1 -1 1 0 1 -1 1 -1 1 -1 
1 -1 1 -1 1 -1 1 0 1 -1 1 -1 1 -1 1 -1 
1 0 1 -1 1 -1 1 -1 1 -1 1 -1 1 -1 1 0 
1 -1 1 -1 1 -1 1 -1 1 0 1 -1 1 -1 1 -1 
1 -1 1 -1 1 0 1 -1 1 -1 1 -1 1 -1 1 0 
1 -1 1 -1 1 -1 1 -1 1 -1 1 0 1 -1 1 -1 
1 -1 1 -1 1 -1 1 0 1 -1 1 -1 1 -1 1 0 
1 -1 1 -1 1 -1 1980 1309 300 MP stroke
1 -1 1 -1 1 0 1 -1 1 -1 1 -1 1 -1 1 -1 
1 0 1 -1 1 -1 1 -1 1 0 1 -1 1 -1 1 -1 
1 -1 1 0 1 -1 1 -1 1 -1 1 -1 1 0 1 -1 
1 -1 1 -1 1 -1 1 0 1 -1 1 -1 1 -1 1 -1 
1 0 1 -1 1 -1 1 -1 1 -1 1 0 1 -1 1 -1 
1 -1 1 -1 1 0 1 -1 1 -1 1 -1 1 0 1 -1 
1 -1 1 -1 1 -1 1 0 1 -1 1 -1 1 -1 1 0 
1 -1 1 -1 1 -1 1 -1 1 0 1 -1 1 -1 1 -1 
1 -1 1 0 1 -1 1 -1 1 -1 1 0 1 -1 1 -1 
1 -1 1 0 1 -1 1 -1 1 -1 1 -1 1 0 1 -1 
1 -1 1 -1 1 0 1 -1 1 -1 1 -1 1 0 1 -1 
1 -1 1 -1 1 0 1 -1 1 -1 1 -1 1 0 1 -1 
1 -1 1 -1 1 -1 1 0 1 -1 1 -1 1 -1 1 0 
1 -1 1 -1 1 -1 1 0 1 -1 1 -1 1 -1 1 0 
1 -1 1 -1 1 -1 1 0 1 -1 1 -1 1 -1 1 0 
1 -1 1 -1 1 -1 1 0 1 -1 1 -1 1 0 1 -1 
1 -1 1 -1 1 0 1 -1 1 -1 1 -1 1 0 1 -1 
1 -1 1 -1 1 0 1 -1 1 -1 1 -1 1 0 1 -1 
1 -1 1 0 1 -1 1 -1 1 -1 1 0 1 -1 1 -1 
1 -1 1 0 1 -1 1 -1 1 -1 1 0 1 -1 1 -1 
1 0 1 -1 1 -1 1 0 1 -1 1 -1 1 -1 1 0 
1 -1 1 -1 1 -1 1 0 1 -1 1 -1 1 0 1 -1 
1 -1 1 0 1 -1 1 -1 1 -1 1 0 1 -1 1 -1 
1 -1 1 0 1 -1 1 -1 1 0 1 -1 1 -1 1 0 
1 -1 1 -1 1 -1 1 0 1 -1 1 -1 1 0 1 -1 
1 -1 1 0 1 -1 1 -1 1 -1 1 0 1 -1 1 -1 
1 0 1 -1 1 -1 1 0 1 -1 1 -1 1 0 1 -1 
1 -1 1 0 1 -1 1 -1 1 -1 1 0 1 -1 1 -1 
1 0 1 -1 1 -1 1 0 1 -1 1 -1 1 0 1 -1 
1 -1 1 0 1 -1 1 -1 1 0 1 -1 1 -1 1 0 
1 -1 1 -1 1 -1 1 0 1 -1 1 0 1 -1 1 -1 
1 -1 1 0 1 -1 1 0 1 -1 1 -1 1 0 1 -1 
1 -1 1 0 1 -1 1 -1 1 0 1 -1 1 -1 1 0 
1 -1 1 -1 1 0 1 -1 1 -1 1 0 1 -1 1 -1 
1 0 1 -1 1 -1 1 0 1 -1 1 -1 1 0 1 -1 
1 0 1 -1 1 -1 1 0 1 -1 1 -1 1 0 1 -1 
1 -1 1 0 1 -1 1 -1 1 0 1 -1 1 0 1 -1 
1 -1 1 0 1 -1 1681 1526 300 MP stroke
1 -1 1 0 1 -1 1 -1 1 0 1 -1 1 0 1 -1 
1 -1 1 0 1 -1 1 -1 1 0 1 -1 1 -1 1 0 
1 -1 1 0 1 -1 1 -1 1 0 1 -1 1 -1 1 0 
1 -1 1 0 1 -1 1 -1 1 0 1 -1 1 0 1 -1 
1 -1 1 0 1 -1 1 0 1 -1 1 -1 1 0 1 -1 
1 0 1 -1 1 -1 1 0 1 -1 1 -1 1 0 1 -1 
1 0 1 -1 1 -1 1 0 1 -1 1 0 1 -1 1 -1 
1 0 1 -1 1 0 1 -1 1 0 1 -1 1 -1 1 0 
1 -1 1 0 1 -1 1 -1 1 0 1 -1 1 0 1 -1 
1 0 1 -1 1 -1 -1 0 -1 1 -1 1 -1 0 1 0 
0 0 1 -1 1 0 1 -1 1 0 1 -1 1 0 1 -1 
1 -1 1 0 1 -1 1 -1 1 0 1 -1 1 0 1 -1 
1 0 1 -1 1 0 1 -1 1 -1 1 0 1 -1 1 0 
1 -1 1 0 1 -1 1 0 -1 0 2 -2 2 0 1 -1 
1 0 1 -1 1 -1 1 0 1 -1 1 -1 2 0 1 -1 
1 -1 1 0 2 -1 1 -1 1 0 2 -1 1 -1 1 -1 
2 -1 1 0 2 -1 1 -1 2 -1 1 -1 2 -1 2 0 
1 -1 2 -1 2 -1 1 -1 2 -1 2 -1 2 -1 1 -1 
2 -1 2 -1 2 -1 2 -1 2 -1 2 -1 2 -1 2 -1 
2 -1 2 -1 2 -1 2 -1 2 -1 2 -1 2 -1 2 -1 
3 -1 2 -1 2 -2 2 -1 3 -1 2 -1 2 -1 3 -1 
2 -1 2 -2 3 -1 2 -1 3 -1 2 -1 3 -1 2 -2 
3 -1 2 -1 3 -1 2 -1 3 -1 2 -2 3 -1 2 -1 
3 -1 3 -1 2 -2 3 -1 3 -1 2 -1 3 -1 3 -1 
3 -2 2 -1 3 -1 3 -1 2 -1 3 -1 3 -2 3 -1 
2 -1 3 -1 3 -1 3 -1 3 -1 2 -1 3 -2 3 -1 
3 -1 2 -1 3 -1 3 -1 3 -1 2 -1 3 -1 3 -1 
3 -1 2 -1 3 -1 3 -1 2 -1 3 -1 3 -1 2 -1 
3 -1 3 -1 2 0 3 -1 2 -1 3 -1 2 -1 3 -1 
2 0 3 -1 2 -1 3 -1 2 0 3 -1 2 -1 2 -1 
2 0 3 -1 2 -1 2 0 2 -1 2 -1 3 0 2 -1 
2 0 2 -1 2 0 1 -1 2 0 2 -1 2 0 2 -1 
1 0 2 -1 2 0 1 0 2 -1 1 0 2 0 1 -1 
1 0 2 0 1 -1 1 0 1 0 1 -1 1 0 1 0 
1 0 1 0 1 -1 1 0 1 0 1 0 1 0 0 -1 
0 111 1233 1619 282 MP stroke
/c11 { 0.000000 1.000000 1.000000 sr} bdef
c11
0 -55 -2 0 -2 0 -1 1 -2 0 -2 0 -1 1 -2 0 
-2 0 -1 1 -2 0 -1 0 -2 0 -1 1 -2 0 -1 0 
-2 1 -1 0 -2 0 -1 1 -2 0 -1 0 -2 1 -1 0 
-2 1 -1 0 -2 0 -1 1 -1 0 -2 0 -1 1 -2 0 
-1 0 -1 1 -2 0 -1 0 -2 1 -1 0 -1 0 -2 1 
-1 0 -1 0 -2 1 -1 0 -1 1 -1 0 -2 0 -1 1 
-1 0 -2 0 -1 1 -1 0 -1 0 -2 1 -1 0 -1 1 
-1 0 -1 0 -2 1 -1 0 -1 0 -1 1 -1 0 -2 0 
-1 1 -1 0 -1 1 -1 0 -1 0 -1 1 -2 0 -1 0 
-1 1 -1 0 -1 0 -1 1 -1 0 -1 0 -1 1 -1 0 
-2 0 -1 1 -1 0 -1 1 -1 0 -1 0 -1 1 -1 0 
-1 0 -1 1 -1 0 -1 0 -1 1 -1 0 -1 0 -1 1 
-1 0 -1 1 -1 0 -1 0 -1 1 -1 0 -1 0 -1 1 
-1 0 -1 0 -1 1 -1 0 -1 0 -1 1 -1 0 -1 0 
-1 1 -1 0 -1 1 -1 0 -1 0 -1 1 -1 0 -1 1 
-1 0 -1 0 -1 1 -1 0 -1 0 -1 1 -1 0 -1 0 
-1 1 -1 0 -1 1 -1 0 -1 0 -1 1 -1 0 -1 1 
-1 0 -1 0 -1 1 -1 0 -1 1 -1 0 -1 0 -1 1 
-1 0 -1 1 -1 0 -1 0 -1 1 -1 0 -1 0 -1 1 
-1 0 -1 1 -1 0 -1 1 1 -1 1 0 1 0 1 -1 
1 0 1 -1 1 0 1 0 1 -1 1 0 1 -1 1 0 
1 0 1 -1 1 0 1 -1 1 0 1 0 1 -1 1 0 
-1 0 -1 0 -1 1 -1 0 -1 0 -1 1 -1 0 -1 1 
-1 0 -1 1 -1 0 -1 0 -1 1 -1 0 -1 0 -1 1 
-1 0 -1 1 -1 0 -1 1 -1 0 -1 1 -1 0 -1 0 
-1 1 -1 0 -1 1 -1 0 -1 0 -1 1 -1 0 -1 1 
-1 0 -1 1 -1 0 -1 0 -1 1 -1 0 -1 1 -1 0 
-1 1 -1 0 -1 0 -1 1 -1 0 -1 1 -1 0 -1 1 
-1 0 -1 1 -1 0 -1 0 -1 1 -1 0 -1 1 -1 0 
-1 1 -1 0 -1 1 -1 0 -1 0 -1 1 -1 0 -1 1 
-1 0 -1 1 -1 0 -1 0 -1 1 -1 0 -1 1 -1 1 
-1 0 -1 1 -1 0 -1 1 -2 0 -1 1 -1 0 -1 1 
-1 0 -1 0 -1 1 -1 0 -1 1 -1 0 -1 1 -1 0 
-1 1 -1 0 -1 1 -1 0 -1 1 -1 0 -1 1 -1 0 
-1 1 -1 0 -1 1 -1 0 -1 1 -1 0 -1 1 -1 0 
-1 1 -1 0 -1 1 -1 0 -1 1 -1 0 -1 1 -1 0 
-1 1 -1 0 -1 1 -1 0 -1 1 -1 0 -1 1 -1 0 
-1 1 -1 0 -1 1 1520 1570 300 MP stroke
-1 0 -1 1 -1 0 -1 1 -1 0 -1 1 -1 0 -1 1 
-1 0 -1 1 -1 0 -1 1 -1 0 -1 1 -1 0 -1 1 
-1 0 -1 1 -1 0 -1 1 -1 1 -1 0 -1 1 -1 0 
-1 1 -1 0 -1 1 -1 0 -1 1 -1 0 -1 1 -1 0 
-1 1 -1 0 -1 1 -1 0 -1 1 -1 0 -1 1 -1 1 
-1 0 -1 1 -1 0 -1 1 -1 0 -1 1 -1 0 -1 1 
-1 0 -1 1 -1 0 -1 1 -1 1 -1 0 -1 1 -1 0 
-1 1 -1 1 -1 0 -1 1 -1 0 -1 1 -1 1 -1 0 
-1 1 -1 0 -1 1 -1 0 -1 1 -1 0 -1 1 -1 0 
-1 1 -1 1 -1 0 -1 1 -1 0 -1 1 -1 0 -1 1 
-1 1 -1 0 -1 1 -1 0 -1 1 -1 0 -1 1 -1 0 
-1 1 -1 1 -1 0 -1 1 -1 0 -1 1 -1 0 -1 1 
-1 1 -1 0 -1 1 -1 0 -1 1 -1 0 -1 1 -1 1 
-1 0 -1 1 -1 0 -1 1 -1 0 1 0 -2 2 -1 0 
-1 1 -1 0 -1 1 -1 0 -1 1 -1 1 -1 0 -1 1 
-1 0 -1 1 -1 1 -1 0 -1 1 -1 0 -1 1 -1 1 
-1 0 -1 1 -1 0 -1 1 -1 0 -1 1 -1 1 -1 0 
-1 1 -1 0 -1 1 -1 1 -1 0 -1 1 -1 0 -1 1 
-1 1 -1 0 -1 1 -1 1 -1 1 -1 0 -1 1 -1 0 
-1 1 -1 1 -1 0 -1 1 -1 0 -1 1 -1 1 -1 0 
-1 1 -1 0 -1 1 -1 1 -1 0 -1 1 -1 0 -1 1 
-1 1 -1 0 -1 1 -1 1 -1 0 -1 1 -1 0 -1 1 
-1 1 -1 1 -1 0 -1 1 -1 1 -1 0 -1 1 -1 1 
-1 0 -1 1 -1 0 -1 1 -1 1 -1 0 -1 1 -1 1 
-1 0 -1 1 -1 0 -1 1 -1 1 -1 0 -1 1 -1 1 
-1 0 -1 1 -1 0 1 0 -2 2 -1 0 -1 1 -1 1 
-1 0 -1 1 -1 0 -1 1 -1 1 -1 0 -1 1 -1 1 
-1 0 -1 1 -1 1 -1 0 -1 1 -1 1 -1 0 -1 1 
-1 0 -1 1 -1 1 -1 0 -1 1 -1 1 -1 1 -1 1 
-1 0 -1 1 -1 0 -1 1 -1 1 -1 0 -1 1 -1 1 
-1 0 -1 1 -1 1 -1 0 -1 1 -1 1 -1 0 -1 1 
-1 1 -1 0 -1 1 -1 1 -1 1 -1 0 -1 1 -1 1 
-1 0 -1 1 -1 1 -1 0 -1 1 -1 1 -1 0 -1 1 
-1 1 -1 0 -1 1 -1 1 -1 1 -1 0 -1 1 -1 1 
-1 0 -1 1 -1 1 -1 1 -1 0 -1 1 -1 1 -1 0 
-1 1 -1 1 -1 0 -1 1 -1 1 -1 1 -1 0 -1 1 
-1 1 -1 0 -1 1 -1 1 -1 0 -1 1 -1 1 -1 1 
-1 1 -1 0 -1 1 1817 1387 300 MP stroke
-1 1 -1 0 -1 1 -1 1 -1 0 -1 1 -1 1 -1 0 
-1 1 -1 1 -1 1 -1 0 -1 1 -1 1 -1 0 1 0 
-2 2 -1 0 -1 1 -1 1 -1 0 -1 1 -1 1 -1 0 
-1 1 -1 1 -1 1 -1 0 -1 1 -1 1 -1 0 -1 1 
-1 1 -1 0 1 0 -2 2 -1 0 -1 1 -1 1 -1 0 
-1 1 -1 1 -1 1 -1 0 -1 1 -1 1 -1 0 -1 1 
-1 1 -1 1 -1 0 -1 1 -1 1 -1 0 1 0 -2 2 
-1 0 -1 1 -1 1 -1 1 -1 0 -1 1 -1 1 -1 0 
-1 1 -1 1 -1 1 -1 0 -1 1 -1 1 -1 1 -1 0 
-1 1 -1 1 -1 1 -1 1 -1 0 -1 1 -1 1 -1 1 
-1 0 -1 1 -1 1 -1 0 -1 1 -1 1 -1 1 -1 0 
-1 1 -1 1 -1 1 -1 1 -1 1 -1 0 -1 1 -1 1 
-1 1 -1 0 -1 1 -1 1 -1 1 -1 0 -1 1 -1 1 
-1 0 -1 1 -1 1 -1 1 -1 1 -1 1 -1 0 -1 1 
-1 1 -1 1 -1 0 -1 1 -1 1 -1 1 -1 0 -1 1 
-1 1 -1 1 -1 1 -1 1 -1 0 -1 1 -1 1 -1 1 
-1 0 -1 1 -1 1 -1 1 -1 0 -1 1 -1 1 -1 1 
-1 0 0 1 -2 2 -1 0 -1 1 -1 1 -1 1 -1 0 
-1 1 -1 1 -1 1 -1 0 -1 1 -1 1 -1 1 -1 0 
-1 1 -1 1 -1 1 -1 1 -1 1 -1 1 -1 0 -1 1 
-1 1 -1 1 -1 0 -1 1 -1 1 -1 1 -1 0 0 1 
-2 2 -1 0 -1 1 -1 1 -1 1 -1 0 -1 1 -1 1 
-1 1 -1 1 -1 0 -1 1 -1 1 -1 1 -1 0 1 0 
-2 2 -1 0 -1 1 -1 1 -1 1 -1 1 -1 0 -1 1 
-1 1 -1 1 -1 1 -1 0 -1 1 -1 1 -1 1 -1 1 
-1 1 -1 1 -1 0 -1 1 -1 1 -1 1 -1 1 -1 0 
-1 1 -1 1 -1 1 -1 0 0 1 -2 2 -1 0 -1 1 
-1 1 -1 1 -1 1 -1 0 -1 1 -1 1 -1 1 -1 1 
-1 0 -1 1 -1 1 -1 1 -1 1 -1 1 -1 1 -1 0 
-1 1 -1 1 -1 1 -1 1 -1 1 -1 0 -1 1 -1 1 
-1 1 -1 1 -1 1 -1 1 -1 0 -1 1 -1 1 -1 1 
-1 1 -1 1 -1 0 -1 1 -1 1 -1 1 -1 1 -1 1 
-1 1 -1 1 -1 0 -1 1 -1 1 -1 1 -1 1 -1 0 
-1 1 -1 1 -1 1 -1 1 -1 1 -1 1 -1 1 -1 1 
-1 0 -1 1 -1 1 -1 1 -1 1 -1 0 -1 1 -1 1 
-1 1 -1 1 -1 1 -1 1 -1 1 -1 1 -1 0 -1 1 
-1 1 -1 1 -1 1 -1 1 -1 0 -1 1 -1 1 -1 1 
-1 1 -1 1 -1 1 2112 1152 300 MP stroke
-1 1 -1 1 -1 0 -1 1 -1 1 -1 1 -1 1 -1 1 
-1 0 0 1 -2 2 -1 0 -1 1 -1 1 -1 1 -1 1 
-1 1 -1 1 -1 0 -1 1 -1 1 -1 1 -1 1 -1 1 
-1 1 -1 1 -1 1 -1 1 -1 0 -1 1 -1 1 -1 1 
-1 1 -1 1 -1 0 1 0 -2 2 -1 1 -1 1 -1 0 
-1 1 -1 1 -1 1 -1 1 -1 1 -1 1 -1 0 -1 1 
-1 1 -1 1 -1 1 -1 1 -1 1 -1 1 -1 1 -1 1 
-1 0 -1 1 -1 1 -1 1 -1 1 -1 1 -1 1 -1 1 
-1 1 -1 1 -1 1 -1 0 -1 1 -1 1 -1 1 -1 1 
-1 1 -1 1 -1 1 -1 1 -1 1 -1 1 -1 0 -1 1 
-1 1 -1 1 -1 1 -1 1 -1 1 -1 1 -1 1 -1 1 
-1 1 -1 1 -1 0 -1 1 -1 1 -1 1 -1 1 -1 1 
-1 1 -1 1 -1 1 -1 1 -1 1 -1 1 -1 0 -1 1 
-1 1 -1 1 -1 1 -1 1 -1 1 -1 1 -1 1 -1 1 
-1 1 -1 1 -1 1 -1 0 -1 1 -1 1 -1 1 -1 1 
-1 1 -1 1 -1 1 -1 1 -1 1 -1 1 -1 1 -1 1 
-1 0 -1 1 0 1 -2 2 -1 1 -1 0 -1 1 -1 1 
-1 1 -1 1 -1 1 -1 1 -1 1 -1 1 -1 1 -1 1 
-1 1 -1 1 -1 1 -1 1 -1 0 -1 1 -1 1 -1 1 
-1 1 -1 1 -1 1 -1 1 -1 1 -1 1 -1 1 -1 1 
-1 1 -1 1 -1 1 -1 1 -1 0 -1 1 -1 1 0 1 
-2 2 -1 1 -1 0 -1 1 -1 1 -1 1 -1 1 -1 1 
-1 1 -1 1 -1 1 -1 1 -1 1 -1 1 -1 1 -1 0 
1 0 -2 2 -1 1 -1 1 -1 1 -1 1 -1 1 -1 0 
-1 1 -1 1 -1 1 -1 1 -1 1 -1 1 -1 1 -1 1 
-1 1 -1 1 -1 1 -1 1 -1 1 -1 1 -1 1 -1 1 
-1 1 -1 1 -1 1 -1 1 -1 1 -1 1 -1 1 -1 0 
0 1 -2 2 -1 1 -1 1 -1 1 -1 1 -1 1 -1 0 
-1 1 -1 1 -1 1 -1 1 0 1 -2 2 -1 1 -1 0 
-1 1 -1 1 -1 1 -1 1 -1 1 -1 1 -1 1 -1 1 
-1 1 -1 1 -1 1 -1 1 -1 1 -1 1 -1 1 -1 1 
-1 1 -1 1 -1 1 -1 1 -1 1 -1 1 -1 1 -1 1 
-1 1 -1 1 -1 1 -1 1 -1 1 -1 1 -1 1 -1 1 
-1 1 -1 1 -1 1 -1 1 -1 1 -1 1 -1 1 -1 1 
-1 1 -1 1 -1 1 -1 1 -1 1 -1 1 -1 1 -1 1 
-1 1 -1 1 -1 1 -1 1 -1 1 -1 1 -1 1 -1 1 
-1 1 -1 1 -1 1 -1 1 -1 1 -1 1 -1 1 -1 1 
-1 1 -1 1 -1 1 2409 872 300 MP stroke
-1 1 -1 1 -1 1 -1 1 -1 1 -1 1 -1 1 -1 1 
-1 1 -1 1 -1 1 -1 1 -1 1 -1 1 -1 1 -1 1 
-1 1 -1 1 -1 1 -1 1 -1 1 -1 1 -1 1 -1 1 
-1 1 0 1 -2 2 -1 0 0 1 -2 2 -1 0 0 1 
-2 2 -1 1 -1 1 -1 1 -1 0 -1 1 0 1 -2 2 
-1 1 -1 1 -1 1 0 1 0 0 1 -1 0 -1 2 -2 
1 -1 1 -1 1 -1 1 -1 1 -1 1 -1 1 -1 1 -1 
1 -1 1 -1 1 -1 1 -1 1 -1 1 -1 1 -1 1 -1 
1 -1 1 -1 1 -1 1 -1 1 -1 1 -1 1 -1 1 -1 
1 -1 1 -1 1 -1 1 -1 1 -1 1 -1 1 -1 1 -1 
1 -1 1 -1 1 -1 1 -1 1 -1 1 -1 1 -1 1 -1 
1 -1 1 -1 1 -1 1 -1 1 -1 1 -1 1 -1 1 -1 
1 -1 1 -1 1 -1 1 -1 1 -1 1 -1 1 -1 1 -1 
1 -1 1 -1 1 -1 0 -1 2 -2 1 0 0 -1 2 -2 
1 0 1 -1 1 -1 1 -1 1 -1 1 -1 1 -1 1 -1 
1 -1 1 -1 1 -1 1 -1 1 -1 1 -1 1 -1 1 -1 
1 -1 1 -1 1 -1 1 -1 1 -1 1 -1 1 -1 1 -1 
1 -1 1 -1 1 -1 1 -1 1 -1 1 -1 1 -1 1 -1 
1 -1 1 -1 1 -1 1 -1 1 -1 1 -1 1 -1 1 -1 
1 -1 1 -1 1 -1 1 -1 1 -1 1 -1 1 -1 1 -1 
1 -1 1 -1 1 -1 1 -1 1 -1 1 -1 1 -1 1 -1 
1 -1 1 -1 1 -1 1 -1 1 -1 1 -1 1 -1 1 -1 
1 -1 1 0 1 -1 1 -1 1 -1 1 -1 1 -1 1 -1 
1 -1 1 -1 1 -1 1 -1 1 -1 1 -1 1 -1 1 -1 
1 -1 1 -1 1 -1 1 -1 1 -1 1 -1 1 -1 1 -1 
1 -1 1 -1 1 -1 1 -1 1 -1 1 -1 1 -1 1 0 
1 -1 1 -1 1 -1 1 -1 1 -1 1 -1 1 -1 1 -1 
1 -1 1 -1 1 -1 1 -1 1 -1 1 -1 1 -1 1 -1 
1 -1 1 -1 1 -1 1 0 1 -1 1 -1 1 -1 1 -1 
1 -1 1 -1 1 -1 1 -1 1 -1 1 -1 1 -1 1 -1 
1 -1 1 -1 1 -1 1 -1 1 -1 1 0 1 -1 1 -1 
1 -1 1 -1 1 -1 1 -1 1 -1 1 -1 1 -1 1 -1 
1 -1 1 -1 1 -1 1 -1 1 -1 1 -1 1 0 1 -1 
1 -1 1 -1 1 -1 1 -1 1 -1 1 -1 1 -1 1 -1 
1 -1 1 -1 1 -1 1 -1 1 0 1 -1 1 -1 1 -1 
1 -1 1 -1 1 -1 1 -1 1 -1 1 -1 1 -1 1 -1 
1 -1 1 0 1 -1 1 -1 1 -1 1 -1 1 -1 1 -1 
1 -1 1 -1 1 -1 2198 1075 300 MP stroke
1 -1 1 -1 1 0 1 -1 1 -1 1 -1 1 -1 1 -1 
1 -1 1 -1 1 -1 1 -1 1 0 1 -1 1 -1 1 -1 
1 -1 1 -1 1 -1 1 -1 1 -1 1 -1 1 -1 1 0 
1 -1 1 -1 1 -1 1 -1 1 -1 1 -1 1 -1 1 -1 
1 -1 1 -1 1 0 1 -1 1 -1 1 -1 1 -1 1 -1 
1 -1 1 -1 1 -1 1 -1 1 0 1 -1 1 -1 1 -1 
1 -1 1 -1 1 -1 1 -1 1 0 1 -1 1 -1 1 -1 
1 -1 1 -1 1 -1 1 -1 1 -1 1 -1 1 0 1 -1 
1 -1 1 -1 1 -1 1 -1 1 -1 1 -1 1 0 1 -1 
1 -1 1 -1 1 -1 1 -1 1 -1 1 -1 1 0 1 -1 
1 -1 1 -1 1 -1 1 -1 1 -1 1 -1 1 -1 1 0 
1 -1 1 -1 1 -1 1 -1 1 -1 1 -1 1 -1 1 0 
1 -1 1 -1 1 -1 1 -1 1 -1 1 -1 1 0 1 -1 
1 -1 1 -1 1 -1 1 -1 1 -1 1 0 1 -1 1 -1 
1 -1 1 -1 1 -1 1 -1 1 0 1 -1 1 -1 1 -1 
1 -1 1 -1 1 -1 1 0 1 -1 1 -1 1 -1 1 -1 
1 -1 1 -1 1 -1 1 0 1 -1 1 -1 1 -1 1 -1 
1 -1 1 0 1 -1 1 -1 1 -1 1 -1 1 -1 1 -1 
1 0 1 -1 1 -1 1 -1 1 -1 1 -1 1 0 1 -1 
1 -1 1 -1 1 -1 1 -1 1 -1 1 0 1 -1 1 -1 
1 -1 1 -1 1 0 1 -1 1 -1 1 -1 1 -1 1 -1 
1 -1 1 0 1 -1 1 -1 1 -1 1 -1 1 0 1 -1 
1 -1 1 -1 1 -1 1 -1 1 0 1 -1 1 -1 1 -1 
1 -1 1 -1 1 0 1 -1 1 -1 1 -1 1 -1 1 -1 
1 0 1 -1 1 -1 1 -1 1 -1 1 0 1 -1 1 -1 
1 -1 1 -1 1 0 1 -1 1 -1 1 -1 1 -1 1 -1 
1 0 1 -1 1 -1 1 -1 1 -1 1 0 1 -1 1 -1 
1 -1 1 -1 1 0 1 -1 1 -1 1 -1 1 -1 1 0 
1 -1 1 -1 1 -1 1 -1 1 -1 1 0 1 -1 1 -1 
1 -1 1 -1 1 0 1 -1 1 -1 1 -1 1 -1 1 0 
1 -1 1 -1 1 -1 1 0 1 -1 1 -1 1 -1 1 -1 
1 0 1 -1 1 -1 1 -1 1 -1 1 0 1 -1 1 -1 
1 -1 1 0 1 -1 1 -1 1 -1 1 -1 1 0 1 -1 
1 -1 1 -1 1 -1 1 0 1 -1 1 -1 1 -1 1 0 
1 -1 1 -1 1 -1 1 -1 1 0 1 -1 1 -1 1 -1 
1 0 1 -1 1 -1 1 -1 1 -1 1 0 1 -1 1 -1 
1 -1 1 0 1 -1 1 -1 1 -1 1 0 1 -1 1 -1 
1 -1 1 0 1 -1 1899 1326 300 MP stroke
1 -1 1 -1 1 -1 1 0 1 -1 1 -1 1 -1 1 0 
1 -1 1 -1 1 -1 1 0 1 -1 1 -1 1 -1 1 0 
1 -1 1 -1 1 -1 1 0 1 -1 1 -1 1 -1 1 0 
1 -1 1 -1 1 -1 1 0 1 -1 1 -1 1 -1 1 0 
1 -1 1 -1 1 -1 1 0 1 -1 1 -1 1 -1 1 0 
1 -1 1 -1 1 0 1 -1 1 -1 1 -1 1 0 1 -1 
1 -1 1 -1 1 0 1 -1 1 -1 1 -1 1 0 1 -1 
1 -1 1 -1 1 0 1 -1 1 -1 1 0 1 -1 1 -1 
1 -1 1 0 1 -1 1 -1 1 -1 1 0 1 -1 1 -1 
1 0 1 -1 1 -1 1 -1 1 0 1 -1 1 -1 1 0 
1 -1 1 -1 1 -1 1 0 1 -1 1 -1 1 0 1 -1 
1 -1 1 0 1 -1 1 -1 1 -1 1 0 1 -1 1 -1 
1 -1 1 0 1 -1 1 -1 1 0 1 -1 1 -1 1 0 
1 -1 1 -1 1 -1 1 0 1 -1 1 -1 1 0 1 -1 
1 -1 1 0 1 -1 1 -1 1 -1 1 0 1 -1 1 -1 
1 0 1 -1 1 -1 1 0 1 -1 1 -1 1 0 1 -1 
1 -1 1 0 1 -1 1 -1 1 -1 1 0 1 -1 1 -1 
1 0 1 -1 1 -1 1 0 1 -1 1 -1 1 0 1 -1 
1 -1 1 0 1 -1 1 -1 1 0 1 -1 1 -1 1 0 
1 -1 1 -1 1 0 1 -1 1 -1 1 0 1 -1 1 -1 
1 0 1 -1 1 -1 1 0 1 -1 1 -1 1 0 1 -1 
1 -1 1 0 1 -1 1 -1 1 0 1 -1 1 -1 1 0 
1 -1 1 -1 1 0 1 -1 1 -1 1 0 1 -1 1 -1 
1 0 1 -1 1 0 1 -1 1 -1 1 0 1 -1 1 -1 
1 0 1 -1 1 -1 1 0 1 -1 1 -1 1 0 1 -1 
1 -1 1 0 1 -1 1 0 1 -1 1 -1 1 0 1 -1 
1 -1 1 0 1 -1 1 -1 1 0 1 -1 1 0 1 -1 
1 -1 1 0 1 -1 1 -1 1 0 1 -1 1 0 1 -1 
1 -1 1 0 1 -1 1 0 1 -1 1 -1 1 0 1 -1 
1 -1 1 0 1 -1 1 0 1 -1 1 -1 1 0 1 -1 
1 -1 1 0 1 -1 1 0 1 -1 1 -1 1 0 1 -1 
1 0 1 -1 1 -1 1 0 1 -1 1 0 1 -1 1 -1 
1 0 1 -1 1 -1 1 0 1 -1 1 0 1 -1 1 0 
1 -1 1 -1 1 0 1 -1 1 0 1 -1 1 -1 1 0 
1 -1 1 0 1 -1 1 -1 1 0 1 -1 1 0 1 -1 
1 0 1 -1 1 -1 1 0 1 -1 1 0 1 -1 1 -1 
1 0 1 -1 1 0 1 -1 1 0 1 -1 1 -1 1 0 
1 -1 1 0 1 -1 1600 1527 300 MP stroke
1 -1 1 0 1 -1 1 0 1 -1 1 0 1 -1 1 0 
1 -1 1 -1 1 0 1 -1 1 0 1 -1 1 0 1 -1 
1 0 1 -1 1 -1 1 0 1 -1 1 0 1 -1 1 0 
1 -1 1 0 1 -1 1 -1 1 0 1 -1 1 0 1 -1 
1 0 1 -1 1 0 1 -1 1 -1 1 0 1 -1 1 0 
1 -1 1 0 1 -1 1 0 1 -1 1 0 1 -1 1 0 
1 -1 1 -1 1 0 1 0 1 -1 1 -1 1 0 1 -1 
1 0 1 -1 1 0 1 -1 1 0 1 -1 1 0 1 -1 
1 0 1 -1 1 0 1 -1 1 0 1 -1 1 0 1 -1 
1 0 1 -1 1 -1 1 0 1 -1 1 0 1 -1 1 0 
1 -1 1 0 1 -1 1 0 1 -1 1 0 1 -1 1 0 
1 -1 1 0 1 -1 1 0 1 -1 1 0 1 -1 1 0 
1 -1 1 0 1 -1 1 0 1 -1 1 0 1 -1 1 0 
1 -1 1 0 1 -1 1 0 1 -1 1 0 1 0 1 -1 
1 0 1 -1 1 0 1 -1 1 0 1 -1 1 0 1 -1 
1 0 1 -1 1 0 1 -1 1 0 1 -1 1 0 1 -1 
1 0 1 0 1 -1 1 -1 1 0 1 0 1 -1 1 0 
1 -1 1 0 1 -1 1 0 1 0 1 -1 1 0 1 -1 
1 0 1 -1 1 0 1 -1 1 0 1 -1 1 0 1 -1 
1 0 1 -1 2 0 1 -1 1 0 1 -1 1 0 1 -1 
2 0 1 -1 1 0 1 -1 2 0 1 -1 1 0 2 -1 
1 -1 1 0 1 -1 2 0 1 -1 2 0 1 -1 1 -1 
2 0 1 -1 2 0 1 -1 1 -1 2 0 1 -1 2 0 
1 -1 2 0 1 -1 2 -1 1 0 2 -1 1 0 2 -1 
1 -1 2 0 1 -1 2 0 2 -1 1 -1 2 0 1 -1 
2 -1 2 0 1 -1 2 0 1 -1 2 -1 2 0 1 -1 
2 0 2 -1 1 -1 2 0 2 -1 1 0 2 -1 2 0 
1 -1 2 -1 2 0 1 -1 2 0 2 -1 1 0 2 -1 
2 -1 1 0 2 -1 2 0 2 -1 1 0 2 -1 2 0 
1 -1 2 0 2 -1 1 -1 2 0 2 -1 1 0 2 -1 
2 0 1 -1 2 0 1 0 2 -1 2 0 1 -1 2 0 
1 -1 2 0 2 -1 1 0 2 0 1 -1 2 0 1 -1 
2 0 1 -1 2 0 1 0 2 -1 1 0 2 0 1 -1 
1 0 2 0 1 -1 1 0 2 0 1 -1 1 0 2 0 
1 -1 1 0 2 0 1 0 1 -1 1 0 1 0 1 0 
2 -1 1 0 1 0 1 0 1 -1 1 0 1 0 1 0 
1 0 1 -1 1 0 1 0 1 0 1 0 1 -1 1 0 
1 0 1 0 1 0 1238 1673 300 MP stroke
1 -1 1 0 1 0 1 0 1 0 0 55 1233 1619 7 MP stroke
/c12 { 1.000000 0.000000 0.000000 sr} bdef
c12
0 -11 -1 0 -2 0 -1 0 -1 0 -1 1 -1 0 -1 0 
-1 0 -2 0 -1 0 -1 0 -1 1 -1 0 -1 0 -1 0 
-1 0 -1 0 -1 0 -1 1 -1 0 -1 0 -1 0 -1 0 
-1 0 -1 1 -1 0 -1 0 -1 0 -1 0 -1 0 -1 1 
-1 0 -1 0 -1 0 -1 0 -1 1 -1 0 -1 0 -1 0 
-1 0 -1 1 -1 0 -1 0 -1 0 -1 0 -1 1 -1 0 
-1 0 -1 0 -1 1 -1 0 -1 0 -1 0 -1 0 -1 1 
-1 0 -1 0 -1 0 -1 1 -1 0 -1 0 -1 0 -1 1 
1 0 1 -1 1 0 1 0 1 0 1 -1 1 0 1 0 
1 0 1 -1 1 0 1 0 1 0 1 -1 1 0 1 0 
1 0 1 0 1 -1 1 0 1 0 1 0 1 0 1 -1 
1 0 1 0 1 0 1 0 1 -1 1 0 -1 0 -1 0 
-1 1 -1 0 -1 0 -1 0 -1 0 -1 1 -1 0 -1 0 
-1 0 -1 0 -1 1 -1 0 -1 0 -1 0 -1 1 -1 0 
-1 0 -1 0 -1 0 -1 1 -1 0 -1 0 -1 0 -1 1 
-1 0 -1 0 -1 0 -1 1 -1 0 -1 0 -1 0 -1 1 
-1 0 -1 0 -1 0 -1 1 -1 0 -1 0 -1 0 -1 1 
-1 0 -1 0 -1 0 -1 1 -1 0 -1 0 -1 1 -1 0 
-1 0 -1 0 -1 1 -1 0 -1 0 -1 1 -1 0 -1 0 
-1 0 -1 1 -1 0 -1 0 -1 1 -1 0 -1 0 -1 0 
-1 1 -1 0 -1 0 -1 1 -1 0 -1 0 -1 1 -1 0 
-1 0 -1 1 -1 0 -1 0 -1 1 -1 0 -1 0 -1 1 
-2 0 -1 0 -1 1 -1 0 -1 0 -1 1 -1 0 -1 0 
-1 1 -1 0 -1 1 -1 0 -1 0 -2 1 -1 0 -1 0 
-1 1 -1 0 -1 1 -1 0 -1 0 -2 1 -1 0 -1 1 
-1 0 -1 0 -1 1 -2 0 -1 1 -1 0 -1 1 -1 0 
-1 0 -2 1 -1 0 -1 1 -1 0 -1 1 -2 0 -1 1 
-1 0 -1 0 -1 1 -2 0 -1 1 -1 0 -1 1 -1 0 
-1 1 -2 0 -1 1 -1 0 -1 1 -1 0 -2 1 -1 0 
-1 0 -1 1 -1 0 -1 1 -2 0 -1 1 -1 0 -1 1 
-1 0 -1 1 -2 0 -1 1 -1 0 -1 1 -1 0 -1 1 
-1 0 -2 1 -1 0 -1 1 -1 0 -1 0 -1 1 -1 0 
-2 1 -1 0 -1 1 -1 0 -1 1 -1 0 -1 1 -1 0 
-1 1 -2 0 -1 1 -1 0 -1 1 -1 0 -1 1 -1 0 
-1 1 -1 0 -1 1 -1 0 -2 1 -1 0 -1 1 -1 0 
-1 1 -1 0 -1 0 -1 1 -1 0 -1 1 -1 0 -1 1 
-1 0 -1 1 -1 0 -2 1 -1 0 -1 1 -1 0 -1 1 
-1 0 -1 1 -1 0 1489 1548 300 MP stroke
-1 1 -1 0 -1 1 -1 0 -1 1 -1 0 -1 1 -1 0 
-1 1 -1 0 -1 1 -1 0 -1 1 -1 0 -1 1 -1 0 
-1 1 -1 0 -1 1 -1 0 -1 1 -1 0 -1 1 -1 0 
-1 1 -1 0 -1 1 -1 0 -1 1 -1 0 -1 1 -1 0 
-1 1 -1 0 -1 1 -1 0 -1 1 -1 0 -1 1 -1 0 
-1 1 -1 0 -1 1 -1 0 -1 1 -1 0 -1 1 -1 0 
-1 1 -1 0 -1 1 -1 0 -1 1 -1 0 -1 1 -1 0 
-1 1 -1 0 -1 1 -1 0 -1 1 -1 0 -1 1 -1 1 
-1 0 -1 1 -1 0 -1 1 -1 0 -1 1 -1 0 -1 1 
-1 0 -1 1 -1 0 -1 1 -1 0 -1 1 -1 0 -1 1 
-1 1 -1 0 -1 1 -1 0 -1 1 -1 0 -1 1 -1 0 
-1 1 -1 0 -1 1 -1 0 -1 1 -1 1 -1 0 -1 1 
-1 0 -1 1 -1 0 -1 1 -1 0 -1 1 -1 1 -1 0 
-1 1 -1 0 -1 1 -1 0 -1 1 -1 0 -1 1 -1 0 
-1 1 -1 1 -1 0 -1 1 -1 0 -1 1 -1 0 -1 1 
-1 1 -1 0 -1 1 -1 1 -1 0 -1 1 -1 0 -1 1 
-1 1 -1 0 -1 1 -1 0 -1 1 -1 0 -1 1 -1 1 
-1 0 -1 1 -1 0 -1 1 -1 0 -1 1 -1 1 -1 0 
-1 1 -1 0 -1 1 -1 0 -1 1 -1 1 -1 0 -1 1 
-1 0 -1 1 -1 1 -1 0 -1 1 -1 0 -1 1 -1 0 
-1 1 -1 1 -1 0 -1 1 -1 0 -1 1 -1 1 -1 1 
-1 0 -1 1 -1 0 -1 1 -1 1 -1 0 -1 1 -1 0 
-1 1 -1 1 -1 0 -1 1 -1 0 -1 1 -1 1 -1 0 
-1 1 -1 0 -1 1 -1 1 -1 0 -1 1 -1 1 -1 0 
-1 1 -1 0 -1 1 -1 1 -1 0 -1 1 -1 0 -1 1 
-1 1 -1 1 -1 0 -1 1 -1 1 -1 0 -1 1 -1 0 
-1 1 -1 1 -1 0 -1 1 -1 1 -1 0 -1 1 -1 0 
-1 1 -1 1 -1 0 -1 1 -1 0 -1 1 -1 1 -1 0 
-1 1 -1 1 -1 0 -1 1 -1 1 -1 0 -1 1 -1 1 
-1 1 -1 0 -1 1 -1 0 -1 1 -1 1 -1 0 -1 1 
-1 1 -1 0 -1 1 -1 1 -1 0 -1 1 -1 0 -1 1 
-1 1 -1 0 -1 1 -1 1 -1 0 -1 1 -1 1 -1 0 
-1 1 -1 1 -1 1 -1 0 -1 1 -1 1 -1 0 -1 1 
-1 1 -1 0 -1 1 -1 1 -1 0 -1 1 -1 0 -1 1 
-1 1 -1 0 -1 1 -1 1 -1 0 -1 1 -1 1 -1 0 
1 0 -2 2 -1 0 -1 1 -1 1 -1 0 -1 1 -1 1 
-1 0 -1 1 -1 1 -1 0 -1 1 -1 1 -1 0 -1 1 
-1 1 -1 0 -1 1 1787 1372 300 MP stroke
-1 1 -1 0 -1 1 -1 1 -1 1 -1 0 -1 1 -1 1 
-1 0 -1 1 -1 1 -1 0 -1 1 -1 1 -1 0 -1 1 
-1 1 -1 1 -1 0 -1 1 -1 1 -1 0 -1 1 -1 1 
-1 0 -1 1 -1 1 -1 1 -1 1 -1 0 -1 1 -1 1 
-1 0 -1 1 -1 1 -1 0 -1 1 -1 1 -1 0 -1 1 
-1 1 -1 0 -1 1 -1 1 -1 1 -1 1 -1 0 -1 1 
-1 1 -1 1 -1 0 -1 1 -1 1 -1 0 -1 1 -1 1 
-1 0 -1 1 -1 1 -1 1 -1 0 -1 1 -1 1 -1 0 
1 0 -2 2 -1 0 -1 1 -1 1 -1 0 -1 1 -1 1 
-1 1 -1 0 -1 1 -1 1 -1 0 -1 1 -1 1 -1 0 
-1 1 -1 1 -1 1 -1 0 1 0 -2 2 -1 0 -1 1 
-1 1 -1 0 -1 1 -1 1 -1 1 -1 0 -1 1 -1 1 
-1 0 -1 1 -1 1 -1 1 -1 0 -1 1 -1 1 -1 1 
-1 1 -1 0 -1 1 -1 1 -1 1 -1 0 -1 1 -1 1 
-1 1 -1 0 -1 1 -1 1 -1 0 -1 1 -1 1 -1 1 
-1 1 -1 1 -1 0 -1 1 -1 1 -1 1 -1 0 -1 1 
-1 1 -1 1 -1 0 -1 1 -1 1 -1 1 -1 0 -1 1 
-1 1 -1 1 -1 1 -1 0 -1 1 -1 1 -1 1 -1 0 
-1 1 -1 1 -1 1 -1 0 -1 1 -1 1 -1 1 -1 0 
-1 1 -1 1 -1 1 -1 1 -1 1 -1 0 -1 1 -1 1 
-1 1 -1 0 -1 1 -1 1 -1 1 -1 0 -1 1 -1 1 
-1 1 -1 1 -1 1 -1 1 -1 0 -1 1 -1 1 -1 1 
-1 0 -1 1 -1 1 -1 1 -1 0 -1 1 -1 1 -1 1 
-1 0 1 0 -2 2 -1 0 -1 1 -1 1 -1 1 -1 1 
-1 0 -1 1 -1 1 -1 1 -1 0 -1 1 -1 1 -1 1 
-1 0 1 0 -2 2 -1 1 -1 0 -1 1 -1 1 -1 1 
-1 0 -1 1 -1 1 -1 1 -1 1 -1 0 -1 1 -1 1 
-1 1 -1 1 -1 1 -1 0 -1 1 -1 1 -1 1 -1 1 
-1 0 -1 1 -1 1 -1 1 -1 1 -1 0 -1 1 -1 1 
-1 1 -1 1 -1 1 -1 1 -1 0 -1 1 -1 1 -1 1 
-1 1 -1 0 -1 1 -1 1 -1 1 -1 0 1 0 -2 2 
-1 1 -1 0 -1 1 -1 1 -1 1 -1 1 -1 0 -1 1 
-1 1 -1 1 -1 1 -1 0 -1 1 -1 1 -1 1 -1 1 
-1 1 -1 1 -1 0 -1 1 -1 1 -1 1 -1 1 -1 1 
-1 0 -1 1 -1 1 -1 1 -1 1 -1 1 -1 1 -1 0 
-1 1 -1 1 -1 1 -1 1 -1 1 -1 0 -1 1 -1 1 
-1 1 -1 1 -1 1 -1 1 -1 1 -1 0 -1 1 -1 1 
-1 1 -1 1 -1 0 2081 1144 300 MP stroke
-1 1 -1 1 -1 1 -1 1 -1 1 -1 1 -1 1 -1 1 
-1 0 -1 1 -1 1 -1 1 -1 1 -1 1 -1 0 -1 1 
-1 1 -1 1 -1 1 -1 1 -1 1 -1 1 -1 0 -1 1 
-1 1 -1 1 -1 1 -1 1 -1 0 0 1 -2 2 -1 0 
-1 1 -1 1 -1 1 -1 1 -1 1 -1 0 -1 1 -1 1 
-1 1 -1 1 -1 1 -1 1 -1 1 -1 1 -1 1 -1 0 
-1 1 -1 1 -1 1 -1 1 -1 1 -1 0 -1 1 -1 1 
-1 1 -1 1 -1 1 -1 1 -1 1 -1 1 -1 1 -1 0 
-1 1 -1 1 -1 1 -1 1 -1 1 -1 1 -1 1 -1 1 
-1 1 -1 0 -1 1 -1 1 -1 1 -1 1 -1 1 -1 1 
-1 0 1 0 -2 2 -1 1 -1 0 -1 1 -1 1 -1 1 
-1 1 -1 1 -1 1 -1 0 -1 1 0 1 -2 2 -1 0 
-1 1 -1 1 -1 1 -1 1 -1 1 -1 1 -1 0 -1 1 
-1 1 -1 1 -1 1 -1 1 -1 1 -1 1 -1 1 -1 1 
-1 1 -1 0 -1 1 -1 1 -1 1 -1 1 -1 1 -1 1 
-1 1 -1 1 -1 1 -1 1 -1 1 -1 0 -1 1 -1 1 
-1 1 -1 1 -1 1 -1 1 -1 1 -1 1 -1 1 -1 1 
-1 1 -1 0 -1 1 -1 1 -1 1 -1 1 -1 1 -1 1 
-1 1 -1 1 -1 1 -1 1 -1 1 -1 1 -1 1 -1 0 
-1 1 -1 1 -1 1 -1 1 -1 1 -1 1 -1 1 -1 1 
-1 1 -1 1 -1 1 -1 1 -1 1 -1 0 -1 1 -1 1 
-1 1 0 1 -2 2 -1 0 -1 1 -1 1 -1 1 -1 1 
-1 1 -1 1 -1 1 -1 1 -1 1 -1 1 -1 0 -1 1 
-1 1 0 1 -2 2 -1 1 -1 0 -1 1 -1 1 -1 1 
-1 1 -1 1 -1 1 -1 1 -1 1 -1 1 -1 1 -1 1 
-1 0 -1 1 -1 1 0 1 -2 2 -1 1 -1 1 -1 0 
-1 1 -1 1 -1 1 -1 1 -1 1 -1 1 -1 1 -1 1 
-1 1 -1 1 -1 1 -1 1 -1 1 -1 1 -1 1 -1 1 
-1 1 -1 0 -1 1 0 1 -2 2 -1 1 -1 0 -1 1 
-1 1 -1 1 -1 1 -1 1 -1 1 -1 1 -1 1 -1 1 
-1 1 -1 1 -1 1 -1 1 -1 1 -1 1 -1 1 -1 1 
-1 1 -1 1 -1 1 -1 1 -1 1 -1 1 -1 1 -1 1 
-1 1 -1 1 -1 1 -1 0 1 0 -2 2 -1 1 -1 1 
-1 0 1 0 -2 2 -1 1 -1 0 0 1 -2 2 -1 0 
0 1 -2 2 -1 0 -1 1 -1 1 -1 1 -1 1 -1 1 
-1 1 -1 1 -1 1 -1 1 -1 1 -1 1 -1 1 -1 1 
-1 1 -1 1 -1 1 -1 1 -1 1 -1 1 -1 1 -1 1 
-1 1 -1 1 -1 1 2377 869 300 MP stroke
-1 1 -1 1 -1 1 -1 1 -1 1 -1 1 -1 1 -1 1 
-1 1 -1 1 -1 1 -1 1 -1 1 -1 1 -1 1 -1 1 
-1 1 -1 1 -1 1 -1 1 -1 1 -1 1 -1 1 -1 1 
-1 1 -1 1 -1 1 -1 1 -1 1 -1 1 -1 1 -1 1 
-1 1 -1 1 -1 1 -1 1 -1 1 -1 1 -1 1 -1 1 
-1 1 0 1 0 0 1 -1 1 -1 1 -1 1 -1 1 -1 
1 -1 1 -1 1 -1 1 -1 1 -1 1 -1 1 -1 1 -1 
1 -1 1 -1 1 -1 1 -1 1 -1 1 -1 1 -1 1 -1 
1 -1 1 -1 1 -1 1 -1 1 -1 1 -1 1 -1 1 -1 
1 -1 1 -1 1 -1 1 -1 1 -1 1 -1 1 -1 1 -1 
1 -1 1 -1 1 -1 1 -1 1 -1 1 -1 1 -1 1 -1 
1 -1 1 -1 1 -1 1 -1 1 -1 1 -1 1 -1 1 -1 
1 -1 1 -1 1 -1 1 -1 1 -1 1 -1 1 -1 1 -1 
1 -1 1 -1 1 -1 1 -1 1 -1 1 -1 1 -1 1 -1 
1 -1 1 -1 1 -1 1 -1 1 -1 1 -1 1 -1 1 -1 
1 -1 1 -1 1 -1 1 -1 1 -1 1 -1 1 -1 1 -1 
1 -1 1 0 -1 0 2 -2 1 -1 1 0 1 -1 1 -1 
1 -1 1 -1 1 -1 1 -1 1 -1 1 -1 1 -1 1 -1 
1 -1 1 -1 1 -1 1 -1 1 -1 1 -1 1 -1 1 -1 
1 -1 1 -1 1 -1 1 -1 1 -1 1 -1 1 -1 1 -1 
1 -1 1 -1 1 -1 1 0 1 -1 1 -1 1 -1 1 -1 
1 -1 1 -1 1 -1 1 -1 1 -1 1 -1 1 -1 1 -1 
1 -1 1 -1 1 -1 1 -1 1 -1 1 -1 1 -1 1 -1 
1 -1 1 -1 1 -1 1 0 1 -1 1 -1 1 -1 1 -1 
1 -1 1 -1 1 -1 1 -1 1 -1 1 -1 1 -1 1 -1 
1 -1 1 -1 1 -1 1 -1 1 0 1 -1 1 -1 1 -1 
1 -1 1 -1 1 -1 1 -1 1 -1 1 -1 1 -1 1 -1 
1 -1 1 -1 1 -1 1 -1 1 -1 1 0 1 -1 1 -1 
1 -1 1 -1 1 -1 1 -1 1 -1 1 -1 1 -1 1 -1 
1 -1 1 -1 1 -1 1 0 1 -1 1 -1 1 -1 1 -1 
1 -1 1 -1 1 -1 1 -1 1 -1 1 -1 1 -1 1 -1 
1 -1 1 0 1 -1 1 -1 1 -1 1 -1 1 -1 1 -1 
1 -1 1 -1 1 -1 1 -1 1 0 1 -1 1 -1 1 -1 
1 -1 1 -1 1 -1 1 -1 1 -1 1 -1 1 -1 1 0 
1 -1 1 -1 1 -1 1 -1 1 -1 1 -1 1 -1 1 -1 
1 -1 1 -1 1 0 1 -1 1 -1 1 -1 1 -1 1 -1 
1 -1 1 -1 1 -1 1 -1 1 0 1 -1 1 -1 1 -1 
1 -1 1 -1 1 -1 2163 1071 300 MP stroke
1 -1 1 -1 1 -1 1 -1 1 0 1 -1 1 -1 1 -1 
1 -1 1 -1 1 -1 1 -1 1 -1 1 0 1 -1 1 -1 
1 -1 1 -1 1 -1 1 -1 1 -1 1 -1 1 0 1 -1 
1 -1 1 -1 1 -1 1 -1 1 -1 1 -1 1 0 1 -1 
1 -1 1 -1 1 -1 1 -1 1 -1 1 -1 1 -1 1 0 
1 -1 1 -1 1 -1 1 -1 1 -1 1 -1 1 -1 1 -1 
1 0 1 -1 1 -1 1 -1 1 -1 1 -1 1 -1 1 -1 
1 0 1 -1 1 -1 1 -1 1 -1 1 -1 1 -1 1 0 
1 -1 1 -1 1 -1 1 -1 1 -1 1 -1 1 0 1 -1 
1 -1 1 -1 1 -1 1 -1 1 -1 1 0 1 -1 1 -1 
1 -1 1 -1 1 -1 1 -1 1 0 1 -1 1 -1 1 -1 
1 -1 1 -1 1 -1 1 0 1 -1 1 -1 1 -1 1 -1 
1 -1 1 -1 1 0 1 -1 1 -1 1 -1 1 -1 1 -1 
1 -1 1 0 1 -1 1 -1 1 -1 1 -1 1 0 1 -1 
1 -1 1 -1 1 -1 1 -1 1 -1 1 0 1 -1 1 -1 
1 -1 1 -1 1 -1 1 0 1 -1 1 -1 1 -1 1 -1 
1 -1 1 0 1 -1 1 -1 1 -1 1 -1 1 -1 1 0 
1 -1 1 -1 1 -1 1 -1 1 -1 1 0 1 -1 1 -1 
1 -1 1 -1 1 0 1 -1 1 -1 1 -1 1 -1 1 -1 
1 -1 1 0 1 -1 1 -1 1 -1 1 -1 1 0 1 -1 
1 -1 1 -1 1 -1 1 0 1 -1 1 -1 1 -1 1 -1 
1 -1 1 0 1 -1 1 -1 1 -1 1 -1 1 0 1 -1 
1 -1 1 -1 1 -1 1 0 1 -1 1 -1 1 -1 1 -1 
1 0 1 -1 1 -1 1 -1 1 -1 1 -1 1 0 1 -1 
1 -1 1 -1 1 0 1 -1 1 -1 1 -1 1 -1 1 0 
1 -1 1 -1 1 -1 1 -1 1 0 1 -1 1 -1 1 -1 
1 -1 1 0 1 -1 1 -1 1 -1 1 -1 1 0 1 -1 
1 -1 1 -1 1 0 1 -1 1 -1 1 -1 1 -1 1 0 
1 -1 1 -1 1 -1 1 -1 1 0 1 -1 1 -1 1 -1 
1 0 1 -1 1 -1 1 -1 1 -1 1 0 1 -1 1 -1 
1 -1 1 0 1 -1 1 -1 1 -1 1 -1 1 0 1 -1 
1 -1 1 -1 1 0 1 -1 1 -1 1 -1 1 0 1 -1 
1 -1 1 -1 1 0 1 -1 1 -1 1 -1 1 -1 1 0 
1 -1 1 -1 1 -1 1 0 1 -1 1 -1 1 -1 1 0 
1 -1 1 -1 1 -1 1 0 1 -1 1 -1 1 -1 1 0 
1 -1 1 -1 1 -1 1 0 1 -1 1 -1 1 0 1 -1 
1 -1 1 -1 1 0 1 -1 1 -1 1 -1 1 -1 1 0 
1 -1 1 -1 1 -1 1864 1317 300 MP stroke
1 0 1 -1 1 -1 1 0 1 -1 1 -1 1 -1 1 0 
1 -1 1 -1 1 -1 1 0 1 -1 1 -1 1 0 1 -1 
1 -1 1 -1 1 0 1 -1 1 -1 1 -1 1 0 1 -1 
1 -1 1 0 1 -1 1 -1 1 -1 1 0 1 -1 1 -1 
1 -1 1 0 1 -1 1 -1 1 0 1 -1 1 -1 1 -1 
1 0 1 -1 1 -1 1 0 1 -1 1 -1 1 -1 1 0 
1 -1 1 -1 1 0 1 -1 1 -1 1 0 1 -1 1 -1 
1 -1 1 0 1 -1 1 -1 1 0 1 -1 1 -1 1 -1 
1 0 1 -1 1 -1 1 0 1 -1 1 -1 1 0 1 -1 
1 -1 1 -1 1 0 1 -1 1 -1 1 0 1 -1 1 -1 
1 0 1 -1 1 -1 1 0 1 -1 1 -1 1 -1 1 0 
1 -1 1 -1 1 0 1 -1 1 -1 1 0 1 -1 1 -1 
1 0 1 -1 1 -1 1 0 1 -1 1 -1 1 -1 1 0 
1 -1 1 0 1 -1 1 -1 1 0 1 -1 1 -1 1 -1 
1 0 1 -1 1 0 1 -1 1 -1 1 -1 1 0 1 -1 
1 -1 1 0 1 -1 1 -1 1 0 1 -1 1 -1 1 0 
1 -1 1 -1 1 0 1 -1 1 0 1 -1 1 -1 1 0 
1 -1 1 -1 1 0 1 -1 1 -1 1 0 1 -1 1 -1 
1 0 1 -1 1 -1 1 0 1 -1 1 -1 1 0 1 -1 
1 0 1 -1 1 -1 1 0 1 -1 1 -1 1 0 1 -1 
1 -1 1 0 1 -1 1 0 1 -1 1 -1 1 0 1 -1 
1 -1 1 0 1 -1 1 -1 1 0 1 -1 1 0 1 -1 
1 -1 1 0 1 -1 1 -1 1 0 1 -1 1 0 1 -1 
1 -1 1 0 1 -1 1 -1 1 0 1 -1 1 -1 1 0 
1 -1 1 0 1 -1 1 -1 1 0 1 -1 1 0 1 -1 
1 -1 1 0 1 -1 1 -1 1 0 1 -1 1 0 1 -1 
1 -1 1 0 1 -1 1 0 1 -1 1 -1 1 0 1 -1 
1 0 1 -1 1 0 1 -1 1 -1 1 0 1 -1 1 0 
1 -1 1 -1 1 0 1 -1 1 -1 1 0 1 -1 1 0 
1 -1 1 0 1 -1 1 -1 1 0 1 -1 1 0 1 -1 
1 -1 1 0 1 -1 1 0 1 -1 1 0 1 -1 1 -1 
1 0 1 -1 1 0 1 -1 1 0 1 -1 1 -1 1 0 
1 -1 1 0 1 -1 1 0 1 -1 1 0 1 -1 1 -1 
1 0 1 -1 1 0 1 -1 1 0 1 -1 1 -1 1 0 
1 -1 1 0 1 -1 1 0 1 -1 1 -1 1 0 1 -1 
1 0 1 -1 1 0 1 -1 1 0 1 -1 1 -1 1 0 
1 0 1 -1 1 -1 1 0 1 -1 1 0 1 -1 1 0 
1 -1 1 0 1 -1 1565 1509 300 MP stroke
1 -1 1 0 1 -1 1 0 1 -1 1 0 1 -1 1 0 
1 -1 1 0 1 -1 1 0 1 -1 1 0 1 -1 1 -1 
1 0 1 -1 1 0 1 -1 1 0 1 -1 1 0 1 -1 
1 0 1 -1 1 0 1 -1 1 0 1 -1 1 0 1 -1 
1 0 1 -1 1 0 1 -1 1 0 1 -1 1 0 1 -1 
1 0 1 -1 1 0 1 -1 1 0 1 -1 1 0 1 -1 
1 0 1 -1 1 0 1 -1 1 0 1 -1 1 0 1 -1 
1 0 1 -1 1 0 1 -1 1 0 1 -1 1 0 1 -1 
1 0 1 -1 1 0 1 -1 1 0 1 -1 1 0 1 0 
1 -1 1 0 1 -1 1 0 1 -1 1 0 1 -1 1 0 
1 -1 1 0 1 -1 1 0 1 -1 1 0 1 -1 1 0 
1 -1 1 0 1 0 1 -1 1 0 1 -1 1 0 1 -1 
1 0 1 -1 1 0 1 -1 1 0 1 0 1 -1 1 0 
1 -1 1 0 1 -1 1 0 1 -1 1 0 1 0 1 -1 
1 0 1 -1 1 0 1 -1 1 0 1 -1 1 0 1 0 
1 -1 1 0 1 -1 1 0 1 0 1 -1 1 0 1 -1 
1 0 1 -1 1 0 1 0 1 -1 1 0 1 -1 1 0 
1 0 1 -1 1 0 1 -1 1 0 1 -1 1 0 1 0 
1 -1 1 0 1 -1 1 0 1 0 1 -1 1 0 1 -1 
1 0 1 0 1 -1 1 0 1 0 1 -1 1 0 1 -1 
1 0 1 -1 1 0 1 0 1 -1 1 0 1 -1 1 0 
1 0 1 -1 1 0 1 0 1 -1 1 0 1 -1 1 0 
1 0 1 -1 1 0 1 0 1 -1 1 0 1 0 1 -1 
1 0 1 -1 1 0 1 0 1 -1 1 0 1 0 1 -1 
1 0 1 0 1 -1 1 0 1 0 1 -1 1 0 1 -1 
1 0 1 0 1 -1 1 0 1 0 1 -1 1 0 1 0 
1 0 1 -1 1 0 1 0 1 -1 1 0 1 0 1 -1 
1 0 1 0 1 -1 1 0 1 0 1 -1 1 0 1 0 
1 -1 1 0 1 0 1 0 1 -1 1 0 1 0 1 -1 
1 0 1 0 1 -1 1 0 1 0 1 0 1 -1 1 0 
1 0 1 -1 1 0 1 0 1 -1 1 0 1 0 1 0 
1 -1 1 0 1 0 1 0 1 -1 1 0 1 0 1 -1 
1 0 1 0 1 0 1 -1 1 0 1 0 1 0 1 -1 
1 0 1 0 1 0 1 -1 1 0 1 0 1 0 1 -1 
1 0 1 0 1 0 1 -1 1 0 1 0 1 0 1 0 
1 -1 1 0 1 0 1 0 1 0 1 -1 1 0 1 0 
1 0 1 -1 1 0 1 0 1 0 1 0 1 -1 1 0 
1 0 1 0 1 0 1266 1625 300 MP stroke
1 -1 1 0 1 0 1 0 1 0 1 0 1 -1 1 0 
1 0 1 0 1 0 1 0 1 0 1 -1 1 0 1 0 
1 0 1 0 1 0 1 -1 1 0 1 0 1 0 1 0 
1 0 1 0 1 0 1 -1 1 0 1 0 1 0 1 0 
1 0 0 11 1233 1619 35 MP stroke
gr

20.8333 w
c12
0 sg
%%IncludeResource: font Helvetica
/Helvetica /ISOLatin1Encoding 83.3333 FMSR

 829 4558 mt 
( ) s
5067  602 mt 
( ) s
12.5 w
%%IncludeResource: font Helvetica-Bold
/Helvetica-Bold /ISOLatin1Encoding 125 FMSR

3381 3016 mt 
(Surface Energy = 25 J/m) s
%%IncludeResource: font Helvetica-Bold
/Helvetica-Bold /ISOLatin1Encoding 100 FMSR

4827 2954 mt 
(2) s
gs 3056 2827 1939 1410 rc
20.8333 w
c8
250 0 3105 2956 2 MP stroke
gr

20.8333 w
c8
0 sg
%%IncludeResource: font Helvetica-Bold
/Helvetica-Bold /ISOLatin1Encoding 125 FMSR

3381 3246 mt 
(Surface Energy = 10 J/m) s
%%IncludeResource: font Helvetica-Bold
/Helvetica-Bold /ISOLatin1Encoding 100 FMSR

4827 3184 mt 
(2) s
gs 3056 2827 1939 1410 rc
250 0 3105 3186 2 MP stroke
gr

%%IncludeResource: font Helvetica-Bold
/Helvetica-Bold /ISOLatin1Encoding 125 FMSR

3381 3476 mt 
(Surface Energy = 5 J/m) s
%%IncludeResource: font Helvetica-Bold
/Helvetica-Bold /ISOLatin1Encoding 100 FMSR

4758 3414 mt 
(2) s
gs 3056 2827 1939 1410 rc
c9
250 0 3105 3416 2 MP stroke
gr

c9
0 sg
%%IncludeResource: font Helvetica-Bold
/Helvetica-Bold /ISOLatin1Encoding 125 FMSR

3381 3706 mt 
(Surface Energy = 1 J/m) s
%%IncludeResource: font Helvetica-Bold
/Helvetica-Bold /ISOLatin1Encoding 100 FMSR

4758 3644 mt 
(2) s
gs 3056 2827 1939 1410 rc
c10
250 0 3105 3646 2 MP stroke
gr

c10
0 sg
%%IncludeResource: font Helvetica-Bold
/Helvetica-Bold /ISOLatin1Encoding 125 FMSR

3381 3936 mt 
(Surface Energy = 0.5 J/m) s
%%IncludeResource: font Helvetica-Bold
/Helvetica-Bold /ISOLatin1Encoding 100 FMSR

4862 3874 mt 
(2) s
gs 3056 2827 1939 1410 rc
c11
250 0 3105 3876 2 MP stroke
gr

c11
0 sg
%%IncludeResource: font Helvetica-Bold
/Helvetica-Bold /ISOLatin1Encoding 125 FMSR

3381 4166 mt 
(Surface Energy = 0.1 J/m) s
%%IncludeResource: font Helvetica-Bold
/Helvetica-Bold /ISOLatin1Encoding 100 FMSR

4862 4104 mt 
(2) s
gs 3056 2827 1939 1410 rc
c12
250 0 3105 4106 2 MP stroke
12.5 w
gr

12.5 w
c12

end %%Color Dict

eplot
%%EndObject

epage
end

showpage

%%Trailer
%%EOF
