%!PS-Adobe-3.0 EPSF-3.0
%%Creator: MATLAB, The MathWorks, Inc. Version 7.12.0.635 (R2011a). Operating System: Linux 2.6.32-358.6.2.el6.x86_64 #1 SMP Thu May 16 11:21:38 CDT 2013 x86_64.
%%Title: ./UC_StressStain_SE_0_1_Old.eps
%%CreationDate: 08/14/2013  11:48:52
%%DocumentNeededFonts: Helvetica-Bold
%%+ Helvetica
%%DocumentProcessColors: Cyan Magenta Yellow Black
%%LanguageLevel: 2
%%Pages: 1
%%BoundingBox:    24    69   606   602
%%EndComments

%%BeginProlog
% MathWorks dictionary
/MathWorks 160 dict begin
% definition operators
/bdef {bind def} bind def
/ldef {load def} bind def
/xdef {exch def} bdef
/xstore {exch store} bdef
% operator abbreviations
/c  /clip ldef
/cc /concat ldef
/cp /closepath ldef
/gr /grestore ldef
/gs /gsave ldef
/mt /moveto ldef
/np /newpath ldef
/cm /currentmatrix ldef
/sm /setmatrix ldef
/rm /rmoveto ldef
/rl /rlineto ldef
/s {show newpath} bdef
/sc {setcmykcolor} bdef
/sr /setrgbcolor ldef
/sg /setgray ldef
/w /setlinewidth ldef
/j /setlinejoin ldef
/cap /setlinecap ldef
/rc {rectclip} bdef
/rf {rectfill} bdef
% page state control
/pgsv () def
/bpage {/pgsv save def} bdef
/epage {pgsv restore} bdef
/bplot /gsave ldef
/eplot {stroke grestore} bdef
% orientation switch
/portraitMode 0 def /landscapeMode 1 def /rotateMode 2 def
% coordinate system mappings
/dpi2point 0 def
% font control
/FontSize 0 def
/FMS {/FontSize xstore findfont [FontSize 0 0 FontSize neg 0 0]
  makefont setfont} bdef
/reencode {exch dup where {pop load} {pop StandardEncoding} ifelse
  exch dup 3 1 roll findfont dup length dict begin
  { 1 index /FID ne {def}{pop pop} ifelse } forall
  /Encoding exch def currentdict end definefont pop} bdef
/isroman {findfont /CharStrings get /Agrave known} bdef
/FMSR {3 1 roll 1 index dup isroman {reencode} {pop pop} ifelse
  exch FMS} bdef
/csm {1 dpi2point div -1 dpi2point div scale neg translate
 dup landscapeMode eq {pop -90 rotate}
  {rotateMode eq {90 rotate} if} ifelse} bdef
% line types: solid, dotted, dashed, dotdash
/SO { [] 0 setdash } bdef
/DO { [.5 dpi2point mul 4 dpi2point mul] 0 setdash } bdef
/DA { [6 dpi2point mul] 0 setdash } bdef
/DD { [.5 dpi2point mul 4 dpi2point mul 6 dpi2point mul 4
  dpi2point mul] 0 setdash } bdef
% macros for lines and objects
/L {lineto stroke} bdef
/MP {3 1 roll moveto 1 sub {rlineto} repeat} bdef
/AP {{rlineto} repeat} bdef
/PDlw -1 def
/W {/PDlw currentlinewidth def setlinewidth} def
/PP {closepath eofill} bdef
/DP {closepath stroke} bdef
/MR {4 -2 roll moveto dup  0 exch rlineto exch 0 rlineto
  neg 0 exch rlineto closepath} bdef
/FR {MR stroke} bdef
/PR {MR fill} bdef
/L1i {{currentfile picstr readhexstring pop} image} bdef
/tMatrix matrix def
/MakeOval {newpath tMatrix currentmatrix pop translate scale
0 0 1 0 360 arc tMatrix setmatrix} bdef
/FO {MakeOval stroke} bdef
/PO {MakeOval fill} bdef
/PD {currentlinewidth 2 div 0 360 arc fill
   PDlw -1 eq not {PDlw w /PDlw -1 def} if} def
/FA {newpath tMatrix currentmatrix pop translate scale
  0 0 1 5 -2 roll arc tMatrix setmatrix stroke} bdef
/PA {newpath tMatrix currentmatrix pop	translate 0 0 moveto scale
  0 0 1 5 -2 roll arc closepath tMatrix setmatrix fill} bdef
/FAn {newpath tMatrix currentmatrix pop translate scale
  0 0 1 5 -2 roll arcn tMatrix setmatrix stroke} bdef
/PAn {newpath tMatrix currentmatrix pop translate 0 0 moveto scale
  0 0 1 5 -2 roll arcn closepath tMatrix setmatrix fill} bdef
/vradius 0 def /hradius 0 def /lry 0 def
/lrx 0 def /uly 0 def /ulx 0 def /rad 0 def
/MRR {/vradius xdef /hradius xdef /lry xdef /lrx xdef /uly xdef
  /ulx xdef newpath tMatrix currentmatrix pop ulx hradius add uly
  vradius add translate hradius vradius scale 0 0 1 180 270 arc 
  tMatrix setmatrix lrx hradius sub uly vradius add translate
  hradius vradius scale 0 0 1 270 360 arc tMatrix setmatrix
  lrx hradius sub lry vradius sub translate hradius vradius scale
  0 0 1 0 90 arc tMatrix setmatrix ulx hradius add lry vradius sub
  translate hradius vradius scale 0 0 1 90 180 arc tMatrix setmatrix
  closepath} bdef
/FRR {MRR stroke } bdef
/PRR {MRR fill } bdef
/MlrRR {/lry xdef /lrx xdef /uly xdef /ulx xdef /rad lry uly sub 2 div def
  newpath tMatrix currentmatrix pop ulx rad add uly rad add translate
  rad rad scale 0 0 1 90 270 arc tMatrix setmatrix lrx rad sub lry rad
  sub translate rad rad scale 0 0 1 270 90 arc tMatrix setmatrix
  closepath} bdef
/FlrRR {MlrRR stroke } bdef
/PlrRR {MlrRR fill } bdef
/MtbRR {/lry xdef /lrx xdef /uly xdef /ulx xdef /rad lrx ulx sub 2 div def
  newpath tMatrix currentmatrix pop ulx rad add uly rad add translate
  rad rad scale 0 0 1 180 360 arc tMatrix setmatrix lrx rad sub lry rad
  sub translate rad rad scale 0 0 1 0 180 arc tMatrix setmatrix
  closepath} bdef
/FtbRR {MtbRR stroke } bdef
/PtbRR {MtbRR fill } bdef
/stri 6 array def /dtri 6 array def
/smat 6 array def /dmat 6 array def
/tmat1 6 array def /tmat2 6 array def /dif 3 array def
/asub {/ind2 exch def /ind1 exch def dup dup
  ind1 get exch ind2 get sub exch } bdef
/tri_to_matrix {
  2 0 asub 3 1 asub 4 0 asub 5 1 asub
  dup 0 get exch 1 get 7 -1 roll astore } bdef
/compute_transform {
  dmat dtri tri_to_matrix tmat1 invertmatrix 
  smat stri tri_to_matrix tmat2 concatmatrix } bdef
/ds {stri astore pop} bdef
/dt {dtri astore pop} bdef
/db {2 copy /cols xdef /rows xdef mul dup 3 mul string
  currentfile 
  3 index 0 eq {/ASCIIHexDecode filter}
  {/ASCII85Decode filter 3 index 2 eq {/RunLengthDecode filter} if }
  ifelse exch readstring pop
  dup 0 3 index getinterval /rbmap xdef
  dup 2 index dup getinterval /gbmap xdef
  1 index dup 2 mul exch getinterval /bbmap xdef pop pop}bdef
/it {gs np dtri aload pop moveto lineto lineto cp c
  cols rows 8 compute_transform 
  rbmap gbmap bbmap true 3 colorimage gr}bdef
/il {newpath moveto lineto stroke}bdef
currentdict end def
%%EndProlog

%%BeginSetup
MathWorks begin

0 cap

end
%%EndSetup

%%Page: 1 1
%%BeginPageSetup
%%PageBoundingBox:    24    69   606   602
MathWorks begin
bpage
%%EndPageSetup

%%BeginObject: obj1
bplot

/dpi2point 8.33333 def
portraitMode -0158 5475 csm

  366   455  4848  4445 rc
84 dict begin %Colortable dictionary
/c0 { 0.000000 0.000000 0.000000 sr} bdef
/c1 { 1.000000 1.000000 1.000000 sr} bdef
/c2 { 0.900000 0.000000 0.000000 sr} bdef
/c3 { 0.000000 0.820000 0.000000 sr} bdef
/c4 { 0.000000 0.000000 0.800000 sr} bdef
/c5 { 0.910000 0.820000 0.320000 sr} bdef
/c6 { 1.000000 0.260000 0.820000 sr} bdef
/c7 { 0.000000 0.820000 0.820000 sr} bdef
c0
1 j
1 sg
   0    0 5651 5651 rf
12.5 w
0 3955 4237 0 0 -3955 848 4520 4 MP
PP
-4237 0 0 3955 4237 0 0 -3955 848 4520 5 MP stroke
8.33333 w
DO
SO
12.5 w
0.1 sg
 848 4520 mt 5085 4520 L
 848  565 mt 5085  565 L
 848 4520 mt  848  565 L
5085 4520 mt 5085  565 L
 848 4520 mt 5085 4520 L
 848 4520 mt  848  565 L
 848 4520 mt  848 4456 L
 848  565 mt  848  628 L
%%IncludeResource: font Helvetica
/Helvetica /ISOLatin1Encoding 133.333 FMSR

 811 4668 mt 
(0) s
1695 4520 mt 1695 4456 L
1695  565 mt 1695  628 L
1566 4668 mt 
(0.02) s
2542 4520 mt 2542 4456 L
2542  565 mt 2542  628 L
2413 4668 mt 
(0.04) s
3390 4520 mt 3390 4456 L
3390  565 mt 3390  628 L
3261 4668 mt 
(0.06) s
4237 4520 mt 4237 4456 L
4237  565 mt 4237  628 L
4108 4668 mt 
(0.08) s
5085 4520 mt 5085 4456 L
5085  565 mt 5085  628 L
4993 4668 mt 
(0.1) s
 848 4520 mt  911 4520 L
5085 4520 mt 5021 4520 L
 750 4569 mt 
(0) s
 848 3201 mt  911 3201 L
5085 3201 mt 5021 3201 L
 639 3250 mt 
(0.5) s
 848 1883 mt  911 1883 L
5085 1883 mt 5021 1883 L
 750 1932 mt 
(1) s
 848  565 mt  911  565 L
5085  565 mt 5021  565 L
 639  614 mt 
(1.5) s
 848 4520 mt 5085 4520 L
 848  565 mt 5085  565 L
 848 4520 mt  848  565 L
5085 4520 mt 5085  565 L
gs 848 565 4238 3956 rc
20.8333 w
0 sg
11 -46 10 -20 11 -26 11 -40 10 -3 11 2 10 4 11 -4 
11 28 10 -7 11 -43 11 -57 10 -28 11 -56 10 -51 11 -12 
11 -15 10 -10 11 16 10 12 11 17 11 42 10 20 11 7 
11 22 10 -1 11 3 10 -4 11 15 11 2 10 13 11 16 
10 38 11 23 11 23 10 30 11 24 11 37 10 31 11 39 
10 17 11 23 11 -6 10 1 11 -4 11 6 10 -14 11 -26 
10 2 11 -4 11 -1 10 -13 11 15 10 -12 11 11 11 -1 
10 39 11 38 11 45 10 32 11 51 10 5 11 21 11 25 
10 -8 11 -3 11 34 10 9 11 0 10 9 11 20 11 14 
10 21 11 17 10 34 11 17 11 20 10 -1 11 -3 11 26 
10 14 11 -1 10 14 11 31 11 12 10 21 11 32 11 32 
10 6 11 30 10 25 11 31 11 22 10 49 11 13 10 34 
11 25 11 22 10 12 11 22 11 -17 10 -9 11 6 10 -6 
11 10 11 30 10 21 11 15 11 34 10 6 11 -4 10 2 
11 -8 11 -17 10 -25 11 -5 10 8 11 16 11 33 10 36 
11 17 11 7 10 2 11 -27 10 -10 11 -13 11 -27 10 -27 
11 -22 11 -12 10 -4 11 7 10 3 11 11 11 11 10 7 
11 17 11 19 10 20 11 1 10 9 11 -2 11 -5 10 -2 
11 -1 10 -4 11 -23 11 -2 10 5 11 -5 11 -6 10 4 
11 -10 10 -31 11 -29 11 -13 10 -21 11 -1 11 3 10 35 
11 16 10 36 11 -9 11 15 10 -1 11 -6 10 -9 11 25 
11 -5 10 -9 11 -6 11 -28 10 -72 11 -60 10 -5 11 -2 
11 33 10 70 11 64 11 22 10 -7 11 1 10 -8 11 1 
11 -21 10 -7 11 -12 10 9 11 2 11 19 10 32 11 -9 
11 -7 10 19 11 -3 10 5 11 -6 11 10 10 -2 11 11 
11 3 10 39 11 6 10 13 11 -3 11 12 10 -3 11 4 
10 -36 11 -14 11 -16 10 5 11 -12 11 31 10 17 11 11 
10 -1 11 22 11 4 10 19 11 -1 11 4 10 15 11 -16 
10 19 11 49 11 -3 10 8 11 34 10 -17 11 -51 11 11 
10 -70 11 12 11 46 10 56 11 11 10 68 11 19 11 16 
10 18 11 65 10 40 11 6 11 -19 10 -27 11 -42 11 -39 
10 -56 11 -80 10 -21 11 14 11 6 10 38 11 66 11 16 
10 -25 11 -4 10 2 11 12 11 13 10 40 11 45 10 22 
11 -2 11 0 10 -29 11 -36 11 -29 10 -43 11 -9 10 -2 
11 -35 11 -12 10 11 11 -11 11 -29 10 10 11 -47 10 -24 
11 -53 11 -32 10 -47 11 -10 10 -58 11 -31 11 1 10 -6 
11 0 11 33 10 7 11 -29 10 -2 11 -33 11 -34 10 -10 
11 -21 11 -40 10 -4 1145 2044 300 MP stroke
11 -11 10 -31 11 -28 11 -2 10 -44 11 -29 10 -51 11 -24 
11 -79 10 -17 11 -45 11 -16 10 -58 11 -32 10 -92 11 -98 
11 -143 10 -122 11 -131 11 -133 10 -156 11 -179 10 -216 11 -222 
11 -203 10 -159 11 -87 10 -43 848 4495 29 MP stroke
gr

20.8333 w
0 sg
0.1 sg
%%IncludeResource: font Helvetica-Bold
/Helvetica-Bold /ISOLatin1Encoding 183.333 FMSR

2351 4842 mt 
(Vertical Strain) s
 559 3424 mt  -90 rotate
(Vertical Stress [kPa]) s
90 rotate
gs 848 565 4238 3956 rc
/c8 { 1.000000 0.000000 0.000000 sr} bdef
c8
10 -11 11 23 11 -8 10 -14 11 -15 11 -31 10 -24 11 -8 
11 -11 10 5 11 5 11 14 10 13 11 23 11 13 10 18 
11 11 11 0 10 0 11 -14 11 -26 11 -13 10 -5 11 10 
11 18 10 23 11 26 11 22 10 20 11 17 11 22 10 13 
11 11 11 14 10 13 11 11 11 13 10 11 11 10 11 18 
10 9 11 23 11 26 10 0 11 27 11 19 10 8 11 19 
11 38 10 -3 11 4 11 9 11 11 10 14 11 20 11 25 
10 9 11 2 11 -3 10 -3 11 -1 11 -2 10 -21 11 -16 
11 -14 10 -9 11 -12 11 -13 10 -11 11 -8 11 -7 10 3 
11 19 11 26 10 24 11 24 11 36 10 29 11 -2 11 17 
11 6 10 5 11 1 11 20 10 -35 11 -9 11 7 10 -10 
11 39 11 75 10 47 11 10 11 41 10 -23 11 -41 11 1 
10 -4 11 -10 11 7 10 17 11 -9 11 -26 10 5 11 1 
11 -2 10 4 11 12 11 -11 10 14 11 14 11 2 11 36 
10 10 11 3 11 15 10 -7 11 4 11 5 10 0 11 0 
11 11 10 -24 11 -17 11 -3 10 -15 11 2 11 20 10 19 
11 26 11 26 10 16 11 26 11 40 10 -5 11 20 11 35 
10 37 11 34 11 29 11 19 10 -20 11 -29 11 -17 10 0 
11 0 11 1 10 8 11 -6 11 2 10 -8 11 27 11 16 
10 -10 11 2 11 24 10 19 11 14 11 40 10 -2 11 -23 
11 -19 10 -28 11 -35 11 -11 10 -26 11 -13 11 -13 10 -21 
11 -4 11 23 11 -21 10 5 11 14 11 17 10 8 11 39 
11 46 10 54 11 23 11 29 10 2 11 -22 11 48 10 59 
11 51 11 79 10 89 11 19 11 1 10 16 11 -17 11 -23 
10 -52 11 11 11 -7 10 -1 11 1 11 24 11 -34 10 -22 
11 -26 11 -31 10 -4 11 -9 11 -3 10 6 11 8 11 -11 
10 5 11 13 11 3 10 13 11 -24 11 -18 10 -19 11 -19 
11 -32 10 -18 11 -27 11 -32 10 5 11 0 11 40 10 56 
11 43 11 17 10 19 11 -16 11 -13 11 -10 10 30 11 6 
11 11 10 3 11 34 11 -23 10 26 11 32 11 14 10 -12 
11 -11 11 -16 10 -15 11 -11 11 -3 10 11 11 -3 11 -33 
10 -34 11 -54 11 -27 10 -18 11 15 11 7 10 34 11 -4 
11 -57 11 -19 10 -6 11 -32 11 -29 10 40 11 -19 11 -16 
10 -46 11 -33 11 -71 10 -38 11 -28 11 7 10 -2 11 -1 
11 4 10 -45 11 -53 11 -33 10 -64 11 -67 11 6 10 3 
11 -18 11 -18 10 8 11 -36 11 -34 10 -53 11 4 11 -49 
11 -41 10 -77 11 -36 11 -55 10 -87 11 -61 11 -36 10 -41 
11 -73 11 -27 10 -51 1040 2859 300 MP stroke
11 -44 11 -73 10 -58 11 -57 11 -59 10 -83 11 -52 11 -46 
10 -77 11 -91 11 -86 10 -140 11 -138 11 -130 10 -134 11 -137 
11 -92 10 -73 848 4429 19 MP stroke
/c9 { 0.000000 0.000000 1.000000 sr} bdef
c9
10 21 11 8 11 11 10 4 11 1 11 -6 11 33 10 21 
11 28 11 24 11 30 10 13 11 8 11 14 10 10 11 33 
11 33 11 40 10 41 11 28 11 7 10 -8 11 -10 11 -24 
11 -12 10 -33 11 -9 11 -9 10 -23 11 4 11 15 11 -4 
10 -2 11 16 11 -17 10 -1 11 -5 11 -6 11 -10 10 4 
11 -7 11 -16 10 -5 11 -7 11 -30 11 -3 10 18 11 -2 
11 26 10 24 11 17 11 19 11 16 10 21 11 34 11 15 
10 17 11 48 11 36 11 24 10 26 11 30 11 16 10 -6 
11 20 11 18 11 13 10 13 11 23 11 12 10 20 11 16 
11 -3 11 16 10 -9 11 13 11 2 10 13 11 18 11 21 
11 25 10 45 11 48 11 12 10 24 11 -11 11 -22 11 -1 
10 14 11 7 11 26 10 35 11 2 11 -27 11 43 10 38 
11 28 11 43 10 67 11 16 11 7 11 -2 10 -1 11 -1 
11 5 11 -3 10 -15 11 -15 11 4 10 9 11 23 11 6 
11 40 10 17 11 3 11 19 10 61 11 -26 11 44 11 43 
10 22 11 8 11 19 10 -10 11 3 11 -30 11 31 10 55 
11 41 11 18 10 44 11 -10 11 8 11 2 10 -7 11 5 
11 4 10 -24 11 -17 11 3 11 17 10 33 11 47 11 33 
10 28 11 27 11 16 11 5 10 -12 11 -39 11 -11 10 -4 
11 11 11 4 11 37 10 -9 11 -26 11 -53 10 -21 11 -45 
11 -11 11 -8 10 42 11 56 11 68 10 23 11 26 11 23 
11 -39 10 -25 11 -12 11 -28 10 0 11 27 11 29 11 12 
10 31 11 -13 11 -7 10 3 11 34 11 29 11 40 10 15 
11 17 11 -10 10 15 11 -13 11 -2 11 -43 10 -37 11 -50 
11 -47 10 -29 11 10 11 16 11 3 10 17 11 1 11 -17 
10 -6 11 -9 11 -11 11 -7 10 9 11 -7 11 24 11 9 
10 -3 11 -4 11 -46 10 -47 11 0 11 7 11 -11 10 35 
11 21 11 -9 10 -7 11 -18 11 -40 11 -54 10 -71 11 -44 
11 -24 10 7 11 -3 11 -11 11 -49 10 -23 11 -10 11 -11 
10 4 11 40 11 -9 11 -30 10 -23 11 -11 11 -39 10 -38 
11 -44 11 -44 11 -122 10 -11 11 12 11 5 10 -12 11 82 
11 -3 11 -26 10 -19 11 8 11 -21 10 -16 11 -28 11 -6 
11 -20 10 -12 11 -38 11 -6 10 -48 11 -26 11 -35 11 -31 
10 -28 11 -18 11 -53 10 -61 11 -70 11 -55 11 -46 10 -29 
11 -23 11 7 10 -29 11 -86 11 -25 11 -18 10 -73 11 -39 
11 -24 10 -21 11 -27 11 -29 11 -47 10 -20 11 -101 11 -85 
10 -62 11 -80 11 -82 11 -104 10 -88 11 -94 11 -84 10 -98 
11 -56 11 -92 11 -104 890 4013 300 MP stroke
10 -133 11 -114 11 -104 10 -86 848 4450 5 MP stroke
gr

c9
0 sg
%%IncludeResource: font Helvetica
/Helvetica /ISOLatin1Encoding 83.3333 FMSR

 829 4558 mt 
( ) s
5067  602 mt 
( ) s
12.5 w
%%IncludeResource: font Helvetica-Bold
/Helvetica-Bold /ISOLatin1Encoding 125 FMSR

4462 1589 mt 
(100 kPa) s
gs 4137 1424 838 657 rc
20.8333 w
250 0 4186 1543 2 MP stroke
gr

20.8333 w
4462 1799 mt 
(200 kPa) s
gs 4137 1424 838 657 rc
c8
250 0 4186 1752 2 MP stroke
gr

c8
0 sg
4462 2008 mt 
(500 kPa) s
gs 4137 1424 838 657 rc
c9
250 0 4186 1960 2 MP stroke
12.5 w
gr

12.5 w
c9

end %%Color Dict

eplot
%%EndObject

epage
end

showpage

%%Trailer
%%EOF
